{
  "sentences": [
    {
      "index": 0,
      "basicDependencies": [
        {
          "dep": "ROOT",
          "governor": 0,
          "governorGloss": "ROOT",
          "dependent": 3,
          "dependentGloss": "setzt"
        },
        {
          "dep": "name",
          "governor": 2,
          "governorGloss": "Bale",
          "dependent": 1,
          "dependentGloss": "Christian"
        },
        {
          "dep": "nsubj",
          "governor": 3,
          "governorGloss": "setzt",
          "dependent": 2,
          "dependentGloss": "Bale"
        },
        {
          "dep": "case",
          "governor": 6,
          "governorGloss": "Jobs",
          "dependent": 4,
          "dependentGloss": "auf"
        },
        {
          "dep": "name",
          "governor": 6,
          "governorGloss": "Jobs",
          "dependent": 5,
          "dependentGloss": "Steve"
        },
        {
          "dep": "nmod",
          "governor": 3,
          "governorGloss": "setzt",
          "dependent": 6,
          "dependentGloss": "Jobs"
        },
        {
          "dep": "case",
          "governor": 10,
          "governorGloss": "Biopic",
          "dependent": 7,
          "dependentGloss": "in"
        },
        {
          "dep": "det",
          "governor": 10,
          "governorGloss": "Biopic",
          "dependent": 8,
          "dependentGloss": "der"
        },
        {
          "dep": "amod",
          "governor": 10,
          "governorGloss": "Biopic",
          "dependent": 9,
          "dependentGloss": "bevorstehenden"
        },
        {
          "dep": "nmod",
          "governor": 3,
          "governorGloss": "setzt",
          "dependent": 10,
          "dependentGloss": "Biopic"
        },
        {
          "dep": "case",
          "governor": 13,
          "governorGloss": "Co-Gründer",
          "dependent": 11,
          "dependentGloss": "von"
        },
        {
          "dep": "det",
          "governor": 13,
          "governorGloss": "Co-Gründer",
          "dependent": 12,
          "dependentGloss": "Apple"
        },
        {
          "dep": "nmod",
          "governor": 10,
          "governorGloss": "Biopic",
          "dependent": 13,
          "dependentGloss": "Co-Gründer"
        }
      ],
      "enhancedDependencies": [
        {
          "dep": "ROOT",
          "governor": 0,
          "governorGloss": "ROOT",
          "dependent": 3,
          "dependentGloss": "setzt"
        },
        {
          "dep": "name",
          "governor": 2,
          "governorGloss": "Bale",
          "dependent": 1,
          "dependentGloss": "Christian"
        },
        {
          "dep": "nsubj",
          "governor": 3,
          "governorGloss": "setzt",
          "dependent": 2,
          "dependentGloss": "Bale"
        },
        {
          "dep": "case",
          "governor": 6,
          "governorGloss": "Jobs",
          "dependent": 4,
          "dependentGloss": "auf"
        },
        {
          "dep": "name",
          "governor": 6,
          "governorGloss": "Jobs",
          "dependent": 5,
          "dependentGloss": "Steve"
        },
        {
          "dep": "nmod",
          "governor": 3,
          "governorGloss": "setzt",
          "dependent": 6,
          "dependentGloss": "Jobs"
        },
        {
          "dep": "case",
          "governor": 10,
          "governorGloss": "Biopic",
          "dependent": 7,
          "dependentGloss": "in"
        },
        {
          "dep": "det",
          "governor": 10,
          "governorGloss": "Biopic",
          "dependent": 8,
          "dependentGloss": "der"
        },
        {
          "dep": "amod",
          "governor": 10,
          "governorGloss": "Biopic",
          "dependent": 9,
          "dependentGloss": "bevorstehenden"
        },
        {
          "dep": "nmod",
          "governor": 3,
          "governorGloss": "setzt",
          "dependent": 10,
          "dependentGloss": "Biopic"
        },
        {
          "dep": "case",
          "governor": 13,
          "governorGloss": "Co-Gründer",
          "dependent": 11,
          "dependentGloss": "von"
        },
        {
          "dep": "det",
          "governor": 13,
          "governorGloss": "Co-Gründer",
          "dependent": 12,
          "dependentGloss": "Apple"
        },
        {
          "dep": "nmod",
          "governor": 10,
          "governorGloss": "Biopic",
          "dependent": 13,
          "dependentGloss": "Co-Gründer"
        }
      ],
      "enhancedPlusPlusDependencies": [
        {
          "dep": "ROOT",
          "governor": 0,
          "governorGloss": "ROOT",
          "dependent": 3,
          "dependentGloss": "setzt"
        },
        {
          "dep": "name",
          "governor": 2,
          "governorGloss": "Bale",
          "dependent": 1,
          "dependentGloss": "Christian"
        },
        {
          "dep": "nsubj",
          "governor": 3,
          "governorGloss": "setzt",
          "dependent": 2,
          "dependentGloss": "Bale"
        },
        {
          "dep": "case",
          "governor": 6,
          "governorGloss": "Jobs",
          "dependent": 4,
          "dependentGloss": "auf"
        },
        {
          "dep": "name",
          "governor": 6,
          "governorGloss": "Jobs",
          "dependent": 5,
          "dependentGloss": "Steve"
        },
        {
          "dep": "nmod",
          "governor": 3,
          "governorGloss": "setzt",
          "dependent": 6,
          "dependentGloss": "Jobs"
        },
        {
          "dep": "case",
          "governor": 10,
          "governorGloss": "Biopic",
          "dependent": 7,
          "dependentGloss": "in"
        },
        {
          "dep": "det",
          "governor": 10,
          "governorGloss": "Biopic",
          "dependent": 8,
          "dependentGloss": "der"
        },
        {
          "dep": "amod",
          "governor": 10,
          "governorGloss": "Biopic",
          "dependent": 9,
          "dependentGloss": "bevorstehenden"
        },
        {
          "dep": "nmod",
          "governor": 3,
          "governorGloss": "setzt",
          "dependent": 10,
          "dependentGloss": "Biopic"
        },
        {
          "dep": "case",
          "governor": 13,
          "governorGloss": "Co-Gründer",
          "dependent": 11,
          "dependentGloss": "von"
        },
        {
          "dep": "det",
          "governor": 13,
          "governorGloss": "Co-Gründer",
          "dependent": 12,
          "dependentGloss": "Apple"
        },
        {
          "dep": "nmod",
          "governor": 10,
          "governorGloss": "Biopic",
          "dependent": 13,
          "dependentGloss": "Co-Gründer"
        }
      ],
      "tokens": [
        {
          "index": 1,
          "word": "Christian",
          "originalText": "Christian",
          "characterOffsetBegin": 0,
          "characterOffsetEnd": 9,
          "pos": "NE",
          "before": "",
          "after": " "
        },
        {
          "index": 2,
          "word": "Bale",
          "originalText": "Bale",
          "characterOffsetBegin": 10,
          "characterOffsetEnd": 14,
          "pos": "NE",
          "before": " ",
          "after": " "
        },
        {
          "index": 3,
          "word": "setzt",
          "originalText": "setzt",
          "characterOffsetBegin": 15,
          "characterOffsetEnd": 20,
          "pos": "VVFIN",
          "before": " ",
          "after": " "
        },
        {
          "index": 4,
          "word": "auf",
          "originalText": "auf",
          "characterOffsetBegin": 21,
          "characterOffsetEnd": 24,
          "pos": "APPR",
          "before": " ",
          "after": " "
        },
        {
          "index": 5,
          "word": "Steve",
          "originalText": "Steve",
          "characterOffsetBegin": 25,
          "characterOffsetEnd": 30,
          "pos": "NE",
          "before": " ",
          "after": " "
        },
        {
          "index": 6,
          "word": "Jobs",
          "originalText": "Jobs",
          "characterOffsetBegin": 31,
          "characterOffsetEnd": 35,
          "pos": "NN",
          "before": " ",
          "after": " "
        },
        {
          "index": 7,
          "word": "in",
          "originalText": "in",
          "characterOffsetBegin": 36,
          "characterOffsetEnd": 38,
          "pos": "APPR",
          "before": " ",
          "after": " "
        },
        {
          "index": 8,
          "word": "der",
          "originalText": "der",
          "characterOffsetBegin": 39,
          "characterOffsetEnd": 42,
          "pos": "ART",
          "before": " ",
          "after": " "
        },
        {
          "index": 9,
          "word": "bevorstehenden",
          "originalText": "bevorstehenden",
          "characterOffsetBegin": 43,
          "characterOffsetEnd": 57,
          "pos": "ADJA",
          "before": " ",
          "after": " "
        },
        {
          "index": 10,
          "word": "Biopic",
          "originalText": "Biopic",
          "characterOffsetBegin": 58,
          "characterOffsetEnd": 64,
          "pos": "NN",
          "before": " ",
          "after": " "
        },
        {
          "index": 11,
          "word": "von",
          "originalText": "von",
          "characterOffsetBegin": 65,
          "characterOffsetEnd": 68,
          "pos": "APPR",
          "before": " ",
          "after": " "
        },
        {
          "index": 12,
          "word": "Apple",
          "originalText": "Apple",
          "characterOffsetBegin": 69,
          "characterOffsetEnd": 74,
          "pos": "NE",
          "before": " ",
          "after": " "
        },
        {
          "index": 13,
          "word": "Co-Gründer",
          "originalText": "Co-Gründer",
          "characterOffsetBegin": 75,
          "characterOffsetEnd": 85,
          "pos": "NN",
          "before": " ",
          "after": ""
        }
      ]
    }
  ]
}