{
  "sentences": [
    {
      "index": 0,
      "basicDependencies": [
        {
          "dep": "ROOT",
          "governor": 0,
          "governorGloss": "ROOT",
          "dependent": 1,
          "dependentGloss": "ISIS"
        },
        {
          "dep": "appos",
          "governor": 1,
          "governorGloss": "ISIS",
          "dependent": 2,
          "dependentGloss": "Video"
        },
        {
          "dep": "dobj",
          "governor": 5,
          "governorGloss": "zeigen",
          "dependent": 3,
          "dependentGloss": "Purports"
        },
        {
          "dep": "aux",
          "governor": 5,
          "governorGloss": "zeigen",
          "dependent": 4,
          "dependentGloss": "zu"
        },
        {
          "dep": "root",
          "governor": 2,
          "governorGloss": "Video",
          "dependent": 5,
          "dependentGloss": "zeigen"
        },
        {
          "dep": "appos",
          "governor": 5,
          "governorGloss": "zeigen",
          "dependent": 6,
          "dependentGloss": "Enthauptung"
        },
        {
          "dep": "det",
          "governor": 9,
          "governorGloss": "Aid",
          "dependent": 7,
          "dependentGloss": "der"
        },
        {
          "dep": "amod",
          "governor": 9,
          "governorGloss": "Aid",
          "dependent": 8,
          "dependentGloss": "britischen"
        },
        {
          "dep": "det",
          "governor": 6,
          "governorGloss": "Enthauptung",
          "dependent": 9,
          "dependentGloss": "Aid"
        },
        {
          "dep": "appos",
          "governor": 6,
          "governorGloss": "Enthauptung",
          "dependent": 10,
          "dependentGloss": "Worker"
        }
      ],
      "enhancedDependencies": [
        {
          "dep": "ROOT",
          "governor": 0,
          "governorGloss": "ROOT",
          "dependent": 1,
          "dependentGloss": "ISIS"
        },
        {
          "dep": "appos",
          "governor": 1,
          "governorGloss": "ISIS",
          "dependent": 2,
          "dependentGloss": "Video"
        },
        {
          "dep": "dobj",
          "governor": 5,
          "governorGloss": "zeigen",
          "dependent": 3,
          "dependentGloss": "Purports"
        },
        {
          "dep": "aux",
          "governor": 5,
          "governorGloss": "zeigen",
          "dependent": 4,
          "dependentGloss": "zu"
        },
        {
          "dep": "root",
          "governor": 2,
          "governorGloss": "Video",
          "dependent": 5,
          "dependentGloss": "zeigen"
        },
        {
          "dep": "appos",
          "governor": 5,
          "governorGloss": "zeigen",
          "dependent": 6,
          "dependentGloss": "Enthauptung"
        },
        {
          "dep": "det",
          "governor": 9,
          "governorGloss": "Aid",
          "dependent": 7,
          "dependentGloss": "der"
        },
        {
          "dep": "amod",
          "governor": 9,
          "governorGloss": "Aid",
          "dependent": 8,
          "dependentGloss": "britischen"
        },
        {
          "dep": "det",
          "governor": 6,
          "governorGloss": "Enthauptung",
          "dependent": 9,
          "dependentGloss": "Aid"
        },
        {
          "dep": "appos",
          "governor": 6,
          "governorGloss": "Enthauptung",
          "dependent": 10,
          "dependentGloss": "Worker"
        }
      ],
      "enhancedPlusPlusDependencies": [
        {
          "dep": "ROOT",
          "governor": 0,
          "governorGloss": "ROOT",
          "dependent": 1,
          "dependentGloss": "ISIS"
        },
        {
          "dep": "appos",
          "governor": 1,
          "governorGloss": "ISIS",
          "dependent": 2,
          "dependentGloss": "Video"
        },
        {
          "dep": "dobj",
          "governor": 5,
          "governorGloss": "zeigen",
          "dependent": 3,
          "dependentGloss": "Purports"
        },
        {
          "dep": "aux",
          "governor": 5,
          "governorGloss": "zeigen",
          "dependent": 4,
          "dependentGloss": "zu"
        },
        {
          "dep": "root",
          "governor": 2,
          "governorGloss": "Video",
          "dependent": 5,
          "dependentGloss": "zeigen"
        },
        {
          "dep": "appos",
          "governor": 5,
          "governorGloss": "zeigen",
          "dependent": 6,
          "dependentGloss": "Enthauptung"
        },
        {
          "dep": "det",
          "governor": 9,
          "governorGloss": "Aid",
          "dependent": 7,
          "dependentGloss": "der"
        },
        {
          "dep": "amod",
          "governor": 9,
          "governorGloss": "Aid",
          "dependent": 8,
          "dependentGloss": "britischen"
        },
        {
          "dep": "det",
          "governor": 6,
          "governorGloss": "Enthauptung",
          "dependent": 9,
          "dependentGloss": "Aid"
        },
        {
          "dep": "appos",
          "governor": 6,
          "governorGloss": "Enthauptung",
          "dependent": 10,
          "dependentGloss": "Worker"
        }
      ],
      "tokens": [
        {
          "index": 1,
          "word": "ISIS",
          "originalText": "ISIS",
          "characterOffsetBegin": 0,
          "characterOffsetEnd": 4,
          "pos": "NE",
          "before": "",
          "after": " "
        },
        {
          "index": 2,
          "word": "Video",
          "originalText": "Video",
          "characterOffsetBegin": 5,
          "characterOffsetEnd": 10,
          "pos": "NN",
          "before": " ",
          "after": " "
        },
        {
          "index": 3,
          "word": "Purports",
          "originalText": "Purports",
          "characterOffsetBegin": 11,
          "characterOffsetEnd": 19,
          "pos": "NE",
          "before": " ",
          "after": " "
        },
        {
          "index": 4,
          "word": "zu",
          "originalText": "zu",
          "characterOffsetBegin": 20,
          "characterOffsetEnd": 22,
          "pos": "PTKZU",
          "before": " ",
          "after": " "
        },
        {
          "index": 5,
          "word": "zeigen",
          "originalText": "zeigen",
          "characterOffsetBegin": 23,
          "characterOffsetEnd": 29,
          "pos": "VVINF",
          "before": " ",
          "after": " "
        },
        {
          "index": 6,
          "word": "Enthauptung",
          "originalText": "Enthauptung",
          "characterOffsetBegin": 30,
          "characterOffsetEnd": 41,
          "pos": "NN",
          "before": " ",
          "after": " "
        },
        {
          "index": 7,
          "word": "der",
          "originalText": "der",
          "characterOffsetBegin": 42,
          "characterOffsetEnd": 45,
          "pos": "ART",
          "before": " ",
          "after": " "
        },
        {
          "index": 8,
          "word": "britischen",
          "originalText": "britischen",
          "characterOffsetBegin": 46,
          "characterOffsetEnd": 56,
          "pos": "ADJA",
          "before": " ",
          "after": " "
        },
        {
          "index": 9,
          "word": "Aid",
          "originalText": "Aid",
          "characterOffsetBegin": 57,
          "characterOffsetEnd": 60,
          "pos": "NE",
          "before": " ",
          "after": " "
        },
        {
          "index": 10,
          "word": "Worker",
          "originalText": "Worker",
          "characterOffsetBegin": 61,
          "characterOffsetEnd": 67,
          "pos": "NE",
          "before": " ",
          "after": ""
        }
      ]
    }
  ]
}