{
  "sentences": [
    {
      "index": 0,
      "basicDependencies": [
        {
          "dep": "ROOT",
          "governor": 0,
          "governorGloss": "ROOT",
          "dependent": 14,
          "dependentGloss": "gefeuert"
        },
        {
          "dep": "det",
          "governor": 2,
          "governorGloss": "Mann",
          "dependent": 1,
          "dependentGloss": "Der"
        },
        {
          "dep": "nsubj",
          "governor": 14,
          "governorGloss": "gefeuert",
          "dependent": 2,
          "dependentGloss": "Mann"
        },
        {
          "dep": "punct",
          "governor": 2,
          "governorGloss": "Mann",
          "dependent": 3,
          "dependentGloss": ","
        },
        {
          "dep": "dobj",
          "governor": 10,
          "governorGloss": "überspringt",
          "dependent": 4,
          "dependentGloss": "der"
        },
        {
          "dep": "det",
          "governor": 6,
          "governorGloss": "Arbeit",
          "dependent": 5,
          "dependentGloss": "die"
        },
        {
          "dep": "nsubj",
          "governor": 10,
          "governorGloss": "überspringt",
          "dependent": 6,
          "dependentGloss": "Arbeit"
        },
        {
          "dep": "case",
          "governor": 9,
          "governorGloss": "Jahren",
          "dependent": 7,
          "dependentGloss": "seit"
        },
        {
          "dep": "nummod",
          "governor": 9,
          "governorGloss": "Jahren",
          "dependent": 8,
          "dependentGloss": "24"
        },
        {
          "dep": "nmod",
          "governor": 10,
          "governorGloss": "überspringt",
          "dependent": 9,
          "dependentGloss": "Jahren"
        },
        {
          "dep": "acl",
          "governor": 2,
          "governorGloss": "Mann",
          "dependent": 10,
          "dependentGloss": "überspringt"
        },
        {
          "dep": "punct",
          "governor": 10,
          "governorGloss": "überspringt",
          "dependent": 11,
          "dependentGloss": ","
        },
        {
          "dep": "cop",
          "governor": 14,
          "governorGloss": "gefeuert",
          "dependent": 12,
          "dependentGloss": "ist"
        },
        {
          "dep": "advmod",
          "governor": 14,
          "governorGloss": "gefeuert",
          "dependent": 13,
          "dependentGloss": "endlich"
        }
      ],
      "enhancedDependencies": [
        {
          "dep": "ROOT",
          "governor": 0,
          "governorGloss": "ROOT",
          "dependent": 14,
          "dependentGloss": "gefeuert"
        },
        {
          "dep": "det",
          "governor": 2,
          "governorGloss": "Mann",
          "dependent": 1,
          "dependentGloss": "Der"
        },
        {
          "dep": "nsubj",
          "governor": 14,
          "governorGloss": "gefeuert",
          "dependent": 2,
          "dependentGloss": "Mann"
        },
        {
          "dep": "punct",
          "governor": 2,
          "governorGloss": "Mann",
          "dependent": 3,
          "dependentGloss": ","
        },
        {
          "dep": "dobj",
          "governor": 10,
          "governorGloss": "überspringt",
          "dependent": 4,
          "dependentGloss": "der"
        },
        {
          "dep": "det",
          "governor": 6,
          "governorGloss": "Arbeit",
          "dependent": 5,
          "dependentGloss": "die"
        },
        {
          "dep": "nsubj",
          "governor": 10,
          "governorGloss": "überspringt",
          "dependent": 6,
          "dependentGloss": "Arbeit"
        },
        {
          "dep": "case",
          "governor": 9,
          "governorGloss": "Jahren",
          "dependent": 7,
          "dependentGloss": "seit"
        },
        {
          "dep": "nummod",
          "governor": 9,
          "governorGloss": "Jahren",
          "dependent": 8,
          "dependentGloss": "24"
        },
        {
          "dep": "nmod",
          "governor": 10,
          "governorGloss": "überspringt",
          "dependent": 9,
          "dependentGloss": "Jahren"
        },
        {
          "dep": "acl",
          "governor": 2,
          "governorGloss": "Mann",
          "dependent": 10,
          "dependentGloss": "überspringt"
        },
        {
          "dep": "punct",
          "governor": 10,
          "governorGloss": "überspringt",
          "dependent": 11,
          "dependentGloss": ","
        },
        {
          "dep": "cop",
          "governor": 14,
          "governorGloss": "gefeuert",
          "dependent": 12,
          "dependentGloss": "ist"
        },
        {
          "dep": "advmod",
          "governor": 14,
          "governorGloss": "gefeuert",
          "dependent": 13,
          "dependentGloss": "endlich"
        }
      ],
      "enhancedPlusPlusDependencies": [
        {
          "dep": "ROOT",
          "governor": 0,
          "governorGloss": "ROOT",
          "dependent": 14,
          "dependentGloss": "gefeuert"
        },
        {
          "dep": "det",
          "governor": 2,
          "governorGloss": "Mann",
          "dependent": 1,
          "dependentGloss": "Der"
        },
        {
          "dep": "nsubj",
          "governor": 14,
          "governorGloss": "gefeuert",
          "dependent": 2,
          "dependentGloss": "Mann"
        },
        {
          "dep": "punct",
          "governor": 2,
          "governorGloss": "Mann",
          "dependent": 3,
          "dependentGloss": ","
        },
        {
          "dep": "dobj",
          "governor": 10,
          "governorGloss": "überspringt",
          "dependent": 4,
          "dependentGloss": "der"
        },
        {
          "dep": "det",
          "governor": 6,
          "governorGloss": "Arbeit",
          "dependent": 5,
          "dependentGloss": "die"
        },
        {
          "dep": "nsubj",
          "governor": 10,
          "governorGloss": "überspringt",
          "dependent": 6,
          "dependentGloss": "Arbeit"
        },
        {
          "dep": "case",
          "governor": 9,
          "governorGloss": "Jahren",
          "dependent": 7,
          "dependentGloss": "seit"
        },
        {
          "dep": "nummod",
          "governor": 9,
          "governorGloss": "Jahren",
          "dependent": 8,
          "dependentGloss": "24"
        },
        {
          "dep": "nmod",
          "governor": 10,
          "governorGloss": "überspringt",
          "dependent": 9,
          "dependentGloss": "Jahren"
        },
        {
          "dep": "acl",
          "governor": 2,
          "governorGloss": "Mann",
          "dependent": 10,
          "dependentGloss": "überspringt"
        },
        {
          "dep": "punct",
          "governor": 10,
          "governorGloss": "überspringt",
          "dependent": 11,
          "dependentGloss": ","
        },
        {
          "dep": "cop",
          "governor": 14,
          "governorGloss": "gefeuert",
          "dependent": 12,
          "dependentGloss": "ist"
        },
        {
          "dep": "advmod",
          "governor": 14,
          "governorGloss": "gefeuert",
          "dependent": 13,
          "dependentGloss": "endlich"
        }
      ],
      "tokens": [
        {
          "index": 1,
          "word": "Der",
          "originalText": "Der",
          "characterOffsetBegin": 0,
          "characterOffsetEnd": 3,
          "pos": "ART",
          "before": "",
          "after": " "
        },
        {
          "index": 2,
          "word": "Mann",
          "originalText": "Mann",
          "characterOffsetBegin": 4,
          "characterOffsetEnd": 8,
          "pos": "NN",
          "before": " ",
          "after": ""
        },
        {
          "index": 3,
          "word": ",",
          "originalText": ",",
          "characterOffsetBegin": 8,
          "characterOffsetEnd": 9,
          "pos": "$,",
          "before": "",
          "after": " "
        },
        {
          "index": 4,
          "word": "der",
          "originalText": "der",
          "characterOffsetBegin": 10,
          "characterOffsetEnd": 13,
          "pos": "PRELS",
          "before": " ",
          "after": " "
        },
        {
          "index": 5,
          "word": "die",
          "originalText": "die",
          "characterOffsetBegin": 14,
          "characterOffsetEnd": 17,
          "pos": "ART",
          "before": " ",
          "after": " "
        },
        {
          "index": 6,
          "word": "Arbeit",
          "originalText": "Arbeit",
          "characterOffsetBegin": 18,
          "characterOffsetEnd": 24,
          "pos": "NN",
          "before": " ",
          "after": " "
        },
        {
          "index": 7,
          "word": "seit",
          "originalText": "seit",
          "characterOffsetBegin": 25,
          "characterOffsetEnd": 29,
          "pos": "APPR",
          "before": " ",
          "after": " "
        },
        {
          "index": 8,
          "word": "24",
          "originalText": "24",
          "characterOffsetBegin": 30,
          "characterOffsetEnd": 32,
          "pos": "CARD",
          "before": " ",
          "after": " "
        },
        {
          "index": 9,
          "word": "Jahren",
          "originalText": "Jahren",
          "characterOffsetBegin": 33,
          "characterOffsetEnd": 39,
          "pos": "NN",
          "before": " ",
          "after": " "
        },
        {
          "index": 10,
          "word": "überspringt",
          "originalText": "überspringt",
          "characterOffsetBegin": 40,
          "characterOffsetEnd": 51,
          "pos": "VVFIN",
          "before": " ",
          "after": ""
        },
        {
          "index": 11,
          "word": ",",
          "originalText": ",",
          "characterOffsetBegin": 51,
          "characterOffsetEnd": 52,
          "pos": "$,",
          "before": "",
          "after": " "
        },
        {
          "index": 12,
          "word": "ist",
          "originalText": "ist",
          "characterOffsetBegin": 53,
          "characterOffsetEnd": 56,
          "pos": "VAFIN",
          "before": " ",
          "after": " "
        },
        {
          "index": 13,
          "word": "endlich",
          "originalText": "endlich",
          "characterOffsetBegin": 57,
          "characterOffsetEnd": 64,
          "pos": "ADV",
          "before": " ",
          "after": " "
        },
        {
          "index": 14,
          "word": "gefeuert",
          "originalText": "gefeuert",
          "characterOffsetBegin": 65,
          "characterOffsetEnd": 73,
          "pos": "VVPP",
          "before": " ",
          "after": ""
        }
      ]
    }
  ]
}