{
  "sentences": [
    {
      "index": 0,
      "basicDependencies": [
        {
          "dep": "ROOT",
          "governor": 0,
          "governorGloss": "ROOT",
          "dependent": 8,
          "dependentGloss": "sagt"
        },
        {
          "dep": "amod",
          "governor": 2,
          "governorGloss": "Frau",
          "dependent": 1,
          "dependentGloss": "Israelisch-kanadische"
        },
        {
          "dep": "dobj",
          "governor": 8,
          "governorGloss": "sagt",
          "dependent": 2,
          "dependentGloss": "Frau"
        },
        {
          "dep": "punct",
          "governor": 4,
          "governorGloss": "gefangen",
          "dependent": 3,
          "dependentGloss": "``"
        },
        {
          "dep": "nsubj",
          "governor": 8,
          "governorGloss": "sagt",
          "dependent": 4,
          "dependentGloss": "gefangen"
        },
        {
          "dep": "aux",
          "governor": 8,
          "governorGloss": "sagt",
          "dependent": 5,
          "dependentGloss": "``"
        },
        {
          "dep": "case",
          "governor": 7,
          "governorGloss": "ISIS",
          "dependent": 6,
          "dependentGloss": "von"
        },
        {
          "dep": "nmod",
          "governor": 8,
          "governorGloss": "sagt",
          "dependent": 7,
          "dependentGloss": "ISIS"
        },
        {
          "dep": "punct",
          "governor": 8,
          "governorGloss": "sagt",
          "dependent": 9,
          "dependentGloss": ","
        },
        {
          "dep": "nsubj",
          "governor": 13,
          "governorGloss": "sicher",
          "dependent": 10,
          "dependentGloss": "sie"
        },
        {
          "dep": "cop",
          "governor": 13,
          "governorGloss": "sicher",
          "dependent": 11,
          "dependentGloss": "ist"
        },
        {
          "dep": "punct",
          "governor": 13,
          "governorGloss": "sicher",
          "dependent": 12,
          "dependentGloss": "``"
        },
        {
          "dep": "parataxis",
          "governor": 8,
          "governorGloss": "sagt",
          "dependent": 13,
          "dependentGloss": "sicher"
        },
        {
          "dep": "cc",
          "governor": 13,
          "governorGloss": "sicher",
          "dependent": 14,
          "dependentGloss": "und"
        },
        {
          "dep": "conj",
          "governor": 13,
          "governorGloss": "sicher",
          "dependent": 15,
          "dependentGloss": "sicher"
        },
        {
          "dep": "punct",
          "governor": 8,
          "governorGloss": "sagt",
          "dependent": 16,
          "dependentGloss": "``"
        }
      ],
      "enhancedDependencies": [
        {
          "dep": "ROOT",
          "governor": 0,
          "governorGloss": "ROOT",
          "dependent": 8,
          "dependentGloss": "sagt"
        },
        {
          "dep": "amod",
          "governor": 2,
          "governorGloss": "Frau",
          "dependent": 1,
          "dependentGloss": "Israelisch-kanadische"
        },
        {
          "dep": "dobj",
          "governor": 8,
          "governorGloss": "sagt",
          "dependent": 2,
          "dependentGloss": "Frau"
        },
        {
          "dep": "punct",
          "governor": 4,
          "governorGloss": "gefangen",
          "dependent": 3,
          "dependentGloss": "``"
        },
        {
          "dep": "nsubj",
          "governor": 8,
          "governorGloss": "sagt",
          "dependent": 4,
          "dependentGloss": "gefangen"
        },
        {
          "dep": "aux",
          "governor": 8,
          "governorGloss": "sagt",
          "dependent": 5,
          "dependentGloss": "``"
        },
        {
          "dep": "case",
          "governor": 7,
          "governorGloss": "ISIS",
          "dependent": 6,
          "dependentGloss": "von"
        },
        {
          "dep": "nmod",
          "governor": 8,
          "governorGloss": "sagt",
          "dependent": 7,
          "dependentGloss": "ISIS"
        },
        {
          "dep": "punct",
          "governor": 8,
          "governorGloss": "sagt",
          "dependent": 9,
          "dependentGloss": ","
        },
        {
          "dep": "nsubj",
          "governor": 13,
          "governorGloss": "sicher",
          "dependent": 10,
          "dependentGloss": "sie"
        },
        {
          "dep": "cop",
          "governor": 13,
          "governorGloss": "sicher",
          "dependent": 11,
          "dependentGloss": "ist"
        },
        {
          "dep": "punct",
          "governor": 13,
          "governorGloss": "sicher",
          "dependent": 12,
          "dependentGloss": "``"
        },
        {
          "dep": "parataxis",
          "governor": 8,
          "governorGloss": "sagt",
          "dependent": 13,
          "dependentGloss": "sicher"
        },
        {
          "dep": "cc",
          "governor": 13,
          "governorGloss": "sicher",
          "dependent": 14,
          "dependentGloss": "und"
        },
        {
          "dep": "parataxis",
          "governor": 8,
          "governorGloss": "sagt",
          "dependent": 15,
          "dependentGloss": "sicher"
        },
        {
          "dep": "conj:und",
          "governor": 13,
          "governorGloss": "sicher",
          "dependent": 15,
          "dependentGloss": "sicher"
        },
        {
          "dep": "punct",
          "governor": 8,
          "governorGloss": "sagt",
          "dependent": 16,
          "dependentGloss": "``"
        }
      ],
      "enhancedPlusPlusDependencies": [
        {
          "dep": "ROOT",
          "governor": 0,
          "governorGloss": "ROOT",
          "dependent": 8,
          "dependentGloss": "sagt"
        },
        {
          "dep": "amod",
          "governor": 2,
          "governorGloss": "Frau",
          "dependent": 1,
          "dependentGloss": "Israelisch-kanadische"
        },
        {
          "dep": "dobj",
          "governor": 8,
          "governorGloss": "sagt",
          "dependent": 2,
          "dependentGloss": "Frau"
        },
        {
          "dep": "punct",
          "governor": 4,
          "governorGloss": "gefangen",
          "dependent": 3,
          "dependentGloss": "``"
        },
        {
          "dep": "nsubj",
          "governor": 8,
          "governorGloss": "sagt",
          "dependent": 4,
          "dependentGloss": "gefangen"
        },
        {
          "dep": "aux",
          "governor": 8,
          "governorGloss": "sagt",
          "dependent": 5,
          "dependentGloss": "``"
        },
        {
          "dep": "case",
          "governor": 7,
          "governorGloss": "ISIS",
          "dependent": 6,
          "dependentGloss": "von"
        },
        {
          "dep": "nmod",
          "governor": 8,
          "governorGloss": "sagt",
          "dependent": 7,
          "dependentGloss": "ISIS"
        },
        {
          "dep": "punct",
          "governor": 8,
          "governorGloss": "sagt",
          "dependent": 9,
          "dependentGloss": ","
        },
        {
          "dep": "nsubj",
          "governor": 13,
          "governorGloss": "sicher",
          "dependent": 10,
          "dependentGloss": "sie"
        },
        {
          "dep": "cop",
          "governor": 13,
          "governorGloss": "sicher",
          "dependent": 11,
          "dependentGloss": "ist"
        },
        {
          "dep": "punct",
          "governor": 13,
          "governorGloss": "sicher",
          "dependent": 12,
          "dependentGloss": "``"
        },
        {
          "dep": "parataxis",
          "governor": 8,
          "governorGloss": "sagt",
          "dependent": 13,
          "dependentGloss": "sicher"
        },
        {
          "dep": "cc",
          "governor": 13,
          "governorGloss": "sicher",
          "dependent": 14,
          "dependentGloss": "und"
        },
        {
          "dep": "parataxis",
          "governor": 8,
          "governorGloss": "sagt",
          "dependent": 15,
          "dependentGloss": "sicher"
        },
        {
          "dep": "conj:und",
          "governor": 13,
          "governorGloss": "sicher",
          "dependent": 15,
          "dependentGloss": "sicher"
        },
        {
          "dep": "punct",
          "governor": 8,
          "governorGloss": "sagt",
          "dependent": 16,
          "dependentGloss": "``"
        }
      ],
      "tokens": [
        {
          "index": 1,
          "word": "Israelisch-kanadische",
          "originalText": "Israelisch-kanadische",
          "characterOffsetBegin": 0,
          "characterOffsetEnd": 21,
          "pos": "ADJA",
          "before": "",
          "after": " "
        },
        {
          "index": 2,
          "word": "Frau",
          "originalText": "Frau",
          "characterOffsetBegin": 22,
          "characterOffsetEnd": 26,
          "pos": "NN",
          "before": " ",
          "after": " "
        },
        {
          "index": 3,
          "word": "``",
          "originalText": "“",
          "characterOffsetBegin": 27,
          "characterOffsetEnd": 28,
          "pos": "NE",
          "before": " ",
          "after": ""
        },
        {
          "index": 4,
          "word": "gefangen",
          "originalText": "gefangen",
          "characterOffsetBegin": 28,
          "characterOffsetEnd": 36,
          "pos": "VVPP",
          "before": "",
          "after": ""
        },
        {
          "index": 5,
          "word": "``",
          "originalText": "“",
          "characterOffsetBegin": 36,
          "characterOffsetEnd": 37,
          "pos": "VAFIN",
          "before": "",
          "after": " "
        },
        {
          "index": 6,
          "word": "von",
          "originalText": "von",
          "characterOffsetBegin": 38,
          "characterOffsetEnd": 41,
          "pos": "APPR",
          "before": " ",
          "after": " "
        },
        {
          "index": 7,
          "word": "ISIS",
          "originalText": "ISIS",
          "characterOffsetBegin": 42,
          "characterOffsetEnd": 46,
          "pos": "NE",
          "before": " ",
          "after": " "
        },
        {
          "index": 8,
          "word": "sagt",
          "originalText": "sagt",
          "characterOffsetBegin": 47,
          "characterOffsetEnd": 51,
          "pos": "VVFIN",
          "before": " ",
          "after": ""
        },
        {
          "index": 9,
          "word": ",",
          "originalText": ",",
          "characterOffsetBegin": 51,
          "characterOffsetEnd": 52,
          "pos": "$,",
          "before": "",
          "after": " "
        },
        {
          "index": 10,
          "word": "sie",
          "originalText": "sie",
          "characterOffsetBegin": 53,
          "characterOffsetEnd": 56,
          "pos": "PPER",
          "before": " ",
          "after": " "
        },
        {
          "index": 11,
          "word": "ist",
          "originalText": "ist",
          "characterOffsetBegin": 57,
          "characterOffsetEnd": 60,
          "pos": "VAFIN",
          "before": " ",
          "after": " "
        },
        {
          "index": 12,
          "word": "``",
          "originalText": "“",
          "characterOffsetBegin": 61,
          "characterOffsetEnd": 62,
          "pos": "ADJD",
          "before": " ",
          "after": ""
        },
        {
          "index": 13,
          "word": "sicher",
          "originalText": "sicher",
          "characterOffsetBegin": 62,
          "characterOffsetEnd": 68,
          "pos": "ADJD",
          "before": "",
          "after": " "
        },
        {
          "index": 14,
          "word": "und",
          "originalText": "und",
          "characterOffsetBegin": 69,
          "characterOffsetEnd": 72,
          "pos": "KON",
          "before": " ",
          "after": " "
        },
        {
          "index": 15,
          "word": "sicher",
          "originalText": "sicher",
          "characterOffsetBegin": 73,
          "characterOffsetEnd": 79,
          "pos": "ADJD",
          "before": " ",
          "after": ""
        },
        {
          "index": 16,
          "word": "``",
          "originalText": "“",
          "characterOffsetBegin": 79,
          "characterOffsetEnd": 80,
          "pos": "CARD",
          "before": "",
          "after": ""
        }
      ]
    }
  ]
}