{
  "sentences": [
    {
      "index": 0,
      "basicDependencies": [
        {
          "dep": "ROOT",
          "governor": 0,
          "governorGloss": "ROOT",
          "dependent": 2,
          "dependentGloss": "verlässt"
        },
        {
          "dep": "nsubj",
          "governor": 2,
          "governorGloss": "verlässt",
          "dependent": 1,
          "dependentGloss": "Meteoriten"
        },
        {
          "dep": "dobj",
          "governor": 2,
          "governorGloss": "verlässt",
          "dependent": 3,
          "dependentGloss": "Krater"
        },
        {
          "dep": "case",
          "governor": 5,
          "governorGloss": "Nicaragua",
          "dependent": 4,
          "dependentGloss": "in"
        },
        {
          "dep": "nmod",
          "governor": 2,
          "governorGloss": "verlässt",
          "dependent": 5,
          "dependentGloss": "Nicaragua"
        },
        {
          "dep": "dobj",
          "governor": 2,
          "governorGloss": "verlässt",
          "dependent": 6,
          "dependentGloss": "Hauptstadt"
        },
        {
          "dep": "appos",
          "governor": 6,
          "governorGloss": "Hauptstadt",
          "dependent": 7,
          "dependentGloss": "Managua"
        }
      ],
      "enhancedDependencies": [
        {
          "dep": "ROOT",
          "governor": 0,
          "governorGloss": "ROOT",
          "dependent": 2,
          "dependentGloss": "verlässt"
        },
        {
          "dep": "nsubj",
          "governor": 2,
          "governorGloss": "verlässt",
          "dependent": 1,
          "dependentGloss": "Meteoriten"
        },
        {
          "dep": "dobj",
          "governor": 2,
          "governorGloss": "verlässt",
          "dependent": 3,
          "dependentGloss": "Krater"
        },
        {
          "dep": "case",
          "governor": 5,
          "governorGloss": "Nicaragua",
          "dependent": 4,
          "dependentGloss": "in"
        },
        {
          "dep": "nmod",
          "governor": 2,
          "governorGloss": "verlässt",
          "dependent": 5,
          "dependentGloss": "Nicaragua"
        },
        {
          "dep": "dobj",
          "governor": 2,
          "governorGloss": "verlässt",
          "dependent": 6,
          "dependentGloss": "Hauptstadt"
        },
        {
          "dep": "appos",
          "governor": 6,
          "governorGloss": "Hauptstadt",
          "dependent": 7,
          "dependentGloss": "Managua"
        }
      ],
      "enhancedPlusPlusDependencies": [
        {
          "dep": "ROOT",
          "governor": 0,
          "governorGloss": "ROOT",
          "dependent": 2,
          "dependentGloss": "verlässt"
        },
        {
          "dep": "nsubj",
          "governor": 2,
          "governorGloss": "verlässt",
          "dependent": 1,
          "dependentGloss": "Meteoriten"
        },
        {
          "dep": "dobj",
          "governor": 2,
          "governorGloss": "verlässt",
          "dependent": 3,
          "dependentGloss": "Krater"
        },
        {
          "dep": "case",
          "governor": 5,
          "governorGloss": "Nicaragua",
          "dependent": 4,
          "dependentGloss": "in"
        },
        {
          "dep": "nmod",
          "governor": 2,
          "governorGloss": "verlässt",
          "dependent": 5,
          "dependentGloss": "Nicaragua"
        },
        {
          "dep": "dobj",
          "governor": 2,
          "governorGloss": "verlässt",
          "dependent": 6,
          "dependentGloss": "Hauptstadt"
        },
        {
          "dep": "appos",
          "governor": 6,
          "governorGloss": "Hauptstadt",
          "dependent": 7,
          "dependentGloss": "Managua"
        }
      ],
      "tokens": [
        {
          "index": 1,
          "word": "Meteoriten",
          "originalText": "Meteoriten",
          "characterOffsetBegin": 0,
          "characterOffsetEnd": 10,
          "pos": "NN",
          "before": "",
          "after": " "
        },
        {
          "index": 2,
          "word": "verlässt",
          "originalText": "verlässt",
          "characterOffsetBegin": 11,
          "characterOffsetEnd": 19,
          "pos": "VVFIN",
          "before": " ",
          "after": " "
        },
        {
          "index": 3,
          "word": "Krater",
          "originalText": "Krater",
          "characterOffsetBegin": 20,
          "characterOffsetEnd": 26,
          "pos": "NN",
          "before": " ",
          "after": " "
        },
        {
          "index": 4,
          "word": "in",
          "originalText": "in",
          "characterOffsetBegin": 27,
          "characterOffsetEnd": 29,
          "pos": "APPR",
          "before": " ",
          "after": " "
        },
        {
          "index": 5,
          "word": "Nicaragua",
          "originalText": "Nicaragua",
          "characterOffsetBegin": 30,
          "characterOffsetEnd": 39,
          "pos": "NE",
          "before": " ",
          "after": " "
        },
        {
          "index": 6,
          "word": "Hauptstadt",
          "originalText": "Hauptstadt",
          "characterOffsetBegin": 40,
          "characterOffsetEnd": 50,
          "pos": "NN",
          "before": " ",
          "after": " "
        },
        {
          "index": 7,
          "word": "Managua",
          "originalText": "Managua",
          "characterOffsetBegin": 51,
          "characterOffsetEnd": 58,
          "pos": "NE",
          "before": " ",
          "after": ""
        }
      ]
    }
  ]
}