{
  "sentences": [
    {
      "index": 0,
      "basicDependencies": [
        {
          "dep": "ROOT",
          "governor": 0,
          "governorGloss": "ROOT",
          "dependent": 1,
          "dependentGloss": "Lynch"
        },
        {
          "dep": "dobj",
          "governor": 1,
          "governorGloss": "Lynch",
          "dependent": 2,
          "dependentGloss": "Mob"
        },
        {
          "dep": "dobj",
          "governor": 2,
          "governorGloss": "Mob",
          "dependent": 3,
          "dependentGloss": "Chop"
        },
        {
          "dep": "det",
          "governor": 6,
          "governorGloss": "Penis",
          "dependent": 4,
          "dependentGloss": "Mann"
        },
        {
          "dep": "case",
          "governor": 4,
          "governorGloss": "Mann",
          "dependent": 5,
          "dependentGloss": "'s"
        },
        {
          "dep": "dobj",
          "governor": 3,
          "governorGloss": "Chop",
          "dependent": 6,
          "dependentGloss": "Penis"
        },
        {
          "dep": "mark",
          "governor": 1,
          "governorGloss": "Lynch",
          "dependent": 7,
          "dependentGloss": "aus"
        },
        {
          "dep": "punct",
          "governor": 1,
          "governorGloss": "Lynch",
          "dependent": 8,
          "dependentGloss": ","
        },
        {
          "dep": "mark",
          "governor": 13,
          "governorGloss": "versucht",
          "dependent": 9,
          "dependentGloss": "nachdem"
        },
        {
          "dep": "nsubj",
          "governor": 13,
          "governorGloss": "versucht",
          "dependent": 10,
          "dependentGloss": "er"
        },
        {
          "dep": "dobj",
          "governor": 13,
          "governorGloss": "versucht",
          "dependent": 11,
          "dependentGloss": "ihn"
        },
        {
          "dep": "advmod",
          "governor": 13,
          "governorGloss": "versucht",
          "dependent": 12,
          "dependentGloss": "angeblich"
        },
        {
          "dep": "advcl",
          "governor": 1,
          "governorGloss": "Lynch",
          "dependent": 13,
          "dependentGloss": "versucht"
        },
        {
          "dep": "punct",
          "governor": 13,
          "governorGloss": "versucht",
          "dependent": 14,
          "dependentGloss": ","
        },
        {
          "dep": "conj",
          "governor": 13,
          "governorGloss": "versucht",
          "dependent": 15,
          "dependentGloss": "Teenager"
        },
        {
          "dep": "aux",
          "governor": 17,
          "governorGloss": "vergewaltigen",
          "dependent": 16,
          "dependentGloss": "zu"
        },
        {
          "dep": "acl",
          "governor": 15,
          "governorGloss": "Teenager",
          "dependent": 17,
          "dependentGloss": "vergewaltigen"
        }
      ],
      "enhancedDependencies": [
        {
          "dep": "ROOT",
          "governor": 0,
          "governorGloss": "ROOT",
          "dependent": 1,
          "dependentGloss": "Lynch"
        },
        {
          "dep": "dobj",
          "governor": 1,
          "governorGloss": "Lynch",
          "dependent": 2,
          "dependentGloss": "Mob"
        },
        {
          "dep": "dobj",
          "governor": 2,
          "governorGloss": "Mob",
          "dependent": 3,
          "dependentGloss": "Chop"
        },
        {
          "dep": "det",
          "governor": 6,
          "governorGloss": "Penis",
          "dependent": 4,
          "dependentGloss": "Mann"
        },
        {
          "dep": "case",
          "governor": 4,
          "governorGloss": "Mann",
          "dependent": 5,
          "dependentGloss": "'s"
        },
        {
          "dep": "dobj",
          "governor": 3,
          "governorGloss": "Chop",
          "dependent": 6,
          "dependentGloss": "Penis"
        },
        {
          "dep": "mark",
          "governor": 1,
          "governorGloss": "Lynch",
          "dependent": 7,
          "dependentGloss": "aus"
        },
        {
          "dep": "punct",
          "governor": 1,
          "governorGloss": "Lynch",
          "dependent": 8,
          "dependentGloss": ","
        },
        {
          "dep": "mark",
          "governor": 13,
          "governorGloss": "versucht",
          "dependent": 9,
          "dependentGloss": "nachdem"
        },
        {
          "dep": "nsubj",
          "governor": 13,
          "governorGloss": "versucht",
          "dependent": 10,
          "dependentGloss": "er"
        },
        {
          "dep": "dobj",
          "governor": 13,
          "governorGloss": "versucht",
          "dependent": 11,
          "dependentGloss": "ihn"
        },
        {
          "dep": "advmod",
          "governor": 13,
          "governorGloss": "versucht",
          "dependent": 12,
          "dependentGloss": "angeblich"
        },
        {
          "dep": "advcl",
          "governor": 1,
          "governorGloss": "Lynch",
          "dependent": 13,
          "dependentGloss": "versucht"
        },
        {
          "dep": "punct",
          "governor": 13,
          "governorGloss": "versucht",
          "dependent": 14,
          "dependentGloss": ","
        },
        {
          "dep": "conj",
          "governor": 13,
          "governorGloss": "versucht",
          "dependent": 15,
          "dependentGloss": "Teenager"
        },
        {
          "dep": "aux",
          "governor": 17,
          "governorGloss": "vergewaltigen",
          "dependent": 16,
          "dependentGloss": "zu"
        },
        {
          "dep": "acl",
          "governor": 15,
          "governorGloss": "Teenager",
          "dependent": 17,
          "dependentGloss": "vergewaltigen"
        }
      ],
      "enhancedPlusPlusDependencies": [
        {
          "dep": "ROOT",
          "governor": 0,
          "governorGloss": "ROOT",
          "dependent": 1,
          "dependentGloss": "Lynch"
        },
        {
          "dep": "dobj",
          "governor": 1,
          "governorGloss": "Lynch",
          "dependent": 2,
          "dependentGloss": "Mob"
        },
        {
          "dep": "dobj",
          "governor": 2,
          "governorGloss": "Mob",
          "dependent": 3,
          "dependentGloss": "Chop"
        },
        {
          "dep": "det",
          "governor": 6,
          "governorGloss": "Penis",
          "dependent": 4,
          "dependentGloss": "Mann"
        },
        {
          "dep": "case",
          "governor": 4,
          "governorGloss": "Mann",
          "dependent": 5,
          "dependentGloss": "'s"
        },
        {
          "dep": "dobj",
          "governor": 3,
          "governorGloss": "Chop",
          "dependent": 6,
          "dependentGloss": "Penis"
        },
        {
          "dep": "mark",
          "governor": 1,
          "governorGloss": "Lynch",
          "dependent": 7,
          "dependentGloss": "aus"
        },
        {
          "dep": "punct",
          "governor": 1,
          "governorGloss": "Lynch",
          "dependent": 8,
          "dependentGloss": ","
        },
        {
          "dep": "mark",
          "governor": 13,
          "governorGloss": "versucht",
          "dependent": 9,
          "dependentGloss": "nachdem"
        },
        {
          "dep": "nsubj",
          "governor": 13,
          "governorGloss": "versucht",
          "dependent": 10,
          "dependentGloss": "er"
        },
        {
          "dep": "dobj",
          "governor": 13,
          "governorGloss": "versucht",
          "dependent": 11,
          "dependentGloss": "ihn"
        },
        {
          "dep": "advmod",
          "governor": 13,
          "governorGloss": "versucht",
          "dependent": 12,
          "dependentGloss": "angeblich"
        },
        {
          "dep": "advcl",
          "governor": 1,
          "governorGloss": "Lynch",
          "dependent": 13,
          "dependentGloss": "versucht"
        },
        {
          "dep": "punct",
          "governor": 13,
          "governorGloss": "versucht",
          "dependent": 14,
          "dependentGloss": ","
        },
        {
          "dep": "conj",
          "governor": 13,
          "governorGloss": "versucht",
          "dependent": 15,
          "dependentGloss": "Teenager"
        },
        {
          "dep": "aux",
          "governor": 17,
          "governorGloss": "vergewaltigen",
          "dependent": 16,
          "dependentGloss": "zu"
        },
        {
          "dep": "acl",
          "governor": 15,
          "governorGloss": "Teenager",
          "dependent": 17,
          "dependentGloss": "vergewaltigen"
        }
      ],
      "tokens": [
        {
          "index": 1,
          "word": "Lynch",
          "originalText": "Lynch",
          "characterOffsetBegin": 0,
          "characterOffsetEnd": 5,
          "pos": "NE",
          "before": "",
          "after": " "
        },
        {
          "index": 2,
          "word": "Mob",
          "originalText": "Mob",
          "characterOffsetBegin": 6,
          "characterOffsetEnd": 9,
          "pos": "NE",
          "before": " ",
          "after": " "
        },
        {
          "index": 3,
          "word": "Chop",
          "originalText": "Chop",
          "characterOffsetBegin": 10,
          "characterOffsetEnd": 14,
          "pos": "NE",
          "before": " ",
          "after": " "
        },
        {
          "index": 4,
          "word": "Mann",
          "originalText": "Mann",
          "characterOffsetBegin": 15,
          "characterOffsetEnd": 19,
          "pos": "NN",
          "before": " ",
          "after": ""
        },
        {
          "index": 5,
          "word": "'s",
          "originalText": "'s",
          "characterOffsetBegin": 19,
          "characterOffsetEnd": 21,
          "pos": "PPER",
          "before": "",
          "after": " "
        },
        {
          "index": 6,
          "word": "Penis",
          "originalText": "Penis",
          "characterOffsetBegin": 22,
          "characterOffsetEnd": 27,
          "pos": "NN",
          "before": " ",
          "after": " "
        },
        {
          "index": 7,
          "word": "aus",
          "originalText": "aus",
          "characterOffsetBegin": 28,
          "characterOffsetEnd": 31,
          "pos": "PTKVZ",
          "before": " ",
          "after": ""
        },
        {
          "index": 8,
          "word": ",",
          "originalText": ",",
          "characterOffsetBegin": 31,
          "characterOffsetEnd": 32,
          "pos": "$,",
          "before": "",
          "after": " "
        },
        {
          "index": 9,
          "word": "nachdem",
          "originalText": "nachdem",
          "characterOffsetBegin": 33,
          "characterOffsetEnd": 40,
          "pos": "KOUS",
          "before": " ",
          "after": " "
        },
        {
          "index": 10,
          "word": "er",
          "originalText": "er",
          "characterOffsetBegin": 41,
          "characterOffsetEnd": 43,
          "pos": "PPER",
          "before": " ",
          "after": " "
        },
        {
          "index": 11,
          "word": "ihn",
          "originalText": "ihn",
          "characterOffsetBegin": 44,
          "characterOffsetEnd": 47,
          "pos": "PPER",
          "before": " ",
          "after": " "
        },
        {
          "index": 12,
          "word": "angeblich",
          "originalText": "angeblich",
          "characterOffsetBegin": 48,
          "characterOffsetEnd": 57,
          "pos": "ADJD",
          "before": " ",
          "after": " "
        },
        {
          "index": 13,
          "word": "versucht",
          "originalText": "versucht",
          "characterOffsetBegin": 58,
          "characterOffsetEnd": 66,
          "pos": "VVPP",
          "before": " ",
          "after": ""
        },
        {
          "index": 14,
          "word": ",",
          "originalText": ",",
          "characterOffsetBegin": 66,
          "characterOffsetEnd": 67,
          "pos": "$,",
          "before": "",
          "after": " "
        },
        {
          "index": 15,
          "word": "Teenager",
          "originalText": "Teenager",
          "characterOffsetBegin": 68,
          "characterOffsetEnd": 76,
          "pos": "NN",
          "before": " ",
          "after": " "
        },
        {
          "index": 16,
          "word": "zu",
          "originalText": "zu",
          "characterOffsetBegin": 77,
          "characterOffsetEnd": 79,
          "pos": "PTKZU",
          "before": " ",
          "after": " "
        },
        {
          "index": 17,
          "word": "vergewaltigen",
          "originalText": "vergewaltigen",
          "characterOffsetBegin": 80,
          "characterOffsetEnd": 93,
          "pos": "VVINF",
          "before": " ",
          "after": ""
        }
      ]
    }
  ]
}