{
  "sentences": [
    {
      "index": 0,
      "basicDependencies": [
        {
          "dep": "ROOT",
          "governor": 0,
          "governorGloss": "ROOT",
          "dependent": 2,
          "dependentGloss": "prüft"
        },
        {
          "dep": "nmod",
          "governor": 2,
          "governorGloss": "prüft",
          "dependent": 1,
          "dependentGloss": "Mexiko"
        },
        {
          "dep": "punct",
          "governor": 2,
          "governorGloss": "prüft",
          "dependent": 3,
          "dependentGloss": ","
        },
        {
          "dep": "dep",
          "governor": 2,
          "governorGloss": "prüft",
          "dependent": 4,
          "dependentGloss": "ob"
        },
        {
          "dep": "nummod",
          "governor": 7,
          "governorGloss": "Schüler",
          "dependent": 5,
          "dependentGloss": "43"
        },
        {
          "dep": "amod",
          "governor": 7,
          "governorGloss": "Schüler",
          "dependent": 6,
          "dependentGloss": "vermisste"
        },
        {
          "dep": "appos",
          "governor": 4,
          "governorGloss": "ob",
          "dependent": 7,
          "dependentGloss": "Schüler"
        },
        {
          "dep": "case",
          "governor": 9,
          "governorGloss": "Massengrab",
          "dependent": 8,
          "dependentGloss": "in"
        },
        {
          "dep": "nmod",
          "governor": 7,
          "governorGloss": "Schüler",
          "dependent": 9,
          "dependentGloss": "Massengrab"
        }
      ],
      "enhancedDependencies": [
        {
          "dep": "ROOT",
          "governor": 0,
          "governorGloss": "ROOT",
          "dependent": 2,
          "dependentGloss": "prüft"
        },
        {
          "dep": "nmod",
          "governor": 2,
          "governorGloss": "prüft",
          "dependent": 1,
          "dependentGloss": "Mexiko"
        },
        {
          "dep": "punct",
          "governor": 2,
          "governorGloss": "prüft",
          "dependent": 3,
          "dependentGloss": ","
        },
        {
          "dep": "dep",
          "governor": 2,
          "governorGloss": "prüft",
          "dependent": 4,
          "dependentGloss": "ob"
        },
        {
          "dep": "nummod",
          "governor": 7,
          "governorGloss": "Schüler",
          "dependent": 5,
          "dependentGloss": "43"
        },
        {
          "dep": "amod",
          "governor": 7,
          "governorGloss": "Schüler",
          "dependent": 6,
          "dependentGloss": "vermisste"
        },
        {
          "dep": "appos",
          "governor": 4,
          "governorGloss": "ob",
          "dependent": 7,
          "dependentGloss": "Schüler"
        },
        {
          "dep": "case",
          "governor": 9,
          "governorGloss": "Massengrab",
          "dependent": 8,
          "dependentGloss": "in"
        },
        {
          "dep": "nmod",
          "governor": 7,
          "governorGloss": "Schüler",
          "dependent": 9,
          "dependentGloss": "Massengrab"
        }
      ],
      "enhancedPlusPlusDependencies": [
        {
          "dep": "ROOT",
          "governor": 0,
          "governorGloss": "ROOT",
          "dependent": 2,
          "dependentGloss": "prüft"
        },
        {
          "dep": "nmod",
          "governor": 2,
          "governorGloss": "prüft",
          "dependent": 1,
          "dependentGloss": "Mexiko"
        },
        {
          "dep": "punct",
          "governor": 2,
          "governorGloss": "prüft",
          "dependent": 3,
          "dependentGloss": ","
        },
        {
          "dep": "dep",
          "governor": 2,
          "governorGloss": "prüft",
          "dependent": 4,
          "dependentGloss": "ob"
        },
        {
          "dep": "nummod",
          "governor": 7,
          "governorGloss": "Schüler",
          "dependent": 5,
          "dependentGloss": "43"
        },
        {
          "dep": "amod",
          "governor": 7,
          "governorGloss": "Schüler",
          "dependent": 6,
          "dependentGloss": "vermisste"
        },
        {
          "dep": "appos",
          "governor": 4,
          "governorGloss": "ob",
          "dependent": 7,
          "dependentGloss": "Schüler"
        },
        {
          "dep": "case",
          "governor": 9,
          "governorGloss": "Massengrab",
          "dependent": 8,
          "dependentGloss": "in"
        },
        {
          "dep": "nmod",
          "governor": 7,
          "governorGloss": "Schüler",
          "dependent": 9,
          "dependentGloss": "Massengrab"
        }
      ],
      "tokens": [
        {
          "index": 1,
          "word": "Mexiko",
          "originalText": "Mexiko",
          "characterOffsetBegin": 0,
          "characterOffsetEnd": 6,
          "pos": "NE",
          "before": "",
          "after": " "
        },
        {
          "index": 2,
          "word": "prüft",
          "originalText": "prüft",
          "characterOffsetBegin": 7,
          "characterOffsetEnd": 12,
          "pos": "VVFIN",
          "before": " ",
          "after": ""
        },
        {
          "index": 3,
          "word": ",",
          "originalText": ",",
          "characterOffsetBegin": 12,
          "characterOffsetEnd": 13,
          "pos": "$,",
          "before": "",
          "after": " "
        },
        {
          "index": 4,
          "word": "ob",
          "originalText": "ob",
          "characterOffsetBegin": 14,
          "characterOffsetEnd": 16,
          "pos": "KOUS",
          "before": " ",
          "after": " "
        },
        {
          "index": 5,
          "word": "43",
          "originalText": "43",
          "characterOffsetBegin": 17,
          "characterOffsetEnd": 19,
          "pos": "CARD",
          "before": " ",
          "after": " "
        },
        {
          "index": 6,
          "word": "vermisste",
          "originalText": "vermisste",
          "characterOffsetBegin": 20,
          "characterOffsetEnd": 29,
          "pos": "ADJA",
          "before": " ",
          "after": " "
        },
        {
          "index": 7,
          "word": "Schüler",
          "originalText": "Schüler",
          "characterOffsetBegin": 30,
          "characterOffsetEnd": 37,
          "pos": "NN",
          "before": " ",
          "after": " "
        },
        {
          "index": 8,
          "word": "in",
          "originalText": "in",
          "characterOffsetBegin": 38,
          "characterOffsetEnd": 40,
          "pos": "APPR",
          "before": " ",
          "after": " "
        },
        {
          "index": 9,
          "word": "Massengrab",
          "originalText": "Massengrab",
          "characterOffsetBegin": 41,
          "characterOffsetEnd": 51,
          "pos": "NN",
          "before": " ",
          "after": ""
        }
      ]
    }
  ]
}