{
  "sentences": [
    {
      "index": 0,
      "basicDependencies": [
        {
          "dep": "ROOT",
          "governor": 0,
          "governorGloss": "ROOT",
          "dependent": 7,
          "dependentGloss": "bietet"
        },
        {
          "dep": "advmod",
          "governor": 7,
          "governorGloss": "bietet",
          "dependent": 1,
          "dependentGloss": "Beliebtes"
        },
        {
          "dep": "punct",
          "governor": 7,
          "governorGloss": "bietet",
          "dependent": 2,
          "dependentGloss": "`"
        },
        {
          "dep": "det",
          "governor": 5,
          "governorGloss": "Instagram",
          "dependent": 3,
          "dependentGloss": "Banksy"
        },
        {
          "dep": "case",
          "governor": 3,
          "governorGloss": "Banksy",
          "dependent": 4,
          "dependentGloss": "'"
        },
        {
          "dep": "nsubj",
          "governor": 7,
          "governorGloss": "bietet",
          "dependent": 5,
          "dependentGloss": "Instagram"
        },
        {
          "dep": "appos",
          "governor": 5,
          "governorGloss": "Instagram",
          "dependent": 6,
          "dependentGloss": "Konto"
        },
        {
          "dep": "det",
          "governor": 10,
          "governorGloss": "Botschaft",
          "dependent": 8,
          "dependentGloss": "eine"
        },
        {
          "dep": "amod",
          "governor": 10,
          "governorGloss": "Botschaft",
          "dependent": 9,
          "dependentGloss": "starke"
        },
        {
          "dep": "nsubj",
          "governor": 7,
          "governorGloss": "bietet",
          "dependent": 10,
          "dependentGloss": "Botschaft"
        },
        {
          "dep": "det",
          "governor": 12,
          "governorGloss": "Beharrlichkeit",
          "dependent": 11,
          "dependentGloss": "der"
        },
        {
          "dep": "det",
          "governor": 10,
          "governorGloss": "Botschaft",
          "dependent": 12,
          "dependentGloss": "Beharrlichkeit"
        },
        {
          "dep": "case",
          "governor": 15,
          "governorGloss": "Angriff",
          "dependent": 13,
          "dependentGloss": "nach"
        },
        {
          "dep": "amod",
          "governor": 15,
          "governorGloss": "Angriff",
          "dependent": 14,
          "dependentGloss": "Pariser"
        },
        {
          "dep": "nmod",
          "governor": 7,
          "governorGloss": "bietet",
          "dependent": 15,
          "dependentGloss": "Angriff"
        }
      ],
      "enhancedDependencies": [
        {
          "dep": "ROOT",
          "governor": 0,
          "governorGloss": "ROOT",
          "dependent": 7,
          "dependentGloss": "bietet"
        },
        {
          "dep": "advmod",
          "governor": 7,
          "governorGloss": "bietet",
          "dependent": 1,
          "dependentGloss": "Beliebtes"
        },
        {
          "dep": "punct",
          "governor": 7,
          "governorGloss": "bietet",
          "dependent": 2,
          "dependentGloss": "`"
        },
        {
          "dep": "det",
          "governor": 5,
          "governorGloss": "Instagram",
          "dependent": 3,
          "dependentGloss": "Banksy"
        },
        {
          "dep": "case",
          "governor": 3,
          "governorGloss": "Banksy",
          "dependent": 4,
          "dependentGloss": "'"
        },
        {
          "dep": "nsubj",
          "governor": 7,
          "governorGloss": "bietet",
          "dependent": 5,
          "dependentGloss": "Instagram"
        },
        {
          "dep": "appos",
          "governor": 5,
          "governorGloss": "Instagram",
          "dependent": 6,
          "dependentGloss": "Konto"
        },
        {
          "dep": "det",
          "governor": 10,
          "governorGloss": "Botschaft",
          "dependent": 8,
          "dependentGloss": "eine"
        },
        {
          "dep": "amod",
          "governor": 10,
          "governorGloss": "Botschaft",
          "dependent": 9,
          "dependentGloss": "starke"
        },
        {
          "dep": "nsubj",
          "governor": 7,
          "governorGloss": "bietet",
          "dependent": 10,
          "dependentGloss": "Botschaft"
        },
        {
          "dep": "det",
          "governor": 12,
          "governorGloss": "Beharrlichkeit",
          "dependent": 11,
          "dependentGloss": "der"
        },
        {
          "dep": "det",
          "governor": 10,
          "governorGloss": "Botschaft",
          "dependent": 12,
          "dependentGloss": "Beharrlichkeit"
        },
        {
          "dep": "case",
          "governor": 15,
          "governorGloss": "Angriff",
          "dependent": 13,
          "dependentGloss": "nach"
        },
        {
          "dep": "amod",
          "governor": 15,
          "governorGloss": "Angriff",
          "dependent": 14,
          "dependentGloss": "Pariser"
        },
        {
          "dep": "nmod",
          "governor": 7,
          "governorGloss": "bietet",
          "dependent": 15,
          "dependentGloss": "Angriff"
        }
      ],
      "enhancedPlusPlusDependencies": [
        {
          "dep": "ROOT",
          "governor": 0,
          "governorGloss": "ROOT",
          "dependent": 7,
          "dependentGloss": "bietet"
        },
        {
          "dep": "advmod",
          "governor": 7,
          "governorGloss": "bietet",
          "dependent": 1,
          "dependentGloss": "Beliebtes"
        },
        {
          "dep": "punct",
          "governor": 7,
          "governorGloss": "bietet",
          "dependent": 2,
          "dependentGloss": "`"
        },
        {
          "dep": "det",
          "governor": 5,
          "governorGloss": "Instagram",
          "dependent": 3,
          "dependentGloss": "Banksy"
        },
        {
          "dep": "case",
          "governor": 3,
          "governorGloss": "Banksy",
          "dependent": 4,
          "dependentGloss": "'"
        },
        {
          "dep": "nsubj",
          "governor": 7,
          "governorGloss": "bietet",
          "dependent": 5,
          "dependentGloss": "Instagram"
        },
        {
          "dep": "appos",
          "governor": 5,
          "governorGloss": "Instagram",
          "dependent": 6,
          "dependentGloss": "Konto"
        },
        {
          "dep": "det",
          "governor": 10,
          "governorGloss": "Botschaft",
          "dependent": 8,
          "dependentGloss": "eine"
        },
        {
          "dep": "amod",
          "governor": 10,
          "governorGloss": "Botschaft",
          "dependent": 9,
          "dependentGloss": "starke"
        },
        {
          "dep": "nsubj",
          "governor": 7,
          "governorGloss": "bietet",
          "dependent": 10,
          "dependentGloss": "Botschaft"
        },
        {
          "dep": "det",
          "governor": 12,
          "governorGloss": "Beharrlichkeit",
          "dependent": 11,
          "dependentGloss": "der"
        },
        {
          "dep": "det",
          "governor": 10,
          "governorGloss": "Botschaft",
          "dependent": 12,
          "dependentGloss": "Beharrlichkeit"
        },
        {
          "dep": "case",
          "governor": 15,
          "governorGloss": "Angriff",
          "dependent": 13,
          "dependentGloss": "nach"
        },
        {
          "dep": "amod",
          "governor": 15,
          "governorGloss": "Angriff",
          "dependent": 14,
          "dependentGloss": "Pariser"
        },
        {
          "dep": "nmod",
          "governor": 7,
          "governorGloss": "bietet",
          "dependent": 15,
          "dependentGloss": "Angriff"
        }
      ],
      "tokens": [
        {
          "index": 1,
          "word": "Beliebtes",
          "originalText": "Beliebtes",
          "characterOffsetBegin": 0,
          "characterOffsetEnd": 9,
          "pos": "ADJA",
          "before": "",
          "after": " "
        },
        {
          "index": 2,
          "word": "`",
          "originalText": "'",
          "characterOffsetBegin": 10,
          "characterOffsetEnd": 11,
          "pos": "ADJA",
          "before": " ",
          "after": ""
        },
        {
          "index": 3,
          "word": "Banksy",
          "originalText": "Banksy",
          "characterOffsetBegin": 11,
          "characterOffsetEnd": 17,
          "pos": "NN",
          "before": "",
          "after": ""
        },
        {
          "index": 4,
          "word": "'",
          "originalText": "'",
          "characterOffsetBegin": 17,
          "characterOffsetEnd": 18,
          "pos": "$[",
          "before": "",
          "after": " "
        },
        {
          "index": 5,
          "word": "Instagram",
          "originalText": "Instagram",
          "characterOffsetBegin": 19,
          "characterOffsetEnd": 28,
          "pos": "NN",
          "before": " ",
          "after": " "
        },
        {
          "index": 6,
          "word": "Konto",
          "originalText": "Konto",
          "characterOffsetBegin": 29,
          "characterOffsetEnd": 34,
          "pos": "NN",
          "before": " ",
          "after": " "
        },
        {
          "index": 7,
          "word": "bietet",
          "originalText": "bietet",
          "characterOffsetBegin": 35,
          "characterOffsetEnd": 41,
          "pos": "VVFIN",
          "before": " ",
          "after": " "
        },
        {
          "index": 8,
          "word": "eine",
          "originalText": "eine",
          "characterOffsetBegin": 42,
          "characterOffsetEnd": 46,
          "pos": "ART",
          "before": " ",
          "after": " "
        },
        {
          "index": 9,
          "word": "starke",
          "originalText": "starke",
          "characterOffsetBegin": 47,
          "characterOffsetEnd": 53,
          "pos": "ADJA",
          "before": " ",
          "after": " "
        },
        {
          "index": 10,
          "word": "Botschaft",
          "originalText": "Botschaft",
          "characterOffsetBegin": 54,
          "characterOffsetEnd": 63,
          "pos": "NN",
          "before": " ",
          "after": " "
        },
        {
          "index": 11,
          "word": "der",
          "originalText": "der",
          "characterOffsetBegin": 64,
          "characterOffsetEnd": 67,
          "pos": "ART",
          "before": " ",
          "after": " "
        },
        {
          "index": 12,
          "word": "Beharrlichkeit",
          "originalText": "Beharrlichkeit",
          "characterOffsetBegin": 68,
          "characterOffsetEnd": 82,
          "pos": "NN",
          "before": " ",
          "after": " "
        },
        {
          "index": 13,
          "word": "nach",
          "originalText": "nach",
          "characterOffsetBegin": 83,
          "characterOffsetEnd": 87,
          "pos": "APPR",
          "before": " ",
          "after": " "
        },
        {
          "index": 14,
          "word": "Pariser",
          "originalText": "Pariser",
          "characterOffsetBegin": 88,
          "characterOffsetEnd": 95,
          "pos": "ADJA",
          "before": " ",
          "after": " "
        },
        {
          "index": 15,
          "word": "Angriff",
          "originalText": "Angriff",
          "characterOffsetBegin": 96,
          "characterOffsetEnd": 103,
          "pos": "NN",
          "before": " ",
          "after": ""
        }
      ]
    }
  ]
}