{
  "sentences": [
    {
      "index": 0,
      "basicDependencies": [
        {
          "dep": "ROOT",
          "governor": 0,
          "governorGloss": "ROOT",
          "dependent": 9,
          "dependentGloss": "starb"
        },
        {
          "dep": "det",
          "governor": 5,
          "governorGloss": "Whisperer",
          "dependent": 1,
          "dependentGloss": "Der"
        },
        {
          "dep": "amod",
          "governor": 5,
          "governorGloss": "Whisperer",
          "dependent": 2,
          "dependentGloss": "berühmte"
        },
        {
          "dep": "punct",
          "governor": 5,
          "governorGloss": "Whisperer",
          "dependent": 3,
          "dependentGloss": "``"
        },
        {
          "dep": "name",
          "governor": 5,
          "governorGloss": "Whisperer",
          "dependent": 4,
          "dependentGloss": "Dog"
        },
        {
          "dep": "iobj",
          "governor": 9,
          "governorGloss": "starb",
          "dependent": 5,
          "dependentGloss": "Whisperer"
        },
        {
          "dep": "punct",
          "governor": 8,
          "governorGloss": "Millan",
          "dependent": 6,
          "dependentGloss": "``"
        },
        {
          "dep": "amod",
          "governor": 8,
          "governorGloss": "Millan",
          "dependent": 7,
          "dependentGloss": "Cesar"
        },
        {
          "dep": "nsubj",
          "governor": 9,
          "governorGloss": "starb",
          "dependent": 8,
          "dependentGloss": "Millan"
        },
        {
          "dep": "advmod",
          "governor": 9,
          "governorGloss": "starb",
          "dependent": 10,
          "dependentGloss": "heute"
        },
        {
          "dep": "dobj",
          "governor": 9,
          "governorGloss": "starb",
          "dependent": 11,
          "dependentGloss": "Morgen"
        },
        {
          "dep": "case",
          "governor": 14,
          "governorGloss": "Herzinfarkt",
          "dependent": 12,
          "dependentGloss": "an"
        },
        {
          "dep": "det",
          "governor": 14,
          "governorGloss": "Herzinfarkt",
          "dependent": 13,
          "dependentGloss": "einem"
        },
        {
          "dep": "nmod",
          "governor": 11,
          "governorGloss": "Morgen",
          "dependent": 14,
          "dependentGloss": "Herzinfarkt"
        },
        {
          "dep": "punct",
          "governor": 9,
          "governorGloss": "starb",
          "dependent": 15,
          "dependentGloss": "."
        }
      ],
      "enhancedDependencies": [
        {
          "dep": "ROOT",
          "governor": 0,
          "governorGloss": "ROOT",
          "dependent": 9,
          "dependentGloss": "starb"
        },
        {
          "dep": "det",
          "governor": 5,
          "governorGloss": "Whisperer",
          "dependent": 1,
          "dependentGloss": "Der"
        },
        {
          "dep": "amod",
          "governor": 5,
          "governorGloss": "Whisperer",
          "dependent": 2,
          "dependentGloss": "berühmte"
        },
        {
          "dep": "punct",
          "governor": 5,
          "governorGloss": "Whisperer",
          "dependent": 3,
          "dependentGloss": "``"
        },
        {
          "dep": "name",
          "governor": 5,
          "governorGloss": "Whisperer",
          "dependent": 4,
          "dependentGloss": "Dog"
        },
        {
          "dep": "iobj",
          "governor": 9,
          "governorGloss": "starb",
          "dependent": 5,
          "dependentGloss": "Whisperer"
        },
        {
          "dep": "punct",
          "governor": 8,
          "governorGloss": "Millan",
          "dependent": 6,
          "dependentGloss": "``"
        },
        {
          "dep": "amod",
          "governor": 8,
          "governorGloss": "Millan",
          "dependent": 7,
          "dependentGloss": "Cesar"
        },
        {
          "dep": "nsubj",
          "governor": 9,
          "governorGloss": "starb",
          "dependent": 8,
          "dependentGloss": "Millan"
        },
        {
          "dep": "advmod",
          "governor": 9,
          "governorGloss": "starb",
          "dependent": 10,
          "dependentGloss": "heute"
        },
        {
          "dep": "dobj",
          "governor": 9,
          "governorGloss": "starb",
          "dependent": 11,
          "dependentGloss": "Morgen"
        },
        {
          "dep": "case",
          "governor": 14,
          "governorGloss": "Herzinfarkt",
          "dependent": 12,
          "dependentGloss": "an"
        },
        {
          "dep": "det",
          "governor": 14,
          "governorGloss": "Herzinfarkt",
          "dependent": 13,
          "dependentGloss": "einem"
        },
        {
          "dep": "nmod",
          "governor": 11,
          "governorGloss": "Morgen",
          "dependent": 14,
          "dependentGloss": "Herzinfarkt"
        },
        {
          "dep": "punct",
          "governor": 9,
          "governorGloss": "starb",
          "dependent": 15,
          "dependentGloss": "."
        }
      ],
      "enhancedPlusPlusDependencies": [
        {
          "dep": "ROOT",
          "governor": 0,
          "governorGloss": "ROOT",
          "dependent": 9,
          "dependentGloss": "starb"
        },
        {
          "dep": "det",
          "governor": 5,
          "governorGloss": "Whisperer",
          "dependent": 1,
          "dependentGloss": "Der"
        },
        {
          "dep": "amod",
          "governor": 5,
          "governorGloss": "Whisperer",
          "dependent": 2,
          "dependentGloss": "berühmte"
        },
        {
          "dep": "punct",
          "governor": 5,
          "governorGloss": "Whisperer",
          "dependent": 3,
          "dependentGloss": "``"
        },
        {
          "dep": "name",
          "governor": 5,
          "governorGloss": "Whisperer",
          "dependent": 4,
          "dependentGloss": "Dog"
        },
        {
          "dep": "iobj",
          "governor": 9,
          "governorGloss": "starb",
          "dependent": 5,
          "dependentGloss": "Whisperer"
        },
        {
          "dep": "punct",
          "governor": 8,
          "governorGloss": "Millan",
          "dependent": 6,
          "dependentGloss": "``"
        },
        {
          "dep": "amod",
          "governor": 8,
          "governorGloss": "Millan",
          "dependent": 7,
          "dependentGloss": "Cesar"
        },
        {
          "dep": "nsubj",
          "governor": 9,
          "governorGloss": "starb",
          "dependent": 8,
          "dependentGloss": "Millan"
        },
        {
          "dep": "advmod",
          "governor": 9,
          "governorGloss": "starb",
          "dependent": 10,
          "dependentGloss": "heute"
        },
        {
          "dep": "dobj",
          "governor": 9,
          "governorGloss": "starb",
          "dependent": 11,
          "dependentGloss": "Morgen"
        },
        {
          "dep": "case",
          "governor": 14,
          "governorGloss": "Herzinfarkt",
          "dependent": 12,
          "dependentGloss": "an"
        },
        {
          "dep": "det",
          "governor": 14,
          "governorGloss": "Herzinfarkt",
          "dependent": 13,
          "dependentGloss": "einem"
        },
        {
          "dep": "nmod",
          "governor": 11,
          "governorGloss": "Morgen",
          "dependent": 14,
          "dependentGloss": "Herzinfarkt"
        },
        {
          "dep": "punct",
          "governor": 9,
          "governorGloss": "starb",
          "dependent": 15,
          "dependentGloss": "."
        }
      ],
      "tokens": [
        {
          "index": 1,
          "word": "Der",
          "originalText": "Der",
          "characterOffsetBegin": 0,
          "characterOffsetEnd": 3,
          "pos": "ART",
          "before": "",
          "after": " "
        },
        {
          "index": 2,
          "word": "berühmte",
          "originalText": "berühmte",
          "characterOffsetBegin": 4,
          "characterOffsetEnd": 12,
          "pos": "ADJA",
          "before": " ",
          "after": " "
        },
        {
          "index": 3,
          "word": "``",
          "originalText": "“",
          "characterOffsetBegin": 13,
          "characterOffsetEnd": 14,
          "pos": "CARD",
          "before": " ",
          "after": ""
        },
        {
          "index": 4,
          "word": "Dog",
          "originalText": "Dog",
          "characterOffsetBegin": 14,
          "characterOffsetEnd": 17,
          "pos": "NN",
          "before": "",
          "after": " "
        },
        {
          "index": 5,
          "word": "Whisperer",
          "originalText": "Whisperer",
          "characterOffsetBegin": 18,
          "characterOffsetEnd": 27,
          "pos": "NN",
          "before": " ",
          "after": ""
        },
        {
          "index": 6,
          "word": "``",
          "originalText": "“",
          "characterOffsetBegin": 27,
          "characterOffsetEnd": 28,
          "pos": "VVFIN",
          "before": "",
          "after": " "
        },
        {
          "index": 7,
          "word": "Cesar",
          "originalText": "Cesar",
          "characterOffsetBegin": 29,
          "characterOffsetEnd": 34,
          "pos": "NE",
          "before": " ",
          "after": " "
        },
        {
          "index": 8,
          "word": "Millan",
          "originalText": "Millan",
          "characterOffsetBegin": 35,
          "characterOffsetEnd": 41,
          "pos": "NE",
          "before": " ",
          "after": " "
        },
        {
          "index": 9,
          "word": "starb",
          "originalText": "starb",
          "characterOffsetBegin": 42,
          "characterOffsetEnd": 47,
          "pos": "VVFIN",
          "before": " ",
          "after": " "
        },
        {
          "index": 10,
          "word": "heute",
          "originalText": "heute",
          "characterOffsetBegin": 48,
          "characterOffsetEnd": 53,
          "pos": "ADV",
          "before": " ",
          "after": " "
        },
        {
          "index": 11,
          "word": "Morgen",
          "originalText": "Morgen",
          "characterOffsetBegin": 54,
          "characterOffsetEnd": 60,
          "pos": "ADV",
          "before": " ",
          "after": " "
        },
        {
          "index": 12,
          "word": "an",
          "originalText": "an",
          "characterOffsetBegin": 61,
          "characterOffsetEnd": 63,
          "pos": "APPR",
          "before": " ",
          "after": " "
        },
        {
          "index": 13,
          "word": "einem",
          "originalText": "einem",
          "characterOffsetBegin": 64,
          "characterOffsetEnd": 69,
          "pos": "ART",
          "before": " ",
          "after": " "
        },
        {
          "index": 14,
          "word": "Herzinfarkt",
          "originalText": "Herzinfarkt",
          "characterOffsetBegin": 70,
          "characterOffsetEnd": 81,
          "pos": "NN",
          "before": " ",
          "after": ""
        },
        {
          "index": 15,
          "word": ".",
          "originalText": ".",
          "characterOffsetBegin": 81,
          "characterOffsetEnd": 82,
          "pos": "$.",
          "before": "",
          "after": ""
        }
      ]
    }
  ]
}