{
  "sentences": [
    {
      "index": 0,
      "basicDependencies": [
        {
          "dep": "ROOT",
          "governor": 0,
          "governorGloss": "ROOT",
          "dependent": 1,
          "dependentGloss": "Nujaifi"
        },
        {
          "dep": "nsubj",
          "governor": 1,
          "governorGloss": "Nujaifi",
          "dependent": 2,
          "dependentGloss": "verurteilt"
        },
        {
          "dep": "punct",
          "governor": 2,
          "governorGloss": "verurteilt",
          "dependent": 3,
          "dependentGloss": "/"
        },
        {
          "dep": "conj",
          "governor": 2,
          "governorGloss": "verurteilt",
          "dependent": 4,
          "dependentGloss": "Daash"
        },
        {
          "dep": "punct",
          "governor": 2,
          "governorGloss": "verurteilt",
          "dependent": 5,
          "dependentGloss": "/"
        },
        {
          "dep": "conj",
          "governor": 2,
          "governorGloss": "verurteilt",
          "dependent": 6,
          "dependentGloss": "Verbrechen"
        },
        {
          "dep": "case",
          "governor": 8,
          "governorGloss": "Saqlawiyah",
          "dependent": 7,
          "dependentGloss": "in"
        },
        {
          "dep": "nmod",
          "governor": 2,
          "governorGloss": "verurteilt",
          "dependent": 8,
          "dependentGloss": "Saqlawiyah"
        },
        {
          "dep": "cc",
          "governor": 8,
          "governorGloss": "Saqlawiyah",
          "dependent": 9,
          "dependentGloss": "und"
        },
        {
          "dep": "amod",
          "governor": 11,
          "governorGloss": "Gebieten",
          "dependent": 10,
          "dependentGloss": "Alsiger"
        },
        {
          "dep": "conj",
          "governor": 8,
          "governorGloss": "Saqlawiyah",
          "dependent": 11,
          "dependentGloss": "Gebieten"
        },
        {
          "dep": "case",
          "governor": 13,
          "governorGloss": "Anbar",
          "dependent": 12,
          "dependentGloss": "von"
        },
        {
          "dep": "nmod",
          "governor": 2,
          "governorGloss": "verurteilt",
          "dependent": 13,
          "dependentGloss": "Anbar"
        },
        {
          "dep": "punct",
          "governor": 1,
          "governorGloss": "Nujaifi",
          "dependent": 14,
          "dependentGloss": "."
        }
      ],
      "enhancedDependencies": [
        {
          "dep": "ROOT",
          "governor": 0,
          "governorGloss": "ROOT",
          "dependent": 1,
          "dependentGloss": "Nujaifi"
        },
        {
          "dep": "nsubj",
          "governor": 1,
          "governorGloss": "Nujaifi",
          "dependent": 2,
          "dependentGloss": "verurteilt"
        },
        {
          "dep": "punct",
          "governor": 2,
          "governorGloss": "verurteilt",
          "dependent": 3,
          "dependentGloss": "/"
        },
        {
          "dep": "conj",
          "governor": 2,
          "governorGloss": "verurteilt",
          "dependent": 4,
          "dependentGloss": "Daash"
        },
        {
          "dep": "punct",
          "governor": 2,
          "governorGloss": "verurteilt",
          "dependent": 5,
          "dependentGloss": "/"
        },
        {
          "dep": "conj",
          "governor": 2,
          "governorGloss": "verurteilt",
          "dependent": 6,
          "dependentGloss": "Verbrechen"
        },
        {
          "dep": "case",
          "governor": 8,
          "governorGloss": "Saqlawiyah",
          "dependent": 7,
          "dependentGloss": "in"
        },
        {
          "dep": "nmod",
          "governor": 2,
          "governorGloss": "verurteilt",
          "dependent": 8,
          "dependentGloss": "Saqlawiyah"
        },
        {
          "dep": "cc",
          "governor": 8,
          "governorGloss": "Saqlawiyah",
          "dependent": 9,
          "dependentGloss": "und"
        },
        {
          "dep": "amod",
          "governor": 11,
          "governorGloss": "Gebieten",
          "dependent": 10,
          "dependentGloss": "Alsiger"
        },
        {
          "dep": "nmod",
          "governor": 2,
          "governorGloss": "verurteilt",
          "dependent": 11,
          "dependentGloss": "Gebieten"
        },
        {
          "dep": "conj:und",
          "governor": 8,
          "governorGloss": "Saqlawiyah",
          "dependent": 11,
          "dependentGloss": "Gebieten"
        },
        {
          "dep": "case",
          "governor": 13,
          "governorGloss": "Anbar",
          "dependent": 12,
          "dependentGloss": "von"
        },
        {
          "dep": "nmod",
          "governor": 2,
          "governorGloss": "verurteilt",
          "dependent": 13,
          "dependentGloss": "Anbar"
        },
        {
          "dep": "punct",
          "governor": 1,
          "governorGloss": "Nujaifi",
          "dependent": 14,
          "dependentGloss": "."
        }
      ],
      "enhancedPlusPlusDependencies": [
        {
          "dep": "ROOT",
          "governor": 0,
          "governorGloss": "ROOT",
          "dependent": 1,
          "dependentGloss": "Nujaifi"
        },
        {
          "dep": "nsubj",
          "governor": 1,
          "governorGloss": "Nujaifi",
          "dependent": 2,
          "dependentGloss": "verurteilt"
        },
        {
          "dep": "punct",
          "governor": 2,
          "governorGloss": "verurteilt",
          "dependent": 3,
          "dependentGloss": "/"
        },
        {
          "dep": "conj",
          "governor": 2,
          "governorGloss": "verurteilt",
          "dependent": 4,
          "dependentGloss": "Daash"
        },
        {
          "dep": "punct",
          "governor": 2,
          "governorGloss": "verurteilt",
          "dependent": 5,
          "dependentGloss": "/"
        },
        {
          "dep": "conj",
          "governor": 2,
          "governorGloss": "verurteilt",
          "dependent": 6,
          "dependentGloss": "Verbrechen"
        },
        {
          "dep": "case",
          "governor": 8,
          "governorGloss": "Saqlawiyah",
          "dependent": 7,
          "dependentGloss": "in"
        },
        {
          "dep": "nmod",
          "governor": 2,
          "governorGloss": "verurteilt",
          "dependent": 8,
          "dependentGloss": "Saqlawiyah"
        },
        {
          "dep": "cc",
          "governor": 8,
          "governorGloss": "Saqlawiyah",
          "dependent": 9,
          "dependentGloss": "und"
        },
        {
          "dep": "amod",
          "governor": 11,
          "governorGloss": "Gebieten",
          "dependent": 10,
          "dependentGloss": "Alsiger"
        },
        {
          "dep": "nmod",
          "governor": 2,
          "governorGloss": "verurteilt",
          "dependent": 11,
          "dependentGloss": "Gebieten"
        },
        {
          "dep": "conj:und",
          "governor": 8,
          "governorGloss": "Saqlawiyah",
          "dependent": 11,
          "dependentGloss": "Gebieten"
        },
        {
          "dep": "case",
          "governor": 13,
          "governorGloss": "Anbar",
          "dependent": 12,
          "dependentGloss": "von"
        },
        {
          "dep": "nmod",
          "governor": 2,
          "governorGloss": "verurteilt",
          "dependent": 13,
          "dependentGloss": "Anbar"
        },
        {
          "dep": "punct",
          "governor": 1,
          "governorGloss": "Nujaifi",
          "dependent": 14,
          "dependentGloss": "."
        }
      ],
      "tokens": [
        {
          "index": 1,
          "word": "Nujaifi",
          "originalText": "Nujaifi",
          "characterOffsetBegin": 0,
          "characterOffsetEnd": 7,
          "pos": "NE",
          "before": "",
          "after": " "
        },
        {
          "index": 2,
          "word": "verurteilt",
          "originalText": "verurteilt",
          "characterOffsetBegin": 8,
          "characterOffsetEnd": 18,
          "pos": "VVFIN",
          "before": " ",
          "after": " "
        },
        {
          "index": 3,
          "word": "/",
          "originalText": "/",
          "characterOffsetBegin": 19,
          "characterOffsetEnd": 20,
          "pos": "$[",
          "before": " ",
          "after": " "
        },
        {
          "index": 4,
          "word": "Daash",
          "originalText": "Daash",
          "characterOffsetBegin": 21,
          "characterOffsetEnd": 26,
          "pos": "NE",
          "before": " ",
          "after": " "
        },
        {
          "index": 5,
          "word": "/",
          "originalText": "/",
          "characterOffsetBegin": 27,
          "characterOffsetEnd": 28,
          "pos": "$[",
          "before": " ",
          "after": " "
        },
        {
          "index": 6,
          "word": "Verbrechen",
          "originalText": "Verbrechen",
          "characterOffsetBegin": 29,
          "characterOffsetEnd": 39,
          "pos": "NN",
          "before": " ",
          "after": " "
        },
        {
          "index": 7,
          "word": "in",
          "originalText": "in",
          "characterOffsetBegin": 40,
          "characterOffsetEnd": 42,
          "pos": "APPR",
          "before": " ",
          "after": " "
        },
        {
          "index": 8,
          "word": "Saqlawiyah",
          "originalText": "Saqlawiyah",
          "characterOffsetBegin": 43,
          "characterOffsetEnd": 53,
          "pos": "NE",
          "before": " ",
          "after": " "
        },
        {
          "index": 9,
          "word": "und",
          "originalText": "und",
          "characterOffsetBegin": 54,
          "characterOffsetEnd": 57,
          "pos": "KON",
          "before": " ",
          "after": " "
        },
        {
          "index": 10,
          "word": "Alsiger",
          "originalText": "Alsiger",
          "characterOffsetBegin": 58,
          "characterOffsetEnd": 65,
          "pos": "NE",
          "before": " ",
          "after": " "
        },
        {
          "index": 11,
          "word": "Gebieten",
          "originalText": "Gebieten",
          "characterOffsetBegin": 66,
          "characterOffsetEnd": 74,
          "pos": "NN",
          "before": " ",
          "after": " "
        },
        {
          "index": 12,
          "word": "von",
          "originalText": "von",
          "characterOffsetBegin": 75,
          "characterOffsetEnd": 78,
          "pos": "APPR",
          "before": " ",
          "after": " "
        },
        {
          "index": 13,
          "word": "Anbar",
          "originalText": "Anbar",
          "characterOffsetBegin": 79,
          "characterOffsetEnd": 84,
          "pos": "NE",
          "before": " ",
          "after": ""
        },
        {
          "index": 14,
          "word": ".",
          "originalText": ".",
          "characterOffsetBegin": 84,
          "characterOffsetEnd": 85,
          "pos": "$.",
          "before": "",
          "after": ""
        }
      ]
    }
  ]
}