{
  "sentences": [
    {
      "index": 0,
      "basicDependencies": [
        {
          "dep": "ROOT",
          "governor": 0,
          "governorGloss": "ROOT",
          "dependent": 7,
          "dependentGloss": "kennen"
        },
        {
          "dep": "dobj",
          "governor": 7,
          "governorGloss": "kennen",
          "dependent": 1,
          "dependentGloss": "Was"
        },
        {
          "dep": "nsubj",
          "governor": 7,
          "governorGloss": "kennen",
          "dependent": 2,
          "dependentGloss": "wir"
        },
        {
          "dep": "case",
          "governor": 5,
          "governorGloss": "Yo",
          "dependent": 3,
          "dependentGloss": "über"
        },
        {
          "dep": "name",
          "governor": 5,
          "governorGloss": "Yo",
          "dependent": 4,
          "dependentGloss": "Kim"
        },
        {
          "dep": "nmod",
          "governor": 7,
          "governorGloss": "kennen",
          "dependent": 5,
          "dependentGloss": "Yo"
        },
        {
          "dep": "dobj",
          "governor": 7,
          "governorGloss": "kennen",
          "dependent": 6,
          "dependentGloss": "Jong"
        },
        {
          "dep": "punct",
          "governor": 7,
          "governorGloss": "kennen",
          "dependent": 8,
          "dependentGloss": ","
        },
        {
          "dep": "det",
          "governor": 10,
          "governorGloss": "Nordkorea",
          "dependent": 9,
          "dependentGloss": "der"
        },
        {
          "dep": "nsubj",
          "governor": 11,
          "governorGloss": "kontrollieren",
          "dependent": 10,
          "dependentGloss": "Nordkorea"
        },
        {
          "dep": "ccomp",
          "governor": 7,
          "governorGloss": "kennen",
          "dependent": 11,
          "dependentGloss": "kontrollieren"
        },
        {
          "dep": "aux",
          "governor": 11,
          "governorGloss": "kontrollieren",
          "dependent": 12,
          "dependentGloss": "kann"
        }
      ],
      "enhancedDependencies": [
        {
          "dep": "ROOT",
          "governor": 0,
          "governorGloss": "ROOT",
          "dependent": 7,
          "dependentGloss": "kennen"
        },
        {
          "dep": "dobj",
          "governor": 7,
          "governorGloss": "kennen",
          "dependent": 1,
          "dependentGloss": "Was"
        },
        {
          "dep": "nsubj",
          "governor": 7,
          "governorGloss": "kennen",
          "dependent": 2,
          "dependentGloss": "wir"
        },
        {
          "dep": "case",
          "governor": 5,
          "governorGloss": "Yo",
          "dependent": 3,
          "dependentGloss": "über"
        },
        {
          "dep": "name",
          "governor": 5,
          "governorGloss": "Yo",
          "dependent": 4,
          "dependentGloss": "Kim"
        },
        {
          "dep": "nmod",
          "governor": 7,
          "governorGloss": "kennen",
          "dependent": 5,
          "dependentGloss": "Yo"
        },
        {
          "dep": "dobj",
          "governor": 7,
          "governorGloss": "kennen",
          "dependent": 6,
          "dependentGloss": "Jong"
        },
        {
          "dep": "punct",
          "governor": 7,
          "governorGloss": "kennen",
          "dependent": 8,
          "dependentGloss": ","
        },
        {
          "dep": "det",
          "governor": 10,
          "governorGloss": "Nordkorea",
          "dependent": 9,
          "dependentGloss": "der"
        },
        {
          "dep": "nsubj",
          "governor": 11,
          "governorGloss": "kontrollieren",
          "dependent": 10,
          "dependentGloss": "Nordkorea"
        },
        {
          "dep": "ccomp",
          "governor": 7,
          "governorGloss": "kennen",
          "dependent": 11,
          "dependentGloss": "kontrollieren"
        },
        {
          "dep": "aux",
          "governor": 11,
          "governorGloss": "kontrollieren",
          "dependent": 12,
          "dependentGloss": "kann"
        }
      ],
      "enhancedPlusPlusDependencies": [
        {
          "dep": "ROOT",
          "governor": 0,
          "governorGloss": "ROOT",
          "dependent": 7,
          "dependentGloss": "kennen"
        },
        {
          "dep": "dobj",
          "governor": 7,
          "governorGloss": "kennen",
          "dependent": 1,
          "dependentGloss": "Was"
        },
        {
          "dep": "nsubj",
          "governor": 7,
          "governorGloss": "kennen",
          "dependent": 2,
          "dependentGloss": "wir"
        },
        {
          "dep": "case",
          "governor": 5,
          "governorGloss": "Yo",
          "dependent": 3,
          "dependentGloss": "über"
        },
        {
          "dep": "name",
          "governor": 5,
          "governorGloss": "Yo",
          "dependent": 4,
          "dependentGloss": "Kim"
        },
        {
          "dep": "nmod",
          "governor": 7,
          "governorGloss": "kennen",
          "dependent": 5,
          "dependentGloss": "Yo"
        },
        {
          "dep": "dobj",
          "governor": 7,
          "governorGloss": "kennen",
          "dependent": 6,
          "dependentGloss": "Jong"
        },
        {
          "dep": "punct",
          "governor": 7,
          "governorGloss": "kennen",
          "dependent": 8,
          "dependentGloss": ","
        },
        {
          "dep": "det",
          "governor": 10,
          "governorGloss": "Nordkorea",
          "dependent": 9,
          "dependentGloss": "der"
        },
        {
          "dep": "nsubj",
          "governor": 11,
          "governorGloss": "kontrollieren",
          "dependent": 10,
          "dependentGloss": "Nordkorea"
        },
        {
          "dep": "ccomp",
          "governor": 7,
          "governorGloss": "kennen",
          "dependent": 11,
          "dependentGloss": "kontrollieren"
        },
        {
          "dep": "aux",
          "governor": 11,
          "governorGloss": "kontrollieren",
          "dependent": 12,
          "dependentGloss": "kann"
        }
      ],
      "tokens": [
        {
          "index": 1,
          "word": "Was",
          "originalText": "Was",
          "characterOffsetBegin": 0,
          "characterOffsetEnd": 3,
          "pos": "PWS",
          "before": "",
          "after": " "
        },
        {
          "index": 2,
          "word": "wir",
          "originalText": "wir",
          "characterOffsetBegin": 4,
          "characterOffsetEnd": 7,
          "pos": "PPER",
          "before": " ",
          "after": " "
        },
        {
          "index": 3,
          "word": "über",
          "originalText": "über",
          "characterOffsetBegin": 8,
          "characterOffsetEnd": 12,
          "pos": "APPR",
          "before": " ",
          "after": " "
        },
        {
          "index": 4,
          "word": "Kim",
          "originalText": "Kim",
          "characterOffsetBegin": 13,
          "characterOffsetEnd": 16,
          "pos": "NE",
          "before": " ",
          "after": " "
        },
        {
          "index": 5,
          "word": "Yo",
          "originalText": "Yo",
          "characterOffsetBegin": 17,
          "characterOffsetEnd": 19,
          "pos": "NE",
          "before": " ",
          "after": " "
        },
        {
          "index": 6,
          "word": "Jong",
          "originalText": "Jong",
          "characterOffsetBegin": 20,
          "characterOffsetEnd": 24,
          "pos": "NE",
          "before": " ",
          "after": " "
        },
        {
          "index": 7,
          "word": "kennen",
          "originalText": "kennen",
          "characterOffsetBegin": 25,
          "characterOffsetEnd": 31,
          "pos": "VVFIN",
          "before": " ",
          "after": ""
        },
        {
          "index": 8,
          "word": ",",
          "originalText": ",",
          "characterOffsetBegin": 31,
          "characterOffsetEnd": 32,
          "pos": "$,",
          "before": "",
          "after": " "
        },
        {
          "index": 9,
          "word": "der",
          "originalText": "der",
          "characterOffsetBegin": 33,
          "characterOffsetEnd": 36,
          "pos": "ART",
          "before": " ",
          "after": " "
        },
        {
          "index": 10,
          "word": "Nordkorea",
          "originalText": "Nordkorea",
          "characterOffsetBegin": 37,
          "characterOffsetEnd": 46,
          "pos": "NE",
          "before": " ",
          "after": " "
        },
        {
          "index": 11,
          "word": "kontrollieren",
          "originalText": "kontrollieren",
          "characterOffsetBegin": 47,
          "characterOffsetEnd": 60,
          "pos": "VVINF",
          "before": " ",
          "after": " "
        },
        {
          "index": 12,
          "word": "kann",
          "originalText": "kann",
          "characterOffsetBegin": 61,
          "characterOffsetEnd": 65,
          "pos": "VMFIN",
          "before": " ",
          "after": ""
        }
      ]
    }
  ]
}