{
  "sentences": [
    {
      "index": 0,
      "basicDependencies": [
        {
          "dep": "ROOT",
          "governor": 0,
          "governorGloss": "ROOT",
          "dependent": 1,
          "dependentGloss": "Boko"
        },
        {
          "dep": "amod",
          "governor": 4,
          "governorGloss": "Waffenstillstandsanspruch",
          "dependent": 2,
          "dependentGloss": "Haram"
        },
        {
          "dep": "amod",
          "governor": 4,
          "governorGloss": "Waffenstillstandsanspruch",
          "dependent": 3,
          "dependentGloss": "verweigert"
        },
        {
          "dep": "dobj",
          "governor": 1,
          "governorGloss": "Boko",
          "dependent": 4,
          "dependentGloss": "Waffenstillstandsanspruch"
        },
        {
          "dep": "case",
          "governor": 7,
          "governorGloss": "Regierung",
          "dependent": 5,
          "dependentGloss": "von"
        },
        {
          "dep": "amod",
          "governor": 7,
          "governorGloss": "Regierung",
          "dependent": 6,
          "dependentGloss": "Nigerias"
        },
        {
          "dep": "nmod",
          "governor": 4,
          "governorGloss": "Waffenstillstandsanspruch",
          "dependent": 7,
          "dependentGloss": "Regierung"
        }
      ],
      "enhancedDependencies": [
        {
          "dep": "ROOT",
          "governor": 0,
          "governorGloss": "ROOT",
          "dependent": 1,
          "dependentGloss": "Boko"
        },
        {
          "dep": "amod",
          "governor": 4,
          "governorGloss": "Waffenstillstandsanspruch",
          "dependent": 2,
          "dependentGloss": "Haram"
        },
        {
          "dep": "amod",
          "governor": 4,
          "governorGloss": "Waffenstillstandsanspruch",
          "dependent": 3,
          "dependentGloss": "verweigert"
        },
        {
          "dep": "dobj",
          "governor": 1,
          "governorGloss": "Boko",
          "dependent": 4,
          "dependentGloss": "Waffenstillstandsanspruch"
        },
        {
          "dep": "case",
          "governor": 7,
          "governorGloss": "Regierung",
          "dependent": 5,
          "dependentGloss": "von"
        },
        {
          "dep": "amod",
          "governor": 7,
          "governorGloss": "Regierung",
          "dependent": 6,
          "dependentGloss": "Nigerias"
        },
        {
          "dep": "nmod",
          "governor": 4,
          "governorGloss": "Waffenstillstandsanspruch",
          "dependent": 7,
          "dependentGloss": "Regierung"
        }
      ],
      "enhancedPlusPlusDependencies": [
        {
          "dep": "ROOT",
          "governor": 0,
          "governorGloss": "ROOT",
          "dependent": 1,
          "dependentGloss": "Boko"
        },
        {
          "dep": "amod",
          "governor": 4,
          "governorGloss": "Waffenstillstandsanspruch",
          "dependent": 2,
          "dependentGloss": "Haram"
        },
        {
          "dep": "amod",
          "governor": 4,
          "governorGloss": "Waffenstillstandsanspruch",
          "dependent": 3,
          "dependentGloss": "verweigert"
        },
        {
          "dep": "dobj",
          "governor": 1,
          "governorGloss": "Boko",
          "dependent": 4,
          "dependentGloss": "Waffenstillstandsanspruch"
        },
        {
          "dep": "case",
          "governor": 7,
          "governorGloss": "Regierung",
          "dependent": 5,
          "dependentGloss": "von"
        },
        {
          "dep": "amod",
          "governor": 7,
          "governorGloss": "Regierung",
          "dependent": 6,
          "dependentGloss": "Nigerias"
        },
        {
          "dep": "nmod",
          "governor": 4,
          "governorGloss": "Waffenstillstandsanspruch",
          "dependent": 7,
          "dependentGloss": "Regierung"
        }
      ],
      "tokens": [
        {
          "index": 1,
          "word": "Boko",
          "originalText": "Boko",
          "characterOffsetBegin": 0,
          "characterOffsetEnd": 4,
          "pos": "NE",
          "before": "",
          "after": " "
        },
        {
          "index": 2,
          "word": "Haram",
          "originalText": "Haram",
          "characterOffsetBegin": 5,
          "characterOffsetEnd": 10,
          "pos": "NE",
          "before": " ",
          "after": " "
        },
        {
          "index": 3,
          "word": "verweigert",
          "originalText": "verweigert",
          "characterOffsetBegin": 11,
          "characterOffsetEnd": 21,
          "pos": "VVFIN",
          "before": " ",
          "after": " "
        },
        {
          "index": 4,
          "word": "Waffenstillstandsanspruch",
          "originalText": "Waffenstillstandsanspruch",
          "characterOffsetBegin": 22,
          "characterOffsetEnd": 47,
          "pos": "NN",
          "before": " ",
          "after": " "
        },
        {
          "index": 5,
          "word": "von",
          "originalText": "von",
          "characterOffsetBegin": 48,
          "characterOffsetEnd": 51,
          "pos": "APPR",
          "before": " ",
          "after": " "
        },
        {
          "index": 6,
          "word": "Nigerias",
          "originalText": "Nigerias",
          "characterOffsetBegin": 52,
          "characterOffsetEnd": 60,
          "pos": "NE",
          "before": " ",
          "after": " "
        },
        {
          "index": 7,
          "word": "Regierung",
          "originalText": "Regierung",
          "characterOffsetBegin": 61,
          "characterOffsetEnd": 70,
          "pos": "NN",
          "before": " ",
          "after": ""
        }
      ]
    }
  ]
}