{
  "sentences": [
    {
      "index": 0,
      "basicDependencies": [
        {
          "dep": "ROOT",
          "governor": 0,
          "governorGloss": "ROOT",
          "dependent": 1,
          "dependentGloss": "WHO"
        },
        {
          "dep": "dep",
          "governor": 1,
          "governorGloss": "WHO",
          "dependent": 2,
          "dependentGloss": "`"
        },
        {
          "dep": "dobj",
          "governor": 2,
          "governorGloss": "`",
          "dependent": 3,
          "dependentGloss": "Sondieren"
        },
        {
          "dep": "case",
          "governor": 3,
          "governorGloss": "Sondieren",
          "dependent": 4,
          "dependentGloss": "'"
        },
        {
          "dep": "punct",
          "governor": 3,
          "governorGloss": "Sondieren",
          "dependent": 5,
          "dependentGloss": ","
        },
        {
          "dep": "mark",
          "governor": 9,
          "governorGloss": "bekam",
          "dependent": 6,
          "dependentGloss": "ob"
        },
        {
          "dep": "amod",
          "governor": 8,
          "governorGloss": "Ebola",
          "dependent": 7,
          "dependentGloss": "ISIS-Kämpfer"
        },
        {
          "dep": "dobj",
          "governor": 9,
          "governorGloss": "bekam",
          "dependent": 8,
          "dependentGloss": "Ebola"
        },
        {
          "dep": "advcl",
          "governor": 3,
          "governorGloss": "Sondieren",
          "dependent": 9,
          "dependentGloss": "bekam"
        }
      ],
      "enhancedDependencies": [
        {
          "dep": "ROOT",
          "governor": 0,
          "governorGloss": "ROOT",
          "dependent": 1,
          "dependentGloss": "WHO"
        },
        {
          "dep": "dep",
          "governor": 1,
          "governorGloss": "WHO",
          "dependent": 2,
          "dependentGloss": "`"
        },
        {
          "dep": "dobj",
          "governor": 2,
          "governorGloss": "`",
          "dependent": 3,
          "dependentGloss": "Sondieren"
        },
        {
          "dep": "case",
          "governor": 3,
          "governorGloss": "Sondieren",
          "dependent": 4,
          "dependentGloss": "'"
        },
        {
          "dep": "punct",
          "governor": 3,
          "governorGloss": "Sondieren",
          "dependent": 5,
          "dependentGloss": ","
        },
        {
          "dep": "mark",
          "governor": 9,
          "governorGloss": "bekam",
          "dependent": 6,
          "dependentGloss": "ob"
        },
        {
          "dep": "amod",
          "governor": 8,
          "governorGloss": "Ebola",
          "dependent": 7,
          "dependentGloss": "ISIS-Kämpfer"
        },
        {
          "dep": "dobj",
          "governor": 9,
          "governorGloss": "bekam",
          "dependent": 8,
          "dependentGloss": "Ebola"
        },
        {
          "dep": "advcl",
          "governor": 3,
          "governorGloss": "Sondieren",
          "dependent": 9,
          "dependentGloss": "bekam"
        }
      ],
      "enhancedPlusPlusDependencies": [
        {
          "dep": "ROOT",
          "governor": 0,
          "governorGloss": "ROOT",
          "dependent": 1,
          "dependentGloss": "WHO"
        },
        {
          "dep": "dep",
          "governor": 1,
          "governorGloss": "WHO",
          "dependent": 2,
          "dependentGloss": "`"
        },
        {
          "dep": "dobj",
          "governor": 2,
          "governorGloss": "`",
          "dependent": 3,
          "dependentGloss": "Sondieren"
        },
        {
          "dep": "case",
          "governor": 3,
          "governorGloss": "Sondieren",
          "dependent": 4,
          "dependentGloss": "'"
        },
        {
          "dep": "punct",
          "governor": 3,
          "governorGloss": "Sondieren",
          "dependent": 5,
          "dependentGloss": ","
        },
        {
          "dep": "mark",
          "governor": 9,
          "governorGloss": "bekam",
          "dependent": 6,
          "dependentGloss": "ob"
        },
        {
          "dep": "amod",
          "governor": 8,
          "governorGloss": "Ebola",
          "dependent": 7,
          "dependentGloss": "ISIS-Kämpfer"
        },
        {
          "dep": "dobj",
          "governor": 9,
          "governorGloss": "bekam",
          "dependent": 8,
          "dependentGloss": "Ebola"
        },
        {
          "dep": "advcl",
          "governor": 3,
          "governorGloss": "Sondieren",
          "dependent": 9,
          "dependentGloss": "bekam"
        }
      ],
      "tokens": [
        {
          "index": 1,
          "word": "WHO",
          "originalText": "WHO",
          "characterOffsetBegin": 0,
          "characterOffsetEnd": 3,
          "pos": "NE",
          "before": "",
          "after": " "
        },
        {
          "index": 2,
          "word": "`",
          "originalText": "'",
          "characterOffsetBegin": 4,
          "characterOffsetEnd": 5,
          "pos": "VVFIN",
          "before": " ",
          "after": ""
        },
        {
          "index": 3,
          "word": "Sondieren",
          "originalText": "Sondieren",
          "characterOffsetBegin": 5,
          "characterOffsetEnd": 14,
          "pos": "NN",
          "before": "",
          "after": ""
        },
        {
          "index": 4,
          "word": "'",
          "originalText": "'",
          "characterOffsetBegin": 14,
          "characterOffsetEnd": 15,
          "pos": "$[",
          "before": "",
          "after": ""
        },
        {
          "index": 5,
          "word": ",",
          "originalText": ",",
          "characterOffsetBegin": 15,
          "characterOffsetEnd": 16,
          "pos": "$,",
          "before": "",
          "after": " "
        },
        {
          "index": 6,
          "word": "ob",
          "originalText": "ob",
          "characterOffsetBegin": 17,
          "characterOffsetEnd": 19,
          "pos": "KOUS",
          "before": " ",
          "after": " "
        },
        {
          "index": 7,
          "word": "ISIS-Kämpfer",
          "originalText": "ISIS-Kämpfer",
          "characterOffsetBegin": 20,
          "characterOffsetEnd": 32,
          "pos": "NN",
          "before": " ",
          "after": " "
        },
        {
          "index": 8,
          "word": "Ebola",
          "originalText": "Ebola",
          "characterOffsetBegin": 33,
          "characterOffsetEnd": 38,
          "pos": "NE",
          "before": " ",
          "after": " "
        },
        {
          "index": 9,
          "word": "bekam",
          "originalText": "bekam",
          "characterOffsetBegin": 39,
          "characterOffsetEnd": 44,
          "pos": "VVFIN",
          "before": " ",
          "after": ""
        }
      ]
    }
  ]
}