{
  "sentences": [
    {
      "index": 0,
      "basicDependencies": [
        {
          "dep": "ROOT",
          "governor": 0,
          "governorGloss": "ROOT",
          "dependent": 3,
          "dependentGloss": "verlässt"
        },
        {
          "dep": "det",
          "governor": 2,
          "governorGloss": "Frau",
          "dependent": 1,
          "dependentGloss": "Gebratene"
        },
        {
          "dep": "nsubj",
          "governor": 3,
          "governorGloss": "verlässt",
          "dependent": 2,
          "dependentGloss": "Frau"
        },
        {
          "dep": "det",
          "governor": 5,
          "governorGloss": "Ehemann",
          "dependent": 4,
          "dependentGloss": "den"
        },
        {
          "dep": "dobj",
          "governor": 3,
          "governorGloss": "verlässt",
          "dependent": 5,
          "dependentGloss": "Ehemann"
        },
        {
          "dep": "cc",
          "governor": 3,
          "governorGloss": "verlässt",
          "dependent": 6,
          "dependentGloss": "und"
        },
        {
          "dep": "conj",
          "governor": 3,
          "governorGloss": "verlässt",
          "dependent": 7,
          "dependentGloss": "Zwilling"
        },
        {
          "dep": "advmod",
          "governor": 9,
          "governorGloss": "im",
          "dependent": 8,
          "dependentGloss": "nackt"
        },
        {
          "dep": "amod",
          "governor": 10,
          "governorGloss": "belebten",
          "dependent": 9,
          "dependentGloss": "im"
        },
        {
          "dep": "dobj",
          "governor": 7,
          "governorGloss": "Zwilling",
          "dependent": 10,
          "dependentGloss": "belebten"
        },
        {
          "dep": "punct",
          "governor": 3,
          "governorGloss": "verlässt",
          "dependent": 11,
          "dependentGloss": "Parkplatz"
        }
      ],
      "enhancedDependencies": [
        {
          "dep": "ROOT",
          "governor": 0,
          "governorGloss": "ROOT",
          "dependent": 3,
          "dependentGloss": "verlässt"
        },
        {
          "dep": "det",
          "governor": 2,
          "governorGloss": "Frau",
          "dependent": 1,
          "dependentGloss": "Gebratene"
        },
        {
          "dep": "nsubj",
          "governor": 3,
          "governorGloss": "verlässt",
          "dependent": 2,
          "dependentGloss": "Frau"
        },
        {
          "dep": "det",
          "governor": 5,
          "governorGloss": "Ehemann",
          "dependent": 4,
          "dependentGloss": "den"
        },
        {
          "dep": "dobj",
          "governor": 3,
          "governorGloss": "verlässt",
          "dependent": 5,
          "dependentGloss": "Ehemann"
        },
        {
          "dep": "cc",
          "governor": 3,
          "governorGloss": "verlässt",
          "dependent": 6,
          "dependentGloss": "und"
        },
        {
          "dep": "conj:und",
          "governor": 3,
          "governorGloss": "verlässt",
          "dependent": 7,
          "dependentGloss": "Zwilling"
        },
        {
          "dep": "advmod",
          "governor": 9,
          "governorGloss": "im",
          "dependent": 8,
          "dependentGloss": "nackt"
        },
        {
          "dep": "amod",
          "governor": 10,
          "governorGloss": "belebten",
          "dependent": 9,
          "dependentGloss": "im"
        },
        {
          "dep": "dobj",
          "governor": 7,
          "governorGloss": "Zwilling",
          "dependent": 10,
          "dependentGloss": "belebten"
        },
        {
          "dep": "punct",
          "governor": 3,
          "governorGloss": "verlässt",
          "dependent": 11,
          "dependentGloss": "Parkplatz"
        }
      ],
      "enhancedPlusPlusDependencies": [
        {
          "dep": "ROOT",
          "governor": 0,
          "governorGloss": "ROOT",
          "dependent": 3,
          "dependentGloss": "verlässt"
        },
        {
          "dep": "det",
          "governor": 2,
          "governorGloss": "Frau",
          "dependent": 1,
          "dependentGloss": "Gebratene"
        },
        {
          "dep": "nsubj",
          "governor": 3,
          "governorGloss": "verlässt",
          "dependent": 2,
          "dependentGloss": "Frau"
        },
        {
          "dep": "det",
          "governor": 5,
          "governorGloss": "Ehemann",
          "dependent": 4,
          "dependentGloss": "den"
        },
        {
          "dep": "dobj",
          "governor": 3,
          "governorGloss": "verlässt",
          "dependent": 5,
          "dependentGloss": "Ehemann"
        },
        {
          "dep": "cc",
          "governor": 3,
          "governorGloss": "verlässt",
          "dependent": 6,
          "dependentGloss": "und"
        },
        {
          "dep": "conj:und",
          "governor": 3,
          "governorGloss": "verlässt",
          "dependent": 7,
          "dependentGloss": "Zwilling"
        },
        {
          "dep": "advmod",
          "governor": 9,
          "governorGloss": "im",
          "dependent": 8,
          "dependentGloss": "nackt"
        },
        {
          "dep": "amod",
          "governor": 10,
          "governorGloss": "belebten",
          "dependent": 9,
          "dependentGloss": "im"
        },
        {
          "dep": "dobj",
          "governor": 7,
          "governorGloss": "Zwilling",
          "dependent": 10,
          "dependentGloss": "belebten"
        },
        {
          "dep": "punct",
          "governor": 3,
          "governorGloss": "verlässt",
          "dependent": 11,
          "dependentGloss": "Parkplatz"
        }
      ],
      "tokens": [
        {
          "index": 1,
          "word": "Gebratene",
          "originalText": "Gebratene",
          "characterOffsetBegin": 0,
          "characterOffsetEnd": 9,
          "pos": "ADJA",
          "before": "",
          "after": " "
        },
        {
          "index": 2,
          "word": "Frau",
          "originalText": "Frau",
          "characterOffsetBegin": 10,
          "characterOffsetEnd": 14,
          "pos": "NN",
          "before": " ",
          "after": " "
        },
        {
          "index": 3,
          "word": "verlässt",
          "originalText": "verlässt",
          "characterOffsetBegin": 15,
          "characterOffsetEnd": 23,
          "pos": "VVFIN",
          "before": " ",
          "after": " "
        },
        {
          "index": 4,
          "word": "den",
          "originalText": "den",
          "characterOffsetBegin": 24,
          "characterOffsetEnd": 27,
          "pos": "ART",
          "before": " ",
          "after": " "
        },
        {
          "index": 5,
          "word": "Ehemann",
          "originalText": "Ehemann",
          "characterOffsetBegin": 28,
          "characterOffsetEnd": 35,
          "pos": "NN",
          "before": " ",
          "after": " "
        },
        {
          "index": 6,
          "word": "und",
          "originalText": "und",
          "characterOffsetBegin": 36,
          "characterOffsetEnd": 39,
          "pos": "KON",
          "before": " ",
          "after": " "
        },
        {
          "index": 7,
          "word": "Zwilling",
          "originalText": "Zwilling",
          "characterOffsetBegin": 40,
          "characterOffsetEnd": 48,
          "pos": "NN",
          "before": " ",
          "after": " "
        },
        {
          "index": 8,
          "word": "nackt",
          "originalText": "nackt",
          "characterOffsetBegin": 49,
          "characterOffsetEnd": 54,
          "pos": "ADJD",
          "before": " ",
          "after": " "
        },
        {
          "index": 9,
          "word": "im",
          "originalText": "im",
          "characterOffsetBegin": 55,
          "characterOffsetEnd": 57,
          "pos": "APPRART",
          "before": " ",
          "after": " "
        },
        {
          "index": 10,
          "word": "belebten",
          "originalText": "belebten",
          "characterOffsetBegin": 58,
          "characterOffsetEnd": 66,
          "pos": "ADJA",
          "before": " ",
          "after": " "
        },
        {
          "index": 11,
          "word": "Parkplatz",
          "originalText": "Parkplatz",
          "characterOffsetBegin": 67,
          "characterOffsetEnd": 76,
          "pos": "NN",
          "before": " ",
          "after": ""
        }
      ]
    }
  ]
}