{
  "sentences": [
    {
      "index": 0,
      "basicDependencies": [
        {
          "dep": "ROOT",
          "governor": 0,
          "governorGloss": "ROOT",
          "dependent": 1,
          "dependentGloss": "Mann"
        },
        {
          "dep": "punct",
          "governor": 1,
          "governorGloss": "Mann",
          "dependent": 2,
          "dependentGloss": ","
        },
        {
          "dep": "det",
          "governor": 4,
          "governorGloss": "Menschen",
          "dependent": 3,
          "dependentGloss": "der"
        },
        {
          "dep": "appos",
          "governor": 1,
          "governorGloss": "Mann",
          "dependent": 4,
          "dependentGloss": "Menschen"
        },
        {
          "dep": "punct",
          "governor": 1,
          "governorGloss": "Mann",
          "dependent": 5,
          "dependentGloss": ","
        },
        {
          "dep": "mark",
          "governor": 11,
          "governorGloss": "niesen",
          "dependent": 6,
          "dependentGloss": "wenn"
        },
        {
          "dep": "nsubj",
          "governor": 11,
          "governorGloss": "niesen",
          "dependent": 7,
          "dependentGloss": "sie"
        },
        {
          "dep": "case",
          "governor": 10,
          "governorGloss": "Öffentlichkeit",
          "dependent": 8,
          "dependentGloss": "in"
        },
        {
          "dep": "det",
          "governor": 10,
          "governorGloss": "Öffentlichkeit",
          "dependent": 9,
          "dependentGloss": "der"
        },
        {
          "dep": "nmod",
          "governor": 11,
          "governorGloss": "niesen",
          "dependent": 10,
          "dependentGloss": "Öffentlichkeit"
        },
        {
          "dep": "advcl",
          "governor": 16,
          "governorGloss": "gejagt",
          "dependent": 11,
          "dependentGloss": "niesen"
        },
        {
          "dep": "punct",
          "governor": 11,
          "governorGloss": "niesen",
          "dependent": 12,
          "dependentGloss": ","
        },
        {
          "dep": "case",
          "governor": 15,
          "governorGloss": "Polizei",
          "dependent": 13,
          "dependentGloss": "von"
        },
        {
          "dep": "det",
          "governor": 15,
          "governorGloss": "Polizei",
          "dependent": 14,
          "dependentGloss": "der"
        },
        {
          "dep": "nmod",
          "governor": 16,
          "governorGloss": "gejagt",
          "dependent": 15,
          "dependentGloss": "Polizei"
        },
        {
          "dep": "acl",
          "governor": 1,
          "governorGloss": "Mann",
          "dependent": 16,
          "dependentGloss": "gejagt"
        },
        {
          "dep": "auxpass",
          "governor": 16,
          "governorGloss": "gejagt",
          "dependent": 17,
          "dependentGloss": "werden"
        }
      ],
      "enhancedDependencies": [
        {
          "dep": "ROOT",
          "governor": 0,
          "governorGloss": "ROOT",
          "dependent": 1,
          "dependentGloss": "Mann"
        },
        {
          "dep": "punct",
          "governor": 1,
          "governorGloss": "Mann",
          "dependent": 2,
          "dependentGloss": ","
        },
        {
          "dep": "det",
          "governor": 4,
          "governorGloss": "Menschen",
          "dependent": 3,
          "dependentGloss": "der"
        },
        {
          "dep": "appos",
          "governor": 1,
          "governorGloss": "Mann",
          "dependent": 4,
          "dependentGloss": "Menschen"
        },
        {
          "dep": "punct",
          "governor": 1,
          "governorGloss": "Mann",
          "dependent": 5,
          "dependentGloss": ","
        },
        {
          "dep": "mark",
          "governor": 11,
          "governorGloss": "niesen",
          "dependent": 6,
          "dependentGloss": "wenn"
        },
        {
          "dep": "nsubj",
          "governor": 11,
          "governorGloss": "niesen",
          "dependent": 7,
          "dependentGloss": "sie"
        },
        {
          "dep": "case",
          "governor": 10,
          "governorGloss": "Öffentlichkeit",
          "dependent": 8,
          "dependentGloss": "in"
        },
        {
          "dep": "det",
          "governor": 10,
          "governorGloss": "Öffentlichkeit",
          "dependent": 9,
          "dependentGloss": "der"
        },
        {
          "dep": "nmod",
          "governor": 11,
          "governorGloss": "niesen",
          "dependent": 10,
          "dependentGloss": "Öffentlichkeit"
        },
        {
          "dep": "advcl",
          "governor": 16,
          "governorGloss": "gejagt",
          "dependent": 11,
          "dependentGloss": "niesen"
        },
        {
          "dep": "punct",
          "governor": 11,
          "governorGloss": "niesen",
          "dependent": 12,
          "dependentGloss": ","
        },
        {
          "dep": "case",
          "governor": 15,
          "governorGloss": "Polizei",
          "dependent": 13,
          "dependentGloss": "von"
        },
        {
          "dep": "det",
          "governor": 15,
          "governorGloss": "Polizei",
          "dependent": 14,
          "dependentGloss": "der"
        },
        {
          "dep": "nmod",
          "governor": 16,
          "governorGloss": "gejagt",
          "dependent": 15,
          "dependentGloss": "Polizei"
        },
        {
          "dep": "acl",
          "governor": 1,
          "governorGloss": "Mann",
          "dependent": 16,
          "dependentGloss": "gejagt"
        },
        {
          "dep": "auxpass",
          "governor": 16,
          "governorGloss": "gejagt",
          "dependent": 17,
          "dependentGloss": "werden"
        }
      ],
      "enhancedPlusPlusDependencies": [
        {
          "dep": "ROOT",
          "governor": 0,
          "governorGloss": "ROOT",
          "dependent": 1,
          "dependentGloss": "Mann"
        },
        {
          "dep": "punct",
          "governor": 1,
          "governorGloss": "Mann",
          "dependent": 2,
          "dependentGloss": ","
        },
        {
          "dep": "det",
          "governor": 4,
          "governorGloss": "Menschen",
          "dependent": 3,
          "dependentGloss": "der"
        },
        {
          "dep": "appos",
          "governor": 1,
          "governorGloss": "Mann",
          "dependent": 4,
          "dependentGloss": "Menschen"
        },
        {
          "dep": "punct",
          "governor": 1,
          "governorGloss": "Mann",
          "dependent": 5,
          "dependentGloss": ","
        },
        {
          "dep": "mark",
          "governor": 11,
          "governorGloss": "niesen",
          "dependent": 6,
          "dependentGloss": "wenn"
        },
        {
          "dep": "nsubj",
          "governor": 11,
          "governorGloss": "niesen",
          "dependent": 7,
          "dependentGloss": "sie"
        },
        {
          "dep": "case",
          "governor": 10,
          "governorGloss": "Öffentlichkeit",
          "dependent": 8,
          "dependentGloss": "in"
        },
        {
          "dep": "det",
          "governor": 10,
          "governorGloss": "Öffentlichkeit",
          "dependent": 9,
          "dependentGloss": "der"
        },
        {
          "dep": "nmod",
          "governor": 11,
          "governorGloss": "niesen",
          "dependent": 10,
          "dependentGloss": "Öffentlichkeit"
        },
        {
          "dep": "advcl",
          "governor": 16,
          "governorGloss": "gejagt",
          "dependent": 11,
          "dependentGloss": "niesen"
        },
        {
          "dep": "punct",
          "governor": 11,
          "governorGloss": "niesen",
          "dependent": 12,
          "dependentGloss": ","
        },
        {
          "dep": "case",
          "governor": 15,
          "governorGloss": "Polizei",
          "dependent": 13,
          "dependentGloss": "von"
        },
        {
          "dep": "det",
          "governor": 15,
          "governorGloss": "Polizei",
          "dependent": 14,
          "dependentGloss": "der"
        },
        {
          "dep": "nmod",
          "governor": 16,
          "governorGloss": "gejagt",
          "dependent": 15,
          "dependentGloss": "Polizei"
        },
        {
          "dep": "acl",
          "governor": 1,
          "governorGloss": "Mann",
          "dependent": 16,
          "dependentGloss": "gejagt"
        },
        {
          "dep": "auxpass",
          "governor": 16,
          "governorGloss": "gejagt",
          "dependent": 17,
          "dependentGloss": "werden"
        }
      ],
      "tokens": [
        {
          "index": 1,
          "word": "Mann",
          "originalText": "Mann",
          "characterOffsetBegin": 0,
          "characterOffsetEnd": 4,
          "pos": "NN",
          "before": "",
          "after": ""
        },
        {
          "index": 2,
          "word": ",",
          "originalText": ",",
          "characterOffsetBegin": 4,
          "characterOffsetEnd": 5,
          "pos": "$,",
          "before": "",
          "after": " "
        },
        {
          "index": 3,
          "word": "der",
          "originalText": "der",
          "characterOffsetBegin": 6,
          "characterOffsetEnd": 9,
          "pos": "ART",
          "before": " ",
          "after": " "
        },
        {
          "index": 4,
          "word": "Menschen",
          "originalText": "Menschen",
          "characterOffsetBegin": 10,
          "characterOffsetEnd": 18,
          "pos": "NN",
          "before": " ",
          "after": ""
        },
        {
          "index": 5,
          "word": ",",
          "originalText": ",",
          "characterOffsetBegin": 18,
          "characterOffsetEnd": 19,
          "pos": "$,",
          "before": "",
          "after": " "
        },
        {
          "index": 6,
          "word": "wenn",
          "originalText": "wenn",
          "characterOffsetBegin": 20,
          "characterOffsetEnd": 24,
          "pos": "KOUS",
          "before": " ",
          "after": " "
        },
        {
          "index": 7,
          "word": "sie",
          "originalText": "sie",
          "characterOffsetBegin": 25,
          "characterOffsetEnd": 28,
          "pos": "PPER",
          "before": " ",
          "after": " "
        },
        {
          "index": 8,
          "word": "in",
          "originalText": "in",
          "characterOffsetBegin": 29,
          "characterOffsetEnd": 31,
          "pos": "APPR",
          "before": " ",
          "after": " "
        },
        {
          "index": 9,
          "word": "der",
          "originalText": "der",
          "characterOffsetBegin": 32,
          "characterOffsetEnd": 35,
          "pos": "ART",
          "before": " ",
          "after": " "
        },
        {
          "index": 10,
          "word": "Öffentlichkeit",
          "originalText": "Öffentlichkeit",
          "characterOffsetBegin": 36,
          "characterOffsetEnd": 50,
          "pos": "NN",
          "before": " ",
          "after": " "
        },
        {
          "index": 11,
          "word": "niesen",
          "originalText": "niesen",
          "characterOffsetBegin": 51,
          "characterOffsetEnd": 57,
          "pos": "VVINF",
          "before": " ",
          "after": ""
        },
        {
          "index": 12,
          "word": ",",
          "originalText": ",",
          "characterOffsetBegin": 57,
          "characterOffsetEnd": 58,
          "pos": "$,",
          "before": "",
          "after": " "
        },
        {
          "index": 13,
          "word": "von",
          "originalText": "von",
          "characterOffsetBegin": 59,
          "characterOffsetEnd": 62,
          "pos": "APPR",
          "before": " ",
          "after": " "
        },
        {
          "index": 14,
          "word": "der",
          "originalText": "der",
          "characterOffsetBegin": 63,
          "characterOffsetEnd": 66,
          "pos": "ART",
          "before": " ",
          "after": " "
        },
        {
          "index": 15,
          "word": "Polizei",
          "originalText": "Polizei",
          "characterOffsetBegin": 67,
          "characterOffsetEnd": 74,
          "pos": "NN",
          "before": " ",
          "after": " "
        },
        {
          "index": 16,
          "word": "gejagt",
          "originalText": "gejagt",
          "characterOffsetBegin": 75,
          "characterOffsetEnd": 81,
          "pos": "VVPP",
          "before": " ",
          "after": " "
        },
        {
          "index": 17,
          "word": "werden",
          "originalText": "werden",
          "characterOffsetBegin": 82,
          "characterOffsetEnd": 88,
          "pos": "VAINF",
          "before": " ",
          "after": ""
        }
      ]
    }
  ]
}