{
  "sentences": [
    {
      "index": 0,
      "basicDependencies": [
        {
          "dep": "ROOT",
          "governor": 0,
          "governorGloss": "ROOT",
          "dependent": 9,
          "dependentGloss": "gedacht"
        },
        {
          "dep": "nsubj",
          "governor": 9,
          "governorGloss": "gedacht",
          "dependent": 1,
          "dependentGloss": "Weißes"
        },
        {
          "dep": "aux",
          "governor": 9,
          "governorGloss": "gedacht",
          "dependent": 2,
          "dependentGloss": "Haus"
        },
        {
          "dep": "dobj",
          "governor": 9,
          "governorGloss": "gedacht",
          "dependent": 3,
          "dependentGloss": "Zaun"
        },
        {
          "dep": "advmod",
          "governor": 5,
          "governorGloss": "Got",
          "dependent": 4,
          "dependentGloss": "Jumper"
        },
        {
          "dep": "advmod",
          "governor": 9,
          "governorGloss": "gedacht",
          "dependent": 5,
          "dependentGloss": "Got"
        },
        {
          "dep": "advmod",
          "governor": 9,
          "governorGloss": "gedacht",
          "dependent": 6,
          "dependentGloss": "weiter"
        },
        {
          "dep": "case",
          "governor": 9,
          "governorGloss": "gedacht",
          "dependent": 7,
          "dependentGloss": "als"
        },
        {
          "dep": "advmod",
          "governor": 9,
          "governorGloss": "gedacht",
          "dependent": 8,
          "dependentGloss": "früher"
        },
        {
          "dep": "punct",
          "governor": 9,
          "governorGloss": "gedacht",
          "dependent": 10,
          "dependentGloss": ","
        },
        {
          "dep": "dobj",
          "governor": 12,
          "governorGloss": "sagen",
          "dependent": 11,
          "dependentGloss": "Quellen"
        },
        {
          "dep": "xcomp",
          "governor": 9,
          "governorGloss": "gedacht",
          "dependent": 12,
          "dependentGloss": "sagen"
        }
      ],
      "enhancedDependencies": [
        {
          "dep": "ROOT",
          "governor": 0,
          "governorGloss": "ROOT",
          "dependent": 9,
          "dependentGloss": "gedacht"
        },
        {
          "dep": "nsubj",
          "governor": 9,
          "governorGloss": "gedacht",
          "dependent": 1,
          "dependentGloss": "Weißes"
        },
        {
          "dep": "aux",
          "governor": 9,
          "governorGloss": "gedacht",
          "dependent": 2,
          "dependentGloss": "Haus"
        },
        {
          "dep": "dobj",
          "governor": 9,
          "governorGloss": "gedacht",
          "dependent": 3,
          "dependentGloss": "Zaun"
        },
        {
          "dep": "advmod",
          "governor": 5,
          "governorGloss": "Got",
          "dependent": 4,
          "dependentGloss": "Jumper"
        },
        {
          "dep": "advmod",
          "governor": 9,
          "governorGloss": "gedacht",
          "dependent": 5,
          "dependentGloss": "Got"
        },
        {
          "dep": "advmod",
          "governor": 9,
          "governorGloss": "gedacht",
          "dependent": 6,
          "dependentGloss": "weiter"
        },
        {
          "dep": "case",
          "governor": 9,
          "governorGloss": "gedacht",
          "dependent": 7,
          "dependentGloss": "als"
        },
        {
          "dep": "advmod",
          "governor": 9,
          "governorGloss": "gedacht",
          "dependent": 8,
          "dependentGloss": "früher"
        },
        {
          "dep": "punct",
          "governor": 9,
          "governorGloss": "gedacht",
          "dependent": 10,
          "dependentGloss": ","
        },
        {
          "dep": "dobj",
          "governor": 12,
          "governorGloss": "sagen",
          "dependent": 11,
          "dependentGloss": "Quellen"
        },
        {
          "dep": "xcomp",
          "governor": 9,
          "governorGloss": "gedacht",
          "dependent": 12,
          "dependentGloss": "sagen"
        }
      ],
      "enhancedPlusPlusDependencies": [
        {
          "dep": "ROOT",
          "governor": 0,
          "governorGloss": "ROOT",
          "dependent": 9,
          "dependentGloss": "gedacht"
        },
        {
          "dep": "nsubj",
          "governor": 9,
          "governorGloss": "gedacht",
          "dependent": 1,
          "dependentGloss": "Weißes"
        },
        {
          "dep": "aux",
          "governor": 9,
          "governorGloss": "gedacht",
          "dependent": 2,
          "dependentGloss": "Haus"
        },
        {
          "dep": "dobj",
          "governor": 9,
          "governorGloss": "gedacht",
          "dependent": 3,
          "dependentGloss": "Zaun"
        },
        {
          "dep": "advmod",
          "governor": 5,
          "governorGloss": "Got",
          "dependent": 4,
          "dependentGloss": "Jumper"
        },
        {
          "dep": "advmod",
          "governor": 9,
          "governorGloss": "gedacht",
          "dependent": 5,
          "dependentGloss": "Got"
        },
        {
          "dep": "advmod",
          "governor": 9,
          "governorGloss": "gedacht",
          "dependent": 6,
          "dependentGloss": "weiter"
        },
        {
          "dep": "case",
          "governor": 9,
          "governorGloss": "gedacht",
          "dependent": 7,
          "dependentGloss": "als"
        },
        {
          "dep": "advmod",
          "governor": 9,
          "governorGloss": "gedacht",
          "dependent": 8,
          "dependentGloss": "früher"
        },
        {
          "dep": "punct",
          "governor": 9,
          "governorGloss": "gedacht",
          "dependent": 10,
          "dependentGloss": ","
        },
        {
          "dep": "dobj",
          "governor": 12,
          "governorGloss": "sagen",
          "dependent": 11,
          "dependentGloss": "Quellen"
        },
        {
          "dep": "xcomp",
          "governor": 9,
          "governorGloss": "gedacht",
          "dependent": 12,
          "dependentGloss": "sagen"
        }
      ],
      "tokens": [
        {
          "index": 1,
          "word": "Weißes",
          "originalText": "Weißes",
          "characterOffsetBegin": 0,
          "characterOffsetEnd": 6,
          "pos": "ADJA",
          "before": "",
          "after": " "
        },
        {
          "index": 2,
          "word": "Haus",
          "originalText": "Haus",
          "characterOffsetBegin": 7,
          "characterOffsetEnd": 11,
          "pos": "NN",
          "before": " ",
          "after": " "
        },
        {
          "index": 3,
          "word": "Zaun",
          "originalText": "Zaun",
          "characterOffsetBegin": 12,
          "characterOffsetEnd": 16,
          "pos": "NN",
          "before": " ",
          "after": " "
        },
        {
          "index": 4,
          "word": "Jumper",
          "originalText": "Jumper",
          "characterOffsetBegin": 17,
          "characterOffsetEnd": 23,
          "pos": "NE",
          "before": " ",
          "after": " "
        },
        {
          "index": 5,
          "word": "Got",
          "originalText": "Got",
          "characterOffsetBegin": 24,
          "characterOffsetEnd": 27,
          "pos": "NE",
          "before": " ",
          "after": " "
        },
        {
          "index": 6,
          "word": "weiter",
          "originalText": "weiter",
          "characterOffsetBegin": 28,
          "characterOffsetEnd": 34,
          "pos": "ADV",
          "before": " ",
          "after": " "
        },
        {
          "index": 7,
          "word": "als",
          "originalText": "als",
          "characterOffsetBegin": 35,
          "characterOffsetEnd": 38,
          "pos": "APPR",
          "before": " ",
          "after": " "
        },
        {
          "index": 8,
          "word": "früher",
          "originalText": "früher",
          "characterOffsetBegin": 39,
          "characterOffsetEnd": 45,
          "pos": "ADJD",
          "before": " ",
          "after": " "
        },
        {
          "index": 9,
          "word": "gedacht",
          "originalText": "gedacht",
          "characterOffsetBegin": 46,
          "characterOffsetEnd": 53,
          "pos": "VVPP",
          "before": " ",
          "after": ""
        },
        {
          "index": 10,
          "word": ",",
          "originalText": ",",
          "characterOffsetBegin": 53,
          "characterOffsetEnd": 54,
          "pos": "$,",
          "before": "",
          "after": " "
        },
        {
          "index": 11,
          "word": "Quellen",
          "originalText": "Quellen",
          "characterOffsetBegin": 55,
          "characterOffsetEnd": 62,
          "pos": "NN",
          "before": " ",
          "after": " "
        },
        {
          "index": 12,
          "word": "sagen",
          "originalText": "sagen",
          "characterOffsetBegin": 63,
          "characterOffsetEnd": 68,
          "pos": "VVINF",
          "before": " ",
          "after": ""
        }
      ]
    }
  ]
}