{
  "sentences": [
    {
      "index": 0,
      "basicDependencies": [
        {
          "dep": "ROOT",
          "governor": 0,
          "governorGloss": "ROOT",
          "dependent": 1,
          "dependentGloss": "ESPN"
        },
        {
          "dep": "punct",
          "governor": 1,
          "governorGloss": "ESPN",
          "dependent": 2,
          "dependentGloss": ","
        },
        {
          "dep": "mark",
          "governor": 11,
          "governorGloss": "Missbrauchsdiskussion",
          "dependent": 3,
          "dependentGloss": "um"
        },
        {
          "dep": "det",
          "governor": 5,
          "governorGloss": "Bild",
          "dependent": 4,
          "dependentGloss": "das"
        },
        {
          "dep": "nsubj",
          "governor": 11,
          "governorGloss": "Missbrauchsdiskussion",
          "dependent": 5,
          "dependentGloss": "Bild"
        },
        {
          "dep": "case",
          "governor": 7,
          "governorGloss": "NFL",
          "dependent": 6,
          "dependentGloss": "von"
        },
        {
          "dep": "nmod",
          "governor": 5,
          "governorGloss": "Bild",
          "dependent": 7,
          "dependentGloss": "NFL"
        },
        {
          "dep": "case",
          "governor": 10,
          "governorGloss": "inländischen",
          "dependent": 8,
          "dependentGloss": "mit"
        },
        {
          "dep": "amod",
          "governor": 10,
          "governorGloss": "inländischen",
          "dependent": 9,
          "dependentGloss": "all-männlichen"
        },
        {
          "dep": "nmod",
          "governor": 11,
          "governorGloss": "Missbrauchsdiskussion",
          "dependent": 10,
          "dependentGloss": "inländischen"
        },
        {
          "dep": "advcl",
          "governor": 1,
          "governorGloss": "ESPN",
          "dependent": 11,
          "dependentGloss": "Missbrauchsdiskussion"
        },
        {
          "dep": "aux",
          "governor": 13,
          "governorGloss": "retten",
          "dependent": 12,
          "dependentGloss": "zu"
        },
        {
          "dep": "cop",
          "governor": 11,
          "governorGloss": "Missbrauchsdiskussion",
          "dependent": 13,
          "dependentGloss": "retten"
        }
      ],
      "enhancedDependencies": [
        {
          "dep": "ROOT",
          "governor": 0,
          "governorGloss": "ROOT",
          "dependent": 1,
          "dependentGloss": "ESPN"
        },
        {
          "dep": "punct",
          "governor": 1,
          "governorGloss": "ESPN",
          "dependent": 2,
          "dependentGloss": ","
        },
        {
          "dep": "mark",
          "governor": 11,
          "governorGloss": "Missbrauchsdiskussion",
          "dependent": 3,
          "dependentGloss": "um"
        },
        {
          "dep": "det",
          "governor": 5,
          "governorGloss": "Bild",
          "dependent": 4,
          "dependentGloss": "das"
        },
        {
          "dep": "nsubj",
          "governor": 11,
          "governorGloss": "Missbrauchsdiskussion",
          "dependent": 5,
          "dependentGloss": "Bild"
        },
        {
          "dep": "case",
          "governor": 7,
          "governorGloss": "NFL",
          "dependent": 6,
          "dependentGloss": "von"
        },
        {
          "dep": "nmod",
          "governor": 5,
          "governorGloss": "Bild",
          "dependent": 7,
          "dependentGloss": "NFL"
        },
        {
          "dep": "case",
          "governor": 10,
          "governorGloss": "inländischen",
          "dependent": 8,
          "dependentGloss": "mit"
        },
        {
          "dep": "amod",
          "governor": 10,
          "governorGloss": "inländischen",
          "dependent": 9,
          "dependentGloss": "all-männlichen"
        },
        {
          "dep": "nmod",
          "governor": 11,
          "governorGloss": "Missbrauchsdiskussion",
          "dependent": 10,
          "dependentGloss": "inländischen"
        },
        {
          "dep": "advcl",
          "governor": 1,
          "governorGloss": "ESPN",
          "dependent": 11,
          "dependentGloss": "Missbrauchsdiskussion"
        },
        {
          "dep": "aux",
          "governor": 13,
          "governorGloss": "retten",
          "dependent": 12,
          "dependentGloss": "zu"
        },
        {
          "dep": "cop",
          "governor": 11,
          "governorGloss": "Missbrauchsdiskussion",
          "dependent": 13,
          "dependentGloss": "retten"
        }
      ],
      "enhancedPlusPlusDependencies": [
        {
          "dep": "ROOT",
          "governor": 0,
          "governorGloss": "ROOT",
          "dependent": 1,
          "dependentGloss": "ESPN"
        },
        {
          "dep": "punct",
          "governor": 1,
          "governorGloss": "ESPN",
          "dependent": 2,
          "dependentGloss": ","
        },
        {
          "dep": "mark",
          "governor": 11,
          "governorGloss": "Missbrauchsdiskussion",
          "dependent": 3,
          "dependentGloss": "um"
        },
        {
          "dep": "det",
          "governor": 5,
          "governorGloss": "Bild",
          "dependent": 4,
          "dependentGloss": "das"
        },
        {
          "dep": "nsubj",
          "governor": 11,
          "governorGloss": "Missbrauchsdiskussion",
          "dependent": 5,
          "dependentGloss": "Bild"
        },
        {
          "dep": "case",
          "governor": 7,
          "governorGloss": "NFL",
          "dependent": 6,
          "dependentGloss": "von"
        },
        {
          "dep": "nmod",
          "governor": 5,
          "governorGloss": "Bild",
          "dependent": 7,
          "dependentGloss": "NFL"
        },
        {
          "dep": "case",
          "governor": 10,
          "governorGloss": "inländischen",
          "dependent": 8,
          "dependentGloss": "mit"
        },
        {
          "dep": "amod",
          "governor": 10,
          "governorGloss": "inländischen",
          "dependent": 9,
          "dependentGloss": "all-männlichen"
        },
        {
          "dep": "nmod",
          "governor": 11,
          "governorGloss": "Missbrauchsdiskussion",
          "dependent": 10,
          "dependentGloss": "inländischen"
        },
        {
          "dep": "advcl",
          "governor": 1,
          "governorGloss": "ESPN",
          "dependent": 11,
          "dependentGloss": "Missbrauchsdiskussion"
        },
        {
          "dep": "aux",
          "governor": 13,
          "governorGloss": "retten",
          "dependent": 12,
          "dependentGloss": "zu"
        },
        {
          "dep": "cop",
          "governor": 11,
          "governorGloss": "Missbrauchsdiskussion",
          "dependent": 13,
          "dependentGloss": "retten"
        }
      ],
      "tokens": [
        {
          "index": 1,
          "word": "ESPN",
          "originalText": "ESPN",
          "characterOffsetBegin": 0,
          "characterOffsetEnd": 4,
          "pos": "NE",
          "before": "",
          "after": ""
        },
        {
          "index": 2,
          "word": ",",
          "originalText": ",",
          "characterOffsetBegin": 4,
          "characterOffsetEnd": 5,
          "pos": "$,",
          "before": "",
          "after": " "
        },
        {
          "index": 3,
          "word": "um",
          "originalText": "um",
          "characterOffsetBegin": 6,
          "characterOffsetEnd": 8,
          "pos": "KOUI",
          "before": " ",
          "after": " "
        },
        {
          "index": 4,
          "word": "das",
          "originalText": "das",
          "characterOffsetBegin": 9,
          "characterOffsetEnd": 12,
          "pos": "ART",
          "before": " ",
          "after": " "
        },
        {
          "index": 5,
          "word": "Bild",
          "originalText": "Bild",
          "characterOffsetBegin": 13,
          "characterOffsetEnd": 17,
          "pos": "NN",
          "before": " ",
          "after": " "
        },
        {
          "index": 6,
          "word": "von",
          "originalText": "von",
          "characterOffsetBegin": 18,
          "characterOffsetEnd": 21,
          "pos": "APPR",
          "before": " ",
          "after": " "
        },
        {
          "index": 7,
          "word": "NFL",
          "originalText": "NFL",
          "characterOffsetBegin": 22,
          "characterOffsetEnd": 25,
          "pos": "NE",
          "before": " ",
          "after": " "
        },
        {
          "index": 8,
          "word": "mit",
          "originalText": "mit",
          "characterOffsetBegin": 26,
          "characterOffsetEnd": 29,
          "pos": "APPR",
          "before": " ",
          "after": " "
        },
        {
          "index": 9,
          "word": "all-männlichen",
          "originalText": "all-männlichen",
          "characterOffsetBegin": 30,
          "characterOffsetEnd": 44,
          "pos": "ADJA",
          "before": " ",
          "after": " "
        },
        {
          "index": 10,
          "word": "inländischen",
          "originalText": "inländischen",
          "characterOffsetBegin": 45,
          "characterOffsetEnd": 57,
          "pos": "ADJA",
          "before": " ",
          "after": " "
        },
        {
          "index": 11,
          "word": "Missbrauchsdiskussion",
          "originalText": "Missbrauchsdiskussion",
          "characterOffsetBegin": 58,
          "characterOffsetEnd": 79,
          "pos": "NN",
          "before": " ",
          "after": " "
        },
        {
          "index": 12,
          "word": "zu",
          "originalText": "zu",
          "characterOffsetBegin": 80,
          "characterOffsetEnd": 82,
          "pos": "PTKZU",
          "before": " ",
          "after": " "
        },
        {
          "index": 13,
          "word": "retten",
          "originalText": "retten",
          "characterOffsetBegin": 83,
          "characterOffsetEnd": 89,
          "pos": "VVINF",
          "before": " ",
          "after": ""
        }
      ]
    }
  ]
}