{
  "sentences": [
    {
      "index": 0,
      "basicDependencies": [
        {
          "dep": "ROOT",
          "governor": 0,
          "governorGloss": "ROOT",
          "dependent": 2,
          "dependentGloss": "wuchs"
        },
        {
          "dep": "nsubj",
          "governor": 2,
          "governorGloss": "wuchs",
          "dependent": 1,
          "dependentGloss": "Zauberpilz"
        },
        {
          "dep": "amod",
          "governor": 4,
          "governorGloss": "Buckingham",
          "dependent": 3,
          "dependentGloss": "im"
        },
        {
          "dep": "dobj",
          "governor": 2,
          "governorGloss": "wuchs",
          "dependent": 4,
          "dependentGloss": "Buckingham"
        },
        {
          "dep": "advmod",
          "governor": 2,
          "governorGloss": "wuchs",
          "dependent": 5,
          "dependentGloss": "Palace"
        }
      ],
      "enhancedDependencies": [
        {
          "dep": "ROOT",
          "governor": 0,
          "governorGloss": "ROOT",
          "dependent": 2,
          "dependentGloss": "wuchs"
        },
        {
          "dep": "nsubj",
          "governor": 2,
          "governorGloss": "wuchs",
          "dependent": 1,
          "dependentGloss": "Zauberpilz"
        },
        {
          "dep": "amod",
          "governor": 4,
          "governorGloss": "Buckingham",
          "dependent": 3,
          "dependentGloss": "im"
        },
        {
          "dep": "dobj",
          "governor": 2,
          "governorGloss": "wuchs",
          "dependent": 4,
          "dependentGloss": "Buckingham"
        },
        {
          "dep": "advmod",
          "governor": 2,
          "governorGloss": "wuchs",
          "dependent": 5,
          "dependentGloss": "Palace"
        }
      ],
      "enhancedPlusPlusDependencies": [
        {
          "dep": "ROOT",
          "governor": 0,
          "governorGloss": "ROOT",
          "dependent": 2,
          "dependentGloss": "wuchs"
        },
        {
          "dep": "nsubj",
          "governor": 2,
          "governorGloss": "wuchs",
          "dependent": 1,
          "dependentGloss": "Zauberpilz"
        },
        {
          "dep": "amod",
          "governor": 4,
          "governorGloss": "Buckingham",
          "dependent": 3,
          "dependentGloss": "im"
        },
        {
          "dep": "dobj",
          "governor": 2,
          "governorGloss": "wuchs",
          "dependent": 4,
          "dependentGloss": "Buckingham"
        },
        {
          "dep": "advmod",
          "governor": 2,
          "governorGloss": "wuchs",
          "dependent": 5,
          "dependentGloss": "Palace"
        }
      ],
      "tokens": [
        {
          "index": 1,
          "word": "Zauberpilz",
          "originalText": "Zauberpilz",
          "characterOffsetBegin": 0,
          "characterOffsetEnd": 10,
          "pos": "NN",
          "before": "",
          "after": " "
        },
        {
          "index": 2,
          "word": "wuchs",
          "originalText": "wuchs",
          "characterOffsetBegin": 11,
          "characterOffsetEnd": 16,
          "pos": "VVFIN",
          "before": " ",
          "after": " "
        },
        {
          "index": 3,
          "word": "im",
          "originalText": "im",
          "characterOffsetBegin": 17,
          "characterOffsetEnd": 19,
          "pos": "APPRART",
          "before": " ",
          "after": " "
        },
        {
          "index": 4,
          "word": "Buckingham",
          "originalText": "Buckingham",
          "characterOffsetBegin": 20,
          "characterOffsetEnd": 30,
          "pos": "NN",
          "before": " ",
          "after": " "
        },
        {
          "index": 5,
          "word": "Palace",
          "originalText": "Palace",
          "characterOffsetBegin": 31,
          "characterOffsetEnd": 37,
          "pos": "NE",
          "before": " ",
          "after": ""
        }
      ]
    }
  ]
}