{
  "sentences": [
    {
      "index": 0,
      "basicDependencies": [
        {
          "dep": "ROOT",
          "governor": 0,
          "governorGloss": "ROOT",
          "dependent": 13,
          "dependentGloss": "gefangen"
        },
        {
          "dep": "nsubjpass",
          "governor": 13,
          "governorGloss": "gefangen",
          "dependent": 1,
          "dependentGloss": "Riesige"
        },
        {
          "dep": "appos",
          "governor": 1,
          "governorGloss": "Riesige",
          "dependent": 2,
          "dependentGloss": "8ft"
        },
        {
          "dep": "amod",
          "governor": 4,
          "governorGloss": "Wels",
          "dependent": 3,
          "dependentGloss": "9in"
        },
        {
          "dep": "appos",
          "governor": 2,
          "governorGloss": "8ft",
          "dependent": 4,
          "dependentGloss": "Wels"
        },
        {
          "dep": "case",
          "governor": 7,
          "governorGloss": "Gewicht",
          "dependent": 5,
          "dependentGloss": "mit"
        },
        {
          "dep": "det",
          "governor": 7,
          "governorGloss": "Gewicht",
          "dependent": 6,
          "dependentGloss": "einem"
        },
        {
          "dep": "nmod",
          "governor": 13,
          "governorGloss": "gefangen",
          "dependent": 7,
          "dependentGloss": "Gewicht"
        },
        {
          "dep": "case",
          "governor": 10,
          "governorGloss": "Stein",
          "dependent": 8,
          "dependentGloss": "von"
        },
        {
          "dep": "nummod",
          "governor": 10,
          "governorGloss": "Stein",
          "dependent": 9,
          "dependentGloss": "19"
        },
        {
          "dep": "nmod",
          "governor": 7,
          "governorGloss": "Gewicht",
          "dependent": 10,
          "dependentGloss": "Stein"
        },
        {
          "dep": "case",
          "governor": 12,
          "governorGloss": "Italien",
          "dependent": 11,
          "dependentGloss": "in"
        },
        {
          "dep": "nmod",
          "governor": 7,
          "governorGloss": "Gewicht",
          "dependent": 12,
          "dependentGloss": "Italien"
        },
        {
          "dep": "auxpass",
          "governor": 13,
          "governorGloss": "gefangen",
          "dependent": 14,
          "dependentGloss": "wird"
        },
        {
          "dep": "aux",
          "governor": 13,
          "governorGloss": "gefangen",
          "dependent": 15,
          "dependentGloss": "gedacht"
        },
        {
          "dep": "punct",
          "governor": 13,
          "governorGloss": "gefangen",
          "dependent": 16,
          "dependentGloss": ","
        },
        {
          "dep": "mark",
          "governor": 26,
          "governorGloss": "eingewickelt",
          "dependent": 17,
          "dependentGloss": "um"
        },
        {
          "dep": "det",
          "governor": 20,
          "governorGloss": "jemals",
          "dependent": 18,
          "dependentGloss": "die"
        },
        {
          "dep": "amod",
          "governor": 20,
          "governorGloss": "jemals",
          "dependent": 19,
          "dependentGloss": "größte"
        },
        {
          "dep": "dobj",
          "governor": 26,
          "governorGloss": "eingewickelt",
          "dependent": 20,
          "dependentGloss": "jemals"
        },
        {
          "dep": "case",
          "governor": 23,
          "governorGloss": "Stange",
          "dependent": 21,
          "dependentGloss": "mit"
        },
        {
          "dep": "det",
          "governor": 23,
          "governorGloss": "Stange",
          "dependent": 22,
          "dependentGloss": "einer"
        },
        {
          "dep": "nmod",
          "governor": 20,
          "governorGloss": "jemals",
          "dependent": 23,
          "dependentGloss": "Stange"
        },
        {
          "dep": "cc",
          "governor": 23,
          "governorGloss": "Stange",
          "dependent": 24,
          "dependentGloss": "und"
        },
        {
          "dep": "conj",
          "governor": 23,
          "governorGloss": "Stange",
          "dependent": 25,
          "dependentGloss": "Linie"
        },
        {
          "dep": "advcl",
          "governor": 13,
          "governorGloss": "gefangen",
          "dependent": 26,
          "dependentGloss": "eingewickelt"
        },
        {
          "dep": "auxpass",
          "governor": 26,
          "governorGloss": "eingewickelt",
          "dependent": 27,
          "dependentGloss": "werden"
        }
      ],
      "enhancedDependencies": [
        {
          "dep": "ROOT",
          "governor": 0,
          "governorGloss": "ROOT",
          "dependent": 13,
          "dependentGloss": "gefangen"
        },
        {
          "dep": "nsubjpass",
          "governor": 13,
          "governorGloss": "gefangen",
          "dependent": 1,
          "dependentGloss": "Riesige"
        },
        {
          "dep": "appos",
          "governor": 1,
          "governorGloss": "Riesige",
          "dependent": 2,
          "dependentGloss": "8ft"
        },
        {
          "dep": "amod",
          "governor": 4,
          "governorGloss": "Wels",
          "dependent": 3,
          "dependentGloss": "9in"
        },
        {
          "dep": "appos",
          "governor": 2,
          "governorGloss": "8ft",
          "dependent": 4,
          "dependentGloss": "Wels"
        },
        {
          "dep": "case",
          "governor": 7,
          "governorGloss": "Gewicht",
          "dependent": 5,
          "dependentGloss": "mit"
        },
        {
          "dep": "det",
          "governor": 7,
          "governorGloss": "Gewicht",
          "dependent": 6,
          "dependentGloss": "einem"
        },
        {
          "dep": "nmod",
          "governor": 13,
          "governorGloss": "gefangen",
          "dependent": 7,
          "dependentGloss": "Gewicht"
        },
        {
          "dep": "case",
          "governor": 10,
          "governorGloss": "Stein",
          "dependent": 8,
          "dependentGloss": "von"
        },
        {
          "dep": "nummod",
          "governor": 10,
          "governorGloss": "Stein",
          "dependent": 9,
          "dependentGloss": "19"
        },
        {
          "dep": "nmod",
          "governor": 7,
          "governorGloss": "Gewicht",
          "dependent": 10,
          "dependentGloss": "Stein"
        },
        {
          "dep": "case",
          "governor": 12,
          "governorGloss": "Italien",
          "dependent": 11,
          "dependentGloss": "in"
        },
        {
          "dep": "nmod",
          "governor": 7,
          "governorGloss": "Gewicht",
          "dependent": 12,
          "dependentGloss": "Italien"
        },
        {
          "dep": "auxpass",
          "governor": 13,
          "governorGloss": "gefangen",
          "dependent": 14,
          "dependentGloss": "wird"
        },
        {
          "dep": "aux",
          "governor": 13,
          "governorGloss": "gefangen",
          "dependent": 15,
          "dependentGloss": "gedacht"
        },
        {
          "dep": "punct",
          "governor": 13,
          "governorGloss": "gefangen",
          "dependent": 16,
          "dependentGloss": ","
        },
        {
          "dep": "mark",
          "governor": 26,
          "governorGloss": "eingewickelt",
          "dependent": 17,
          "dependentGloss": "um"
        },
        {
          "dep": "det",
          "governor": 20,
          "governorGloss": "jemals",
          "dependent": 18,
          "dependentGloss": "die"
        },
        {
          "dep": "amod",
          "governor": 20,
          "governorGloss": "jemals",
          "dependent": 19,
          "dependentGloss": "größte"
        },
        {
          "dep": "dobj",
          "governor": 26,
          "governorGloss": "eingewickelt",
          "dependent": 20,
          "dependentGloss": "jemals"
        },
        {
          "dep": "case",
          "governor": 23,
          "governorGloss": "Stange",
          "dependent": 21,
          "dependentGloss": "mit"
        },
        {
          "dep": "det",
          "governor": 23,
          "governorGloss": "Stange",
          "dependent": 22,
          "dependentGloss": "einer"
        },
        {
          "dep": "nmod",
          "governor": 20,
          "governorGloss": "jemals",
          "dependent": 23,
          "dependentGloss": "Stange"
        },
        {
          "dep": "cc",
          "governor": 23,
          "governorGloss": "Stange",
          "dependent": 24,
          "dependentGloss": "und"
        },
        {
          "dep": "nmod",
          "governor": 20,
          "governorGloss": "jemals",
          "dependent": 25,
          "dependentGloss": "Linie"
        },
        {
          "dep": "conj:und",
          "governor": 23,
          "governorGloss": "Stange",
          "dependent": 25,
          "dependentGloss": "Linie"
        },
        {
          "dep": "advcl",
          "governor": 13,
          "governorGloss": "gefangen",
          "dependent": 26,
          "dependentGloss": "eingewickelt"
        },
        {
          "dep": "auxpass",
          "governor": 26,
          "governorGloss": "eingewickelt",
          "dependent": 27,
          "dependentGloss": "werden"
        }
      ],
      "enhancedPlusPlusDependencies": [
        {
          "dep": "ROOT",
          "governor": 0,
          "governorGloss": "ROOT",
          "dependent": 13,
          "dependentGloss": "gefangen"
        },
        {
          "dep": "nsubjpass",
          "governor": 13,
          "governorGloss": "gefangen",
          "dependent": 1,
          "dependentGloss": "Riesige"
        },
        {
          "dep": "appos",
          "governor": 1,
          "governorGloss": "Riesige",
          "dependent": 2,
          "dependentGloss": "8ft"
        },
        {
          "dep": "amod",
          "governor": 4,
          "governorGloss": "Wels",
          "dependent": 3,
          "dependentGloss": "9in"
        },
        {
          "dep": "appos",
          "governor": 2,
          "governorGloss": "8ft",
          "dependent": 4,
          "dependentGloss": "Wels"
        },
        {
          "dep": "case",
          "governor": 7,
          "governorGloss": "Gewicht",
          "dependent": 5,
          "dependentGloss": "mit"
        },
        {
          "dep": "det",
          "governor": 7,
          "governorGloss": "Gewicht",
          "dependent": 6,
          "dependentGloss": "einem"
        },
        {
          "dep": "nmod",
          "governor": 13,
          "governorGloss": "gefangen",
          "dependent": 7,
          "dependentGloss": "Gewicht"
        },
        {
          "dep": "case",
          "governor": 10,
          "governorGloss": "Stein",
          "dependent": 8,
          "dependentGloss": "von"
        },
        {
          "dep": "nummod",
          "governor": 10,
          "governorGloss": "Stein",
          "dependent": 9,
          "dependentGloss": "19"
        },
        {
          "dep": "nmod",
          "governor": 7,
          "governorGloss": "Gewicht",
          "dependent": 10,
          "dependentGloss": "Stein"
        },
        {
          "dep": "case",
          "governor": 12,
          "governorGloss": "Italien",
          "dependent": 11,
          "dependentGloss": "in"
        },
        {
          "dep": "nmod",
          "governor": 7,
          "governorGloss": "Gewicht",
          "dependent": 12,
          "dependentGloss": "Italien"
        },
        {
          "dep": "auxpass",
          "governor": 13,
          "governorGloss": "gefangen",
          "dependent": 14,
          "dependentGloss": "wird"
        },
        {
          "dep": "aux",
          "governor": 13,
          "governorGloss": "gefangen",
          "dependent": 15,
          "dependentGloss": "gedacht"
        },
        {
          "dep": "punct",
          "governor": 13,
          "governorGloss": "gefangen",
          "dependent": 16,
          "dependentGloss": ","
        },
        {
          "dep": "mark",
          "governor": 26,
          "governorGloss": "eingewickelt",
          "dependent": 17,
          "dependentGloss": "um"
        },
        {
          "dep": "det",
          "governor": 20,
          "governorGloss": "jemals",
          "dependent": 18,
          "dependentGloss": "die"
        },
        {
          "dep": "amod",
          "governor": 20,
          "governorGloss": "jemals",
          "dependent": 19,
          "dependentGloss": "größte"
        },
        {
          "dep": "dobj",
          "governor": 26,
          "governorGloss": "eingewickelt",
          "dependent": 20,
          "dependentGloss": "jemals"
        },
        {
          "dep": "case",
          "governor": 23,
          "governorGloss": "Stange",
          "dependent": 21,
          "dependentGloss": "mit"
        },
        {
          "dep": "det",
          "governor": 23,
          "governorGloss": "Stange",
          "dependent": 22,
          "dependentGloss": "einer"
        },
        {
          "dep": "nmod",
          "governor": 20,
          "governorGloss": "jemals",
          "dependent": 23,
          "dependentGloss": "Stange"
        },
        {
          "dep": "cc",
          "governor": 23,
          "governorGloss": "Stange",
          "dependent": 24,
          "dependentGloss": "und"
        },
        {
          "dep": "nmod",
          "governor": 20,
          "governorGloss": "jemals",
          "dependent": 25,
          "dependentGloss": "Linie"
        },
        {
          "dep": "conj:und",
          "governor": 23,
          "governorGloss": "Stange",
          "dependent": 25,
          "dependentGloss": "Linie"
        },
        {
          "dep": "advcl",
          "governor": 13,
          "governorGloss": "gefangen",
          "dependent": 26,
          "dependentGloss": "eingewickelt"
        },
        {
          "dep": "auxpass",
          "governor": 26,
          "governorGloss": "eingewickelt",
          "dependent": 27,
          "dependentGloss": "werden"
        }
      ],
      "tokens": [
        {
          "index": 1,
          "word": "Riesige",
          "originalText": "Riesige",
          "characterOffsetBegin": 0,
          "characterOffsetEnd": 7,
          "pos": "ADJA",
          "before": "",
          "after": " "
        },
        {
          "index": 2,
          "word": "8ft",
          "originalText": "8ft",
          "characterOffsetBegin": 8,
          "characterOffsetEnd": 11,
          "pos": "NN",
          "before": " ",
          "after": " "
        },
        {
          "index": 3,
          "word": "9in",
          "originalText": "9in",
          "characterOffsetBegin": 12,
          "characterOffsetEnd": 15,
          "pos": "CARD",
          "before": " ",
          "after": " "
        },
        {
          "index": 4,
          "word": "Wels",
          "originalText": "Wels",
          "characterOffsetBegin": 16,
          "characterOffsetEnd": 20,
          "pos": "NE",
          "before": " ",
          "after": " "
        },
        {
          "index": 5,
          "word": "mit",
          "originalText": "mit",
          "characterOffsetBegin": 21,
          "characterOffsetEnd": 24,
          "pos": "APPR",
          "before": " ",
          "after": " "
        },
        {
          "index": 6,
          "word": "einem",
          "originalText": "einem",
          "characterOffsetBegin": 25,
          "characterOffsetEnd": 30,
          "pos": "ART",
          "before": " ",
          "after": " "
        },
        {
          "index": 7,
          "word": "Gewicht",
          "originalText": "Gewicht",
          "characterOffsetBegin": 31,
          "characterOffsetEnd": 38,
          "pos": "NN",
          "before": " ",
          "after": " "
        },
        {
          "index": 8,
          "word": "von",
          "originalText": "von",
          "characterOffsetBegin": 39,
          "characterOffsetEnd": 42,
          "pos": "APPR",
          "before": " ",
          "after": " "
        },
        {
          "index": 9,
          "word": "19",
          "originalText": "19",
          "characterOffsetBegin": 43,
          "characterOffsetEnd": 45,
          "pos": "CARD",
          "before": " ",
          "after": " "
        },
        {
          "index": 10,
          "word": "Stein",
          "originalText": "Stein",
          "characterOffsetBegin": 46,
          "characterOffsetEnd": 51,
          "pos": "NN",
          "before": " ",
          "after": " "
        },
        {
          "index": 11,
          "word": "in",
          "originalText": "in",
          "characterOffsetBegin": 52,
          "characterOffsetEnd": 54,
          "pos": "APPR",
          "before": " ",
          "after": " "
        },
        {
          "index": 12,
          "word": "Italien",
          "originalText": "Italien",
          "characterOffsetBegin": 55,
          "characterOffsetEnd": 62,
          "pos": "NE",
          "before": " ",
          "after": " "
        },
        {
          "index": 13,
          "word": "gefangen",
          "originalText": "gefangen",
          "characterOffsetBegin": 63,
          "characterOffsetEnd": 71,
          "pos": "VVPP",
          "before": " ",
          "after": " "
        },
        {
          "index": 14,
          "word": "wird",
          "originalText": "wird",
          "characterOffsetBegin": 72,
          "characterOffsetEnd": 76,
          "pos": "VAFIN",
          "before": " ",
          "after": " "
        },
        {
          "index": 15,
          "word": "gedacht",
          "originalText": "gedacht",
          "characterOffsetBegin": 77,
          "characterOffsetEnd": 84,
          "pos": "VVPP",
          "before": " ",
          "after": ""
        },
        {
          "index": 16,
          "word": ",",
          "originalText": ",",
          "characterOffsetBegin": 84,
          "characterOffsetEnd": 85,
          "pos": "$,",
          "before": "",
          "after": " "
        },
        {
          "index": 17,
          "word": "um",
          "originalText": "um",
          "characterOffsetBegin": 86,
          "characterOffsetEnd": 88,
          "pos": "KOUI",
          "before": " ",
          "after": " "
        },
        {
          "index": 18,
          "word": "die",
          "originalText": "die",
          "characterOffsetBegin": 89,
          "characterOffsetEnd": 92,
          "pos": "ART",
          "before": " ",
          "after": " "
        },
        {
          "index": 19,
          "word": "größte",
          "originalText": "größte",
          "characterOffsetBegin": 93,
          "characterOffsetEnd": 99,
          "pos": "ADJA",
          "before": " ",
          "after": " "
        },
        {
          "index": 20,
          "word": "jemals",
          "originalText": "jemals",
          "characterOffsetBegin": 100,
          "characterOffsetEnd": 106,
          "pos": "ADV",
          "before": " ",
          "after": " "
        },
        {
          "index": 21,
          "word": "mit",
          "originalText": "mit",
          "characterOffsetBegin": 107,
          "characterOffsetEnd": 110,
          "pos": "APPR",
          "before": " ",
          "after": " "
        },
        {
          "index": 22,
          "word": "einer",
          "originalText": "einer",
          "characterOffsetBegin": 111,
          "characterOffsetEnd": 116,
          "pos": "ART",
          "before": " ",
          "after": " "
        },
        {
          "index": 23,
          "word": "Stange",
          "originalText": "Stange",
          "characterOffsetBegin": 117,
          "characterOffsetEnd": 123,
          "pos": "NN",
          "before": " ",
          "after": " "
        },
        {
          "index": 24,
          "word": "und",
          "originalText": "und",
          "characterOffsetBegin": 124,
          "characterOffsetEnd": 127,
          "pos": "KON",
          "before": " ",
          "after": " "
        },
        {
          "index": 25,
          "word": "Linie",
          "originalText": "Linie",
          "characterOffsetBegin": 128,
          "characterOffsetEnd": 133,
          "pos": "NN",
          "before": " ",
          "after": " "
        },
        {
          "index": 26,
          "word": "eingewickelt",
          "originalText": "eingewickelt",
          "characterOffsetBegin": 134,
          "characterOffsetEnd": 146,
          "pos": "VVPP",
          "before": " ",
          "after": " "
        },
        {
          "index": 27,
          "word": "werden",
          "originalText": "werden",
          "characterOffsetBegin": 147,
          "characterOffsetEnd": 153,
          "pos": "VAINF",
          "before": " ",
          "after": ""
        }
      ]
    }
  ]
}