{
  "sentences": [
    {
      "index": 0,
      "basicDependencies": [
        {
          "dep": "ROOT",
          "governor": 0,
          "governorGloss": "ROOT",
          "dependent": 1,
          "dependentGloss": "Bericht"
        },
        {
          "dep": "punct",
          "governor": 1,
          "governorGloss": "Bericht",
          "dependent": 2,
          "dependentGloss": ":"
        },
        {
          "dep": "name",
          "governor": 4,
          "governorGloss": "startet",
          "dependent": 3,
          "dependentGloss": "Amazon"
        },
        {
          "dep": "appos",
          "governor": 1,
          "governorGloss": "Bericht",
          "dependent": 4,
          "dependentGloss": "startet"
        },
        {
          "dep": "det",
          "governor": 8,
          "governorGloss": "Service",
          "dependent": 5,
          "dependentGloss": "den"
        },
        {
          "dep": "amod",
          "governor": 8,
          "governorGloss": "Service",
          "dependent": 6,
          "dependentGloss": "Ad-Supported"
        },
        {
          "dep": "amod",
          "governor": 8,
          "governorGloss": "Service",
          "dependent": 7,
          "dependentGloss": "Streaming"
        },
        {
          "dep": "dobj",
          "governor": 4,
          "governorGloss": "startet",
          "dependent": 8,
          "dependentGloss": "Service"
        }
      ],
      "enhancedDependencies": [
        {
          "dep": "ROOT",
          "governor": 0,
          "governorGloss": "ROOT",
          "dependent": 1,
          "dependentGloss": "Bericht"
        },
        {
          "dep": "punct",
          "governor": 1,
          "governorGloss": "Bericht",
          "dependent": 2,
          "dependentGloss": ":"
        },
        {
          "dep": "name",
          "governor": 4,
          "governorGloss": "startet",
          "dependent": 3,
          "dependentGloss": "Amazon"
        },
        {
          "dep": "appos",
          "governor": 1,
          "governorGloss": "Bericht",
          "dependent": 4,
          "dependentGloss": "startet"
        },
        {
          "dep": "det",
          "governor": 8,
          "governorGloss": "Service",
          "dependent": 5,
          "dependentGloss": "den"
        },
        {
          "dep": "amod",
          "governor": 8,
          "governorGloss": "Service",
          "dependent": 6,
          "dependentGloss": "Ad-Supported"
        },
        {
          "dep": "amod",
          "governor": 8,
          "governorGloss": "Service",
          "dependent": 7,
          "dependentGloss": "Streaming"
        },
        {
          "dep": "dobj",
          "governor": 4,
          "governorGloss": "startet",
          "dependent": 8,
          "dependentGloss": "Service"
        }
      ],
      "enhancedPlusPlusDependencies": [
        {
          "dep": "ROOT",
          "governor": 0,
          "governorGloss": "ROOT",
          "dependent": 1,
          "dependentGloss": "Bericht"
        },
        {
          "dep": "punct",
          "governor": 1,
          "governorGloss": "Bericht",
          "dependent": 2,
          "dependentGloss": ":"
        },
        {
          "dep": "name",
          "governor": 4,
          "governorGloss": "startet",
          "dependent": 3,
          "dependentGloss": "Amazon"
        },
        {
          "dep": "appos",
          "governor": 1,
          "governorGloss": "Bericht",
          "dependent": 4,
          "dependentGloss": "startet"
        },
        {
          "dep": "det",
          "governor": 8,
          "governorGloss": "Service",
          "dependent": 5,
          "dependentGloss": "den"
        },
        {
          "dep": "amod",
          "governor": 8,
          "governorGloss": "Service",
          "dependent": 6,
          "dependentGloss": "Ad-Supported"
        },
        {
          "dep": "amod",
          "governor": 8,
          "governorGloss": "Service",
          "dependent": 7,
          "dependentGloss": "Streaming"
        },
        {
          "dep": "dobj",
          "governor": 4,
          "governorGloss": "startet",
          "dependent": 8,
          "dependentGloss": "Service"
        }
      ],
      "tokens": [
        {
          "index": 1,
          "word": "Bericht",
          "originalText": "Bericht",
          "characterOffsetBegin": 0,
          "characterOffsetEnd": 7,
          "pos": "NN",
          "before": "",
          "after": ""
        },
        {
          "index": 2,
          "word": ":",
          "originalText": ":",
          "characterOffsetBegin": 7,
          "characterOffsetEnd": 8,
          "pos": "$.",
          "before": "",
          "after": " "
        },
        {
          "index": 3,
          "word": "Amazon",
          "originalText": "Amazon",
          "characterOffsetBegin": 9,
          "characterOffsetEnd": 15,
          "pos": "NE",
          "before": " ",
          "after": " "
        },
        {
          "index": 4,
          "word": "startet",
          "originalText": "startet",
          "characterOffsetBegin": 16,
          "characterOffsetEnd": 23,
          "pos": "VVFIN",
          "before": " ",
          "after": " "
        },
        {
          "index": 5,
          "word": "den",
          "originalText": "den",
          "characterOffsetBegin": 24,
          "characterOffsetEnd": 27,
          "pos": "ART",
          "before": " ",
          "after": " "
        },
        {
          "index": 6,
          "word": "Ad-Supported",
          "originalText": "Ad-Supported",
          "characterOffsetBegin": 28,
          "characterOffsetEnd": 40,
          "pos": "NN",
          "before": " ",
          "after": " "
        },
        {
          "index": 7,
          "word": "Streaming",
          "originalText": "Streaming",
          "characterOffsetBegin": 41,
          "characterOffsetEnd": 50,
          "pos": "NE",
          "before": " ",
          "after": " "
        },
        {
          "index": 8,
          "word": "Service",
          "originalText": "Service",
          "characterOffsetBegin": 51,
          "characterOffsetEnd": 58,
          "pos": "NN",
          "before": " ",
          "after": ""
        }
      ]
    }
  ]
}