{
  "sentences": [
    {
      "index": 0,
      "basicDependencies": [
        {
          "dep": "ROOT",
          "governor": 0,
          "governorGloss": "ROOT",
          "dependent": 1,
          "dependentGloss": "Tote"
        },
        {
          "dep": "case",
          "governor": 4,
          "governorGloss": "Minuten",
          "dependent": 2,
          "dependentGloss": "für"
        },
        {
          "dep": "nummod",
          "governor": 4,
          "governorGloss": "Minuten",
          "dependent": 3,
          "dependentGloss": "48"
        },
        {
          "dep": "nmod",
          "governor": 1,
          "governorGloss": "Tote",
          "dependent": 4,
          "dependentGloss": "Minuten"
        },
        {
          "dep": "punct",
          "governor": 1,
          "governorGloss": "Tote",
          "dependent": 5,
          "dependentGloss": ","
        },
        {
          "dep": "amod",
          "governor": 7,
          "governorGloss": "Priester",
          "dependent": 6,
          "dependentGloss": "katholischer"
        },
        {
          "dep": "dobj",
          "governor": 8,
          "governorGloss": "behauptet",
          "dependent": 7,
          "dependentGloss": "Priester"
        },
        {
          "dep": "conj",
          "governor": 1,
          "governorGloss": "Tote",
          "dependent": 8,
          "dependentGloss": "behauptet"
        },
        {
          "dep": "punct",
          "governor": 8,
          "governorGloss": "behauptet",
          "dependent": 9,
          "dependentGloss": ","
        },
        {
          "dep": "mark",
          "governor": 12,
          "governorGloss": "weiblich",
          "dependent": 10,
          "dependentGloss": "dass"
        },
        {
          "dep": "nsubj",
          "governor": 12,
          "governorGloss": "weiblich",
          "dependent": 11,
          "dependentGloss": "Gott"
        },
        {
          "dep": "ccomp",
          "governor": 8,
          "governorGloss": "behauptet",
          "dependent": 12,
          "dependentGloss": "weiblich"
        },
        {
          "dep": "cop",
          "governor": 12,
          "governorGloss": "weiblich",
          "dependent": 13,
          "dependentGloss": "ist"
        }
      ],
      "enhancedDependencies": [
        {
          "dep": "ROOT",
          "governor": 0,
          "governorGloss": "ROOT",
          "dependent": 1,
          "dependentGloss": "Tote"
        },
        {
          "dep": "case",
          "governor": 4,
          "governorGloss": "Minuten",
          "dependent": 2,
          "dependentGloss": "für"
        },
        {
          "dep": "nummod",
          "governor": 4,
          "governorGloss": "Minuten",
          "dependent": 3,
          "dependentGloss": "48"
        },
        {
          "dep": "nmod",
          "governor": 1,
          "governorGloss": "Tote",
          "dependent": 4,
          "dependentGloss": "Minuten"
        },
        {
          "dep": "punct",
          "governor": 1,
          "governorGloss": "Tote",
          "dependent": 5,
          "dependentGloss": ","
        },
        {
          "dep": "amod",
          "governor": 7,
          "governorGloss": "Priester",
          "dependent": 6,
          "dependentGloss": "katholischer"
        },
        {
          "dep": "dobj",
          "governor": 8,
          "governorGloss": "behauptet",
          "dependent": 7,
          "dependentGloss": "Priester"
        },
        {
          "dep": "conj",
          "governor": 1,
          "governorGloss": "Tote",
          "dependent": 8,
          "dependentGloss": "behauptet"
        },
        {
          "dep": "punct",
          "governor": 8,
          "governorGloss": "behauptet",
          "dependent": 9,
          "dependentGloss": ","
        },
        {
          "dep": "mark",
          "governor": 12,
          "governorGloss": "weiblich",
          "dependent": 10,
          "dependentGloss": "dass"
        },
        {
          "dep": "nsubj",
          "governor": 12,
          "governorGloss": "weiblich",
          "dependent": 11,
          "dependentGloss": "Gott"
        },
        {
          "dep": "ccomp",
          "governor": 8,
          "governorGloss": "behauptet",
          "dependent": 12,
          "dependentGloss": "weiblich"
        },
        {
          "dep": "cop",
          "governor": 12,
          "governorGloss": "weiblich",
          "dependent": 13,
          "dependentGloss": "ist"
        }
      ],
      "enhancedPlusPlusDependencies": [
        {
          "dep": "ROOT",
          "governor": 0,
          "governorGloss": "ROOT",
          "dependent": 1,
          "dependentGloss": "Tote"
        },
        {
          "dep": "case",
          "governor": 4,
          "governorGloss": "Minuten",
          "dependent": 2,
          "dependentGloss": "für"
        },
        {
          "dep": "nummod",
          "governor": 4,
          "governorGloss": "Minuten",
          "dependent": 3,
          "dependentGloss": "48"
        },
        {
          "dep": "nmod",
          "governor": 1,
          "governorGloss": "Tote",
          "dependent": 4,
          "dependentGloss": "Minuten"
        },
        {
          "dep": "punct",
          "governor": 1,
          "governorGloss": "Tote",
          "dependent": 5,
          "dependentGloss": ","
        },
        {
          "dep": "amod",
          "governor": 7,
          "governorGloss": "Priester",
          "dependent": 6,
          "dependentGloss": "katholischer"
        },
        {
          "dep": "dobj",
          "governor": 8,
          "governorGloss": "behauptet",
          "dependent": 7,
          "dependentGloss": "Priester"
        },
        {
          "dep": "conj",
          "governor": 1,
          "governorGloss": "Tote",
          "dependent": 8,
          "dependentGloss": "behauptet"
        },
        {
          "dep": "punct",
          "governor": 8,
          "governorGloss": "behauptet",
          "dependent": 9,
          "dependentGloss": ","
        },
        {
          "dep": "mark",
          "governor": 12,
          "governorGloss": "weiblich",
          "dependent": 10,
          "dependentGloss": "dass"
        },
        {
          "dep": "nsubj",
          "governor": 12,
          "governorGloss": "weiblich",
          "dependent": 11,
          "dependentGloss": "Gott"
        },
        {
          "dep": "ccomp",
          "governor": 8,
          "governorGloss": "behauptet",
          "dependent": 12,
          "dependentGloss": "weiblich"
        },
        {
          "dep": "cop",
          "governor": 12,
          "governorGloss": "weiblich",
          "dependent": 13,
          "dependentGloss": "ist"
        }
      ],
      "tokens": [
        {
          "index": 1,
          "word": "Tote",
          "originalText": "Tote",
          "characterOffsetBegin": 0,
          "characterOffsetEnd": 4,
          "pos": "NN",
          "before": "",
          "after": " "
        },
        {
          "index": 2,
          "word": "für",
          "originalText": "für",
          "characterOffsetBegin": 5,
          "characterOffsetEnd": 8,
          "pos": "APPR",
          "before": " ",
          "after": " "
        },
        {
          "index": 3,
          "word": "48",
          "originalText": "48",
          "characterOffsetBegin": 9,
          "characterOffsetEnd": 11,
          "pos": "CARD",
          "before": " ",
          "after": " "
        },
        {
          "index": 4,
          "word": "Minuten",
          "originalText": "Minuten",
          "characterOffsetBegin": 12,
          "characterOffsetEnd": 19,
          "pos": "NN",
          "before": " ",
          "after": ""
        },
        {
          "index": 5,
          "word": ",",
          "originalText": ",",
          "characterOffsetBegin": 19,
          "characterOffsetEnd": 20,
          "pos": "$,",
          "before": "",
          "after": " "
        },
        {
          "index": 6,
          "word": "katholischer",
          "originalText": "katholischer",
          "characterOffsetBegin": 21,
          "characterOffsetEnd": 33,
          "pos": "ADJA",
          "before": " ",
          "after": " "
        },
        {
          "index": 7,
          "word": "Priester",
          "originalText": "Priester",
          "characterOffsetBegin": 34,
          "characterOffsetEnd": 42,
          "pos": "NN",
          "before": " ",
          "after": " "
        },
        {
          "index": 8,
          "word": "behauptet",
          "originalText": "behauptet",
          "characterOffsetBegin": 43,
          "characterOffsetEnd": 52,
          "pos": "VVFIN",
          "before": " ",
          "after": ""
        },
        {
          "index": 9,
          "word": ",",
          "originalText": ",",
          "characterOffsetBegin": 52,
          "characterOffsetEnd": 53,
          "pos": "$,",
          "before": "",
          "after": " "
        },
        {
          "index": 10,
          "word": "dass",
          "originalText": "dass",
          "characterOffsetBegin": 54,
          "characterOffsetEnd": 58,
          "pos": "KOUS",
          "before": " ",
          "after": " "
        },
        {
          "index": 11,
          "word": "Gott",
          "originalText": "Gott",
          "characterOffsetBegin": 59,
          "characterOffsetEnd": 63,
          "pos": "NN",
          "before": " ",
          "after": " "
        },
        {
          "index": 12,
          "word": "weiblich",
          "originalText": "weiblich",
          "characterOffsetBegin": 64,
          "characterOffsetEnd": 72,
          "pos": "ADJD",
          "before": " ",
          "after": " "
        },
        {
          "index": 13,
          "word": "ist",
          "originalText": "ist",
          "characterOffsetBegin": 73,
          "characterOffsetEnd": 76,
          "pos": "VAFIN",
          "before": " ",
          "after": ""
        }
      ]
    }
  ]
}