{
  "sentences": [
    {
      "index": 0,
      "basicDependencies": [
        {
          "dep": "ROOT",
          "governor": 0,
          "governorGloss": "ROOT",
          "dependent": 14,
          "dependentGloss": "eröffnen"
        },
        {
          "dep": "nsubj",
          "governor": 14,
          "governorGloss": "eröffnen",
          "dependent": 1,
          "dependentGloss": "Amazon"
        },
        {
          "dep": "cop",
          "governor": 14,
          "governorGloss": "eröffnen",
          "dependent": 2,
          "dependentGloss": "ist"
        },
        {
          "dep": "advmod",
          "governor": 14,
          "governorGloss": "eröffnen",
          "dependent": 3,
          "dependentGloss": "dabei"
        },
        {
          "dep": "punct",
          "governor": 14,
          "governorGloss": "eröffnen",
          "dependent": 4,
          "dependentGloss": ","
        },
        {
          "dep": "det",
          "governor": 8,
          "governorGloss": "Laden",
          "dependent": 5,
          "dependentGloss": "seinen"
        },
        {
          "dep": "amod",
          "governor": 7,
          "governorGloss": "physischen",
          "dependent": 6,
          "dependentGloss": "ersten"
        },
        {
          "dep": "name",
          "governor": 8,
          "governorGloss": "Laden",
          "dependent": 7,
          "dependentGloss": "physischen"
        },
        {
          "dep": "dobj",
          "governor": 14,
          "governorGloss": "eröffnen",
          "dependent": 8,
          "dependentGloss": "Laden"
        },
        {
          "dep": "case",
          "governor": 12,
          "governorGloss": "City",
          "dependent": 9,
          "dependentGloss": "in"
        },
        {
          "dep": "name",
          "governor": 11,
          "governorGloss": "York",
          "dependent": 10,
          "dependentGloss": "New"
        },
        {
          "dep": "name",
          "governor": 12,
          "governorGloss": "City",
          "dependent": 11,
          "dependentGloss": "York"
        },
        {
          "dep": "nmod",
          "governor": 8,
          "governorGloss": "Laden",
          "dependent": 12,
          "dependentGloss": "City"
        },
        {
          "dep": "aux",
          "governor": 14,
          "governorGloss": "eröffnen",
          "dependent": 13,
          "dependentGloss": "zu"
        }
      ],
      "enhancedDependencies": [
        {
          "dep": "ROOT",
          "governor": 0,
          "governorGloss": "ROOT",
          "dependent": 14,
          "dependentGloss": "eröffnen"
        },
        {
          "dep": "nsubj",
          "governor": 14,
          "governorGloss": "eröffnen",
          "dependent": 1,
          "dependentGloss": "Amazon"
        },
        {
          "dep": "cop",
          "governor": 14,
          "governorGloss": "eröffnen",
          "dependent": 2,
          "dependentGloss": "ist"
        },
        {
          "dep": "advmod",
          "governor": 14,
          "governorGloss": "eröffnen",
          "dependent": 3,
          "dependentGloss": "dabei"
        },
        {
          "dep": "punct",
          "governor": 14,
          "governorGloss": "eröffnen",
          "dependent": 4,
          "dependentGloss": ","
        },
        {
          "dep": "det",
          "governor": 8,
          "governorGloss": "Laden",
          "dependent": 5,
          "dependentGloss": "seinen"
        },
        {
          "dep": "amod",
          "governor": 7,
          "governorGloss": "physischen",
          "dependent": 6,
          "dependentGloss": "ersten"
        },
        {
          "dep": "name",
          "governor": 8,
          "governorGloss": "Laden",
          "dependent": 7,
          "dependentGloss": "physischen"
        },
        {
          "dep": "dobj",
          "governor": 14,
          "governorGloss": "eröffnen",
          "dependent": 8,
          "dependentGloss": "Laden"
        },
        {
          "dep": "case",
          "governor": 12,
          "governorGloss": "City",
          "dependent": 9,
          "dependentGloss": "in"
        },
        {
          "dep": "name",
          "governor": 11,
          "governorGloss": "York",
          "dependent": 10,
          "dependentGloss": "New"
        },
        {
          "dep": "name",
          "governor": 12,
          "governorGloss": "City",
          "dependent": 11,
          "dependentGloss": "York"
        },
        {
          "dep": "nmod",
          "governor": 8,
          "governorGloss": "Laden",
          "dependent": 12,
          "dependentGloss": "City"
        },
        {
          "dep": "aux",
          "governor": 14,
          "governorGloss": "eröffnen",
          "dependent": 13,
          "dependentGloss": "zu"
        }
      ],
      "enhancedPlusPlusDependencies": [
        {
          "dep": "ROOT",
          "governor": 0,
          "governorGloss": "ROOT",
          "dependent": 14,
          "dependentGloss": "eröffnen"
        },
        {
          "dep": "nsubj",
          "governor": 14,
          "governorGloss": "eröffnen",
          "dependent": 1,
          "dependentGloss": "Amazon"
        },
        {
          "dep": "cop",
          "governor": 14,
          "governorGloss": "eröffnen",
          "dependent": 2,
          "dependentGloss": "ist"
        },
        {
          "dep": "advmod",
          "governor": 14,
          "governorGloss": "eröffnen",
          "dependent": 3,
          "dependentGloss": "dabei"
        },
        {
          "dep": "punct",
          "governor": 14,
          "governorGloss": "eröffnen",
          "dependent": 4,
          "dependentGloss": ","
        },
        {
          "dep": "det",
          "governor": 8,
          "governorGloss": "Laden",
          "dependent": 5,
          "dependentGloss": "seinen"
        },
        {
          "dep": "amod",
          "governor": 7,
          "governorGloss": "physischen",
          "dependent": 6,
          "dependentGloss": "ersten"
        },
        {
          "dep": "name",
          "governor": 8,
          "governorGloss": "Laden",
          "dependent": 7,
          "dependentGloss": "physischen"
        },
        {
          "dep": "dobj",
          "governor": 14,
          "governorGloss": "eröffnen",
          "dependent": 8,
          "dependentGloss": "Laden"
        },
        {
          "dep": "case",
          "governor": 12,
          "governorGloss": "City",
          "dependent": 9,
          "dependentGloss": "in"
        },
        {
          "dep": "name",
          "governor": 11,
          "governorGloss": "York",
          "dependent": 10,
          "dependentGloss": "New"
        },
        {
          "dep": "name",
          "governor": 12,
          "governorGloss": "City",
          "dependent": 11,
          "dependentGloss": "York"
        },
        {
          "dep": "nmod",
          "governor": 8,
          "governorGloss": "Laden",
          "dependent": 12,
          "dependentGloss": "City"
        },
        {
          "dep": "aux",
          "governor": 14,
          "governorGloss": "eröffnen",
          "dependent": 13,
          "dependentGloss": "zu"
        }
      ],
      "tokens": [
        {
          "index": 1,
          "word": "Amazon",
          "originalText": "Amazon",
          "characterOffsetBegin": 0,
          "characterOffsetEnd": 6,
          "pos": "NE",
          "before": "",
          "after": " "
        },
        {
          "index": 2,
          "word": "ist",
          "originalText": "ist",
          "characterOffsetBegin": 7,
          "characterOffsetEnd": 10,
          "pos": "VAFIN",
          "before": " ",
          "after": " "
        },
        {
          "index": 3,
          "word": "dabei",
          "originalText": "dabei",
          "characterOffsetBegin": 11,
          "characterOffsetEnd": 16,
          "pos": "PROAV",
          "before": " ",
          "after": ""
        },
        {
          "index": 4,
          "word": ",",
          "originalText": ",",
          "characterOffsetBegin": 16,
          "characterOffsetEnd": 17,
          "pos": "$,",
          "before": "",
          "after": " "
        },
        {
          "index": 5,
          "word": "seinen",
          "originalText": "seinen",
          "characterOffsetBegin": 18,
          "characterOffsetEnd": 24,
          "pos": "PPOSAT",
          "before": " ",
          "after": " "
        },
        {
          "index": 6,
          "word": "ersten",
          "originalText": "ersten",
          "characterOffsetBegin": 25,
          "characterOffsetEnd": 31,
          "pos": "ADJA",
          "before": " ",
          "after": " "
        },
        {
          "index": 7,
          "word": "physischen",
          "originalText": "physischen",
          "characterOffsetBegin": 32,
          "characterOffsetEnd": 42,
          "pos": "ADJA",
          "before": " ",
          "after": " "
        },
        {
          "index": 8,
          "word": "Laden",
          "originalText": "Laden",
          "characterOffsetBegin": 43,
          "characterOffsetEnd": 48,
          "pos": "NN",
          "before": " ",
          "after": " "
        },
        {
          "index": 9,
          "word": "in",
          "originalText": "in",
          "characterOffsetBegin": 49,
          "characterOffsetEnd": 51,
          "pos": "APPR",
          "before": " ",
          "after": " "
        },
        {
          "index": 10,
          "word": "New",
          "originalText": "New",
          "characterOffsetBegin": 52,
          "characterOffsetEnd": 55,
          "pos": "NE",
          "before": " ",
          "after": " "
        },
        {
          "index": 11,
          "word": "York",
          "originalText": "York",
          "characterOffsetBegin": 56,
          "characterOffsetEnd": 60,
          "pos": "NE",
          "before": " ",
          "after": " "
        },
        {
          "index": 12,
          "word": "City",
          "originalText": "City",
          "characterOffsetBegin": 61,
          "characterOffsetEnd": 65,
          "pos": "NE",
          "before": " ",
          "after": " "
        },
        {
          "index": 13,
          "word": "zu",
          "originalText": "zu",
          "characterOffsetBegin": 66,
          "characterOffsetEnd": 68,
          "pos": "PTKZU",
          "before": " ",
          "after": " "
        },
        {
          "index": 14,
          "word": "eröffnen",
          "originalText": "eröffnen",
          "characterOffsetBegin": 69,
          "characterOffsetEnd": 77,
          "pos": "VVINF",
          "before": " ",
          "after": ""
        }
      ]
    }
  ]
}