{
  "sentences": [
    {
      "index": 0,
      "basicDependencies": [
        {
          "dep": "ROOT",
          "governor": 0,
          "governorGloss": "ROOT",
          "dependent": 4,
          "dependentGloss": "vergeben"
        },
        {
          "dep": "nsubj",
          "governor": 4,
          "governorGloss": "vergeben",
          "dependent": 1,
          "dependentGloss": "ISIS-Militanten"
        },
        {
          "dep": "aux",
          "governor": 4,
          "governorGloss": "vergeben",
          "dependent": 2,
          "dependentGloss": "haben"
        },
        {
          "dep": "dobj",
          "governor": 4,
          "governorGloss": "vergeben",
          "dependent": 3,
          "dependentGloss": "Ebola"
        },
        {
          "dep": "punct",
          "governor": 4,
          "governorGloss": "vergeben",
          "dependent": 5,
          "dependentGloss": ":"
        },
        {
          "dep": "amod",
          "governor": 9,
          "governorGloss": "Medienberichte",
          "dependent": 6,
          "dependentGloss": "irakische"
        },
        {
          "dep": "punct",
          "governor": 6,
          "governorGloss": "irakische",
          "dependent": 7,
          "dependentGloss": ","
        },
        {
          "dep": "conj",
          "governor": 6,
          "governorGloss": "irakische",
          "dependent": 8,
          "dependentGloss": "kurdische"
        },
        {
          "dep": "parataxis",
          "governor": 4,
          "governorGloss": "vergeben",
          "dependent": 9,
          "dependentGloss": "Medienberichte"
        }
      ],
      "enhancedDependencies": [
        {
          "dep": "ROOT",
          "governor": 0,
          "governorGloss": "ROOT",
          "dependent": 4,
          "dependentGloss": "vergeben"
        },
        {
          "dep": "nsubj",
          "governor": 4,
          "governorGloss": "vergeben",
          "dependent": 1,
          "dependentGloss": "ISIS-Militanten"
        },
        {
          "dep": "aux",
          "governor": 4,
          "governorGloss": "vergeben",
          "dependent": 2,
          "dependentGloss": "haben"
        },
        {
          "dep": "dobj",
          "governor": 4,
          "governorGloss": "vergeben",
          "dependent": 3,
          "dependentGloss": "Ebola"
        },
        {
          "dep": "punct",
          "governor": 4,
          "governorGloss": "vergeben",
          "dependent": 5,
          "dependentGloss": ":"
        },
        {
          "dep": "amod",
          "governor": 9,
          "governorGloss": "Medienberichte",
          "dependent": 6,
          "dependentGloss": "irakische"
        },
        {
          "dep": "punct",
          "governor": 6,
          "governorGloss": "irakische",
          "dependent": 7,
          "dependentGloss": ","
        },
        {
          "dep": "conj",
          "governor": 6,
          "governorGloss": "irakische",
          "dependent": 8,
          "dependentGloss": "kurdische"
        },
        {
          "dep": "parataxis",
          "governor": 4,
          "governorGloss": "vergeben",
          "dependent": 9,
          "dependentGloss": "Medienberichte"
        }
      ],
      "enhancedPlusPlusDependencies": [
        {
          "dep": "ROOT",
          "governor": 0,
          "governorGloss": "ROOT",
          "dependent": 4,
          "dependentGloss": "vergeben"
        },
        {
          "dep": "nsubj",
          "governor": 4,
          "governorGloss": "vergeben",
          "dependent": 1,
          "dependentGloss": "ISIS-Militanten"
        },
        {
          "dep": "aux",
          "governor": 4,
          "governorGloss": "vergeben",
          "dependent": 2,
          "dependentGloss": "haben"
        },
        {
          "dep": "dobj",
          "governor": 4,
          "governorGloss": "vergeben",
          "dependent": 3,
          "dependentGloss": "Ebola"
        },
        {
          "dep": "punct",
          "governor": 4,
          "governorGloss": "vergeben",
          "dependent": 5,
          "dependentGloss": ":"
        },
        {
          "dep": "amod",
          "governor": 9,
          "governorGloss": "Medienberichte",
          "dependent": 6,
          "dependentGloss": "irakische"
        },
        {
          "dep": "punct",
          "governor": 6,
          "governorGloss": "irakische",
          "dependent": 7,
          "dependentGloss": ","
        },
        {
          "dep": "conj",
          "governor": 6,
          "governorGloss": "irakische",
          "dependent": 8,
          "dependentGloss": "kurdische"
        },
        {
          "dep": "parataxis",
          "governor": 4,
          "governorGloss": "vergeben",
          "dependent": 9,
          "dependentGloss": "Medienberichte"
        }
      ],
      "tokens": [
        {
          "index": 1,
          "word": "ISIS-Militanten",
          "originalText": "ISIS-Militanten",
          "characterOffsetBegin": 0,
          "characterOffsetEnd": 15,
          "pos": "NN",
          "before": "",
          "after": " "
        },
        {
          "index": 2,
          "word": "haben",
          "originalText": "haben",
          "characterOffsetBegin": 16,
          "characterOffsetEnd": 21,
          "pos": "VAFIN",
          "before": " ",
          "after": " "
        },
        {
          "index": 3,
          "word": "Ebola",
          "originalText": "Ebola",
          "characterOffsetBegin": 22,
          "characterOffsetEnd": 27,
          "pos": "NE",
          "before": " ",
          "after": " "
        },
        {
          "index": 4,
          "word": "vergeben",
          "originalText": "vergeben",
          "characterOffsetBegin": 28,
          "characterOffsetEnd": 36,
          "pos": "VVPP",
          "before": " ",
          "after": ""
        },
        {
          "index": 5,
          "word": ":",
          "originalText": ":",
          "characterOffsetBegin": 36,
          "characterOffsetEnd": 37,
          "pos": "$.",
          "before": "",
          "after": " "
        },
        {
          "index": 6,
          "word": "irakische",
          "originalText": "irakische",
          "characterOffsetBegin": 38,
          "characterOffsetEnd": 47,
          "pos": "ADJA",
          "before": " ",
          "after": ""
        },
        {
          "index": 7,
          "word": ",",
          "originalText": ",",
          "characterOffsetBegin": 47,
          "characterOffsetEnd": 48,
          "pos": "$,",
          "before": "",
          "after": " "
        },
        {
          "index": 8,
          "word": "kurdische",
          "originalText": "kurdische",
          "characterOffsetBegin": 49,
          "characterOffsetEnd": 58,
          "pos": "ADJA",
          "before": " ",
          "after": " "
        },
        {
          "index": 9,
          "word": "Medienberichte",
          "originalText": "Medienberichte",
          "characterOffsetBegin": 59,
          "characterOffsetEnd": 73,
          "pos": "NN",
          "before": " ",
          "after": ""
        }
      ]
    }
  ]
}