{
  "sentences": [
    {
      "index": 0,
      "basicDependencies": [
        {
          "dep": "ROOT",
          "governor": 0,
          "governorGloss": "ROOT",
          "dependent": 7,
          "dependentGloss": "Krankenhaus"
        },
        {
          "dep": "nsubj",
          "governor": 7,
          "governorGloss": "Krankenhaus",
          "dependent": 1,
          "dependentGloss": "Kloster"
        },
        {
          "dep": "appos",
          "governor": 1,
          "governorGloss": "Kloster",
          "dependent": 2,
          "dependentGloss": "Nonne"
        },
        {
          "dep": "aux",
          "governor": 7,
          "governorGloss": "Krankenhaus",
          "dependent": 3,
          "dependentGloss": "hat"
        },
        {
          "dep": "det",
          "governor": 6,
          "governorGloss": "Schmerzen",
          "dependent": 4,
          "dependentGloss": "ein"
        },
        {
          "dep": "amod",
          "governor": 6,
          "governorGloss": "Schmerzen",
          "dependent": 5,
          "dependentGloss": "Magen"
        },
        {
          "dep": "dobj",
          "governor": 7,
          "governorGloss": "Krankenhaus",
          "dependent": 6,
          "dependentGloss": "Schmerzen"
        },
        {
          "dep": "appos",
          "governor": 7,
          "governorGloss": "Krankenhaus",
          "dependent": 8,
          "dependentGloss": "gebiert"
        },
        {
          "dep": "det",
          "governor": 13,
          "governorGloss": "Translate",
          "dependent": 9,
          "dependentGloss": "ein"
        },
        {
          "dep": "name",
          "governor": 13,
          "governorGloss": "Translate",
          "dependent": 10,
          "dependentGloss": "Baby"
        },
        {
          "dep": "name",
          "governor": 13,
          "governorGloss": "Translate",
          "dependent": 11,
          "dependentGloss": "-LSB-"
        },
        {
          "dep": "name",
          "governor": 13,
          "governorGloss": "Translate",
          "dependent": 12,
          "dependentGloss": "Google"
        },
        {
          "dep": "dobj",
          "governor": 14,
          "governorGloss": "-RSB-",
          "dependent": 13,
          "dependentGloss": "Translate"
        },
        {
          "dep": "xcomp",
          "governor": 8,
          "governorGloss": "gebiert",
          "dependent": 14,
          "dependentGloss": "-RSB-"
        }
      ],
      "enhancedDependencies": [
        {
          "dep": "ROOT",
          "governor": 0,
          "governorGloss": "ROOT",
          "dependent": 7,
          "dependentGloss": "Krankenhaus"
        },
        {
          "dep": "nsubj",
          "governor": 7,
          "governorGloss": "Krankenhaus",
          "dependent": 1,
          "dependentGloss": "Kloster"
        },
        {
          "dep": "appos",
          "governor": 1,
          "governorGloss": "Kloster",
          "dependent": 2,
          "dependentGloss": "Nonne"
        },
        {
          "dep": "aux",
          "governor": 7,
          "governorGloss": "Krankenhaus",
          "dependent": 3,
          "dependentGloss": "hat"
        },
        {
          "dep": "det",
          "governor": 6,
          "governorGloss": "Schmerzen",
          "dependent": 4,
          "dependentGloss": "ein"
        },
        {
          "dep": "amod",
          "governor": 6,
          "governorGloss": "Schmerzen",
          "dependent": 5,
          "dependentGloss": "Magen"
        },
        {
          "dep": "dobj",
          "governor": 7,
          "governorGloss": "Krankenhaus",
          "dependent": 6,
          "dependentGloss": "Schmerzen"
        },
        {
          "dep": "appos",
          "governor": 7,
          "governorGloss": "Krankenhaus",
          "dependent": 8,
          "dependentGloss": "gebiert"
        },
        {
          "dep": "det",
          "governor": 13,
          "governorGloss": "Translate",
          "dependent": 9,
          "dependentGloss": "ein"
        },
        {
          "dep": "name",
          "governor": 13,
          "governorGloss": "Translate",
          "dependent": 10,
          "dependentGloss": "Baby"
        },
        {
          "dep": "name",
          "governor": 13,
          "governorGloss": "Translate",
          "dependent": 11,
          "dependentGloss": "-LSB-"
        },
        {
          "dep": "name",
          "governor": 13,
          "governorGloss": "Translate",
          "dependent": 12,
          "dependentGloss": "Google"
        },
        {
          "dep": "dobj",
          "governor": 14,
          "governorGloss": "-RSB-",
          "dependent": 13,
          "dependentGloss": "Translate"
        },
        {
          "dep": "xcomp",
          "governor": 8,
          "governorGloss": "gebiert",
          "dependent": 14,
          "dependentGloss": "-RSB-"
        }
      ],
      "enhancedPlusPlusDependencies": [
        {
          "dep": "ROOT",
          "governor": 0,
          "governorGloss": "ROOT",
          "dependent": 7,
          "dependentGloss": "Krankenhaus"
        },
        {
          "dep": "nsubj",
          "governor": 7,
          "governorGloss": "Krankenhaus",
          "dependent": 1,
          "dependentGloss": "Kloster"
        },
        {
          "dep": "appos",
          "governor": 1,
          "governorGloss": "Kloster",
          "dependent": 2,
          "dependentGloss": "Nonne"
        },
        {
          "dep": "aux",
          "governor": 7,
          "governorGloss": "Krankenhaus",
          "dependent": 3,
          "dependentGloss": "hat"
        },
        {
          "dep": "det",
          "governor": 6,
          "governorGloss": "Schmerzen",
          "dependent": 4,
          "dependentGloss": "ein"
        },
        {
          "dep": "amod",
          "governor": 6,
          "governorGloss": "Schmerzen",
          "dependent": 5,
          "dependentGloss": "Magen"
        },
        {
          "dep": "dobj",
          "governor": 7,
          "governorGloss": "Krankenhaus",
          "dependent": 6,
          "dependentGloss": "Schmerzen"
        },
        {
          "dep": "appos",
          "governor": 7,
          "governorGloss": "Krankenhaus",
          "dependent": 8,
          "dependentGloss": "gebiert"
        },
        {
          "dep": "det",
          "governor": 13,
          "governorGloss": "Translate",
          "dependent": 9,
          "dependentGloss": "ein"
        },
        {
          "dep": "name",
          "governor": 13,
          "governorGloss": "Translate",
          "dependent": 10,
          "dependentGloss": "Baby"
        },
        {
          "dep": "name",
          "governor": 13,
          "governorGloss": "Translate",
          "dependent": 11,
          "dependentGloss": "-LSB-"
        },
        {
          "dep": "name",
          "governor": 13,
          "governorGloss": "Translate",
          "dependent": 12,
          "dependentGloss": "Google"
        },
        {
          "dep": "dobj",
          "governor": 14,
          "governorGloss": "-RSB-",
          "dependent": 13,
          "dependentGloss": "Translate"
        },
        {
          "dep": "xcomp",
          "governor": 8,
          "governorGloss": "gebiert",
          "dependent": 14,
          "dependentGloss": "-RSB-"
        }
      ],
      "tokens": [
        {
          "index": 1,
          "word": "Kloster",
          "originalText": "Kloster",
          "characterOffsetBegin": 0,
          "characterOffsetEnd": 7,
          "pos": "NN",
          "before": "",
          "after": " "
        },
        {
          "index": 2,
          "word": "Nonne",
          "originalText": "Nonne",
          "characterOffsetBegin": 8,
          "characterOffsetEnd": 13,
          "pos": "NE",
          "before": " ",
          "after": " "
        },
        {
          "index": 3,
          "word": "hat",
          "originalText": "hat",
          "characterOffsetBegin": 14,
          "characterOffsetEnd": 17,
          "pos": "VAFIN",
          "before": " ",
          "after": " "
        },
        {
          "index": 4,
          "word": "ein",
          "originalText": "ein",
          "characterOffsetBegin": 18,
          "characterOffsetEnd": 21,
          "pos": "ART",
          "before": " ",
          "after": " "
        },
        {
          "index": 5,
          "word": "Magen",
          "originalText": "Magen",
          "characterOffsetBegin": 22,
          "characterOffsetEnd": 27,
          "pos": "NN",
          "before": " ",
          "after": " "
        },
        {
          "index": 6,
          "word": "Schmerzen",
          "originalText": "Schmerzen",
          "characterOffsetBegin": 28,
          "characterOffsetEnd": 37,
          "pos": "NN",
          "before": " ",
          "after": " "
        },
        {
          "index": 7,
          "word": "Krankenhaus",
          "originalText": "Krankenhaus",
          "characterOffsetBegin": 38,
          "characterOffsetEnd": 49,
          "pos": "NN",
          "before": " ",
          "after": " "
        },
        {
          "index": 8,
          "word": "gebiert",
          "originalText": "gebiert",
          "characterOffsetBegin": 50,
          "characterOffsetEnd": 57,
          "pos": "VVFIN",
          "before": " ",
          "after": " "
        },
        {
          "index": 9,
          "word": "ein",
          "originalText": "ein",
          "characterOffsetBegin": 58,
          "characterOffsetEnd": 61,
          "pos": "ART",
          "before": " ",
          "after": " "
        },
        {
          "index": 10,
          "word": "Baby",
          "originalText": "Baby",
          "characterOffsetBegin": 62,
          "characterOffsetEnd": 66,
          "pos": "NN",
          "before": " ",
          "after": " "
        },
        {
          "index": 11,
          "word": "-LSB-",
          "originalText": "[",
          "characterOffsetBegin": 67,
          "characterOffsetEnd": 68,
          "pos": "TRUNC",
          "before": " ",
          "after": ""
        },
        {
          "index": 12,
          "word": "Google",
          "originalText": "Google",
          "characterOffsetBegin": 68,
          "characterOffsetEnd": 74,
          "pos": "NN",
          "before": "",
          "after": " "
        },
        {
          "index": 13,
          "word": "Translate",
          "originalText": "Translate",
          "characterOffsetBegin": 75,
          "characterOffsetEnd": 84,
          "pos": "NN",
          "before": " ",
          "after": ""
        },
        {
          "index": 14,
          "word": "-RSB-",
          "originalText": "]",
          "characterOffsetBegin": 84,
          "characterOffsetEnd": 85,
          "pos": "TRUNC",
          "before": "",
          "after": ""
        }
      ]
    }
  ]
}