{
  "sentences": [
    {
      "index": 0,
      "basicDependencies": [
        {
          "dep": "ROOT",
          "governor": 0,
          "governorGloss": "ROOT",
          "dependent": 3,
          "dependentGloss": "bezahlt"
        },
        {
          "dep": "det",
          "governor": 2,
          "governorGloss": "Mann",
          "dependent": 1,
          "dependentGloss": "Dieser"
        },
        {
          "dep": "nsubj",
          "governor": 3,
          "governorGloss": "bezahlt",
          "dependent": 2,
          "dependentGloss": "Mann"
        },
        {
          "dep": "case",
          "governor": 6,
          "governorGloss": "Eltern",
          "dependent": 4,
          "dependentGloss": "von"
        },
        {
          "dep": "det",
          "governor": 6,
          "governorGloss": "Eltern",
          "dependent": 5,
          "dependentGloss": "seiner"
        },
        {
          "dep": "nmod",
          "governor": 3,
          "governorGloss": "bezahlt",
          "dependent": 6,
          "dependentGloss": "Eltern"
        },
        {
          "dep": "advmod",
          "governor": 3,
          "governorGloss": "bezahlt",
          "dependent": 7,
          "dependentGloss": "Mortgage"
        },
        {
          "dep": "case",
          "governor": 9,
          "governorGloss": "Weihnachten",
          "dependent": 8,
          "dependentGloss": "für"
        },
        {
          "dep": "nmod",
          "governor": 3,
          "governorGloss": "bezahlt",
          "dependent": 9,
          "dependentGloss": "Weihnachten"
        },
        {
          "dep": "amod",
          "governor": 11,
          "governorGloss": "Video",
          "dependent": 10,
          "dependentGloss": "-LRB-"
        },
        {
          "dep": "dobj",
          "governor": 3,
          "governorGloss": "bezahlt",
          "dependent": 11,
          "dependentGloss": "Video"
        },
        {
          "dep": "advmod",
          "governor": 3,
          "governorGloss": "bezahlt",
          "dependent": 12,
          "dependentGloss": "-RRB-"
        }
      ],
      "enhancedDependencies": [
        {
          "dep": "ROOT",
          "governor": 0,
          "governorGloss": "ROOT",
          "dependent": 3,
          "dependentGloss": "bezahlt"
        },
        {
          "dep": "det",
          "governor": 2,
          "governorGloss": "Mann",
          "dependent": 1,
          "dependentGloss": "Dieser"
        },
        {
          "dep": "nsubj",
          "governor": 3,
          "governorGloss": "bezahlt",
          "dependent": 2,
          "dependentGloss": "Mann"
        },
        {
          "dep": "case",
          "governor": 6,
          "governorGloss": "Eltern",
          "dependent": 4,
          "dependentGloss": "von"
        },
        {
          "dep": "det",
          "governor": 6,
          "governorGloss": "Eltern",
          "dependent": 5,
          "dependentGloss": "seiner"
        },
        {
          "dep": "nmod",
          "governor": 3,
          "governorGloss": "bezahlt",
          "dependent": 6,
          "dependentGloss": "Eltern"
        },
        {
          "dep": "advmod",
          "governor": 3,
          "governorGloss": "bezahlt",
          "dependent": 7,
          "dependentGloss": "Mortgage"
        },
        {
          "dep": "case",
          "governor": 9,
          "governorGloss": "Weihnachten",
          "dependent": 8,
          "dependentGloss": "für"
        },
        {
          "dep": "nmod",
          "governor": 3,
          "governorGloss": "bezahlt",
          "dependent": 9,
          "dependentGloss": "Weihnachten"
        },
        {
          "dep": "amod",
          "governor": 11,
          "governorGloss": "Video",
          "dependent": 10,
          "dependentGloss": "-LRB-"
        },
        {
          "dep": "dobj",
          "governor": 3,
          "governorGloss": "bezahlt",
          "dependent": 11,
          "dependentGloss": "Video"
        },
        {
          "dep": "advmod",
          "governor": 3,
          "governorGloss": "bezahlt",
          "dependent": 12,
          "dependentGloss": "-RRB-"
        }
      ],
      "enhancedPlusPlusDependencies": [
        {
          "dep": "ROOT",
          "governor": 0,
          "governorGloss": "ROOT",
          "dependent": 3,
          "dependentGloss": "bezahlt"
        },
        {
          "dep": "det",
          "governor": 2,
          "governorGloss": "Mann",
          "dependent": 1,
          "dependentGloss": "Dieser"
        },
        {
          "dep": "nsubj",
          "governor": 3,
          "governorGloss": "bezahlt",
          "dependent": 2,
          "dependentGloss": "Mann"
        },
        {
          "dep": "case",
          "governor": 6,
          "governorGloss": "Eltern",
          "dependent": 4,
          "dependentGloss": "von"
        },
        {
          "dep": "det",
          "governor": 6,
          "governorGloss": "Eltern",
          "dependent": 5,
          "dependentGloss": "seiner"
        },
        {
          "dep": "nmod",
          "governor": 3,
          "governorGloss": "bezahlt",
          "dependent": 6,
          "dependentGloss": "Eltern"
        },
        {
          "dep": "advmod",
          "governor": 3,
          "governorGloss": "bezahlt",
          "dependent": 7,
          "dependentGloss": "Mortgage"
        },
        {
          "dep": "case",
          "governor": 9,
          "governorGloss": "Weihnachten",
          "dependent": 8,
          "dependentGloss": "für"
        },
        {
          "dep": "nmod",
          "governor": 3,
          "governorGloss": "bezahlt",
          "dependent": 9,
          "dependentGloss": "Weihnachten"
        },
        {
          "dep": "amod",
          "governor": 11,
          "governorGloss": "Video",
          "dependent": 10,
          "dependentGloss": "-LRB-"
        },
        {
          "dep": "dobj",
          "governor": 3,
          "governorGloss": "bezahlt",
          "dependent": 11,
          "dependentGloss": "Video"
        },
        {
          "dep": "advmod",
          "governor": 3,
          "governorGloss": "bezahlt",
          "dependent": 12,
          "dependentGloss": "-RRB-"
        }
      ],
      "tokens": [
        {
          "index": 1,
          "word": "Dieser",
          "originalText": "Dieser",
          "characterOffsetBegin": 0,
          "characterOffsetEnd": 6,
          "pos": "PDAT",
          "before": "",
          "after": " "
        },
        {
          "index": 2,
          "word": "Mann",
          "originalText": "Mann",
          "characterOffsetBegin": 7,
          "characterOffsetEnd": 11,
          "pos": "NN",
          "before": " ",
          "after": " "
        },
        {
          "index": 3,
          "word": "bezahlt",
          "originalText": "bezahlt",
          "characterOffsetBegin": 12,
          "characterOffsetEnd": 19,
          "pos": "VVPP",
          "before": " ",
          "after": " "
        },
        {
          "index": 4,
          "word": "von",
          "originalText": "von",
          "characterOffsetBegin": 20,
          "characterOffsetEnd": 23,
          "pos": "APPR",
          "before": " ",
          "after": " "
        },
        {
          "index": 5,
          "word": "seiner",
          "originalText": "seiner",
          "characterOffsetBegin": 24,
          "characterOffsetEnd": 30,
          "pos": "PPOSAT",
          "before": " ",
          "after": " "
        },
        {
          "index": 6,
          "word": "Eltern",
          "originalText": "Eltern",
          "characterOffsetBegin": 31,
          "characterOffsetEnd": 37,
          "pos": "NN",
          "before": " ",
          "after": " "
        },
        {
          "index": 7,
          "word": "Mortgage",
          "originalText": "Mortgage",
          "characterOffsetBegin": 38,
          "characterOffsetEnd": 46,
          "pos": "NN",
          "before": " ",
          "after": " "
        },
        {
          "index": 8,
          "word": "für",
          "originalText": "für",
          "characterOffsetBegin": 47,
          "characterOffsetEnd": 50,
          "pos": "APPR",
          "before": " ",
          "after": " "
        },
        {
          "index": 9,
          "word": "Weihnachten",
          "originalText": "Weihnachten",
          "characterOffsetBegin": 51,
          "characterOffsetEnd": 62,
          "pos": "NN",
          "before": " ",
          "after": " "
        },
        {
          "index": 10,
          "word": "-LRB-",
          "originalText": "(",
          "characterOffsetBegin": 63,
          "characterOffsetEnd": 64,
          "pos": "TRUNC",
          "before": " ",
          "after": ""
        },
        {
          "index": 11,
          "word": "Video",
          "originalText": "Video",
          "characterOffsetBegin": 64,
          "characterOffsetEnd": 69,
          "pos": "NN",
          "before": "",
          "after": ""
        },
        {
          "index": 12,
          "word": "-RRB-",
          "originalText": ")",
          "characterOffsetBegin": 69,
          "characterOffsetEnd": 70,
          "pos": "TRUNC",
          "before": "",
          "after": ""
        }
      ]
    }
  ]
}