{
  "sentences": [
    {
      "index": 0,
      "basicDependencies": [
        {
          "dep": "ROOT",
          "governor": 0,
          "governorGloss": "ROOT",
          "dependent": 1,
          "dependentGloss": "Islamischer"
        },
        {
          "dep": "nsubj",
          "governor": 6,
          "governorGloss": "tot",
          "dependent": 2,
          "dependentGloss": "Staatsführer"
        },
        {
          "dep": "cop",
          "governor": 6,
          "governorGloss": "tot",
          "dependent": 3,
          "dependentGloss": "al-Baghdadi"
        },
        {
          "dep": "punct",
          "governor": 6,
          "governorGloss": "tot",
          "dependent": 4,
          "dependentGloss": "``"
        },
        {
          "dep": "neg",
          "governor": 6,
          "governorGloss": "tot",
          "dependent": 5,
          "dependentGloss": "nicht"
        },
        {
          "dep": "parataxis",
          "governor": 1,
          "governorGloss": "Islamischer",
          "dependent": 6,
          "dependentGloss": "tot"
        },
        {
          "dep": "punct",
          "governor": 6,
          "governorGloss": "tot",
          "dependent": 7,
          "dependentGloss": "``"
        }
      ],
      "enhancedDependencies": [
        {
          "dep": "ROOT",
          "governor": 0,
          "governorGloss": "ROOT",
          "dependent": 1,
          "dependentGloss": "Islamischer"
        },
        {
          "dep": "nsubj",
          "governor": 6,
          "governorGloss": "tot",
          "dependent": 2,
          "dependentGloss": "Staatsführer"
        },
        {
          "dep": "cop",
          "governor": 6,
          "governorGloss": "tot",
          "dependent": 3,
          "dependentGloss": "al-Baghdadi"
        },
        {
          "dep": "punct",
          "governor": 6,
          "governorGloss": "tot",
          "dependent": 4,
          "dependentGloss": "``"
        },
        {
          "dep": "neg",
          "governor": 6,
          "governorGloss": "tot",
          "dependent": 5,
          "dependentGloss": "nicht"
        },
        {
          "dep": "parataxis",
          "governor": 1,
          "governorGloss": "Islamischer",
          "dependent": 6,
          "dependentGloss": "tot"
        },
        {
          "dep": "punct",
          "governor": 6,
          "governorGloss": "tot",
          "dependent": 7,
          "dependentGloss": "``"
        }
      ],
      "enhancedPlusPlusDependencies": [
        {
          "dep": "ROOT",
          "governor": 0,
          "governorGloss": "ROOT",
          "dependent": 1,
          "dependentGloss": "Islamischer"
        },
        {
          "dep": "nsubj",
          "governor": 6,
          "governorGloss": "tot",
          "dependent": 2,
          "dependentGloss": "Staatsführer"
        },
        {
          "dep": "cop",
          "governor": 6,
          "governorGloss": "tot",
          "dependent": 3,
          "dependentGloss": "al-Baghdadi"
        },
        {
          "dep": "punct",
          "governor": 6,
          "governorGloss": "tot",
          "dependent": 4,
          "dependentGloss": "``"
        },
        {
          "dep": "neg",
          "governor": 6,
          "governorGloss": "tot",
          "dependent": 5,
          "dependentGloss": "nicht"
        },
        {
          "dep": "parataxis",
          "governor": 1,
          "governorGloss": "Islamischer",
          "dependent": 6,
          "dependentGloss": "tot"
        },
        {
          "dep": "punct",
          "governor": 6,
          "governorGloss": "tot",
          "dependent": 7,
          "dependentGloss": "``"
        }
      ],
      "tokens": [
        {
          "index": 1,
          "word": "Islamischer",
          "originalText": "Islamischer",
          "characterOffsetBegin": 0,
          "characterOffsetEnd": 11,
          "pos": "ADJA",
          "before": "",
          "after": " "
        },
        {
          "index": 2,
          "word": "Staatsführer",
          "originalText": "Staatsführer",
          "characterOffsetBegin": 12,
          "characterOffsetEnd": 24,
          "pos": "NN",
          "before": " ",
          "after": " "
        },
        {
          "index": 3,
          "word": "al-Baghdadi",
          "originalText": "al-Baghdadi",
          "characterOffsetBegin": 25,
          "characterOffsetEnd": 36,
          "pos": "NE",
          "before": " ",
          "after": " "
        },
        {
          "index": 4,
          "word": "``",
          "originalText": "“",
          "characterOffsetBegin": 37,
          "characterOffsetEnd": 38,
          "pos": "CARD",
          "before": " ",
          "after": ""
        },
        {
          "index": 5,
          "word": "nicht",
          "originalText": "nicht",
          "characterOffsetBegin": 38,
          "characterOffsetEnd": 43,
          "pos": "PTKNEG",
          "before": "",
          "after": " "
        },
        {
          "index": 6,
          "word": "tot",
          "originalText": "tot",
          "characterOffsetBegin": 44,
          "characterOffsetEnd": 47,
          "pos": "ADJD",
          "before": " ",
          "after": ""
        },
        {
          "index": 7,
          "word": "``",
          "originalText": "“",
          "characterOffsetBegin": 47,
          "characterOffsetEnd": 48,
          "pos": "CARD",
          "before": "",
          "after": ""
        }
      ]
    }
  ]
}