{
  "sentences": [
    {
      "index": 0,
      "basicDependencies": [
        {
          "dep": "ROOT",
          "governor": 0,
          "governorGloss": "ROOT",
          "dependent": 1,
          "dependentGloss": "Libanon"
        },
        {
          "dep": "dep",
          "governor": 1,
          "governorGloss": "Libanon",
          "dependent": 2,
          "dependentGloss": "`"
        },
        {
          "dep": "root",
          "governor": 2,
          "governorGloss": "`",
          "dependent": 3,
          "dependentGloss": "Holding"
        },
        {
          "dep": "punct",
          "governor": 3,
          "governorGloss": "Holding",
          "dependent": 4,
          "dependentGloss": "IS"
        },
        {
          "dep": "amod",
          "governor": 6,
          "governorGloss": "Tochter",
          "dependent": 5,
          "dependentGloss": "Führer"
        },
        {
          "dep": "conj",
          "governor": 3,
          "governorGloss": "Holding",
          "dependent": 6,
          "dependentGloss": "Tochter"
        },
        {
          "dep": "cc",
          "governor": 3,
          "governorGloss": "Holding",
          "dependent": 7,
          "dependentGloss": "und"
        },
        {
          "dep": "conj",
          "governor": 3,
          "governorGloss": "Holding",
          "dependent": 8,
          "dependentGloss": "Ex-Frau"
        },
        {
          "dep": "punct",
          "governor": 3,
          "governorGloss": "Holding",
          "dependent": 9,
          "dependentGloss": "'"
        }
      ],
      "enhancedDependencies": [
        {
          "dep": "ROOT",
          "governor": 0,
          "governorGloss": "ROOT",
          "dependent": 1,
          "dependentGloss": "Libanon"
        },
        {
          "dep": "dep",
          "governor": 1,
          "governorGloss": "Libanon",
          "dependent": 2,
          "dependentGloss": "`"
        },
        {
          "dep": "root",
          "governor": 2,
          "governorGloss": "`",
          "dependent": 3,
          "dependentGloss": "Holding"
        },
        {
          "dep": "punct",
          "governor": 3,
          "governorGloss": "Holding",
          "dependent": 4,
          "dependentGloss": "IS"
        },
        {
          "dep": "amod",
          "governor": 6,
          "governorGloss": "Tochter",
          "dependent": 5,
          "dependentGloss": "Führer"
        },
        {
          "dep": "conj",
          "governor": 3,
          "governorGloss": "Holding",
          "dependent": 6,
          "dependentGloss": "Tochter"
        },
        {
          "dep": "cc",
          "governor": 3,
          "governorGloss": "Holding",
          "dependent": 7,
          "dependentGloss": "und"
        },
        {
          "dep": "root",
          "governor": 2,
          "governorGloss": "`",
          "dependent": 8,
          "dependentGloss": "Ex-Frau"
        },
        {
          "dep": "conj:und",
          "governor": 3,
          "governorGloss": "Holding",
          "dependent": 8,
          "dependentGloss": "Ex-Frau"
        },
        {
          "dep": "punct",
          "governor": 3,
          "governorGloss": "Holding",
          "dependent": 9,
          "dependentGloss": "'"
        }
      ],
      "enhancedPlusPlusDependencies": [
        {
          "dep": "ROOT",
          "governor": 0,
          "governorGloss": "ROOT",
          "dependent": 1,
          "dependentGloss": "Libanon"
        },
        {
          "dep": "dep",
          "governor": 1,
          "governorGloss": "Libanon",
          "dependent": 2,
          "dependentGloss": "`"
        },
        {
          "dep": "root",
          "governor": 2,
          "governorGloss": "`",
          "dependent": 3,
          "dependentGloss": "Holding"
        },
        {
          "dep": "punct",
          "governor": 3,
          "governorGloss": "Holding",
          "dependent": 4,
          "dependentGloss": "IS"
        },
        {
          "dep": "amod",
          "governor": 6,
          "governorGloss": "Tochter",
          "dependent": 5,
          "dependentGloss": "Führer"
        },
        {
          "dep": "conj",
          "governor": 3,
          "governorGloss": "Holding",
          "dependent": 6,
          "dependentGloss": "Tochter"
        },
        {
          "dep": "cc",
          "governor": 3,
          "governorGloss": "Holding",
          "dependent": 7,
          "dependentGloss": "und"
        },
        {
          "dep": "root",
          "governor": 2,
          "governorGloss": "`",
          "dependent": 8,
          "dependentGloss": "Ex-Frau"
        },
        {
          "dep": "conj:und",
          "governor": 3,
          "governorGloss": "Holding",
          "dependent": 8,
          "dependentGloss": "Ex-Frau"
        },
        {
          "dep": "punct",
          "governor": 3,
          "governorGloss": "Holding",
          "dependent": 9,
          "dependentGloss": "'"
        }
      ],
      "tokens": [
        {
          "index": 1,
          "word": "Libanon",
          "originalText": "Libanon",
          "characterOffsetBegin": 0,
          "characterOffsetEnd": 7,
          "pos": "NE",
          "before": "",
          "after": " "
        },
        {
          "index": 2,
          "word": "`",
          "originalText": "'",
          "characterOffsetBegin": 8,
          "characterOffsetEnd": 9,
          "pos": "CARD",
          "before": " ",
          "after": ""
        },
        {
          "index": 3,
          "word": "Holding",
          "originalText": "Holding",
          "characterOffsetBegin": 9,
          "characterOffsetEnd": 16,
          "pos": "FM",
          "before": "",
          "after": " "
        },
        {
          "index": 4,
          "word": "IS",
          "originalText": "IS",
          "characterOffsetBegin": 17,
          "characterOffsetEnd": 19,
          "pos": "FM",
          "before": " ",
          "after": " "
        },
        {
          "index": 5,
          "word": "Führer",
          "originalText": "Führer",
          "characterOffsetBegin": 20,
          "characterOffsetEnd": 26,
          "pos": "NN",
          "before": " ",
          "after": " "
        },
        {
          "index": 6,
          "word": "Tochter",
          "originalText": "Tochter",
          "characterOffsetBegin": 27,
          "characterOffsetEnd": 34,
          "pos": "NN",
          "before": " ",
          "after": " "
        },
        {
          "index": 7,
          "word": "und",
          "originalText": "und",
          "characterOffsetBegin": 35,
          "characterOffsetEnd": 38,
          "pos": "KON",
          "before": " ",
          "after": " "
        },
        {
          "index": 8,
          "word": "Ex-Frau",
          "originalText": "Ex-Frau",
          "characterOffsetBegin": 39,
          "characterOffsetEnd": 46,
          "pos": "NN",
          "before": " ",
          "after": ""
        },
        {
          "index": 9,
          "word": "'",
          "originalText": "'",
          "characterOffsetBegin": 46,
          "characterOffsetEnd": 47,
          "pos": "$[",
          "before": "",
          "after": ""
        }
      ]
    }
  ]
}