{
  "sentences": [
    {
      "index": 0,
      "basicDependencies": [
        {
          "dep": "ROOT",
          "governor": 0,
          "governorGloss": "ROOT",
          "dependent": 5,
          "dependentGloss": "behaupten"
        },
        {
          "dep": "appos",
          "governor": 5,
          "governorGloss": "behaupten",
          "dependent": 1,
          "dependentGloss": "Frisco"
        },
        {
          "dep": "punct",
          "governor": 1,
          "governorGloss": "Frisco",
          "dependent": 2,
          "dependentGloss": ":"
        },
        {
          "dep": "amod",
          "governor": 4,
          "governorGloss": "Patienten",
          "dependent": 3,
          "dependentGloss": "Kranke"
        },
        {
          "dep": "dobj",
          "governor": 5,
          "governorGloss": "behaupten",
          "dependent": 4,
          "dependentGloss": "Patienten"
        },
        {
          "dep": "punct",
          "governor": 5,
          "governorGloss": "behaupten",
          "dependent": 6,
          "dependentGloss": ","
        },
        {
          "dep": "case",
          "governor": 8,
          "governorGloss": "Ebola-Opfer",
          "dependent": 7,
          "dependentGloss": "mit"
        },
        {
          "dep": "nmod",
          "governor": 11,
          "governorGloss": "gekommen",
          "dependent": 8,
          "dependentGloss": "Ebola-Opfer"
        },
        {
          "dep": "case",
          "governor": 10,
          "governorGloss": "Kontakt",
          "dependent": 9,
          "dependentGloss": "in"
        },
        {
          "dep": "nmod",
          "governor": 11,
          "governorGloss": "gekommen",
          "dependent": 10,
          "dependentGloss": "Kontakt"
        },
        {
          "dep": "xcomp",
          "governor": 5,
          "governorGloss": "behaupten",
          "dependent": 11,
          "dependentGloss": "gekommen"
        },
        {
          "dep": "aux",
          "governor": 11,
          "governorGloss": "gekommen",
          "dependent": 12,
          "dependentGloss": "zu"
        },
        {
          "dep": "aux",
          "governor": 11,
          "governorGloss": "gekommen",
          "dependent": 13,
          "dependentGloss": "sein"
        }
      ],
      "enhancedDependencies": [
        {
          "dep": "ROOT",
          "governor": 0,
          "governorGloss": "ROOT",
          "dependent": 5,
          "dependentGloss": "behaupten"
        },
        {
          "dep": "appos",
          "governor": 5,
          "governorGloss": "behaupten",
          "dependent": 1,
          "dependentGloss": "Frisco"
        },
        {
          "dep": "punct",
          "governor": 1,
          "governorGloss": "Frisco",
          "dependent": 2,
          "dependentGloss": ":"
        },
        {
          "dep": "amod",
          "governor": 4,
          "governorGloss": "Patienten",
          "dependent": 3,
          "dependentGloss": "Kranke"
        },
        {
          "dep": "dobj",
          "governor": 5,
          "governorGloss": "behaupten",
          "dependent": 4,
          "dependentGloss": "Patienten"
        },
        {
          "dep": "punct",
          "governor": 5,
          "governorGloss": "behaupten",
          "dependent": 6,
          "dependentGloss": ","
        },
        {
          "dep": "case",
          "governor": 8,
          "governorGloss": "Ebola-Opfer",
          "dependent": 7,
          "dependentGloss": "mit"
        },
        {
          "dep": "nmod",
          "governor": 11,
          "governorGloss": "gekommen",
          "dependent": 8,
          "dependentGloss": "Ebola-Opfer"
        },
        {
          "dep": "case",
          "governor": 10,
          "governorGloss": "Kontakt",
          "dependent": 9,
          "dependentGloss": "in"
        },
        {
          "dep": "nmod",
          "governor": 11,
          "governorGloss": "gekommen",
          "dependent": 10,
          "dependentGloss": "Kontakt"
        },
        {
          "dep": "xcomp",
          "governor": 5,
          "governorGloss": "behaupten",
          "dependent": 11,
          "dependentGloss": "gekommen"
        },
        {
          "dep": "aux",
          "governor": 11,
          "governorGloss": "gekommen",
          "dependent": 12,
          "dependentGloss": "zu"
        },
        {
          "dep": "aux",
          "governor": 11,
          "governorGloss": "gekommen",
          "dependent": 13,
          "dependentGloss": "sein"
        }
      ],
      "enhancedPlusPlusDependencies": [
        {
          "dep": "ROOT",
          "governor": 0,
          "governorGloss": "ROOT",
          "dependent": 5,
          "dependentGloss": "behaupten"
        },
        {
          "dep": "appos",
          "governor": 5,
          "governorGloss": "behaupten",
          "dependent": 1,
          "dependentGloss": "Frisco"
        },
        {
          "dep": "punct",
          "governor": 1,
          "governorGloss": "Frisco",
          "dependent": 2,
          "dependentGloss": ":"
        },
        {
          "dep": "amod",
          "governor": 4,
          "governorGloss": "Patienten",
          "dependent": 3,
          "dependentGloss": "Kranke"
        },
        {
          "dep": "dobj",
          "governor": 5,
          "governorGloss": "behaupten",
          "dependent": 4,
          "dependentGloss": "Patienten"
        },
        {
          "dep": "punct",
          "governor": 5,
          "governorGloss": "behaupten",
          "dependent": 6,
          "dependentGloss": ","
        },
        {
          "dep": "case",
          "governor": 8,
          "governorGloss": "Ebola-Opfer",
          "dependent": 7,
          "dependentGloss": "mit"
        },
        {
          "dep": "nmod",
          "governor": 11,
          "governorGloss": "gekommen",
          "dependent": 8,
          "dependentGloss": "Ebola-Opfer"
        },
        {
          "dep": "case",
          "governor": 10,
          "governorGloss": "Kontakt",
          "dependent": 9,
          "dependentGloss": "in"
        },
        {
          "dep": "nmod",
          "governor": 11,
          "governorGloss": "gekommen",
          "dependent": 10,
          "dependentGloss": "Kontakt"
        },
        {
          "dep": "xcomp",
          "governor": 5,
          "governorGloss": "behaupten",
          "dependent": 11,
          "dependentGloss": "gekommen"
        },
        {
          "dep": "aux",
          "governor": 11,
          "governorGloss": "gekommen",
          "dependent": 12,
          "dependentGloss": "zu"
        },
        {
          "dep": "aux",
          "governor": 11,
          "governorGloss": "gekommen",
          "dependent": 13,
          "dependentGloss": "sein"
        }
      ],
      "tokens": [
        {
          "index": 1,
          "word": "Frisco",
          "originalText": "Frisco",
          "characterOffsetBegin": 0,
          "characterOffsetEnd": 6,
          "pos": "NE",
          "before": "",
          "after": ""
        },
        {
          "index": 2,
          "word": ":",
          "originalText": ":",
          "characterOffsetBegin": 6,
          "characterOffsetEnd": 7,
          "pos": "$.",
          "before": "",
          "after": " "
        },
        {
          "index": 3,
          "word": "Kranke",
          "originalText": "Kranke",
          "characterOffsetBegin": 8,
          "characterOffsetEnd": 14,
          "pos": "NN",
          "before": " ",
          "after": " "
        },
        {
          "index": 4,
          "word": "Patienten",
          "originalText": "Patienten",
          "characterOffsetBegin": 15,
          "characterOffsetEnd": 24,
          "pos": "NN",
          "before": " ",
          "after": " "
        },
        {
          "index": 5,
          "word": "behaupten",
          "originalText": "behaupten",
          "characterOffsetBegin": 25,
          "characterOffsetEnd": 34,
          "pos": "VVFIN",
          "before": " ",
          "after": ""
        },
        {
          "index": 6,
          "word": ",",
          "originalText": ",",
          "characterOffsetBegin": 34,
          "characterOffsetEnd": 35,
          "pos": "$,",
          "before": "",
          "after": " "
        },
        {
          "index": 7,
          "word": "mit",
          "originalText": "mit",
          "characterOffsetBegin": 36,
          "characterOffsetEnd": 39,
          "pos": "APPR",
          "before": " ",
          "after": " "
        },
        {
          "index": 8,
          "word": "Ebola-Opfer",
          "originalText": "Ebola-Opfer",
          "characterOffsetBegin": 40,
          "characterOffsetEnd": 51,
          "pos": "NN",
          "before": " ",
          "after": " "
        },
        {
          "index": 9,
          "word": "in",
          "originalText": "in",
          "characterOffsetBegin": 52,
          "characterOffsetEnd": 54,
          "pos": "APPR",
          "before": " ",
          "after": " "
        },
        {
          "index": 10,
          "word": "Kontakt",
          "originalText": "Kontakt",
          "characterOffsetBegin": 55,
          "characterOffsetEnd": 62,
          "pos": "NN",
          "before": " ",
          "after": " "
        },
        {
          "index": 11,
          "word": "gekommen",
          "originalText": "gekommen",
          "characterOffsetBegin": 63,
          "characterOffsetEnd": 71,
          "pos": "VVPP",
          "before": " ",
          "after": " "
        },
        {
          "index": 12,
          "word": "zu",
          "originalText": "zu",
          "characterOffsetBegin": 72,
          "characterOffsetEnd": 74,
          "pos": "PTKZU",
          "before": " ",
          "after": " "
        },
        {
          "index": 13,
          "word": "sein",
          "originalText": "sein",
          "characterOffsetBegin": 75,
          "characterOffsetEnd": 79,
          "pos": "VAINF",
          "before": " ",
          "after": ""
        }
      ]
    }
  ]
}