{
  "sentences": [
    {
      "index": 0,
      "basicDependencies": [
        {
          "dep": "ROOT",
          "governor": 0,
          "governorGloss": "ROOT",
          "dependent": 3,
          "dependentGloss": "Abdel"
        },
        {
          "dep": "name",
          "governor": 2,
          "governorGloss": "Majed",
          "dependent": 1,
          "dependentGloss": "Abdel"
        },
        {
          "dep": "nsubj",
          "governor": 3,
          "governorGloss": "Abdel",
          "dependent": 2,
          "dependentGloss": "Majed"
        },
        {
          "dep": "nmod",
          "governor": 3,
          "governorGloss": "Abdel",
          "dependent": 4,
          "dependentGloss": "Bary"
        },
        {
          "dep": "dobj",
          "governor": 3,
          "governorGloss": "Abdel",
          "dependent": 5,
          "dependentGloss": "entpuppt"
        },
        {
          "dep": "dobj",
          "governor": 11,
          "governorGloss": "Enthauptung",
          "dependent": 6,
          "dependentGloss": "sich"
        },
        {
          "dep": "case",
          "governor": 8,
          "governorGloss": "verdächtig",
          "dependent": 7,
          "dependentGloss": "als"
        },
        {
          "dep": "nmod",
          "governor": 11,
          "governorGloss": "Enthauptung",
          "dependent": 8,
          "dependentGloss": "verdächtig"
        },
        {
          "dep": "case",
          "governor": 10,
          "governorGloss": "Foley",
          "dependent": 9,
          "dependentGloss": "in"
        },
        {
          "dep": "nmod",
          "governor": 11,
          "governorGloss": "Enthauptung",
          "dependent": 10,
          "dependentGloss": "Foley"
        },
        {
          "dep": "acl",
          "governor": 5,
          "governorGloss": "entpuppt",
          "dependent": 11,
          "dependentGloss": "Enthauptung"
        }
      ],
      "enhancedDependencies": [
        {
          "dep": "ROOT",
          "governor": 0,
          "governorGloss": "ROOT",
          "dependent": 3,
          "dependentGloss": "Abdel"
        },
        {
          "dep": "name",
          "governor": 2,
          "governorGloss": "Majed",
          "dependent": 1,
          "dependentGloss": "Abdel"
        },
        {
          "dep": "nsubj",
          "governor": 3,
          "governorGloss": "Abdel",
          "dependent": 2,
          "dependentGloss": "Majed"
        },
        {
          "dep": "nmod",
          "governor": 3,
          "governorGloss": "Abdel",
          "dependent": 4,
          "dependentGloss": "Bary"
        },
        {
          "dep": "dobj",
          "governor": 3,
          "governorGloss": "Abdel",
          "dependent": 5,
          "dependentGloss": "entpuppt"
        },
        {
          "dep": "dobj",
          "governor": 11,
          "governorGloss": "Enthauptung",
          "dependent": 6,
          "dependentGloss": "sich"
        },
        {
          "dep": "case",
          "governor": 8,
          "governorGloss": "verdächtig",
          "dependent": 7,
          "dependentGloss": "als"
        },
        {
          "dep": "nmod",
          "governor": 11,
          "governorGloss": "Enthauptung",
          "dependent": 8,
          "dependentGloss": "verdächtig"
        },
        {
          "dep": "case",
          "governor": 10,
          "governorGloss": "Foley",
          "dependent": 9,
          "dependentGloss": "in"
        },
        {
          "dep": "nmod",
          "governor": 11,
          "governorGloss": "Enthauptung",
          "dependent": 10,
          "dependentGloss": "Foley"
        },
        {
          "dep": "acl",
          "governor": 5,
          "governorGloss": "entpuppt",
          "dependent": 11,
          "dependentGloss": "Enthauptung"
        }
      ],
      "enhancedPlusPlusDependencies": [
        {
          "dep": "ROOT",
          "governor": 0,
          "governorGloss": "ROOT",
          "dependent": 3,
          "dependentGloss": "Abdel"
        },
        {
          "dep": "name",
          "governor": 2,
          "governorGloss": "Majed",
          "dependent": 1,
          "dependentGloss": "Abdel"
        },
        {
          "dep": "nsubj",
          "governor": 3,
          "governorGloss": "Abdel",
          "dependent": 2,
          "dependentGloss": "Majed"
        },
        {
          "dep": "nmod",
          "governor": 3,
          "governorGloss": "Abdel",
          "dependent": 4,
          "dependentGloss": "Bary"
        },
        {
          "dep": "dobj",
          "governor": 3,
          "governorGloss": "Abdel",
          "dependent": 5,
          "dependentGloss": "entpuppt"
        },
        {
          "dep": "dobj",
          "governor": 11,
          "governorGloss": "Enthauptung",
          "dependent": 6,
          "dependentGloss": "sich"
        },
        {
          "dep": "case",
          "governor": 8,
          "governorGloss": "verdächtig",
          "dependent": 7,
          "dependentGloss": "als"
        },
        {
          "dep": "nmod",
          "governor": 11,
          "governorGloss": "Enthauptung",
          "dependent": 8,
          "dependentGloss": "verdächtig"
        },
        {
          "dep": "case",
          "governor": 10,
          "governorGloss": "Foley",
          "dependent": 9,
          "dependentGloss": "in"
        },
        {
          "dep": "nmod",
          "governor": 11,
          "governorGloss": "Enthauptung",
          "dependent": 10,
          "dependentGloss": "Foley"
        },
        {
          "dep": "acl",
          "governor": 5,
          "governorGloss": "entpuppt",
          "dependent": 11,
          "dependentGloss": "Enthauptung"
        }
      ],
      "tokens": [
        {
          "index": 1,
          "word": "Abdel",
          "originalText": "Abdel",
          "characterOffsetBegin": 0,
          "characterOffsetEnd": 5,
          "pos": "NE",
          "before": "",
          "after": " "
        },
        {
          "index": 2,
          "word": "Majed",
          "originalText": "Majed",
          "characterOffsetBegin": 6,
          "characterOffsetEnd": 11,
          "pos": "NE",
          "before": " ",
          "after": " "
        },
        {
          "index": 3,
          "word": "Abdel",
          "originalText": "Abdel",
          "characterOffsetBegin": 12,
          "characterOffsetEnd": 17,
          "pos": "NE",
          "before": " ",
          "after": " "
        },
        {
          "index": 4,
          "word": "Bary",
          "originalText": "Bary",
          "characterOffsetBegin": 18,
          "characterOffsetEnd": 22,
          "pos": "NE",
          "before": " ",
          "after": " "
        },
        {
          "index": 5,
          "word": "entpuppt",
          "originalText": "entpuppt",
          "characterOffsetBegin": 23,
          "characterOffsetEnd": 31,
          "pos": "VVFIN",
          "before": " ",
          "after": " "
        },
        {
          "index": 6,
          "word": "sich",
          "originalText": "sich",
          "characterOffsetBegin": 32,
          "characterOffsetEnd": 36,
          "pos": "PRF",
          "before": " ",
          "after": " "
        },
        {
          "index": 7,
          "word": "als",
          "originalText": "als",
          "characterOffsetBegin": 37,
          "characterOffsetEnd": 40,
          "pos": "APPR",
          "before": " ",
          "after": " "
        },
        {
          "index": 8,
          "word": "verdächtig",
          "originalText": "verdächtig",
          "characterOffsetBegin": 41,
          "characterOffsetEnd": 51,
          "pos": "ADJD",
          "before": " ",
          "after": " "
        },
        {
          "index": 9,
          "word": "in",
          "originalText": "in",
          "characterOffsetBegin": 52,
          "characterOffsetEnd": 54,
          "pos": "APPR",
          "before": " ",
          "after": " "
        },
        {
          "index": 10,
          "word": "Foley",
          "originalText": "Foley",
          "characterOffsetBegin": 55,
          "characterOffsetEnd": 60,
          "pos": "NE",
          "before": " ",
          "after": " "
        },
        {
          "index": 11,
          "word": "Enthauptung",
          "originalText": "Enthauptung",
          "characterOffsetBegin": 61,
          "characterOffsetEnd": 72,
          "pos": "NN",
          "before": " ",
          "after": ""
        }
      ]
    }
  ]
}