{
  "sentences": [
    {
      "index": 0,
      "basicDependencies": [
        {
          "dep": "ROOT",
          "governor": 0,
          "governorGloss": "ROOT",
          "dependent": 3,
          "dependentGloss": "sieht"
        },
        {
          "dep": "name",
          "governor": 2,
          "governorGloss": "Raps-Krise",
          "dependent": 1,
          "dependentGloss": "Indien"
        },
        {
          "dep": "nsubj",
          "governor": 3,
          "governorGloss": "sieht",
          "dependent": 2,
          "dependentGloss": "Raps-Krise"
        },
        {
          "dep": "amod",
          "governor": 5,
          "governorGloss": "Castrate",
          "dependent": 4,
          "dependentGloss": "Mob"
        },
        {
          "dep": "dobj",
          "governor": 3,
          "governorGloss": "sieht",
          "dependent": 5,
          "dependentGloss": "Castrate"
        },
        {
          "dep": "advmod",
          "governor": 7,
          "governorGloss": "Sex-Angreifer",
          "dependent": 6,
          "dependentGloss": "angeblich"
        },
        {
          "dep": "advmod",
          "governor": 3,
          "governorGloss": "sieht",
          "dependent": 7,
          "dependentGloss": "Sex-Angreifer"
        },
        {
          "dep": "case",
          "governor": 10,
          "governorGloss": "Szenen",
          "dependent": 8,
          "dependentGloss": "in"
        },
        {
          "dep": "amod",
          "governor": 10,
          "governorGloss": "Szenen",
          "dependent": 9,
          "dependentGloss": "schockierenden"
        },
        {
          "dep": "nmod",
          "governor": 3,
          "governorGloss": "sieht",
          "dependent": 10,
          "dependentGloss": "Szenen"
        }
      ],
      "enhancedDependencies": [
        {
          "dep": "ROOT",
          "governor": 0,
          "governorGloss": "ROOT",
          "dependent": 3,
          "dependentGloss": "sieht"
        },
        {
          "dep": "name",
          "governor": 2,
          "governorGloss": "Raps-Krise",
          "dependent": 1,
          "dependentGloss": "Indien"
        },
        {
          "dep": "nsubj",
          "governor": 3,
          "governorGloss": "sieht",
          "dependent": 2,
          "dependentGloss": "Raps-Krise"
        },
        {
          "dep": "amod",
          "governor": 5,
          "governorGloss": "Castrate",
          "dependent": 4,
          "dependentGloss": "Mob"
        },
        {
          "dep": "dobj",
          "governor": 3,
          "governorGloss": "sieht",
          "dependent": 5,
          "dependentGloss": "Castrate"
        },
        {
          "dep": "advmod",
          "governor": 7,
          "governorGloss": "Sex-Angreifer",
          "dependent": 6,
          "dependentGloss": "angeblich"
        },
        {
          "dep": "advmod",
          "governor": 3,
          "governorGloss": "sieht",
          "dependent": 7,
          "dependentGloss": "Sex-Angreifer"
        },
        {
          "dep": "case",
          "governor": 10,
          "governorGloss": "Szenen",
          "dependent": 8,
          "dependentGloss": "in"
        },
        {
          "dep": "amod",
          "governor": 10,
          "governorGloss": "Szenen",
          "dependent": 9,
          "dependentGloss": "schockierenden"
        },
        {
          "dep": "nmod",
          "governor": 3,
          "governorGloss": "sieht",
          "dependent": 10,
          "dependentGloss": "Szenen"
        }
      ],
      "enhancedPlusPlusDependencies": [
        {
          "dep": "ROOT",
          "governor": 0,
          "governorGloss": "ROOT",
          "dependent": 3,
          "dependentGloss": "sieht"
        },
        {
          "dep": "name",
          "governor": 2,
          "governorGloss": "Raps-Krise",
          "dependent": 1,
          "dependentGloss": "Indien"
        },
        {
          "dep": "nsubj",
          "governor": 3,
          "governorGloss": "sieht",
          "dependent": 2,
          "dependentGloss": "Raps-Krise"
        },
        {
          "dep": "amod",
          "governor": 5,
          "governorGloss": "Castrate",
          "dependent": 4,
          "dependentGloss": "Mob"
        },
        {
          "dep": "dobj",
          "governor": 3,
          "governorGloss": "sieht",
          "dependent": 5,
          "dependentGloss": "Castrate"
        },
        {
          "dep": "advmod",
          "governor": 7,
          "governorGloss": "Sex-Angreifer",
          "dependent": 6,
          "dependentGloss": "angeblich"
        },
        {
          "dep": "advmod",
          "governor": 3,
          "governorGloss": "sieht",
          "dependent": 7,
          "dependentGloss": "Sex-Angreifer"
        },
        {
          "dep": "case",
          "governor": 10,
          "governorGloss": "Szenen",
          "dependent": 8,
          "dependentGloss": "in"
        },
        {
          "dep": "amod",
          "governor": 10,
          "governorGloss": "Szenen",
          "dependent": 9,
          "dependentGloss": "schockierenden"
        },
        {
          "dep": "nmod",
          "governor": 3,
          "governorGloss": "sieht",
          "dependent": 10,
          "dependentGloss": "Szenen"
        }
      ],
      "tokens": [
        {
          "index": 1,
          "word": "Indien",
          "originalText": "Indien",
          "characterOffsetBegin": 0,
          "characterOffsetEnd": 6,
          "pos": "NE",
          "before": "",
          "after": " "
        },
        {
          "index": 2,
          "word": "Raps-Krise",
          "originalText": "Raps-Krise",
          "characterOffsetBegin": 7,
          "characterOffsetEnd": 17,
          "pos": "NN",
          "before": " ",
          "after": " "
        },
        {
          "index": 3,
          "word": "sieht",
          "originalText": "sieht",
          "characterOffsetBegin": 18,
          "characterOffsetEnd": 23,
          "pos": "VVFIN",
          "before": " ",
          "after": " "
        },
        {
          "index": 4,
          "word": "Mob",
          "originalText": "Mob",
          "characterOffsetBegin": 24,
          "characterOffsetEnd": 27,
          "pos": "NE",
          "before": " ",
          "after": " "
        },
        {
          "index": 5,
          "word": "Castrate",
          "originalText": "Castrate",
          "characterOffsetBegin": 28,
          "characterOffsetEnd": 36,
          "pos": "NN",
          "before": " ",
          "after": " "
        },
        {
          "index": 6,
          "word": "angeblich",
          "originalText": "angeblich",
          "characterOffsetBegin": 37,
          "characterOffsetEnd": 46,
          "pos": "ADJD",
          "before": " ",
          "after": " "
        },
        {
          "index": 7,
          "word": "Sex-Angreifer",
          "originalText": "Sex-Angreifer",
          "characterOffsetBegin": 47,
          "characterOffsetEnd": 60,
          "pos": "NN",
          "before": " ",
          "after": " "
        },
        {
          "index": 8,
          "word": "in",
          "originalText": "in",
          "characterOffsetBegin": 61,
          "characterOffsetEnd": 63,
          "pos": "APPR",
          "before": " ",
          "after": " "
        },
        {
          "index": 9,
          "word": "schockierenden",
          "originalText": "schockierenden",
          "characterOffsetBegin": 64,
          "characterOffsetEnd": 78,
          "pos": "ADJA",
          "before": " ",
          "after": " "
        },
        {
          "index": 10,
          "word": "Szenen",
          "originalText": "Szenen",
          "characterOffsetBegin": 79,
          "characterOffsetEnd": 85,
          "pos": "NN",
          "before": " ",
          "after": ""
        }
      ]
    }
  ]
}