{
  "sentences": [
    {
      "index": 0,
      "basicDependencies": [
        {
          "dep": "ROOT",
          "governor": 0,
          "governorGloss": "ROOT",
          "dependent": 3,
          "dependentGloss": "Hank"
        },
        {
          "dep": "amod",
          "governor": 2,
          "governorGloss": "Bank",
          "dependent": 1,
          "dependentGloss": "Big"
        },
        {
          "dep": "name",
          "governor": 3,
          "governorGloss": "Hank",
          "dependent": 2,
          "dependentGloss": "Bank"
        },
        {
          "dep": "dep",
          "governor": 3,
          "governorGloss": "Hank",
          "dependent": 4,
          "dependentGloss": "tot"
        },
        {
          "dep": "punct",
          "governor": 4,
          "governorGloss": "tot",
          "dependent": 5,
          "dependentGloss": ":"
        },
        {
          "dep": "amod",
          "governor": 7,
          "governorGloss": "Gang",
          "dependent": 6,
          "dependentGloss": "Sugarhill"
        },
        {
          "dep": "dobj",
          "governor": 8,
          "governorGloss": "Mitglied",
          "dependent": 7,
          "dependentGloss": "Gang"
        },
        {
          "dep": "parataxis",
          "governor": 4,
          "governorGloss": "tot",
          "dependent": 8,
          "dependentGloss": "Mitglied"
        },
        {
          "dep": "cc",
          "governor": 8,
          "governorGloss": "Mitglied",
          "dependent": 9,
          "dependentGloss": "und"
        },
        {
          "dep": "conj",
          "governor": 8,
          "governorGloss": "Mitglied",
          "dependent": 10,
          "dependentGloss": "Rapper"
        },
        {
          "dep": "nsubj",
          "governor": 8,
          "governorGloss": "Mitglied",
          "dependent": 11,
          "dependentGloss": "stirbt"
        },
        {
          "dep": "amod",
          "governor": 13,
          "governorGloss": "Alter",
          "dependent": 12,
          "dependentGloss": "im"
        },
        {
          "dep": "dobj",
          "governor": 11,
          "governorGloss": "stirbt",
          "dependent": 13,
          "dependentGloss": "Alter"
        },
        {
          "dep": "case",
          "governor": 16,
          "governorGloss": "Jahren",
          "dependent": 14,
          "dependentGloss": "von"
        },
        {
          "dep": "nummod",
          "governor": 16,
          "governorGloss": "Jahren",
          "dependent": 15,
          "dependentGloss": "57"
        },
        {
          "dep": "nmod",
          "governor": 13,
          "governorGloss": "Alter",
          "dependent": 16,
          "dependentGloss": "Jahren"
        }
      ],
      "enhancedDependencies": [
        {
          "dep": "ROOT",
          "governor": 0,
          "governorGloss": "ROOT",
          "dependent": 3,
          "dependentGloss": "Hank"
        },
        {
          "dep": "amod",
          "governor": 2,
          "governorGloss": "Bank",
          "dependent": 1,
          "dependentGloss": "Big"
        },
        {
          "dep": "name",
          "governor": 3,
          "governorGloss": "Hank",
          "dependent": 2,
          "dependentGloss": "Bank"
        },
        {
          "dep": "dep",
          "governor": 3,
          "governorGloss": "Hank",
          "dependent": 4,
          "dependentGloss": "tot"
        },
        {
          "dep": "punct",
          "governor": 4,
          "governorGloss": "tot",
          "dependent": 5,
          "dependentGloss": ":"
        },
        {
          "dep": "amod",
          "governor": 7,
          "governorGloss": "Gang",
          "dependent": 6,
          "dependentGloss": "Sugarhill"
        },
        {
          "dep": "dobj",
          "governor": 8,
          "governorGloss": "Mitglied",
          "dependent": 7,
          "dependentGloss": "Gang"
        },
        {
          "dep": "parataxis",
          "governor": 4,
          "governorGloss": "tot",
          "dependent": 8,
          "dependentGloss": "Mitglied"
        },
        {
          "dep": "cc",
          "governor": 8,
          "governorGloss": "Mitglied",
          "dependent": 9,
          "dependentGloss": "und"
        },
        {
          "dep": "parataxis",
          "governor": 4,
          "governorGloss": "tot",
          "dependent": 10,
          "dependentGloss": "Rapper"
        },
        {
          "dep": "conj:und",
          "governor": 8,
          "governorGloss": "Mitglied",
          "dependent": 10,
          "dependentGloss": "Rapper"
        },
        {
          "dep": "nsubj",
          "governor": 8,
          "governorGloss": "Mitglied",
          "dependent": 11,
          "dependentGloss": "stirbt"
        },
        {
          "dep": "amod",
          "governor": 13,
          "governorGloss": "Alter",
          "dependent": 12,
          "dependentGloss": "im"
        },
        {
          "dep": "dobj",
          "governor": 11,
          "governorGloss": "stirbt",
          "dependent": 13,
          "dependentGloss": "Alter"
        },
        {
          "dep": "case",
          "governor": 16,
          "governorGloss": "Jahren",
          "dependent": 14,
          "dependentGloss": "von"
        },
        {
          "dep": "nummod",
          "governor": 16,
          "governorGloss": "Jahren",
          "dependent": 15,
          "dependentGloss": "57"
        },
        {
          "dep": "nmod",
          "governor": 13,
          "governorGloss": "Alter",
          "dependent": 16,
          "dependentGloss": "Jahren"
        }
      ],
      "enhancedPlusPlusDependencies": [
        {
          "dep": "ROOT",
          "governor": 0,
          "governorGloss": "ROOT",
          "dependent": 3,
          "dependentGloss": "Hank"
        },
        {
          "dep": "amod",
          "governor": 2,
          "governorGloss": "Bank",
          "dependent": 1,
          "dependentGloss": "Big"
        },
        {
          "dep": "name",
          "governor": 3,
          "governorGloss": "Hank",
          "dependent": 2,
          "dependentGloss": "Bank"
        },
        {
          "dep": "dep",
          "governor": 3,
          "governorGloss": "Hank",
          "dependent": 4,
          "dependentGloss": "tot"
        },
        {
          "dep": "punct",
          "governor": 4,
          "governorGloss": "tot",
          "dependent": 5,
          "dependentGloss": ":"
        },
        {
          "dep": "amod",
          "governor": 7,
          "governorGloss": "Gang",
          "dependent": 6,
          "dependentGloss": "Sugarhill"
        },
        {
          "dep": "dobj",
          "governor": 8,
          "governorGloss": "Mitglied",
          "dependent": 7,
          "dependentGloss": "Gang"
        },
        {
          "dep": "parataxis",
          "governor": 4,
          "governorGloss": "tot",
          "dependent": 8,
          "dependentGloss": "Mitglied"
        },
        {
          "dep": "cc",
          "governor": 8,
          "governorGloss": "Mitglied",
          "dependent": 9,
          "dependentGloss": "und"
        },
        {
          "dep": "parataxis",
          "governor": 4,
          "governorGloss": "tot",
          "dependent": 10,
          "dependentGloss": "Rapper"
        },
        {
          "dep": "conj:und",
          "governor": 8,
          "governorGloss": "Mitglied",
          "dependent": 10,
          "dependentGloss": "Rapper"
        },
        {
          "dep": "nsubj",
          "governor": 8,
          "governorGloss": "Mitglied",
          "dependent": 11,
          "dependentGloss": "stirbt"
        },
        {
          "dep": "amod",
          "governor": 13,
          "governorGloss": "Alter",
          "dependent": 12,
          "dependentGloss": "im"
        },
        {
          "dep": "dobj",
          "governor": 11,
          "governorGloss": "stirbt",
          "dependent": 13,
          "dependentGloss": "Alter"
        },
        {
          "dep": "case",
          "governor": 16,
          "governorGloss": "Jahren",
          "dependent": 14,
          "dependentGloss": "von"
        },
        {
          "dep": "nummod",
          "governor": 16,
          "governorGloss": "Jahren",
          "dependent": 15,
          "dependentGloss": "57"
        },
        {
          "dep": "nmod",
          "governor": 13,
          "governorGloss": "Alter",
          "dependent": 16,
          "dependentGloss": "Jahren"
        }
      ],
      "tokens": [
        {
          "index": 1,
          "word": "Big",
          "originalText": "Big",
          "characterOffsetBegin": 0,
          "characterOffsetEnd": 3,
          "pos": "NE",
          "before": "",
          "after": " "
        },
        {
          "index": 2,
          "word": "Bank",
          "originalText": "Bank",
          "characterOffsetBegin": 4,
          "characterOffsetEnd": 8,
          "pos": "NN",
          "before": " ",
          "after": " "
        },
        {
          "index": 3,
          "word": "Hank",
          "originalText": "Hank",
          "characterOffsetBegin": 9,
          "characterOffsetEnd": 13,
          "pos": "NE",
          "before": " ",
          "after": " "
        },
        {
          "index": 4,
          "word": "tot",
          "originalText": "tot",
          "characterOffsetBegin": 14,
          "characterOffsetEnd": 17,
          "pos": "ADJD",
          "before": " ",
          "after": ""
        },
        {
          "index": 5,
          "word": ":",
          "originalText": ":",
          "characterOffsetBegin": 17,
          "characterOffsetEnd": 18,
          "pos": "$.",
          "before": "",
          "after": " "
        },
        {
          "index": 6,
          "word": "Sugarhill",
          "originalText": "Sugarhill",
          "characterOffsetBegin": 19,
          "characterOffsetEnd": 28,
          "pos": "NE",
          "before": " ",
          "after": " "
        },
        {
          "index": 7,
          "word": "Gang",
          "originalText": "Gang",
          "characterOffsetBegin": 29,
          "characterOffsetEnd": 33,
          "pos": "NN",
          "before": " ",
          "after": " "
        },
        {
          "index": 8,
          "word": "Mitglied",
          "originalText": "Mitglied",
          "characterOffsetBegin": 34,
          "characterOffsetEnd": 42,
          "pos": "NN",
          "before": " ",
          "after": " "
        },
        {
          "index": 9,
          "word": "und",
          "originalText": "und",
          "characterOffsetBegin": 43,
          "characterOffsetEnd": 46,
          "pos": "KON",
          "before": " ",
          "after": " "
        },
        {
          "index": 10,
          "word": "Rapper",
          "originalText": "Rapper",
          "characterOffsetBegin": 47,
          "characterOffsetEnd": 53,
          "pos": "NN",
          "before": " ",
          "after": " "
        },
        {
          "index": 11,
          "word": "stirbt",
          "originalText": "stirbt",
          "characterOffsetBegin": 54,
          "characterOffsetEnd": 60,
          "pos": "VVFIN",
          "before": " ",
          "after": " "
        },
        {
          "index": 12,
          "word": "im",
          "originalText": "im",
          "characterOffsetBegin": 61,
          "characterOffsetEnd": 63,
          "pos": "APPRART",
          "before": " ",
          "after": " "
        },
        {
          "index": 13,
          "word": "Alter",
          "originalText": "Alter",
          "characterOffsetBegin": 64,
          "characterOffsetEnd": 69,
          "pos": "NN",
          "before": " ",
          "after": " "
        },
        {
          "index": 14,
          "word": "von",
          "originalText": "von",
          "characterOffsetBegin": 70,
          "characterOffsetEnd": 73,
          "pos": "APPR",
          "before": " ",
          "after": " "
        },
        {
          "index": 15,
          "word": "57",
          "originalText": "57",
          "characterOffsetBegin": 74,
          "characterOffsetEnd": 76,
          "pos": "CARD",
          "before": " ",
          "after": " "
        },
        {
          "index": 16,
          "word": "Jahren",
          "originalText": "Jahren",
          "characterOffsetBegin": 77,
          "characterOffsetEnd": 83,
          "pos": "NN",
          "before": " ",
          "after": ""
        }
      ]
    }
  ]
}