{
  "sentences": [
    {
      "index": 0,
      "basicDependencies": [
        {
          "dep": "ROOT",
          "governor": 0,
          "governorGloss": "ROOT",
          "dependent": 1,
          "dependentGloss": "`"
        },
        {
          "dep": "nsubj",
          "governor": 1,
          "governorGloss": "`",
          "dependent": 2,
          "dependentGloss": "Jihadi"
        },
        {
          "dep": "appos",
          "governor": 2,
          "governorGloss": "Jihadi",
          "dependent": 3,
          "dependentGloss": "John"
        },
        {
          "dep": "case",
          "governor": 3,
          "governorGloss": "John",
          "dependent": 4,
          "dependentGloss": "'"
        },
        {
          "dep": "punct",
          "governor": 3,
          "governorGloss": "John",
          "dependent": 5,
          "dependentGloss": ":"
        },
        {
          "dep": "det",
          "governor": 8,
          "governorGloss": "Staatsmörder",
          "dependent": 6,
          "dependentGloss": "Der"
        },
        {
          "dep": "amod",
          "governor": 8,
          "governorGloss": "Staatsmörder",
          "dependent": 7,
          "dependentGloss": "islamische"
        },
        {
          "dep": "nsubj",
          "governor": 14,
          "governorGloss": "junger",
          "dependent": 8,
          "dependentGloss": "Staatsmörder"
        },
        {
          "dep": "case",
          "governor": 11,
          "governorGloss": "Maske",
          "dependent": 9,
          "dependentGloss": "hinter"
        },
        {
          "dep": "det",
          "governor": 11,
          "governorGloss": "Maske",
          "dependent": 10,
          "dependentGloss": "der"
        },
        {
          "dep": "nmod",
          "governor": 8,
          "governorGloss": "Staatsmörder",
          "dependent": 11,
          "dependentGloss": "Maske"
        },
        {
          "dep": "cop",
          "governor": 14,
          "governorGloss": "junger",
          "dependent": 12,
          "dependentGloss": "ist"
        },
        {
          "dep": "det",
          "governor": 14,
          "governorGloss": "junger",
          "dependent": 13,
          "dependentGloss": "ein"
        },
        {
          "dep": "parataxis",
          "governor": 3,
          "governorGloss": "John",
          "dependent": 14,
          "dependentGloss": "junger"
        },
        {
          "dep": "punct",
          "governor": 14,
          "governorGloss": "junger",
          "dependent": 15,
          "dependentGloss": "Londoner"
        }
      ],
      "enhancedDependencies": [
        {
          "dep": "ROOT",
          "governor": 0,
          "governorGloss": "ROOT",
          "dependent": 1,
          "dependentGloss": "`"
        },
        {
          "dep": "nsubj",
          "governor": 1,
          "governorGloss": "`",
          "dependent": 2,
          "dependentGloss": "Jihadi"
        },
        {
          "dep": "appos",
          "governor": 2,
          "governorGloss": "Jihadi",
          "dependent": 3,
          "dependentGloss": "John"
        },
        {
          "dep": "case",
          "governor": 3,
          "governorGloss": "John",
          "dependent": 4,
          "dependentGloss": "'"
        },
        {
          "dep": "punct",
          "governor": 3,
          "governorGloss": "John",
          "dependent": 5,
          "dependentGloss": ":"
        },
        {
          "dep": "det",
          "governor": 8,
          "governorGloss": "Staatsmörder",
          "dependent": 6,
          "dependentGloss": "Der"
        },
        {
          "dep": "amod",
          "governor": 8,
          "governorGloss": "Staatsmörder",
          "dependent": 7,
          "dependentGloss": "islamische"
        },
        {
          "dep": "nsubj",
          "governor": 14,
          "governorGloss": "junger",
          "dependent": 8,
          "dependentGloss": "Staatsmörder"
        },
        {
          "dep": "case",
          "governor": 11,
          "governorGloss": "Maske",
          "dependent": 9,
          "dependentGloss": "hinter"
        },
        {
          "dep": "det",
          "governor": 11,
          "governorGloss": "Maske",
          "dependent": 10,
          "dependentGloss": "der"
        },
        {
          "dep": "nmod",
          "governor": 8,
          "governorGloss": "Staatsmörder",
          "dependent": 11,
          "dependentGloss": "Maske"
        },
        {
          "dep": "cop",
          "governor": 14,
          "governorGloss": "junger",
          "dependent": 12,
          "dependentGloss": "ist"
        },
        {
          "dep": "det",
          "governor": 14,
          "governorGloss": "junger",
          "dependent": 13,
          "dependentGloss": "ein"
        },
        {
          "dep": "parataxis",
          "governor": 3,
          "governorGloss": "John",
          "dependent": 14,
          "dependentGloss": "junger"
        },
        {
          "dep": "punct",
          "governor": 14,
          "governorGloss": "junger",
          "dependent": 15,
          "dependentGloss": "Londoner"
        }
      ],
      "enhancedPlusPlusDependencies": [
        {
          "dep": "ROOT",
          "governor": 0,
          "governorGloss": "ROOT",
          "dependent": 1,
          "dependentGloss": "`"
        },
        {
          "dep": "nsubj",
          "governor": 1,
          "governorGloss": "`",
          "dependent": 2,
          "dependentGloss": "Jihadi"
        },
        {
          "dep": "appos",
          "governor": 2,
          "governorGloss": "Jihadi",
          "dependent": 3,
          "dependentGloss": "John"
        },
        {
          "dep": "case",
          "governor": 3,
          "governorGloss": "John",
          "dependent": 4,
          "dependentGloss": "'"
        },
        {
          "dep": "punct",
          "governor": 3,
          "governorGloss": "John",
          "dependent": 5,
          "dependentGloss": ":"
        },
        {
          "dep": "det",
          "governor": 8,
          "governorGloss": "Staatsmörder",
          "dependent": 6,
          "dependentGloss": "Der"
        },
        {
          "dep": "amod",
          "governor": 8,
          "governorGloss": "Staatsmörder",
          "dependent": 7,
          "dependentGloss": "islamische"
        },
        {
          "dep": "nsubj",
          "governor": 14,
          "governorGloss": "junger",
          "dependent": 8,
          "dependentGloss": "Staatsmörder"
        },
        {
          "dep": "case",
          "governor": 11,
          "governorGloss": "Maske",
          "dependent": 9,
          "dependentGloss": "hinter"
        },
        {
          "dep": "det",
          "governor": 11,
          "governorGloss": "Maske",
          "dependent": 10,
          "dependentGloss": "der"
        },
        {
          "dep": "nmod",
          "governor": 8,
          "governorGloss": "Staatsmörder",
          "dependent": 11,
          "dependentGloss": "Maske"
        },
        {
          "dep": "cop",
          "governor": 14,
          "governorGloss": "junger",
          "dependent": 12,
          "dependentGloss": "ist"
        },
        {
          "dep": "det",
          "governor": 14,
          "governorGloss": "junger",
          "dependent": 13,
          "dependentGloss": "ein"
        },
        {
          "dep": "parataxis",
          "governor": 3,
          "governorGloss": "John",
          "dependent": 14,
          "dependentGloss": "junger"
        },
        {
          "dep": "punct",
          "governor": 14,
          "governorGloss": "junger",
          "dependent": 15,
          "dependentGloss": "Londoner"
        }
      ],
      "tokens": [
        {
          "index": 1,
          "word": "`",
          "originalText": "'",
          "characterOffsetBegin": 0,
          "characterOffsetEnd": 1,
          "pos": "XY",
          "before": "",
          "after": ""
        },
        {
          "index": 2,
          "word": "Jihadi",
          "originalText": "Jihadi",
          "characterOffsetBegin": 1,
          "characterOffsetEnd": 7,
          "pos": "NE",
          "before": "",
          "after": " "
        },
        {
          "index": 3,
          "word": "John",
          "originalText": "John",
          "characterOffsetBegin": 8,
          "characterOffsetEnd": 12,
          "pos": "NE",
          "before": " ",
          "after": ""
        },
        {
          "index": 4,
          "word": "'",
          "originalText": "'",
          "characterOffsetBegin": 12,
          "characterOffsetEnd": 13,
          "pos": "$[",
          "before": "",
          "after": ""
        },
        {
          "index": 5,
          "word": ":",
          "originalText": ":",
          "characterOffsetBegin": 13,
          "characterOffsetEnd": 14,
          "pos": "$.",
          "before": "",
          "after": " "
        },
        {
          "index": 6,
          "word": "Der",
          "originalText": "Der",
          "characterOffsetBegin": 15,
          "characterOffsetEnd": 18,
          "pos": "ART",
          "before": " ",
          "after": " "
        },
        {
          "index": 7,
          "word": "islamische",
          "originalText": "islamische",
          "characterOffsetBegin": 19,
          "characterOffsetEnd": 29,
          "pos": "ADJA",
          "before": " ",
          "after": " "
        },
        {
          "index": 8,
          "word": "Staatsmörder",
          "originalText": "Staatsmörder",
          "characterOffsetBegin": 30,
          "characterOffsetEnd": 42,
          "pos": "NN",
          "before": " ",
          "after": " "
        },
        {
          "index": 9,
          "word": "hinter",
          "originalText": "hinter",
          "characterOffsetBegin": 43,
          "characterOffsetEnd": 49,
          "pos": "APPR",
          "before": " ",
          "after": " "
        },
        {
          "index": 10,
          "word": "der",
          "originalText": "der",
          "characterOffsetBegin": 50,
          "characterOffsetEnd": 53,
          "pos": "ART",
          "before": " ",
          "after": " "
        },
        {
          "index": 11,
          "word": "Maske",
          "originalText": "Maske",
          "characterOffsetBegin": 54,
          "characterOffsetEnd": 59,
          "pos": "NN",
          "before": " ",
          "after": " "
        },
        {
          "index": 12,
          "word": "ist",
          "originalText": "ist",
          "characterOffsetBegin": 60,
          "characterOffsetEnd": 63,
          "pos": "VAFIN",
          "before": " ",
          "after": " "
        },
        {
          "index": 13,
          "word": "ein",
          "originalText": "ein",
          "characterOffsetBegin": 64,
          "characterOffsetEnd": 67,
          "pos": "ART",
          "before": " ",
          "after": " "
        },
        {
          "index": 14,
          "word": "junger",
          "originalText": "junger",
          "characterOffsetBegin": 68,
          "characterOffsetEnd": 74,
          "pos": "ADJA",
          "before": " ",
          "after": " "
        },
        {
          "index": 15,
          "word": "Londoner",
          "originalText": "Londoner",
          "characterOffsetBegin": 75,
          "characterOffsetEnd": 83,
          "pos": "ADJA",
          "before": " ",
          "after": ""
        }
      ]
    }
  ]
}