{
  "sentences": [
    {
      "index": 0,
      "basicDependencies": [
        {
          "dep": "ROOT",
          "governor": 0,
          "governorGloss": "ROOT",
          "dependent": 3,
          "dependentGloss": "Farrell"
        },
        {
          "dep": "name",
          "governor": 2,
          "governorGloss": "Watch",
          "dependent": 1,
          "dependentGloss": "Judial"
        },
        {
          "dep": "nsubj",
          "governor": 3,
          "governorGloss": "Farrell",
          "dependent": 2,
          "dependentGloss": "Watch"
        },
        {
          "dep": "punct",
          "governor": 3,
          "governorGloss": "Farrell",
          "dependent": 4,
          "dependentGloss": ":"
        },
        {
          "dep": "amod",
          "governor": 6,
          "governorGloss": "Terroristen",
          "dependent": 5,
          "dependentGloss": "ISIS"
        },
        {
          "dep": "dobj",
          "governor": 7,
          "governorGloss": "überqueren",
          "dependent": 6,
          "dependentGloss": "Terroristen"
        },
        {
          "dep": "parataxis",
          "governor": 3,
          "governorGloss": "Farrell",
          "dependent": 7,
          "dependentGloss": "überqueren"
        },
        {
          "dep": "amod",
          "governor": 9,
          "governorGloss": "Grenze",
          "dependent": 8,
          "dependentGloss": "mexikanischen"
        },
        {
          "dep": "nsubj",
          "governor": 7,
          "governorGloss": "überqueren",
          "dependent": 9,
          "dependentGloss": "Grenze"
        }
      ],
      "enhancedDependencies": [
        {
          "dep": "ROOT",
          "governor": 0,
          "governorGloss": "ROOT",
          "dependent": 3,
          "dependentGloss": "Farrell"
        },
        {
          "dep": "name",
          "governor": 2,
          "governorGloss": "Watch",
          "dependent": 1,
          "dependentGloss": "Judial"
        },
        {
          "dep": "nsubj",
          "governor": 3,
          "governorGloss": "Farrell",
          "dependent": 2,
          "dependentGloss": "Watch"
        },
        {
          "dep": "punct",
          "governor": 3,
          "governorGloss": "Farrell",
          "dependent": 4,
          "dependentGloss": ":"
        },
        {
          "dep": "amod",
          "governor": 6,
          "governorGloss": "Terroristen",
          "dependent": 5,
          "dependentGloss": "ISIS"
        },
        {
          "dep": "dobj",
          "governor": 7,
          "governorGloss": "überqueren",
          "dependent": 6,
          "dependentGloss": "Terroristen"
        },
        {
          "dep": "parataxis",
          "governor": 3,
          "governorGloss": "Farrell",
          "dependent": 7,
          "dependentGloss": "überqueren"
        },
        {
          "dep": "amod",
          "governor": 9,
          "governorGloss": "Grenze",
          "dependent": 8,
          "dependentGloss": "mexikanischen"
        },
        {
          "dep": "nsubj",
          "governor": 7,
          "governorGloss": "überqueren",
          "dependent": 9,
          "dependentGloss": "Grenze"
        }
      ],
      "enhancedPlusPlusDependencies": [
        {
          "dep": "ROOT",
          "governor": 0,
          "governorGloss": "ROOT",
          "dependent": 3,
          "dependentGloss": "Farrell"
        },
        {
          "dep": "name",
          "governor": 2,
          "governorGloss": "Watch",
          "dependent": 1,
          "dependentGloss": "Judial"
        },
        {
          "dep": "nsubj",
          "governor": 3,
          "governorGloss": "Farrell",
          "dependent": 2,
          "dependentGloss": "Watch"
        },
        {
          "dep": "punct",
          "governor": 3,
          "governorGloss": "Farrell",
          "dependent": 4,
          "dependentGloss": ":"
        },
        {
          "dep": "amod",
          "governor": 6,
          "governorGloss": "Terroristen",
          "dependent": 5,
          "dependentGloss": "ISIS"
        },
        {
          "dep": "dobj",
          "governor": 7,
          "governorGloss": "überqueren",
          "dependent": 6,
          "dependentGloss": "Terroristen"
        },
        {
          "dep": "parataxis",
          "governor": 3,
          "governorGloss": "Farrell",
          "dependent": 7,
          "dependentGloss": "überqueren"
        },
        {
          "dep": "amod",
          "governor": 9,
          "governorGloss": "Grenze",
          "dependent": 8,
          "dependentGloss": "mexikanischen"
        },
        {
          "dep": "nsubj",
          "governor": 7,
          "governorGloss": "überqueren",
          "dependent": 9,
          "dependentGloss": "Grenze"
        }
      ],
      "tokens": [
        {
          "index": 1,
          "word": "Judial",
          "originalText": "Judial",
          "characterOffsetBegin": 0,
          "characterOffsetEnd": 6,
          "pos": "NE",
          "before": "",
          "after": " "
        },
        {
          "index": 2,
          "word": "Watch",
          "originalText": "Watch",
          "characterOffsetBegin": 7,
          "characterOffsetEnd": 12,
          "pos": "NE",
          "before": " ",
          "after": " "
        },
        {
          "index": 3,
          "word": "Farrell",
          "originalText": "Farrell",
          "characterOffsetBegin": 13,
          "characterOffsetEnd": 20,
          "pos": "NE",
          "before": " ",
          "after": ""
        },
        {
          "index": 4,
          "word": ":",
          "originalText": ":",
          "characterOffsetBegin": 20,
          "characterOffsetEnd": 21,
          "pos": "$.",
          "before": "",
          "after": " "
        },
        {
          "index": 5,
          "word": "ISIS",
          "originalText": "ISIS",
          "characterOffsetBegin": 22,
          "characterOffsetEnd": 26,
          "pos": "NE",
          "before": " ",
          "after": " "
        },
        {
          "index": 6,
          "word": "Terroristen",
          "originalText": "Terroristen",
          "characterOffsetBegin": 27,
          "characterOffsetEnd": 38,
          "pos": "NN",
          "before": " ",
          "after": " "
        },
        {
          "index": 7,
          "word": "überqueren",
          "originalText": "überqueren",
          "characterOffsetBegin": 39,
          "characterOffsetEnd": 49,
          "pos": "VVFIN",
          "before": " ",
          "after": " "
        },
        {
          "index": 8,
          "word": "mexikanischen",
          "originalText": "mexikanischen",
          "characterOffsetBegin": 50,
          "characterOffsetEnd": 63,
          "pos": "ADJA",
          "before": " ",
          "after": " "
        },
        {
          "index": 9,
          "word": "Grenze",
          "originalText": "Grenze",
          "characterOffsetBegin": 64,
          "characterOffsetEnd": 70,
          "pos": "NN",
          "before": " ",
          "after": ""
        }
      ]
    }
  ]
}