{
  "sentences": [
    {
      "index": 0,
      "basicDependencies": [
        {
          "dep": "ROOT",
          "governor": 0,
          "governorGloss": "ROOT",
          "dependent": 1,
          "dependentGloss": "Sehen"
        },
        {
          "dep": "nsubj",
          "governor": 1,
          "governorGloss": "Sehen",
          "dependent": 2,
          "dependentGloss": "Sie"
        },
        {
          "dep": "punct",
          "governor": 7,
          "governorGloss": "Mann",
          "dependent": 3,
          "dependentGloss": ","
        },
        {
          "dep": "case",
          "governor": 7,
          "governorGloss": "Mann",
          "dependent": 4,
          "dependentGloss": "wie"
        },
        {
          "dep": "det",
          "governor": 7,
          "governorGloss": "Mann",
          "dependent": 5,
          "dependentGloss": "dieser"
        },
        {
          "dep": "nummod",
          "governor": 7,
          "governorGloss": "Mann",
          "dependent": 6,
          "dependentGloss": "Obdachlose"
        },
        {
          "dep": "nmod",
          "governor": 2,
          "governorGloss": "Sie",
          "dependent": 7,
          "dependentGloss": "Mann"
        },
        {
          "dep": "conj",
          "governor": 7,
          "governorGloss": "Mann",
          "dependent": 8,
          "dependentGloss": "verbringt"
        },
        {
          "dep": "det",
          "governor": 11,
          "governorGloss": "Dollar",
          "dependent": 9,
          "dependentGloss": "einen"
        },
        {
          "dep": "nummod",
          "governor": 11,
          "governorGloss": "Dollar",
          "dependent": 10,
          "dependentGloss": "hundert"
        },
        {
          "dep": "dobj",
          "governor": 8,
          "governorGloss": "verbringt",
          "dependent": 11,
          "dependentGloss": "Dollar"
        },
        {
          "dep": "punct",
          "governor": 8,
          "governorGloss": "verbringt",
          "dependent": 12,
          "dependentGloss": ","
        },
        {
          "dep": "cc",
          "governor": 8,
          "governorGloss": "verbringt",
          "dependent": 13,
          "dependentGloss": "und"
        },
        {
          "dep": "conj",
          "governor": 8,
          "governorGloss": "verbringt",
          "dependent": 14,
          "dependentGloss": "halten"
        },
        {
          "dep": "dobj",
          "governor": 14,
          "governorGloss": "halten",
          "dependent": 15,
          "dependentGloss": "Sie"
        },
        {
          "dep": "det",
          "governor": 18,
          "governorGloss": "Handy",
          "dependent": 16,
          "dependentGloss": "ein"
        },
        {
          "dep": "amod",
          "governor": 18,
          "governorGloss": "Handy",
          "dependent": 17,
          "dependentGloss": "Tissue"
        },
        {
          "dep": "iobj",
          "governor": 14,
          "governorGloss": "halten",
          "dependent": 18,
          "dependentGloss": "Handy"
        },
        {
          "dep": "amod",
          "governor": 20,
          "governorGloss": "Video",
          "dependent": 19,
          "dependentGloss": "-LSB-"
        },
        {
          "dep": "det",
          "governor": 18,
          "governorGloss": "Handy",
          "dependent": 20,
          "dependentGloss": "Video"
        },
        {
          "dep": "appos",
          "governor": 20,
          "governorGloss": "Video",
          "dependent": 21,
          "dependentGloss": "-RSB-"
        }
      ],
      "enhancedDependencies": [
        {
          "dep": "ROOT",
          "governor": 0,
          "governorGloss": "ROOT",
          "dependent": 1,
          "dependentGloss": "Sehen"
        },
        {
          "dep": "nsubj",
          "governor": 1,
          "governorGloss": "Sehen",
          "dependent": 2,
          "dependentGloss": "Sie"
        },
        {
          "dep": "punct",
          "governor": 7,
          "governorGloss": "Mann",
          "dependent": 3,
          "dependentGloss": ","
        },
        {
          "dep": "case",
          "governor": 7,
          "governorGloss": "Mann",
          "dependent": 4,
          "dependentGloss": "wie"
        },
        {
          "dep": "det",
          "governor": 7,
          "governorGloss": "Mann",
          "dependent": 5,
          "dependentGloss": "dieser"
        },
        {
          "dep": "nummod",
          "governor": 7,
          "governorGloss": "Mann",
          "dependent": 6,
          "dependentGloss": "Obdachlose"
        },
        {
          "dep": "nmod",
          "governor": 2,
          "governorGloss": "Sie",
          "dependent": 7,
          "dependentGloss": "Mann"
        },
        {
          "dep": "conj",
          "governor": 7,
          "governorGloss": "Mann",
          "dependent": 8,
          "dependentGloss": "verbringt"
        },
        {
          "dep": "det",
          "governor": 11,
          "governorGloss": "Dollar",
          "dependent": 9,
          "dependentGloss": "einen"
        },
        {
          "dep": "nummod",
          "governor": 11,
          "governorGloss": "Dollar",
          "dependent": 10,
          "dependentGloss": "hundert"
        },
        {
          "dep": "dobj",
          "governor": 8,
          "governorGloss": "verbringt",
          "dependent": 11,
          "dependentGloss": "Dollar"
        },
        {
          "dep": "punct",
          "governor": 8,
          "governorGloss": "verbringt",
          "dependent": 12,
          "dependentGloss": ","
        },
        {
          "dep": "cc",
          "governor": 8,
          "governorGloss": "verbringt",
          "dependent": 13,
          "dependentGloss": "und"
        },
        {
          "dep": "conj",
          "governor": 7,
          "governorGloss": "Mann",
          "dependent": 14,
          "dependentGloss": "halten"
        },
        {
          "dep": "conj:und",
          "governor": 8,
          "governorGloss": "verbringt",
          "dependent": 14,
          "dependentGloss": "halten"
        },
        {
          "dep": "dobj",
          "governor": 14,
          "governorGloss": "halten",
          "dependent": 15,
          "dependentGloss": "Sie"
        },
        {
          "dep": "det",
          "governor": 18,
          "governorGloss": "Handy",
          "dependent": 16,
          "dependentGloss": "ein"
        },
        {
          "dep": "amod",
          "governor": 18,
          "governorGloss": "Handy",
          "dependent": 17,
          "dependentGloss": "Tissue"
        },
        {
          "dep": "iobj",
          "governor": 14,
          "governorGloss": "halten",
          "dependent": 18,
          "dependentGloss": "Handy"
        },
        {
          "dep": "amod",
          "governor": 20,
          "governorGloss": "Video",
          "dependent": 19,
          "dependentGloss": "-LSB-"
        },
        {
          "dep": "det",
          "governor": 18,
          "governorGloss": "Handy",
          "dependent": 20,
          "dependentGloss": "Video"
        },
        {
          "dep": "appos",
          "governor": 20,
          "governorGloss": "Video",
          "dependent": 21,
          "dependentGloss": "-RSB-"
        }
      ],
      "enhancedPlusPlusDependencies": [
        {
          "dep": "ROOT",
          "governor": 0,
          "governorGloss": "ROOT",
          "dependent": 1,
          "dependentGloss": "Sehen"
        },
        {
          "dep": "nsubj",
          "governor": 1,
          "governorGloss": "Sehen",
          "dependent": 2,
          "dependentGloss": "Sie"
        },
        {
          "dep": "punct",
          "governor": 7,
          "governorGloss": "Mann",
          "dependent": 3,
          "dependentGloss": ","
        },
        {
          "dep": "case",
          "governor": 7,
          "governorGloss": "Mann",
          "dependent": 4,
          "dependentGloss": "wie"
        },
        {
          "dep": "det",
          "governor": 7,
          "governorGloss": "Mann",
          "dependent": 5,
          "dependentGloss": "dieser"
        },
        {
          "dep": "nummod",
          "governor": 7,
          "governorGloss": "Mann",
          "dependent": 6,
          "dependentGloss": "Obdachlose"
        },
        {
          "dep": "nmod",
          "governor": 2,
          "governorGloss": "Sie",
          "dependent": 7,
          "dependentGloss": "Mann"
        },
        {
          "dep": "conj",
          "governor": 7,
          "governorGloss": "Mann",
          "dependent": 8,
          "dependentGloss": "verbringt"
        },
        {
          "dep": "det",
          "governor": 11,
          "governorGloss": "Dollar",
          "dependent": 9,
          "dependentGloss": "einen"
        },
        {
          "dep": "nummod",
          "governor": 11,
          "governorGloss": "Dollar",
          "dependent": 10,
          "dependentGloss": "hundert"
        },
        {
          "dep": "dobj",
          "governor": 8,
          "governorGloss": "verbringt",
          "dependent": 11,
          "dependentGloss": "Dollar"
        },
        {
          "dep": "punct",
          "governor": 8,
          "governorGloss": "verbringt",
          "dependent": 12,
          "dependentGloss": ","
        },
        {
          "dep": "cc",
          "governor": 8,
          "governorGloss": "verbringt",
          "dependent": 13,
          "dependentGloss": "und"
        },
        {
          "dep": "conj",
          "governor": 7,
          "governorGloss": "Mann",
          "dependent": 14,
          "dependentGloss": "halten"
        },
        {
          "dep": "conj:und",
          "governor": 8,
          "governorGloss": "verbringt",
          "dependent": 14,
          "dependentGloss": "halten"
        },
        {
          "dep": "dobj",
          "governor": 14,
          "governorGloss": "halten",
          "dependent": 15,
          "dependentGloss": "Sie"
        },
        {
          "dep": "det",
          "governor": 18,
          "governorGloss": "Handy",
          "dependent": 16,
          "dependentGloss": "ein"
        },
        {
          "dep": "amod",
          "governor": 18,
          "governorGloss": "Handy",
          "dependent": 17,
          "dependentGloss": "Tissue"
        },
        {
          "dep": "iobj",
          "governor": 14,
          "governorGloss": "halten",
          "dependent": 18,
          "dependentGloss": "Handy"
        },
        {
          "dep": "amod",
          "governor": 20,
          "governorGloss": "Video",
          "dependent": 19,
          "dependentGloss": "-LSB-"
        },
        {
          "dep": "det",
          "governor": 18,
          "governorGloss": "Handy",
          "dependent": 20,
          "dependentGloss": "Video"
        },
        {
          "dep": "appos",
          "governor": 20,
          "governorGloss": "Video",
          "dependent": 21,
          "dependentGloss": "-RSB-"
        }
      ],
      "tokens": [
        {
          "index": 1,
          "word": "Sehen",
          "originalText": "Sehen",
          "characterOffsetBegin": 0,
          "characterOffsetEnd": 5,
          "pos": "NN",
          "before": "",
          "after": " "
        },
        {
          "index": 2,
          "word": "Sie",
          "originalText": "Sie",
          "characterOffsetBegin": 6,
          "characterOffsetEnd": 9,
          "pos": "PPER",
          "before": " ",
          "after": ""
        },
        {
          "index": 3,
          "word": ",",
          "originalText": ",",
          "characterOffsetBegin": 9,
          "characterOffsetEnd": 10,
          "pos": "$,",
          "before": "",
          "after": " "
        },
        {
          "index": 4,
          "word": "wie",
          "originalText": "wie",
          "characterOffsetBegin": 11,
          "characterOffsetEnd": 14,
          "pos": "PWAV",
          "before": " ",
          "after": " "
        },
        {
          "index": 5,
          "word": "dieser",
          "originalText": "dieser",
          "characterOffsetBegin": 15,
          "characterOffsetEnd": 21,
          "pos": "PDAT",
          "before": " ",
          "after": " "
        },
        {
          "index": 6,
          "word": "Obdachlose",
          "originalText": "Obdachlose",
          "characterOffsetBegin": 22,
          "characterOffsetEnd": 32,
          "pos": "NN",
          "before": " ",
          "after": " "
        },
        {
          "index": 7,
          "word": "Mann",
          "originalText": "Mann",
          "characterOffsetBegin": 33,
          "characterOffsetEnd": 37,
          "pos": "NN",
          "before": " ",
          "after": " "
        },
        {
          "index": 8,
          "word": "verbringt",
          "originalText": "verbringt",
          "characterOffsetBegin": 38,
          "characterOffsetEnd": 47,
          "pos": "VVFIN",
          "before": " ",
          "after": " "
        },
        {
          "index": 9,
          "word": "einen",
          "originalText": "einen",
          "characterOffsetBegin": 48,
          "characterOffsetEnd": 53,
          "pos": "ART",
          "before": " ",
          "after": " "
        },
        {
          "index": 10,
          "word": "hundert",
          "originalText": "hundert",
          "characterOffsetBegin": 54,
          "characterOffsetEnd": 61,
          "pos": "CARD",
          "before": " ",
          "after": " "
        },
        {
          "index": 11,
          "word": "Dollar",
          "originalText": "Dollar",
          "characterOffsetBegin": 62,
          "characterOffsetEnd": 68,
          "pos": "NN",
          "before": " ",
          "after": ""
        },
        {
          "index": 12,
          "word": ",",
          "originalText": ",",
          "characterOffsetBegin": 68,
          "characterOffsetEnd": 69,
          "pos": "$,",
          "before": "",
          "after": " "
        },
        {
          "index": 13,
          "word": "und",
          "originalText": "und",
          "characterOffsetBegin": 70,
          "characterOffsetEnd": 73,
          "pos": "KON",
          "before": " ",
          "after": " "
        },
        {
          "index": 14,
          "word": "halten",
          "originalText": "halten",
          "characterOffsetBegin": 74,
          "characterOffsetEnd": 80,
          "pos": "VVFIN",
          "before": " ",
          "after": " "
        },
        {
          "index": 15,
          "word": "Sie",
          "originalText": "Sie",
          "characterOffsetBegin": 81,
          "characterOffsetEnd": 84,
          "pos": "PPER",
          "before": " ",
          "after": " "
        },
        {
          "index": 16,
          "word": "ein",
          "originalText": "ein",
          "characterOffsetBegin": 85,
          "characterOffsetEnd": 88,
          "pos": "ART",
          "before": " ",
          "after": " "
        },
        {
          "index": 17,
          "word": "Tissue",
          "originalText": "Tissue",
          "characterOffsetBegin": 89,
          "characterOffsetEnd": 95,
          "pos": "ADJA",
          "before": " ",
          "after": " "
        },
        {
          "index": 18,
          "word": "Handy",
          "originalText": "Handy",
          "characterOffsetBegin": 96,
          "characterOffsetEnd": 101,
          "pos": "NN",
          "before": " ",
          "after": " "
        },
        {
          "index": 19,
          "word": "-LSB-",
          "originalText": "[",
          "characterOffsetBegin": 102,
          "characterOffsetEnd": 103,
          "pos": "TRUNC",
          "before": " ",
          "after": ""
        },
        {
          "index": 20,
          "word": "Video",
          "originalText": "Video",
          "characterOffsetBegin": 103,
          "characterOffsetEnd": 108,
          "pos": "NN",
          "before": "",
          "after": ""
        },
        {
          "index": 21,
          "word": "-RSB-",
          "originalText": "]",
          "characterOffsetBegin": 108,
          "characterOffsetEnd": 109,
          "pos": "TRUNC",
          "before": "",
          "after": ""
        }
      ]
    }
  ]
}