{
  "sentences": [
    {
      "index": 0,
      "basicDependencies": [
        {
          "dep": "ROOT",
          "governor": 0,
          "governorGloss": "ROOT",
          "dependent": 4,
          "dependentGloss": "Märtyrer"
        },
        {
          "dep": "punct",
          "governor": 4,
          "governorGloss": "Märtyrer",
          "dependent": 1,
          "dependentGloss": "``"
        },
        {
          "dep": "det",
          "governor": 4,
          "governorGloss": "Märtyrer",
          "dependent": 2,
          "dependentGloss": "Der"
        },
        {
          "dep": "amod",
          "governor": 4,
          "governorGloss": "Märtyrer",
          "dependent": 3,
          "dependentGloss": "jüngste"
        },
        {
          "dep": "punct",
          "governor": 4,
          "governorGloss": "Märtyrer",
          "dependent": 5,
          "dependentGloss": "-"
        },
        {
          "dep": "det",
          "governor": 7,
          "governorGloss": "Cub",
          "dependent": 6,
          "dependentGloss": "das"
        },
        {
          "dep": "dobj",
          "governor": 13,
          "governorGloss": "rühmt",
          "dependent": 7,
          "dependentGloss": "Cub"
        },
        {
          "dep": "case",
          "governor": 9,
          "governorGloss": "al-Baghdadi",
          "dependent": 8,
          "dependentGloss": "von"
        },
        {
          "dep": "nmod",
          "governor": 7,
          "governorGloss": "Cub",
          "dependent": 9,
          "dependentGloss": "al-Baghdadi"
        },
        {
          "dep": "punct",
          "governor": 12,
          "governorGloss": "ISIS",
          "dependent": 10,
          "dependentGloss": "``"
        },
        {
          "dep": "punct",
          "governor": 12,
          "governorGloss": "ISIS",
          "dependent": 11,
          "dependentGloss": ":"
        },
        {
          "dep": "nsubj",
          "governor": 13,
          "governorGloss": "rühmt",
          "dependent": 12,
          "dependentGloss": "ISIS"
        },
        {
          "dep": "acl",
          "governor": 4,
          "governorGloss": "Märtyrer",
          "dependent": 13,
          "dependentGloss": "rühmt"
        },
        {
          "dep": "dobj",
          "governor": 13,
          "governorGloss": "rühmt",
          "dependent": 14,
          "dependentGloss": "sich"
        },
        {
          "dep": "punct",
          "governor": 13,
          "governorGloss": "rühmt",
          "dependent": 15,
          "dependentGloss": ","
        },
        {
          "dep": "det",
          "governor": 18,
          "governorGloss": "Kämpfer",
          "dependent": 16,
          "dependentGloss": "ein"
        },
        {
          "dep": "amod",
          "governor": 18,
          "governorGloss": "Kämpfer",
          "dependent": 17,
          "dependentGloss": "10-jähriger"
        },
        {
          "dep": "nsubjpass",
          "governor": 20,
          "governorGloss": "getötet",
          "dependent": 18,
          "dependentGloss": "Kämpfer"
        },
        {
          "dep": "aux",
          "governor": 20,
          "governorGloss": "getötet",
          "dependent": 19,
          "dependentGloss": "ist"
        },
        {
          "dep": "parataxis",
          "governor": 13,
          "governorGloss": "rühmt",
          "dependent": 20,
          "dependentGloss": "getötet"
        },
        {
          "dep": "auxpass",
          "governor": 20,
          "governorGloss": "getötet",
          "dependent": 21,
          "dependentGloss": "worden"
        },
        {
          "dep": "punct",
          "governor": 20,
          "governorGloss": "getötet",
          "dependent": 22,
          "dependentGloss": ","
        },
        {
          "dep": "mark",
          "governor": 33,
          "governorGloss": "ging",
          "dependent": 23,
          "dependentGloss": "als"
        },
        {
          "dep": "nsubj",
          "governor": 33,
          "governorGloss": "ging",
          "dependent": 24,
          "dependentGloss": "er"
        },
        {
          "dep": "case",
          "governor": 27,
          "governorGloss": "Kampf",
          "dependent": 25,
          "dependentGloss": "in"
        },
        {
          "dep": "det",
          "governor": 27,
          "governorGloss": "Kampf",
          "dependent": 26,
          "dependentGloss": "den"
        },
        {
          "dep": "nmod",
          "governor": 33,
          "governorGloss": "ging",
          "dependent": 27,
          "dependentGloss": "Kampf"
        },
        {
          "dep": "case",
          "governor": 30,
          "governorGloss": "Vater",
          "dependent": 28,
          "dependentGloss": "mit"
        },
        {
          "dep": "det",
          "governor": 30,
          "governorGloss": "Vater",
          "dependent": 29,
          "dependentGloss": "seinem"
        },
        {
          "dep": "nmod",
          "governor": 27,
          "governorGloss": "Kampf",
          "dependent": 30,
          "dependentGloss": "Vater"
        },
        {
          "dep": "case",
          "governor": 32,
          "governorGloss": "Syrien",
          "dependent": 31,
          "dependentGloss": "in"
        },
        {
          "dep": "nmod",
          "governor": 30,
          "governorGloss": "Vater",
          "dependent": 32,
          "dependentGloss": "Syrien"
        },
        {
          "dep": "advcl",
          "governor": 20,
          "governorGloss": "getötet",
          "dependent": 33,
          "dependentGloss": "ging"
        }
      ],
      "enhancedDependencies": [
        {
          "dep": "ROOT",
          "governor": 0,
          "governorGloss": "ROOT",
          "dependent": 4,
          "dependentGloss": "Märtyrer"
        },
        {
          "dep": "punct",
          "governor": 4,
          "governorGloss": "Märtyrer",
          "dependent": 1,
          "dependentGloss": "``"
        },
        {
          "dep": "det",
          "governor": 4,
          "governorGloss": "Märtyrer",
          "dependent": 2,
          "dependentGloss": "Der"
        },
        {
          "dep": "amod",
          "governor": 4,
          "governorGloss": "Märtyrer",
          "dependent": 3,
          "dependentGloss": "jüngste"
        },
        {
          "dep": "punct",
          "governor": 4,
          "governorGloss": "Märtyrer",
          "dependent": 5,
          "dependentGloss": "-"
        },
        {
          "dep": "det",
          "governor": 7,
          "governorGloss": "Cub",
          "dependent": 6,
          "dependentGloss": "das"
        },
        {
          "dep": "dobj",
          "governor": 13,
          "governorGloss": "rühmt",
          "dependent": 7,
          "dependentGloss": "Cub"
        },
        {
          "dep": "case",
          "governor": 9,
          "governorGloss": "al-Baghdadi",
          "dependent": 8,
          "dependentGloss": "von"
        },
        {
          "dep": "nmod",
          "governor": 7,
          "governorGloss": "Cub",
          "dependent": 9,
          "dependentGloss": "al-Baghdadi"
        },
        {
          "dep": "punct",
          "governor": 12,
          "governorGloss": "ISIS",
          "dependent": 10,
          "dependentGloss": "``"
        },
        {
          "dep": "punct",
          "governor": 12,
          "governorGloss": "ISIS",
          "dependent": 11,
          "dependentGloss": ":"
        },
        {
          "dep": "nsubj",
          "governor": 13,
          "governorGloss": "rühmt",
          "dependent": 12,
          "dependentGloss": "ISIS"
        },
        {
          "dep": "acl",
          "governor": 4,
          "governorGloss": "Märtyrer",
          "dependent": 13,
          "dependentGloss": "rühmt"
        },
        {
          "dep": "dobj",
          "governor": 13,
          "governorGloss": "rühmt",
          "dependent": 14,
          "dependentGloss": "sich"
        },
        {
          "dep": "punct",
          "governor": 13,
          "governorGloss": "rühmt",
          "dependent": 15,
          "dependentGloss": ","
        },
        {
          "dep": "det",
          "governor": 18,
          "governorGloss": "Kämpfer",
          "dependent": 16,
          "dependentGloss": "ein"
        },
        {
          "dep": "amod",
          "governor": 18,
          "governorGloss": "Kämpfer",
          "dependent": 17,
          "dependentGloss": "10-jähriger"
        },
        {
          "dep": "nsubjpass",
          "governor": 20,
          "governorGloss": "getötet",
          "dependent": 18,
          "dependentGloss": "Kämpfer"
        },
        {
          "dep": "aux",
          "governor": 20,
          "governorGloss": "getötet",
          "dependent": 19,
          "dependentGloss": "ist"
        },
        {
          "dep": "parataxis",
          "governor": 13,
          "governorGloss": "rühmt",
          "dependent": 20,
          "dependentGloss": "getötet"
        },
        {
          "dep": "auxpass",
          "governor": 20,
          "governorGloss": "getötet",
          "dependent": 21,
          "dependentGloss": "worden"
        },
        {
          "dep": "punct",
          "governor": 20,
          "governorGloss": "getötet",
          "dependent": 22,
          "dependentGloss": ","
        },
        {
          "dep": "mark",
          "governor": 33,
          "governorGloss": "ging",
          "dependent": 23,
          "dependentGloss": "als"
        },
        {
          "dep": "nsubj",
          "governor": 33,
          "governorGloss": "ging",
          "dependent": 24,
          "dependentGloss": "er"
        },
        {
          "dep": "case",
          "governor": 27,
          "governorGloss": "Kampf",
          "dependent": 25,
          "dependentGloss": "in"
        },
        {
          "dep": "det",
          "governor": 27,
          "governorGloss": "Kampf",
          "dependent": 26,
          "dependentGloss": "den"
        },
        {
          "dep": "nmod",
          "governor": 33,
          "governorGloss": "ging",
          "dependent": 27,
          "dependentGloss": "Kampf"
        },
        {
          "dep": "case",
          "governor": 30,
          "governorGloss": "Vater",
          "dependent": 28,
          "dependentGloss": "mit"
        },
        {
          "dep": "det",
          "governor": 30,
          "governorGloss": "Vater",
          "dependent": 29,
          "dependentGloss": "seinem"
        },
        {
          "dep": "nmod",
          "governor": 27,
          "governorGloss": "Kampf",
          "dependent": 30,
          "dependentGloss": "Vater"
        },
        {
          "dep": "case",
          "governor": 32,
          "governorGloss": "Syrien",
          "dependent": 31,
          "dependentGloss": "in"
        },
        {
          "dep": "nmod",
          "governor": 30,
          "governorGloss": "Vater",
          "dependent": 32,
          "dependentGloss": "Syrien"
        },
        {
          "dep": "advcl",
          "governor": 20,
          "governorGloss": "getötet",
          "dependent": 33,
          "dependentGloss": "ging"
        }
      ],
      "enhancedPlusPlusDependencies": [
        {
          "dep": "ROOT",
          "governor": 0,
          "governorGloss": "ROOT",
          "dependent": 4,
          "dependentGloss": "Märtyrer"
        },
        {
          "dep": "punct",
          "governor": 4,
          "governorGloss": "Märtyrer",
          "dependent": 1,
          "dependentGloss": "``"
        },
        {
          "dep": "det",
          "governor": 4,
          "governorGloss": "Märtyrer",
          "dependent": 2,
          "dependentGloss": "Der"
        },
        {
          "dep": "amod",
          "governor": 4,
          "governorGloss": "Märtyrer",
          "dependent": 3,
          "dependentGloss": "jüngste"
        },
        {
          "dep": "punct",
          "governor": 4,
          "governorGloss": "Märtyrer",
          "dependent": 5,
          "dependentGloss": "-"
        },
        {
          "dep": "det",
          "governor": 7,
          "governorGloss": "Cub",
          "dependent": 6,
          "dependentGloss": "das"
        },
        {
          "dep": "dobj",
          "governor": 13,
          "governorGloss": "rühmt",
          "dependent": 7,
          "dependentGloss": "Cub"
        },
        {
          "dep": "case",
          "governor": 9,
          "governorGloss": "al-Baghdadi",
          "dependent": 8,
          "dependentGloss": "von"
        },
        {
          "dep": "nmod",
          "governor": 7,
          "governorGloss": "Cub",
          "dependent": 9,
          "dependentGloss": "al-Baghdadi"
        },
        {
          "dep": "punct",
          "governor": 12,
          "governorGloss": "ISIS",
          "dependent": 10,
          "dependentGloss": "``"
        },
        {
          "dep": "punct",
          "governor": 12,
          "governorGloss": "ISIS",
          "dependent": 11,
          "dependentGloss": ":"
        },
        {
          "dep": "nsubj",
          "governor": 13,
          "governorGloss": "rühmt",
          "dependent": 12,
          "dependentGloss": "ISIS"
        },
        {
          "dep": "acl",
          "governor": 4,
          "governorGloss": "Märtyrer",
          "dependent": 13,
          "dependentGloss": "rühmt"
        },
        {
          "dep": "dobj",
          "governor": 13,
          "governorGloss": "rühmt",
          "dependent": 14,
          "dependentGloss": "sich"
        },
        {
          "dep": "punct",
          "governor": 13,
          "governorGloss": "rühmt",
          "dependent": 15,
          "dependentGloss": ","
        },
        {
          "dep": "det",
          "governor": 18,
          "governorGloss": "Kämpfer",
          "dependent": 16,
          "dependentGloss": "ein"
        },
        {
          "dep": "amod",
          "governor": 18,
          "governorGloss": "Kämpfer",
          "dependent": 17,
          "dependentGloss": "10-jähriger"
        },
        {
          "dep": "nsubjpass",
          "governor": 20,
          "governorGloss": "getötet",
          "dependent": 18,
          "dependentGloss": "Kämpfer"
        },
        {
          "dep": "aux",
          "governor": 20,
          "governorGloss": "getötet",
          "dependent": 19,
          "dependentGloss": "ist"
        },
        {
          "dep": "parataxis",
          "governor": 13,
          "governorGloss": "rühmt",
          "dependent": 20,
          "dependentGloss": "getötet"
        },
        {
          "dep": "auxpass",
          "governor": 20,
          "governorGloss": "getötet",
          "dependent": 21,
          "dependentGloss": "worden"
        },
        {
          "dep": "punct",
          "governor": 20,
          "governorGloss": "getötet",
          "dependent": 22,
          "dependentGloss": ","
        },
        {
          "dep": "mark",
          "governor": 33,
          "governorGloss": "ging",
          "dependent": 23,
          "dependentGloss": "als"
        },
        {
          "dep": "nsubj",
          "governor": 33,
          "governorGloss": "ging",
          "dependent": 24,
          "dependentGloss": "er"
        },
        {
          "dep": "case",
          "governor": 27,
          "governorGloss": "Kampf",
          "dependent": 25,
          "dependentGloss": "in"
        },
        {
          "dep": "det",
          "governor": 27,
          "governorGloss": "Kampf",
          "dependent": 26,
          "dependentGloss": "den"
        },
        {
          "dep": "nmod",
          "governor": 33,
          "governorGloss": "ging",
          "dependent": 27,
          "dependentGloss": "Kampf"
        },
        {
          "dep": "case",
          "governor": 30,
          "governorGloss": "Vater",
          "dependent": 28,
          "dependentGloss": "mit"
        },
        {
          "dep": "det",
          "governor": 30,
          "governorGloss": "Vater",
          "dependent": 29,
          "dependentGloss": "seinem"
        },
        {
          "dep": "nmod",
          "governor": 27,
          "governorGloss": "Kampf",
          "dependent": 30,
          "dependentGloss": "Vater"
        },
        {
          "dep": "case",
          "governor": 32,
          "governorGloss": "Syrien",
          "dependent": 31,
          "dependentGloss": "in"
        },
        {
          "dep": "nmod",
          "governor": 30,
          "governorGloss": "Vater",
          "dependent": 32,
          "dependentGloss": "Syrien"
        },
        {
          "dep": "advcl",
          "governor": 20,
          "governorGloss": "getötet",
          "dependent": 33,
          "dependentGloss": "ging"
        }
      ],
      "tokens": [
        {
          "index": 1,
          "word": "``",
          "originalText": "“",
          "characterOffsetBegin": 0,
          "characterOffsetEnd": 1,
          "pos": "XY",
          "before": "",
          "after": ""
        },
        {
          "index": 2,
          "word": "Der",
          "originalText": "Der",
          "characterOffsetBegin": 1,
          "characterOffsetEnd": 4,
          "pos": "ART",
          "before": "",
          "after": " "
        },
        {
          "index": 3,
          "word": "jüngste",
          "originalText": "jüngste",
          "characterOffsetBegin": 5,
          "characterOffsetEnd": 12,
          "pos": "ADJA",
          "before": " ",
          "after": " "
        },
        {
          "index": 4,
          "word": "Märtyrer",
          "originalText": "Märtyrer",
          "characterOffsetBegin": 13,
          "characterOffsetEnd": 21,
          "pos": "NN",
          "before": " ",
          "after": " "
        },
        {
          "index": 5,
          "word": "-",
          "originalText": "-",
          "characterOffsetBegin": 22,
          "characterOffsetEnd": 23,
          "pos": "$[",
          "before": " ",
          "after": " "
        },
        {
          "index": 6,
          "word": "das",
          "originalText": "das",
          "characterOffsetBegin": 24,
          "characterOffsetEnd": 27,
          "pos": "ART",
          "before": " ",
          "after": " "
        },
        {
          "index": 7,
          "word": "Cub",
          "originalText": "Cub",
          "characterOffsetBegin": 28,
          "characterOffsetEnd": 31,
          "pos": "NN",
          "before": " ",
          "after": " "
        },
        {
          "index": 8,
          "word": "von",
          "originalText": "von",
          "characterOffsetBegin": 32,
          "characterOffsetEnd": 35,
          "pos": "APPR",
          "before": " ",
          "after": " "
        },
        {
          "index": 9,
          "word": "al-Baghdadi",
          "originalText": "al-Baghdadi",
          "characterOffsetBegin": 36,
          "characterOffsetEnd": 47,
          "pos": "NE",
          "before": " ",
          "after": ""
        },
        {
          "index": 10,
          "word": "``",
          "originalText": "“",
          "characterOffsetBegin": 47,
          "characterOffsetEnd": 48,
          "pos": "CARD",
          "before": "",
          "after": ""
        },
        {
          "index": 11,
          "word": ":",
          "originalText": ":",
          "characterOffsetBegin": 48,
          "characterOffsetEnd": 49,
          "pos": "$.",
          "before": "",
          "after": " "
        },
        {
          "index": 12,
          "word": "ISIS",
          "originalText": "ISIS",
          "characterOffsetBegin": 50,
          "characterOffsetEnd": 54,
          "pos": "NE",
          "before": " ",
          "after": " "
        },
        {
          "index": 13,
          "word": "rühmt",
          "originalText": "rühmt",
          "characterOffsetBegin": 55,
          "characterOffsetEnd": 60,
          "pos": "VVFIN",
          "before": " ",
          "after": " "
        },
        {
          "index": 14,
          "word": "sich",
          "originalText": "sich",
          "characterOffsetBegin": 61,
          "characterOffsetEnd": 65,
          "pos": "PRF",
          "before": " ",
          "after": ""
        },
        {
          "index": 15,
          "word": ",",
          "originalText": ",",
          "characterOffsetBegin": 65,
          "characterOffsetEnd": 66,
          "pos": "$,",
          "before": "",
          "after": " "
        },
        {
          "index": 16,
          "word": "ein",
          "originalText": "ein",
          "characterOffsetBegin": 67,
          "characterOffsetEnd": 70,
          "pos": "ART",
          "before": " ",
          "after": " "
        },
        {
          "index": 17,
          "word": "10-jähriger",
          "originalText": "10-jähriger",
          "characterOffsetBegin": 71,
          "characterOffsetEnd": 82,
          "pos": "ADJA",
          "before": " ",
          "after": " "
        },
        {
          "index": 18,
          "word": "Kämpfer",
          "originalText": "Kämpfer",
          "characterOffsetBegin": 83,
          "characterOffsetEnd": 90,
          "pos": "NN",
          "before": " ",
          "after": " "
        },
        {
          "index": 19,
          "word": "ist",
          "originalText": "ist",
          "characterOffsetBegin": 91,
          "characterOffsetEnd": 94,
          "pos": "VAFIN",
          "before": " ",
          "after": " "
        },
        {
          "index": 20,
          "word": "getötet",
          "originalText": "getötet",
          "characterOffsetBegin": 95,
          "characterOffsetEnd": 102,
          "pos": "VVPP",
          "before": " ",
          "after": " "
        },
        {
          "index": 21,
          "word": "worden",
          "originalText": "worden",
          "characterOffsetBegin": 103,
          "characterOffsetEnd": 109,
          "pos": "VAPP",
          "before": " ",
          "after": ""
        },
        {
          "index": 22,
          "word": ",",
          "originalText": ",",
          "characterOffsetBegin": 109,
          "characterOffsetEnd": 110,
          "pos": "$,",
          "before": "",
          "after": " "
        },
        {
          "index": 23,
          "word": "als",
          "originalText": "als",
          "characterOffsetBegin": 111,
          "characterOffsetEnd": 114,
          "pos": "KOUS",
          "before": " ",
          "after": " "
        },
        {
          "index": 24,
          "word": "er",
          "originalText": "er",
          "characterOffsetBegin": 115,
          "characterOffsetEnd": 117,
          "pos": "PPER",
          "before": " ",
          "after": " "
        },
        {
          "index": 25,
          "word": "in",
          "originalText": "in",
          "characterOffsetBegin": 118,
          "characterOffsetEnd": 120,
          "pos": "APPR",
          "before": " ",
          "after": " "
        },
        {
          "index": 26,
          "word": "den",
          "originalText": "den",
          "characterOffsetBegin": 121,
          "characterOffsetEnd": 124,
          "pos": "ART",
          "before": " ",
          "after": " "
        },
        {
          "index": 27,
          "word": "Kampf",
          "originalText": "Kampf",
          "characterOffsetBegin": 125,
          "characterOffsetEnd": 130,
          "pos": "NN",
          "before": " ",
          "after": " "
        },
        {
          "index": 28,
          "word": "mit",
          "originalText": "mit",
          "characterOffsetBegin": 131,
          "characterOffsetEnd": 134,
          "pos": "APPR",
          "before": " ",
          "after": " "
        },
        {
          "index": 29,
          "word": "seinem",
          "originalText": "seinem",
          "characterOffsetBegin": 135,
          "characterOffsetEnd": 141,
          "pos": "PPOSAT",
          "before": " ",
          "after": " "
        },
        {
          "index": 30,
          "word": "Vater",
          "originalText": "Vater",
          "characterOffsetBegin": 142,
          "characterOffsetEnd": 147,
          "pos": "NN",
          "before": " ",
          "after": " "
        },
        {
          "index": 31,
          "word": "in",
          "originalText": "in",
          "characterOffsetBegin": 148,
          "characterOffsetEnd": 150,
          "pos": "APPR",
          "before": " ",
          "after": " "
        },
        {
          "index": 32,
          "word": "Syrien",
          "originalText": "Syrien",
          "characterOffsetBegin": 151,
          "characterOffsetEnd": 157,
          "pos": "NE",
          "before": " ",
          "after": " "
        },
        {
          "index": 33,
          "word": "ging",
          "originalText": "ging",
          "characterOffsetBegin": 158,
          "characterOffsetEnd": 162,
          "pos": "VVFIN",
          "before": " ",
          "after": ""
        }
      ]
    }
  ]
}