{
  "sentences": [
    {
      "index": 0,
      "basicDependencies": [
        {
          "dep": "ROOT",
          "governor": 0,
          "governorGloss": "ROOT",
          "dependent": 2,
          "dependentGloss": "aufgegeben"
        },
        {
          "dep": "nsubj",
          "governor": 2,
          "governorGloss": "aufgegeben",
          "dependent": 1,
          "dependentGloss": "Hund"
        },
        {
          "dep": "amod",
          "governor": 4,
          "governorGloss": "Bahnhof",
          "dependent": 3,
          "dependentGloss": "am"
        },
        {
          "dep": "dobj",
          "governor": 2,
          "governorGloss": "aufgegeben",
          "dependent": 4,
          "dependentGloss": "Bahnhof"
        },
        {
          "dep": "case",
          "governor": 6,
          "governorGloss": "Koffersatz",
          "dependent": 5,
          "dependentGloss": "mit"
        },
        {
          "dep": "nmod",
          "governor": 2,
          "governorGloss": "aufgegeben",
          "dependent": 6,
          "dependentGloss": "Koffersatz"
        },
        {
          "dep": "case",
          "governor": 9,
          "governorGloss": "Ende",
          "dependent": 7,
          "dependentGloss": "für"
        },
        {
          "dep": "amod",
          "governor": 9,
          "governorGloss": "Ende",
          "dependent": 8,
          "dependentGloss": "glückliches"
        },
        {
          "dep": "nmod",
          "governor": 6,
          "governorGloss": "Koffersatz",
          "dependent": 9,
          "dependentGloss": "Ende"
        },
        {
          "dep": "case",
          "governor": 11,
          "governorGloss": "Angebote",
          "dependent": 10,
          "dependentGloss": "als"
        },
        {
          "dep": "nmod",
          "governor": 12,
          "governorGloss": "gießen",
          "dependent": 11,
          "dependentGloss": "Angebote"
        },
        {
          "dep": "advmod",
          "governor": 2,
          "governorGloss": "aufgegeben",
          "dependent": 12,
          "dependentGloss": "gießen"
        },
        {
          "dep": "mark",
          "governor": 2,
          "governorGloss": "aufgegeben",
          "dependent": 13,
          "dependentGloss": "in"
        }
      ],
      "enhancedDependencies": [
        {
          "dep": "ROOT",
          "governor": 0,
          "governorGloss": "ROOT",
          "dependent": 2,
          "dependentGloss": "aufgegeben"
        },
        {
          "dep": "nsubj",
          "governor": 2,
          "governorGloss": "aufgegeben",
          "dependent": 1,
          "dependentGloss": "Hund"
        },
        {
          "dep": "amod",
          "governor": 4,
          "governorGloss": "Bahnhof",
          "dependent": 3,
          "dependentGloss": "am"
        },
        {
          "dep": "dobj",
          "governor": 2,
          "governorGloss": "aufgegeben",
          "dependent": 4,
          "dependentGloss": "Bahnhof"
        },
        {
          "dep": "case",
          "governor": 6,
          "governorGloss": "Koffersatz",
          "dependent": 5,
          "dependentGloss": "mit"
        },
        {
          "dep": "nmod",
          "governor": 2,
          "governorGloss": "aufgegeben",
          "dependent": 6,
          "dependentGloss": "Koffersatz"
        },
        {
          "dep": "case",
          "governor": 9,
          "governorGloss": "Ende",
          "dependent": 7,
          "dependentGloss": "für"
        },
        {
          "dep": "amod",
          "governor": 9,
          "governorGloss": "Ende",
          "dependent": 8,
          "dependentGloss": "glückliches"
        },
        {
          "dep": "nmod",
          "governor": 6,
          "governorGloss": "Koffersatz",
          "dependent": 9,
          "dependentGloss": "Ende"
        },
        {
          "dep": "case",
          "governor": 11,
          "governorGloss": "Angebote",
          "dependent": 10,
          "dependentGloss": "als"
        },
        {
          "dep": "nmod",
          "governor": 12,
          "governorGloss": "gießen",
          "dependent": 11,
          "dependentGloss": "Angebote"
        },
        {
          "dep": "advmod",
          "governor": 2,
          "governorGloss": "aufgegeben",
          "dependent": 12,
          "dependentGloss": "gießen"
        },
        {
          "dep": "mark",
          "governor": 2,
          "governorGloss": "aufgegeben",
          "dependent": 13,
          "dependentGloss": "in"
        }
      ],
      "enhancedPlusPlusDependencies": [
        {
          "dep": "ROOT",
          "governor": 0,
          "governorGloss": "ROOT",
          "dependent": 2,
          "dependentGloss": "aufgegeben"
        },
        {
          "dep": "nsubj",
          "governor": 2,
          "governorGloss": "aufgegeben",
          "dependent": 1,
          "dependentGloss": "Hund"
        },
        {
          "dep": "amod",
          "governor": 4,
          "governorGloss": "Bahnhof",
          "dependent": 3,
          "dependentGloss": "am"
        },
        {
          "dep": "dobj",
          "governor": 2,
          "governorGloss": "aufgegeben",
          "dependent": 4,
          "dependentGloss": "Bahnhof"
        },
        {
          "dep": "case",
          "governor": 6,
          "governorGloss": "Koffersatz",
          "dependent": 5,
          "dependentGloss": "mit"
        },
        {
          "dep": "nmod",
          "governor": 2,
          "governorGloss": "aufgegeben",
          "dependent": 6,
          "dependentGloss": "Koffersatz"
        },
        {
          "dep": "case",
          "governor": 9,
          "governorGloss": "Ende",
          "dependent": 7,
          "dependentGloss": "für"
        },
        {
          "dep": "amod",
          "governor": 9,
          "governorGloss": "Ende",
          "dependent": 8,
          "dependentGloss": "glückliches"
        },
        {
          "dep": "nmod",
          "governor": 6,
          "governorGloss": "Koffersatz",
          "dependent": 9,
          "dependentGloss": "Ende"
        },
        {
          "dep": "case",
          "governor": 11,
          "governorGloss": "Angebote",
          "dependent": 10,
          "dependentGloss": "als"
        },
        {
          "dep": "nmod",
          "governor": 12,
          "governorGloss": "gießen",
          "dependent": 11,
          "dependentGloss": "Angebote"
        },
        {
          "dep": "advmod",
          "governor": 2,
          "governorGloss": "aufgegeben",
          "dependent": 12,
          "dependentGloss": "gießen"
        },
        {
          "dep": "mark",
          "governor": 2,
          "governorGloss": "aufgegeben",
          "dependent": 13,
          "dependentGloss": "in"
        }
      ],
      "tokens": [
        {
          "index": 1,
          "word": "Hund",
          "originalText": "Hund",
          "characterOffsetBegin": 0,
          "characterOffsetEnd": 4,
          "pos": "NN",
          "before": "",
          "after": " "
        },
        {
          "index": 2,
          "word": "aufgegeben",
          "originalText": "aufgegeben",
          "characterOffsetBegin": 5,
          "characterOffsetEnd": 15,
          "pos": "VVPP",
          "before": " ",
          "after": " "
        },
        {
          "index": 3,
          "word": "am",
          "originalText": "am",
          "characterOffsetBegin": 16,
          "characterOffsetEnd": 18,
          "pos": "APPRART",
          "before": " ",
          "after": " "
        },
        {
          "index": 4,
          "word": "Bahnhof",
          "originalText": "Bahnhof",
          "characterOffsetBegin": 19,
          "characterOffsetEnd": 26,
          "pos": "NN",
          "before": " ",
          "after": " "
        },
        {
          "index": 5,
          "word": "mit",
          "originalText": "mit",
          "characterOffsetBegin": 27,
          "characterOffsetEnd": 30,
          "pos": "APPR",
          "before": " ",
          "after": " "
        },
        {
          "index": 6,
          "word": "Koffersatz",
          "originalText": "Koffersatz",
          "characterOffsetBegin": 31,
          "characterOffsetEnd": 41,
          "pos": "NN",
          "before": " ",
          "after": " "
        },
        {
          "index": 7,
          "word": "für",
          "originalText": "für",
          "characterOffsetBegin": 42,
          "characterOffsetEnd": 45,
          "pos": "APPR",
          "before": " ",
          "after": " "
        },
        {
          "index": 8,
          "word": "glückliches",
          "originalText": "glückliches",
          "characterOffsetBegin": 46,
          "characterOffsetEnd": 57,
          "pos": "ADJA",
          "before": " ",
          "after": " "
        },
        {
          "index": 9,
          "word": "Ende",
          "originalText": "Ende",
          "characterOffsetBegin": 58,
          "characterOffsetEnd": 62,
          "pos": "NN",
          "before": " ",
          "after": " "
        },
        {
          "index": 10,
          "word": "als",
          "originalText": "als",
          "characterOffsetBegin": 63,
          "characterOffsetEnd": 66,
          "pos": "APPR",
          "before": " ",
          "after": " "
        },
        {
          "index": 11,
          "word": "Angebote",
          "originalText": "Angebote",
          "characterOffsetBegin": 67,
          "characterOffsetEnd": 75,
          "pos": "NN",
          "before": " ",
          "after": " "
        },
        {
          "index": 12,
          "word": "gießen",
          "originalText": "gießen",
          "characterOffsetBegin": 76,
          "characterOffsetEnd": 82,
          "pos": "VVFIN",
          "before": " ",
          "after": " "
        },
        {
          "index": 13,
          "word": "in",
          "originalText": "in",
          "characterOffsetBegin": 83,
          "characterOffsetEnd": 85,
          "pos": "APPR",
          "before": " ",
          "after": ""
        }
      ]
    }
  ]
}