{
  "sentences": [
    {
      "index": 0,
      "basicDependencies": [
        {
          "dep": "ROOT",
          "governor": 0,
          "governorGloss": "ROOT",
          "dependent": 4,
          "dependentGloss": "verbringt"
        },
        {
          "dep": "det",
          "governor": 3,
          "governorGloss": "Haustierbesitzer",
          "dependent": 1,
          "dependentGloss": "Der"
        },
        {
          "dep": "amod",
          "governor": 3,
          "governorGloss": "Haustierbesitzer",
          "dependent": 2,
          "dependentGloss": "gewidmete"
        },
        {
          "dep": "nsubj",
          "governor": 4,
          "governorGloss": "verbringt",
          "dependent": 3,
          "dependentGloss": "Haustierbesitzer"
        },
        {
          "dep": "dobj",
          "governor": 4,
          "governorGloss": "verbringt",
          "dependent": 5,
          "dependentGloss": "#"
        },
        {
          "dep": "appos",
          "governor": 5,
          "governorGloss": "#",
          "dependent": 6,
          "dependentGloss": "300"
        },
        {
          "dep": "punct",
          "governor": 4,
          "governorGloss": "verbringt",
          "dependent": 7,
          "dependentGloss": ","
        },
        {
          "dep": "mark",
          "governor": 12,
          "governorGloss": "retten",
          "dependent": 8,
          "dependentGloss": "um"
        },
        {
          "dep": "det",
          "governor": 10,
          "governorGloss": "GOLDFISH",
          "dependent": 9,
          "dependentGloss": "seinen"
        },
        {
          "dep": "dobj",
          "governor": 12,
          "governorGloss": "retten",
          "dependent": 10,
          "dependentGloss": "GOLDFISH"
        },
        {
          "dep": "aux",
          "governor": 12,
          "governorGloss": "retten",
          "dependent": 11,
          "dependentGloss": "zu"
        },
        {
          "dep": "advcl",
          "governor": 4,
          "governorGloss": "verbringt",
          "dependent": 12,
          "dependentGloss": "retten"
        },
        {
          "dep": "punct",
          "governor": 4,
          "governorGloss": "verbringt",
          "dependent": 13,
          "dependentGloss": ","
        },
        {
          "dep": "mark",
          "governor": 16,
          "governorGloss": "verstopft",
          "dependent": 14,
          "dependentGloss": "nachdem"
        },
        {
          "dep": "nsubj",
          "governor": 16,
          "governorGloss": "verstopft",
          "dependent": 15,
          "dependentGloss": "er"
        },
        {
          "dep": "advcl",
          "governor": 4,
          "governorGloss": "verbringt",
          "dependent": 16,
          "dependentGloss": "verstopft"
        },
        {
          "dep": "cop",
          "governor": 16,
          "governorGloss": "verstopft",
          "dependent": 17,
          "dependentGloss": "wurde"
        }
      ],
      "enhancedDependencies": [
        {
          "dep": "ROOT",
          "governor": 0,
          "governorGloss": "ROOT",
          "dependent": 4,
          "dependentGloss": "verbringt"
        },
        {
          "dep": "det",
          "governor": 3,
          "governorGloss": "Haustierbesitzer",
          "dependent": 1,
          "dependentGloss": "Der"
        },
        {
          "dep": "amod",
          "governor": 3,
          "governorGloss": "Haustierbesitzer",
          "dependent": 2,
          "dependentGloss": "gewidmete"
        },
        {
          "dep": "nsubj",
          "governor": 4,
          "governorGloss": "verbringt",
          "dependent": 3,
          "dependentGloss": "Haustierbesitzer"
        },
        {
          "dep": "dobj",
          "governor": 4,
          "governorGloss": "verbringt",
          "dependent": 5,
          "dependentGloss": "#"
        },
        {
          "dep": "appos",
          "governor": 5,
          "governorGloss": "#",
          "dependent": 6,
          "dependentGloss": "300"
        },
        {
          "dep": "punct",
          "governor": 4,
          "governorGloss": "verbringt",
          "dependent": 7,
          "dependentGloss": ","
        },
        {
          "dep": "mark",
          "governor": 12,
          "governorGloss": "retten",
          "dependent": 8,
          "dependentGloss": "um"
        },
        {
          "dep": "det",
          "governor": 10,
          "governorGloss": "GOLDFISH",
          "dependent": 9,
          "dependentGloss": "seinen"
        },
        {
          "dep": "dobj",
          "governor": 12,
          "governorGloss": "retten",
          "dependent": 10,
          "dependentGloss": "GOLDFISH"
        },
        {
          "dep": "aux",
          "governor": 12,
          "governorGloss": "retten",
          "dependent": 11,
          "dependentGloss": "zu"
        },
        {
          "dep": "advcl",
          "governor": 4,
          "governorGloss": "verbringt",
          "dependent": 12,
          "dependentGloss": "retten"
        },
        {
          "dep": "punct",
          "governor": 4,
          "governorGloss": "verbringt",
          "dependent": 13,
          "dependentGloss": ","
        },
        {
          "dep": "mark",
          "governor": 16,
          "governorGloss": "verstopft",
          "dependent": 14,
          "dependentGloss": "nachdem"
        },
        {
          "dep": "nsubj",
          "governor": 16,
          "governorGloss": "verstopft",
          "dependent": 15,
          "dependentGloss": "er"
        },
        {
          "dep": "advcl",
          "governor": 4,
          "governorGloss": "verbringt",
          "dependent": 16,
          "dependentGloss": "verstopft"
        },
        {
          "dep": "cop",
          "governor": 16,
          "governorGloss": "verstopft",
          "dependent": 17,
          "dependentGloss": "wurde"
        }
      ],
      "enhancedPlusPlusDependencies": [
        {
          "dep": "ROOT",
          "governor": 0,
          "governorGloss": "ROOT",
          "dependent": 4,
          "dependentGloss": "verbringt"
        },
        {
          "dep": "det",
          "governor": 3,
          "governorGloss": "Haustierbesitzer",
          "dependent": 1,
          "dependentGloss": "Der"
        },
        {
          "dep": "amod",
          "governor": 3,
          "governorGloss": "Haustierbesitzer",
          "dependent": 2,
          "dependentGloss": "gewidmete"
        },
        {
          "dep": "nsubj",
          "governor": 4,
          "governorGloss": "verbringt",
          "dependent": 3,
          "dependentGloss": "Haustierbesitzer"
        },
        {
          "dep": "dobj",
          "governor": 4,
          "governorGloss": "verbringt",
          "dependent": 5,
          "dependentGloss": "#"
        },
        {
          "dep": "appos",
          "governor": 5,
          "governorGloss": "#",
          "dependent": 6,
          "dependentGloss": "300"
        },
        {
          "dep": "punct",
          "governor": 4,
          "governorGloss": "verbringt",
          "dependent": 7,
          "dependentGloss": ","
        },
        {
          "dep": "mark",
          "governor": 12,
          "governorGloss": "retten",
          "dependent": 8,
          "dependentGloss": "um"
        },
        {
          "dep": "det",
          "governor": 10,
          "governorGloss": "GOLDFISH",
          "dependent": 9,
          "dependentGloss": "seinen"
        },
        {
          "dep": "dobj",
          "governor": 12,
          "governorGloss": "retten",
          "dependent": 10,
          "dependentGloss": "GOLDFISH"
        },
        {
          "dep": "aux",
          "governor": 12,
          "governorGloss": "retten",
          "dependent": 11,
          "dependentGloss": "zu"
        },
        {
          "dep": "advcl",
          "governor": 4,
          "governorGloss": "verbringt",
          "dependent": 12,
          "dependentGloss": "retten"
        },
        {
          "dep": "punct",
          "governor": 4,
          "governorGloss": "verbringt",
          "dependent": 13,
          "dependentGloss": ","
        },
        {
          "dep": "mark",
          "governor": 16,
          "governorGloss": "verstopft",
          "dependent": 14,
          "dependentGloss": "nachdem"
        },
        {
          "dep": "nsubj",
          "governor": 16,
          "governorGloss": "verstopft",
          "dependent": 15,
          "dependentGloss": "er"
        },
        {
          "dep": "advcl",
          "governor": 4,
          "governorGloss": "verbringt",
          "dependent": 16,
          "dependentGloss": "verstopft"
        },
        {
          "dep": "cop",
          "governor": 16,
          "governorGloss": "verstopft",
          "dependent": 17,
          "dependentGloss": "wurde"
        }
      ],
      "tokens": [
        {
          "index": 1,
          "word": "Der",
          "originalText": "Der",
          "characterOffsetBegin": 0,
          "characterOffsetEnd": 3,
          "pos": "ART",
          "before": "",
          "after": " "
        },
        {
          "index": 2,
          "word": "gewidmete",
          "originalText": "gewidmete",
          "characterOffsetBegin": 4,
          "characterOffsetEnd": 13,
          "pos": "ADJA",
          "before": " ",
          "after": " "
        },
        {
          "index": 3,
          "word": "Haustierbesitzer",
          "originalText": "Haustierbesitzer",
          "characterOffsetBegin": 14,
          "characterOffsetEnd": 30,
          "pos": "NN",
          "before": " ",
          "after": " "
        },
        {
          "index": 4,
          "word": "verbringt",
          "originalText": "verbringt",
          "characterOffsetBegin": 31,
          "characterOffsetEnd": 40,
          "pos": "VVFIN",
          "before": " ",
          "after": " "
        },
        {
          "index": 5,
          "word": "#",
          "originalText": "£",
          "characterOffsetBegin": 41,
          "characterOffsetEnd": 42,
          "pos": "XY",
          "before": " ",
          "after": " "
        },
        {
          "index": 6,
          "word": "300",
          "originalText": "300",
          "characterOffsetBegin": 43,
          "characterOffsetEnd": 46,
          "pos": "CARD",
          "before": " ",
          "after": ""
        },
        {
          "index": 7,
          "word": ",",
          "originalText": ",",
          "characterOffsetBegin": 46,
          "characterOffsetEnd": 47,
          "pos": "$,",
          "before": "",
          "after": " "
        },
        {
          "index": 8,
          "word": "um",
          "originalText": "um",
          "characterOffsetBegin": 48,
          "characterOffsetEnd": 50,
          "pos": "APPR",
          "before": " ",
          "after": " "
        },
        {
          "index": 9,
          "word": "seinen",
          "originalText": "seinen",
          "characterOffsetBegin": 51,
          "characterOffsetEnd": 57,
          "pos": "PPOSAT",
          "before": " ",
          "after": " "
        },
        {
          "index": 10,
          "word": "GOLDFISH",
          "originalText": "GOLDFISH",
          "characterOffsetBegin": 58,
          "characterOffsetEnd": 66,
          "pos": "NN",
          "before": " ",
          "after": " "
        },
        {
          "index": 11,
          "word": "zu",
          "originalText": "zu",
          "characterOffsetBegin": 67,
          "characterOffsetEnd": 69,
          "pos": "PTKZU",
          "before": " ",
          "after": " "
        },
        {
          "index": 12,
          "word": "retten",
          "originalText": "retten",
          "characterOffsetBegin": 70,
          "characterOffsetEnd": 76,
          "pos": "VVINF",
          "before": " ",
          "after": ""
        },
        {
          "index": 13,
          "word": ",",
          "originalText": ",",
          "characterOffsetBegin": 76,
          "characterOffsetEnd": 77,
          "pos": "$,",
          "before": "",
          "after": " "
        },
        {
          "index": 14,
          "word": "nachdem",
          "originalText": "nachdem",
          "characterOffsetBegin": 78,
          "characterOffsetEnd": 85,
          "pos": "KOUS",
          "before": " ",
          "after": " "
        },
        {
          "index": 15,
          "word": "er",
          "originalText": "er",
          "characterOffsetBegin": 86,
          "characterOffsetEnd": 88,
          "pos": "PPER",
          "before": " ",
          "after": " "
        },
        {
          "index": 16,
          "word": "verstopft",
          "originalText": "verstopft",
          "characterOffsetBegin": 89,
          "characterOffsetEnd": 98,
          "pos": "VVPP",
          "before": " ",
          "after": " "
        },
        {
          "index": 17,
          "word": "wurde",
          "originalText": "wurde",
          "characterOffsetBegin": 99,
          "characterOffsetEnd": 104,
          "pos": "VAFIN",
          "before": " ",
          "after": ""
        }
      ]
    }
  ]
}