{
  "sentences": [
    {
      "index": 0,
      "basicDependencies": [
        {
          "dep": "ROOT",
          "governor": 0,
          "governorGloss": "ROOT",
          "dependent": 1,
          "dependentGloss": "Danke"
        },
        {
          "dep": "amod",
          "governor": 3,
          "governorGloss": "Sam",
          "dependent": 2,
          "dependentGloss": "Uncle"
        },
        {
          "dep": "appos",
          "governor": 1,
          "governorGloss": "Danke",
          "dependent": 3,
          "dependentGloss": "Sam"
        },
        {
          "dep": "punct",
          "governor": 3,
          "governorGloss": "Sam",
          "dependent": 4,
          "dependentGloss": ","
        },
        {
          "dep": "nsubj",
          "governor": 9,
          "governorGloss": "airdrop",
          "dependent": 5,
          "dependentGloss": "wir"
        },
        {
          "dep": "aux",
          "governor": 9,
          "governorGloss": "airdrop",
          "dependent": 6,
          "dependentGloss": "haben"
        },
        {
          "dep": "amod",
          "governor": 8,
          "governorGloss": "Waffen",
          "dependent": 7,
          "dependentGloss": "deine"
        },
        {
          "dep": "dobj",
          "governor": 9,
          "governorGloss": "airdrop",
          "dependent": 8,
          "dependentGloss": "Waffen"
        },
        {
          "dep": "ccomp",
          "governor": 3,
          "governorGloss": "Sam",
          "dependent": 9,
          "dependentGloss": "airdrop"
        },
        {
          "dep": "punct",
          "governor": 3,
          "governorGloss": "Sam",
          "dependent": 10,
          "dependentGloss": ":"
        },
        {
          "dep": "amod",
          "governor": 12,
          "governorGloss": "verspottet",
          "dependent": 11,
          "dependentGloss": "ISIS"
        },
        {
          "dep": "appos",
          "governor": 3,
          "governorGloss": "Sam",
          "dependent": 12,
          "dependentGloss": "verspottet"
        },
        {
          "dep": "appos",
          "governor": 12,
          "governorGloss": "verspottet",
          "dependent": 13,
          "dependentGloss": "Amerika"
        },
        {
          "dep": "case",
          "governor": 16,
          "governorGloss": "Waffen",
          "dependent": 14,
          "dependentGloss": "über"
        },
        {
          "dep": "amod",
          "governor": 16,
          "governorGloss": "Waffen",
          "dependent": 15,
          "dependentGloss": "abgefangene"
        },
        {
          "dep": "nmod",
          "governor": 12,
          "governorGloss": "verspottet",
          "dependent": 16,
          "dependentGloss": "Waffen"
        },
        {
          "dep": "case",
          "governor": 18,
          "governorGloss": "Kurden",
          "dependent": 17,
          "dependentGloss": "für"
        },
        {
          "dep": "nmod",
          "governor": 16,
          "governorGloss": "Waffen",
          "dependent": 18,
          "dependentGloss": "Kurden"
        }
      ],
      "enhancedDependencies": [
        {
          "dep": "ROOT",
          "governor": 0,
          "governorGloss": "ROOT",
          "dependent": 1,
          "dependentGloss": "Danke"
        },
        {
          "dep": "amod",
          "governor": 3,
          "governorGloss": "Sam",
          "dependent": 2,
          "dependentGloss": "Uncle"
        },
        {
          "dep": "appos",
          "governor": 1,
          "governorGloss": "Danke",
          "dependent": 3,
          "dependentGloss": "Sam"
        },
        {
          "dep": "punct",
          "governor": 3,
          "governorGloss": "Sam",
          "dependent": 4,
          "dependentGloss": ","
        },
        {
          "dep": "nsubj",
          "governor": 9,
          "governorGloss": "airdrop",
          "dependent": 5,
          "dependentGloss": "wir"
        },
        {
          "dep": "aux",
          "governor": 9,
          "governorGloss": "airdrop",
          "dependent": 6,
          "dependentGloss": "haben"
        },
        {
          "dep": "amod",
          "governor": 8,
          "governorGloss": "Waffen",
          "dependent": 7,
          "dependentGloss": "deine"
        },
        {
          "dep": "dobj",
          "governor": 9,
          "governorGloss": "airdrop",
          "dependent": 8,
          "dependentGloss": "Waffen"
        },
        {
          "dep": "ccomp",
          "governor": 3,
          "governorGloss": "Sam",
          "dependent": 9,
          "dependentGloss": "airdrop"
        },
        {
          "dep": "punct",
          "governor": 3,
          "governorGloss": "Sam",
          "dependent": 10,
          "dependentGloss": ":"
        },
        {
          "dep": "amod",
          "governor": 12,
          "governorGloss": "verspottet",
          "dependent": 11,
          "dependentGloss": "ISIS"
        },
        {
          "dep": "appos",
          "governor": 3,
          "governorGloss": "Sam",
          "dependent": 12,
          "dependentGloss": "verspottet"
        },
        {
          "dep": "appos",
          "governor": 12,
          "governorGloss": "verspottet",
          "dependent": 13,
          "dependentGloss": "Amerika"
        },
        {
          "dep": "case",
          "governor": 16,
          "governorGloss": "Waffen",
          "dependent": 14,
          "dependentGloss": "über"
        },
        {
          "dep": "amod",
          "governor": 16,
          "governorGloss": "Waffen",
          "dependent": 15,
          "dependentGloss": "abgefangene"
        },
        {
          "dep": "nmod",
          "governor": 12,
          "governorGloss": "verspottet",
          "dependent": 16,
          "dependentGloss": "Waffen"
        },
        {
          "dep": "case",
          "governor": 18,
          "governorGloss": "Kurden",
          "dependent": 17,
          "dependentGloss": "für"
        },
        {
          "dep": "nmod",
          "governor": 16,
          "governorGloss": "Waffen",
          "dependent": 18,
          "dependentGloss": "Kurden"
        }
      ],
      "enhancedPlusPlusDependencies": [
        {
          "dep": "ROOT",
          "governor": 0,
          "governorGloss": "ROOT",
          "dependent": 1,
          "dependentGloss": "Danke"
        },
        {
          "dep": "amod",
          "governor": 3,
          "governorGloss": "Sam",
          "dependent": 2,
          "dependentGloss": "Uncle"
        },
        {
          "dep": "appos",
          "governor": 1,
          "governorGloss": "Danke",
          "dependent": 3,
          "dependentGloss": "Sam"
        },
        {
          "dep": "punct",
          "governor": 3,
          "governorGloss": "Sam",
          "dependent": 4,
          "dependentGloss": ","
        },
        {
          "dep": "nsubj",
          "governor": 9,
          "governorGloss": "airdrop",
          "dependent": 5,
          "dependentGloss": "wir"
        },
        {
          "dep": "aux",
          "governor": 9,
          "governorGloss": "airdrop",
          "dependent": 6,
          "dependentGloss": "haben"
        },
        {
          "dep": "amod",
          "governor": 8,
          "governorGloss": "Waffen",
          "dependent": 7,
          "dependentGloss": "deine"
        },
        {
          "dep": "dobj",
          "governor": 9,
          "governorGloss": "airdrop",
          "dependent": 8,
          "dependentGloss": "Waffen"
        },
        {
          "dep": "ccomp",
          "governor": 3,
          "governorGloss": "Sam",
          "dependent": 9,
          "dependentGloss": "airdrop"
        },
        {
          "dep": "punct",
          "governor": 3,
          "governorGloss": "Sam",
          "dependent": 10,
          "dependentGloss": ":"
        },
        {
          "dep": "amod",
          "governor": 12,
          "governorGloss": "verspottet",
          "dependent": 11,
          "dependentGloss": "ISIS"
        },
        {
          "dep": "appos",
          "governor": 3,
          "governorGloss": "Sam",
          "dependent": 12,
          "dependentGloss": "verspottet"
        },
        {
          "dep": "appos",
          "governor": 12,
          "governorGloss": "verspottet",
          "dependent": 13,
          "dependentGloss": "Amerika"
        },
        {
          "dep": "case",
          "governor": 16,
          "governorGloss": "Waffen",
          "dependent": 14,
          "dependentGloss": "über"
        },
        {
          "dep": "amod",
          "governor": 16,
          "governorGloss": "Waffen",
          "dependent": 15,
          "dependentGloss": "abgefangene"
        },
        {
          "dep": "nmod",
          "governor": 12,
          "governorGloss": "verspottet",
          "dependent": 16,
          "dependentGloss": "Waffen"
        },
        {
          "dep": "case",
          "governor": 18,
          "governorGloss": "Kurden",
          "dependent": 17,
          "dependentGloss": "für"
        },
        {
          "dep": "nmod",
          "governor": 16,
          "governorGloss": "Waffen",
          "dependent": 18,
          "dependentGloss": "Kurden"
        }
      ],
      "tokens": [
        {
          "index": 1,
          "word": "Danke",
          "originalText": "Danke",
          "characterOffsetBegin": 0,
          "characterOffsetEnd": 5,
          "pos": "PROAV",
          "before": "",
          "after": " "
        },
        {
          "index": 2,
          "word": "Uncle",
          "originalText": "Uncle",
          "characterOffsetBegin": 6,
          "characterOffsetEnd": 11,
          "pos": "NN",
          "before": " ",
          "after": " "
        },
        {
          "index": 3,
          "word": "Sam",
          "originalText": "Sam",
          "characterOffsetBegin": 12,
          "characterOffsetEnd": 15,
          "pos": "NE",
          "before": " ",
          "after": ""
        },
        {
          "index": 4,
          "word": ",",
          "originalText": ",",
          "characterOffsetBegin": 15,
          "characterOffsetEnd": 16,
          "pos": "$,",
          "before": "",
          "after": " "
        },
        {
          "index": 5,
          "word": "wir",
          "originalText": "wir",
          "characterOffsetBegin": 17,
          "characterOffsetEnd": 20,
          "pos": "PPER",
          "before": " ",
          "after": " "
        },
        {
          "index": 6,
          "word": "haben",
          "originalText": "haben",
          "characterOffsetBegin": 21,
          "characterOffsetEnd": 26,
          "pos": "VAFIN",
          "before": " ",
          "after": " "
        },
        {
          "index": 7,
          "word": "deine",
          "originalText": "deine",
          "characterOffsetBegin": 27,
          "characterOffsetEnd": 32,
          "pos": "PPOSAT",
          "before": " ",
          "after": " "
        },
        {
          "index": 8,
          "word": "Waffen",
          "originalText": "Waffen",
          "characterOffsetBegin": 33,
          "characterOffsetEnd": 39,
          "pos": "NN",
          "before": " ",
          "after": " "
        },
        {
          "index": 9,
          "word": "airdrop",
          "originalText": "airdrop",
          "characterOffsetBegin": 40,
          "characterOffsetEnd": 47,
          "pos": "VVFIN",
          "before": " ",
          "after": ""
        },
        {
          "index": 10,
          "word": ":",
          "originalText": ":",
          "characterOffsetBegin": 47,
          "characterOffsetEnd": 48,
          "pos": "$.",
          "before": "",
          "after": " "
        },
        {
          "index": 11,
          "word": "ISIS",
          "originalText": "ISIS",
          "characterOffsetBegin": 49,
          "characterOffsetEnd": 53,
          "pos": "NE",
          "before": " ",
          "after": " "
        },
        {
          "index": 12,
          "word": "verspottet",
          "originalText": "verspottet",
          "characterOffsetBegin": 54,
          "characterOffsetEnd": 64,
          "pos": "VVFIN",
          "before": " ",
          "after": " "
        },
        {
          "index": 13,
          "word": "Amerika",
          "originalText": "Amerika",
          "characterOffsetBegin": 65,
          "characterOffsetEnd": 72,
          "pos": "NE",
          "before": " ",
          "after": " "
        },
        {
          "index": 14,
          "word": "über",
          "originalText": "über",
          "characterOffsetBegin": 73,
          "characterOffsetEnd": 77,
          "pos": "APPR",
          "before": " ",
          "after": " "
        },
        {
          "index": 15,
          "word": "abgefangene",
          "originalText": "abgefangene",
          "characterOffsetBegin": 78,
          "characterOffsetEnd": 89,
          "pos": "ADJA",
          "before": " ",
          "after": " "
        },
        {
          "index": 16,
          "word": "Waffen",
          "originalText": "Waffen",
          "characterOffsetBegin": 90,
          "characterOffsetEnd": 96,
          "pos": "NN",
          "before": " ",
          "after": " "
        },
        {
          "index": 17,
          "word": "für",
          "originalText": "für",
          "characterOffsetBegin": 97,
          "characterOffsetEnd": 100,
          "pos": "APPR",
          "before": " ",
          "after": " "
        },
        {
          "index": 18,
          "word": "Kurden",
          "originalText": "Kurden",
          "characterOffsetBegin": 101,
          "characterOffsetEnd": 107,
          "pos": "NN",
          "before": " ",
          "after": ""
        }
      ]
    }
  ]
}