{
  "sentences": [
    {
      "index": 0,
      "basicDependencies": [
        {
          "dep": "ROOT",
          "governor": 0,
          "governorGloss": "ROOT",
          "dependent": 16,
          "dependentGloss": "wurden"
        },
        {
          "dep": "advmod",
          "governor": 3,
          "governorGloss": "200",
          "dependent": 1,
          "dependentGloss": "Mehr"
        },
        {
          "dep": "dep",
          "governor": 1,
          "governorGloss": "Mehr",
          "dependent": 2,
          "dependentGloss": "als"
        },
        {
          "dep": "nummod",
          "governor": 6,
          "governorGloss": "Mädchen",
          "dependent": 3,
          "dependentGloss": "200"
        },
        {
          "dep": "amod",
          "governor": 6,
          "governorGloss": "Mädchen",
          "dependent": 4,
          "dependentGloss": "entführte"
        },
        {
          "dep": "amod",
          "governor": 6,
          "governorGloss": "Mädchen",
          "dependent": 5,
          "dependentGloss": "nigerianische"
        },
        {
          "dep": "nsubj",
          "governor": 16,
          "governorGloss": "wurden",
          "dependent": 6,
          "dependentGloss": "Mädchen"
        },
        {
          "dep": "punct",
          "governor": 6,
          "governorGloss": "Mädchen",
          "dependent": 7,
          "dependentGloss": ","
        },
        {
          "dep": "nsubjpass",
          "governor": 15,
          "governorGloss": "freigelassen",
          "dependent": 8,
          "dependentGloss": "die"
        },
        {
          "dep": "case",
          "governor": 11,
          "governorGloss": "Ausstieg",
          "dependent": 9,
          "dependentGloss": "nach"
        },
        {
          "dep": "det",
          "governor": 11,
          "governorGloss": "Ausstieg",
          "dependent": 10,
          "dependentGloss": "dem"
        },
        {
          "dep": "nmod",
          "governor": 15,
          "governorGloss": "freigelassen",
          "dependent": 11,
          "dependentGloss": "Ausstieg"
        },
        {
          "dep": "case",
          "governor": 14,
          "governorGloss": "Haram",
          "dependent": 12,
          "dependentGloss": "mit"
        },
        {
          "dep": "amod",
          "governor": 14,
          "governorGloss": "Haram",
          "dependent": 13,
          "dependentGloss": "Boko"
        },
        {
          "dep": "nmod",
          "governor": 15,
          "governorGloss": "freigelassen",
          "dependent": 14,
          "dependentGloss": "Haram"
        },
        {
          "dep": "acl",
          "governor": 6,
          "governorGloss": "Mädchen",
          "dependent": 15,
          "dependentGloss": "freigelassen"
        }
      ],
      "enhancedDependencies": [
        {
          "dep": "ROOT",
          "governor": 0,
          "governorGloss": "ROOT",
          "dependent": 16,
          "dependentGloss": "wurden"
        },
        {
          "dep": "advmod",
          "governor": 3,
          "governorGloss": "200",
          "dependent": 1,
          "dependentGloss": "Mehr"
        },
        {
          "dep": "dep",
          "governor": 1,
          "governorGloss": "Mehr",
          "dependent": 2,
          "dependentGloss": "als"
        },
        {
          "dep": "nummod",
          "governor": 6,
          "governorGloss": "Mädchen",
          "dependent": 3,
          "dependentGloss": "200"
        },
        {
          "dep": "amod",
          "governor": 6,
          "governorGloss": "Mädchen",
          "dependent": 4,
          "dependentGloss": "entführte"
        },
        {
          "dep": "amod",
          "governor": 6,
          "governorGloss": "Mädchen",
          "dependent": 5,
          "dependentGloss": "nigerianische"
        },
        {
          "dep": "nsubj",
          "governor": 16,
          "governorGloss": "wurden",
          "dependent": 6,
          "dependentGloss": "Mädchen"
        },
        {
          "dep": "punct",
          "governor": 6,
          "governorGloss": "Mädchen",
          "dependent": 7,
          "dependentGloss": ","
        },
        {
          "dep": "nsubjpass",
          "governor": 15,
          "governorGloss": "freigelassen",
          "dependent": 8,
          "dependentGloss": "die"
        },
        {
          "dep": "case",
          "governor": 11,
          "governorGloss": "Ausstieg",
          "dependent": 9,
          "dependentGloss": "nach"
        },
        {
          "dep": "det",
          "governor": 11,
          "governorGloss": "Ausstieg",
          "dependent": 10,
          "dependentGloss": "dem"
        },
        {
          "dep": "nmod",
          "governor": 15,
          "governorGloss": "freigelassen",
          "dependent": 11,
          "dependentGloss": "Ausstieg"
        },
        {
          "dep": "case",
          "governor": 14,
          "governorGloss": "Haram",
          "dependent": 12,
          "dependentGloss": "mit"
        },
        {
          "dep": "amod",
          "governor": 14,
          "governorGloss": "Haram",
          "dependent": 13,
          "dependentGloss": "Boko"
        },
        {
          "dep": "nmod",
          "governor": 15,
          "governorGloss": "freigelassen",
          "dependent": 14,
          "dependentGloss": "Haram"
        },
        {
          "dep": "acl",
          "governor": 6,
          "governorGloss": "Mädchen",
          "dependent": 15,
          "dependentGloss": "freigelassen"
        }
      ],
      "enhancedPlusPlusDependencies": [
        {
          "dep": "ROOT",
          "governor": 0,
          "governorGloss": "ROOT",
          "dependent": 16,
          "dependentGloss": "wurden"
        },
        {
          "dep": "advmod",
          "governor": 3,
          "governorGloss": "200",
          "dependent": 1,
          "dependentGloss": "Mehr"
        },
        {
          "dep": "dep",
          "governor": 1,
          "governorGloss": "Mehr",
          "dependent": 2,
          "dependentGloss": "als"
        },
        {
          "dep": "nummod",
          "governor": 6,
          "governorGloss": "Mädchen",
          "dependent": 3,
          "dependentGloss": "200"
        },
        {
          "dep": "amod",
          "governor": 6,
          "governorGloss": "Mädchen",
          "dependent": 4,
          "dependentGloss": "entführte"
        },
        {
          "dep": "amod",
          "governor": 6,
          "governorGloss": "Mädchen",
          "dependent": 5,
          "dependentGloss": "nigerianische"
        },
        {
          "dep": "nsubj",
          "governor": 16,
          "governorGloss": "wurden",
          "dependent": 6,
          "dependentGloss": "Mädchen"
        },
        {
          "dep": "punct",
          "governor": 6,
          "governorGloss": "Mädchen",
          "dependent": 7,
          "dependentGloss": ","
        },
        {
          "dep": "nsubjpass",
          "governor": 15,
          "governorGloss": "freigelassen",
          "dependent": 8,
          "dependentGloss": "die"
        },
        {
          "dep": "case",
          "governor": 11,
          "governorGloss": "Ausstieg",
          "dependent": 9,
          "dependentGloss": "nach"
        },
        {
          "dep": "det",
          "governor": 11,
          "governorGloss": "Ausstieg",
          "dependent": 10,
          "dependentGloss": "dem"
        },
        {
          "dep": "nmod",
          "governor": 15,
          "governorGloss": "freigelassen",
          "dependent": 11,
          "dependentGloss": "Ausstieg"
        },
        {
          "dep": "case",
          "governor": 14,
          "governorGloss": "Haram",
          "dependent": 12,
          "dependentGloss": "mit"
        },
        {
          "dep": "amod",
          "governor": 14,
          "governorGloss": "Haram",
          "dependent": 13,
          "dependentGloss": "Boko"
        },
        {
          "dep": "nmod",
          "governor": 15,
          "governorGloss": "freigelassen",
          "dependent": 14,
          "dependentGloss": "Haram"
        },
        {
          "dep": "acl",
          "governor": 6,
          "governorGloss": "Mädchen",
          "dependent": 15,
          "dependentGloss": "freigelassen"
        }
      ],
      "tokens": [
        {
          "index": 1,
          "word": "Mehr",
          "originalText": "Mehr",
          "characterOffsetBegin": 0,
          "characterOffsetEnd": 4,
          "pos": "ADV",
          "before": "",
          "after": " "
        },
        {
          "index": 2,
          "word": "als",
          "originalText": "als",
          "characterOffsetBegin": 5,
          "characterOffsetEnd": 8,
          "pos": "KOKOM",
          "before": " ",
          "after": " "
        },
        {
          "index": 3,
          "word": "200",
          "originalText": "200",
          "characterOffsetBegin": 9,
          "characterOffsetEnd": 12,
          "pos": "CARD",
          "before": " ",
          "after": " "
        },
        {
          "index": 4,
          "word": "entführte",
          "originalText": "entführte",
          "characterOffsetBegin": 13,
          "characterOffsetEnd": 22,
          "pos": "ADJA",
          "before": " ",
          "after": " "
        },
        {
          "index": 5,
          "word": "nigerianische",
          "originalText": "nigerianische",
          "characterOffsetBegin": 23,
          "characterOffsetEnd": 36,
          "pos": "ADJA",
          "before": " ",
          "after": " "
        },
        {
          "index": 6,
          "word": "Mädchen",
          "originalText": "Mädchen",
          "characterOffsetBegin": 37,
          "characterOffsetEnd": 44,
          "pos": "NN",
          "before": " ",
          "after": ""
        },
        {
          "index": 7,
          "word": ",",
          "originalText": ",",
          "characterOffsetBegin": 44,
          "characterOffsetEnd": 45,
          "pos": "$,",
          "before": "",
          "after": " "
        },
        {
          "index": 8,
          "word": "die",
          "originalText": "die",
          "characterOffsetBegin": 46,
          "characterOffsetEnd": 49,
          "pos": "PRELS",
          "before": " ",
          "after": " "
        },
        {
          "index": 9,
          "word": "nach",
          "originalText": "nach",
          "characterOffsetBegin": 50,
          "characterOffsetEnd": 54,
          "pos": "APPR",
          "before": " ",
          "after": " "
        },
        {
          "index": 10,
          "word": "dem",
          "originalText": "dem",
          "characterOffsetBegin": 55,
          "characterOffsetEnd": 58,
          "pos": "ART",
          "before": " ",
          "after": " "
        },
        {
          "index": 11,
          "word": "Ausstieg",
          "originalText": "Ausstieg",
          "characterOffsetBegin": 59,
          "characterOffsetEnd": 67,
          "pos": "NN",
          "before": " ",
          "after": " "
        },
        {
          "index": 12,
          "word": "mit",
          "originalText": "mit",
          "characterOffsetBegin": 68,
          "characterOffsetEnd": 71,
          "pos": "APPR",
          "before": " ",
          "after": " "
        },
        {
          "index": 13,
          "word": "Boko",
          "originalText": "Boko",
          "characterOffsetBegin": 72,
          "characterOffsetEnd": 76,
          "pos": "FM",
          "before": " ",
          "after": " "
        },
        {
          "index": 14,
          "word": "Haram",
          "originalText": "Haram",
          "characterOffsetBegin": 77,
          "characterOffsetEnd": 82,
          "pos": "FM",
          "before": " ",
          "after": " "
        },
        {
          "index": 15,
          "word": "freigelassen",
          "originalText": "freigelassen",
          "characterOffsetBegin": 83,
          "characterOffsetEnd": 95,
          "pos": "VVPP",
          "before": " ",
          "after": " "
        },
        {
          "index": 16,
          "word": "wurden",
          "originalText": "wurden",
          "characterOffsetBegin": 96,
          "characterOffsetEnd": 102,
          "pos": "VAFIN",
          "before": " ",
          "after": ""
        }
      ]
    }
  ]
}