{
  "sentences": [
    {
      "index": 0,
      "basicDependencies": [
        {
          "dep": "ROOT",
          "governor": 0,
          "governorGloss": "ROOT",
          "dependent": 1,
          "dependentGloss": "Ebola"
        },
        {
          "dep": "name",
          "governor": 3,
          "governorGloss": "2014",
          "dependent": 2,
          "dependentGloss": "Frisco"
        },
        {
          "dep": "appos",
          "governor": 1,
          "governorGloss": "Ebola",
          "dependent": 3,
          "dependentGloss": "2014"
        },
        {
          "dep": "punct",
          "governor": 3,
          "governorGloss": "2014",
          "dependent": 4,
          "dependentGloss": ":"
        },
        {
          "dep": "nsubj",
          "governor": 6,
          "governorGloss": "zeigt",
          "dependent": 5,
          "dependentGloss": "Patient"
        },
        {
          "dep": "parataxis",
          "governor": 3,
          "governorGloss": "2014",
          "dependent": 6,
          "dependentGloss": "zeigt"
        },
        {
          "dep": "dobj",
          "governor": 6,
          "governorGloss": "zeigt",
          "dependent": 7,
          "dependentGloss": "Virus-Symptome"
        },
        {
          "dep": "case",
          "governor": 13,
          "governorGloss": "Kontakt",
          "dependent": 8,
          "dependentGloss": "nach"
        },
        {
          "dep": "amod",
          "governor": 13,
          "governorGloss": "Kontakt",
          "dependent": 9,
          "dependentGloss": "scheinbaren"
        },
        {
          "dep": "name",
          "governor": 12,
          "governorGloss": "Duncan",
          "dependent": 10,
          "dependentGloss": "Thomas"
        },
        {
          "dep": "name",
          "governor": 12,
          "governorGloss": "Duncan",
          "dependent": 11,
          "dependentGloss": "Eric"
        },
        {
          "dep": "appos",
          "governor": 9,
          "governorGloss": "scheinbaren",
          "dependent": 12,
          "dependentGloss": "Duncan"
        },
        {
          "dep": "nmod",
          "governor": 7,
          "governorGloss": "Virus-Symptome",
          "dependent": 13,
          "dependentGloss": "Kontakt"
        }
      ],
      "enhancedDependencies": [
        {
          "dep": "ROOT",
          "governor": 0,
          "governorGloss": "ROOT",
          "dependent": 1,
          "dependentGloss": "Ebola"
        },
        {
          "dep": "name",
          "governor": 3,
          "governorGloss": "2014",
          "dependent": 2,
          "dependentGloss": "Frisco"
        },
        {
          "dep": "appos",
          "governor": 1,
          "governorGloss": "Ebola",
          "dependent": 3,
          "dependentGloss": "2014"
        },
        {
          "dep": "punct",
          "governor": 3,
          "governorGloss": "2014",
          "dependent": 4,
          "dependentGloss": ":"
        },
        {
          "dep": "nsubj",
          "governor": 6,
          "governorGloss": "zeigt",
          "dependent": 5,
          "dependentGloss": "Patient"
        },
        {
          "dep": "parataxis",
          "governor": 3,
          "governorGloss": "2014",
          "dependent": 6,
          "dependentGloss": "zeigt"
        },
        {
          "dep": "dobj",
          "governor": 6,
          "governorGloss": "zeigt",
          "dependent": 7,
          "dependentGloss": "Virus-Symptome"
        },
        {
          "dep": "case",
          "governor": 13,
          "governorGloss": "Kontakt",
          "dependent": 8,
          "dependentGloss": "nach"
        },
        {
          "dep": "amod",
          "governor": 13,
          "governorGloss": "Kontakt",
          "dependent": 9,
          "dependentGloss": "scheinbaren"
        },
        {
          "dep": "name",
          "governor": 12,
          "governorGloss": "Duncan",
          "dependent": 10,
          "dependentGloss": "Thomas"
        },
        {
          "dep": "name",
          "governor": 12,
          "governorGloss": "Duncan",
          "dependent": 11,
          "dependentGloss": "Eric"
        },
        {
          "dep": "appos",
          "governor": 9,
          "governorGloss": "scheinbaren",
          "dependent": 12,
          "dependentGloss": "Duncan"
        },
        {
          "dep": "nmod",
          "governor": 7,
          "governorGloss": "Virus-Symptome",
          "dependent": 13,
          "dependentGloss": "Kontakt"
        }
      ],
      "enhancedPlusPlusDependencies": [
        {
          "dep": "ROOT",
          "governor": 0,
          "governorGloss": "ROOT",
          "dependent": 1,
          "dependentGloss": "Ebola"
        },
        {
          "dep": "name",
          "governor": 3,
          "governorGloss": "2014",
          "dependent": 2,
          "dependentGloss": "Frisco"
        },
        {
          "dep": "appos",
          "governor": 1,
          "governorGloss": "Ebola",
          "dependent": 3,
          "dependentGloss": "2014"
        },
        {
          "dep": "punct",
          "governor": 3,
          "governorGloss": "2014",
          "dependent": 4,
          "dependentGloss": ":"
        },
        {
          "dep": "nsubj",
          "governor": 6,
          "governorGloss": "zeigt",
          "dependent": 5,
          "dependentGloss": "Patient"
        },
        {
          "dep": "parataxis",
          "governor": 3,
          "governorGloss": "2014",
          "dependent": 6,
          "dependentGloss": "zeigt"
        },
        {
          "dep": "dobj",
          "governor": 6,
          "governorGloss": "zeigt",
          "dependent": 7,
          "dependentGloss": "Virus-Symptome"
        },
        {
          "dep": "case",
          "governor": 13,
          "governorGloss": "Kontakt",
          "dependent": 8,
          "dependentGloss": "nach"
        },
        {
          "dep": "amod",
          "governor": 13,
          "governorGloss": "Kontakt",
          "dependent": 9,
          "dependentGloss": "scheinbaren"
        },
        {
          "dep": "name",
          "governor": 12,
          "governorGloss": "Duncan",
          "dependent": 10,
          "dependentGloss": "Thomas"
        },
        {
          "dep": "name",
          "governor": 12,
          "governorGloss": "Duncan",
          "dependent": 11,
          "dependentGloss": "Eric"
        },
        {
          "dep": "appos",
          "governor": 9,
          "governorGloss": "scheinbaren",
          "dependent": 12,
          "dependentGloss": "Duncan"
        },
        {
          "dep": "nmod",
          "governor": 7,
          "governorGloss": "Virus-Symptome",
          "dependent": 13,
          "dependentGloss": "Kontakt"
        }
      ],
      "tokens": [
        {
          "index": 1,
          "word": "Ebola",
          "originalText": "Ebola",
          "characterOffsetBegin": 0,
          "characterOffsetEnd": 5,
          "pos": "NE",
          "before": "",
          "after": " "
        },
        {
          "index": 2,
          "word": "Frisco",
          "originalText": "Frisco",
          "characterOffsetBegin": 6,
          "characterOffsetEnd": 12,
          "pos": "NE",
          "before": " ",
          "after": " "
        },
        {
          "index": 3,
          "word": "2014",
          "originalText": "2014",
          "characterOffsetBegin": 13,
          "characterOffsetEnd": 17,
          "pos": "CARD",
          "before": " ",
          "after": ""
        },
        {
          "index": 4,
          "word": ":",
          "originalText": ":",
          "characterOffsetBegin": 17,
          "characterOffsetEnd": 18,
          "pos": "$.",
          "before": "",
          "after": " "
        },
        {
          "index": 5,
          "word": "Patient",
          "originalText": "Patient",
          "characterOffsetBegin": 19,
          "characterOffsetEnd": 26,
          "pos": "NN",
          "before": " ",
          "after": " "
        },
        {
          "index": 6,
          "word": "zeigt",
          "originalText": "zeigt",
          "characterOffsetBegin": 27,
          "characterOffsetEnd": 32,
          "pos": "VVFIN",
          "before": " ",
          "after": " "
        },
        {
          "index": 7,
          "word": "Virus-Symptome",
          "originalText": "Virus-Symptome",
          "characterOffsetBegin": 33,
          "characterOffsetEnd": 47,
          "pos": "NN",
          "before": " ",
          "after": " "
        },
        {
          "index": 8,
          "word": "nach",
          "originalText": "nach",
          "characterOffsetBegin": 48,
          "characterOffsetEnd": 52,
          "pos": "APPR",
          "before": " ",
          "after": " "
        },
        {
          "index": 9,
          "word": "scheinbaren",
          "originalText": "scheinbaren",
          "characterOffsetBegin": 53,
          "characterOffsetEnd": 64,
          "pos": "ADJA",
          "before": " ",
          "after": " "
        },
        {
          "index": 10,
          "word": "Thomas",
          "originalText": "Thomas",
          "characterOffsetBegin": 65,
          "characterOffsetEnd": 71,
          "pos": "NE",
          "before": " ",
          "after": " "
        },
        {
          "index": 11,
          "word": "Eric",
          "originalText": "Eric",
          "characterOffsetBegin": 72,
          "characterOffsetEnd": 76,
          "pos": "NE",
          "before": " ",
          "after": " "
        },
        {
          "index": 12,
          "word": "Duncan",
          "originalText": "Duncan",
          "characterOffsetBegin": 77,
          "characterOffsetEnd": 83,
          "pos": "NE",
          "before": " ",
          "after": " "
        },
        {
          "index": 13,
          "word": "Kontakt",
          "originalText": "Kontakt",
          "characterOffsetBegin": 84,
          "characterOffsetEnd": 91,
          "pos": "NN",
          "before": " ",
          "after": ""
        }
      ]
    }
  ]
}