{
  "sentences": [
    {
      "index": 0,
      "basicDependencies": [
        {
          "dep": "ROOT",
          "governor": 0,
          "governorGloss": "ROOT",
          "dependent": 1,
          "dependentGloss": "Bericht"
        },
        {
          "dep": "punct",
          "governor": 1,
          "governorGloss": "Bericht",
          "dependent": 2,
          "dependentGloss": ":"
        },
        {
          "dep": "nsubj",
          "governor": 4,
          "governorGloss": "zeigt",
          "dependent": 3,
          "dependentGloss": "Audio"
        },
        {
          "dep": "parataxis",
          "governor": 1,
          "governorGloss": "Bericht",
          "dependent": 4,
          "dependentGloss": "zeigt"
        },
        {
          "dep": "dobj",
          "governor": 4,
          "governorGloss": "zeigt",
          "dependent": 5,
          "dependentGloss": "Pause"
        },
        {
          "dep": "case",
          "governor": 7,
          "governorGloss": "Gunshots",
          "dependent": 6,
          "dependentGloss": "zwischen"
        },
        {
          "dep": "nmod",
          "governor": 5,
          "governorGloss": "Pause",
          "dependent": 7,
          "dependentGloss": "Gunshots"
        },
        {
          "dep": "punct",
          "governor": 4,
          "governorGloss": "zeigt",
          "dependent": 8,
          "dependentGloss": ","
        },
        {
          "dep": "mark",
          "governor": 13,
          "governorGloss": "erschossen",
          "dependent": 9,
          "dependentGloss": "wenn"
        },
        {
          "dep": "name",
          "governor": 11,
          "governorGloss": "Brown",
          "dependent": 10,
          "dependentGloss": "Michael"
        },
        {
          "dep": "nsubj",
          "governor": 13,
          "governorGloss": "erschossen",
          "dependent": 11,
          "dependentGloss": "Brown"
        },
        {
          "dep": "cop",
          "governor": 13,
          "governorGloss": "erschossen",
          "dependent": 12,
          "dependentGloss": "war"
        },
        {
          "dep": "advcl",
          "governor": 4,
          "governorGloss": "zeigt",
          "dependent": 13,
          "dependentGloss": "erschossen"
        }
      ],
      "enhancedDependencies": [
        {
          "dep": "ROOT",
          "governor": 0,
          "governorGloss": "ROOT",
          "dependent": 1,
          "dependentGloss": "Bericht"
        },
        {
          "dep": "punct",
          "governor": 1,
          "governorGloss": "Bericht",
          "dependent": 2,
          "dependentGloss": ":"
        },
        {
          "dep": "nsubj",
          "governor": 4,
          "governorGloss": "zeigt",
          "dependent": 3,
          "dependentGloss": "Audio"
        },
        {
          "dep": "parataxis",
          "governor": 1,
          "governorGloss": "Bericht",
          "dependent": 4,
          "dependentGloss": "zeigt"
        },
        {
          "dep": "dobj",
          "governor": 4,
          "governorGloss": "zeigt",
          "dependent": 5,
          "dependentGloss": "Pause"
        },
        {
          "dep": "case",
          "governor": 7,
          "governorGloss": "Gunshots",
          "dependent": 6,
          "dependentGloss": "zwischen"
        },
        {
          "dep": "nmod",
          "governor": 5,
          "governorGloss": "Pause",
          "dependent": 7,
          "dependentGloss": "Gunshots"
        },
        {
          "dep": "punct",
          "governor": 4,
          "governorGloss": "zeigt",
          "dependent": 8,
          "dependentGloss": ","
        },
        {
          "dep": "mark",
          "governor": 13,
          "governorGloss": "erschossen",
          "dependent": 9,
          "dependentGloss": "wenn"
        },
        {
          "dep": "name",
          "governor": 11,
          "governorGloss": "Brown",
          "dependent": 10,
          "dependentGloss": "Michael"
        },
        {
          "dep": "nsubj",
          "governor": 13,
          "governorGloss": "erschossen",
          "dependent": 11,
          "dependentGloss": "Brown"
        },
        {
          "dep": "cop",
          "governor": 13,
          "governorGloss": "erschossen",
          "dependent": 12,
          "dependentGloss": "war"
        },
        {
          "dep": "advcl",
          "governor": 4,
          "governorGloss": "zeigt",
          "dependent": 13,
          "dependentGloss": "erschossen"
        }
      ],
      "enhancedPlusPlusDependencies": [
        {
          "dep": "ROOT",
          "governor": 0,
          "governorGloss": "ROOT",
          "dependent": 1,
          "dependentGloss": "Bericht"
        },
        {
          "dep": "punct",
          "governor": 1,
          "governorGloss": "Bericht",
          "dependent": 2,
          "dependentGloss": ":"
        },
        {
          "dep": "nsubj",
          "governor": 4,
          "governorGloss": "zeigt",
          "dependent": 3,
          "dependentGloss": "Audio"
        },
        {
          "dep": "parataxis",
          "governor": 1,
          "governorGloss": "Bericht",
          "dependent": 4,
          "dependentGloss": "zeigt"
        },
        {
          "dep": "dobj",
          "governor": 4,
          "governorGloss": "zeigt",
          "dependent": 5,
          "dependentGloss": "Pause"
        },
        {
          "dep": "case",
          "governor": 7,
          "governorGloss": "Gunshots",
          "dependent": 6,
          "dependentGloss": "zwischen"
        },
        {
          "dep": "nmod",
          "governor": 5,
          "governorGloss": "Pause",
          "dependent": 7,
          "dependentGloss": "Gunshots"
        },
        {
          "dep": "punct",
          "governor": 4,
          "governorGloss": "zeigt",
          "dependent": 8,
          "dependentGloss": ","
        },
        {
          "dep": "mark",
          "governor": 13,
          "governorGloss": "erschossen",
          "dependent": 9,
          "dependentGloss": "wenn"
        },
        {
          "dep": "name",
          "governor": 11,
          "governorGloss": "Brown",
          "dependent": 10,
          "dependentGloss": "Michael"
        },
        {
          "dep": "nsubj",
          "governor": 13,
          "governorGloss": "erschossen",
          "dependent": 11,
          "dependentGloss": "Brown"
        },
        {
          "dep": "cop",
          "governor": 13,
          "governorGloss": "erschossen",
          "dependent": 12,
          "dependentGloss": "war"
        },
        {
          "dep": "advcl",
          "governor": 4,
          "governorGloss": "zeigt",
          "dependent": 13,
          "dependentGloss": "erschossen"
        }
      ],
      "tokens": [
        {
          "index": 1,
          "word": "Bericht",
          "originalText": "Bericht",
          "characterOffsetBegin": 0,
          "characterOffsetEnd": 7,
          "pos": "NN",
          "before": "",
          "after": ""
        },
        {
          "index": 2,
          "word": ":",
          "originalText": ":",
          "characterOffsetBegin": 7,
          "characterOffsetEnd": 8,
          "pos": "$.",
          "before": "",
          "after": " "
        },
        {
          "index": 3,
          "word": "Audio",
          "originalText": "Audio",
          "characterOffsetBegin": 9,
          "characterOffsetEnd": 14,
          "pos": "FM",
          "before": " ",
          "after": " "
        },
        {
          "index": 4,
          "word": "zeigt",
          "originalText": "zeigt",
          "characterOffsetBegin": 15,
          "characterOffsetEnd": 20,
          "pos": "VVFIN",
          "before": " ",
          "after": " "
        },
        {
          "index": 5,
          "word": "Pause",
          "originalText": "Pause",
          "characterOffsetBegin": 21,
          "characterOffsetEnd": 26,
          "pos": "NN",
          "before": " ",
          "after": " "
        },
        {
          "index": 6,
          "word": "zwischen",
          "originalText": "zwischen",
          "characterOffsetBegin": 27,
          "characterOffsetEnd": 35,
          "pos": "APPR",
          "before": " ",
          "after": " "
        },
        {
          "index": 7,
          "word": "Gunshots",
          "originalText": "Gunshots",
          "characterOffsetBegin": 36,
          "characterOffsetEnd": 44,
          "pos": "NE",
          "before": " ",
          "after": ""
        },
        {
          "index": 8,
          "word": ",",
          "originalText": ",",
          "characterOffsetBegin": 44,
          "characterOffsetEnd": 45,
          "pos": "$,",
          "before": "",
          "after": " "
        },
        {
          "index": 9,
          "word": "wenn",
          "originalText": "wenn",
          "characterOffsetBegin": 46,
          "characterOffsetEnd": 50,
          "pos": "KOUS",
          "before": " ",
          "after": " "
        },
        {
          "index": 10,
          "word": "Michael",
          "originalText": "Michael",
          "characterOffsetBegin": 51,
          "characterOffsetEnd": 58,
          "pos": "NE",
          "before": " ",
          "after": " "
        },
        {
          "index": 11,
          "word": "Brown",
          "originalText": "Brown",
          "characterOffsetBegin": 59,
          "characterOffsetEnd": 64,
          "pos": "NE",
          "before": " ",
          "after": " "
        },
        {
          "index": 12,
          "word": "war",
          "originalText": "war",
          "characterOffsetBegin": 65,
          "characterOffsetEnd": 68,
          "pos": "VAFIN",
          "before": " ",
          "after": " "
        },
        {
          "index": 13,
          "word": "erschossen",
          "originalText": "erschossen",
          "characterOffsetBegin": 69,
          "characterOffsetEnd": 79,
          "pos": "VVPP",
          "before": " ",
          "after": ""
        }
      ]
    }
  ]
}