{
  "sentences": [
    {
      "index": 0,
      "basicDependencies": [
        {
          "dep": "ROOT",
          "governor": 0,
          "governorGloss": "ROOT",
          "dependent": 4,
          "dependentGloss": "sagte"
        },
        {
          "dep": "amod",
          "governor": 3,
          "governorGloss": "Ziegelstein-Mörserspeicher",
          "dependent": 1,
          "dependentGloss": "Amazonas"
        },
        {
          "dep": "amod",
          "governor": 3,
          "governorGloss": "Ziegelstein-Mörserspeicher",
          "dependent": 2,
          "dependentGloss": "erster"
        },
        {
          "dep": "nsubj",
          "governor": 4,
          "governorGloss": "sagte",
          "dependent": 3,
          "dependentGloss": "Ziegelstein-Mörserspeicher"
        },
        {
          "dep": "case",
          "governor": 6,
          "governorGloss": "Manhattan",
          "dependent": 5,
          "dependentGloss": "in"
        },
        {
          "dep": "nmod",
          "governor": 4,
          "governorGloss": "sagte",
          "dependent": 6,
          "dependentGloss": "Manhattan"
        },
        {
          "dep": "aux",
          "governor": 8,
          "governorGloss": "öffnen",
          "dependent": 7,
          "dependentGloss": "zu"
        },
        {
          "dep": "acl",
          "governor": 4,
          "governorGloss": "sagte",
          "dependent": 8,
          "dependentGloss": "öffnen"
        }
      ],
      "enhancedDependencies": [
        {
          "dep": "ROOT",
          "governor": 0,
          "governorGloss": "ROOT",
          "dependent": 4,
          "dependentGloss": "sagte"
        },
        {
          "dep": "amod",
          "governor": 3,
          "governorGloss": "Ziegelstein-Mörserspeicher",
          "dependent": 1,
          "dependentGloss": "Amazonas"
        },
        {
          "dep": "amod",
          "governor": 3,
          "governorGloss": "Ziegelstein-Mörserspeicher",
          "dependent": 2,
          "dependentGloss": "erster"
        },
        {
          "dep": "nsubj",
          "governor": 4,
          "governorGloss": "sagte",
          "dependent": 3,
          "dependentGloss": "Ziegelstein-Mörserspeicher"
        },
        {
          "dep": "case",
          "governor": 6,
          "governorGloss": "Manhattan",
          "dependent": 5,
          "dependentGloss": "in"
        },
        {
          "dep": "nmod",
          "governor": 4,
          "governorGloss": "sagte",
          "dependent": 6,
          "dependentGloss": "Manhattan"
        },
        {
          "dep": "aux",
          "governor": 8,
          "governorGloss": "öffnen",
          "dependent": 7,
          "dependentGloss": "zu"
        },
        {
          "dep": "acl",
          "governor": 4,
          "governorGloss": "sagte",
          "dependent": 8,
          "dependentGloss": "öffnen"
        }
      ],
      "enhancedPlusPlusDependencies": [
        {
          "dep": "ROOT",
          "governor": 0,
          "governorGloss": "ROOT",
          "dependent": 4,
          "dependentGloss": "sagte"
        },
        {
          "dep": "amod",
          "governor": 3,
          "governorGloss": "Ziegelstein-Mörserspeicher",
          "dependent": 1,
          "dependentGloss": "Amazonas"
        },
        {
          "dep": "amod",
          "governor": 3,
          "governorGloss": "Ziegelstein-Mörserspeicher",
          "dependent": 2,
          "dependentGloss": "erster"
        },
        {
          "dep": "nsubj",
          "governor": 4,
          "governorGloss": "sagte",
          "dependent": 3,
          "dependentGloss": "Ziegelstein-Mörserspeicher"
        },
        {
          "dep": "case",
          "governor": 6,
          "governorGloss": "Manhattan",
          "dependent": 5,
          "dependentGloss": "in"
        },
        {
          "dep": "nmod",
          "governor": 4,
          "governorGloss": "sagte",
          "dependent": 6,
          "dependentGloss": "Manhattan"
        },
        {
          "dep": "aux",
          "governor": 8,
          "governorGloss": "öffnen",
          "dependent": 7,
          "dependentGloss": "zu"
        },
        {
          "dep": "acl",
          "governor": 4,
          "governorGloss": "sagte",
          "dependent": 8,
          "dependentGloss": "öffnen"
        }
      ],
      "tokens": [
        {
          "index": 1,
          "word": "Amazonas",
          "originalText": "Amazonas",
          "characterOffsetBegin": 0,
          "characterOffsetEnd": 8,
          "pos": "NE",
          "before": "",
          "after": " "
        },
        {
          "index": 2,
          "word": "erster",
          "originalText": "erster",
          "characterOffsetBegin": 9,
          "characterOffsetEnd": 15,
          "pos": "ADJA",
          "before": " ",
          "after": " "
        },
        {
          "index": 3,
          "word": "Ziegelstein-Mörserspeicher",
          "originalText": "Ziegelstein-Mörserspeicher",
          "characterOffsetBegin": 16,
          "characterOffsetEnd": 42,
          "pos": "NN",
          "before": " ",
          "after": " "
        },
        {
          "index": 4,
          "word": "sagte",
          "originalText": "sagte",
          "characterOffsetBegin": 43,
          "characterOffsetEnd": 48,
          "pos": "VVFIN",
          "before": " ",
          "after": " "
        },
        {
          "index": 5,
          "word": "in",
          "originalText": "in",
          "characterOffsetBegin": 49,
          "characterOffsetEnd": 51,
          "pos": "APPR",
          "before": " ",
          "after": " "
        },
        {
          "index": 6,
          "word": "Manhattan",
          "originalText": "Manhattan",
          "characterOffsetBegin": 52,
          "characterOffsetEnd": 61,
          "pos": "NE",
          "before": " ",
          "after": " "
        },
        {
          "index": 7,
          "word": "zu",
          "originalText": "zu",
          "characterOffsetBegin": 62,
          "characterOffsetEnd": 64,
          "pos": "PTKZU",
          "before": " ",
          "after": " "
        },
        {
          "index": 8,
          "word": "öffnen",
          "originalText": "öffnen",
          "characterOffsetBegin": 65,
          "characterOffsetEnd": 71,
          "pos": "VVINF",
          "before": " ",
          "after": ""
        }
      ]
    }
  ]
}