{
  "sentences": [
    {
      "index": 0,
      "basicDependencies": [
        {
          "dep": "ROOT",
          "governor": 0,
          "governorGloss": "ROOT",
          "dependent": 1,
          "dependentGloss": "Angeblich"
        },
        {
          "dep": "dobj",
          "governor": 1,
          "governorGloss": "Angeblich",
          "dependent": 2,
          "dependentGloss": "Audio"
        },
        {
          "dep": "case",
          "governor": 5,
          "governorGloss": "Brown",
          "dependent": 3,
          "dependentGloss": "von"
        },
        {
          "dep": "name",
          "governor": 5,
          "governorGloss": "Brown",
          "dependent": 4,
          "dependentGloss": "Michael"
        },
        {
          "dep": "nmod",
          "governor": 6,
          "governorGloss": "Schießen",
          "dependent": 5,
          "dependentGloss": "Brown"
        },
        {
          "dep": "acl",
          "governor": 2,
          "governorGloss": "Audio",
          "dependent": 6,
          "dependentGloss": "Schießen"
        },
        {
          "dep": "aux",
          "governor": 6,
          "governorGloss": "Schießen",
          "dependent": 7,
          "dependentGloss": "hat"
        },
        {
          "dep": "nsubj",
          "governor": 6,
          "governorGloss": "Schießen",
          "dependent": 8,
          "dependentGloss": "aufgetaucht"
        }
      ],
      "enhancedDependencies": [
        {
          "dep": "ROOT",
          "governor": 0,
          "governorGloss": "ROOT",
          "dependent": 1,
          "dependentGloss": "Angeblich"
        },
        {
          "dep": "dobj",
          "governor": 1,
          "governorGloss": "Angeblich",
          "dependent": 2,
          "dependentGloss": "Audio"
        },
        {
          "dep": "case",
          "governor": 5,
          "governorGloss": "Brown",
          "dependent": 3,
          "dependentGloss": "von"
        },
        {
          "dep": "name",
          "governor": 5,
          "governorGloss": "Brown",
          "dependent": 4,
          "dependentGloss": "Michael"
        },
        {
          "dep": "nmod",
          "governor": 6,
          "governorGloss": "Schießen",
          "dependent": 5,
          "dependentGloss": "Brown"
        },
        {
          "dep": "acl",
          "governor": 2,
          "governorGloss": "Audio",
          "dependent": 6,
          "dependentGloss": "Schießen"
        },
        {
          "dep": "aux",
          "governor": 6,
          "governorGloss": "Schießen",
          "dependent": 7,
          "dependentGloss": "hat"
        },
        {
          "dep": "nsubj",
          "governor": 6,
          "governorGloss": "Schießen",
          "dependent": 8,
          "dependentGloss": "aufgetaucht"
        }
      ],
      "enhancedPlusPlusDependencies": [
        {
          "dep": "ROOT",
          "governor": 0,
          "governorGloss": "ROOT",
          "dependent": 1,
          "dependentGloss": "Angeblich"
        },
        {
          "dep": "dobj",
          "governor": 1,
          "governorGloss": "Angeblich",
          "dependent": 2,
          "dependentGloss": "Audio"
        },
        {
          "dep": "case",
          "governor": 5,
          "governorGloss": "Brown",
          "dependent": 3,
          "dependentGloss": "von"
        },
        {
          "dep": "name",
          "governor": 5,
          "governorGloss": "Brown",
          "dependent": 4,
          "dependentGloss": "Michael"
        },
        {
          "dep": "nmod",
          "governor": 6,
          "governorGloss": "Schießen",
          "dependent": 5,
          "dependentGloss": "Brown"
        },
        {
          "dep": "acl",
          "governor": 2,
          "governorGloss": "Audio",
          "dependent": 6,
          "dependentGloss": "Schießen"
        },
        {
          "dep": "aux",
          "governor": 6,
          "governorGloss": "Schießen",
          "dependent": 7,
          "dependentGloss": "hat"
        },
        {
          "dep": "nsubj",
          "governor": 6,
          "governorGloss": "Schießen",
          "dependent": 8,
          "dependentGloss": "aufgetaucht"
        }
      ],
      "tokens": [
        {
          "index": 1,
          "word": "Angeblich",
          "originalText": "Angeblich",
          "characterOffsetBegin": 0,
          "characterOffsetEnd": 9,
          "pos": "ADJD",
          "before": "",
          "after": " "
        },
        {
          "index": 2,
          "word": "Audio",
          "originalText": "Audio",
          "characterOffsetBegin": 10,
          "characterOffsetEnd": 15,
          "pos": "NN",
          "before": " ",
          "after": " "
        },
        {
          "index": 3,
          "word": "von",
          "originalText": "von",
          "characterOffsetBegin": 16,
          "characterOffsetEnd": 19,
          "pos": "APPR",
          "before": " ",
          "after": " "
        },
        {
          "index": 4,
          "word": "Michael",
          "originalText": "Michael",
          "characterOffsetBegin": 20,
          "characterOffsetEnd": 27,
          "pos": "NE",
          "before": " ",
          "after": " "
        },
        {
          "index": 5,
          "word": "Brown",
          "originalText": "Brown",
          "characterOffsetBegin": 28,
          "characterOffsetEnd": 33,
          "pos": "NE",
          "before": " ",
          "after": " "
        },
        {
          "index": 6,
          "word": "Schießen",
          "originalText": "Schießen",
          "characterOffsetBegin": 34,
          "characterOffsetEnd": 42,
          "pos": "VVINF",
          "before": " ",
          "after": " "
        },
        {
          "index": 7,
          "word": "hat",
          "originalText": "hat",
          "characterOffsetBegin": 43,
          "characterOffsetEnd": 46,
          "pos": "VAFIN",
          "before": " ",
          "after": " "
        },
        {
          "index": 8,
          "word": "aufgetaucht",
          "originalText": "aufgetaucht",
          "characterOffsetBegin": 47,
          "characterOffsetEnd": 58,
          "pos": "VVPP",
          "before": " ",
          "after": ""
        }
      ]
    }
  ]
}