{
  "sentences": [
    {
      "index": 0,
      "basicDependencies": [
        {
          "dep": "ROOT",
          "governor": 0,
          "governorGloss": "ROOT",
          "dependent": 1,
          "dependentGloss": "ISIS-Kämpfer"
        },
        {
          "dep": "case",
          "governor": 1,
          "governorGloss": "ISIS-Kämpfer",
          "dependent": 2,
          "dependentGloss": "haben"
        },
        {
          "dep": "dobj",
          "governor": 2,
          "governorGloss": "haben",
          "dependent": 3,
          "dependentGloss": "Ebola"
        },
        {
          "dep": "appos",
          "governor": 3,
          "governorGloss": "Ebola",
          "dependent": 4,
          "dependentGloss": "vergeben"
        },
        {
          "dep": "punct",
          "governor": 7,
          "governorGloss": "Weltgesundheitsorganisation",
          "dependent": 5,
          "dependentGloss": "``"
        },
        {
          "dep": "punct",
          "governor": 7,
          "governorGloss": "Weltgesundheitsorganisation",
          "dependent": 6,
          "dependentGloss": ":"
        },
        {
          "dep": "appos",
          "governor": 4,
          "governorGloss": "vergeben",
          "dependent": 7,
          "dependentGloss": "Weltgesundheitsorganisation"
        },
        {
          "dep": "name",
          "governor": 10,
          "governorGloss": "Militanten",
          "dependent": 8,
          "dependentGloss": "untersucht"
        },
        {
          "dep": "name",
          "governor": 10,
          "governorGloss": "Militanten",
          "dependent": 9,
          "dependentGloss": "Berichte"
        },
        {
          "dep": "appos",
          "governor": 7,
          "governorGloss": "Weltgesundheitsorganisation",
          "dependent": 10,
          "dependentGloss": "Militanten"
        },
        {
          "dep": "appos",
          "governor": 7,
          "governorGloss": "Weltgesundheitsorganisation",
          "dependent": 11,
          "dependentGloss": "zeigten"
        },
        {
          "dep": "dobj",
          "governor": 11,
          "governorGloss": "zeigten",
          "dependent": 12,
          "dependentGloss": "sich"
        },
        {
          "dep": "amod",
          "governor": 15,
          "governorGloss": "Krankenhaus",
          "dependent": 13,
          "dependentGloss": "im"
        },
        {
          "dep": "amod",
          "governor": 15,
          "governorGloss": "Krankenhaus",
          "dependent": 14,
          "dependentGloss": "irakischen"
        },
        {
          "dep": "acl",
          "governor": 12,
          "governorGloss": "sich",
          "dependent": 15,
          "dependentGloss": "Krankenhaus"
        },
        {
          "dep": "case",
          "governor": 18,
          "governorGloss": "Krankheit",
          "dependent": 16,
          "dependentGloss": "mit"
        },
        {
          "dep": "amod",
          "governor": 18,
          "governorGloss": "Krankheit",
          "dependent": 17,
          "dependentGloss": "tödlicher"
        },
        {
          "dep": "nmod",
          "governor": 15,
          "governorGloss": "Krankenhaus",
          "dependent": 18,
          "dependentGloss": "Krankheit"
        }
      ],
      "enhancedDependencies": [
        {
          "dep": "ROOT",
          "governor": 0,
          "governorGloss": "ROOT",
          "dependent": 1,
          "dependentGloss": "ISIS-Kämpfer"
        },
        {
          "dep": "case",
          "governor": 1,
          "governorGloss": "ISIS-Kämpfer",
          "dependent": 2,
          "dependentGloss": "haben"
        },
        {
          "dep": "dobj",
          "governor": 2,
          "governorGloss": "haben",
          "dependent": 3,
          "dependentGloss": "Ebola"
        },
        {
          "dep": "appos",
          "governor": 3,
          "governorGloss": "Ebola",
          "dependent": 4,
          "dependentGloss": "vergeben"
        },
        {
          "dep": "punct",
          "governor": 7,
          "governorGloss": "Weltgesundheitsorganisation",
          "dependent": 5,
          "dependentGloss": "``"
        },
        {
          "dep": "punct",
          "governor": 7,
          "governorGloss": "Weltgesundheitsorganisation",
          "dependent": 6,
          "dependentGloss": ":"
        },
        {
          "dep": "appos",
          "governor": 4,
          "governorGloss": "vergeben",
          "dependent": 7,
          "dependentGloss": "Weltgesundheitsorganisation"
        },
        {
          "dep": "name",
          "governor": 10,
          "governorGloss": "Militanten",
          "dependent": 8,
          "dependentGloss": "untersucht"
        },
        {
          "dep": "name",
          "governor": 10,
          "governorGloss": "Militanten",
          "dependent": 9,
          "dependentGloss": "Berichte"
        },
        {
          "dep": "appos",
          "governor": 7,
          "governorGloss": "Weltgesundheitsorganisation",
          "dependent": 10,
          "dependentGloss": "Militanten"
        },
        {
          "dep": "appos",
          "governor": 7,
          "governorGloss": "Weltgesundheitsorganisation",
          "dependent": 11,
          "dependentGloss": "zeigten"
        },
        {
          "dep": "dobj",
          "governor": 11,
          "governorGloss": "zeigten",
          "dependent": 12,
          "dependentGloss": "sich"
        },
        {
          "dep": "amod",
          "governor": 15,
          "governorGloss": "Krankenhaus",
          "dependent": 13,
          "dependentGloss": "im"
        },
        {
          "dep": "amod",
          "governor": 15,
          "governorGloss": "Krankenhaus",
          "dependent": 14,
          "dependentGloss": "irakischen"
        },
        {
          "dep": "acl",
          "governor": 12,
          "governorGloss": "sich",
          "dependent": 15,
          "dependentGloss": "Krankenhaus"
        },
        {
          "dep": "case",
          "governor": 18,
          "governorGloss": "Krankheit",
          "dependent": 16,
          "dependentGloss": "mit"
        },
        {
          "dep": "amod",
          "governor": 18,
          "governorGloss": "Krankheit",
          "dependent": 17,
          "dependentGloss": "tödlicher"
        },
        {
          "dep": "nmod",
          "governor": 15,
          "governorGloss": "Krankenhaus",
          "dependent": 18,
          "dependentGloss": "Krankheit"
        }
      ],
      "enhancedPlusPlusDependencies": [
        {
          "dep": "ROOT",
          "governor": 0,
          "governorGloss": "ROOT",
          "dependent": 1,
          "dependentGloss": "ISIS-Kämpfer"
        },
        {
          "dep": "case",
          "governor": 1,
          "governorGloss": "ISIS-Kämpfer",
          "dependent": 2,
          "dependentGloss": "haben"
        },
        {
          "dep": "dobj",
          "governor": 2,
          "governorGloss": "haben",
          "dependent": 3,
          "dependentGloss": "Ebola"
        },
        {
          "dep": "appos",
          "governor": 3,
          "governorGloss": "Ebola",
          "dependent": 4,
          "dependentGloss": "vergeben"
        },
        {
          "dep": "punct",
          "governor": 7,
          "governorGloss": "Weltgesundheitsorganisation",
          "dependent": 5,
          "dependentGloss": "``"
        },
        {
          "dep": "punct",
          "governor": 7,
          "governorGloss": "Weltgesundheitsorganisation",
          "dependent": 6,
          "dependentGloss": ":"
        },
        {
          "dep": "appos",
          "governor": 4,
          "governorGloss": "vergeben",
          "dependent": 7,
          "dependentGloss": "Weltgesundheitsorganisation"
        },
        {
          "dep": "name",
          "governor": 10,
          "governorGloss": "Militanten",
          "dependent": 8,
          "dependentGloss": "untersucht"
        },
        {
          "dep": "name",
          "governor": 10,
          "governorGloss": "Militanten",
          "dependent": 9,
          "dependentGloss": "Berichte"
        },
        {
          "dep": "appos",
          "governor": 7,
          "governorGloss": "Weltgesundheitsorganisation",
          "dependent": 10,
          "dependentGloss": "Militanten"
        },
        {
          "dep": "appos",
          "governor": 7,
          "governorGloss": "Weltgesundheitsorganisation",
          "dependent": 11,
          "dependentGloss": "zeigten"
        },
        {
          "dep": "dobj",
          "governor": 11,
          "governorGloss": "zeigten",
          "dependent": 12,
          "dependentGloss": "sich"
        },
        {
          "dep": "amod",
          "governor": 15,
          "governorGloss": "Krankenhaus",
          "dependent": 13,
          "dependentGloss": "im"
        },
        {
          "dep": "amod",
          "governor": 15,
          "governorGloss": "Krankenhaus",
          "dependent": 14,
          "dependentGloss": "irakischen"
        },
        {
          "dep": "acl",
          "governor": 12,
          "governorGloss": "sich",
          "dependent": 15,
          "dependentGloss": "Krankenhaus"
        },
        {
          "dep": "case",
          "governor": 18,
          "governorGloss": "Krankheit",
          "dependent": 16,
          "dependentGloss": "mit"
        },
        {
          "dep": "amod",
          "governor": 18,
          "governorGloss": "Krankheit",
          "dependent": 17,
          "dependentGloss": "tödlicher"
        },
        {
          "dep": "nmod",
          "governor": 15,
          "governorGloss": "Krankenhaus",
          "dependent": 18,
          "dependentGloss": "Krankheit"
        }
      ],
      "tokens": [
        {
          "index": 1,
          "word": "ISIS-Kämpfer",
          "originalText": "ISIS-Kämpfer",
          "characterOffsetBegin": 0,
          "characterOffsetEnd": 12,
          "pos": "NN",
          "before": "",
          "after": " "
        },
        {
          "index": 2,
          "word": "haben",
          "originalText": "haben",
          "characterOffsetBegin": 13,
          "characterOffsetEnd": 18,
          "pos": "VAFIN",
          "before": " ",
          "after": " "
        },
        {
          "index": 3,
          "word": "Ebola",
          "originalText": "Ebola",
          "characterOffsetBegin": 19,
          "characterOffsetEnd": 24,
          "pos": "NE",
          "before": " ",
          "after": " "
        },
        {
          "index": 4,
          "word": "vergeben",
          "originalText": "vergeben",
          "characterOffsetBegin": 25,
          "characterOffsetEnd": 33,
          "pos": "VVPP",
          "before": " ",
          "after": " "
        },
        {
          "index": 5,
          "word": "``",
          "originalText": "“",
          "characterOffsetBegin": 34,
          "characterOffsetEnd": 35,
          "pos": "CARD",
          "before": " ",
          "after": ""
        },
        {
          "index": 6,
          "word": ":",
          "originalText": ":",
          "characterOffsetBegin": 35,
          "characterOffsetEnd": 36,
          "pos": "$.",
          "before": "",
          "after": " "
        },
        {
          "index": 7,
          "word": "Weltgesundheitsorganisation",
          "originalText": "Weltgesundheitsorganisation",
          "characterOffsetBegin": 37,
          "characterOffsetEnd": 64,
          "pos": "NN",
          "before": " ",
          "after": " "
        },
        {
          "index": 8,
          "word": "untersucht",
          "originalText": "untersucht",
          "characterOffsetBegin": 65,
          "characterOffsetEnd": 75,
          "pos": "VVPP",
          "before": " ",
          "after": " "
        },
        {
          "index": 9,
          "word": "Berichte",
          "originalText": "Berichte",
          "characterOffsetBegin": 76,
          "characterOffsetEnd": 84,
          "pos": "NN",
          "before": " ",
          "after": " "
        },
        {
          "index": 10,
          "word": "Militanten",
          "originalText": "Militanten",
          "characterOffsetBegin": 85,
          "characterOffsetEnd": 95,
          "pos": "NN",
          "before": " ",
          "after": " "
        },
        {
          "index": 11,
          "word": "zeigten",
          "originalText": "zeigten",
          "characterOffsetBegin": 96,
          "characterOffsetEnd": 103,
          "pos": "VVFIN",
          "before": " ",
          "after": " "
        },
        {
          "index": 12,
          "word": "sich",
          "originalText": "sich",
          "characterOffsetBegin": 104,
          "characterOffsetEnd": 108,
          "pos": "PRF",
          "before": " ",
          "after": " "
        },
        {
          "index": 13,
          "word": "im",
          "originalText": "im",
          "characterOffsetBegin": 109,
          "characterOffsetEnd": 111,
          "pos": "APPRART",
          "before": " ",
          "after": " "
        },
        {
          "index": 14,
          "word": "irakischen",
          "originalText": "irakischen",
          "characterOffsetBegin": 112,
          "characterOffsetEnd": 122,
          "pos": "ADJA",
          "before": " ",
          "after": " "
        },
        {
          "index": 15,
          "word": "Krankenhaus",
          "originalText": "Krankenhaus",
          "characterOffsetBegin": 123,
          "characterOffsetEnd": 134,
          "pos": "NN",
          "before": " ",
          "after": " "
        },
        {
          "index": 16,
          "word": "mit",
          "originalText": "mit",
          "characterOffsetBegin": 135,
          "characterOffsetEnd": 138,
          "pos": "APPR",
          "before": " ",
          "after": " "
        },
        {
          "index": 17,
          "word": "tödlicher",
          "originalText": "tödlicher",
          "characterOffsetBegin": 139,
          "characterOffsetEnd": 148,
          "pos": "ADJA",
          "before": " ",
          "after": " "
        },
        {
          "index": 18,
          "word": "Krankheit",
          "originalText": "Krankheit",
          "characterOffsetBegin": 149,
          "characterOffsetEnd": 158,
          "pos": "NN",
          "before": " ",
          "after": ""
        }
      ]
    }
  ]
}