{
  "sentences": [
    {
      "index": 0,
      "basicDependencies": [
        {
          "dep": "ROOT",
          "governor": 0,
          "governorGloss": "ROOT",
          "dependent": 3,
          "dependentGloss": "schlägt"
        },
        {
          "dep": "amod",
          "governor": 2,
          "governorGloss": "Raumobjekt",
          "dependent": 1,
          "dependentGloss": "Großes"
        },
        {
          "dep": "nsubj",
          "governor": 3,
          "governorGloss": "schlägt",
          "dependent": 2,
          "dependentGloss": "Raumobjekt"
        },
        {
          "dep": "amod",
          "governor": 5,
          "governorGloss": "Hauptstadt",
          "dependent": 4,
          "dependentGloss": "Nicaraguas"
        },
        {
          "dep": "dobj",
          "governor": 3,
          "governorGloss": "schlägt",
          "dependent": 5,
          "dependentGloss": "Hauptstadt"
        },
        {
          "dep": "case",
          "governor": 7,
          "governorGloss": "Asteroid",
          "dependent": 6,
          "dependentGloss": "als"
        },
        {
          "dep": "nmod",
          "governor": 3,
          "governorGloss": "schlägt",
          "dependent": 7,
          "dependentGloss": "Asteroid"
        },
        {
          "dep": "advmod",
          "governor": 3,
          "governorGloss": "schlägt",
          "dependent": 8,
          "dependentGloss": "übergibt"
        },
        {
          "dep": "det",
          "governor": 10,
          "governorGloss": "Erde",
          "dependent": 9,
          "dependentGloss": "die"
        },
        {
          "dep": "dobj",
          "governor": 3,
          "governorGloss": "schlägt",
          "dependent": 10,
          "dependentGloss": "Erde"
        }
      ],
      "enhancedDependencies": [
        {
          "dep": "ROOT",
          "governor": 0,
          "governorGloss": "ROOT",
          "dependent": 3,
          "dependentGloss": "schlägt"
        },
        {
          "dep": "amod",
          "governor": 2,
          "governorGloss": "Raumobjekt",
          "dependent": 1,
          "dependentGloss": "Großes"
        },
        {
          "dep": "nsubj",
          "governor": 3,
          "governorGloss": "schlägt",
          "dependent": 2,
          "dependentGloss": "Raumobjekt"
        },
        {
          "dep": "amod",
          "governor": 5,
          "governorGloss": "Hauptstadt",
          "dependent": 4,
          "dependentGloss": "Nicaraguas"
        },
        {
          "dep": "dobj",
          "governor": 3,
          "governorGloss": "schlägt",
          "dependent": 5,
          "dependentGloss": "Hauptstadt"
        },
        {
          "dep": "case",
          "governor": 7,
          "governorGloss": "Asteroid",
          "dependent": 6,
          "dependentGloss": "als"
        },
        {
          "dep": "nmod",
          "governor": 3,
          "governorGloss": "schlägt",
          "dependent": 7,
          "dependentGloss": "Asteroid"
        },
        {
          "dep": "advmod",
          "governor": 3,
          "governorGloss": "schlägt",
          "dependent": 8,
          "dependentGloss": "übergibt"
        },
        {
          "dep": "det",
          "governor": 10,
          "governorGloss": "Erde",
          "dependent": 9,
          "dependentGloss": "die"
        },
        {
          "dep": "dobj",
          "governor": 3,
          "governorGloss": "schlägt",
          "dependent": 10,
          "dependentGloss": "Erde"
        }
      ],
      "enhancedPlusPlusDependencies": [
        {
          "dep": "ROOT",
          "governor": 0,
          "governorGloss": "ROOT",
          "dependent": 3,
          "dependentGloss": "schlägt"
        },
        {
          "dep": "amod",
          "governor": 2,
          "governorGloss": "Raumobjekt",
          "dependent": 1,
          "dependentGloss": "Großes"
        },
        {
          "dep": "nsubj",
          "governor": 3,
          "governorGloss": "schlägt",
          "dependent": 2,
          "dependentGloss": "Raumobjekt"
        },
        {
          "dep": "amod",
          "governor": 5,
          "governorGloss": "Hauptstadt",
          "dependent": 4,
          "dependentGloss": "Nicaraguas"
        },
        {
          "dep": "dobj",
          "governor": 3,
          "governorGloss": "schlägt",
          "dependent": 5,
          "dependentGloss": "Hauptstadt"
        },
        {
          "dep": "case",
          "governor": 7,
          "governorGloss": "Asteroid",
          "dependent": 6,
          "dependentGloss": "als"
        },
        {
          "dep": "nmod",
          "governor": 3,
          "governorGloss": "schlägt",
          "dependent": 7,
          "dependentGloss": "Asteroid"
        },
        {
          "dep": "advmod",
          "governor": 3,
          "governorGloss": "schlägt",
          "dependent": 8,
          "dependentGloss": "übergibt"
        },
        {
          "dep": "det",
          "governor": 10,
          "governorGloss": "Erde",
          "dependent": 9,
          "dependentGloss": "die"
        },
        {
          "dep": "dobj",
          "governor": 3,
          "governorGloss": "schlägt",
          "dependent": 10,
          "dependentGloss": "Erde"
        }
      ],
      "tokens": [
        {
          "index": 1,
          "word": "Großes",
          "originalText": "Großes",
          "characterOffsetBegin": 0,
          "characterOffsetEnd": 6,
          "pos": "ADJA",
          "before": "",
          "after": " "
        },
        {
          "index": 2,
          "word": "Raumobjekt",
          "originalText": "Raumobjekt",
          "characterOffsetBegin": 7,
          "characterOffsetEnd": 17,
          "pos": "NN",
          "before": " ",
          "after": " "
        },
        {
          "index": 3,
          "word": "schlägt",
          "originalText": "schlägt",
          "characterOffsetBegin": 18,
          "characterOffsetEnd": 25,
          "pos": "VVFIN",
          "before": " ",
          "after": " "
        },
        {
          "index": 4,
          "word": "Nicaraguas",
          "originalText": "Nicaraguas",
          "characterOffsetBegin": 26,
          "characterOffsetEnd": 36,
          "pos": "NE",
          "before": " ",
          "after": " "
        },
        {
          "index": 5,
          "word": "Hauptstadt",
          "originalText": "Hauptstadt",
          "characterOffsetBegin": 37,
          "characterOffsetEnd": 47,
          "pos": "NN",
          "before": " ",
          "after": " "
        },
        {
          "index": 6,
          "word": "als",
          "originalText": "als",
          "characterOffsetBegin": 48,
          "characterOffsetEnd": 51,
          "pos": "APPR",
          "before": " ",
          "after": " "
        },
        {
          "index": 7,
          "word": "Asteroid",
          "originalText": "Asteroid",
          "characterOffsetBegin": 52,
          "characterOffsetEnd": 60,
          "pos": "NN",
          "before": " ",
          "after": " "
        },
        {
          "index": 8,
          "word": "übergibt",
          "originalText": "übergibt",
          "characterOffsetBegin": 61,
          "characterOffsetEnd": 69,
          "pos": "VVFIN",
          "before": " ",
          "after": " "
        },
        {
          "index": 9,
          "word": "die",
          "originalText": "die",
          "characterOffsetBegin": 70,
          "characterOffsetEnd": 73,
          "pos": "ART",
          "before": " ",
          "after": " "
        },
        {
          "index": 10,
          "word": "Erde",
          "originalText": "Erde",
          "characterOffsetBegin": 74,
          "characterOffsetEnd": 78,
          "pos": "NN",
          "before": " ",
          "after": ""
        }
      ]
    }
  ]
}