{
  "sentences": [
    {
      "index": 0,
      "basicDependencies": [
        {
          "dep": "ROOT",
          "governor": 0,
          "governorGloss": "ROOT",
          "dependent": 2,
          "dependentGloss": "greifen"
        },
        {
          "dep": "nsubj",
          "governor": 2,
          "governorGloss": "greifen",
          "dependent": 1,
          "dependentGloss": "ISIS-Kämpfer"
        },
        {
          "dep": "dobj",
          "governor": 2,
          "governorGloss": "greifen",
          "dependent": 3,
          "dependentGloss": "Waffen-Airdrop"
        },
        {
          "dep": "case",
          "governor": 5,
          "governorGloss": "Kurden",
          "dependent": 4,
          "dependentGloss": "für"
        },
        {
          "dep": "nmod",
          "governor": 2,
          "governorGloss": "greifen",
          "dependent": 5,
          "dependentGloss": "Kurden"
        }
      ],
      "enhancedDependencies": [
        {
          "dep": "ROOT",
          "governor": 0,
          "governorGloss": "ROOT",
          "dependent": 2,
          "dependentGloss": "greifen"
        },
        {
          "dep": "nsubj",
          "governor": 2,
          "governorGloss": "greifen",
          "dependent": 1,
          "dependentGloss": "ISIS-Kämpfer"
        },
        {
          "dep": "dobj",
          "governor": 2,
          "governorGloss": "greifen",
          "dependent": 3,
          "dependentGloss": "Waffen-Airdrop"
        },
        {
          "dep": "case",
          "governor": 5,
          "governorGloss": "Kurden",
          "dependent": 4,
          "dependentGloss": "für"
        },
        {
          "dep": "nmod",
          "governor": 2,
          "governorGloss": "greifen",
          "dependent": 5,
          "dependentGloss": "Kurden"
        }
      ],
      "enhancedPlusPlusDependencies": [
        {
          "dep": "ROOT",
          "governor": 0,
          "governorGloss": "ROOT",
          "dependent": 2,
          "dependentGloss": "greifen"
        },
        {
          "dep": "nsubj",
          "governor": 2,
          "governorGloss": "greifen",
          "dependent": 1,
          "dependentGloss": "ISIS-Kämpfer"
        },
        {
          "dep": "dobj",
          "governor": 2,
          "governorGloss": "greifen",
          "dependent": 3,
          "dependentGloss": "Waffen-Airdrop"
        },
        {
          "dep": "case",
          "governor": 5,
          "governorGloss": "Kurden",
          "dependent": 4,
          "dependentGloss": "für"
        },
        {
          "dep": "nmod",
          "governor": 2,
          "governorGloss": "greifen",
          "dependent": 5,
          "dependentGloss": "Kurden"
        }
      ],
      "tokens": [
        {
          "index": 1,
          "word": "ISIS-Kämpfer",
          "originalText": "ISIS-Kämpfer",
          "characterOffsetBegin": 0,
          "characterOffsetEnd": 12,
          "pos": "NN",
          "before": "",
          "after": " "
        },
        {
          "index": 2,
          "word": "greifen",
          "originalText": "greifen",
          "characterOffsetBegin": 13,
          "characterOffsetEnd": 20,
          "pos": "VVFIN",
          "before": " ",
          "after": " "
        },
        {
          "index": 3,
          "word": "Waffen-Airdrop",
          "originalText": "Waffen-Airdrop",
          "characterOffsetBegin": 21,
          "characterOffsetEnd": 35,
          "pos": "NN",
          "before": " ",
          "after": " "
        },
        {
          "index": 4,
          "word": "für",
          "originalText": "für",
          "characterOffsetBegin": 36,
          "characterOffsetEnd": 39,
          "pos": "APPR",
          "before": " ",
          "after": " "
        },
        {
          "index": 5,
          "word": "Kurden",
          "originalText": "Kurden",
          "characterOffsetBegin": 40,
          "characterOffsetEnd": 46,
          "pos": "NN",
          "before": " ",
          "after": ""
        }
      ]
    }
  ]
}