{
  "sentences": [
    {
      "index": 0,
      "basicDependencies": [
        {
          "dep": "ROOT",
          "governor": 0,
          "governorGloss": "ROOT",
          "dependent": 11,
          "dependentGloss": "benannt"
        },
        {
          "dep": "name",
          "governor": 2,
          "governorGloss": "Henker",
          "dependent": 1,
          "dependentGloss": "ISIS"
        },
        {
          "dep": "dep",
          "governor": 11,
          "governorGloss": "benannt",
          "dependent": 2,
          "dependentGloss": "Henker"
        },
        {
          "dep": "punct",
          "governor": 11,
          "governorGloss": "benannt",
          "dependent": 3,
          "dependentGloss": "`"
        },
        {
          "dep": "name",
          "governor": 5,
          "governorGloss": "John",
          "dependent": 4,
          "dependentGloss": "Jihadi"
        },
        {
          "dep": "nsubjpass",
          "governor": 11,
          "governorGloss": "benannt",
          "dependent": 5,
          "dependentGloss": "John"
        },
        {
          "dep": "case",
          "governor": 5,
          "governorGloss": "John",
          "dependent": 6,
          "dependentGloss": "'"
        },
        {
          "dep": "auxpass",
          "governor": 11,
          "governorGloss": "benannt",
          "dependent": 7,
          "dependentGloss": "wird"
        },
        {
          "dep": "case",
          "governor": 10,
          "governorGloss": "Emwazi",
          "dependent": 8,
          "dependentGloss": "als"
        },
        {
          "dep": "name",
          "governor": 10,
          "governorGloss": "Emwazi",
          "dependent": 9,
          "dependentGloss": "Mohammed"
        },
        {
          "dep": "nmod",
          "governor": 11,
          "governorGloss": "benannt",
          "dependent": 10,
          "dependentGloss": "Emwazi"
        }
      ],
      "enhancedDependencies": [
        {
          "dep": "ROOT",
          "governor": 0,
          "governorGloss": "ROOT",
          "dependent": 11,
          "dependentGloss": "benannt"
        },
        {
          "dep": "name",
          "governor": 2,
          "governorGloss": "Henker",
          "dependent": 1,
          "dependentGloss": "ISIS"
        },
        {
          "dep": "dep",
          "governor": 11,
          "governorGloss": "benannt",
          "dependent": 2,
          "dependentGloss": "Henker"
        },
        {
          "dep": "punct",
          "governor": 11,
          "governorGloss": "benannt",
          "dependent": 3,
          "dependentGloss": "`"
        },
        {
          "dep": "name",
          "governor": 5,
          "governorGloss": "John",
          "dependent": 4,
          "dependentGloss": "Jihadi"
        },
        {
          "dep": "nsubjpass",
          "governor": 11,
          "governorGloss": "benannt",
          "dependent": 5,
          "dependentGloss": "John"
        },
        {
          "dep": "case",
          "governor": 5,
          "governorGloss": "John",
          "dependent": 6,
          "dependentGloss": "'"
        },
        {
          "dep": "auxpass",
          "governor": 11,
          "governorGloss": "benannt",
          "dependent": 7,
          "dependentGloss": "wird"
        },
        {
          "dep": "case",
          "governor": 10,
          "governorGloss": "Emwazi",
          "dependent": 8,
          "dependentGloss": "als"
        },
        {
          "dep": "name",
          "governor": 10,
          "governorGloss": "Emwazi",
          "dependent": 9,
          "dependentGloss": "Mohammed"
        },
        {
          "dep": "nmod",
          "governor": 11,
          "governorGloss": "benannt",
          "dependent": 10,
          "dependentGloss": "Emwazi"
        }
      ],
      "enhancedPlusPlusDependencies": [
        {
          "dep": "ROOT",
          "governor": 0,
          "governorGloss": "ROOT",
          "dependent": 11,
          "dependentGloss": "benannt"
        },
        {
          "dep": "name",
          "governor": 2,
          "governorGloss": "Henker",
          "dependent": 1,
          "dependentGloss": "ISIS"
        },
        {
          "dep": "dep",
          "governor": 11,
          "governorGloss": "benannt",
          "dependent": 2,
          "dependentGloss": "Henker"
        },
        {
          "dep": "punct",
          "governor": 11,
          "governorGloss": "benannt",
          "dependent": 3,
          "dependentGloss": "`"
        },
        {
          "dep": "name",
          "governor": 5,
          "governorGloss": "John",
          "dependent": 4,
          "dependentGloss": "Jihadi"
        },
        {
          "dep": "nsubjpass",
          "governor": 11,
          "governorGloss": "benannt",
          "dependent": 5,
          "dependentGloss": "John"
        },
        {
          "dep": "case",
          "governor": 5,
          "governorGloss": "John",
          "dependent": 6,
          "dependentGloss": "'"
        },
        {
          "dep": "auxpass",
          "governor": 11,
          "governorGloss": "benannt",
          "dependent": 7,
          "dependentGloss": "wird"
        },
        {
          "dep": "case",
          "governor": 10,
          "governorGloss": "Emwazi",
          "dependent": 8,
          "dependentGloss": "als"
        },
        {
          "dep": "name",
          "governor": 10,
          "governorGloss": "Emwazi",
          "dependent": 9,
          "dependentGloss": "Mohammed"
        },
        {
          "dep": "nmod",
          "governor": 11,
          "governorGloss": "benannt",
          "dependent": 10,
          "dependentGloss": "Emwazi"
        }
      ],
      "tokens": [
        {
          "index": 1,
          "word": "ISIS",
          "originalText": "ISIS",
          "characterOffsetBegin": 0,
          "characterOffsetEnd": 4,
          "pos": "NE",
          "before": "",
          "after": " "
        },
        {
          "index": 2,
          "word": "Henker",
          "originalText": "Henker",
          "characterOffsetBegin": 5,
          "characterOffsetEnd": 11,
          "pos": "NE",
          "before": " ",
          "after": " "
        },
        {
          "index": 3,
          "word": "`",
          "originalText": "'",
          "characterOffsetBegin": 12,
          "characterOffsetEnd": 13,
          "pos": "CARD",
          "before": " ",
          "after": ""
        },
        {
          "index": 4,
          "word": "Jihadi",
          "originalText": "Jihadi",
          "characterOffsetBegin": 13,
          "characterOffsetEnd": 19,
          "pos": "NN",
          "before": "",
          "after": " "
        },
        {
          "index": 5,
          "word": "John",
          "originalText": "John",
          "characterOffsetBegin": 20,
          "characterOffsetEnd": 24,
          "pos": "NE",
          "before": " ",
          "after": ""
        },
        {
          "index": 6,
          "word": "'",
          "originalText": "'",
          "characterOffsetBegin": 24,
          "characterOffsetEnd": 25,
          "pos": "$[",
          "before": "",
          "after": " "
        },
        {
          "index": 7,
          "word": "wird",
          "originalText": "wird",
          "characterOffsetBegin": 26,
          "characterOffsetEnd": 30,
          "pos": "VAFIN",
          "before": " ",
          "after": " "
        },
        {
          "index": 8,
          "word": "als",
          "originalText": "als",
          "characterOffsetBegin": 31,
          "characterOffsetEnd": 34,
          "pos": "APPR",
          "before": " ",
          "after": " "
        },
        {
          "index": 9,
          "word": "Mohammed",
          "originalText": "Mohammed",
          "characterOffsetBegin": 35,
          "characterOffsetEnd": 43,
          "pos": "NE",
          "before": " ",
          "after": " "
        },
        {
          "index": 10,
          "word": "Emwazi",
          "originalText": "Emwazi",
          "characterOffsetBegin": 44,
          "characterOffsetEnd": 50,
          "pos": "NE",
          "before": " ",
          "after": " "
        },
        {
          "index": 11,
          "word": "benannt",
          "originalText": "benannt",
          "characterOffsetBegin": 51,
          "characterOffsetEnd": 58,
          "pos": "VVPP",
          "before": " ",
          "after": ""
        }
      ]
    }
  ]
}