{
  "sentences": [
    {
      "index": 0,
      "basicDependencies": [
        {
          "dep": "ROOT",
          "governor": 0,
          "governorGloss": "ROOT",
          "dependent": 3,
          "dependentGloss": "verhaftet"
        },
        {
          "dep": "amod",
          "governor": 2,
          "governorGloss": "BANKSY",
          "dependent": 1,
          "dependentGloss": "Straßenkünstler"
        },
        {
          "dep": "dobj",
          "governor": 3,
          "governorGloss": "verhaftet",
          "dependent": 2,
          "dependentGloss": "BANKSY"
        },
        {
          "dep": "punct",
          "governor": 3,
          "governorGloss": "verhaftet",
          "dependent": 4,
          "dependentGloss": "?"
        }
      ],
      "enhancedDependencies": [
        {
          "dep": "ROOT",
          "governor": 0,
          "governorGloss": "ROOT",
          "dependent": 3,
          "dependentGloss": "verhaftet"
        },
        {
          "dep": "amod",
          "governor": 2,
          "governorGloss": "BANKSY",
          "dependent": 1,
          "dependentGloss": "Straßenkünstler"
        },
        {
          "dep": "dobj",
          "governor": 3,
          "governorGloss": "verhaftet",
          "dependent": 2,
          "dependentGloss": "BANKSY"
        },
        {
          "dep": "punct",
          "governor": 3,
          "governorGloss": "verhaftet",
          "dependent": 4,
          "dependentGloss": "?"
        }
      ],
      "enhancedPlusPlusDependencies": [
        {
          "dep": "ROOT",
          "governor": 0,
          "governorGloss": "ROOT",
          "dependent": 3,
          "dependentGloss": "verhaftet"
        },
        {
          "dep": "amod",
          "governor": 2,
          "governorGloss": "BANKSY",
          "dependent": 1,
          "dependentGloss": "Straßenkünstler"
        },
        {
          "dep": "dobj",
          "governor": 3,
          "governorGloss": "verhaftet",
          "dependent": 2,
          "dependentGloss": "BANKSY"
        },
        {
          "dep": "punct",
          "governor": 3,
          "governorGloss": "verhaftet",
          "dependent": 4,
          "dependentGloss": "?"
        }
      ],
      "tokens": [
        {
          "index": 1,
          "word": "Straßenkünstler",
          "originalText": "Straßenkünstler",
          "characterOffsetBegin": 0,
          "characterOffsetEnd": 15,
          "pos": "NN",
          "before": "",
          "after": " "
        },
        {
          "index": 2,
          "word": "BANKSY",
          "originalText": "BANKSY",
          "characterOffsetBegin": 16,
          "characterOffsetEnd": 22,
          "pos": "NE",
          "before": " ",
          "after": " "
        },
        {
          "index": 3,
          "word": "verhaftet",
          "originalText": "verhaftet",
          "characterOffsetBegin": 23,
          "characterOffsetEnd": 32,
          "pos": "VVPP",
          "before": " ",
          "after": ""
        },
        {
          "index": 4,
          "word": "?",
          "originalText": "?",
          "characterOffsetBegin": 32,
          "characterOffsetEnd": 33,
          "pos": "$.",
          "before": "",
          "after": " "
        }
      ]
    },
    {
      "index": 1,
      "basicDependencies": [
        {
          "dep": "ROOT",
          "governor": 0,
          "governorGloss": "ROOT",
          "dependent": 1,
          "dependentGloss": "Nochmals"
        },
        {
          "dep": "punct",
          "governor": 1,
          "governorGloss": "Nochmals",
          "dependent": 2,
          "dependentGloss": "?"
        }
      ],
      "enhancedDependencies": [
        {
          "dep": "ROOT",
          "governor": 0,
          "governorGloss": "ROOT",
          "dependent": 1,
          "dependentGloss": "Nochmals"
        },
        {
          "dep": "punct",
          "governor": 1,
          "governorGloss": "Nochmals",
          "dependent": 2,
          "dependentGloss": "?"
        }
      ],
      "enhancedPlusPlusDependencies": [
        {
          "dep": "ROOT",
          "governor": 0,
          "governorGloss": "ROOT",
          "dependent": 1,
          "dependentGloss": "Nochmals"
        },
        {
          "dep": "punct",
          "governor": 1,
          "governorGloss": "Nochmals",
          "dependent": 2,
          "dependentGloss": "?"
        }
      ],
      "tokens": [
        {
          "index": 1,
          "word": "Nochmals",
          "originalText": "Nochmals",
          "characterOffsetBegin": 34,
          "characterOffsetEnd": 42,
          "pos": "ADV",
          "before": " ",
          "after": ""
        },
        {
          "index": 2,
          "word": "?",
          "originalText": "?",
          "characterOffsetBegin": 42,
          "characterOffsetEnd": 43,
          "pos": "$.",
          "before": "",
          "after": ""
        }
      ]
    }
  ]
}