{
  "sentences": [
    {
      "index": 0,
      "basicDependencies": [
        {
          "dep": "ROOT",
          "governor": 0,
          "governorGloss": "ROOT",
          "dependent": 5,
          "dependentGloss": "ruft"
        },
        {
          "dep": "amod",
          "governor": 4,
          "governorGloss": "Ehefrau",
          "dependent": 1,
          "dependentGloss": "ISIS-Geisel"
        },
        {
          "dep": "name",
          "governor": 3,
          "governorGloss": "Hennings",
          "dependent": 2,
          "dependentGloss": "Alan"
        },
        {
          "dep": "det",
          "governor": 4,
          "governorGloss": "Ehefrau",
          "dependent": 3,
          "dependentGloss": "Hennings"
        },
        {
          "dep": "nsubj",
          "governor": 5,
          "governorGloss": "ruft",
          "dependent": 4,
          "dependentGloss": "Ehefrau"
        },
        {
          "dep": "det",
          "governor": 7,
          "governorGloss": "Scharia-Gesetz",
          "dependent": 6,
          "dependentGloss": "das"
        },
        {
          "dep": "dobj",
          "governor": 5,
          "governorGloss": "ruft",
          "dependent": 7,
          "dependentGloss": "Scharia-Gesetz"
        },
        {
          "dep": "case",
          "governor": 10,
          "governorGloss": "Plea",
          "dependent": 8,
          "dependentGloss": "in"
        },
        {
          "dep": "amod",
          "governor": 10,
          "governorGloss": "Plea",
          "dependent": 9,
          "dependentGloss": "New"
        },
        {
          "dep": "nmod",
          "governor": 7,
          "governorGloss": "Scharia-Gesetz",
          "dependent": 10,
          "dependentGloss": "Plea"
        },
        {
          "dep": "mark",
          "governor": 5,
          "governorGloss": "ruft",
          "dependent": 11,
          "dependentGloss": "auf"
        }
      ],
      "enhancedDependencies": [
        {
          "dep": "ROOT",
          "governor": 0,
          "governorGloss": "ROOT",
          "dependent": 5,
          "dependentGloss": "ruft"
        },
        {
          "dep": "amod",
          "governor": 4,
          "governorGloss": "Ehefrau",
          "dependent": 1,
          "dependentGloss": "ISIS-Geisel"
        },
        {
          "dep": "name",
          "governor": 3,
          "governorGloss": "Hennings",
          "dependent": 2,
          "dependentGloss": "Alan"
        },
        {
          "dep": "det",
          "governor": 4,
          "governorGloss": "Ehefrau",
          "dependent": 3,
          "dependentGloss": "Hennings"
        },
        {
          "dep": "nsubj",
          "governor": 5,
          "governorGloss": "ruft",
          "dependent": 4,
          "dependentGloss": "Ehefrau"
        },
        {
          "dep": "det",
          "governor": 7,
          "governorGloss": "Scharia-Gesetz",
          "dependent": 6,
          "dependentGloss": "das"
        },
        {
          "dep": "dobj",
          "governor": 5,
          "governorGloss": "ruft",
          "dependent": 7,
          "dependentGloss": "Scharia-Gesetz"
        },
        {
          "dep": "case",
          "governor": 10,
          "governorGloss": "Plea",
          "dependent": 8,
          "dependentGloss": "in"
        },
        {
          "dep": "amod",
          "governor": 10,
          "governorGloss": "Plea",
          "dependent": 9,
          "dependentGloss": "New"
        },
        {
          "dep": "nmod",
          "governor": 7,
          "governorGloss": "Scharia-Gesetz",
          "dependent": 10,
          "dependentGloss": "Plea"
        },
        {
          "dep": "mark",
          "governor": 5,
          "governorGloss": "ruft",
          "dependent": 11,
          "dependentGloss": "auf"
        }
      ],
      "enhancedPlusPlusDependencies": [
        {
          "dep": "ROOT",
          "governor": 0,
          "governorGloss": "ROOT",
          "dependent": 5,
          "dependentGloss": "ruft"
        },
        {
          "dep": "amod",
          "governor": 4,
          "governorGloss": "Ehefrau",
          "dependent": 1,
          "dependentGloss": "ISIS-Geisel"
        },
        {
          "dep": "name",
          "governor": 3,
          "governorGloss": "Hennings",
          "dependent": 2,
          "dependentGloss": "Alan"
        },
        {
          "dep": "det",
          "governor": 4,
          "governorGloss": "Ehefrau",
          "dependent": 3,
          "dependentGloss": "Hennings"
        },
        {
          "dep": "nsubj",
          "governor": 5,
          "governorGloss": "ruft",
          "dependent": 4,
          "dependentGloss": "Ehefrau"
        },
        {
          "dep": "det",
          "governor": 7,
          "governorGloss": "Scharia-Gesetz",
          "dependent": 6,
          "dependentGloss": "das"
        },
        {
          "dep": "dobj",
          "governor": 5,
          "governorGloss": "ruft",
          "dependent": 7,
          "dependentGloss": "Scharia-Gesetz"
        },
        {
          "dep": "case",
          "governor": 10,
          "governorGloss": "Plea",
          "dependent": 8,
          "dependentGloss": "in"
        },
        {
          "dep": "amod",
          "governor": 10,
          "governorGloss": "Plea",
          "dependent": 9,
          "dependentGloss": "New"
        },
        {
          "dep": "nmod",
          "governor": 7,
          "governorGloss": "Scharia-Gesetz",
          "dependent": 10,
          "dependentGloss": "Plea"
        },
        {
          "dep": "mark",
          "governor": 5,
          "governorGloss": "ruft",
          "dependent": 11,
          "dependentGloss": "auf"
        }
      ],
      "tokens": [
        {
          "index": 1,
          "word": "ISIS-Geisel",
          "originalText": "ISIS-Geisel",
          "characterOffsetBegin": 0,
          "characterOffsetEnd": 11,
          "pos": "NN",
          "before": "",
          "after": " "
        },
        {
          "index": 2,
          "word": "Alan",
          "originalText": "Alan",
          "characterOffsetBegin": 12,
          "characterOffsetEnd": 16,
          "pos": "NE",
          "before": " ",
          "after": " "
        },
        {
          "index": 3,
          "word": "Hennings",
          "originalText": "Hennings",
          "characterOffsetBegin": 17,
          "characterOffsetEnd": 25,
          "pos": "NE",
          "before": " ",
          "after": " "
        },
        {
          "index": 4,
          "word": "Ehefrau",
          "originalText": "Ehefrau",
          "characterOffsetBegin": 26,
          "characterOffsetEnd": 33,
          "pos": "NN",
          "before": " ",
          "after": " "
        },
        {
          "index": 5,
          "word": "ruft",
          "originalText": "ruft",
          "characterOffsetBegin": 34,
          "characterOffsetEnd": 38,
          "pos": "VVFIN",
          "before": " ",
          "after": " "
        },
        {
          "index": 6,
          "word": "das",
          "originalText": "das",
          "characterOffsetBegin": 39,
          "characterOffsetEnd": 42,
          "pos": "ART",
          "before": " ",
          "after": " "
        },
        {
          "index": 7,
          "word": "Scharia-Gesetz",
          "originalText": "Scharia-Gesetz",
          "characterOffsetBegin": 43,
          "characterOffsetEnd": 57,
          "pos": "NN",
          "before": " ",
          "after": " "
        },
        {
          "index": 8,
          "word": "in",
          "originalText": "in",
          "characterOffsetBegin": 58,
          "characterOffsetEnd": 60,
          "pos": "APPR",
          "before": " ",
          "after": " "
        },
        {
          "index": 9,
          "word": "New",
          "originalText": "New",
          "characterOffsetBegin": 61,
          "characterOffsetEnd": 64,
          "pos": "NE",
          "before": " ",
          "after": " "
        },
        {
          "index": 10,
          "word": "Plea",
          "originalText": "Plea",
          "characterOffsetBegin": 65,
          "characterOffsetEnd": 69,
          "pos": "NE",
          "before": " ",
          "after": " "
        },
        {
          "index": 11,
          "word": "auf",
          "originalText": "auf",
          "characterOffsetBegin": 70,
          "characterOffsetEnd": 73,
          "pos": "PTKVZ",
          "before": " ",
          "after": ""
        }
      ]
    }
  ]
}