{
  "sentences": [
    {
      "index": 0,
      "basicDependencies": [
        {
          "dep": "ROOT",
          "governor": 0,
          "governorGloss": "ROOT",
          "dependent": 3,
          "dependentGloss": "schneide"
        },
        {
          "dep": "amod",
          "governor": 2,
          "governorGloss": "mob",
          "dependent": 1,
          "dependentGloss": "Angry"
        },
        {
          "dep": "nsubj",
          "governor": 3,
          "governorGloss": "schneide",
          "dependent": 2,
          "dependentGloss": "mob"
        },
        {
          "dep": "det",
          "governor": 5,
          "governorGloss": "Rapisten-Penis",
          "dependent": 4,
          "dependentGloss": "den"
        },
        {
          "dep": "dobj",
          "governor": 12,
          "governorGloss": "-RRB-",
          "dependent": 5,
          "dependentGloss": "Rapisten-Penis"
        },
        {
          "dep": "case",
          "governor": 7,
          "governorGloss": "Fleisch-Klammer",
          "dependent": 6,
          "dependentGloss": "mit"
        },
        {
          "dep": "nmod",
          "governor": 12,
          "governorGloss": "-RRB-",
          "dependent": 7,
          "dependentGloss": "Fleisch-Klammer"
        },
        {
          "dep": "case",
          "governor": 9,
          "governorGloss": "-LRB-",
          "dependent": 8,
          "dependentGloss": "ab"
        },
        {
          "dep": "nmod",
          "governor": 12,
          "governorGloss": "-RRB-",
          "dependent": 9,
          "dependentGloss": "-LRB-"
        },
        {
          "dep": "amod",
          "governor": 11,
          "governorGloss": "DISCRETION",
          "dependent": 10,
          "dependentGloss": "VIEWER"
        },
        {
          "dep": "dobj",
          "governor": 12,
          "governorGloss": "-RRB-",
          "dependent": 11,
          "dependentGloss": "DISCRETION"
        },
        {
          "dep": "xcomp",
          "governor": 3,
          "governorGloss": "schneide",
          "dependent": 12,
          "dependentGloss": "-RRB-"
        }
      ],
      "enhancedDependencies": [
        {
          "dep": "ROOT",
          "governor": 0,
          "governorGloss": "ROOT",
          "dependent": 3,
          "dependentGloss": "schneide"
        },
        {
          "dep": "amod",
          "governor": 2,
          "governorGloss": "mob",
          "dependent": 1,
          "dependentGloss": "Angry"
        },
        {
          "dep": "nsubj",
          "governor": 3,
          "governorGloss": "schneide",
          "dependent": 2,
          "dependentGloss": "mob"
        },
        {
          "dep": "det",
          "governor": 5,
          "governorGloss": "Rapisten-Penis",
          "dependent": 4,
          "dependentGloss": "den"
        },
        {
          "dep": "dobj",
          "governor": 12,
          "governorGloss": "-RRB-",
          "dependent": 5,
          "dependentGloss": "Rapisten-Penis"
        },
        {
          "dep": "case",
          "governor": 7,
          "governorGloss": "Fleisch-Klammer",
          "dependent": 6,
          "dependentGloss": "mit"
        },
        {
          "dep": "nmod",
          "governor": 12,
          "governorGloss": "-RRB-",
          "dependent": 7,
          "dependentGloss": "Fleisch-Klammer"
        },
        {
          "dep": "case",
          "governor": 9,
          "governorGloss": "-LRB-",
          "dependent": 8,
          "dependentGloss": "ab"
        },
        {
          "dep": "nmod",
          "governor": 12,
          "governorGloss": "-RRB-",
          "dependent": 9,
          "dependentGloss": "-LRB-"
        },
        {
          "dep": "amod",
          "governor": 11,
          "governorGloss": "DISCRETION",
          "dependent": 10,
          "dependentGloss": "VIEWER"
        },
        {
          "dep": "dobj",
          "governor": 12,
          "governorGloss": "-RRB-",
          "dependent": 11,
          "dependentGloss": "DISCRETION"
        },
        {
          "dep": "xcomp",
          "governor": 3,
          "governorGloss": "schneide",
          "dependent": 12,
          "dependentGloss": "-RRB-"
        }
      ],
      "enhancedPlusPlusDependencies": [
        {
          "dep": "ROOT",
          "governor": 0,
          "governorGloss": "ROOT",
          "dependent": 3,
          "dependentGloss": "schneide"
        },
        {
          "dep": "amod",
          "governor": 2,
          "governorGloss": "mob",
          "dependent": 1,
          "dependentGloss": "Angry"
        },
        {
          "dep": "nsubj",
          "governor": 3,
          "governorGloss": "schneide",
          "dependent": 2,
          "dependentGloss": "mob"
        },
        {
          "dep": "det",
          "governor": 5,
          "governorGloss": "Rapisten-Penis",
          "dependent": 4,
          "dependentGloss": "den"
        },
        {
          "dep": "dobj",
          "governor": 12,
          "governorGloss": "-RRB-",
          "dependent": 5,
          "dependentGloss": "Rapisten-Penis"
        },
        {
          "dep": "case",
          "governor": 7,
          "governorGloss": "Fleisch-Klammer",
          "dependent": 6,
          "dependentGloss": "mit"
        },
        {
          "dep": "nmod",
          "governor": 12,
          "governorGloss": "-RRB-",
          "dependent": 7,
          "dependentGloss": "Fleisch-Klammer"
        },
        {
          "dep": "case",
          "governor": 9,
          "governorGloss": "-LRB-",
          "dependent": 8,
          "dependentGloss": "ab"
        },
        {
          "dep": "nmod",
          "governor": 12,
          "governorGloss": "-RRB-",
          "dependent": 9,
          "dependentGloss": "-LRB-"
        },
        {
          "dep": "amod",
          "governor": 11,
          "governorGloss": "DISCRETION",
          "dependent": 10,
          "dependentGloss": "VIEWER"
        },
        {
          "dep": "dobj",
          "governor": 12,
          "governorGloss": "-RRB-",
          "dependent": 11,
          "dependentGloss": "DISCRETION"
        },
        {
          "dep": "xcomp",
          "governor": 3,
          "governorGloss": "schneide",
          "dependent": 12,
          "dependentGloss": "-RRB-"
        }
      ],
      "tokens": [
        {
          "index": 1,
          "word": "Angry",
          "originalText": "Angry",
          "characterOffsetBegin": 0,
          "characterOffsetEnd": 5,
          "pos": "FM",
          "before": "",
          "after": " "
        },
        {
          "index": 2,
          "word": "mob",
          "originalText": "mob",
          "characterOffsetBegin": 6,
          "characterOffsetEnd": 9,
          "pos": "FM",
          "before": " ",
          "after": " "
        },
        {
          "index": 3,
          "word": "schneide",
          "originalText": "schneide",
          "characterOffsetBegin": 10,
          "characterOffsetEnd": 18,
          "pos": "FM",
          "before": " ",
          "after": " "
        },
        {
          "index": 4,
          "word": "den",
          "originalText": "den",
          "characterOffsetBegin": 19,
          "characterOffsetEnd": 22,
          "pos": "ART",
          "before": " ",
          "after": " "
        },
        {
          "index": 5,
          "word": "Rapisten-Penis",
          "originalText": "Rapisten-Penis",
          "characterOffsetBegin": 23,
          "characterOffsetEnd": 37,
          "pos": "NN",
          "before": " ",
          "after": " "
        },
        {
          "index": 6,
          "word": "mit",
          "originalText": "mit",
          "characterOffsetBegin": 38,
          "characterOffsetEnd": 41,
          "pos": "APPR",
          "before": " ",
          "after": " "
        },
        {
          "index": 7,
          "word": "Fleisch-Klammer",
          "originalText": "Fleisch-Klammer",
          "characterOffsetBegin": 42,
          "characterOffsetEnd": 57,
          "pos": "NN",
          "before": " ",
          "after": " "
        },
        {
          "index": 8,
          "word": "ab",
          "originalText": "ab",
          "characterOffsetBegin": 58,
          "characterOffsetEnd": 60,
          "pos": "APPR",
          "before": " ",
          "after": " "
        },
        {
          "index": 9,
          "word": "-LRB-",
          "originalText": "(",
          "characterOffsetBegin": 61,
          "characterOffsetEnd": 62,
          "pos": "TRUNC",
          "before": " ",
          "after": ""
        },
        {
          "index": 10,
          "word": "VIEWER",
          "originalText": "VIEWER",
          "characterOffsetBegin": 62,
          "characterOffsetEnd": 68,
          "pos": "NE",
          "before": "",
          "after": " "
        },
        {
          "index": 11,
          "word": "DISCRETION",
          "originalText": "DISCRETION",
          "characterOffsetBegin": 69,
          "characterOffsetEnd": 79,
          "pos": "NE",
          "before": " ",
          "after": ""
        },
        {
          "index": 12,
          "word": "-RRB-",
          "originalText": ")",
          "characterOffsetBegin": 79,
          "characterOffsetEnd": 80,
          "pos": "TRUNC",
          "before": "",
          "after": ""
        }
      ]
    }
  ]
}