{
  "sentences": [
    {
      "index": 0,
      "basicDependencies": [
        {
          "dep": "ROOT",
          "governor": 0,
          "governorGloss": "ROOT",
          "dependent": 4,
          "dependentGloss": "Haram"
        },
        {
          "dep": "nsubj",
          "governor": 4,
          "governorGloss": "Haram",
          "dependent": 1,
          "dependentGloss": "Nigeria"
        },
        {
          "dep": "cc",
          "governor": 1,
          "governorGloss": "Nigeria",
          "dependent": 2,
          "dependentGloss": "und"
        },
        {
          "dep": "conj",
          "governor": 1,
          "governorGloss": "Nigeria",
          "dependent": 3,
          "dependentGloss": "Boko"
        },
        {
          "dep": "punct",
          "governor": 11,
          "governorGloss": "Release",
          "dependent": 5,
          "dependentGloss": "`"
        },
        {
          "dep": "amod",
          "governor": 7,
          "governorGloss": "Waffenstillstand",
          "dependent": 6,
          "dependentGloss": "zustimmen"
        },
        {
          "dep": "dobj",
          "governor": 11,
          "governorGloss": "Release",
          "dependent": 7,
          "dependentGloss": "Waffenstillstand"
        },
        {
          "dep": "cc",
          "governor": 7,
          "governorGloss": "Waffenstillstand",
          "dependent": 8,
          "dependentGloss": "und"
        },
        {
          "dep": "conj",
          "governor": 7,
          "governorGloss": "Waffenstillstand",
          "dependent": 9,
          "dependentGloss": "Mädchen"
        },
        {
          "dep": "punct",
          "governor": 7,
          "governorGloss": "Waffenstillstand",
          "dependent": 10,
          "dependentGloss": "'"
        },
        {
          "dep": "dobj",
          "governor": 4,
          "governorGloss": "Haram",
          "dependent": 11,
          "dependentGloss": "Release"
        },
        {
          "dep": "punct",
          "governor": 11,
          "governorGloss": "Release",
          "dependent": 12,
          "dependentGloss": "'"
        }
      ],
      "enhancedDependencies": [
        {
          "dep": "ROOT",
          "governor": 0,
          "governorGloss": "ROOT",
          "dependent": 4,
          "dependentGloss": "Haram"
        },
        {
          "dep": "nsubj",
          "governor": 4,
          "governorGloss": "Haram",
          "dependent": 1,
          "dependentGloss": "Nigeria"
        },
        {
          "dep": "cc",
          "governor": 1,
          "governorGloss": "Nigeria",
          "dependent": 2,
          "dependentGloss": "und"
        },
        {
          "dep": "conj:und",
          "governor": 1,
          "governorGloss": "Nigeria",
          "dependent": 3,
          "dependentGloss": "Boko"
        },
        {
          "dep": "nsubj",
          "governor": 4,
          "governorGloss": "Haram",
          "dependent": 3,
          "dependentGloss": "Boko"
        },
        {
          "dep": "punct",
          "governor": 11,
          "governorGloss": "Release",
          "dependent": 5,
          "dependentGloss": "`"
        },
        {
          "dep": "amod",
          "governor": 7,
          "governorGloss": "Waffenstillstand",
          "dependent": 6,
          "dependentGloss": "zustimmen"
        },
        {
          "dep": "dobj",
          "governor": 11,
          "governorGloss": "Release",
          "dependent": 7,
          "dependentGloss": "Waffenstillstand"
        },
        {
          "dep": "cc",
          "governor": 7,
          "governorGloss": "Waffenstillstand",
          "dependent": 8,
          "dependentGloss": "und"
        },
        {
          "dep": "conj:und",
          "governor": 7,
          "governorGloss": "Waffenstillstand",
          "dependent": 9,
          "dependentGloss": "Mädchen"
        },
        {
          "dep": "dobj",
          "governor": 11,
          "governorGloss": "Release",
          "dependent": 9,
          "dependentGloss": "Mädchen"
        },
        {
          "dep": "punct",
          "governor": 7,
          "governorGloss": "Waffenstillstand",
          "dependent": 10,
          "dependentGloss": "'"
        },
        {
          "dep": "dobj",
          "governor": 4,
          "governorGloss": "Haram",
          "dependent": 11,
          "dependentGloss": "Release"
        },
        {
          "dep": "punct",
          "governor": 11,
          "governorGloss": "Release",
          "dependent": 12,
          "dependentGloss": "'"
        }
      ],
      "enhancedPlusPlusDependencies": [
        {
          "dep": "ROOT",
          "governor": 0,
          "governorGloss": "ROOT",
          "dependent": 4,
          "dependentGloss": "Haram"
        },
        {
          "dep": "nsubj",
          "governor": 4,
          "governorGloss": "Haram",
          "dependent": 1,
          "dependentGloss": "Nigeria"
        },
        {
          "dep": "cc",
          "governor": 1,
          "governorGloss": "Nigeria",
          "dependent": 2,
          "dependentGloss": "und"
        },
        {
          "dep": "conj:und",
          "governor": 1,
          "governorGloss": "Nigeria",
          "dependent": 3,
          "dependentGloss": "Boko"
        },
        {
          "dep": "nsubj",
          "governor": 4,
          "governorGloss": "Haram",
          "dependent": 3,
          "dependentGloss": "Boko"
        },
        {
          "dep": "punct",
          "governor": 11,
          "governorGloss": "Release",
          "dependent": 5,
          "dependentGloss": "`"
        },
        {
          "dep": "amod",
          "governor": 7,
          "governorGloss": "Waffenstillstand",
          "dependent": 6,
          "dependentGloss": "zustimmen"
        },
        {
          "dep": "dobj",
          "governor": 11,
          "governorGloss": "Release",
          "dependent": 7,
          "dependentGloss": "Waffenstillstand"
        },
        {
          "dep": "cc",
          "governor": 7,
          "governorGloss": "Waffenstillstand",
          "dependent": 8,
          "dependentGloss": "und"
        },
        {
          "dep": "conj:und",
          "governor": 7,
          "governorGloss": "Waffenstillstand",
          "dependent": 9,
          "dependentGloss": "Mädchen"
        },
        {
          "dep": "dobj",
          "governor": 11,
          "governorGloss": "Release",
          "dependent": 9,
          "dependentGloss": "Mädchen"
        },
        {
          "dep": "punct",
          "governor": 7,
          "governorGloss": "Waffenstillstand",
          "dependent": 10,
          "dependentGloss": "'"
        },
        {
          "dep": "dobj",
          "governor": 4,
          "governorGloss": "Haram",
          "dependent": 11,
          "dependentGloss": "Release"
        },
        {
          "dep": "punct",
          "governor": 11,
          "governorGloss": "Release",
          "dependent": 12,
          "dependentGloss": "'"
        }
      ],
      "tokens": [
        {
          "index": 1,
          "word": "Nigeria",
          "originalText": "Nigeria",
          "characterOffsetBegin": 0,
          "characterOffsetEnd": 7,
          "pos": "NE",
          "before": "",
          "after": " "
        },
        {
          "index": 2,
          "word": "und",
          "originalText": "und",
          "characterOffsetBegin": 8,
          "characterOffsetEnd": 11,
          "pos": "KON",
          "before": " ",
          "after": " "
        },
        {
          "index": 3,
          "word": "Boko",
          "originalText": "Boko",
          "characterOffsetBegin": 12,
          "characterOffsetEnd": 16,
          "pos": "NE",
          "before": " ",
          "after": " "
        },
        {
          "index": 4,
          "word": "Haram",
          "originalText": "Haram",
          "characterOffsetBegin": 17,
          "characterOffsetEnd": 22,
          "pos": "NE",
          "before": " ",
          "after": " "
        },
        {
          "index": 5,
          "word": "`",
          "originalText": "'",
          "characterOffsetBegin": 23,
          "characterOffsetEnd": 24,
          "pos": "CARD",
          "before": " ",
          "after": ""
        },
        {
          "index": 6,
          "word": "zustimmen",
          "originalText": "zustimmen",
          "characterOffsetBegin": 24,
          "characterOffsetEnd": 33,
          "pos": "VVFIN",
          "before": "",
          "after": " "
        },
        {
          "index": 7,
          "word": "Waffenstillstand",
          "originalText": "Waffenstillstand",
          "characterOffsetBegin": 34,
          "characterOffsetEnd": 50,
          "pos": "NN",
          "before": " ",
          "after": " "
        },
        {
          "index": 8,
          "word": "und",
          "originalText": "und",
          "characterOffsetBegin": 51,
          "characterOffsetEnd": 54,
          "pos": "KON",
          "before": " ",
          "after": " "
        },
        {
          "index": 9,
          "word": "Mädchen",
          "originalText": "Mädchen",
          "characterOffsetBegin": 55,
          "characterOffsetEnd": 62,
          "pos": "NN",
          "before": " ",
          "after": ""
        },
        {
          "index": 10,
          "word": "'",
          "originalText": "'",
          "characterOffsetBegin": 62,
          "characterOffsetEnd": 63,
          "pos": "$[",
          "before": "",
          "after": " "
        },
        {
          "index": 11,
          "word": "Release",
          "originalText": "Release",
          "characterOffsetBegin": 64,
          "characterOffsetEnd": 71,
          "pos": "NE",
          "before": " ",
          "after": " "
        },
        {
          "index": 12,
          "word": "'",
          "originalText": "'",
          "characterOffsetBegin": 72,
          "characterOffsetEnd": 73,
          "pos": "$[",
          "before": " ",
          "after": ""
        }
      ]
    }
  ]
}