{
  "sentences": [
    {
      "index": 0,
      "basicDependencies": [
        {
          "dep": "ROOT",
          "governor": 0,
          "governorGloss": "ROOT",
          "dependent": 2,
          "dependentGloss": "schlägt"
        },
        {
          "dep": "nsubj",
          "governor": 2,
          "governorGloss": "schlägt",
          "dependent": 1,
          "dependentGloss": "Man"
        },
        {
          "dep": "nmod:poss",
          "governor": 5,
          "governorGloss": "Penis",
          "dependent": 3,
          "dependentGloss": "seinen"
        },
        {
          "dep": "amod",
          "governor": 5,
          "governorGloss": "Penis",
          "dependent": 4,
          "dependentGloss": "eigenen"
        },
        {
          "dep": "dobj",
          "governor": 2,
          "governorGloss": "schlägt",
          "dependent": 5,
          "dependentGloss": "Penis"
        },
        {
          "dep": "mark",
          "governor": 2,
          "governorGloss": "schlägt",
          "dependent": 6,
          "dependentGloss": "ab"
        },
        {
          "dep": "punct",
          "governor": 2,
          "governorGloss": "schlägt",
          "dependent": 7,
          "dependentGloss": ","
        },
        {
          "dep": "conj",
          "governor": 2,
          "governorGloss": "schlägt",
          "dependent": 8,
          "dependentGloss": "wirft"
        },
        {
          "dep": "dobj",
          "governor": 8,
          "governorGloss": "wirft",
          "dependent": 9,
          "dependentGloss": "ihn"
        },
        {
          "dep": "case",
          "governor": 12,
          "governorGloss": "Müll",
          "dependent": 10,
          "dependentGloss": "in"
        },
        {
          "dep": "det",
          "governor": 12,
          "governorGloss": "Müll",
          "dependent": 11,
          "dependentGloss": "den"
        },
        {
          "dep": "nmod",
          "governor": 8,
          "governorGloss": "wirft",
          "dependent": 12,
          "dependentGloss": "Müll"
        },
        {
          "dep": "punct",
          "governor": 2,
          "governorGloss": "schlägt",
          "dependent": 13,
          "dependentGloss": ","
        },
        {
          "dep": "mark",
          "governor": 19,
          "governorGloss": "entsorgt",
          "dependent": 14,
          "dependentGloss": "nachdem"
        },
        {
          "dep": "nsubjpass",
          "governor": 19,
          "governorGloss": "entsorgt",
          "dependent": 15,
          "dependentGloss": "er"
        },
        {
          "dep": "case",
          "governor": 18,
          "governorGloss": "Schlafzimmerfähigkeiten",
          "dependent": 16,
          "dependentGloss": "für"
        },
        {
          "dep": "amod",
          "governor": 18,
          "governorGloss": "Schlafzimmerfähigkeiten",
          "dependent": 17,
          "dependentGloss": "schlechte"
        },
        {
          "dep": "nmod",
          "governor": 19,
          "governorGloss": "entsorgt",
          "dependent": 18,
          "dependentGloss": "Schlafzimmerfähigkeiten"
        },
        {
          "dep": "advcl",
          "governor": 2,
          "governorGloss": "schlägt",
          "dependent": 19,
          "dependentGloss": "entsorgt"
        },
        {
          "dep": "auxpass",
          "governor": 19,
          "governorGloss": "entsorgt",
          "dependent": 20,
          "dependentGloss": "wurde"
        }
      ],
      "enhancedDependencies": [
        {
          "dep": "ROOT",
          "governor": 0,
          "governorGloss": "ROOT",
          "dependent": 2,
          "dependentGloss": "schlägt"
        },
        {
          "dep": "nsubj",
          "governor": 2,
          "governorGloss": "schlägt",
          "dependent": 1,
          "dependentGloss": "Man"
        },
        {
          "dep": "nmod:poss",
          "governor": 5,
          "governorGloss": "Penis",
          "dependent": 3,
          "dependentGloss": "seinen"
        },
        {
          "dep": "amod",
          "governor": 5,
          "governorGloss": "Penis",
          "dependent": 4,
          "dependentGloss": "eigenen"
        },
        {
          "dep": "dobj",
          "governor": 2,
          "governorGloss": "schlägt",
          "dependent": 5,
          "dependentGloss": "Penis"
        },
        {
          "dep": "mark",
          "governor": 2,
          "governorGloss": "schlägt",
          "dependent": 6,
          "dependentGloss": "ab"
        },
        {
          "dep": "punct",
          "governor": 2,
          "governorGloss": "schlägt",
          "dependent": 7,
          "dependentGloss": ","
        },
        {
          "dep": "conj",
          "governor": 2,
          "governorGloss": "schlägt",
          "dependent": 8,
          "dependentGloss": "wirft"
        },
        {
          "dep": "dobj",
          "governor": 8,
          "governorGloss": "wirft",
          "dependent": 9,
          "dependentGloss": "ihn"
        },
        {
          "dep": "case",
          "governor": 12,
          "governorGloss": "Müll",
          "dependent": 10,
          "dependentGloss": "in"
        },
        {
          "dep": "det",
          "governor": 12,
          "governorGloss": "Müll",
          "dependent": 11,
          "dependentGloss": "den"
        },
        {
          "dep": "nmod",
          "governor": 8,
          "governorGloss": "wirft",
          "dependent": 12,
          "dependentGloss": "Müll"
        },
        {
          "dep": "punct",
          "governor": 2,
          "governorGloss": "schlägt",
          "dependent": 13,
          "dependentGloss": ","
        },
        {
          "dep": "mark",
          "governor": 19,
          "governorGloss": "entsorgt",
          "dependent": 14,
          "dependentGloss": "nachdem"
        },
        {
          "dep": "nsubjpass",
          "governor": 19,
          "governorGloss": "entsorgt",
          "dependent": 15,
          "dependentGloss": "er"
        },
        {
          "dep": "case",
          "governor": 18,
          "governorGloss": "Schlafzimmerfähigkeiten",
          "dependent": 16,
          "dependentGloss": "für"
        },
        {
          "dep": "amod",
          "governor": 18,
          "governorGloss": "Schlafzimmerfähigkeiten",
          "dependent": 17,
          "dependentGloss": "schlechte"
        },
        {
          "dep": "nmod",
          "governor": 19,
          "governorGloss": "entsorgt",
          "dependent": 18,
          "dependentGloss": "Schlafzimmerfähigkeiten"
        },
        {
          "dep": "advcl",
          "governor": 2,
          "governorGloss": "schlägt",
          "dependent": 19,
          "dependentGloss": "entsorgt"
        },
        {
          "dep": "auxpass",
          "governor": 19,
          "governorGloss": "entsorgt",
          "dependent": 20,
          "dependentGloss": "wurde"
        }
      ],
      "enhancedPlusPlusDependencies": [
        {
          "dep": "ROOT",
          "governor": 0,
          "governorGloss": "ROOT",
          "dependent": 2,
          "dependentGloss": "schlägt"
        },
        {
          "dep": "nsubj",
          "governor": 2,
          "governorGloss": "schlägt",
          "dependent": 1,
          "dependentGloss": "Man"
        },
        {
          "dep": "nmod:poss",
          "governor": 5,
          "governorGloss": "Penis",
          "dependent": 3,
          "dependentGloss": "seinen"
        },
        {
          "dep": "amod",
          "governor": 5,
          "governorGloss": "Penis",
          "dependent": 4,
          "dependentGloss": "eigenen"
        },
        {
          "dep": "dobj",
          "governor": 2,
          "governorGloss": "schlägt",
          "dependent": 5,
          "dependentGloss": "Penis"
        },
        {
          "dep": "mark",
          "governor": 2,
          "governorGloss": "schlägt",
          "dependent": 6,
          "dependentGloss": "ab"
        },
        {
          "dep": "punct",
          "governor": 2,
          "governorGloss": "schlägt",
          "dependent": 7,
          "dependentGloss": ","
        },
        {
          "dep": "conj",
          "governor": 2,
          "governorGloss": "schlägt",
          "dependent": 8,
          "dependentGloss": "wirft"
        },
        {
          "dep": "dobj",
          "governor": 8,
          "governorGloss": "wirft",
          "dependent": 9,
          "dependentGloss": "ihn"
        },
        {
          "dep": "case",
          "governor": 12,
          "governorGloss": "Müll",
          "dependent": 10,
          "dependentGloss": "in"
        },
        {
          "dep": "det",
          "governor": 12,
          "governorGloss": "Müll",
          "dependent": 11,
          "dependentGloss": "den"
        },
        {
          "dep": "nmod",
          "governor": 8,
          "governorGloss": "wirft",
          "dependent": 12,
          "dependentGloss": "Müll"
        },
        {
          "dep": "punct",
          "governor": 2,
          "governorGloss": "schlägt",
          "dependent": 13,
          "dependentGloss": ","
        },
        {
          "dep": "mark",
          "governor": 19,
          "governorGloss": "entsorgt",
          "dependent": 14,
          "dependentGloss": "nachdem"
        },
        {
          "dep": "nsubjpass",
          "governor": 19,
          "governorGloss": "entsorgt",
          "dependent": 15,
          "dependentGloss": "er"
        },
        {
          "dep": "case",
          "governor": 18,
          "governorGloss": "Schlafzimmerfähigkeiten",
          "dependent": 16,
          "dependentGloss": "für"
        },
        {
          "dep": "amod",
          "governor": 18,
          "governorGloss": "Schlafzimmerfähigkeiten",
          "dependent": 17,
          "dependentGloss": "schlechte"
        },
        {
          "dep": "nmod",
          "governor": 19,
          "governorGloss": "entsorgt",
          "dependent": 18,
          "dependentGloss": "Schlafzimmerfähigkeiten"
        },
        {
          "dep": "advcl",
          "governor": 2,
          "governorGloss": "schlägt",
          "dependent": 19,
          "dependentGloss": "entsorgt"
        },
        {
          "dep": "auxpass",
          "governor": 19,
          "governorGloss": "entsorgt",
          "dependent": 20,
          "dependentGloss": "wurde"
        }
      ],
      "tokens": [
        {
          "index": 1,
          "word": "Man",
          "originalText": "Man",
          "characterOffsetBegin": 0,
          "characterOffsetEnd": 3,
          "pos": "PIS",
          "before": "",
          "after": " "
        },
        {
          "index": 2,
          "word": "schlägt",
          "originalText": "schlägt",
          "characterOffsetBegin": 4,
          "characterOffsetEnd": 11,
          "pos": "VVFIN",
          "before": " ",
          "after": " "
        },
        {
          "index": 3,
          "word": "seinen",
          "originalText": "seinen",
          "characterOffsetBegin": 12,
          "characterOffsetEnd": 18,
          "pos": "PPOSAT",
          "before": " ",
          "after": " "
        },
        {
          "index": 4,
          "word": "eigenen",
          "originalText": "eigenen",
          "characterOffsetBegin": 19,
          "characterOffsetEnd": 26,
          "pos": "ADJA",
          "before": " ",
          "after": " "
        },
        {
          "index": 5,
          "word": "Penis",
          "originalText": "Penis",
          "characterOffsetBegin": 27,
          "characterOffsetEnd": 32,
          "pos": "NN",
          "before": " ",
          "after": " "
        },
        {
          "index": 6,
          "word": "ab",
          "originalText": "ab",
          "characterOffsetBegin": 33,
          "characterOffsetEnd": 35,
          "pos": "PTKVZ",
          "before": " ",
          "after": ""
        },
        {
          "index": 7,
          "word": ",",
          "originalText": ",",
          "characterOffsetBegin": 35,
          "characterOffsetEnd": 36,
          "pos": "$,",
          "before": "",
          "after": " "
        },
        {
          "index": 8,
          "word": "wirft",
          "originalText": "wirft",
          "characterOffsetBegin": 37,
          "characterOffsetEnd": 42,
          "pos": "VVFIN",
          "before": " ",
          "after": " "
        },
        {
          "index": 9,
          "word": "ihn",
          "originalText": "ihn",
          "characterOffsetBegin": 43,
          "characterOffsetEnd": 46,
          "pos": "PPER",
          "before": " ",
          "after": " "
        },
        {
          "index": 10,
          "word": "in",
          "originalText": "in",
          "characterOffsetBegin": 47,
          "characterOffsetEnd": 49,
          "pos": "APPR",
          "before": " ",
          "after": " "
        },
        {
          "index": 11,
          "word": "den",
          "originalText": "den",
          "characterOffsetBegin": 50,
          "characterOffsetEnd": 53,
          "pos": "ART",
          "before": " ",
          "after": " "
        },
        {
          "index": 12,
          "word": "Müll",
          "originalText": "Müll",
          "characterOffsetBegin": 54,
          "characterOffsetEnd": 58,
          "pos": "NN",
          "before": " ",
          "after": ""
        },
        {
          "index": 13,
          "word": ",",
          "originalText": ",",
          "characterOffsetBegin": 58,
          "characterOffsetEnd": 59,
          "pos": "$,",
          "before": "",
          "after": " "
        },
        {
          "index": 14,
          "word": "nachdem",
          "originalText": "nachdem",
          "characterOffsetBegin": 60,
          "characterOffsetEnd": 67,
          "pos": "KOUS",
          "before": " ",
          "after": " "
        },
        {
          "index": 15,
          "word": "er",
          "originalText": "er",
          "characterOffsetBegin": 68,
          "characterOffsetEnd": 70,
          "pos": "PPER",
          "before": " ",
          "after": " "
        },
        {
          "index": 16,
          "word": "für",
          "originalText": "für",
          "characterOffsetBegin": 71,
          "characterOffsetEnd": 74,
          "pos": "APPR",
          "before": " ",
          "after": " "
        },
        {
          "index": 17,
          "word": "schlechte",
          "originalText": "schlechte",
          "characterOffsetBegin": 75,
          "characterOffsetEnd": 84,
          "pos": "ADJA",
          "before": " ",
          "after": " "
        },
        {
          "index": 18,
          "word": "Schlafzimmerfähigkeiten",
          "originalText": "Schlafzimmerfähigkeiten",
          "characterOffsetBegin": 85,
          "characterOffsetEnd": 108,
          "pos": "NN",
          "before": " ",
          "after": " "
        },
        {
          "index": 19,
          "word": "entsorgt",
          "originalText": "entsorgt",
          "characterOffsetBegin": 109,
          "characterOffsetEnd": 117,
          "pos": "VVPP",
          "before": " ",
          "after": " "
        },
        {
          "index": 20,
          "word": "wurde",
          "originalText": "wurde",
          "characterOffsetBegin": 118,
          "characterOffsetEnd": 123,
          "pos": "VAFIN",
          "before": " ",
          "after": ""
        }
      ]
    }
  ]
}