{
  "sentences": [
    {
      "index": 0,
      "basicDependencies": [
        {
          "dep": "ROOT",
          "governor": 0,
          "governorGloss": "ROOT",
          "dependent": 3,
          "dependentGloss": "spielt"
        },
        {
          "dep": "amod",
          "governor": 2,
          "governorGloss": "Rogen",
          "dependent": 1,
          "dependentGloss": "Seth"
        },
        {
          "dep": "nsubj",
          "governor": 3,
          "governorGloss": "spielt",
          "dependent": 2,
          "dependentGloss": "Rogen"
        },
        {
          "dep": "name",
          "governor": 6,
          "governorGloss": "Wozniak",
          "dependent": 4,
          "dependentGloss": "Apfel"
        },
        {
          "dep": "name",
          "governor": 6,
          "governorGloss": "Wozniak",
          "dependent": 5,
          "dependentGloss": "Mitbegründer"
        },
        {
          "dep": "dobj",
          "governor": 3,
          "governorGloss": "spielt",
          "dependent": 6,
          "dependentGloss": "Wozniak"
        },
        {
          "dep": "case",
          "governor": 9,
          "governorGloss": "Jobs",
          "dependent": 7,
          "dependentGloss": "in"
        },
        {
          "dep": "name",
          "governor": 9,
          "governorGloss": "Jobs",
          "dependent": 8,
          "dependentGloss": "Steve"
        },
        {
          "dep": "nmod",
          "governor": 3,
          "governorGloss": "spielt",
          "dependent": 9,
          "dependentGloss": "Jobs"
        },
        {
          "dep": "advmod",
          "governor": 3,
          "governorGloss": "spielt",
          "dependent": 10,
          "dependentGloss": "Biopic"
        }
      ],
      "enhancedDependencies": [
        {
          "dep": "ROOT",
          "governor": 0,
          "governorGloss": "ROOT",
          "dependent": 3,
          "dependentGloss": "spielt"
        },
        {
          "dep": "amod",
          "governor": 2,
          "governorGloss": "Rogen",
          "dependent": 1,
          "dependentGloss": "Seth"
        },
        {
          "dep": "nsubj",
          "governor": 3,
          "governorGloss": "spielt",
          "dependent": 2,
          "dependentGloss": "Rogen"
        },
        {
          "dep": "name",
          "governor": 6,
          "governorGloss": "Wozniak",
          "dependent": 4,
          "dependentGloss": "Apfel"
        },
        {
          "dep": "name",
          "governor": 6,
          "governorGloss": "Wozniak",
          "dependent": 5,
          "dependentGloss": "Mitbegründer"
        },
        {
          "dep": "dobj",
          "governor": 3,
          "governorGloss": "spielt",
          "dependent": 6,
          "dependentGloss": "Wozniak"
        },
        {
          "dep": "case",
          "governor": 9,
          "governorGloss": "Jobs",
          "dependent": 7,
          "dependentGloss": "in"
        },
        {
          "dep": "name",
          "governor": 9,
          "governorGloss": "Jobs",
          "dependent": 8,
          "dependentGloss": "Steve"
        },
        {
          "dep": "nmod",
          "governor": 3,
          "governorGloss": "spielt",
          "dependent": 9,
          "dependentGloss": "Jobs"
        },
        {
          "dep": "advmod",
          "governor": 3,
          "governorGloss": "spielt",
          "dependent": 10,
          "dependentGloss": "Biopic"
        }
      ],
      "enhancedPlusPlusDependencies": [
        {
          "dep": "ROOT",
          "governor": 0,
          "governorGloss": "ROOT",
          "dependent": 3,
          "dependentGloss": "spielt"
        },
        {
          "dep": "amod",
          "governor": 2,
          "governorGloss": "Rogen",
          "dependent": 1,
          "dependentGloss": "Seth"
        },
        {
          "dep": "nsubj",
          "governor": 3,
          "governorGloss": "spielt",
          "dependent": 2,
          "dependentGloss": "Rogen"
        },
        {
          "dep": "name",
          "governor": 6,
          "governorGloss": "Wozniak",
          "dependent": 4,
          "dependentGloss": "Apfel"
        },
        {
          "dep": "name",
          "governor": 6,
          "governorGloss": "Wozniak",
          "dependent": 5,
          "dependentGloss": "Mitbegründer"
        },
        {
          "dep": "dobj",
          "governor": 3,
          "governorGloss": "spielt",
          "dependent": 6,
          "dependentGloss": "Wozniak"
        },
        {
          "dep": "case",
          "governor": 9,
          "governorGloss": "Jobs",
          "dependent": 7,
          "dependentGloss": "in"
        },
        {
          "dep": "name",
          "governor": 9,
          "governorGloss": "Jobs",
          "dependent": 8,
          "dependentGloss": "Steve"
        },
        {
          "dep": "nmod",
          "governor": 3,
          "governorGloss": "spielt",
          "dependent": 9,
          "dependentGloss": "Jobs"
        },
        {
          "dep": "advmod",
          "governor": 3,
          "governorGloss": "spielt",
          "dependent": 10,
          "dependentGloss": "Biopic"
        }
      ],
      "tokens": [
        {
          "index": 1,
          "word": "Seth",
          "originalText": "Seth",
          "characterOffsetBegin": 0,
          "characterOffsetEnd": 4,
          "pos": "NE",
          "before": "",
          "after": " "
        },
        {
          "index": 2,
          "word": "Rogen",
          "originalText": "Rogen",
          "characterOffsetBegin": 5,
          "characterOffsetEnd": 10,
          "pos": "NN",
          "before": " ",
          "after": " "
        },
        {
          "index": 3,
          "word": "spielt",
          "originalText": "spielt",
          "characterOffsetBegin": 11,
          "characterOffsetEnd": 17,
          "pos": "VVFIN",
          "before": " ",
          "after": " "
        },
        {
          "index": 4,
          "word": "Apfel",
          "originalText": "Apfel",
          "characterOffsetBegin": 18,
          "characterOffsetEnd": 23,
          "pos": "NN",
          "before": " ",
          "after": " "
        },
        {
          "index": 5,
          "word": "Mitbegründer",
          "originalText": "Mitbegründer",
          "characterOffsetBegin": 24,
          "characterOffsetEnd": 36,
          "pos": "NN",
          "before": " ",
          "after": " "
        },
        {
          "index": 6,
          "word": "Wozniak",
          "originalText": "Wozniak",
          "characterOffsetBegin": 37,
          "characterOffsetEnd": 44,
          "pos": "NE",
          "before": " ",
          "after": " "
        },
        {
          "index": 7,
          "word": "in",
          "originalText": "in",
          "characterOffsetBegin": 45,
          "characterOffsetEnd": 47,
          "pos": "APPR",
          "before": " ",
          "after": " "
        },
        {
          "index": 8,
          "word": "Steve",
          "originalText": "Steve",
          "characterOffsetBegin": 48,
          "characterOffsetEnd": 53,
          "pos": "NE",
          "before": " ",
          "after": " "
        },
        {
          "index": 9,
          "word": "Jobs",
          "originalText": "Jobs",
          "characterOffsetBegin": 54,
          "characterOffsetEnd": 58,
          "pos": "NN",
          "before": " ",
          "after": " "
        },
        {
          "index": 10,
          "word": "Biopic",
          "originalText": "Biopic",
          "characterOffsetBegin": 59,
          "characterOffsetEnd": 65,
          "pos": "NE",
          "before": " ",
          "after": ""
        }
      ]
    }
  ]
}