{
  "sentences": [
    {
      "index": 0,
      "basicDependencies": [
        {
          "dep": "ROOT",
          "governor": 0,
          "governorGloss": "ROOT",
          "dependent": 5,
          "dependentGloss": "geschossen"
        },
        {
          "dep": "dobj",
          "governor": 5,
          "governorGloss": "geschossen",
          "dependent": 1,
          "dependentGloss": "Audio"
        },
        {
          "dep": "aux",
          "governor": 5,
          "governorGloss": "geschossen",
          "dependent": 2,
          "dependentGloss": "kann"
        },
        {
          "dep": "name",
          "governor": 4,
          "governorGloss": "Brown",
          "dependent": 3,
          "dependentGloss": "Michael"
        },
        {
          "dep": "nsubj",
          "governor": 5,
          "governorGloss": "geschossen",
          "dependent": 4,
          "dependentGloss": "Brown"
        },
        {
          "dep": "aux",
          "governor": 5,
          "governorGloss": "geschossen",
          "dependent": 6,
          "dependentGloss": "haben"
        }
      ],
      "enhancedDependencies": [
        {
          "dep": "ROOT",
          "governor": 0,
          "governorGloss": "ROOT",
          "dependent": 5,
          "dependentGloss": "geschossen"
        },
        {
          "dep": "dobj",
          "governor": 5,
          "governorGloss": "geschossen",
          "dependent": 1,
          "dependentGloss": "Audio"
        },
        {
          "dep": "aux",
          "governor": 5,
          "governorGloss": "geschossen",
          "dependent": 2,
          "dependentGloss": "kann"
        },
        {
          "dep": "name",
          "governor": 4,
          "governorGloss": "Brown",
          "dependent": 3,
          "dependentGloss": "Michael"
        },
        {
          "dep": "nsubj",
          "governor": 5,
          "governorGloss": "geschossen",
          "dependent": 4,
          "dependentGloss": "Brown"
        },
        {
          "dep": "aux",
          "governor": 5,
          "governorGloss": "geschossen",
          "dependent": 6,
          "dependentGloss": "haben"
        }
      ],
      "enhancedPlusPlusDependencies": [
        {
          "dep": "ROOT",
          "governor": 0,
          "governorGloss": "ROOT",
          "dependent": 5,
          "dependentGloss": "geschossen"
        },
        {
          "dep": "dobj",
          "governor": 5,
          "governorGloss": "geschossen",
          "dependent": 1,
          "dependentGloss": "Audio"
        },
        {
          "dep": "aux",
          "governor": 5,
          "governorGloss": "geschossen",
          "dependent": 2,
          "dependentGloss": "kann"
        },
        {
          "dep": "name",
          "governor": 4,
          "governorGloss": "Brown",
          "dependent": 3,
          "dependentGloss": "Michael"
        },
        {
          "dep": "nsubj",
          "governor": 5,
          "governorGloss": "geschossen",
          "dependent": 4,
          "dependentGloss": "Brown"
        },
        {
          "dep": "aux",
          "governor": 5,
          "governorGloss": "geschossen",
          "dependent": 6,
          "dependentGloss": "haben"
        }
      ],
      "tokens": [
        {
          "index": 1,
          "word": "Audio",
          "originalText": "Audio",
          "characterOffsetBegin": 0,
          "characterOffsetEnd": 5,
          "pos": "NE",
          "before": "",
          "after": " "
        },
        {
          "index": 2,
          "word": "kann",
          "originalText": "kann",
          "characterOffsetBegin": 6,
          "characterOffsetEnd": 10,
          "pos": "VMFIN",
          "before": " ",
          "after": " "
        },
        {
          "index": 3,
          "word": "Michael",
          "originalText": "Michael",
          "characterOffsetBegin": 11,
          "characterOffsetEnd": 18,
          "pos": "NE",
          "before": " ",
          "after": " "
        },
        {
          "index": 4,
          "word": "Brown",
          "originalText": "Brown",
          "characterOffsetBegin": 19,
          "characterOffsetEnd": 24,
          "pos": "NE",
          "before": " ",
          "after": " "
        },
        {
          "index": 5,
          "word": "geschossen",
          "originalText": "geschossen",
          "characterOffsetBegin": 25,
          "characterOffsetEnd": 35,
          "pos": "VVPP",
          "before": " ",
          "after": " "
        },
        {
          "index": 6,
          "word": "haben",
          "originalText": "haben",
          "characterOffsetBegin": 36,
          "characterOffsetEnd": 41,
          "pos": "VAFIN",
          "before": " ",
          "after": ""
        }
      ]
    }
  ]
}