{
  "sentences": [
    {
      "index": 0,
      "basicDependencies": [
        {
          "dep": "ROOT",
          "governor": 0,
          "governorGloss": "ROOT",
          "dependent": 3,
          "dependentGloss": "Namen"
        },
        {
          "dep": "det",
          "governor": 3,
          "governorGloss": "Namen",
          "dependent": 1,
          "dependentGloss": "Töten"
        },
        {
          "dep": "amod",
          "governor": 3,
          "governorGloss": "Namen",
          "dependent": 2,
          "dependentGloss": "im"
        },
        {
          "dep": "appos",
          "governor": 3,
          "governorGloss": "Namen",
          "dependent": 4,
          "dependentGloss": "der"
        },
        {
          "dep": "punct",
          "governor": 4,
          "governorGloss": "der",
          "dependent": 5,
          "dependentGloss": "!"
        }
      ],
      "enhancedDependencies": [
        {
          "dep": "ROOT",
          "governor": 0,
          "governorGloss": "ROOT",
          "dependent": 3,
          "dependentGloss": "Namen"
        },
        {
          "dep": "det",
          "governor": 3,
          "governorGloss": "Namen",
          "dependent": 1,
          "dependentGloss": "Töten"
        },
        {
          "dep": "amod",
          "governor": 3,
          "governorGloss": "Namen",
          "dependent": 2,
          "dependentGloss": "im"
        },
        {
          "dep": "appos",
          "governor": 3,
          "governorGloss": "Namen",
          "dependent": 4,
          "dependentGloss": "der"
        },
        {
          "dep": "punct",
          "governor": 4,
          "governorGloss": "der",
          "dependent": 5,
          "dependentGloss": "!"
        }
      ],
      "enhancedPlusPlusDependencies": [
        {
          "dep": "ROOT",
          "governor": 0,
          "governorGloss": "ROOT",
          "dependent": 3,
          "dependentGloss": "Namen"
        },
        {
          "dep": "det",
          "governor": 3,
          "governorGloss": "Namen",
          "dependent": 1,
          "dependentGloss": "Töten"
        },
        {
          "dep": "amod",
          "governor": 3,
          "governorGloss": "Namen",
          "dependent": 2,
          "dependentGloss": "im"
        },
        {
          "dep": "appos",
          "governor": 3,
          "governorGloss": "Namen",
          "dependent": 4,
          "dependentGloss": "der"
        },
        {
          "dep": "punct",
          "governor": 4,
          "governorGloss": "der",
          "dependent": 5,
          "dependentGloss": "!"
        }
      ],
      "tokens": [
        {
          "index": 1,
          "word": "Töten",
          "originalText": "Töten",
          "characterOffsetBegin": 0,
          "characterOffsetEnd": 5,
          "pos": "NN",
          "before": "",
          "after": " "
        },
        {
          "index": 2,
          "word": "im",
          "originalText": "im",
          "characterOffsetBegin": 6,
          "characterOffsetEnd": 8,
          "pos": "APPRART",
          "before": " ",
          "after": " "
        },
        {
          "index": 3,
          "word": "Namen",
          "originalText": "Namen",
          "characterOffsetBegin": 9,
          "characterOffsetEnd": 14,
          "pos": "NN",
          "before": " ",
          "after": " "
        },
        {
          "index": 4,
          "word": "der",
          "originalText": "der",
          "characterOffsetBegin": 15,
          "characterOffsetEnd": 18,
          "pos": "ART",
          "before": " ",
          "after": ""
        },
        {
          "index": 5,
          "word": "!",
          "originalText": "!",
          "characterOffsetBegin": 18,
          "characterOffsetEnd": 19,
          "pos": "$.",
          "before": "",
          "after": " "
        }
      ]
    },
    {
      "index": 1,
      "basicDependencies": [
        {
          "dep": "ROOT",
          "governor": 0,
          "governorGloss": "ROOT",
          "dependent": 2,
          "dependentGloss": "Jong-un"
        },
        {
          "dep": "name",
          "governor": 2,
          "governorGloss": "Jong-un",
          "dependent": 1,
          "dependentGloss": "Kim"
        },
        {
          "dep": "amod",
          "governor": 4,
          "governorGloss": "Angriff",
          "dependent": 3,
          "dependentGloss": "startet"
        },
        {
          "dep": "det",
          "governor": 2,
          "governorGloss": "Jong-un",
          "dependent": 4,
          "dependentGloss": "Angriff"
        },
        {
          "dep": "case",
          "governor": 4,
          "governorGloss": "Angriff",
          "dependent": 5,
          "dependentGloss": "auf"
        },
        {
          "dep": "dep",
          "governor": 5,
          "governorGloss": "auf",
          "dependent": 6,
          "dependentGloss": "andere"
        },
        {
          "dep": "case",
          "governor": 10,
          "governorGloss": "Jong-un",
          "dependent": 7,
          "dependentGloss": "namens"
        },
        {
          "dep": "punct",
          "governor": 10,
          "governorGloss": "Jong-un",
          "dependent": 8,
          "dependentGloss": "`"
        },
        {
          "dep": "name",
          "governor": 10,
          "governorGloss": "Jong-un",
          "dependent": 9,
          "dependentGloss": "Kim"
        },
        {
          "dep": "root",
          "governor": 6,
          "governorGloss": "andere",
          "dependent": 10,
          "dependentGloss": "Jong-un"
        },
        {
          "dep": "punct",
          "governor": 10,
          "governorGloss": "Jong-un",
          "dependent": 11,
          "dependentGloss": "'"
        }
      ],
      "enhancedDependencies": [
        {
          "dep": "ROOT",
          "governor": 0,
          "governorGloss": "ROOT",
          "dependent": 2,
          "dependentGloss": "Jong-un"
        },
        {
          "dep": "name",
          "governor": 2,
          "governorGloss": "Jong-un",
          "dependent": 1,
          "dependentGloss": "Kim"
        },
        {
          "dep": "amod",
          "governor": 4,
          "governorGloss": "Angriff",
          "dependent": 3,
          "dependentGloss": "startet"
        },
        {
          "dep": "det",
          "governor": 2,
          "governorGloss": "Jong-un",
          "dependent": 4,
          "dependentGloss": "Angriff"
        },
        {
          "dep": "case",
          "governor": 4,
          "governorGloss": "Angriff",
          "dependent": 5,
          "dependentGloss": "auf"
        },
        {
          "dep": "dep",
          "governor": 5,
          "governorGloss": "auf",
          "dependent": 6,
          "dependentGloss": "andere"
        },
        {
          "dep": "case",
          "governor": 10,
          "governorGloss": "Jong-un",
          "dependent": 7,
          "dependentGloss": "namens"
        },
        {
          "dep": "punct",
          "governor": 10,
          "governorGloss": "Jong-un",
          "dependent": 8,
          "dependentGloss": "`"
        },
        {
          "dep": "name",
          "governor": 10,
          "governorGloss": "Jong-un",
          "dependent": 9,
          "dependentGloss": "Kim"
        },
        {
          "dep": "root",
          "governor": 6,
          "governorGloss": "andere",
          "dependent": 10,
          "dependentGloss": "Jong-un"
        },
        {
          "dep": "punct",
          "governor": 10,
          "governorGloss": "Jong-un",
          "dependent": 11,
          "dependentGloss": "'"
        }
      ],
      "enhancedPlusPlusDependencies": [
        {
          "dep": "ROOT",
          "governor": 0,
          "governorGloss": "ROOT",
          "dependent": 2,
          "dependentGloss": "Jong-un"
        },
        {
          "dep": "name",
          "governor": 2,
          "governorGloss": "Jong-un",
          "dependent": 1,
          "dependentGloss": "Kim"
        },
        {
          "dep": "amod",
          "governor": 4,
          "governorGloss": "Angriff",
          "dependent": 3,
          "dependentGloss": "startet"
        },
        {
          "dep": "det",
          "governor": 2,
          "governorGloss": "Jong-un",
          "dependent": 4,
          "dependentGloss": "Angriff"
        },
        {
          "dep": "case",
          "governor": 4,
          "governorGloss": "Angriff",
          "dependent": 5,
          "dependentGloss": "auf"
        },
        {
          "dep": "dep",
          "governor": 5,
          "governorGloss": "auf",
          "dependent": 6,
          "dependentGloss": "andere"
        },
        {
          "dep": "case",
          "governor": 10,
          "governorGloss": "Jong-un",
          "dependent": 7,
          "dependentGloss": "namens"
        },
        {
          "dep": "punct",
          "governor": 10,
          "governorGloss": "Jong-un",
          "dependent": 8,
          "dependentGloss": "`"
        },
        {
          "dep": "name",
          "governor": 10,
          "governorGloss": "Jong-un",
          "dependent": 9,
          "dependentGloss": "Kim"
        },
        {
          "dep": "root",
          "governor": 6,
          "governorGloss": "andere",
          "dependent": 10,
          "dependentGloss": "Jong-un"
        },
        {
          "dep": "punct",
          "governor": 10,
          "governorGloss": "Jong-un",
          "dependent": 11,
          "dependentGloss": "'"
        }
      ],
      "tokens": [
        {
          "index": 1,
          "word": "Kim",
          "originalText": "Kim",
          "characterOffsetBegin": 20,
          "characterOffsetEnd": 23,
          "pos": "NE",
          "before": " ",
          "after": " "
        },
        {
          "index": 2,
          "word": "Jong-un",
          "originalText": "Jong-un",
          "characterOffsetBegin": 24,
          "characterOffsetEnd": 31,
          "pos": "NE",
          "before": " ",
          "after": " "
        },
        {
          "index": 3,
          "word": "startet",
          "originalText": "startet",
          "characterOffsetBegin": 32,
          "characterOffsetEnd": 39,
          "pos": "VVFIN",
          "before": " ",
          "after": " "
        },
        {
          "index": 4,
          "word": "Angriff",
          "originalText": "Angriff",
          "characterOffsetBegin": 40,
          "characterOffsetEnd": 47,
          "pos": "NN",
          "before": " ",
          "after": " "
        },
        {
          "index": 5,
          "word": "auf",
          "originalText": "auf",
          "characterOffsetBegin": 48,
          "characterOffsetEnd": 51,
          "pos": "APPR",
          "before": " ",
          "after": " "
        },
        {
          "index": 6,
          "word": "andere",
          "originalText": "andere",
          "characterOffsetBegin": 52,
          "characterOffsetEnd": 58,
          "pos": "ADJA",
          "before": " ",
          "after": " "
        },
        {
          "index": 7,
          "word": "namens",
          "originalText": "namens",
          "characterOffsetBegin": 59,
          "characterOffsetEnd": 65,
          "pos": "APPR",
          "before": " ",
          "after": " "
        },
        {
          "index": 8,
          "word": "`",
          "originalText": "'",
          "characterOffsetBegin": 66,
          "characterOffsetEnd": 67,
          "pos": "CARD",
          "before": " ",
          "after": ""
        },
        {
          "index": 9,
          "word": "Kim",
          "originalText": "Kim",
          "characterOffsetBegin": 67,
          "characterOffsetEnd": 70,
          "pos": "NE",
          "before": "",
          "after": " "
        },
        {
          "index": 10,
          "word": "Jong-un",
          "originalText": "Jong-un",
          "characterOffsetBegin": 71,
          "characterOffsetEnd": 78,
          "pos": "NE",
          "before": " ",
          "after": ""
        },
        {
          "index": 11,
          "word": "'",
          "originalText": "'",
          "characterOffsetBegin": 78,
          "characterOffsetEnd": 79,
          "pos": "$[",
          "before": "",
          "after": ""
        }
      ]
    }
  ]
}