{
  "sentences": [
    {
      "index": 0,
      "basicDependencies": [
        {
          "dep": "ROOT",
          "governor": 0,
          "governorGloss": "ROOT",
          "dependent": 1,
          "dependentGloss": "BERICHT"
        },
        {
          "dep": "punct",
          "governor": 1,
          "governorGloss": "BERICHT",
          "dependent": 2,
          "dependentGloss": ":"
        },
        {
          "dep": "det",
          "governor": 4,
          "governorGloss": "Batmobile",
          "dependent": 3,
          "dependentGloss": "Der"
        },
        {
          "dep": "nsubjpass",
          "governor": 8,
          "governorGloss": "gestohlen",
          "dependent": 4,
          "dependentGloss": "Batmobile"
        },
        {
          "dep": "aux",
          "governor": 8,
          "governorGloss": "gestohlen",
          "dependent": 5,
          "dependentGloss": "könnte"
        },
        {
          "dep": "case",
          "governor": 7,
          "governorGloss": "Detroit",
          "dependent": 6,
          "dependentGloss": "in"
        },
        {
          "dep": "nmod",
          "governor": 8,
          "governorGloss": "gestohlen",
          "dependent": 7,
          "dependentGloss": "Detroit"
        },
        {
          "dep": "parataxis",
          "governor": 1,
          "governorGloss": "BERICHT",
          "dependent": 8,
          "dependentGloss": "gestohlen"
        },
        {
          "dep": "auxpass",
          "governor": 8,
          "governorGloss": "gestohlen",
          "dependent": 9,
          "dependentGloss": "worden"
        },
        {
          "dep": "aux",
          "governor": 8,
          "governorGloss": "gestohlen",
          "dependent": 10,
          "dependentGloss": "sein"
        }
      ],
      "enhancedDependencies": [
        {
          "dep": "ROOT",
          "governor": 0,
          "governorGloss": "ROOT",
          "dependent": 1,
          "dependentGloss": "BERICHT"
        },
        {
          "dep": "punct",
          "governor": 1,
          "governorGloss": "BERICHT",
          "dependent": 2,
          "dependentGloss": ":"
        },
        {
          "dep": "det",
          "governor": 4,
          "governorGloss": "Batmobile",
          "dependent": 3,
          "dependentGloss": "Der"
        },
        {
          "dep": "nsubjpass",
          "governor": 8,
          "governorGloss": "gestohlen",
          "dependent": 4,
          "dependentGloss": "Batmobile"
        },
        {
          "dep": "aux",
          "governor": 8,
          "governorGloss": "gestohlen",
          "dependent": 5,
          "dependentGloss": "könnte"
        },
        {
          "dep": "case",
          "governor": 7,
          "governorGloss": "Detroit",
          "dependent": 6,
          "dependentGloss": "in"
        },
        {
          "dep": "nmod",
          "governor": 8,
          "governorGloss": "gestohlen",
          "dependent": 7,
          "dependentGloss": "Detroit"
        },
        {
          "dep": "parataxis",
          "governor": 1,
          "governorGloss": "BERICHT",
          "dependent": 8,
          "dependentGloss": "gestohlen"
        },
        {
          "dep": "auxpass",
          "governor": 8,
          "governorGloss": "gestohlen",
          "dependent": 9,
          "dependentGloss": "worden"
        },
        {
          "dep": "aux",
          "governor": 8,
          "governorGloss": "gestohlen",
          "dependent": 10,
          "dependentGloss": "sein"
        }
      ],
      "enhancedPlusPlusDependencies": [
        {
          "dep": "ROOT",
          "governor": 0,
          "governorGloss": "ROOT",
          "dependent": 1,
          "dependentGloss": "BERICHT"
        },
        {
          "dep": "punct",
          "governor": 1,
          "governorGloss": "BERICHT",
          "dependent": 2,
          "dependentGloss": ":"
        },
        {
          "dep": "det",
          "governor": 4,
          "governorGloss": "Batmobile",
          "dependent": 3,
          "dependentGloss": "Der"
        },
        {
          "dep": "nsubjpass",
          "governor": 8,
          "governorGloss": "gestohlen",
          "dependent": 4,
          "dependentGloss": "Batmobile"
        },
        {
          "dep": "aux",
          "governor": 8,
          "governorGloss": "gestohlen",
          "dependent": 5,
          "dependentGloss": "könnte"
        },
        {
          "dep": "case",
          "governor": 7,
          "governorGloss": "Detroit",
          "dependent": 6,
          "dependentGloss": "in"
        },
        {
          "dep": "nmod",
          "governor": 8,
          "governorGloss": "gestohlen",
          "dependent": 7,
          "dependentGloss": "Detroit"
        },
        {
          "dep": "parataxis",
          "governor": 1,
          "governorGloss": "BERICHT",
          "dependent": 8,
          "dependentGloss": "gestohlen"
        },
        {
          "dep": "auxpass",
          "governor": 8,
          "governorGloss": "gestohlen",
          "dependent": 9,
          "dependentGloss": "worden"
        },
        {
          "dep": "aux",
          "governor": 8,
          "governorGloss": "gestohlen",
          "dependent": 10,
          "dependentGloss": "sein"
        }
      ],
      "tokens": [
        {
          "index": 1,
          "word": "BERICHT",
          "originalText": "BERICHT",
          "characterOffsetBegin": 0,
          "characterOffsetEnd": 7,
          "pos": "NN",
          "before": "",
          "after": ""
        },
        {
          "index": 2,
          "word": ":",
          "originalText": ":",
          "characterOffsetBegin": 7,
          "characterOffsetEnd": 8,
          "pos": "$.",
          "before": "",
          "after": " "
        },
        {
          "index": 3,
          "word": "Der",
          "originalText": "Der",
          "characterOffsetBegin": 9,
          "characterOffsetEnd": 12,
          "pos": "ART",
          "before": " ",
          "after": " "
        },
        {
          "index": 4,
          "word": "Batmobile",
          "originalText": "Batmobile",
          "characterOffsetBegin": 13,
          "characterOffsetEnd": 22,
          "pos": "NN",
          "before": " ",
          "after": " "
        },
        {
          "index": 5,
          "word": "könnte",
          "originalText": "könnte",
          "characterOffsetBegin": 23,
          "characterOffsetEnd": 29,
          "pos": "VMFIN",
          "before": " ",
          "after": " "
        },
        {
          "index": 6,
          "word": "in",
          "originalText": "in",
          "characterOffsetBegin": 30,
          "characterOffsetEnd": 32,
          "pos": "APPR",
          "before": " ",
          "after": " "
        },
        {
          "index": 7,
          "word": "Detroit",
          "originalText": "Detroit",
          "characterOffsetBegin": 33,
          "characterOffsetEnd": 40,
          "pos": "NE",
          "before": " ",
          "after": " "
        },
        {
          "index": 8,
          "word": "gestohlen",
          "originalText": "gestohlen",
          "characterOffsetBegin": 41,
          "characterOffsetEnd": 50,
          "pos": "VVPP",
          "before": " ",
          "after": " "
        },
        {
          "index": 9,
          "word": "worden",
          "originalText": "worden",
          "characterOffsetBegin": 51,
          "characterOffsetEnd": 57,
          "pos": "VAPP",
          "before": " ",
          "after": " "
        },
        {
          "index": 10,
          "word": "sein",
          "originalText": "sein",
          "characterOffsetBegin": 58,
          "characterOffsetEnd": 62,
          "pos": "VAINF",
          "before": " ",
          "after": ""
        }
      ]
    }
  ]
}