{
  "sentences": [
    {
      "index": 0,
      "basicDependencies": [
        {
          "dep": "ROOT",
          "governor": 0,
          "governorGloss": "ROOT",
          "dependent": 5,
          "dependentGloss": "abgebrochen"
        },
        {
          "dep": "nsubj",
          "governor": 5,
          "governorGloss": "abgebrochen",
          "dependent": 1,
          "dependentGloss": "Ich"
        },
        {
          "dep": "aux",
          "governor": 5,
          "governorGloss": "abgebrochen",
          "dependent": 2,
          "dependentGloss": "habe"
        },
        {
          "dep": "det",
          "governor": 4,
          "governorGloss": "Baby",
          "dependent": 3,
          "dependentGloss": "mein"
        },
        {
          "dep": "dobj",
          "governor": 5,
          "governorGloss": "abgebrochen",
          "dependent": 4,
          "dependentGloss": "Baby"
        },
        {
          "dep": "punct",
          "governor": 5,
          "governorGloss": "abgebrochen",
          "dependent": 6,
          "dependentGloss": ","
        },
        {
          "dep": "mark",
          "governor": 10,
          "governorGloss": "Junge",
          "dependent": 7,
          "dependentGloss": "weil"
        },
        {
          "dep": "nsubj",
          "governor": 10,
          "governorGloss": "Junge",
          "dependent": 8,
          "dependentGloss": "es"
        },
        {
          "dep": "det",
          "governor": 10,
          "governorGloss": "Junge",
          "dependent": 9,
          "dependentGloss": "ein"
        },
        {
          "dep": "advcl",
          "governor": 5,
          "governorGloss": "abgebrochen",
          "dependent": 10,
          "dependentGloss": "Junge"
        },
        {
          "dep": "cop",
          "governor": 5,
          "governorGloss": "abgebrochen",
          "dependent": 11,
          "dependentGloss": "war"
        }
      ],
      "enhancedDependencies": [
        {
          "dep": "ROOT",
          "governor": 0,
          "governorGloss": "ROOT",
          "dependent": 5,
          "dependentGloss": "abgebrochen"
        },
        {
          "dep": "nsubj",
          "governor": 5,
          "governorGloss": "abgebrochen",
          "dependent": 1,
          "dependentGloss": "Ich"
        },
        {
          "dep": "aux",
          "governor": 5,
          "governorGloss": "abgebrochen",
          "dependent": 2,
          "dependentGloss": "habe"
        },
        {
          "dep": "det",
          "governor": 4,
          "governorGloss": "Baby",
          "dependent": 3,
          "dependentGloss": "mein"
        },
        {
          "dep": "dobj",
          "governor": 5,
          "governorGloss": "abgebrochen",
          "dependent": 4,
          "dependentGloss": "Baby"
        },
        {
          "dep": "punct",
          "governor": 5,
          "governorGloss": "abgebrochen",
          "dependent": 6,
          "dependentGloss": ","
        },
        {
          "dep": "mark",
          "governor": 10,
          "governorGloss": "Junge",
          "dependent": 7,
          "dependentGloss": "weil"
        },
        {
          "dep": "nsubj",
          "governor": 10,
          "governorGloss": "Junge",
          "dependent": 8,
          "dependentGloss": "es"
        },
        {
          "dep": "det",
          "governor": 10,
          "governorGloss": "Junge",
          "dependent": 9,
          "dependentGloss": "ein"
        },
        {
          "dep": "advcl",
          "governor": 5,
          "governorGloss": "abgebrochen",
          "dependent": 10,
          "dependentGloss": "Junge"
        },
        {
          "dep": "cop",
          "governor": 5,
          "governorGloss": "abgebrochen",
          "dependent": 11,
          "dependentGloss": "war"
        }
      ],
      "enhancedPlusPlusDependencies": [
        {
          "dep": "ROOT",
          "governor": 0,
          "governorGloss": "ROOT",
          "dependent": 5,
          "dependentGloss": "abgebrochen"
        },
        {
          "dep": "nsubj",
          "governor": 5,
          "governorGloss": "abgebrochen",
          "dependent": 1,
          "dependentGloss": "Ich"
        },
        {
          "dep": "aux",
          "governor": 5,
          "governorGloss": "abgebrochen",
          "dependent": 2,
          "dependentGloss": "habe"
        },
        {
          "dep": "det",
          "governor": 4,
          "governorGloss": "Baby",
          "dependent": 3,
          "dependentGloss": "mein"
        },
        {
          "dep": "dobj",
          "governor": 5,
          "governorGloss": "abgebrochen",
          "dependent": 4,
          "dependentGloss": "Baby"
        },
        {
          "dep": "punct",
          "governor": 5,
          "governorGloss": "abgebrochen",
          "dependent": 6,
          "dependentGloss": ","
        },
        {
          "dep": "mark",
          "governor": 10,
          "governorGloss": "Junge",
          "dependent": 7,
          "dependentGloss": "weil"
        },
        {
          "dep": "nsubj",
          "governor": 10,
          "governorGloss": "Junge",
          "dependent": 8,
          "dependentGloss": "es"
        },
        {
          "dep": "det",
          "governor": 10,
          "governorGloss": "Junge",
          "dependent": 9,
          "dependentGloss": "ein"
        },
        {
          "dep": "advcl",
          "governor": 5,
          "governorGloss": "abgebrochen",
          "dependent": 10,
          "dependentGloss": "Junge"
        },
        {
          "dep": "cop",
          "governor": 5,
          "governorGloss": "abgebrochen",
          "dependent": 11,
          "dependentGloss": "war"
        }
      ],
      "tokens": [
        {
          "index": 1,
          "word": "Ich",
          "originalText": "Ich",
          "characterOffsetBegin": 0,
          "characterOffsetEnd": 3,
          "pos": "PPER",
          "before": "",
          "after": " "
        },
        {
          "index": 2,
          "word": "habe",
          "originalText": "habe",
          "characterOffsetBegin": 4,
          "characterOffsetEnd": 8,
          "pos": "VAFIN",
          "before": " ",
          "after": " "
        },
        {
          "index": 3,
          "word": "mein",
          "originalText": "mein",
          "characterOffsetBegin": 9,
          "characterOffsetEnd": 13,
          "pos": "PPOSAT",
          "before": " ",
          "after": " "
        },
        {
          "index": 4,
          "word": "Baby",
          "originalText": "Baby",
          "characterOffsetBegin": 14,
          "characterOffsetEnd": 18,
          "pos": "NN",
          "before": " ",
          "after": " "
        },
        {
          "index": 5,
          "word": "abgebrochen",
          "originalText": "abgebrochen",
          "characterOffsetBegin": 19,
          "characterOffsetEnd": 30,
          "pos": "VVPP",
          "before": " ",
          "after": ""
        },
        {
          "index": 6,
          "word": ",",
          "originalText": ",",
          "characterOffsetBegin": 30,
          "characterOffsetEnd": 31,
          "pos": "$,",
          "before": "",
          "after": " "
        },
        {
          "index": 7,
          "word": "weil",
          "originalText": "weil",
          "characterOffsetBegin": 32,
          "characterOffsetEnd": 36,
          "pos": "KOUS",
          "before": " ",
          "after": " "
        },
        {
          "index": 8,
          "word": "es",
          "originalText": "es",
          "characterOffsetBegin": 37,
          "characterOffsetEnd": 39,
          "pos": "PPER",
          "before": " ",
          "after": " "
        },
        {
          "index": 9,
          "word": "ein",
          "originalText": "ein",
          "characterOffsetBegin": 40,
          "characterOffsetEnd": 43,
          "pos": "ART",
          "before": " ",
          "after": " "
        },
        {
          "index": 10,
          "word": "Junge",
          "originalText": "Junge",
          "characterOffsetBegin": 44,
          "characterOffsetEnd": 49,
          "pos": "NN",
          "before": " ",
          "after": " "
        },
        {
          "index": 11,
          "word": "war",
          "originalText": "war",
          "characterOffsetBegin": 50,
          "characterOffsetEnd": 53,
          "pos": "VAFIN",
          "before": " ",
          "after": ""
        }
      ]
    }
  ]
}