{
  "sentences": [
    {
      "index": 0,
      "basicDependencies": [
        {
          "dep": "ROOT",
          "governor": 0,
          "governorGloss": "ROOT",
          "dependent": 3,
          "dependentGloss": "okay"
        },
        {
          "dep": "nsubj",
          "governor": 3,
          "governorGloss": "okay",
          "dependent": 1,
          "dependentGloss": "Es"
        },
        {
          "dep": "cop",
          "governor": 3,
          "governorGloss": "okay",
          "dependent": 2,
          "dependentGloss": "ist"
        },
        {
          "dep": "punct",
          "governor": 3,
          "governorGloss": "okay",
          "dependent": 4,
          "dependentGloss": ","
        },
        {
          "dep": "case",
          "governor": 7,
          "governorGloss": "Tatsache",
          "dependent": 5,
          "dependentGloss": "über"
        },
        {
          "dep": "det",
          "governor": 7,
          "governorGloss": "Tatsache",
          "dependent": 6,
          "dependentGloss": "die"
        },
        {
          "dep": "nmod",
          "governor": 9,
          "governorGloss": "lachen",
          "dependent": 7,
          "dependentGloss": "Tatsache"
        },
        {
          "dep": "aux",
          "governor": 9,
          "governorGloss": "lachen",
          "dependent": 8,
          "dependentGloss": "zu"
        },
        {
          "dep": "xcomp",
          "governor": 3,
          "governorGloss": "okay",
          "dependent": 9,
          "dependentGloss": "lachen"
        },
        {
          "dep": "punct",
          "governor": 3,
          "governorGloss": "okay",
          "dependent": 10,
          "dependentGloss": ","
        },
        {
          "dep": "mark",
          "governor": 14,
          "governorGloss": "schlimmer",
          "dependent": 11,
          "dependentGloss": "dass"
        },
        {
          "dep": "det",
          "governor": 13,
          "governorGloss": "Vogue-Ratten-Infestation",
          "dependent": 12,
          "dependentGloss": "die"
        },
        {
          "dep": "nsubj",
          "governor": 14,
          "governorGloss": "schlimmer",
          "dependent": 13,
          "dependentGloss": "Vogue-Ratten-Infestation"
        },
        {
          "dep": "ccomp",
          "governor": 3,
          "governorGloss": "okay",
          "dependent": 14,
          "dependentGloss": "schlimmer"
        },
        {
          "dep": "cop",
          "governor": 14,
          "governorGloss": "schlimmer",
          "dependent": 15,
          "dependentGloss": "wird"
        }
      ],
      "enhancedDependencies": [
        {
          "dep": "ROOT",
          "governor": 0,
          "governorGloss": "ROOT",
          "dependent": 3,
          "dependentGloss": "okay"
        },
        {
          "dep": "nsubj",
          "governor": 3,
          "governorGloss": "okay",
          "dependent": 1,
          "dependentGloss": "Es"
        },
        {
          "dep": "cop",
          "governor": 3,
          "governorGloss": "okay",
          "dependent": 2,
          "dependentGloss": "ist"
        },
        {
          "dep": "punct",
          "governor": 3,
          "governorGloss": "okay",
          "dependent": 4,
          "dependentGloss": ","
        },
        {
          "dep": "case",
          "governor": 7,
          "governorGloss": "Tatsache",
          "dependent": 5,
          "dependentGloss": "über"
        },
        {
          "dep": "det",
          "governor": 7,
          "governorGloss": "Tatsache",
          "dependent": 6,
          "dependentGloss": "die"
        },
        {
          "dep": "nmod",
          "governor": 9,
          "governorGloss": "lachen",
          "dependent": 7,
          "dependentGloss": "Tatsache"
        },
        {
          "dep": "aux",
          "governor": 9,
          "governorGloss": "lachen",
          "dependent": 8,
          "dependentGloss": "zu"
        },
        {
          "dep": "xcomp",
          "governor": 3,
          "governorGloss": "okay",
          "dependent": 9,
          "dependentGloss": "lachen"
        },
        {
          "dep": "punct",
          "governor": 3,
          "governorGloss": "okay",
          "dependent": 10,
          "dependentGloss": ","
        },
        {
          "dep": "mark",
          "governor": 14,
          "governorGloss": "schlimmer",
          "dependent": 11,
          "dependentGloss": "dass"
        },
        {
          "dep": "det",
          "governor": 13,
          "governorGloss": "Vogue-Ratten-Infestation",
          "dependent": 12,
          "dependentGloss": "die"
        },
        {
          "dep": "nsubj",
          "governor": 14,
          "governorGloss": "schlimmer",
          "dependent": 13,
          "dependentGloss": "Vogue-Ratten-Infestation"
        },
        {
          "dep": "ccomp",
          "governor": 3,
          "governorGloss": "okay",
          "dependent": 14,
          "dependentGloss": "schlimmer"
        },
        {
          "dep": "cop",
          "governor": 14,
          "governorGloss": "schlimmer",
          "dependent": 15,
          "dependentGloss": "wird"
        }
      ],
      "enhancedPlusPlusDependencies": [
        {
          "dep": "ROOT",
          "governor": 0,
          "governorGloss": "ROOT",
          "dependent": 3,
          "dependentGloss": "okay"
        },
        {
          "dep": "nsubj",
          "governor": 3,
          "governorGloss": "okay",
          "dependent": 1,
          "dependentGloss": "Es"
        },
        {
          "dep": "cop",
          "governor": 3,
          "governorGloss": "okay",
          "dependent": 2,
          "dependentGloss": "ist"
        },
        {
          "dep": "punct",
          "governor": 3,
          "governorGloss": "okay",
          "dependent": 4,
          "dependentGloss": ","
        },
        {
          "dep": "case",
          "governor": 7,
          "governorGloss": "Tatsache",
          "dependent": 5,
          "dependentGloss": "über"
        },
        {
          "dep": "det",
          "governor": 7,
          "governorGloss": "Tatsache",
          "dependent": 6,
          "dependentGloss": "die"
        },
        {
          "dep": "nmod",
          "governor": 9,
          "governorGloss": "lachen",
          "dependent": 7,
          "dependentGloss": "Tatsache"
        },
        {
          "dep": "aux",
          "governor": 9,
          "governorGloss": "lachen",
          "dependent": 8,
          "dependentGloss": "zu"
        },
        {
          "dep": "xcomp",
          "governor": 3,
          "governorGloss": "okay",
          "dependent": 9,
          "dependentGloss": "lachen"
        },
        {
          "dep": "punct",
          "governor": 3,
          "governorGloss": "okay",
          "dependent": 10,
          "dependentGloss": ","
        },
        {
          "dep": "mark",
          "governor": 14,
          "governorGloss": "schlimmer",
          "dependent": 11,
          "dependentGloss": "dass"
        },
        {
          "dep": "det",
          "governor": 13,
          "governorGloss": "Vogue-Ratten-Infestation",
          "dependent": 12,
          "dependentGloss": "die"
        },
        {
          "dep": "nsubj",
          "governor": 14,
          "governorGloss": "schlimmer",
          "dependent": 13,
          "dependentGloss": "Vogue-Ratten-Infestation"
        },
        {
          "dep": "ccomp",
          "governor": 3,
          "governorGloss": "okay",
          "dependent": 14,
          "dependentGloss": "schlimmer"
        },
        {
          "dep": "cop",
          "governor": 14,
          "governorGloss": "schlimmer",
          "dependent": 15,
          "dependentGloss": "wird"
        }
      ],
      "tokens": [
        {
          "index": 1,
          "word": "Es",
          "originalText": "Es",
          "characterOffsetBegin": 0,
          "characterOffsetEnd": 2,
          "pos": "PPER",
          "before": "",
          "after": " "
        },
        {
          "index": 2,
          "word": "ist",
          "originalText": "ist",
          "characterOffsetBegin": 3,
          "characterOffsetEnd": 6,
          "pos": "VAFIN",
          "before": " ",
          "after": " "
        },
        {
          "index": 3,
          "word": "okay",
          "originalText": "okay",
          "characterOffsetBegin": 7,
          "characterOffsetEnd": 11,
          "pos": "ADJD",
          "before": " ",
          "after": ""
        },
        {
          "index": 4,
          "word": ",",
          "originalText": ",",
          "characterOffsetBegin": 11,
          "characterOffsetEnd": 12,
          "pos": "$,",
          "before": "",
          "after": " "
        },
        {
          "index": 5,
          "word": "über",
          "originalText": "über",
          "characterOffsetBegin": 13,
          "characterOffsetEnd": 17,
          "pos": "APPR",
          "before": " ",
          "after": " "
        },
        {
          "index": 6,
          "word": "die",
          "originalText": "die",
          "characterOffsetBegin": 18,
          "characterOffsetEnd": 21,
          "pos": "ART",
          "before": " ",
          "after": " "
        },
        {
          "index": 7,
          "word": "Tatsache",
          "originalText": "Tatsache",
          "characterOffsetBegin": 22,
          "characterOffsetEnd": 30,
          "pos": "NN",
          "before": " ",
          "after": " "
        },
        {
          "index": 8,
          "word": "zu",
          "originalText": "zu",
          "characterOffsetBegin": 31,
          "characterOffsetEnd": 33,
          "pos": "PTKZU",
          "before": " ",
          "after": " "
        },
        {
          "index": 9,
          "word": "lachen",
          "originalText": "lachen",
          "characterOffsetBegin": 34,
          "characterOffsetEnd": 40,
          "pos": "VVINF",
          "before": " ",
          "after": ""
        },
        {
          "index": 10,
          "word": ",",
          "originalText": ",",
          "characterOffsetBegin": 40,
          "characterOffsetEnd": 41,
          "pos": "$,",
          "before": "",
          "after": " "
        },
        {
          "index": 11,
          "word": "dass",
          "originalText": "dass",
          "characterOffsetBegin": 42,
          "characterOffsetEnd": 46,
          "pos": "KOUS",
          "before": " ",
          "after": " "
        },
        {
          "index": 12,
          "word": "die",
          "originalText": "die",
          "characterOffsetBegin": 47,
          "characterOffsetEnd": 50,
          "pos": "ART",
          "before": " ",
          "after": " "
        },
        {
          "index": 13,
          "word": "Vogue-Ratten-Infestation",
          "originalText": "Vogue-Ratten-Infestation",
          "characterOffsetBegin": 51,
          "characterOffsetEnd": 75,
          "pos": "NN",
          "before": " ",
          "after": " "
        },
        {
          "index": 14,
          "word": "schlimmer",
          "originalText": "schlimmer",
          "characterOffsetBegin": 76,
          "characterOffsetEnd": 85,
          "pos": "ADJD",
          "before": " ",
          "after": " "
        },
        {
          "index": 15,
          "word": "wird",
          "originalText": "wird",
          "characterOffsetBegin": 86,
          "characterOffsetEnd": 90,
          "pos": "VAFIN",
          "before": " ",
          "after": ""
        }
      ]
    }
  ]
}