{
  "sentences": [
    {
      "index": 0,
      "basicDependencies": [
        {
          "dep": "ROOT",
          "governor": 0,
          "governorGloss": "ROOT",
          "dependent": 11,
          "dependentGloss": "demütigt"
        },
        {
          "dep": "nsubj",
          "governor": 11,
          "governorGloss": "demütigt",
          "dependent": 1,
          "dependentGloss": "Frau"
        },
        {
          "dep": "name",
          "governor": 3,
          "governorGloss": "Mann",
          "dependent": 2,
          "dependentGloss": "fängt"
        },
        {
          "dep": "appos",
          "governor": 1,
          "governorGloss": "Frau",
          "dependent": 3,
          "dependentGloss": "Mann"
        },
        {
          "dep": "punct",
          "governor": 1,
          "governorGloss": "Frau",
          "dependent": 4,
          "dependentGloss": ","
        },
        {
          "dep": "nsubj",
          "governor": 9,
          "governorGloss": "betrügt",
          "dependent": 5,
          "dependentGloss": "der"
        },
        {
          "dep": "case",
          "governor": 8,
          "governorGloss": "Zwilling",
          "dependent": 6,
          "dependentGloss": "mit"
        },
        {
          "dep": "det",
          "governor": 8,
          "governorGloss": "Zwilling",
          "dependent": 7,
          "dependentGloss": "ihrem"
        },
        {
          "dep": "nmod",
          "governor": 9,
          "governorGloss": "betrügt",
          "dependent": 8,
          "dependentGloss": "Zwilling"
        },
        {
          "dep": "acl",
          "governor": 1,
          "governorGloss": "Frau",
          "dependent": 9,
          "dependentGloss": "betrügt"
        },
        {
          "dep": "punct",
          "governor": 9,
          "governorGloss": "betrügt",
          "dependent": 10,
          "dependentGloss": ","
        },
        {
          "dep": "dobj",
          "governor": 11,
          "governorGloss": "demütigt",
          "dependent": 12,
          "dependentGloss": "sie"
        }
      ],
      "enhancedDependencies": [
        {
          "dep": "ROOT",
          "governor": 0,
          "governorGloss": "ROOT",
          "dependent": 11,
          "dependentGloss": "demütigt"
        },
        {
          "dep": "nsubj",
          "governor": 11,
          "governorGloss": "demütigt",
          "dependent": 1,
          "dependentGloss": "Frau"
        },
        {
          "dep": "name",
          "governor": 3,
          "governorGloss": "Mann",
          "dependent": 2,
          "dependentGloss": "fängt"
        },
        {
          "dep": "appos",
          "governor": 1,
          "governorGloss": "Frau",
          "dependent": 3,
          "dependentGloss": "Mann"
        },
        {
          "dep": "punct",
          "governor": 1,
          "governorGloss": "Frau",
          "dependent": 4,
          "dependentGloss": ","
        },
        {
          "dep": "nsubj",
          "governor": 9,
          "governorGloss": "betrügt",
          "dependent": 5,
          "dependentGloss": "der"
        },
        {
          "dep": "case",
          "governor": 8,
          "governorGloss": "Zwilling",
          "dependent": 6,
          "dependentGloss": "mit"
        },
        {
          "dep": "det",
          "governor": 8,
          "governorGloss": "Zwilling",
          "dependent": 7,
          "dependentGloss": "ihrem"
        },
        {
          "dep": "nmod",
          "governor": 9,
          "governorGloss": "betrügt",
          "dependent": 8,
          "dependentGloss": "Zwilling"
        },
        {
          "dep": "acl",
          "governor": 1,
          "governorGloss": "Frau",
          "dependent": 9,
          "dependentGloss": "betrügt"
        },
        {
          "dep": "punct",
          "governor": 9,
          "governorGloss": "betrügt",
          "dependent": 10,
          "dependentGloss": ","
        },
        {
          "dep": "dobj",
          "governor": 11,
          "governorGloss": "demütigt",
          "dependent": 12,
          "dependentGloss": "sie"
        }
      ],
      "enhancedPlusPlusDependencies": [
        {
          "dep": "ROOT",
          "governor": 0,
          "governorGloss": "ROOT",
          "dependent": 11,
          "dependentGloss": "demütigt"
        },
        {
          "dep": "nsubj",
          "governor": 11,
          "governorGloss": "demütigt",
          "dependent": 1,
          "dependentGloss": "Frau"
        },
        {
          "dep": "name",
          "governor": 3,
          "governorGloss": "Mann",
          "dependent": 2,
          "dependentGloss": "fängt"
        },
        {
          "dep": "appos",
          "governor": 1,
          "governorGloss": "Frau",
          "dependent": 3,
          "dependentGloss": "Mann"
        },
        {
          "dep": "punct",
          "governor": 1,
          "governorGloss": "Frau",
          "dependent": 4,
          "dependentGloss": ","
        },
        {
          "dep": "nsubj",
          "governor": 9,
          "governorGloss": "betrügt",
          "dependent": 5,
          "dependentGloss": "der"
        },
        {
          "dep": "case",
          "governor": 8,
          "governorGloss": "Zwilling",
          "dependent": 6,
          "dependentGloss": "mit"
        },
        {
          "dep": "det",
          "governor": 8,
          "governorGloss": "Zwilling",
          "dependent": 7,
          "dependentGloss": "ihrem"
        },
        {
          "dep": "nmod",
          "governor": 9,
          "governorGloss": "betrügt",
          "dependent": 8,
          "dependentGloss": "Zwilling"
        },
        {
          "dep": "acl",
          "governor": 1,
          "governorGloss": "Frau",
          "dependent": 9,
          "dependentGloss": "betrügt"
        },
        {
          "dep": "punct",
          "governor": 9,
          "governorGloss": "betrügt",
          "dependent": 10,
          "dependentGloss": ","
        },
        {
          "dep": "dobj",
          "governor": 11,
          "governorGloss": "demütigt",
          "dependent": 12,
          "dependentGloss": "sie"
        }
      ],
      "tokens": [
        {
          "index": 1,
          "word": "Frau",
          "originalText": "Frau",
          "characterOffsetBegin": 0,
          "characterOffsetEnd": 4,
          "pos": "NN",
          "before": "",
          "after": " "
        },
        {
          "index": 2,
          "word": "fängt",
          "originalText": "fängt",
          "characterOffsetBegin": 5,
          "characterOffsetEnd": 10,
          "pos": "VVFIN",
          "before": " ",
          "after": " "
        },
        {
          "index": 3,
          "word": "Mann",
          "originalText": "Mann",
          "characterOffsetBegin": 11,
          "characterOffsetEnd": 15,
          "pos": "NN",
          "before": " ",
          "after": ""
        },
        {
          "index": 4,
          "word": ",",
          "originalText": ",",
          "characterOffsetBegin": 15,
          "characterOffsetEnd": 16,
          "pos": "$,",
          "before": "",
          "after": " "
        },
        {
          "index": 5,
          "word": "der",
          "originalText": "der",
          "characterOffsetBegin": 17,
          "characterOffsetEnd": 20,
          "pos": "PRELS",
          "before": " ",
          "after": " "
        },
        {
          "index": 6,
          "word": "mit",
          "originalText": "mit",
          "characterOffsetBegin": 21,
          "characterOffsetEnd": 24,
          "pos": "APPR",
          "before": " ",
          "after": " "
        },
        {
          "index": 7,
          "word": "ihrem",
          "originalText": "ihrem",
          "characterOffsetBegin": 25,
          "characterOffsetEnd": 30,
          "pos": "PPOSAT",
          "before": " ",
          "after": " "
        },
        {
          "index": 8,
          "word": "Zwilling",
          "originalText": "Zwilling",
          "characterOffsetBegin": 31,
          "characterOffsetEnd": 39,
          "pos": "NN",
          "before": " ",
          "after": " "
        },
        {
          "index": 9,
          "word": "betrügt",
          "originalText": "betrügt",
          "characterOffsetBegin": 40,
          "characterOffsetEnd": 47,
          "pos": "VVPP",
          "before": " ",
          "after": ""
        },
        {
          "index": 10,
          "word": ",",
          "originalText": ",",
          "characterOffsetBegin": 47,
          "characterOffsetEnd": 48,
          "pos": "$,",
          "before": "",
          "after": " "
        },
        {
          "index": 11,
          "word": "demütigt",
          "originalText": "demütigt",
          "characterOffsetBegin": 49,
          "characterOffsetEnd": 57,
          "pos": "VVFIN",
          "before": " ",
          "after": " "
        },
        {
          "index": 12,
          "word": "sie",
          "originalText": "sie",
          "characterOffsetBegin": 58,
          "characterOffsetEnd": 61,
          "pos": "PPER",
          "before": " ",
          "after": ""
        }
      ]
    }
  ]
}