{
  "sentences": [
    {
      "index": 0,
      "basicDependencies": [
        {
          "dep": "ROOT",
          "governor": 0,
          "governorGloss": "ROOT",
          "dependent": 11,
          "dependentGloss": "-RRB-"
        },
        {
          "dep": "nsubj",
          "governor": 11,
          "governorGloss": "-RRB-",
          "dependent": 1,
          "dependentGloss": "Amazon"
        },
        {
          "dep": "punct",
          "governor": 1,
          "governorGloss": "Amazon",
          "dependent": 2,
          "dependentGloss": ","
        },
        {
          "dep": "det",
          "governor": 8,
          "governorGloss": "Video-Service",
          "dependent": 3,
          "dependentGloss": "der"
        },
        {
          "dep": "advmod",
          "governor": 5,
          "governorGloss": "kostenlosen",
          "dependent": 4,
          "dependentGloss": "angeblich"
        },
        {
          "dep": "amod",
          "governor": 8,
          "governorGloss": "Video-Service",
          "dependent": 5,
          "dependentGloss": "kostenlosen"
        },
        {
          "dep": "punct",
          "governor": 5,
          "governorGloss": "kostenlosen",
          "dependent": 6,
          "dependentGloss": ","
        },
        {
          "dep": "conj",
          "governor": 5,
          "governorGloss": "kostenlosen",
          "dependent": 7,
          "dependentGloss": "ad-unterstützten"
        },
        {
          "dep": "appos",
          "governor": 1,
          "governorGloss": "Amazon",
          "dependent": 8,
          "dependentGloss": "Video-Service"
        },
        {
          "dep": "amod",
          "governor": 10,
          "governorGloss": "aktualisiert",
          "dependent": 9,
          "dependentGloss": "-LRB-"
        },
        {
          "dep": "det",
          "governor": 8,
          "governorGloss": "Video-Service",
          "dependent": 10,
          "dependentGloss": "aktualisiert"
        }
      ],
      "enhancedDependencies": [
        {
          "dep": "ROOT",
          "governor": 0,
          "governorGloss": "ROOT",
          "dependent": 11,
          "dependentGloss": "-RRB-"
        },
        {
          "dep": "nsubj",
          "governor": 11,
          "governorGloss": "-RRB-",
          "dependent": 1,
          "dependentGloss": "Amazon"
        },
        {
          "dep": "punct",
          "governor": 1,
          "governorGloss": "Amazon",
          "dependent": 2,
          "dependentGloss": ","
        },
        {
          "dep": "det",
          "governor": 8,
          "governorGloss": "Video-Service",
          "dependent": 3,
          "dependentGloss": "der"
        },
        {
          "dep": "advmod",
          "governor": 5,
          "governorGloss": "kostenlosen",
          "dependent": 4,
          "dependentGloss": "angeblich"
        },
        {
          "dep": "amod",
          "governor": 8,
          "governorGloss": "Video-Service",
          "dependent": 5,
          "dependentGloss": "kostenlosen"
        },
        {
          "dep": "punct",
          "governor": 5,
          "governorGloss": "kostenlosen",
          "dependent": 6,
          "dependentGloss": ","
        },
        {
          "dep": "conj",
          "governor": 5,
          "governorGloss": "kostenlosen",
          "dependent": 7,
          "dependentGloss": "ad-unterstützten"
        },
        {
          "dep": "appos",
          "governor": 1,
          "governorGloss": "Amazon",
          "dependent": 8,
          "dependentGloss": "Video-Service"
        },
        {
          "dep": "amod",
          "governor": 10,
          "governorGloss": "aktualisiert",
          "dependent": 9,
          "dependentGloss": "-LRB-"
        },
        {
          "dep": "det",
          "governor": 8,
          "governorGloss": "Video-Service",
          "dependent": 10,
          "dependentGloss": "aktualisiert"
        }
      ],
      "enhancedPlusPlusDependencies": [
        {
          "dep": "ROOT",
          "governor": 0,
          "governorGloss": "ROOT",
          "dependent": 11,
          "dependentGloss": "-RRB-"
        },
        {
          "dep": "nsubj",
          "governor": 11,
          "governorGloss": "-RRB-",
          "dependent": 1,
          "dependentGloss": "Amazon"
        },
        {
          "dep": "punct",
          "governor": 1,
          "governorGloss": "Amazon",
          "dependent": 2,
          "dependentGloss": ","
        },
        {
          "dep": "det",
          "governor": 8,
          "governorGloss": "Video-Service",
          "dependent": 3,
          "dependentGloss": "der"
        },
        {
          "dep": "advmod",
          "governor": 5,
          "governorGloss": "kostenlosen",
          "dependent": 4,
          "dependentGloss": "angeblich"
        },
        {
          "dep": "amod",
          "governor": 8,
          "governorGloss": "Video-Service",
          "dependent": 5,
          "dependentGloss": "kostenlosen"
        },
        {
          "dep": "punct",
          "governor": 5,
          "governorGloss": "kostenlosen",
          "dependent": 6,
          "dependentGloss": ","
        },
        {
          "dep": "conj",
          "governor": 5,
          "governorGloss": "kostenlosen",
          "dependent": 7,
          "dependentGloss": "ad-unterstützten"
        },
        {
          "dep": "appos",
          "governor": 1,
          "governorGloss": "Amazon",
          "dependent": 8,
          "dependentGloss": "Video-Service"
        },
        {
          "dep": "amod",
          "governor": 10,
          "governorGloss": "aktualisiert",
          "dependent": 9,
          "dependentGloss": "-LRB-"
        },
        {
          "dep": "det",
          "governor": 8,
          "governorGloss": "Video-Service",
          "dependent": 10,
          "dependentGloss": "aktualisiert"
        }
      ],
      "tokens": [
        {
          "index": 1,
          "word": "Amazon",
          "originalText": "Amazon",
          "characterOffsetBegin": 0,
          "characterOffsetEnd": 6,
          "pos": "NE",
          "before": "",
          "after": ""
        },
        {
          "index": 2,
          "word": ",",
          "originalText": ",",
          "characterOffsetBegin": 6,
          "characterOffsetEnd": 7,
          "pos": "$,",
          "before": "",
          "after": " "
        },
        {
          "index": 3,
          "word": "der",
          "originalText": "der",
          "characterOffsetBegin": 8,
          "characterOffsetEnd": 11,
          "pos": "ART",
          "before": " ",
          "after": " "
        },
        {
          "index": 4,
          "word": "angeblich",
          "originalText": "angeblich",
          "characterOffsetBegin": 12,
          "characterOffsetEnd": 21,
          "pos": "ADJD",
          "before": " ",
          "after": " "
        },
        {
          "index": 5,
          "word": "kostenlosen",
          "originalText": "kostenlosen",
          "characterOffsetBegin": 22,
          "characterOffsetEnd": 33,
          "pos": "ADJA",
          "before": " ",
          "after": ""
        },
        {
          "index": 6,
          "word": ",",
          "originalText": ",",
          "characterOffsetBegin": 33,
          "characterOffsetEnd": 34,
          "pos": "$,",
          "before": "",
          "after": " "
        },
        {
          "index": 7,
          "word": "ad-unterstützten",
          "originalText": "ad-unterstützten",
          "characterOffsetBegin": 35,
          "characterOffsetEnd": 51,
          "pos": "ADJA",
          "before": " ",
          "after": " "
        },
        {
          "index": 8,
          "word": "Video-Service",
          "originalText": "Video-Service",
          "characterOffsetBegin": 52,
          "characterOffsetEnd": 65,
          "pos": "NN",
          "before": " ",
          "after": " "
        },
        {
          "index": 9,
          "word": "-LRB-",
          "originalText": "(",
          "characterOffsetBegin": 66,
          "characterOffsetEnd": 67,
          "pos": "TRUNC",
          "before": " ",
          "after": ""
        },
        {
          "index": 10,
          "word": "aktualisiert",
          "originalText": "aktualisiert",
          "characterOffsetBegin": 67,
          "characterOffsetEnd": 79,
          "pos": "VVPP",
          "before": "",
          "after": ""
        },
        {
          "index": 11,
          "word": "-RRB-",
          "originalText": ")",
          "characterOffsetBegin": 79,
          "characterOffsetEnd": 80,
          "pos": "TRUNC",
          "before": "",
          "after": ""
        }
      ]
    }
  ]
}