{
  "sentences": [
    {
      "index": 0,
      "basicDependencies": [
        {
          "dep": "ROOT",
          "governor": 0,
          "governorGloss": "ROOT",
          "dependent": 2,
          "dependentGloss": "rebuffs"
        },
        {
          "dep": "nsubj",
          "governor": 2,
          "governorGloss": "rebuffs",
          "dependent": 1,
          "dependentGloss": "DHS"
        },
        {
          "dep": "dobj",
          "governor": 2,
          "governorGloss": "rebuffs",
          "dependent": 3,
          "dependentGloss": "Kongressabgeordneter"
        },
        {
          "dep": "appos",
          "governor": 3,
          "governorGloss": "Kongressabgeordneter",
          "dependent": 4,
          "dependentGloss": "ISIS"
        },
        {
          "dep": "appos",
          "governor": 4,
          "governorGloss": "ISIS",
          "dependent": 5,
          "dependentGloss": "Infiltrierende"
        },
        {
          "dep": "amod",
          "governor": 7,
          "governorGloss": "Border",
          "dependent": 6,
          "dependentGloss": "Southern"
        },
        {
          "dep": "appos",
          "governor": 5,
          "governorGloss": "Infiltrierende",
          "dependent": 7,
          "dependentGloss": "Border"
        }
      ],
      "enhancedDependencies": [
        {
          "dep": "ROOT",
          "governor": 0,
          "governorGloss": "ROOT",
          "dependent": 2,
          "dependentGloss": "rebuffs"
        },
        {
          "dep": "nsubj",
          "governor": 2,
          "governorGloss": "rebuffs",
          "dependent": 1,
          "dependentGloss": "DHS"
        },
        {
          "dep": "dobj",
          "governor": 2,
          "governorGloss": "rebuffs",
          "dependent": 3,
          "dependentGloss": "Kongressabgeordneter"
        },
        {
          "dep": "appos",
          "governor": 3,
          "governorGloss": "Kongressabgeordneter",
          "dependent": 4,
          "dependentGloss": "ISIS"
        },
        {
          "dep": "appos",
          "governor": 4,
          "governorGloss": "ISIS",
          "dependent": 5,
          "dependentGloss": "Infiltrierende"
        },
        {
          "dep": "amod",
          "governor": 7,
          "governorGloss": "Border",
          "dependent": 6,
          "dependentGloss": "Southern"
        },
        {
          "dep": "appos",
          "governor": 5,
          "governorGloss": "Infiltrierende",
          "dependent": 7,
          "dependentGloss": "Border"
        }
      ],
      "enhancedPlusPlusDependencies": [
        {
          "dep": "ROOT",
          "governor": 0,
          "governorGloss": "ROOT",
          "dependent": 2,
          "dependentGloss": "rebuffs"
        },
        {
          "dep": "nsubj",
          "governor": 2,
          "governorGloss": "rebuffs",
          "dependent": 1,
          "dependentGloss": "DHS"
        },
        {
          "dep": "dobj",
          "governor": 2,
          "governorGloss": "rebuffs",
          "dependent": 3,
          "dependentGloss": "Kongressabgeordneter"
        },
        {
          "dep": "appos",
          "governor": 3,
          "governorGloss": "Kongressabgeordneter",
          "dependent": 4,
          "dependentGloss": "ISIS"
        },
        {
          "dep": "appos",
          "governor": 4,
          "governorGloss": "ISIS",
          "dependent": 5,
          "dependentGloss": "Infiltrierende"
        },
        {
          "dep": "amod",
          "governor": 7,
          "governorGloss": "Border",
          "dependent": 6,
          "dependentGloss": "Southern"
        },
        {
          "dep": "appos",
          "governor": 5,
          "governorGloss": "Infiltrierende",
          "dependent": 7,
          "dependentGloss": "Border"
        }
      ],
      "tokens": [
        {
          "index": 1,
          "word": "DHS",
          "originalText": "DHS",
          "characterOffsetBegin": 0,
          "characterOffsetEnd": 3,
          "pos": "NE",
          "before": "",
          "after": " "
        },
        {
          "index": 2,
          "word": "rebuffs",
          "originalText": "rebuffs",
          "characterOffsetBegin": 4,
          "characterOffsetEnd": 11,
          "pos": "VVFIN",
          "before": " ",
          "after": " "
        },
        {
          "index": 3,
          "word": "Kongressabgeordneter",
          "originalText": "Kongressabgeordneter",
          "characterOffsetBegin": 12,
          "characterOffsetEnd": 32,
          "pos": "NN",
          "before": " ",
          "after": " "
        },
        {
          "index": 4,
          "word": "ISIS",
          "originalText": "ISIS",
          "characterOffsetBegin": 33,
          "characterOffsetEnd": 37,
          "pos": "NE",
          "before": " ",
          "after": " "
        },
        {
          "index": 5,
          "word": "Infiltrierende",
          "originalText": "Infiltrierende",
          "characterOffsetBegin": 38,
          "characterOffsetEnd": 52,
          "pos": "NN",
          "before": " ",
          "after": " "
        },
        {
          "index": 6,
          "word": "Southern",
          "originalText": "Southern",
          "characterOffsetBegin": 53,
          "characterOffsetEnd": 61,
          "pos": "FM",
          "before": " ",
          "after": " "
        },
        {
          "index": 7,
          "word": "Border",
          "originalText": "Border",
          "characterOffsetBegin": 62,
          "characterOffsetEnd": 68,
          "pos": "FM",
          "before": " ",
          "after": ""
        }
      ]
    }
  ]
}