{
  "sentences": [
    {
      "index": 0,
      "basicDependencies": [
        {
          "dep": "ROOT",
          "governor": 0,
          "governorGloss": "ROOT",
          "dependent": 2,
          "dependentGloss": "behauptet"
        },
        {
          "dep": "nsubj",
          "governor": 2,
          "governorGloss": "behauptet",
          "dependent": 1,
          "dependentGloss": "Isis"
        },
        {
          "dep": "punct",
          "governor": 2,
          "governorGloss": "behauptet",
          "dependent": 3,
          "dependentGloss": ","
        },
        {
          "dep": "conj",
          "governor": 2,
          "governorGloss": "behauptet",
          "dependent": 4,
          "dependentGloss": "US-Journalist"
        },
        {
          "dep": "aux",
          "governor": 6,
          "governorGloss": "enthaupten",
          "dependent": 5,
          "dependentGloss": "zu"
        },
        {
          "dep": "acl",
          "governor": 4,
          "governorGloss": "US-Journalist",
          "dependent": 6,
          "dependentGloss": "enthaupten"
        }
      ],
      "enhancedDependencies": [
        {
          "dep": "ROOT",
          "governor": 0,
          "governorGloss": "ROOT",
          "dependent": 2,
          "dependentGloss": "behauptet"
        },
        {
          "dep": "nsubj",
          "governor": 2,
          "governorGloss": "behauptet",
          "dependent": 1,
          "dependentGloss": "Isis"
        },
        {
          "dep": "punct",
          "governor": 2,
          "governorGloss": "behauptet",
          "dependent": 3,
          "dependentGloss": ","
        },
        {
          "dep": "conj",
          "governor": 2,
          "governorGloss": "behauptet",
          "dependent": 4,
          "dependentGloss": "US-Journalist"
        },
        {
          "dep": "aux",
          "governor": 6,
          "governorGloss": "enthaupten",
          "dependent": 5,
          "dependentGloss": "zu"
        },
        {
          "dep": "acl",
          "governor": 4,
          "governorGloss": "US-Journalist",
          "dependent": 6,
          "dependentGloss": "enthaupten"
        }
      ],
      "enhancedPlusPlusDependencies": [
        {
          "dep": "ROOT",
          "governor": 0,
          "governorGloss": "ROOT",
          "dependent": 2,
          "dependentGloss": "behauptet"
        },
        {
          "dep": "nsubj",
          "governor": 2,
          "governorGloss": "behauptet",
          "dependent": 1,
          "dependentGloss": "Isis"
        },
        {
          "dep": "punct",
          "governor": 2,
          "governorGloss": "behauptet",
          "dependent": 3,
          "dependentGloss": ","
        },
        {
          "dep": "conj",
          "governor": 2,
          "governorGloss": "behauptet",
          "dependent": 4,
          "dependentGloss": "US-Journalist"
        },
        {
          "dep": "aux",
          "governor": 6,
          "governorGloss": "enthaupten",
          "dependent": 5,
          "dependentGloss": "zu"
        },
        {
          "dep": "acl",
          "governor": 4,
          "governorGloss": "US-Journalist",
          "dependent": 6,
          "dependentGloss": "enthaupten"
        }
      ],
      "tokens": [
        {
          "index": 1,
          "word": "Isis",
          "originalText": "Isis",
          "characterOffsetBegin": 0,
          "characterOffsetEnd": 4,
          "pos": "NE",
          "before": "",
          "after": " "
        },
        {
          "index": 2,
          "word": "behauptet",
          "originalText": "behauptet",
          "characterOffsetBegin": 5,
          "characterOffsetEnd": 14,
          "pos": "VVFIN",
          "before": " ",
          "after": ""
        },
        {
          "index": 3,
          "word": ",",
          "originalText": ",",
          "characterOffsetBegin": 14,
          "characterOffsetEnd": 15,
          "pos": "$,",
          "before": "",
          "after": " "
        },
        {
          "index": 4,
          "word": "US-Journalist",
          "originalText": "US-Journalist",
          "characterOffsetBegin": 16,
          "characterOffsetEnd": 29,
          "pos": "NN",
          "before": " ",
          "after": " "
        },
        {
          "index": 5,
          "word": "zu",
          "originalText": "zu",
          "characterOffsetBegin": 30,
          "characterOffsetEnd": 32,
          "pos": "PTKZU",
          "before": " ",
          "after": " "
        },
        {
          "index": 6,
          "word": "enthaupten",
          "originalText": "enthaupten",
          "characterOffsetBegin": 33,
          "characterOffsetEnd": 43,
          "pos": "VVINF",
          "before": " ",
          "after": ""
        }
      ]
    }
  ]
}