{
  "sentences": [
    {
      "index": 0,
      "basicDependencies": [
        {
          "dep": "ROOT",
          "governor": 0,
          "governorGloss": "ROOT",
          "dependent": 2,
          "dependentGloss": "plant"
        },
        {
          "dep": "nsubj",
          "governor": 2,
          "governorGloss": "plant",
          "dependent": 1,
          "dependentGloss": "Amazon"
        },
        {
          "dep": "amod",
          "governor": 7,
          "governorGloss": "Post",
          "dependent": 3,
          "dependentGloss": "ad-unterstützten"
        },
        {
          "dep": "name",
          "governor": 6,
          "governorGloss": "NY",
          "dependent": 4,
          "dependentGloss": "Video-Streaming-Service"
        },
        {
          "dep": "punct",
          "governor": 6,
          "governorGloss": "NY",
          "dependent": 5,
          "dependentGloss": "-"
        },
        {
          "dep": "name",
          "governor": 7,
          "governorGloss": "Post",
          "dependent": 6,
          "dependentGloss": "NY"
        },
        {
          "dep": "dobj",
          "governor": 2,
          "governorGloss": "plant",
          "dependent": 7,
          "dependentGloss": "Post"
        }
      ],
      "enhancedDependencies": [
        {
          "dep": "ROOT",
          "governor": 0,
          "governorGloss": "ROOT",
          "dependent": 2,
          "dependentGloss": "plant"
        },
        {
          "dep": "nsubj",
          "governor": 2,
          "governorGloss": "plant",
          "dependent": 1,
          "dependentGloss": "Amazon"
        },
        {
          "dep": "amod",
          "governor": 7,
          "governorGloss": "Post",
          "dependent": 3,
          "dependentGloss": "ad-unterstützten"
        },
        {
          "dep": "name",
          "governor": 6,
          "governorGloss": "NY",
          "dependent": 4,
          "dependentGloss": "Video-Streaming-Service"
        },
        {
          "dep": "punct",
          "governor": 6,
          "governorGloss": "NY",
          "dependent": 5,
          "dependentGloss": "-"
        },
        {
          "dep": "name",
          "governor": 7,
          "governorGloss": "Post",
          "dependent": 6,
          "dependentGloss": "NY"
        },
        {
          "dep": "dobj",
          "governor": 2,
          "governorGloss": "plant",
          "dependent": 7,
          "dependentGloss": "Post"
        }
      ],
      "enhancedPlusPlusDependencies": [
        {
          "dep": "ROOT",
          "governor": 0,
          "governorGloss": "ROOT",
          "dependent": 2,
          "dependentGloss": "plant"
        },
        {
          "dep": "nsubj",
          "governor": 2,
          "governorGloss": "plant",
          "dependent": 1,
          "dependentGloss": "Amazon"
        },
        {
          "dep": "amod",
          "governor": 7,
          "governorGloss": "Post",
          "dependent": 3,
          "dependentGloss": "ad-unterstützten"
        },
        {
          "dep": "name",
          "governor": 6,
          "governorGloss": "NY",
          "dependent": 4,
          "dependentGloss": "Video-Streaming-Service"
        },
        {
          "dep": "punct",
          "governor": 6,
          "governorGloss": "NY",
          "dependent": 5,
          "dependentGloss": "-"
        },
        {
          "dep": "name",
          "governor": 7,
          "governorGloss": "Post",
          "dependent": 6,
          "dependentGloss": "NY"
        },
        {
          "dep": "dobj",
          "governor": 2,
          "governorGloss": "plant",
          "dependent": 7,
          "dependentGloss": "Post"
        }
      ],
      "tokens": [
        {
          "index": 1,
          "word": "Amazon",
          "originalText": "Amazon",
          "characterOffsetBegin": 0,
          "characterOffsetEnd": 6,
          "pos": "NE",
          "before": "",
          "after": " "
        },
        {
          "index": 2,
          "word": "plant",
          "originalText": "plant",
          "characterOffsetBegin": 7,
          "characterOffsetEnd": 12,
          "pos": "VVFIN",
          "before": " ",
          "after": " "
        },
        {
          "index": 3,
          "word": "ad-unterstützten",
          "originalText": "ad-unterstützten",
          "characterOffsetBegin": 13,
          "characterOffsetEnd": 29,
          "pos": "ADJA",
          "before": " ",
          "after": " "
        },
        {
          "index": 4,
          "word": "Video-Streaming-Service",
          "originalText": "Video-Streaming-Service",
          "characterOffsetBegin": 30,
          "characterOffsetEnd": 53,
          "pos": "NN",
          "before": " ",
          "after": " "
        },
        {
          "index": 5,
          "word": "-",
          "originalText": "-",
          "characterOffsetBegin": 54,
          "characterOffsetEnd": 55,
          "pos": "$[",
          "before": " ",
          "after": " "
        },
        {
          "index": 6,
          "word": "NY",
          "originalText": "NY",
          "characterOffsetBegin": 56,
          "characterOffsetEnd": 58,
          "pos": "NE",
          "before": " ",
          "after": " "
        },
        {
          "index": 7,
          "word": "Post",
          "originalText": "Post",
          "characterOffsetBegin": 59,
          "characterOffsetEnd": 63,
          "pos": "NN",
          "before": " ",
          "after": ""
        }
      ]
    }
  ]
}