{
  "sentences": [
    {
      "index": 0,
      "basicDependencies": [
        {
          "dep": "ROOT",
          "governor": 0,
          "governorGloss": "ROOT",
          "dependent": 3,
          "dependentGloss": "getötet"
        },
        {
          "dep": "nsubj",
          "governor": 3,
          "governorGloss": "getötet",
          "dependent": 1,
          "dependentGloss": "Schoolboy"
        },
        {
          "dep": "advmod",
          "governor": 3,
          "governorGloss": "getötet",
          "dependent": 2,
          "dependentGloss": "fast"
        },
        {
          "dep": "case",
          "governor": 5,
          "governorGloss": "Elektroschock",
          "dependent": 4,
          "dependentGloss": "durch"
        },
        {
          "dep": "nmod",
          "governor": 3,
          "governorGloss": "getötet",
          "dependent": 5,
          "dependentGloss": "Elektroschock"
        },
        {
          "dep": "dobj",
          "governor": 3,
          "governorGloss": "getötet",
          "dependent": 6,
          "dependentGloss": "behauptet"
        },
        {
          "dep": "nsubj",
          "governor": 6,
          "governorGloss": "behauptet",
          "dependent": 7,
          "dependentGloss": "er"
        },
        {
          "dep": "advmod",
          "governor": 6,
          "governorGloss": "behauptet",
          "dependent": 8,
          "dependentGloss": "jetzt"
        },
        {
          "dep": "dobj",
          "governor": 6,
          "governorGloss": "behauptet",
          "dependent": 9,
          "dependentGloss": "hat"
        },
        {
          "dep": "dobj",
          "governor": 9,
          "governorGloss": "hat",
          "dependent": 10,
          "dependentGloss": "Supermächte"
        },
        {
          "dep": "case",
          "governor": 12,
          "governorGloss": "Magneto",
          "dependent": 11,
          "dependentGloss": "wie"
        },
        {
          "dep": "nmod",
          "governor": 10,
          "governorGloss": "Supermächte",
          "dependent": 12,
          "dependentGloss": "Magneto"
        }
      ],
      "enhancedDependencies": [
        {
          "dep": "ROOT",
          "governor": 0,
          "governorGloss": "ROOT",
          "dependent": 3,
          "dependentGloss": "getötet"
        },
        {
          "dep": "nsubj",
          "governor": 3,
          "governorGloss": "getötet",
          "dependent": 1,
          "dependentGloss": "Schoolboy"
        },
        {
          "dep": "advmod",
          "governor": 3,
          "governorGloss": "getötet",
          "dependent": 2,
          "dependentGloss": "fast"
        },
        {
          "dep": "case",
          "governor": 5,
          "governorGloss": "Elektroschock",
          "dependent": 4,
          "dependentGloss": "durch"
        },
        {
          "dep": "nmod",
          "governor": 3,
          "governorGloss": "getötet",
          "dependent": 5,
          "dependentGloss": "Elektroschock"
        },
        {
          "dep": "dobj",
          "governor": 3,
          "governorGloss": "getötet",
          "dependent": 6,
          "dependentGloss": "behauptet"
        },
        {
          "dep": "nsubj",
          "governor": 6,
          "governorGloss": "behauptet",
          "dependent": 7,
          "dependentGloss": "er"
        },
        {
          "dep": "advmod",
          "governor": 6,
          "governorGloss": "behauptet",
          "dependent": 8,
          "dependentGloss": "jetzt"
        },
        {
          "dep": "dobj",
          "governor": 6,
          "governorGloss": "behauptet",
          "dependent": 9,
          "dependentGloss": "hat"
        },
        {
          "dep": "dobj",
          "governor": 9,
          "governorGloss": "hat",
          "dependent": 10,
          "dependentGloss": "Supermächte"
        },
        {
          "dep": "case",
          "governor": 12,
          "governorGloss": "Magneto",
          "dependent": 11,
          "dependentGloss": "wie"
        },
        {
          "dep": "nmod",
          "governor": 10,
          "governorGloss": "Supermächte",
          "dependent": 12,
          "dependentGloss": "Magneto"
        }
      ],
      "enhancedPlusPlusDependencies": [
        {
          "dep": "ROOT",
          "governor": 0,
          "governorGloss": "ROOT",
          "dependent": 3,
          "dependentGloss": "getötet"
        },
        {
          "dep": "nsubj",
          "governor": 3,
          "governorGloss": "getötet",
          "dependent": 1,
          "dependentGloss": "Schoolboy"
        },
        {
          "dep": "advmod",
          "governor": 3,
          "governorGloss": "getötet",
          "dependent": 2,
          "dependentGloss": "fast"
        },
        {
          "dep": "case",
          "governor": 5,
          "governorGloss": "Elektroschock",
          "dependent": 4,
          "dependentGloss": "durch"
        },
        {
          "dep": "nmod",
          "governor": 3,
          "governorGloss": "getötet",
          "dependent": 5,
          "dependentGloss": "Elektroschock"
        },
        {
          "dep": "dobj",
          "governor": 3,
          "governorGloss": "getötet",
          "dependent": 6,
          "dependentGloss": "behauptet"
        },
        {
          "dep": "nsubj",
          "governor": 6,
          "governorGloss": "behauptet",
          "dependent": 7,
          "dependentGloss": "er"
        },
        {
          "dep": "advmod",
          "governor": 6,
          "governorGloss": "behauptet",
          "dependent": 8,
          "dependentGloss": "jetzt"
        },
        {
          "dep": "dobj",
          "governor": 6,
          "governorGloss": "behauptet",
          "dependent": 9,
          "dependentGloss": "hat"
        },
        {
          "dep": "dobj",
          "governor": 9,
          "governorGloss": "hat",
          "dependent": 10,
          "dependentGloss": "Supermächte"
        },
        {
          "dep": "case",
          "governor": 12,
          "governorGloss": "Magneto",
          "dependent": 11,
          "dependentGloss": "wie"
        },
        {
          "dep": "nmod",
          "governor": 10,
          "governorGloss": "Supermächte",
          "dependent": 12,
          "dependentGloss": "Magneto"
        }
      ],
      "tokens": [
        {
          "index": 1,
          "word": "Schoolboy",
          "originalText": "Schoolboy",
          "characterOffsetBegin": 0,
          "characterOffsetEnd": 9,
          "pos": "NE",
          "before": "",
          "after": " "
        },
        {
          "index": 2,
          "word": "fast",
          "originalText": "fast",
          "characterOffsetBegin": 10,
          "characterOffsetEnd": 14,
          "pos": "ADV",
          "before": " ",
          "after": " "
        },
        {
          "index": 3,
          "word": "getötet",
          "originalText": "getötet",
          "characterOffsetBegin": 15,
          "characterOffsetEnd": 22,
          "pos": "VVPP",
          "before": " ",
          "after": " "
        },
        {
          "index": 4,
          "word": "durch",
          "originalText": "durch",
          "characterOffsetBegin": 23,
          "characterOffsetEnd": 28,
          "pos": "APPR",
          "before": " ",
          "after": " "
        },
        {
          "index": 5,
          "word": "Elektroschock",
          "originalText": "Elektroschock",
          "characterOffsetBegin": 29,
          "characterOffsetEnd": 42,
          "pos": "NN",
          "before": " ",
          "after": " "
        },
        {
          "index": 6,
          "word": "behauptet",
          "originalText": "behauptet",
          "characterOffsetBegin": 43,
          "characterOffsetEnd": 52,
          "pos": "VVFIN",
          "before": " ",
          "after": " "
        },
        {
          "index": 7,
          "word": "er",
          "originalText": "er",
          "characterOffsetBegin": 53,
          "characterOffsetEnd": 55,
          "pos": "PPER",
          "before": " ",
          "after": " "
        },
        {
          "index": 8,
          "word": "jetzt",
          "originalText": "jetzt",
          "characterOffsetBegin": 56,
          "characterOffsetEnd": 61,
          "pos": "ADV",
          "before": " ",
          "after": " "
        },
        {
          "index": 9,
          "word": "hat",
          "originalText": "hat",
          "characterOffsetBegin": 62,
          "characterOffsetEnd": 65,
          "pos": "VAFIN",
          "before": " ",
          "after": " "
        },
        {
          "index": 10,
          "word": "Supermächte",
          "originalText": "Supermächte",
          "characterOffsetBegin": 66,
          "characterOffsetEnd": 77,
          "pos": "NN",
          "before": " ",
          "after": " "
        },
        {
          "index": 11,
          "word": "wie",
          "originalText": "wie",
          "characterOffsetBegin": 78,
          "characterOffsetEnd": 81,
          "pos": "KOKOM",
          "before": " ",
          "after": " "
        },
        {
          "index": 12,
          "word": "Magneto",
          "originalText": "Magneto",
          "characterOffsetBegin": 82,
          "characterOffsetEnd": 89,
          "pos": "NN",
          "before": " ",
          "after": ""
        }
      ]
    }
  ]
}