{
  "sentences": [
    {
      "index": 0,
      "basicDependencies": [
        {
          "dep": "ROOT",
          "governor": 0,
          "governorGloss": "ROOT",
          "dependent": 6,
          "dependentGloss": "infiziert"
        },
        {
          "dep": "aux",
          "governor": 6,
          "governorGloss": "infiziert",
          "dependent": 1,
          "dependentGloss": "Hat"
        },
        {
          "dep": "amod",
          "governor": 3,
          "governorGloss": "Isis-Militanten",
          "dependent": 2,
          "dependentGloss": "Ebola"
        },
        {
          "dep": "dobj",
          "governor": 6,
          "governorGloss": "infiziert",
          "dependent": 3,
          "dependentGloss": "Isis-Militanten"
        },
        {
          "dep": "case",
          "governor": 5,
          "governorGloss": "Mosul",
          "dependent": 4,
          "dependentGloss": "in"
        },
        {
          "dep": "nmod",
          "governor": 6,
          "governorGloss": "infiziert",
          "dependent": 5,
          "dependentGloss": "Mosul"
        },
        {
          "dep": "punct",
          "governor": 6,
          "governorGloss": "infiziert",
          "dependent": 7,
          "dependentGloss": "?"
        }
      ],
      "enhancedDependencies": [
        {
          "dep": "ROOT",
          "governor": 0,
          "governorGloss": "ROOT",
          "dependent": 6,
          "dependentGloss": "infiziert"
        },
        {
          "dep": "aux",
          "governor": 6,
          "governorGloss": "infiziert",
          "dependent": 1,
          "dependentGloss": "Hat"
        },
        {
          "dep": "amod",
          "governor": 3,
          "governorGloss": "Isis-Militanten",
          "dependent": 2,
          "dependentGloss": "Ebola"
        },
        {
          "dep": "dobj",
          "governor": 6,
          "governorGloss": "infiziert",
          "dependent": 3,
          "dependentGloss": "Isis-Militanten"
        },
        {
          "dep": "case",
          "governor": 5,
          "governorGloss": "Mosul",
          "dependent": 4,
          "dependentGloss": "in"
        },
        {
          "dep": "nmod",
          "governor": 6,
          "governorGloss": "infiziert",
          "dependent": 5,
          "dependentGloss": "Mosul"
        },
        {
          "dep": "punct",
          "governor": 6,
          "governorGloss": "infiziert",
          "dependent": 7,
          "dependentGloss": "?"
        }
      ],
      "enhancedPlusPlusDependencies": [
        {
          "dep": "ROOT",
          "governor": 0,
          "governorGloss": "ROOT",
          "dependent": 6,
          "dependentGloss": "infiziert"
        },
        {
          "dep": "aux",
          "governor": 6,
          "governorGloss": "infiziert",
          "dependent": 1,
          "dependentGloss": "Hat"
        },
        {
          "dep": "amod",
          "governor": 3,
          "governorGloss": "Isis-Militanten",
          "dependent": 2,
          "dependentGloss": "Ebola"
        },
        {
          "dep": "dobj",
          "governor": 6,
          "governorGloss": "infiziert",
          "dependent": 3,
          "dependentGloss": "Isis-Militanten"
        },
        {
          "dep": "case",
          "governor": 5,
          "governorGloss": "Mosul",
          "dependent": 4,
          "dependentGloss": "in"
        },
        {
          "dep": "nmod",
          "governor": 6,
          "governorGloss": "infiziert",
          "dependent": 5,
          "dependentGloss": "Mosul"
        },
        {
          "dep": "punct",
          "governor": 6,
          "governorGloss": "infiziert",
          "dependent": 7,
          "dependentGloss": "?"
        }
      ],
      "tokens": [
        {
          "index": 1,
          "word": "Hat",
          "originalText": "Hat",
          "characterOffsetBegin": 0,
          "characterOffsetEnd": 3,
          "pos": "VAFIN",
          "before": "",
          "after": " "
        },
        {
          "index": 2,
          "word": "Ebola",
          "originalText": "Ebola",
          "characterOffsetBegin": 4,
          "characterOffsetEnd": 9,
          "pos": "NE",
          "before": " ",
          "after": " "
        },
        {
          "index": 3,
          "word": "Isis-Militanten",
          "originalText": "Isis-Militanten",
          "characterOffsetBegin": 10,
          "characterOffsetEnd": 25,
          "pos": "NN",
          "before": " ",
          "after": " "
        },
        {
          "index": 4,
          "word": "in",
          "originalText": "in",
          "characterOffsetBegin": 26,
          "characterOffsetEnd": 28,
          "pos": "APPR",
          "before": " ",
          "after": " "
        },
        {
          "index": 5,
          "word": "Mosul",
          "originalText": "Mosul",
          "characterOffsetBegin": 29,
          "characterOffsetEnd": 34,
          "pos": "NE",
          "before": " ",
          "after": " "
        },
        {
          "index": 6,
          "word": "infiziert",
          "originalText": "infiziert",
          "characterOffsetBegin": 35,
          "characterOffsetEnd": 44,
          "pos": "VVPP",
          "before": " ",
          "after": ""
        },
        {
          "index": 7,
          "word": "?",
          "originalText": "?",
          "characterOffsetBegin": 44,
          "characterOffsetEnd": 45,
          "pos": "$.",
          "before": "",
          "after": ""
        }
      ]
    }
  ]
}