{
  "sentences": [
    {
      "index": 0,
      "basicDependencies": [
        {
          "dep": "ROOT",
          "governor": 0,
          "governorGloss": "ROOT",
          "dependent": 1,
          "dependentGloss": "Aufständische"
        },
        {
          "dep": "punct",
          "governor": 1,
          "governorGloss": "Aufständische",
          "dependent": 2,
          "dependentGloss": ","
        },
        {
          "dep": "nsubjpass",
          "governor": 6,
          "governorGloss": "getötet",
          "dependent": 3,
          "dependentGloss": "die"
        },
        {
          "dep": "case",
          "governor": 5,
          "governorGloss": "Nigeria",
          "dependent": 4,
          "dependentGloss": "in"
        },
        {
          "dep": "nmod",
          "governor": 6,
          "governorGloss": "getötet",
          "dependent": 5,
          "dependentGloss": "Nigeria"
        },
        {
          "dep": "acl",
          "governor": 1,
          "governorGloss": "Aufständische",
          "dependent": 6,
          "dependentGloss": "getötet"
        },
        {
          "dep": "auxpass",
          "governor": 6,
          "governorGloss": "getötet",
          "dependent": 7,
          "dependentGloss": "wurden"
        },
        {
          "dep": "punct",
          "governor": 1,
          "governorGloss": "Aufständische",
          "dependent": 8,
          "dependentGloss": ","
        },
        {
          "dep": "case",
          "governor": 11,
          "governorGloss": "Waffenstillstand",
          "dependent": 9,
          "dependentGloss": "trotz"
        },
        {
          "dep": "amod",
          "governor": 11,
          "governorGloss": "Waffenstillstand",
          "dependent": 10,
          "dependentGloss": "angeblichen"
        },
        {
          "dep": "nmod",
          "governor": 1,
          "governorGloss": "Aufständische",
          "dependent": 11,
          "dependentGloss": "Waffenstillstand"
        },
        {
          "dep": "case",
          "governor": 14,
          "governorGloss": "Haram",
          "dependent": 12,
          "dependentGloss": "mit"
        },
        {
          "dep": "amod",
          "governor": 14,
          "governorGloss": "Haram",
          "dependent": 13,
          "dependentGloss": "Boko"
        },
        {
          "dep": "nmod",
          "governor": 11,
          "governorGloss": "Waffenstillstand",
          "dependent": 14,
          "dependentGloss": "Haram"
        }
      ],
      "enhancedDependencies": [
        {
          "dep": "ROOT",
          "governor": 0,
          "governorGloss": "ROOT",
          "dependent": 1,
          "dependentGloss": "Aufständische"
        },
        {
          "dep": "punct",
          "governor": 1,
          "governorGloss": "Aufständische",
          "dependent": 2,
          "dependentGloss": ","
        },
        {
          "dep": "nsubjpass",
          "governor": 6,
          "governorGloss": "getötet",
          "dependent": 3,
          "dependentGloss": "die"
        },
        {
          "dep": "case",
          "governor": 5,
          "governorGloss": "Nigeria",
          "dependent": 4,
          "dependentGloss": "in"
        },
        {
          "dep": "nmod",
          "governor": 6,
          "governorGloss": "getötet",
          "dependent": 5,
          "dependentGloss": "Nigeria"
        },
        {
          "dep": "acl",
          "governor": 1,
          "governorGloss": "Aufständische",
          "dependent": 6,
          "dependentGloss": "getötet"
        },
        {
          "dep": "auxpass",
          "governor": 6,
          "governorGloss": "getötet",
          "dependent": 7,
          "dependentGloss": "wurden"
        },
        {
          "dep": "punct",
          "governor": 1,
          "governorGloss": "Aufständische",
          "dependent": 8,
          "dependentGloss": ","
        },
        {
          "dep": "case",
          "governor": 11,
          "governorGloss": "Waffenstillstand",
          "dependent": 9,
          "dependentGloss": "trotz"
        },
        {
          "dep": "amod",
          "governor": 11,
          "governorGloss": "Waffenstillstand",
          "dependent": 10,
          "dependentGloss": "angeblichen"
        },
        {
          "dep": "nmod",
          "governor": 1,
          "governorGloss": "Aufständische",
          "dependent": 11,
          "dependentGloss": "Waffenstillstand"
        },
        {
          "dep": "case",
          "governor": 14,
          "governorGloss": "Haram",
          "dependent": 12,
          "dependentGloss": "mit"
        },
        {
          "dep": "amod",
          "governor": 14,
          "governorGloss": "Haram",
          "dependent": 13,
          "dependentGloss": "Boko"
        },
        {
          "dep": "nmod",
          "governor": 11,
          "governorGloss": "Waffenstillstand",
          "dependent": 14,
          "dependentGloss": "Haram"
        }
      ],
      "enhancedPlusPlusDependencies": [
        {
          "dep": "ROOT",
          "governor": 0,
          "governorGloss": "ROOT",
          "dependent": 1,
          "dependentGloss": "Aufständische"
        },
        {
          "dep": "punct",
          "governor": 1,
          "governorGloss": "Aufständische",
          "dependent": 2,
          "dependentGloss": ","
        },
        {
          "dep": "nsubjpass",
          "governor": 6,
          "governorGloss": "getötet",
          "dependent": 3,
          "dependentGloss": "die"
        },
        {
          "dep": "case",
          "governor": 5,
          "governorGloss": "Nigeria",
          "dependent": 4,
          "dependentGloss": "in"
        },
        {
          "dep": "nmod",
          "governor": 6,
          "governorGloss": "getötet",
          "dependent": 5,
          "dependentGloss": "Nigeria"
        },
        {
          "dep": "acl",
          "governor": 1,
          "governorGloss": "Aufständische",
          "dependent": 6,
          "dependentGloss": "getötet"
        },
        {
          "dep": "auxpass",
          "governor": 6,
          "governorGloss": "getötet",
          "dependent": 7,
          "dependentGloss": "wurden"
        },
        {
          "dep": "punct",
          "governor": 1,
          "governorGloss": "Aufständische",
          "dependent": 8,
          "dependentGloss": ","
        },
        {
          "dep": "case",
          "governor": 11,
          "governorGloss": "Waffenstillstand",
          "dependent": 9,
          "dependentGloss": "trotz"
        },
        {
          "dep": "amod",
          "governor": 11,
          "governorGloss": "Waffenstillstand",
          "dependent": 10,
          "dependentGloss": "angeblichen"
        },
        {
          "dep": "nmod",
          "governor": 1,
          "governorGloss": "Aufständische",
          "dependent": 11,
          "dependentGloss": "Waffenstillstand"
        },
        {
          "dep": "case",
          "governor": 14,
          "governorGloss": "Haram",
          "dependent": 12,
          "dependentGloss": "mit"
        },
        {
          "dep": "amod",
          "governor": 14,
          "governorGloss": "Haram",
          "dependent": 13,
          "dependentGloss": "Boko"
        },
        {
          "dep": "nmod",
          "governor": 11,
          "governorGloss": "Waffenstillstand",
          "dependent": 14,
          "dependentGloss": "Haram"
        }
      ],
      "tokens": [
        {
          "index": 1,
          "word": "Aufständische",
          "originalText": "Aufständische",
          "characterOffsetBegin": 0,
          "characterOffsetEnd": 13,
          "pos": "NN",
          "before": "",
          "after": ""
        },
        {
          "index": 2,
          "word": ",",
          "originalText": ",",
          "characterOffsetBegin": 13,
          "characterOffsetEnd": 14,
          "pos": "$,",
          "before": "",
          "after": " "
        },
        {
          "index": 3,
          "word": "die",
          "originalText": "die",
          "characterOffsetBegin": 15,
          "characterOffsetEnd": 18,
          "pos": "PRELS",
          "before": " ",
          "after": " "
        },
        {
          "index": 4,
          "word": "in",
          "originalText": "in",
          "characterOffsetBegin": 19,
          "characterOffsetEnd": 21,
          "pos": "APPR",
          "before": " ",
          "after": " "
        },
        {
          "index": 5,
          "word": "Nigeria",
          "originalText": "Nigeria",
          "characterOffsetBegin": 22,
          "characterOffsetEnd": 29,
          "pos": "NE",
          "before": " ",
          "after": " "
        },
        {
          "index": 6,
          "word": "getötet",
          "originalText": "getötet",
          "characterOffsetBegin": 30,
          "characterOffsetEnd": 37,
          "pos": "VVPP",
          "before": " ",
          "after": " "
        },
        {
          "index": 7,
          "word": "wurden",
          "originalText": "wurden",
          "characterOffsetBegin": 38,
          "characterOffsetEnd": 44,
          "pos": "VAFIN",
          "before": " ",
          "after": ""
        },
        {
          "index": 8,
          "word": ",",
          "originalText": ",",
          "characterOffsetBegin": 44,
          "characterOffsetEnd": 45,
          "pos": "$,",
          "before": "",
          "after": " "
        },
        {
          "index": 9,
          "word": "trotz",
          "originalText": "trotz",
          "characterOffsetBegin": 46,
          "characterOffsetEnd": 51,
          "pos": "APPR",
          "before": " ",
          "after": " "
        },
        {
          "index": 10,
          "word": "angeblichen",
          "originalText": "angeblichen",
          "characterOffsetBegin": 52,
          "characterOffsetEnd": 63,
          "pos": "ADJA",
          "before": " ",
          "after": " "
        },
        {
          "index": 11,
          "word": "Waffenstillstand",
          "originalText": "Waffenstillstand",
          "characterOffsetBegin": 64,
          "characterOffsetEnd": 80,
          "pos": "NN",
          "before": " ",
          "after": " "
        },
        {
          "index": 12,
          "word": "mit",
          "originalText": "mit",
          "characterOffsetBegin": 81,
          "characterOffsetEnd": 84,
          "pos": "APPR",
          "before": " ",
          "after": " "
        },
        {
          "index": 13,
          "word": "Boko",
          "originalText": "Boko",
          "characterOffsetBegin": 85,
          "characterOffsetEnd": 89,
          "pos": "FM",
          "before": " ",
          "after": " "
        },
        {
          "index": 14,
          "word": "Haram",
          "originalText": "Haram",
          "characterOffsetBegin": 90,
          "characterOffsetEnd": 95,
          "pos": "FM",
          "before": " ",
          "after": ""
        }
      ]
    }
  ]
}