{
  "sentences": [
    {
      "index": 0,
      "basicDependencies": [
        {
          "dep": "ROOT",
          "governor": 0,
          "governorGloss": "ROOT",
          "dependent": 2,
          "dependentGloss": "tötet"
        },
        {
          "dep": "nsubj",
          "governor": 2,
          "governorGloss": "tötet",
          "dependent": 1,
          "dependentGloss": "ISIL"
        },
        {
          "dep": "advmod",
          "governor": 4,
          "governorGloss": "US-Journalist",
          "dependent": 3,
          "dependentGloss": "angeblich"
        },
        {
          "dep": "dobj",
          "governor": 2,
          "governorGloss": "tötet",
          "dependent": 4,
          "dependentGloss": "US-Journalist"
        },
        {
          "dep": "amod",
          "governor": 6,
          "governorGloss": "Video",
          "dependent": 5,
          "dependentGloss": "im"
        },
        {
          "dep": "nsubj",
          "governor": 4,
          "governorGloss": "US-Journalist",
          "dependent": 6,
          "dependentGloss": "Video"
        }
      ],
      "enhancedDependencies": [
        {
          "dep": "ROOT",
          "governor": 0,
          "governorGloss": "ROOT",
          "dependent": 2,
          "dependentGloss": "tötet"
        },
        {
          "dep": "nsubj",
          "governor": 2,
          "governorGloss": "tötet",
          "dependent": 1,
          "dependentGloss": "ISIL"
        },
        {
          "dep": "advmod",
          "governor": 4,
          "governorGloss": "US-Journalist",
          "dependent": 3,
          "dependentGloss": "angeblich"
        },
        {
          "dep": "dobj",
          "governor": 2,
          "governorGloss": "tötet",
          "dependent": 4,
          "dependentGloss": "US-Journalist"
        },
        {
          "dep": "amod",
          "governor": 6,
          "governorGloss": "Video",
          "dependent": 5,
          "dependentGloss": "im"
        },
        {
          "dep": "nsubj",
          "governor": 4,
          "governorGloss": "US-Journalist",
          "dependent": 6,
          "dependentGloss": "Video"
        }
      ],
      "enhancedPlusPlusDependencies": [
        {
          "dep": "ROOT",
          "governor": 0,
          "governorGloss": "ROOT",
          "dependent": 2,
          "dependentGloss": "tötet"
        },
        {
          "dep": "nsubj",
          "governor": 2,
          "governorGloss": "tötet",
          "dependent": 1,
          "dependentGloss": "ISIL"
        },
        {
          "dep": "advmod",
          "governor": 4,
          "governorGloss": "US-Journalist",
          "dependent": 3,
          "dependentGloss": "angeblich"
        },
        {
          "dep": "dobj",
          "governor": 2,
          "governorGloss": "tötet",
          "dependent": 4,
          "dependentGloss": "US-Journalist"
        },
        {
          "dep": "amod",
          "governor": 6,
          "governorGloss": "Video",
          "dependent": 5,
          "dependentGloss": "im"
        },
        {
          "dep": "nsubj",
          "governor": 4,
          "governorGloss": "US-Journalist",
          "dependent": 6,
          "dependentGloss": "Video"
        }
      ],
      "tokens": [
        {
          "index": 1,
          "word": "ISIL",
          "originalText": "ISIL",
          "characterOffsetBegin": 0,
          "characterOffsetEnd": 4,
          "pos": "NE",
          "before": "",
          "after": " "
        },
        {
          "index": 2,
          "word": "tötet",
          "originalText": "tötet",
          "characterOffsetBegin": 5,
          "characterOffsetEnd": 10,
          "pos": "VVFIN",
          "before": " ",
          "after": " "
        },
        {
          "index": 3,
          "word": "angeblich",
          "originalText": "angeblich",
          "characterOffsetBegin": 11,
          "characterOffsetEnd": 20,
          "pos": "ADJD",
          "before": " ",
          "after": " "
        },
        {
          "index": 4,
          "word": "US-Journalist",
          "originalText": "US-Journalist",
          "characterOffsetBegin": 21,
          "characterOffsetEnd": 34,
          "pos": "NN",
          "before": " ",
          "after": " "
        },
        {
          "index": 5,
          "word": "im",
          "originalText": "im",
          "characterOffsetBegin": 35,
          "characterOffsetEnd": 37,
          "pos": "APPRART",
          "before": " ",
          "after": " "
        },
        {
          "index": 6,
          "word": "Video",
          "originalText": "Video",
          "characterOffsetBegin": 38,
          "characterOffsetEnd": 43,
          "pos": "NN",
          "before": " ",
          "after": ""
        }
      ]
    }
  ]
}