{
  "sentences": [
    {
      "index": 0,
      "basicDependencies": [
        {
          "dep": "ROOT",
          "governor": 0,
          "governorGloss": "ROOT",
          "dependent": 1,
          "dependentGloss": "NYPD"
        },
        {
          "dep": "punct",
          "governor": 1,
          "governorGloss": "NYPD",
          "dependent": 2,
          "dependentGloss": ","
        },
        {
          "dep": "case",
          "governor": 4,
          "governorGloss": "Verhaftungen",
          "dependent": 3,
          "dependentGloss": "um"
        },
        {
          "dep": "nmod",
          "governor": 11,
          "governorGloss": "stoppen",
          "dependent": 4,
          "dependentGloss": "Verhaftungen"
        },
        {
          "dep": "case",
          "governor": 7,
          "governorGloss": "Mengen",
          "dependent": 5,
          "dependentGloss": "für"
        },
        {
          "dep": "amod",
          "governor": 7,
          "governorGloss": "Mengen",
          "dependent": 6,
          "dependentGloss": "kleine"
        },
        {
          "dep": "nmod",
          "governor": 4,
          "governorGloss": "Verhaftungen",
          "dependent": 7,
          "dependentGloss": "Mengen"
        },
        {
          "dep": "case",
          "governor": 9,
          "governorGloss": "Marihuana",
          "dependent": 8,
          "dependentGloss": "von"
        },
        {
          "dep": "nmod",
          "governor": 7,
          "governorGloss": "Mengen",
          "dependent": 9,
          "dependentGloss": "Marihuana"
        },
        {
          "dep": "aux",
          "governor": 11,
          "governorGloss": "stoppen",
          "dependent": 10,
          "dependentGloss": "zu"
        },
        {
          "dep": "acl",
          "governor": 1,
          "governorGloss": "NYPD",
          "dependent": 11,
          "dependentGloss": "stoppen"
        }
      ],
      "enhancedDependencies": [
        {
          "dep": "ROOT",
          "governor": 0,
          "governorGloss": "ROOT",
          "dependent": 1,
          "dependentGloss": "NYPD"
        },
        {
          "dep": "punct",
          "governor": 1,
          "governorGloss": "NYPD",
          "dependent": 2,
          "dependentGloss": ","
        },
        {
          "dep": "case",
          "governor": 4,
          "governorGloss": "Verhaftungen",
          "dependent": 3,
          "dependentGloss": "um"
        },
        {
          "dep": "nmod",
          "governor": 11,
          "governorGloss": "stoppen",
          "dependent": 4,
          "dependentGloss": "Verhaftungen"
        },
        {
          "dep": "case",
          "governor": 7,
          "governorGloss": "Mengen",
          "dependent": 5,
          "dependentGloss": "für"
        },
        {
          "dep": "amod",
          "governor": 7,
          "governorGloss": "Mengen",
          "dependent": 6,
          "dependentGloss": "kleine"
        },
        {
          "dep": "nmod",
          "governor": 4,
          "governorGloss": "Verhaftungen",
          "dependent": 7,
          "dependentGloss": "Mengen"
        },
        {
          "dep": "case",
          "governor": 9,
          "governorGloss": "Marihuana",
          "dependent": 8,
          "dependentGloss": "von"
        },
        {
          "dep": "nmod",
          "governor": 7,
          "governorGloss": "Mengen",
          "dependent": 9,
          "dependentGloss": "Marihuana"
        },
        {
          "dep": "aux",
          "governor": 11,
          "governorGloss": "stoppen",
          "dependent": 10,
          "dependentGloss": "zu"
        },
        {
          "dep": "acl",
          "governor": 1,
          "governorGloss": "NYPD",
          "dependent": 11,
          "dependentGloss": "stoppen"
        }
      ],
      "enhancedPlusPlusDependencies": [
        {
          "dep": "ROOT",
          "governor": 0,
          "governorGloss": "ROOT",
          "dependent": 1,
          "dependentGloss": "NYPD"
        },
        {
          "dep": "punct",
          "governor": 1,
          "governorGloss": "NYPD",
          "dependent": 2,
          "dependentGloss": ","
        },
        {
          "dep": "case",
          "governor": 4,
          "governorGloss": "Verhaftungen",
          "dependent": 3,
          "dependentGloss": "um"
        },
        {
          "dep": "nmod",
          "governor": 11,
          "governorGloss": "stoppen",
          "dependent": 4,
          "dependentGloss": "Verhaftungen"
        },
        {
          "dep": "case",
          "governor": 7,
          "governorGloss": "Mengen",
          "dependent": 5,
          "dependentGloss": "für"
        },
        {
          "dep": "amod",
          "governor": 7,
          "governorGloss": "Mengen",
          "dependent": 6,
          "dependentGloss": "kleine"
        },
        {
          "dep": "nmod",
          "governor": 4,
          "governorGloss": "Verhaftungen",
          "dependent": 7,
          "dependentGloss": "Mengen"
        },
        {
          "dep": "case",
          "governor": 9,
          "governorGloss": "Marihuana",
          "dependent": 8,
          "dependentGloss": "von"
        },
        {
          "dep": "nmod",
          "governor": 7,
          "governorGloss": "Mengen",
          "dependent": 9,
          "dependentGloss": "Marihuana"
        },
        {
          "dep": "aux",
          "governor": 11,
          "governorGloss": "stoppen",
          "dependent": 10,
          "dependentGloss": "zu"
        },
        {
          "dep": "acl",
          "governor": 1,
          "governorGloss": "NYPD",
          "dependent": 11,
          "dependentGloss": "stoppen"
        }
      ],
      "tokens": [
        {
          "index": 1,
          "word": "NYPD",
          "originalText": "NYPD",
          "characterOffsetBegin": 0,
          "characterOffsetEnd": 4,
          "pos": "NE",
          "before": "",
          "after": ""
        },
        {
          "index": 2,
          "word": ",",
          "originalText": ",",
          "characterOffsetBegin": 4,
          "characterOffsetEnd": 5,
          "pos": "$,",
          "before": "",
          "after": " "
        },
        {
          "index": 3,
          "word": "um",
          "originalText": "um",
          "characterOffsetBegin": 6,
          "characterOffsetEnd": 8,
          "pos": "APPR",
          "before": " ",
          "after": " "
        },
        {
          "index": 4,
          "word": "Verhaftungen",
          "originalText": "Verhaftungen",
          "characterOffsetBegin": 9,
          "characterOffsetEnd": 21,
          "pos": "NN",
          "before": " ",
          "after": " "
        },
        {
          "index": 5,
          "word": "für",
          "originalText": "für",
          "characterOffsetBegin": 22,
          "characterOffsetEnd": 25,
          "pos": "APPR",
          "before": " ",
          "after": " "
        },
        {
          "index": 6,
          "word": "kleine",
          "originalText": "kleine",
          "characterOffsetBegin": 26,
          "characterOffsetEnd": 32,
          "pos": "ADJA",
          "before": " ",
          "after": " "
        },
        {
          "index": 7,
          "word": "Mengen",
          "originalText": "Mengen",
          "characterOffsetBegin": 33,
          "characterOffsetEnd": 39,
          "pos": "NN",
          "before": " ",
          "after": " "
        },
        {
          "index": 8,
          "word": "von",
          "originalText": "von",
          "characterOffsetBegin": 40,
          "characterOffsetEnd": 43,
          "pos": "APPR",
          "before": " ",
          "after": " "
        },
        {
          "index": 9,
          "word": "Marihuana",
          "originalText": "Marihuana",
          "characterOffsetBegin": 44,
          "characterOffsetEnd": 53,
          "pos": "NN",
          "before": " ",
          "after": " "
        },
        {
          "index": 10,
          "word": "zu",
          "originalText": "zu",
          "characterOffsetBegin": 54,
          "characterOffsetEnd": 56,
          "pos": "PTKZU",
          "before": " ",
          "after": " "
        },
        {
          "index": 11,
          "word": "stoppen",
          "originalText": "stoppen",
          "characterOffsetBegin": 57,
          "characterOffsetEnd": 64,
          "pos": "VVINF",
          "before": " ",
          "after": ""
        }
      ]
    }
  ]
}