{
  "sentences": [
    {
      "index": 0,
      "basicDependencies": [
        {
          "dep": "ROOT",
          "governor": 0,
          "governorGloss": "ROOT",
          "dependent": 2,
          "dependentGloss": "überrascht"
        },
        {
          "dep": "nsubj",
          "governor": 2,
          "governorGloss": "überrascht",
          "dependent": 1,
          "dependentGloss": "Pizza-Auslieferungs-Fahrer"
        },
        {
          "dep": "case",
          "governor": 5,
          "governorGloss": "2.000",
          "dependent": 3,
          "dependentGloss": "mit"
        },
        {
          "dep": "nummod",
          "governor": 5,
          "governorGloss": "2.000",
          "dependent": 4,
          "dependentGloss": "$"
        },
        {
          "dep": "nmod",
          "governor": 2,
          "governorGloss": "überrascht",
          "dependent": 5,
          "dependentGloss": "2.000"
        },
        {
          "dep": "dobj",
          "governor": 2,
          "governorGloss": "überrascht",
          "dependent": 6,
          "dependentGloss": "Tipp"
        }
      ],
      "enhancedDependencies": [
        {
          "dep": "ROOT",
          "governor": 0,
          "governorGloss": "ROOT",
          "dependent": 2,
          "dependentGloss": "überrascht"
        },
        {
          "dep": "nsubj",
          "governor": 2,
          "governorGloss": "überrascht",
          "dependent": 1,
          "dependentGloss": "Pizza-Auslieferungs-Fahrer"
        },
        {
          "dep": "case",
          "governor": 5,
          "governorGloss": "2.000",
          "dependent": 3,
          "dependentGloss": "mit"
        },
        {
          "dep": "nummod",
          "governor": 5,
          "governorGloss": "2.000",
          "dependent": 4,
          "dependentGloss": "$"
        },
        {
          "dep": "nmod",
          "governor": 2,
          "governorGloss": "überrascht",
          "dependent": 5,
          "dependentGloss": "2.000"
        },
        {
          "dep": "dobj",
          "governor": 2,
          "governorGloss": "überrascht",
          "dependent": 6,
          "dependentGloss": "Tipp"
        }
      ],
      "enhancedPlusPlusDependencies": [
        {
          "dep": "ROOT",
          "governor": 0,
          "governorGloss": "ROOT",
          "dependent": 2,
          "dependentGloss": "überrascht"
        },
        {
          "dep": "nsubj",
          "governor": 2,
          "governorGloss": "überrascht",
          "dependent": 1,
          "dependentGloss": "Pizza-Auslieferungs-Fahrer"
        },
        {
          "dep": "case",
          "governor": 5,
          "governorGloss": "2.000",
          "dependent": 3,
          "dependentGloss": "mit"
        },
        {
          "dep": "nummod",
          "governor": 5,
          "governorGloss": "2.000",
          "dependent": 4,
          "dependentGloss": "$"
        },
        {
          "dep": "nmod",
          "governor": 2,
          "governorGloss": "überrascht",
          "dependent": 5,
          "dependentGloss": "2.000"
        },
        {
          "dep": "dobj",
          "governor": 2,
          "governorGloss": "überrascht",
          "dependent": 6,
          "dependentGloss": "Tipp"
        }
      ],
      "tokens": [
        {
          "index": 1,
          "word": "Pizza-Auslieferungs-Fahrer",
          "originalText": "Pizza-Auslieferungs-Fahrer",
          "characterOffsetBegin": 0,
          "characterOffsetEnd": 26,
          "pos": "NN",
          "before": "",
          "after": " "
        },
        {
          "index": 2,
          "word": "überrascht",
          "originalText": "überrascht",
          "characterOffsetBegin": 27,
          "characterOffsetEnd": 37,
          "pos": "VVFIN",
          "before": " ",
          "after": " "
        },
        {
          "index": 3,
          "word": "mit",
          "originalText": "mit",
          "characterOffsetBegin": 38,
          "characterOffsetEnd": 41,
          "pos": "APPR",
          "before": " ",
          "after": " "
        },
        {
          "index": 4,
          "word": "$",
          "originalText": "$",
          "characterOffsetBegin": 42,
          "characterOffsetEnd": 43,
          "pos": "CARD",
          "before": " ",
          "after": " "
        },
        {
          "index": 5,
          "word": "2.000",
          "originalText": "2.000",
          "characterOffsetBegin": 44,
          "characterOffsetEnd": 49,
          "pos": "CARD",
          "before": " ",
          "after": " "
        },
        {
          "index": 6,
          "word": "Tipp",
          "originalText": "Tipp",
          "characterOffsetBegin": 50,
          "characterOffsetEnd": 54,
          "pos": "NN",
          "before": " ",
          "after": ""
        }
      ]
    }
  ]
}