{
  "sentences": [
    {
      "index": 0,
      "basicDependencies": [
        {
          "dep": "ROOT",
          "governor": 0,
          "governorGloss": "ROOT",
          "dependent": 5,
          "dependentGloss": "Bank"
        },
        {
          "dep": "name",
          "governor": 2,
          "governorGloss": "Gang",
          "dependent": 1,
          "dependentGloss": "Sugarhill"
        },
        {
          "dep": "det",
          "governor": 5,
          "governorGloss": "Bank",
          "dependent": 2,
          "dependentGloss": "Gang"
        },
        {
          "dep": "case",
          "governor": 2,
          "governorGloss": "Gang",
          "dependent": 3,
          "dependentGloss": "'s"
        },
        {
          "dep": "amod",
          "governor": 5,
          "governorGloss": "Bank",
          "dependent": 4,
          "dependentGloss": "Big"
        },
        {
          "dep": "amod",
          "governor": 7,
          "governorGloss": "Dead",
          "dependent": 6,
          "dependentGloss": "Hank"
        },
        {
          "dep": "det",
          "governor": 5,
          "governorGloss": "Bank",
          "dependent": 7,
          "dependentGloss": "Dead"
        },
        {
          "dep": "case",
          "governor": 9,
          "governorGloss": "57",
          "dependent": 8,
          "dependentGloss": "bei"
        },
        {
          "dep": "nmod",
          "governor": 7,
          "governorGloss": "Dead",
          "dependent": 9,
          "dependentGloss": "57"
        }
      ],
      "enhancedDependencies": [
        {
          "dep": "ROOT",
          "governor": 0,
          "governorGloss": "ROOT",
          "dependent": 5,
          "dependentGloss": "Bank"
        },
        {
          "dep": "name",
          "governor": 2,
          "governorGloss": "Gang",
          "dependent": 1,
          "dependentGloss": "Sugarhill"
        },
        {
          "dep": "det",
          "governor": 5,
          "governorGloss": "Bank",
          "dependent": 2,
          "dependentGloss": "Gang"
        },
        {
          "dep": "case",
          "governor": 2,
          "governorGloss": "Gang",
          "dependent": 3,
          "dependentGloss": "'s"
        },
        {
          "dep": "amod",
          "governor": 5,
          "governorGloss": "Bank",
          "dependent": 4,
          "dependentGloss": "Big"
        },
        {
          "dep": "amod",
          "governor": 7,
          "governorGloss": "Dead",
          "dependent": 6,
          "dependentGloss": "Hank"
        },
        {
          "dep": "det",
          "governor": 5,
          "governorGloss": "Bank",
          "dependent": 7,
          "dependentGloss": "Dead"
        },
        {
          "dep": "case",
          "governor": 9,
          "governorGloss": "57",
          "dependent": 8,
          "dependentGloss": "bei"
        },
        {
          "dep": "nmod",
          "governor": 7,
          "governorGloss": "Dead",
          "dependent": 9,
          "dependentGloss": "57"
        }
      ],
      "enhancedPlusPlusDependencies": [
        {
          "dep": "ROOT",
          "governor": 0,
          "governorGloss": "ROOT",
          "dependent": 5,
          "dependentGloss": "Bank"
        },
        {
          "dep": "name",
          "governor": 2,
          "governorGloss": "Gang",
          "dependent": 1,
          "dependentGloss": "Sugarhill"
        },
        {
          "dep": "det",
          "governor": 5,
          "governorGloss": "Bank",
          "dependent": 2,
          "dependentGloss": "Gang"
        },
        {
          "dep": "case",
          "governor": 2,
          "governorGloss": "Gang",
          "dependent": 3,
          "dependentGloss": "'s"
        },
        {
          "dep": "amod",
          "governor": 5,
          "governorGloss": "Bank",
          "dependent": 4,
          "dependentGloss": "Big"
        },
        {
          "dep": "amod",
          "governor": 7,
          "governorGloss": "Dead",
          "dependent": 6,
          "dependentGloss": "Hank"
        },
        {
          "dep": "det",
          "governor": 5,
          "governorGloss": "Bank",
          "dependent": 7,
          "dependentGloss": "Dead"
        },
        {
          "dep": "case",
          "governor": 9,
          "governorGloss": "57",
          "dependent": 8,
          "dependentGloss": "bei"
        },
        {
          "dep": "nmod",
          "governor": 7,
          "governorGloss": "Dead",
          "dependent": 9,
          "dependentGloss": "57"
        }
      ],
      "tokens": [
        {
          "index": 1,
          "word": "Sugarhill",
          "originalText": "Sugarhill",
          "characterOffsetBegin": 0,
          "characterOffsetEnd": 9,
          "pos": "ADV",
          "before": "",
          "after": " "
        },
        {
          "index": 2,
          "word": "Gang",
          "originalText": "Gang",
          "characterOffsetBegin": 10,
          "characterOffsetEnd": 14,
          "pos": "NN",
          "before": " ",
          "after": ""
        },
        {
          "index": 3,
          "word": "'s",
          "originalText": "'s",
          "characterOffsetBegin": 14,
          "characterOffsetEnd": 16,
          "pos": "PPER",
          "before": "",
          "after": " "
        },
        {
          "index": 4,
          "word": "Big",
          "originalText": "Big",
          "characterOffsetBegin": 17,
          "characterOffsetEnd": 20,
          "pos": "NE",
          "before": " ",
          "after": " "
        },
        {
          "index": 5,
          "word": "Bank",
          "originalText": "Bank",
          "characterOffsetBegin": 21,
          "characterOffsetEnd": 25,
          "pos": "NN",
          "before": " ",
          "after": " "
        },
        {
          "index": 6,
          "word": "Hank",
          "originalText": "Hank",
          "characterOffsetBegin": 26,
          "characterOffsetEnd": 30,
          "pos": "NE",
          "before": " ",
          "after": " "
        },
        {
          "index": 7,
          "word": "Dead",
          "originalText": "Dead",
          "characterOffsetBegin": 31,
          "characterOffsetEnd": 35,
          "pos": "NE",
          "before": " ",
          "after": " "
        },
        {
          "index": 8,
          "word": "bei",
          "originalText": "bei",
          "characterOffsetBegin": 36,
          "characterOffsetEnd": 39,
          "pos": "APPR",
          "before": " ",
          "after": " "
        },
        {
          "index": 9,
          "word": "57",
          "originalText": "57",
          "characterOffsetBegin": 40,
          "characterOffsetEnd": 42,
          "pos": "CARD",
          "before": " ",
          "after": ""
        }
      ]
    }
  ]
}