{
  "sentences": [
    {
      "index": 0,
      "basicDependencies": [
        {
          "dep": "ROOT",
          "governor": 0,
          "governorGloss": "ROOT",
          "dependent": 4,
          "dependentGloss": "Infestation"
        },
        {
          "dep": "det",
          "governor": 3,
          "governorGloss": "Rat",
          "dependent": 1,
          "dependentGloss": "Vogue"
        },
        {
          "dep": "case",
          "governor": 1,
          "governorGloss": "Vogue",
          "dependent": 2,
          "dependentGloss": "'s"
        },
        {
          "dep": "nsubj",
          "governor": 4,
          "governorGloss": "Infestation",
          "dependent": 3,
          "dependentGloss": "Rat"
        },
        {
          "dep": "punct",
          "governor": 4,
          "governorGloss": "Infestation",
          "dependent": 5,
          "dependentGloss": ":"
        },
        {
          "dep": "appos",
          "governor": 4,
          "governorGloss": "Infestation",
          "dependent": 6,
          "dependentGloss": "Störende"
        },
        {
          "dep": "amod",
          "governor": 8,
          "governorGloss": "Details",
          "dependent": 7,
          "dependentGloss": "neue"
        },
        {
          "dep": "det",
          "governor": 6,
          "governorGloss": "Störende",
          "dependent": 8,
          "dependentGloss": "Details"
        }
      ],
      "enhancedDependencies": [
        {
          "dep": "ROOT",
          "governor": 0,
          "governorGloss": "ROOT",
          "dependent": 4,
          "dependentGloss": "Infestation"
        },
        {
          "dep": "det",
          "governor": 3,
          "governorGloss": "Rat",
          "dependent": 1,
          "dependentGloss": "Vogue"
        },
        {
          "dep": "case",
          "governor": 1,
          "governorGloss": "Vogue",
          "dependent": 2,
          "dependentGloss": "'s"
        },
        {
          "dep": "nsubj",
          "governor": 4,
          "governorGloss": "Infestation",
          "dependent": 3,
          "dependentGloss": "Rat"
        },
        {
          "dep": "punct",
          "governor": 4,
          "governorGloss": "Infestation",
          "dependent": 5,
          "dependentGloss": ":"
        },
        {
          "dep": "appos",
          "governor": 4,
          "governorGloss": "Infestation",
          "dependent": 6,
          "dependentGloss": "Störende"
        },
        {
          "dep": "amod",
          "governor": 8,
          "governorGloss": "Details",
          "dependent": 7,
          "dependentGloss": "neue"
        },
        {
          "dep": "det",
          "governor": 6,
          "governorGloss": "Störende",
          "dependent": 8,
          "dependentGloss": "Details"
        }
      ],
      "enhancedPlusPlusDependencies": [
        {
          "dep": "ROOT",
          "governor": 0,
          "governorGloss": "ROOT",
          "dependent": 4,
          "dependentGloss": "Infestation"
        },
        {
          "dep": "det",
          "governor": 3,
          "governorGloss": "Rat",
          "dependent": 1,
          "dependentGloss": "Vogue"
        },
        {
          "dep": "case",
          "governor": 1,
          "governorGloss": "Vogue",
          "dependent": 2,
          "dependentGloss": "'s"
        },
        {
          "dep": "nsubj",
          "governor": 4,
          "governorGloss": "Infestation",
          "dependent": 3,
          "dependentGloss": "Rat"
        },
        {
          "dep": "punct",
          "governor": 4,
          "governorGloss": "Infestation",
          "dependent": 5,
          "dependentGloss": ":"
        },
        {
          "dep": "appos",
          "governor": 4,
          "governorGloss": "Infestation",
          "dependent": 6,
          "dependentGloss": "Störende"
        },
        {
          "dep": "amod",
          "governor": 8,
          "governorGloss": "Details",
          "dependent": 7,
          "dependentGloss": "neue"
        },
        {
          "dep": "det",
          "governor": 6,
          "governorGloss": "Störende",
          "dependent": 8,
          "dependentGloss": "Details"
        }
      ],
      "tokens": [
        {
          "index": 1,
          "word": "Vogue",
          "originalText": "Vogue",
          "characterOffsetBegin": 0,
          "characterOffsetEnd": 5,
          "pos": "NE",
          "before": "",
          "after": ""
        },
        {
          "index": 2,
          "word": "'s",
          "originalText": "'s",
          "characterOffsetBegin": 5,
          "characterOffsetEnd": 7,
          "pos": "PPER",
          "before": "",
          "after": " "
        },
        {
          "index": 3,
          "word": "Rat",
          "originalText": "Rat",
          "characterOffsetBegin": 8,
          "characterOffsetEnd": 11,
          "pos": "NN",
          "before": " ",
          "after": " "
        },
        {
          "index": 4,
          "word": "Infestation",
          "originalText": "Infestation",
          "characterOffsetBegin": 12,
          "characterOffsetEnd": 23,
          "pos": "NN",
          "before": " ",
          "after": ""
        },
        {
          "index": 5,
          "word": ":",
          "originalText": ":",
          "characterOffsetBegin": 23,
          "characterOffsetEnd": 24,
          "pos": "$.",
          "before": "",
          "after": " "
        },
        {
          "index": 6,
          "word": "Störende",
          "originalText": "Störende",
          "characterOffsetBegin": 25,
          "characterOffsetEnd": 33,
          "pos": "NN",
          "before": " ",
          "after": " "
        },
        {
          "index": 7,
          "word": "neue",
          "originalText": "neue",
          "characterOffsetBegin": 34,
          "characterOffsetEnd": 38,
          "pos": "ADJA",
          "before": " ",
          "after": " "
        },
        {
          "index": 8,
          "word": "Details",
          "originalText": "Details",
          "characterOffsetBegin": 39,
          "characterOffsetEnd": 46,
          "pos": "NN",
          "before": " ",
          "after": ""
        }
      ]
    }
  ]
}