{
  "sentences": [
    {
      "index": 0,
      "basicDependencies": [
        {
          "dep": "ROOT",
          "governor": 0,
          "governorGloss": "ROOT",
          "dependent": 1,
          "dependentGloss": "AKTUALISIERT"
        },
        {
          "dep": "dep",
          "governor": 1,
          "governorGloss": "AKTUALISIERT",
          "dependent": 2,
          "dependentGloss": "`"
        },
        {
          "dep": "name",
          "governor": 4,
          "governorGloss": "John",
          "dependent": 3,
          "dependentGloss": "Jihadi"
        },
        {
          "dep": "det",
          "governor": 6,
          "governorGloss": "identifiziert",
          "dependent": 4,
          "dependentGloss": "John"
        },
        {
          "dep": "case",
          "governor": 4,
          "governorGloss": "John",
          "dependent": 5,
          "dependentGloss": "'"
        },
        {
          "dep": "nsubj",
          "governor": 2,
          "governorGloss": "`",
          "dependent": 6,
          "dependentGloss": "identifiziert"
        },
        {
          "dep": "case",
          "governor": 9,
          "governorGloss": "Emwazi",
          "dependent": 7,
          "dependentGloss": "als"
        },
        {
          "dep": "name",
          "governor": 9,
          "governorGloss": "Emwazi",
          "dependent": 8,
          "dependentGloss": "Mohammed"
        },
        {
          "dep": "nmod",
          "governor": 6,
          "governorGloss": "identifiziert",
          "dependent": 9,
          "dependentGloss": "Emwazi"
        },
        {
          "dep": "case",
          "governor": 11,
          "governorGloss": "London",
          "dependent": 10,
          "dependentGloss": "von"
        },
        {
          "dep": "nmod",
          "governor": 9,
          "governorGloss": "Emwazi",
          "dependent": 11,
          "dependentGloss": "London"
        },
        {
          "dep": "punct",
          "governor": 6,
          "governorGloss": "identifiziert",
          "dependent": 12,
          "dependentGloss": ","
        },
        {
          "dep": "conj",
          "governor": 6,
          "governorGloss": "identifiziert",
          "dependent": 13,
          "dependentGloss": "berichtet"
        },
        {
          "dep": "punct",
          "governor": 6,
          "governorGloss": "identifiziert",
          "dependent": 14,
          "dependentGloss": ","
        },
        {
          "dep": "conj",
          "governor": 6,
          "governorGloss": "identifiziert",
          "dependent": 15,
          "dependentGloss": "sagen"
        }
      ],
      "enhancedDependencies": [
        {
          "dep": "ROOT",
          "governor": 0,
          "governorGloss": "ROOT",
          "dependent": 1,
          "dependentGloss": "AKTUALISIERT"
        },
        {
          "dep": "dep",
          "governor": 1,
          "governorGloss": "AKTUALISIERT",
          "dependent": 2,
          "dependentGloss": "`"
        },
        {
          "dep": "name",
          "governor": 4,
          "governorGloss": "John",
          "dependent": 3,
          "dependentGloss": "Jihadi"
        },
        {
          "dep": "det",
          "governor": 6,
          "governorGloss": "identifiziert",
          "dependent": 4,
          "dependentGloss": "John"
        },
        {
          "dep": "case",
          "governor": 4,
          "governorGloss": "John",
          "dependent": 5,
          "dependentGloss": "'"
        },
        {
          "dep": "nsubj",
          "governor": 2,
          "governorGloss": "`",
          "dependent": 6,
          "dependentGloss": "identifiziert"
        },
        {
          "dep": "case",
          "governor": 9,
          "governorGloss": "Emwazi",
          "dependent": 7,
          "dependentGloss": "als"
        },
        {
          "dep": "name",
          "governor": 9,
          "governorGloss": "Emwazi",
          "dependent": 8,
          "dependentGloss": "Mohammed"
        },
        {
          "dep": "nmod",
          "governor": 6,
          "governorGloss": "identifiziert",
          "dependent": 9,
          "dependentGloss": "Emwazi"
        },
        {
          "dep": "case",
          "governor": 11,
          "governorGloss": "London",
          "dependent": 10,
          "dependentGloss": "von"
        },
        {
          "dep": "nmod",
          "governor": 9,
          "governorGloss": "Emwazi",
          "dependent": 11,
          "dependentGloss": "London"
        },
        {
          "dep": "punct",
          "governor": 6,
          "governorGloss": "identifiziert",
          "dependent": 12,
          "dependentGloss": ","
        },
        {
          "dep": "conj",
          "governor": 6,
          "governorGloss": "identifiziert",
          "dependent": 13,
          "dependentGloss": "berichtet"
        },
        {
          "dep": "punct",
          "governor": 6,
          "governorGloss": "identifiziert",
          "dependent": 14,
          "dependentGloss": ","
        },
        {
          "dep": "conj",
          "governor": 6,
          "governorGloss": "identifiziert",
          "dependent": 15,
          "dependentGloss": "sagen"
        }
      ],
      "enhancedPlusPlusDependencies": [
        {
          "dep": "ROOT",
          "governor": 0,
          "governorGloss": "ROOT",
          "dependent": 1,
          "dependentGloss": "AKTUALISIERT"
        },
        {
          "dep": "dep",
          "governor": 1,
          "governorGloss": "AKTUALISIERT",
          "dependent": 2,
          "dependentGloss": "`"
        },
        {
          "dep": "name",
          "governor": 4,
          "governorGloss": "John",
          "dependent": 3,
          "dependentGloss": "Jihadi"
        },
        {
          "dep": "det",
          "governor": 6,
          "governorGloss": "identifiziert",
          "dependent": 4,
          "dependentGloss": "John"
        },
        {
          "dep": "case",
          "governor": 4,
          "governorGloss": "John",
          "dependent": 5,
          "dependentGloss": "'"
        },
        {
          "dep": "nsubj",
          "governor": 2,
          "governorGloss": "`",
          "dependent": 6,
          "dependentGloss": "identifiziert"
        },
        {
          "dep": "case",
          "governor": 9,
          "governorGloss": "Emwazi",
          "dependent": 7,
          "dependentGloss": "als"
        },
        {
          "dep": "name",
          "governor": 9,
          "governorGloss": "Emwazi",
          "dependent": 8,
          "dependentGloss": "Mohammed"
        },
        {
          "dep": "nmod",
          "governor": 6,
          "governorGloss": "identifiziert",
          "dependent": 9,
          "dependentGloss": "Emwazi"
        },
        {
          "dep": "case",
          "governor": 11,
          "governorGloss": "London",
          "dependent": 10,
          "dependentGloss": "von"
        },
        {
          "dep": "nmod",
          "governor": 9,
          "governorGloss": "Emwazi",
          "dependent": 11,
          "dependentGloss": "London"
        },
        {
          "dep": "punct",
          "governor": 6,
          "governorGloss": "identifiziert",
          "dependent": 12,
          "dependentGloss": ","
        },
        {
          "dep": "conj",
          "governor": 6,
          "governorGloss": "identifiziert",
          "dependent": 13,
          "dependentGloss": "berichtet"
        },
        {
          "dep": "punct",
          "governor": 6,
          "governorGloss": "identifiziert",
          "dependent": 14,
          "dependentGloss": ","
        },
        {
          "dep": "conj",
          "governor": 6,
          "governorGloss": "identifiziert",
          "dependent": 15,
          "dependentGloss": "sagen"
        }
      ],
      "tokens": [
        {
          "index": 1,
          "word": "AKTUALISIERT",
          "originalText": "AKTUALISIERT",
          "characterOffsetBegin": 0,
          "characterOffsetEnd": 12,
          "pos": "NE",
          "before": "",
          "after": " "
        },
        {
          "index": 2,
          "word": "`",
          "originalText": "'",
          "characterOffsetBegin": 13,
          "characterOffsetEnd": 14,
          "pos": "VVFIN",
          "before": " ",
          "after": ""
        },
        {
          "index": 3,
          "word": "Jihadi",
          "originalText": "Jihadi",
          "characterOffsetBegin": 14,
          "characterOffsetEnd": 20,
          "pos": "NE",
          "before": "",
          "after": " "
        },
        {
          "index": 4,
          "word": "John",
          "originalText": "John",
          "characterOffsetBegin": 21,
          "characterOffsetEnd": 25,
          "pos": "NE",
          "before": " ",
          "after": ""
        },
        {
          "index": 5,
          "word": "'",
          "originalText": "'",
          "characterOffsetBegin": 25,
          "characterOffsetEnd": 26,
          "pos": "$[",
          "before": "",
          "after": " "
        },
        {
          "index": 6,
          "word": "identifiziert",
          "originalText": "identifiziert",
          "characterOffsetBegin": 27,
          "characterOffsetEnd": 40,
          "pos": "VVFIN",
          "before": " ",
          "after": " "
        },
        {
          "index": 7,
          "word": "als",
          "originalText": "als",
          "characterOffsetBegin": 41,
          "characterOffsetEnd": 44,
          "pos": "APPR",
          "before": " ",
          "after": " "
        },
        {
          "index": 8,
          "word": "Mohammed",
          "originalText": "Mohammed",
          "characterOffsetBegin": 45,
          "characterOffsetEnd": 53,
          "pos": "NE",
          "before": " ",
          "after": " "
        },
        {
          "index": 9,
          "word": "Emwazi",
          "originalText": "Emwazi",
          "characterOffsetBegin": 54,
          "characterOffsetEnd": 60,
          "pos": "NE",
          "before": " ",
          "after": " "
        },
        {
          "index": 10,
          "word": "von",
          "originalText": "von",
          "characterOffsetBegin": 61,
          "characterOffsetEnd": 64,
          "pos": "APPR",
          "before": " ",
          "after": " "
        },
        {
          "index": 11,
          "word": "London",
          "originalText": "London",
          "characterOffsetBegin": 65,
          "characterOffsetEnd": 71,
          "pos": "NE",
          "before": " ",
          "after": ""
        },
        {
          "index": 12,
          "word": ",",
          "originalText": ",",
          "characterOffsetBegin": 71,
          "characterOffsetEnd": 72,
          "pos": "$,",
          "before": "",
          "after": " "
        },
        {
          "index": 13,
          "word": "berichtet",
          "originalText": "berichtet",
          "characterOffsetBegin": 73,
          "characterOffsetEnd": 82,
          "pos": "VVPP",
          "before": " ",
          "after": ""
        },
        {
          "index": 14,
          "word": ",",
          "originalText": ",",
          "characterOffsetBegin": 82,
          "characterOffsetEnd": 83,
          "pos": "$,",
          "before": "",
          "after": " "
        },
        {
          "index": 15,
          "word": "sagen",
          "originalText": "sagen",
          "characterOffsetBegin": 84,
          "characterOffsetEnd": 89,
          "pos": "VVINF",
          "before": " ",
          "after": ""
        }
      ]
    }
  ]
}