{
  "sentences": [
    {
      "index": 0,
      "basicDependencies": [
        {
          "dep": "ROOT",
          "governor": 0,
          "governorGloss": "ROOT",
          "dependent": 3,
          "dependentGloss": "Zeit-Kapsel"
        },
        {
          "dep": "punct",
          "governor": 2,
          "governorGloss": "Älteste",
          "dependent": 1,
          "dependentGloss": "``"
        },
        {
          "dep": "name",
          "governor": 3,
          "governorGloss": "Zeit-Kapsel",
          "dependent": 2,
          "dependentGloss": "Älteste"
        },
        {
          "dep": "punct",
          "governor": 7,
          "governorGloss": "Unearthed",
          "dependent": 4,
          "dependentGloss": "``"
        },
        {
          "dep": "case",
          "governor": 6,
          "governorGloss": "U.S.",
          "dependent": 5,
          "dependentGloss": "in"
        },
        {
          "dep": "nmod",
          "governor": 7,
          "governorGloss": "Unearthed",
          "dependent": 6,
          "dependentGloss": "U.S."
        },
        {
          "dep": "acl",
          "governor": 3,
          "governorGloss": "Zeit-Kapsel",
          "dependent": 7,
          "dependentGloss": "Unearthed"
        },
        {
          "dep": "case",
          "governor": 9,
          "governorGloss": "Boston",
          "dependent": 8,
          "dependentGloss": "in"
        },
        {
          "dep": "nmod",
          "governor": 7,
          "governorGloss": "Unearthed",
          "dependent": 9,
          "dependentGloss": "Boston"
        }
      ],
      "enhancedDependencies": [
        {
          "dep": "ROOT",
          "governor": 0,
          "governorGloss": "ROOT",
          "dependent": 3,
          "dependentGloss": "Zeit-Kapsel"
        },
        {
          "dep": "punct",
          "governor": 2,
          "governorGloss": "Älteste",
          "dependent": 1,
          "dependentGloss": "``"
        },
        {
          "dep": "name",
          "governor": 3,
          "governorGloss": "Zeit-Kapsel",
          "dependent": 2,
          "dependentGloss": "Älteste"
        },
        {
          "dep": "punct",
          "governor": 7,
          "governorGloss": "Unearthed",
          "dependent": 4,
          "dependentGloss": "``"
        },
        {
          "dep": "case",
          "governor": 6,
          "governorGloss": "U.S.",
          "dependent": 5,
          "dependentGloss": "in"
        },
        {
          "dep": "nmod",
          "governor": 7,
          "governorGloss": "Unearthed",
          "dependent": 6,
          "dependentGloss": "U.S."
        },
        {
          "dep": "acl",
          "governor": 3,
          "governorGloss": "Zeit-Kapsel",
          "dependent": 7,
          "dependentGloss": "Unearthed"
        },
        {
          "dep": "case",
          "governor": 9,
          "governorGloss": "Boston",
          "dependent": 8,
          "dependentGloss": "in"
        },
        {
          "dep": "nmod",
          "governor": 7,
          "governorGloss": "Unearthed",
          "dependent": 9,
          "dependentGloss": "Boston"
        }
      ],
      "enhancedPlusPlusDependencies": [
        {
          "dep": "ROOT",
          "governor": 0,
          "governorGloss": "ROOT",
          "dependent": 3,
          "dependentGloss": "Zeit-Kapsel"
        },
        {
          "dep": "punct",
          "governor": 2,
          "governorGloss": "Älteste",
          "dependent": 1,
          "dependentGloss": "``"
        },
        {
          "dep": "name",
          "governor": 3,
          "governorGloss": "Zeit-Kapsel",
          "dependent": 2,
          "dependentGloss": "Älteste"
        },
        {
          "dep": "punct",
          "governor": 7,
          "governorGloss": "Unearthed",
          "dependent": 4,
          "dependentGloss": "``"
        },
        {
          "dep": "case",
          "governor": 6,
          "governorGloss": "U.S.",
          "dependent": 5,
          "dependentGloss": "in"
        },
        {
          "dep": "nmod",
          "governor": 7,
          "governorGloss": "Unearthed",
          "dependent": 6,
          "dependentGloss": "U.S."
        },
        {
          "dep": "acl",
          "governor": 3,
          "governorGloss": "Zeit-Kapsel",
          "dependent": 7,
          "dependentGloss": "Unearthed"
        },
        {
          "dep": "case",
          "governor": 9,
          "governorGloss": "Boston",
          "dependent": 8,
          "dependentGloss": "in"
        },
        {
          "dep": "nmod",
          "governor": 7,
          "governorGloss": "Unearthed",
          "dependent": 9,
          "dependentGloss": "Boston"
        }
      ],
      "tokens": [
        {
          "index": 1,
          "word": "``",
          "originalText": "“",
          "characterOffsetBegin": 0,
          "characterOffsetEnd": 1,
          "pos": "CARD",
          "before": "",
          "after": ""
        },
        {
          "index": 2,
          "word": "Älteste",
          "originalText": "Älteste",
          "characterOffsetBegin": 1,
          "characterOffsetEnd": 8,
          "pos": "NN",
          "before": "",
          "after": " "
        },
        {
          "index": 3,
          "word": "Zeit-Kapsel",
          "originalText": "Zeit-Kapsel",
          "characterOffsetBegin": 9,
          "characterOffsetEnd": 20,
          "pos": "NN",
          "before": " ",
          "after": ""
        },
        {
          "index": 4,
          "word": "``",
          "originalText": "“",
          "characterOffsetBegin": 20,
          "characterOffsetEnd": 21,
          "pos": "CARD",
          "before": "",
          "after": " "
        },
        {
          "index": 5,
          "word": "in",
          "originalText": "in",
          "characterOffsetBegin": 22,
          "characterOffsetEnd": 24,
          "pos": "APPR",
          "before": " ",
          "after": " "
        },
        {
          "index": 6,
          "word": "U.S.",
          "originalText": "U.S.",
          "characterOffsetBegin": 25,
          "characterOffsetEnd": 29,
          "pos": "NE",
          "before": " ",
          "after": " "
        },
        {
          "index": 7,
          "word": "Unearthed",
          "originalText": "Unearthed",
          "characterOffsetBegin": 30,
          "characterOffsetEnd": 39,
          "pos": "NE",
          "before": " ",
          "after": " "
        },
        {
          "index": 8,
          "word": "in",
          "originalText": "in",
          "characterOffsetBegin": 40,
          "characterOffsetEnd": 42,
          "pos": "APPR",
          "before": " ",
          "after": " "
        },
        {
          "index": 9,
          "word": "Boston",
          "originalText": "Boston",
          "characterOffsetBegin": 43,
          "characterOffsetEnd": 49,
          "pos": "NE",
          "before": " ",
          "after": ""
        }
      ]
    }
  ]
}