{
  "sentences": [
    {
      "index": 0,
      "basicDependencies": [
        {
          "dep": "ROOT",
          "governor": 0,
          "governorGloss": "ROOT",
          "dependent": 2,
          "dependentGloss": "erfordert"
        },
        {
          "dep": "nsubj",
          "governor": 2,
          "governorGloss": "erfordert",
          "dependent": 1,
          "dependentGloss": "Apfel-Uhr-Batterie"
        },
        {
          "dep": "amod",
          "governor": 4,
          "governorGloss": "Aufladung",
          "dependent": 3,
          "dependentGloss": "nächtliche"
        },
        {
          "dep": "dobj",
          "governor": 2,
          "governorGloss": "erfordert",
          "dependent": 4,
          "dependentGloss": "Aufladung"
        }
      ],
      "enhancedDependencies": [
        {
          "dep": "ROOT",
          "governor": 0,
          "governorGloss": "ROOT",
          "dependent": 2,
          "dependentGloss": "erfordert"
        },
        {
          "dep": "nsubj",
          "governor": 2,
          "governorGloss": "erfordert",
          "dependent": 1,
          "dependentGloss": "Apfel-Uhr-Batterie"
        },
        {
          "dep": "amod",
          "governor": 4,
          "governorGloss": "Aufladung",
          "dependent": 3,
          "dependentGloss": "nächtliche"
        },
        {
          "dep": "dobj",
          "governor": 2,
          "governorGloss": "erfordert",
          "dependent": 4,
          "dependentGloss": "Aufladung"
        }
      ],
      "enhancedPlusPlusDependencies": [
        {
          "dep": "ROOT",
          "governor": 0,
          "governorGloss": "ROOT",
          "dependent": 2,
          "dependentGloss": "erfordert"
        },
        {
          "dep": "nsubj",
          "governor": 2,
          "governorGloss": "erfordert",
          "dependent": 1,
          "dependentGloss": "Apfel-Uhr-Batterie"
        },
        {
          "dep": "amod",
          "governor": 4,
          "governorGloss": "Aufladung",
          "dependent": 3,
          "dependentGloss": "nächtliche"
        },
        {
          "dep": "dobj",
          "governor": 2,
          "governorGloss": "erfordert",
          "dependent": 4,
          "dependentGloss": "Aufladung"
        }
      ],
      "tokens": [
        {
          "index": 1,
          "word": "Apfel-Uhr-Batterie",
          "originalText": "Apfel-Uhr-Batterie",
          "characterOffsetBegin": 0,
          "characterOffsetEnd": 18,
          "pos": "NN",
          "before": "",
          "after": " "
        },
        {
          "index": 2,
          "word": "erfordert",
          "originalText": "erfordert",
          "characterOffsetBegin": 19,
          "characterOffsetEnd": 28,
          "pos": "VVFIN",
          "before": " ",
          "after": " "
        },
        {
          "index": 3,
          "word": "nächtliche",
          "originalText": "nächtliche",
          "characterOffsetBegin": 29,
          "characterOffsetEnd": 39,
          "pos": "ADJA",
          "before": " ",
          "after": " "
        },
        {
          "index": 4,
          "word": "Aufladung",
          "originalText": "Aufladung",
          "characterOffsetBegin": 40,
          "characterOffsetEnd": 49,
          "pos": "NN",
          "before": " ",
          "after": ""
        }
      ]
    }
  ]
}