{
  "sentences": [
    {
      "index": 0,
      "basicDependencies": [
        {
          "dep": "ROOT",
          "governor": 0,
          "governorGloss": "ROOT",
          "dependent": 9,
          "dependentGloss": "gemachter"
        },
        {
          "dep": "det",
          "governor": 6,
          "governorGloss": "Restaurant",
          "dependent": 1,
          "dependentGloss": "Kim"
        },
        {
          "dep": "det",
          "governor": 6,
          "governorGloss": "Restaurant",
          "dependent": 2,
          "dependentGloss": "Jong-Un"
        },
        {
          "dep": "case",
          "governor": 2,
          "governorGloss": "Jong-Un",
          "dependent": 3,
          "dependentGloss": "'s"
        },
        {
          "dep": "amod",
          "governor": 6,
          "governorGloss": "Restaurant",
          "dependent": 4,
          "dependentGloss": "schottisches"
        },
        {
          "dep": "amod",
          "governor": 6,
          "governorGloss": "Restaurant",
          "dependent": 5,
          "dependentGloss": "Hundefleisch"
        },
        {
          "dep": "nsubj",
          "governor": 9,
          "governorGloss": "gemachter",
          "dependent": 6,
          "dependentGloss": "Restaurant"
        },
        {
          "dep": "cop",
          "governor": 9,
          "governorGloss": "gemachter",
          "dependent": 7,
          "dependentGloss": "ist"
        },
        {
          "dep": "advmod",
          "governor": 9,
          "governorGloss": "gemachter",
          "dependent": 8,
          "dependentGloss": "vermutlich"
        },
        {
          "dep": "punct",
          "governor": 9,
          "governorGloss": "gemachter",
          "dependent": 10,
          "dependentGloss": "Shite"
        }
      ],
      "enhancedDependencies": [
        {
          "dep": "ROOT",
          "governor": 0,
          "governorGloss": "ROOT",
          "dependent": 9,
          "dependentGloss": "gemachter"
        },
        {
          "dep": "det",
          "governor": 6,
          "governorGloss": "Restaurant",
          "dependent": 1,
          "dependentGloss": "Kim"
        },
        {
          "dep": "det",
          "governor": 6,
          "governorGloss": "Restaurant",
          "dependent": 2,
          "dependentGloss": "Jong-Un"
        },
        {
          "dep": "case",
          "governor": 2,
          "governorGloss": "Jong-Un",
          "dependent": 3,
          "dependentGloss": "'s"
        },
        {
          "dep": "amod",
          "governor": 6,
          "governorGloss": "Restaurant",
          "dependent": 4,
          "dependentGloss": "schottisches"
        },
        {
          "dep": "amod",
          "governor": 6,
          "governorGloss": "Restaurant",
          "dependent": 5,
          "dependentGloss": "Hundefleisch"
        },
        {
          "dep": "nsubj",
          "governor": 9,
          "governorGloss": "gemachter",
          "dependent": 6,
          "dependentGloss": "Restaurant"
        },
        {
          "dep": "cop",
          "governor": 9,
          "governorGloss": "gemachter",
          "dependent": 7,
          "dependentGloss": "ist"
        },
        {
          "dep": "advmod",
          "governor": 9,
          "governorGloss": "gemachter",
          "dependent": 8,
          "dependentGloss": "vermutlich"
        },
        {
          "dep": "punct",
          "governor": 9,
          "governorGloss": "gemachter",
          "dependent": 10,
          "dependentGloss": "Shite"
        }
      ],
      "enhancedPlusPlusDependencies": [
        {
          "dep": "ROOT",
          "governor": 0,
          "governorGloss": "ROOT",
          "dependent": 9,
          "dependentGloss": "gemachter"
        },
        {
          "dep": "det",
          "governor": 6,
          "governorGloss": "Restaurant",
          "dependent": 1,
          "dependentGloss": "Kim"
        },
        {
          "dep": "det",
          "governor": 6,
          "governorGloss": "Restaurant",
          "dependent": 2,
          "dependentGloss": "Jong-Un"
        },
        {
          "dep": "case",
          "governor": 2,
          "governorGloss": "Jong-Un",
          "dependent": 3,
          "dependentGloss": "'s"
        },
        {
          "dep": "amod",
          "governor": 6,
          "governorGloss": "Restaurant",
          "dependent": 4,
          "dependentGloss": "schottisches"
        },
        {
          "dep": "amod",
          "governor": 6,
          "governorGloss": "Restaurant",
          "dependent": 5,
          "dependentGloss": "Hundefleisch"
        },
        {
          "dep": "nsubj",
          "governor": 9,
          "governorGloss": "gemachter",
          "dependent": 6,
          "dependentGloss": "Restaurant"
        },
        {
          "dep": "cop",
          "governor": 9,
          "governorGloss": "gemachter",
          "dependent": 7,
          "dependentGloss": "ist"
        },
        {
          "dep": "advmod",
          "governor": 9,
          "governorGloss": "gemachter",
          "dependent": 8,
          "dependentGloss": "vermutlich"
        },
        {
          "dep": "punct",
          "governor": 9,
          "governorGloss": "gemachter",
          "dependent": 10,
          "dependentGloss": "Shite"
        }
      ],
      "tokens": [
        {
          "index": 1,
          "word": "Kim",
          "originalText": "Kim",
          "characterOffsetBegin": 0,
          "characterOffsetEnd": 3,
          "pos": "NE",
          "before": "",
          "after": " "
        },
        {
          "index": 2,
          "word": "Jong-Un",
          "originalText": "Jong-Un",
          "characterOffsetBegin": 4,
          "characterOffsetEnd": 11,
          "pos": "NE",
          "before": " ",
          "after": ""
        },
        {
          "index": 3,
          "word": "'s",
          "originalText": "'s",
          "characterOffsetBegin": 11,
          "characterOffsetEnd": 13,
          "pos": "PPER",
          "before": "",
          "after": " "
        },
        {
          "index": 4,
          "word": "schottisches",
          "originalText": "schottisches",
          "characterOffsetBegin": 14,
          "characterOffsetEnd": 26,
          "pos": "ADJA",
          "before": " ",
          "after": " "
        },
        {
          "index": 5,
          "word": "Hundefleisch",
          "originalText": "Hundefleisch",
          "characterOffsetBegin": 27,
          "characterOffsetEnd": 39,
          "pos": "NN",
          "before": " ",
          "after": " "
        },
        {
          "index": 6,
          "word": "Restaurant",
          "originalText": "Restaurant",
          "characterOffsetBegin": 40,
          "characterOffsetEnd": 50,
          "pos": "NN",
          "before": " ",
          "after": " "
        },
        {
          "index": 7,
          "word": "ist",
          "originalText": "ist",
          "characterOffsetBegin": 51,
          "characterOffsetEnd": 54,
          "pos": "VAFIN",
          "before": " ",
          "after": " "
        },
        {
          "index": 8,
          "word": "vermutlich",
          "originalText": "vermutlich",
          "characterOffsetBegin": 55,
          "characterOffsetEnd": 65,
          "pos": "ADV",
          "before": " ",
          "after": " "
        },
        {
          "index": 9,
          "word": "gemachter",
          "originalText": "gemachter",
          "characterOffsetBegin": 66,
          "characterOffsetEnd": 75,
          "pos": "ADJA",
          "before": " ",
          "after": " "
        },
        {
          "index": 10,
          "word": "Shite",
          "originalText": "Shite",
          "characterOffsetBegin": 76,
          "characterOffsetEnd": 81,
          "pos": "NN",
          "before": " ",
          "after": ""
        }
      ]
    }
  ]
}