{
  "sentences": [
    {
      "index": 0,
      "basicDependencies": [
        {
          "dep": "ROOT",
          "governor": 0,
          "governorGloss": "ROOT",
          "dependent": 7,
          "dependentGloss": "TAPE"
        },
        {
          "dep": "compound",
          "governor": 2,
          "governorGloss": "Lehrer",
          "dependent": 1,
          "dependentGloss": "Frau"
        },
        {
          "dep": "nsubj",
          "governor": 7,
          "governorGloss": "TAPE",
          "dependent": 2,
          "dependentGloss": "Lehrer"
        },
        {
          "dep": "case",
          "governor": 4,
          "governorGloss": "Sack",
          "dependent": 3,
          "dependentGloss": "vor"
        },
        {
          "dep": "nmod",
          "governor": 7,
          "governorGloss": "TAPE",
          "dependent": 4,
          "dependentGloss": "Sack"
        },
        {
          "dep": "case",
          "governor": 6,
          "governorGloss": "SEX",
          "dependent": 5,
          "dependentGloss": "nach"
        },
        {
          "dep": "nmod",
          "governor": 7,
          "governorGloss": "TAPE",
          "dependent": 6,
          "dependentGloss": "SEX"
        },
        {
          "dep": "case",
          "governor": 9,
          "governorGloss": "Teenager",
          "dependent": 8,
          "dependentGloss": "mit"
        },
        {
          "dep": "nmod",
          "governor": 7,
          "governorGloss": "TAPE",
          "dependent": 9,
          "dependentGloss": "Teenager"
        }
      ],
      "enhancedDependencies": [
        {
          "dep": "ROOT",
          "governor": 0,
          "governorGloss": "ROOT",
          "dependent": 7,
          "dependentGloss": "TAPE"
        },
        {
          "dep": "compound",
          "governor": 2,
          "governorGloss": "Lehrer",
          "dependent": 1,
          "dependentGloss": "Frau"
        },
        {
          "dep": "nsubj",
          "governor": 7,
          "governorGloss": "TAPE",
          "dependent": 2,
          "dependentGloss": "Lehrer"
        },
        {
          "dep": "case",
          "governor": 4,
          "governorGloss": "Sack",
          "dependent": 3,
          "dependentGloss": "vor"
        },
        {
          "dep": "nmod",
          "governor": 7,
          "governorGloss": "TAPE",
          "dependent": 4,
          "dependentGloss": "Sack"
        },
        {
          "dep": "case",
          "governor": 6,
          "governorGloss": "SEX",
          "dependent": 5,
          "dependentGloss": "nach"
        },
        {
          "dep": "nmod",
          "governor": 7,
          "governorGloss": "TAPE",
          "dependent": 6,
          "dependentGloss": "SEX"
        },
        {
          "dep": "case",
          "governor": 9,
          "governorGloss": "Teenager",
          "dependent": 8,
          "dependentGloss": "mit"
        },
        {
          "dep": "nmod",
          "governor": 7,
          "governorGloss": "TAPE",
          "dependent": 9,
          "dependentGloss": "Teenager"
        }
      ],
      "enhancedPlusPlusDependencies": [
        {
          "dep": "ROOT",
          "governor": 0,
          "governorGloss": "ROOT",
          "dependent": 7,
          "dependentGloss": "TAPE"
        },
        {
          "dep": "compound",
          "governor": 2,
          "governorGloss": "Lehrer",
          "dependent": 1,
          "dependentGloss": "Frau"
        },
        {
          "dep": "nsubj",
          "governor": 7,
          "governorGloss": "TAPE",
          "dependent": 2,
          "dependentGloss": "Lehrer"
        },
        {
          "dep": "case",
          "governor": 4,
          "governorGloss": "Sack",
          "dependent": 3,
          "dependentGloss": "vor"
        },
        {
          "dep": "nmod",
          "governor": 7,
          "governorGloss": "TAPE",
          "dependent": 4,
          "dependentGloss": "Sack"
        },
        {
          "dep": "case",
          "governor": 6,
          "governorGloss": "SEX",
          "dependent": 5,
          "dependentGloss": "nach"
        },
        {
          "dep": "nmod",
          "governor": 7,
          "governorGloss": "TAPE",
          "dependent": 6,
          "dependentGloss": "SEX"
        },
        {
          "dep": "case",
          "governor": 9,
          "governorGloss": "Teenager",
          "dependent": 8,
          "dependentGloss": "mit"
        },
        {
          "dep": "nmod",
          "governor": 7,
          "governorGloss": "TAPE",
          "dependent": 9,
          "dependentGloss": "Teenager"
        }
      ],
      "tokens": [
        {
          "index": 1,
          "word": "Frau",
          "originalText": "Frau",
          "characterOffsetBegin": 0,
          "characterOffsetEnd": 4,
          "pos": "NN",
          "before": "",
          "after": " "
        },
        {
          "index": 2,
          "word": "Lehrer",
          "originalText": "Lehrer",
          "characterOffsetBegin": 5,
          "characterOffsetEnd": 11,
          "pos": "NN",
          "before": " ",
          "after": " "
        },
        {
          "index": 3,
          "word": "vor",
          "originalText": "vor",
          "characterOffsetBegin": 12,
          "characterOffsetEnd": 15,
          "pos": "APPR",
          "before": " ",
          "after": " "
        },
        {
          "index": 4,
          "word": "Sack",
          "originalText": "Sack",
          "characterOffsetBegin": 16,
          "characterOffsetEnd": 20,
          "pos": "NN",
          "before": " ",
          "after": " "
        },
        {
          "index": 5,
          "word": "nach",
          "originalText": "nach",
          "characterOffsetBegin": 21,
          "characterOffsetEnd": 25,
          "pos": "APPR",
          "before": " ",
          "after": " "
        },
        {
          "index": 6,
          "word": "SEX",
          "originalText": "SEX",
          "characterOffsetBegin": 26,
          "characterOffsetEnd": 29,
          "pos": "NE",
          "before": " ",
          "after": " "
        },
        {
          "index": 7,
          "word": "TAPE",
          "originalText": "TAPE",
          "characterOffsetBegin": 30,
          "characterOffsetEnd": 34,
          "pos": "NE",
          "before": " ",
          "after": " "
        },
        {
          "index": 8,
          "word": "mit",
          "originalText": "mit",
          "characterOffsetBegin": 35,
          "characterOffsetEnd": 38,
          "pos": "APPR",
          "before": " ",
          "after": " "
        },
        {
          "index": 9,
          "word": "Teenager",
          "originalText": "Teenager",
          "characterOffsetBegin": 39,
          "characterOffsetEnd": 47,
          "pos": "NN",
          "before": " ",
          "after": ""
        }
      ]
    }
  ]
}