{
  "sentences": [
    {
      "index": 0,
      "basicDependencies": [
        {
          "dep": "ROOT",
          "governor": 0,
          "governorGloss": "ROOT",
          "dependent": 14,
          "dependentGloss": "Video"
        },
        {
          "dep": "nsubj",
          "governor": 2,
          "governorGloss": "Spray-Painted",
          "dependent": 1,
          "dependentGloss": "Penis"
        },
        {
          "dep": "nsubj",
          "governor": 14,
          "governorGloss": "Video",
          "dependent": 2,
          "dependentGloss": "Spray-Painted"
        },
        {
          "dep": "case",
          "governor": 5,
          "governorGloss": "$",
          "dependent": 3,
          "dependentGloss": "auf"
        },
        {
          "dep": "det",
          "governor": 5,
          "governorGloss": "$",
          "dependent": 4,
          "dependentGloss": "einem"
        },
        {
          "dep": "nmod",
          "governor": 2,
          "governorGloss": "Spray-Painted",
          "dependent": 5,
          "dependentGloss": "$"
        },
        {
          "dep": "nummod",
          "governor": 7,
          "governorGloss": "Million",
          "dependent": 6,
          "dependentGloss": "2.5"
        },
        {
          "dep": "compound",
          "governor": 8,
          "governorGloss": "Auto",
          "dependent": 7,
          "dependentGloss": "Million"
        },
        {
          "dep": "det",
          "governor": 5,
          "governorGloss": "$",
          "dependent": 8,
          "dependentGloss": "Auto"
        },
        {
          "dep": "cop",
          "governor": 14,
          "governorGloss": "Video",
          "dependent": 9,
          "dependentGloss": "war"
        },
        {
          "dep": "advmod",
          "governor": 14,
          "governorGloss": "Video",
          "dependent": 10,
          "dependentGloss": "nur"
        },
        {
          "dep": "case",
          "governor": 14,
          "governorGloss": "Video",
          "dependent": 11,
          "dependentGloss": "für"
        },
        {
          "dep": "det",
          "governor": 14,
          "governorGloss": "Video",
          "dependent": 12,
          "dependentGloss": "ein"
        },
        {
          "dep": "amod",
          "governor": 14,
          "governorGloss": "Video",
          "dependent": 13,
          "dependentGloss": "Prank"
        }
      ],
      "enhancedDependencies": [
        {
          "dep": "ROOT",
          "governor": 0,
          "governorGloss": "ROOT",
          "dependent": 14,
          "dependentGloss": "Video"
        },
        {
          "dep": "nsubj",
          "governor": 2,
          "governorGloss": "Spray-Painted",
          "dependent": 1,
          "dependentGloss": "Penis"
        },
        {
          "dep": "nsubj",
          "governor": 14,
          "governorGloss": "Video",
          "dependent": 2,
          "dependentGloss": "Spray-Painted"
        },
        {
          "dep": "case",
          "governor": 5,
          "governorGloss": "$",
          "dependent": 3,
          "dependentGloss": "auf"
        },
        {
          "dep": "det",
          "governor": 5,
          "governorGloss": "$",
          "dependent": 4,
          "dependentGloss": "einem"
        },
        {
          "dep": "nmod",
          "governor": 2,
          "governorGloss": "Spray-Painted",
          "dependent": 5,
          "dependentGloss": "$"
        },
        {
          "dep": "nummod",
          "governor": 7,
          "governorGloss": "Million",
          "dependent": 6,
          "dependentGloss": "2.5"
        },
        {
          "dep": "compound",
          "governor": 8,
          "governorGloss": "Auto",
          "dependent": 7,
          "dependentGloss": "Million"
        },
        {
          "dep": "det",
          "governor": 5,
          "governorGloss": "$",
          "dependent": 8,
          "dependentGloss": "Auto"
        },
        {
          "dep": "cop",
          "governor": 14,
          "governorGloss": "Video",
          "dependent": 9,
          "dependentGloss": "war"
        },
        {
          "dep": "advmod",
          "governor": 14,
          "governorGloss": "Video",
          "dependent": 10,
          "dependentGloss": "nur"
        },
        {
          "dep": "case",
          "governor": 14,
          "governorGloss": "Video",
          "dependent": 11,
          "dependentGloss": "für"
        },
        {
          "dep": "det",
          "governor": 14,
          "governorGloss": "Video",
          "dependent": 12,
          "dependentGloss": "ein"
        },
        {
          "dep": "amod",
          "governor": 14,
          "governorGloss": "Video",
          "dependent": 13,
          "dependentGloss": "Prank"
        }
      ],
      "enhancedPlusPlusDependencies": [
        {
          "dep": "ROOT",
          "governor": 0,
          "governorGloss": "ROOT",
          "dependent": 14,
          "dependentGloss": "Video"
        },
        {
          "dep": "nsubj",
          "governor": 2,
          "governorGloss": "Spray-Painted",
          "dependent": 1,
          "dependentGloss": "Penis"
        },
        {
          "dep": "nsubj",
          "governor": 14,
          "governorGloss": "Video",
          "dependent": 2,
          "dependentGloss": "Spray-Painted"
        },
        {
          "dep": "case",
          "governor": 5,
          "governorGloss": "$",
          "dependent": 3,
          "dependentGloss": "auf"
        },
        {
          "dep": "det",
          "governor": 5,
          "governorGloss": "$",
          "dependent": 4,
          "dependentGloss": "einem"
        },
        {
          "dep": "nmod",
          "governor": 2,
          "governorGloss": "Spray-Painted",
          "dependent": 5,
          "dependentGloss": "$"
        },
        {
          "dep": "nummod",
          "governor": 7,
          "governorGloss": "Million",
          "dependent": 6,
          "dependentGloss": "2.5"
        },
        {
          "dep": "compound",
          "governor": 8,
          "governorGloss": "Auto",
          "dependent": 7,
          "dependentGloss": "Million"
        },
        {
          "dep": "det",
          "governor": 5,
          "governorGloss": "$",
          "dependent": 8,
          "dependentGloss": "Auto"
        },
        {
          "dep": "cop",
          "governor": 14,
          "governorGloss": "Video",
          "dependent": 9,
          "dependentGloss": "war"
        },
        {
          "dep": "advmod",
          "governor": 14,
          "governorGloss": "Video",
          "dependent": 10,
          "dependentGloss": "nur"
        },
        {
          "dep": "case",
          "governor": 14,
          "governorGloss": "Video",
          "dependent": 11,
          "dependentGloss": "für"
        },
        {
          "dep": "det",
          "governor": 14,
          "governorGloss": "Video",
          "dependent": 12,
          "dependentGloss": "ein"
        },
        {
          "dep": "amod",
          "governor": 14,
          "governorGloss": "Video",
          "dependent": 13,
          "dependentGloss": "Prank"
        }
      ],
      "tokens": [
        {
          "index": 1,
          "word": "Penis",
          "originalText": "Penis",
          "characterOffsetBegin": 0,
          "characterOffsetEnd": 5,
          "pos": "NN",
          "before": "",
          "after": " "
        },
        {
          "index": 2,
          "word": "Spray-Painted",
          "originalText": "Spray-Painted",
          "characterOffsetBegin": 6,
          "characterOffsetEnd": 19,
          "pos": "NN",
          "before": " ",
          "after": " "
        },
        {
          "index": 3,
          "word": "auf",
          "originalText": "auf",
          "characterOffsetBegin": 20,
          "characterOffsetEnd": 23,
          "pos": "APPR",
          "before": " ",
          "after": " "
        },
        {
          "index": 4,
          "word": "einem",
          "originalText": "einem",
          "characterOffsetBegin": 24,
          "characterOffsetEnd": 29,
          "pos": "ART",
          "before": " ",
          "after": " "
        },
        {
          "index": 5,
          "word": "$",
          "originalText": "$",
          "characterOffsetBegin": 30,
          "characterOffsetEnd": 31,
          "pos": "CARD",
          "before": " ",
          "after": " "
        },
        {
          "index": 6,
          "word": "2.5",
          "originalText": "2.5",
          "characterOffsetBegin": 32,
          "characterOffsetEnd": 35,
          "pos": "CARD",
          "before": " ",
          "after": " "
        },
        {
          "index": 7,
          "word": "Million",
          "originalText": "Million",
          "characterOffsetBegin": 36,
          "characterOffsetEnd": 43,
          "pos": "NN",
          "before": " ",
          "after": " "
        },
        {
          "index": 8,
          "word": "Auto",
          "originalText": "Auto",
          "characterOffsetBegin": 44,
          "characterOffsetEnd": 48,
          "pos": "NN",
          "before": " ",
          "after": " "
        },
        {
          "index": 9,
          "word": "war",
          "originalText": "war",
          "characterOffsetBegin": 49,
          "characterOffsetEnd": 52,
          "pos": "VAFIN",
          "before": " ",
          "after": " "
        },
        {
          "index": 10,
          "word": "nur",
          "originalText": "nur",
          "characterOffsetBegin": 53,
          "characterOffsetEnd": 56,
          "pos": "ADV",
          "before": " ",
          "after": " "
        },
        {
          "index": 11,
          "word": "für",
          "originalText": "für",
          "characterOffsetBegin": 57,
          "characterOffsetEnd": 60,
          "pos": "APPR",
          "before": " ",
          "after": " "
        },
        {
          "index": 12,
          "word": "ein",
          "originalText": "ein",
          "characterOffsetBegin": 61,
          "characterOffsetEnd": 64,
          "pos": "ART",
          "before": " ",
          "after": " "
        },
        {
          "index": 13,
          "word": "Prank",
          "originalText": "Prank",
          "characterOffsetBegin": 65,
          "characterOffsetEnd": 70,
          "pos": "NN",
          "before": " ",
          "after": " "
        },
        {
          "index": 14,
          "word": "Video",
          "originalText": "Video",
          "characterOffsetBegin": 71,
          "characterOffsetEnd": 76,
          "pos": "NN",
          "before": " ",
          "after": ""
        }
      ]
    }
  ]
}