{
  "sentences": [
    {
      "index": 0,
      "basicDependencies": [
        {
          "dep": "ROOT",
          "governor": 0,
          "governorGloss": "ROOT",
          "dependent": 15,
          "dependentGloss": "-RSB-"
        },
        {
          "dep": "name",
          "governor": 3,
          "governorGloss": "Port",
          "dependent": 1,
          "dependentGloss": "Hidden"
        },
        {
          "dep": "name",
          "governor": 3,
          "governorGloss": "Port",
          "dependent": 2,
          "dependentGloss": "Diagnostic"
        },
        {
          "dep": "nsubj",
          "governor": 15,
          "governorGloss": "-RSB-",
          "dependent": 3,
          "dependentGloss": "Port"
        },
        {
          "dep": "case",
          "governor": 6,
          "governorGloss": "Watch",
          "dependent": 4,
          "dependentGloss": "auf"
        },
        {
          "dep": "det",
          "governor": 6,
          "governorGloss": "Watch",
          "dependent": 5,
          "dependentGloss": "Apple"
        },
        {
          "dep": "nmod",
          "governor": 3,
          "governorGloss": "Port",
          "dependent": 6,
          "dependentGloss": "Watch"
        },
        {
          "dep": "aux",
          "governor": 15,
          "governorGloss": "-RSB-",
          "dependent": 7,
          "dependentGloss": "kann"
        },
        {
          "dep": "case",
          "governor": 10,
          "governorGloss": "Band",
          "dependent": 8,
          "dependentGloss": "für"
        },
        {
          "dep": "amod",
          "governor": 10,
          "governorGloss": "Band",
          "dependent": 9,
          "dependentGloss": "Smart"
        },
        {
          "dep": "nmod",
          "governor": 15,
          "governorGloss": "-RSB-",
          "dependent": 10,
          "dependentGloss": "Band"
        },
        {
          "dep": "appos",
          "governor": 10,
          "governorGloss": "Band",
          "dependent": 11,
          "dependentGloss": "Zubehör"
        },
        {
          "dep": "amod",
          "governor": 14,
          "governorGloss": "Updated",
          "dependent": 12,
          "dependentGloss": "erlauben"
        },
        {
          "dep": "amod",
          "governor": 14,
          "governorGloss": "Updated",
          "dependent": 13,
          "dependentGloss": "-LSB-"
        },
        {
          "dep": "det",
          "governor": 11,
          "governorGloss": "Zubehör",
          "dependent": 14,
          "dependentGloss": "Updated"
        }
      ],
      "enhancedDependencies": [
        {
          "dep": "ROOT",
          "governor": 0,
          "governorGloss": "ROOT",
          "dependent": 15,
          "dependentGloss": "-RSB-"
        },
        {
          "dep": "name",
          "governor": 3,
          "governorGloss": "Port",
          "dependent": 1,
          "dependentGloss": "Hidden"
        },
        {
          "dep": "name",
          "governor": 3,
          "governorGloss": "Port",
          "dependent": 2,
          "dependentGloss": "Diagnostic"
        },
        {
          "dep": "nsubj",
          "governor": 15,
          "governorGloss": "-RSB-",
          "dependent": 3,
          "dependentGloss": "Port"
        },
        {
          "dep": "case",
          "governor": 6,
          "governorGloss": "Watch",
          "dependent": 4,
          "dependentGloss": "auf"
        },
        {
          "dep": "det",
          "governor": 6,
          "governorGloss": "Watch",
          "dependent": 5,
          "dependentGloss": "Apple"
        },
        {
          "dep": "nmod",
          "governor": 3,
          "governorGloss": "Port",
          "dependent": 6,
          "dependentGloss": "Watch"
        },
        {
          "dep": "aux",
          "governor": 15,
          "governorGloss": "-RSB-",
          "dependent": 7,
          "dependentGloss": "kann"
        },
        {
          "dep": "case",
          "governor": 10,
          "governorGloss": "Band",
          "dependent": 8,
          "dependentGloss": "für"
        },
        {
          "dep": "amod",
          "governor": 10,
          "governorGloss": "Band",
          "dependent": 9,
          "dependentGloss": "Smart"
        },
        {
          "dep": "nmod",
          "governor": 15,
          "governorGloss": "-RSB-",
          "dependent": 10,
          "dependentGloss": "Band"
        },
        {
          "dep": "appos",
          "governor": 10,
          "governorGloss": "Band",
          "dependent": 11,
          "dependentGloss": "Zubehör"
        },
        {
          "dep": "amod",
          "governor": 14,
          "governorGloss": "Updated",
          "dependent": 12,
          "dependentGloss": "erlauben"
        },
        {
          "dep": "amod",
          "governor": 14,
          "governorGloss": "Updated",
          "dependent": 13,
          "dependentGloss": "-LSB-"
        },
        {
          "dep": "det",
          "governor": 11,
          "governorGloss": "Zubehör",
          "dependent": 14,
          "dependentGloss": "Updated"
        }
      ],
      "enhancedPlusPlusDependencies": [
        {
          "dep": "ROOT",
          "governor": 0,
          "governorGloss": "ROOT",
          "dependent": 15,
          "dependentGloss": "-RSB-"
        },
        {
          "dep": "name",
          "governor": 3,
          "governorGloss": "Port",
          "dependent": 1,
          "dependentGloss": "Hidden"
        },
        {
          "dep": "name",
          "governor": 3,
          "governorGloss": "Port",
          "dependent": 2,
          "dependentGloss": "Diagnostic"
        },
        {
          "dep": "nsubj",
          "governor": 15,
          "governorGloss": "-RSB-",
          "dependent": 3,
          "dependentGloss": "Port"
        },
        {
          "dep": "case",
          "governor": 6,
          "governorGloss": "Watch",
          "dependent": 4,
          "dependentGloss": "auf"
        },
        {
          "dep": "det",
          "governor": 6,
          "governorGloss": "Watch",
          "dependent": 5,
          "dependentGloss": "Apple"
        },
        {
          "dep": "nmod",
          "governor": 3,
          "governorGloss": "Port",
          "dependent": 6,
          "dependentGloss": "Watch"
        },
        {
          "dep": "aux",
          "governor": 15,
          "governorGloss": "-RSB-",
          "dependent": 7,
          "dependentGloss": "kann"
        },
        {
          "dep": "case",
          "governor": 10,
          "governorGloss": "Band",
          "dependent": 8,
          "dependentGloss": "für"
        },
        {
          "dep": "amod",
          "governor": 10,
          "governorGloss": "Band",
          "dependent": 9,
          "dependentGloss": "Smart"
        },
        {
          "dep": "nmod",
          "governor": 15,
          "governorGloss": "-RSB-",
          "dependent": 10,
          "dependentGloss": "Band"
        },
        {
          "dep": "appos",
          "governor": 10,
          "governorGloss": "Band",
          "dependent": 11,
          "dependentGloss": "Zubehör"
        },
        {
          "dep": "amod",
          "governor": 14,
          "governorGloss": "Updated",
          "dependent": 12,
          "dependentGloss": "erlauben"
        },
        {
          "dep": "amod",
          "governor": 14,
          "governorGloss": "Updated",
          "dependent": 13,
          "dependentGloss": "-LSB-"
        },
        {
          "dep": "det",
          "governor": 11,
          "governorGloss": "Zubehör",
          "dependent": 14,
          "dependentGloss": "Updated"
        }
      ],
      "tokens": [
        {
          "index": 1,
          "word": "Hidden",
          "originalText": "Hidden",
          "characterOffsetBegin": 0,
          "characterOffsetEnd": 6,
          "pos": "NE",
          "before": "",
          "after": " "
        },
        {
          "index": 2,
          "word": "Diagnostic",
          "originalText": "Diagnostic",
          "characterOffsetBegin": 7,
          "characterOffsetEnd": 17,
          "pos": "NE",
          "before": " ",
          "after": " "
        },
        {
          "index": 3,
          "word": "Port",
          "originalText": "Port",
          "characterOffsetBegin": 18,
          "characterOffsetEnd": 22,
          "pos": "NN",
          "before": " ",
          "after": " "
        },
        {
          "index": 4,
          "word": "auf",
          "originalText": "auf",
          "characterOffsetBegin": 23,
          "characterOffsetEnd": 26,
          "pos": "APPR",
          "before": " ",
          "after": " "
        },
        {
          "index": 5,
          "word": "Apple",
          "originalText": "Apple",
          "characterOffsetBegin": 27,
          "characterOffsetEnd": 32,
          "pos": "NE",
          "before": " ",
          "after": " "
        },
        {
          "index": 6,
          "word": "Watch",
          "originalText": "Watch",
          "characterOffsetBegin": 33,
          "characterOffsetEnd": 38,
          "pos": "NE",
          "before": " ",
          "after": " "
        },
        {
          "index": 7,
          "word": "kann",
          "originalText": "kann",
          "characterOffsetBegin": 39,
          "characterOffsetEnd": 43,
          "pos": "VMFIN",
          "before": " ",
          "after": " "
        },
        {
          "index": 8,
          "word": "für",
          "originalText": "für",
          "characterOffsetBegin": 44,
          "characterOffsetEnd": 47,
          "pos": "APPR",
          "before": " ",
          "after": " "
        },
        {
          "index": 9,
          "word": "Smart",
          "originalText": "Smart",
          "characterOffsetBegin": 48,
          "characterOffsetEnd": 53,
          "pos": "NE",
          "before": " ",
          "after": " "
        },
        {
          "index": 10,
          "word": "Band",
          "originalText": "Band",
          "characterOffsetBegin": 54,
          "characterOffsetEnd": 58,
          "pos": "NN",
          "before": " ",
          "after": " "
        },
        {
          "index": 11,
          "word": "Zubehör",
          "originalText": "Zubehör",
          "characterOffsetBegin": 59,
          "characterOffsetEnd": 66,
          "pos": "NN",
          "before": " ",
          "after": " "
        },
        {
          "index": 12,
          "word": "erlauben",
          "originalText": "erlauben",
          "characterOffsetBegin": 67,
          "characterOffsetEnd": 75,
          "pos": "VVFIN",
          "before": " ",
          "after": " "
        },
        {
          "index": 13,
          "word": "-LSB-",
          "originalText": "[",
          "characterOffsetBegin": 76,
          "characterOffsetEnd": 77,
          "pos": "TRUNC",
          "before": " ",
          "after": ""
        },
        {
          "index": 14,
          "word": "Updated",
          "originalText": "Updated",
          "characterOffsetBegin": 77,
          "characterOffsetEnd": 84,
          "pos": "NN",
          "before": "",
          "after": ""
        },
        {
          "index": 15,
          "word": "-RSB-",
          "originalText": "]",
          "characterOffsetBegin": 84,
          "characterOffsetEnd": 85,
          "pos": "TRUNC",
          "before": "",
          "after": ""
        }
      ]
    }
  ]
}