{
  "sentences": [
    {
      "index": 0,
      "basicDependencies": [
        {
          "dep": "ROOT",
          "governor": 0,
          "governorGloss": "ROOT",
          "dependent": 9,
          "dependentGloss": "eröffnet"
        },
        {
          "dep": "aux",
          "governor": 9,
          "governorGloss": "eröffnet",
          "dependent": 1,
          "dependentGloss": "Ist"
        },
        {
          "dep": "name",
          "governor": 3,
          "governorGloss": "Jong-Un",
          "dependent": 2,
          "dependentGloss": "Kim"
        },
        {
          "dep": "iobj",
          "governor": 9,
          "governorGloss": "eröffnet",
          "dependent": 3,
          "dependentGloss": "Jong-Un"
        },
        {
          "dep": "advmod",
          "governor": 9,
          "governorGloss": "eröffnet",
          "dependent": 4,
          "dependentGloss": "wirklich"
        },
        {
          "dep": "det",
          "governor": 6,
          "governorGloss": "Restaurant",
          "dependent": 5,
          "dependentGloss": "ein"
        },
        {
          "dep": "dobj",
          "governor": 9,
          "governorGloss": "eröffnet",
          "dependent": 6,
          "dependentGloss": "Restaurant"
        },
        {
          "dep": "case",
          "governor": 8,
          "governorGloss": "Schottland",
          "dependent": 7,
          "dependentGloss": "in"
        },
        {
          "dep": "nmod",
          "governor": 6,
          "governorGloss": "Restaurant",
          "dependent": 8,
          "dependentGloss": "Schottland"
        },
        {
          "dep": "punct",
          "governor": 9,
          "governorGloss": "eröffnet",
          "dependent": 10,
          "dependentGloss": "?"
        }
      ],
      "enhancedDependencies": [
        {
          "dep": "ROOT",
          "governor": 0,
          "governorGloss": "ROOT",
          "dependent": 9,
          "dependentGloss": "eröffnet"
        },
        {
          "dep": "aux",
          "governor": 9,
          "governorGloss": "eröffnet",
          "dependent": 1,
          "dependentGloss": "Ist"
        },
        {
          "dep": "name",
          "governor": 3,
          "governorGloss": "Jong-Un",
          "dependent": 2,
          "dependentGloss": "Kim"
        },
        {
          "dep": "iobj",
          "governor": 9,
          "governorGloss": "eröffnet",
          "dependent": 3,
          "dependentGloss": "Jong-Un"
        },
        {
          "dep": "advmod",
          "governor": 9,
          "governorGloss": "eröffnet",
          "dependent": 4,
          "dependentGloss": "wirklich"
        },
        {
          "dep": "det",
          "governor": 6,
          "governorGloss": "Restaurant",
          "dependent": 5,
          "dependentGloss": "ein"
        },
        {
          "dep": "dobj",
          "governor": 9,
          "governorGloss": "eröffnet",
          "dependent": 6,
          "dependentGloss": "Restaurant"
        },
        {
          "dep": "case",
          "governor": 8,
          "governorGloss": "Schottland",
          "dependent": 7,
          "dependentGloss": "in"
        },
        {
          "dep": "nmod",
          "governor": 6,
          "governorGloss": "Restaurant",
          "dependent": 8,
          "dependentGloss": "Schottland"
        },
        {
          "dep": "punct",
          "governor": 9,
          "governorGloss": "eröffnet",
          "dependent": 10,
          "dependentGloss": "?"
        }
      ],
      "enhancedPlusPlusDependencies": [
        {
          "dep": "ROOT",
          "governor": 0,
          "governorGloss": "ROOT",
          "dependent": 9,
          "dependentGloss": "eröffnet"
        },
        {
          "dep": "aux",
          "governor": 9,
          "governorGloss": "eröffnet",
          "dependent": 1,
          "dependentGloss": "Ist"
        },
        {
          "dep": "name",
          "governor": 3,
          "governorGloss": "Jong-Un",
          "dependent": 2,
          "dependentGloss": "Kim"
        },
        {
          "dep": "iobj",
          "governor": 9,
          "governorGloss": "eröffnet",
          "dependent": 3,
          "dependentGloss": "Jong-Un"
        },
        {
          "dep": "advmod",
          "governor": 9,
          "governorGloss": "eröffnet",
          "dependent": 4,
          "dependentGloss": "wirklich"
        },
        {
          "dep": "det",
          "governor": 6,
          "governorGloss": "Restaurant",
          "dependent": 5,
          "dependentGloss": "ein"
        },
        {
          "dep": "dobj",
          "governor": 9,
          "governorGloss": "eröffnet",
          "dependent": 6,
          "dependentGloss": "Restaurant"
        },
        {
          "dep": "case",
          "governor": 8,
          "governorGloss": "Schottland",
          "dependent": 7,
          "dependentGloss": "in"
        },
        {
          "dep": "nmod",
          "governor": 6,
          "governorGloss": "Restaurant",
          "dependent": 8,
          "dependentGloss": "Schottland"
        },
        {
          "dep": "punct",
          "governor": 9,
          "governorGloss": "eröffnet",
          "dependent": 10,
          "dependentGloss": "?"
        }
      ],
      "tokens": [
        {
          "index": 1,
          "word": "Ist",
          "originalText": "Ist",
          "characterOffsetBegin": 0,
          "characterOffsetEnd": 3,
          "pos": "VAFIN",
          "before": "",
          "after": " "
        },
        {
          "index": 2,
          "word": "Kim",
          "originalText": "Kim",
          "characterOffsetBegin": 4,
          "characterOffsetEnd": 7,
          "pos": "NE",
          "before": " ",
          "after": " "
        },
        {
          "index": 3,
          "word": "Jong-Un",
          "originalText": "Jong-Un",
          "characterOffsetBegin": 8,
          "characterOffsetEnd": 15,
          "pos": "NE",
          "before": " ",
          "after": " "
        },
        {
          "index": 4,
          "word": "wirklich",
          "originalText": "wirklich",
          "characterOffsetBegin": 16,
          "characterOffsetEnd": 24,
          "pos": "ADJD",
          "before": " ",
          "after": " "
        },
        {
          "index": 5,
          "word": "ein",
          "originalText": "ein",
          "characterOffsetBegin": 25,
          "characterOffsetEnd": 28,
          "pos": "ART",
          "before": " ",
          "after": " "
        },
        {
          "index": 6,
          "word": "Restaurant",
          "originalText": "Restaurant",
          "characterOffsetBegin": 29,
          "characterOffsetEnd": 39,
          "pos": "NN",
          "before": " ",
          "after": " "
        },
        {
          "index": 7,
          "word": "in",
          "originalText": "in",
          "characterOffsetBegin": 40,
          "characterOffsetEnd": 42,
          "pos": "APPR",
          "before": " ",
          "after": " "
        },
        {
          "index": 8,
          "word": "Schottland",
          "originalText": "Schottland",
          "characterOffsetBegin": 43,
          "characterOffsetEnd": 53,
          "pos": "NE",
          "before": " ",
          "after": " "
        },
        {
          "index": 9,
          "word": "eröffnet",
          "originalText": "eröffnet",
          "characterOffsetBegin": 54,
          "characterOffsetEnd": 62,
          "pos": "VVPP",
          "before": " ",
          "after": ""
        },
        {
          "index": 10,
          "word": "?",
          "originalText": "?",
          "characterOffsetBegin": 62,
          "characterOffsetEnd": 63,
          "pos": "$.",
          "before": "",
          "after": ""
        }
      ]
    }
  ]
}