{
  "sentences": [
    {
      "index": 0,
      "basicDependencies": [
        {
          "dep": "ROOT",
          "governor": 0,
          "governorGloss": "ROOT",
          "dependent": 9,
          "dependentGloss": "starten"
        },
        {
          "dep": "dobj",
          "governor": 9,
          "governorGloss": "starten",
          "dependent": 1,
          "dependentGloss": "Apple"
        },
        {
          "dep": "aux",
          "governor": 9,
          "governorGloss": "starten",
          "dependent": 2,
          "dependentGloss": "kann"
        },
        {
          "dep": "name",
          "governor": 5,
          "governorGloss": "Air",
          "dependent": 3,
          "dependentGloss": "12-Zoll"
        },
        {
          "dep": "name",
          "governor": 5,
          "governorGloss": "Air",
          "dependent": 4,
          "dependentGloss": "MacBook"
        },
        {
          "dep": "nsubj",
          "governor": 9,
          "governorGloss": "starten",
          "dependent": 5,
          "dependentGloss": "Air"
        },
        {
          "dep": "case",
          "governor": 8,
          "governorGloss": "Display",
          "dependent": 6,
          "dependentGloss": "mit"
        },
        {
          "dep": "amod",
          "governor": 8,
          "governorGloss": "Display",
          "dependent": 7,
          "dependentGloss": "Retina"
        },
        {
          "dep": "nmod",
          "governor": 9,
          "governorGloss": "starten",
          "dependent": 8,
          "dependentGloss": "Display"
        }
      ],
      "enhancedDependencies": [
        {
          "dep": "ROOT",
          "governor": 0,
          "governorGloss": "ROOT",
          "dependent": 9,
          "dependentGloss": "starten"
        },
        {
          "dep": "dobj",
          "governor": 9,
          "governorGloss": "starten",
          "dependent": 1,
          "dependentGloss": "Apple"
        },
        {
          "dep": "aux",
          "governor": 9,
          "governorGloss": "starten",
          "dependent": 2,
          "dependentGloss": "kann"
        },
        {
          "dep": "name",
          "governor": 5,
          "governorGloss": "Air",
          "dependent": 3,
          "dependentGloss": "12-Zoll"
        },
        {
          "dep": "name",
          "governor": 5,
          "governorGloss": "Air",
          "dependent": 4,
          "dependentGloss": "MacBook"
        },
        {
          "dep": "nsubj",
          "governor": 9,
          "governorGloss": "starten",
          "dependent": 5,
          "dependentGloss": "Air"
        },
        {
          "dep": "case",
          "governor": 8,
          "governorGloss": "Display",
          "dependent": 6,
          "dependentGloss": "mit"
        },
        {
          "dep": "amod",
          "governor": 8,
          "governorGloss": "Display",
          "dependent": 7,
          "dependentGloss": "Retina"
        },
        {
          "dep": "nmod",
          "governor": 9,
          "governorGloss": "starten",
          "dependent": 8,
          "dependentGloss": "Display"
        }
      ],
      "enhancedPlusPlusDependencies": [
        {
          "dep": "ROOT",
          "governor": 0,
          "governorGloss": "ROOT",
          "dependent": 9,
          "dependentGloss": "starten"
        },
        {
          "dep": "dobj",
          "governor": 9,
          "governorGloss": "starten",
          "dependent": 1,
          "dependentGloss": "Apple"
        },
        {
          "dep": "aux",
          "governor": 9,
          "governorGloss": "starten",
          "dependent": 2,
          "dependentGloss": "kann"
        },
        {
          "dep": "name",
          "governor": 5,
          "governorGloss": "Air",
          "dependent": 3,
          "dependentGloss": "12-Zoll"
        },
        {
          "dep": "name",
          "governor": 5,
          "governorGloss": "Air",
          "dependent": 4,
          "dependentGloss": "MacBook"
        },
        {
          "dep": "nsubj",
          "governor": 9,
          "governorGloss": "starten",
          "dependent": 5,
          "dependentGloss": "Air"
        },
        {
          "dep": "case",
          "governor": 8,
          "governorGloss": "Display",
          "dependent": 6,
          "dependentGloss": "mit"
        },
        {
          "dep": "amod",
          "governor": 8,
          "governorGloss": "Display",
          "dependent": 7,
          "dependentGloss": "Retina"
        },
        {
          "dep": "nmod",
          "governor": 9,
          "governorGloss": "starten",
          "dependent": 8,
          "dependentGloss": "Display"
        }
      ],
      "tokens": [
        {
          "index": 1,
          "word": "Apple",
          "originalText": "Apple",
          "characterOffsetBegin": 0,
          "characterOffsetEnd": 5,
          "pos": "NE",
          "before": "",
          "after": " "
        },
        {
          "index": 2,
          "word": "kann",
          "originalText": "kann",
          "characterOffsetBegin": 6,
          "characterOffsetEnd": 10,
          "pos": "VMFIN",
          "before": " ",
          "after": " "
        },
        {
          "index": 3,
          "word": "12-Zoll",
          "originalText": "12-Zoll",
          "characterOffsetBegin": 11,
          "characterOffsetEnd": 18,
          "pos": "NN",
          "before": " ",
          "after": " "
        },
        {
          "index": 4,
          "word": "MacBook",
          "originalText": "MacBook",
          "characterOffsetBegin": 19,
          "characterOffsetEnd": 26,
          "pos": "NE",
          "before": " ",
          "after": " "
        },
        {
          "index": 5,
          "word": "Air",
          "originalText": "Air",
          "characterOffsetBegin": 27,
          "characterOffsetEnd": 30,
          "pos": "NE",
          "before": " ",
          "after": " "
        },
        {
          "index": 6,
          "word": "mit",
          "originalText": "mit",
          "characterOffsetBegin": 31,
          "characterOffsetEnd": 34,
          "pos": "APPR",
          "before": " ",
          "after": " "
        },
        {
          "index": 7,
          "word": "Retina",
          "originalText": "Retina",
          "characterOffsetBegin": 35,
          "characterOffsetEnd": 41,
          "pos": "NE",
          "before": " ",
          "after": " "
        },
        {
          "index": 8,
          "word": "Display",
          "originalText": "Display",
          "characterOffsetBegin": 42,
          "characterOffsetEnd": 49,
          "pos": "NE",
          "before": " ",
          "after": " "
        },
        {
          "index": 9,
          "word": "starten",
          "originalText": "starten",
          "characterOffsetBegin": 50,
          "characterOffsetEnd": 57,
          "pos": "VVINF",
          "before": " ",
          "after": ""
        }
      ]
    }
  ]
}