{
  "sentences": [
    {
      "index": 0,
      "basicDependencies": [
        {
          "dep": "ROOT",
          "governor": 0,
          "governorGloss": "ROOT",
          "dependent": 1,
          "dependentGloss": "Tierliebhaber"
        },
        {
          "dep": "case",
          "governor": 4,
          "governorGloss": "Bemerkungen",
          "dependent": 2,
          "dependentGloss": "über"
        },
        {
          "dep": "det",
          "governor": 4,
          "governorGloss": "Bemerkungen",
          "dependent": 3,
          "dependentGloss": "die"
        },
        {
          "dep": "nmod",
          "governor": 1,
          "governorGloss": "Tierliebhaber",
          "dependent": 4,
          "dependentGloss": "Bemerkungen"
        },
        {
          "dep": "det",
          "governor": 6,
          "governorGloss": "Papstes",
          "dependent": 5,
          "dependentGloss": "des"
        },
        {
          "dep": "det",
          "governor": 4,
          "governorGloss": "Bemerkungen",
          "dependent": 6,
          "dependentGloss": "Papstes"
        },
        {
          "dep": "punct",
          "governor": 1,
          "governorGloss": "Tierliebhaber",
          "dependent": 7,
          "dependentGloss": ","
        },
        {
          "dep": "mark",
          "governor": 16,
          "governorGloss": "offen",
          "dependent": 8,
          "dependentGloss": "dass"
        },
        {
          "dep": "punct",
          "governor": 16,
          "governorGloss": "offen",
          "dependent": 9,
          "dependentGloss": "``"
        },
        {
          "dep": "det",
          "governor": 11,
          "governorGloss": "Paradies",
          "dependent": 10,
          "dependentGloss": "das"
        },
        {
          "dep": "nsubj",
          "governor": 16,
          "governorGloss": "offen",
          "dependent": 11,
          "dependentGloss": "Paradies"
        },
        {
          "dep": "case",
          "governor": 14,
          "governorGloss": "Geschöpfe",
          "dependent": 12,
          "dependentGloss": "für"
        },
        {
          "dep": "det",
          "governor": 14,
          "governorGloss": "Geschöpfe",
          "dependent": 13,
          "dependentGloss": "alle"
        },
        {
          "dep": "nmod",
          "governor": 16,
          "governorGloss": "offen",
          "dependent": 14,
          "dependentGloss": "Geschöpfe"
        },
        {
          "dep": "cop",
          "governor": 16,
          "governorGloss": "offen",
          "dependent": 15,
          "dependentGloss": "Gottes"
        },
        {
          "dep": "ccomp",
          "governor": 1,
          "governorGloss": "Tierliebhaber",
          "dependent": 16,
          "dependentGloss": "offen"
        },
        {
          "dep": "auxpass",
          "governor": 16,
          "governorGloss": "offen",
          "dependent": 17,
          "dependentGloss": "ist"
        },
        {
          "dep": "punct",
          "governor": 16,
          "governorGloss": "offen",
          "dependent": 18,
          "dependentGloss": "``"
        }
      ],
      "enhancedDependencies": [
        {
          "dep": "ROOT",
          "governor": 0,
          "governorGloss": "ROOT",
          "dependent": 1,
          "dependentGloss": "Tierliebhaber"
        },
        {
          "dep": "case",
          "governor": 4,
          "governorGloss": "Bemerkungen",
          "dependent": 2,
          "dependentGloss": "über"
        },
        {
          "dep": "det",
          "governor": 4,
          "governorGloss": "Bemerkungen",
          "dependent": 3,
          "dependentGloss": "die"
        },
        {
          "dep": "nmod",
          "governor": 1,
          "governorGloss": "Tierliebhaber",
          "dependent": 4,
          "dependentGloss": "Bemerkungen"
        },
        {
          "dep": "det",
          "governor": 6,
          "governorGloss": "Papstes",
          "dependent": 5,
          "dependentGloss": "des"
        },
        {
          "dep": "det",
          "governor": 4,
          "governorGloss": "Bemerkungen",
          "dependent": 6,
          "dependentGloss": "Papstes"
        },
        {
          "dep": "punct",
          "governor": 1,
          "governorGloss": "Tierliebhaber",
          "dependent": 7,
          "dependentGloss": ","
        },
        {
          "dep": "mark",
          "governor": 16,
          "governorGloss": "offen",
          "dependent": 8,
          "dependentGloss": "dass"
        },
        {
          "dep": "punct",
          "governor": 16,
          "governorGloss": "offen",
          "dependent": 9,
          "dependentGloss": "``"
        },
        {
          "dep": "det",
          "governor": 11,
          "governorGloss": "Paradies",
          "dependent": 10,
          "dependentGloss": "das"
        },
        {
          "dep": "nsubj",
          "governor": 16,
          "governorGloss": "offen",
          "dependent": 11,
          "dependentGloss": "Paradies"
        },
        {
          "dep": "case",
          "governor": 14,
          "governorGloss": "Geschöpfe",
          "dependent": 12,
          "dependentGloss": "für"
        },
        {
          "dep": "det",
          "governor": 14,
          "governorGloss": "Geschöpfe",
          "dependent": 13,
          "dependentGloss": "alle"
        },
        {
          "dep": "nmod",
          "governor": 16,
          "governorGloss": "offen",
          "dependent": 14,
          "dependentGloss": "Geschöpfe"
        },
        {
          "dep": "cop",
          "governor": 16,
          "governorGloss": "offen",
          "dependent": 15,
          "dependentGloss": "Gottes"
        },
        {
          "dep": "ccomp",
          "governor": 1,
          "governorGloss": "Tierliebhaber",
          "dependent": 16,
          "dependentGloss": "offen"
        },
        {
          "dep": "auxpass",
          "governor": 16,
          "governorGloss": "offen",
          "dependent": 17,
          "dependentGloss": "ist"
        },
        {
          "dep": "punct",
          "governor": 16,
          "governorGloss": "offen",
          "dependent": 18,
          "dependentGloss": "``"
        }
      ],
      "enhancedPlusPlusDependencies": [
        {
          "dep": "ROOT",
          "governor": 0,
          "governorGloss": "ROOT",
          "dependent": 1,
          "dependentGloss": "Tierliebhaber"
        },
        {
          "dep": "case",
          "governor": 4,
          "governorGloss": "Bemerkungen",
          "dependent": 2,
          "dependentGloss": "über"
        },
        {
          "dep": "det",
          "governor": 4,
          "governorGloss": "Bemerkungen",
          "dependent": 3,
          "dependentGloss": "die"
        },
        {
          "dep": "nmod",
          "governor": 1,
          "governorGloss": "Tierliebhaber",
          "dependent": 4,
          "dependentGloss": "Bemerkungen"
        },
        {
          "dep": "det",
          "governor": 6,
          "governorGloss": "Papstes",
          "dependent": 5,
          "dependentGloss": "des"
        },
        {
          "dep": "det",
          "governor": 4,
          "governorGloss": "Bemerkungen",
          "dependent": 6,
          "dependentGloss": "Papstes"
        },
        {
          "dep": "punct",
          "governor": 1,
          "governorGloss": "Tierliebhaber",
          "dependent": 7,
          "dependentGloss": ","
        },
        {
          "dep": "mark",
          "governor": 16,
          "governorGloss": "offen",
          "dependent": 8,
          "dependentGloss": "dass"
        },
        {
          "dep": "punct",
          "governor": 16,
          "governorGloss": "offen",
          "dependent": 9,
          "dependentGloss": "``"
        },
        {
          "dep": "det",
          "governor": 11,
          "governorGloss": "Paradies",
          "dependent": 10,
          "dependentGloss": "das"
        },
        {
          "dep": "nsubj",
          "governor": 16,
          "governorGloss": "offen",
          "dependent": 11,
          "dependentGloss": "Paradies"
        },
        {
          "dep": "case",
          "governor": 14,
          "governorGloss": "Geschöpfe",
          "dependent": 12,
          "dependentGloss": "für"
        },
        {
          "dep": "det",
          "governor": 14,
          "governorGloss": "Geschöpfe",
          "dependent": 13,
          "dependentGloss": "alle"
        },
        {
          "dep": "nmod",
          "governor": 16,
          "governorGloss": "offen",
          "dependent": 14,
          "dependentGloss": "Geschöpfe"
        },
        {
          "dep": "cop",
          "governor": 16,
          "governorGloss": "offen",
          "dependent": 15,
          "dependentGloss": "Gottes"
        },
        {
          "dep": "ccomp",
          "governor": 1,
          "governorGloss": "Tierliebhaber",
          "dependent": 16,
          "dependentGloss": "offen"
        },
        {
          "dep": "auxpass",
          "governor": 16,
          "governorGloss": "offen",
          "dependent": 17,
          "dependentGloss": "ist"
        },
        {
          "dep": "punct",
          "governor": 16,
          "governorGloss": "offen",
          "dependent": 18,
          "dependentGloss": "``"
        }
      ],
      "tokens": [
        {
          "index": 1,
          "word": "Tierliebhaber",
          "originalText": "Tierliebhaber",
          "characterOffsetBegin": 0,
          "characterOffsetEnd": 13,
          "pos": "NN",
          "before": "",
          "after": " "
        },
        {
          "index": 2,
          "word": "über",
          "originalText": "über",
          "characterOffsetBegin": 14,
          "characterOffsetEnd": 18,
          "pos": "APPR",
          "before": " ",
          "after": " "
        },
        {
          "index": 3,
          "word": "die",
          "originalText": "die",
          "characterOffsetBegin": 19,
          "characterOffsetEnd": 22,
          "pos": "ART",
          "before": " ",
          "after": " "
        },
        {
          "index": 4,
          "word": "Bemerkungen",
          "originalText": "Bemerkungen",
          "characterOffsetBegin": 23,
          "characterOffsetEnd": 34,
          "pos": "NN",
          "before": " ",
          "after": " "
        },
        {
          "index": 5,
          "word": "des",
          "originalText": "des",
          "characterOffsetBegin": 35,
          "characterOffsetEnd": 38,
          "pos": "ART",
          "before": " ",
          "after": " "
        },
        {
          "index": 6,
          "word": "Papstes",
          "originalText": "Papstes",
          "characterOffsetBegin": 39,
          "characterOffsetEnd": 46,
          "pos": "NN",
          "before": " ",
          "after": ""
        },
        {
          "index": 7,
          "word": ",",
          "originalText": ",",
          "characterOffsetBegin": 46,
          "characterOffsetEnd": 47,
          "pos": "$,",
          "before": "",
          "after": " "
        },
        {
          "index": 8,
          "word": "dass",
          "originalText": "dass",
          "characterOffsetBegin": 48,
          "characterOffsetEnd": 52,
          "pos": "KOUS",
          "before": " ",
          "after": " "
        },
        {
          "index": 9,
          "word": "``",
          "originalText": "“",
          "characterOffsetBegin": 53,
          "characterOffsetEnd": 54,
          "pos": "PPER",
          "before": " ",
          "after": ""
        },
        {
          "index": 10,
          "word": "das",
          "originalText": "das",
          "characterOffsetBegin": 54,
          "characterOffsetEnd": 57,
          "pos": "ART",
          "before": "",
          "after": " "
        },
        {
          "index": 11,
          "word": "Paradies",
          "originalText": "Paradies",
          "characterOffsetBegin": 58,
          "characterOffsetEnd": 66,
          "pos": "NN",
          "before": " ",
          "after": " "
        },
        {
          "index": 12,
          "word": "für",
          "originalText": "für",
          "characterOffsetBegin": 67,
          "characterOffsetEnd": 70,
          "pos": "APPR",
          "before": " ",
          "after": " "
        },
        {
          "index": 13,
          "word": "alle",
          "originalText": "alle",
          "characterOffsetBegin": 71,
          "characterOffsetEnd": 75,
          "pos": "PIDAT",
          "before": " ",
          "after": " "
        },
        {
          "index": 14,
          "word": "Geschöpfe",
          "originalText": "Geschöpfe",
          "characterOffsetBegin": 76,
          "characterOffsetEnd": 85,
          "pos": "NN",
          "before": " ",
          "after": " "
        },
        {
          "index": 15,
          "word": "Gottes",
          "originalText": "Gottes",
          "characterOffsetBegin": 86,
          "characterOffsetEnd": 92,
          "pos": "NN",
          "before": " ",
          "after": " "
        },
        {
          "index": 16,
          "word": "offen",
          "originalText": "offen",
          "characterOffsetBegin": 93,
          "characterOffsetEnd": 98,
          "pos": "ADJD",
          "before": " ",
          "after": " "
        },
        {
          "index": 17,
          "word": "ist",
          "originalText": "ist",
          "characterOffsetBegin": 99,
          "characterOffsetEnd": 102,
          "pos": "VAFIN",
          "before": " ",
          "after": ""
        },
        {
          "index": 18,
          "word": "``",
          "originalText": "“",
          "characterOffsetBegin": 102,
          "characterOffsetEnd": 103,
          "pos": "CARD",
          "before": "",
          "after": ""
        }
      ]
    }
  ]
}