{
  "sentences": [
    {
      "index": 0,
      "basicDependencies": [
        {
          "dep": "ROOT",
          "governor": 0,
          "governorGloss": "ROOT",
          "dependent": 3,
          "dependentGloss": "schnell"
        },
        {
          "dep": "nsubj",
          "governor": 3,
          "governorGloss": "schnell",
          "dependent": 1,
          "dependentGloss": "Das"
        },
        {
          "dep": "cop",
          "governor": 3,
          "governorGloss": "schnell",
          "dependent": 2,
          "dependentGloss": "war"
        },
        {
          "dep": "punct",
          "governor": 3,
          "governorGloss": "schnell",
          "dependent": 4,
          "dependentGloss": ":"
        },
        {
          "dep": "name",
          "governor": 6,
          "governorGloss": "Bale",
          "dependent": 5,
          "dependentGloss": "Christian"
        },
        {
          "dep": "det",
          "governor": 7,
          "governorGloss": "Bails",
          "dependent": 6,
          "dependentGloss": "Bale"
        },
        {
          "dep": "dobj",
          "governor": 11,
          "governorGloss": "Biopic",
          "dependent": 7,
          "dependentGloss": "Bails"
        },
        {
          "dep": "case",
          "governor": 10,
          "governorGloss": "Jobs",
          "dependent": 8,
          "dependentGloss": "auf"
        },
        {
          "dep": "name",
          "governor": 10,
          "governorGloss": "Jobs",
          "dependent": 9,
          "dependentGloss": "Steve"
        },
        {
          "dep": "nmod",
          "governor": 7,
          "governorGloss": "Bails",
          "dependent": 10,
          "dependentGloss": "Jobs"
        },
        {
          "dep": "parataxis",
          "governor": 3,
          "governorGloss": "schnell",
          "dependent": 11,
          "dependentGloss": "Biopic"
        }
      ],
      "enhancedDependencies": [
        {
          "dep": "ROOT",
          "governor": 0,
          "governorGloss": "ROOT",
          "dependent": 3,
          "dependentGloss": "schnell"
        },
        {
          "dep": "nsubj",
          "governor": 3,
          "governorGloss": "schnell",
          "dependent": 1,
          "dependentGloss": "Das"
        },
        {
          "dep": "cop",
          "governor": 3,
          "governorGloss": "schnell",
          "dependent": 2,
          "dependentGloss": "war"
        },
        {
          "dep": "punct",
          "governor": 3,
          "governorGloss": "schnell",
          "dependent": 4,
          "dependentGloss": ":"
        },
        {
          "dep": "name",
          "governor": 6,
          "governorGloss": "Bale",
          "dependent": 5,
          "dependentGloss": "Christian"
        },
        {
          "dep": "det",
          "governor": 7,
          "governorGloss": "Bails",
          "dependent": 6,
          "dependentGloss": "Bale"
        },
        {
          "dep": "dobj",
          "governor": 11,
          "governorGloss": "Biopic",
          "dependent": 7,
          "dependentGloss": "Bails"
        },
        {
          "dep": "case",
          "governor": 10,
          "governorGloss": "Jobs",
          "dependent": 8,
          "dependentGloss": "auf"
        },
        {
          "dep": "name",
          "governor": 10,
          "governorGloss": "Jobs",
          "dependent": 9,
          "dependentGloss": "Steve"
        },
        {
          "dep": "nmod",
          "governor": 7,
          "governorGloss": "Bails",
          "dependent": 10,
          "dependentGloss": "Jobs"
        },
        {
          "dep": "parataxis",
          "governor": 3,
          "governorGloss": "schnell",
          "dependent": 11,
          "dependentGloss": "Biopic"
        }
      ],
      "enhancedPlusPlusDependencies": [
        {
          "dep": "ROOT",
          "governor": 0,
          "governorGloss": "ROOT",
          "dependent": 3,
          "dependentGloss": "schnell"
        },
        {
          "dep": "nsubj",
          "governor": 3,
          "governorGloss": "schnell",
          "dependent": 1,
          "dependentGloss": "Das"
        },
        {
          "dep": "cop",
          "governor": 3,
          "governorGloss": "schnell",
          "dependent": 2,
          "dependentGloss": "war"
        },
        {
          "dep": "punct",
          "governor": 3,
          "governorGloss": "schnell",
          "dependent": 4,
          "dependentGloss": ":"
        },
        {
          "dep": "name",
          "governor": 6,
          "governorGloss": "Bale",
          "dependent": 5,
          "dependentGloss": "Christian"
        },
        {
          "dep": "det",
          "governor": 7,
          "governorGloss": "Bails",
          "dependent": 6,
          "dependentGloss": "Bale"
        },
        {
          "dep": "dobj",
          "governor": 11,
          "governorGloss": "Biopic",
          "dependent": 7,
          "dependentGloss": "Bails"
        },
        {
          "dep": "case",
          "governor": 10,
          "governorGloss": "Jobs",
          "dependent": 8,
          "dependentGloss": "auf"
        },
        {
          "dep": "name",
          "governor": 10,
          "governorGloss": "Jobs",
          "dependent": 9,
          "dependentGloss": "Steve"
        },
        {
          "dep": "nmod",
          "governor": 7,
          "governorGloss": "Bails",
          "dependent": 10,
          "dependentGloss": "Jobs"
        },
        {
          "dep": "parataxis",
          "governor": 3,
          "governorGloss": "schnell",
          "dependent": 11,
          "dependentGloss": "Biopic"
        }
      ],
      "tokens": [
        {
          "index": 1,
          "word": "Das",
          "originalText": "Das",
          "characterOffsetBegin": 0,
          "characterOffsetEnd": 3,
          "pos": "PDS",
          "before": "",
          "after": " "
        },
        {
          "index": 2,
          "word": "war",
          "originalText": "war",
          "characterOffsetBegin": 4,
          "characterOffsetEnd": 7,
          "pos": "VAFIN",
          "before": " ",
          "after": " "
        },
        {
          "index": 3,
          "word": "schnell",
          "originalText": "schnell",
          "characterOffsetBegin": 8,
          "characterOffsetEnd": 15,
          "pos": "ADJD",
          "before": " ",
          "after": ""
        },
        {
          "index": 4,
          "word": ":",
          "originalText": ":",
          "characterOffsetBegin": 15,
          "characterOffsetEnd": 16,
          "pos": "$.",
          "before": "",
          "after": " "
        },
        {
          "index": 5,
          "word": "Christian",
          "originalText": "Christian",
          "characterOffsetBegin": 17,
          "characterOffsetEnd": 26,
          "pos": "NE",
          "before": " ",
          "after": " "
        },
        {
          "index": 6,
          "word": "Bale",
          "originalText": "Bale",
          "characterOffsetBegin": 27,
          "characterOffsetEnd": 31,
          "pos": "NE",
          "before": " ",
          "after": " "
        },
        {
          "index": 7,
          "word": "Bails",
          "originalText": "Bails",
          "characterOffsetBegin": 32,
          "characterOffsetEnd": 37,
          "pos": "NE",
          "before": " ",
          "after": " "
        },
        {
          "index": 8,
          "word": "auf",
          "originalText": "auf",
          "characterOffsetBegin": 38,
          "characterOffsetEnd": 41,
          "pos": "APPR",
          "before": " ",
          "after": " "
        },
        {
          "index": 9,
          "word": "Steve",
          "originalText": "Steve",
          "characterOffsetBegin": 42,
          "characterOffsetEnd": 47,
          "pos": "NE",
          "before": " ",
          "after": " "
        },
        {
          "index": 10,
          "word": "Jobs",
          "originalText": "Jobs",
          "characterOffsetBegin": 48,
          "characterOffsetEnd": 52,
          "pos": "NN",
          "before": " ",
          "after": " "
        },
        {
          "index": 11,
          "word": "Biopic",
          "originalText": "Biopic",
          "characterOffsetBegin": 53,
          "characterOffsetEnd": 59,
          "pos": "NE",
          "before": " ",
          "after": ""
        }
      ]
    }
  ]
}