{
  "sentences": [
    {
      "index": 0,
      "basicDependencies": [
        {
          "dep": "ROOT",
          "governor": 0,
          "governorGloss": "ROOT",
          "dependent": 11,
          "dependentGloss": "Foley"
        },
        {
          "dep": "name",
          "governor": 2,
          "governorGloss": "Evil",
          "dependent": 1,
          "dependentGloss": "Pure"
        },
        {
          "dep": "nsubj",
          "governor": 11,
          "governorGloss": "Foley",
          "dependent": 2,
          "dependentGloss": "Evil"
        },
        {
          "dep": "punct",
          "governor": 2,
          "governorGloss": "Evil",
          "dependent": 3,
          "dependentGloss": ":"
        },
        {
          "dep": "name",
          "governor": 5,
          "governorGloss": "State",
          "dependent": 4,
          "dependentGloss": "Islamic"
        },
        {
          "dep": "name",
          "governor": 6,
          "governorGloss": "Beheads",
          "dependent": 5,
          "dependentGloss": "State"
        },
        {
          "dep": "appos",
          "governor": 2,
          "governorGloss": "Evil",
          "dependent": 6,
          "dependentGloss": "Beheads"
        },
        {
          "dep": "amod",
          "governor": 8,
          "governorGloss": "Journalist",
          "dependent": 7,
          "dependentGloss": "Amerikanischer"
        },
        {
          "dep": "appos",
          "governor": 6,
          "governorGloss": "Beheads",
          "dependent": 8,
          "dependentGloss": "Journalist"
        },
        {
          "dep": "name",
          "governor": 10,
          "governorGloss": "Wright",
          "dependent": 9,
          "dependentGloss": "James"
        },
        {
          "dep": "appos",
          "governor": 8,
          "governorGloss": "Journalist",
          "dependent": 10,
          "dependentGloss": "Wright"
        }
      ],
      "enhancedDependencies": [
        {
          "dep": "ROOT",
          "governor": 0,
          "governorGloss": "ROOT",
          "dependent": 11,
          "dependentGloss": "Foley"
        },
        {
          "dep": "name",
          "governor": 2,
          "governorGloss": "Evil",
          "dependent": 1,
          "dependentGloss": "Pure"
        },
        {
          "dep": "nsubj",
          "governor": 11,
          "governorGloss": "Foley",
          "dependent": 2,
          "dependentGloss": "Evil"
        },
        {
          "dep": "punct",
          "governor": 2,
          "governorGloss": "Evil",
          "dependent": 3,
          "dependentGloss": ":"
        },
        {
          "dep": "name",
          "governor": 5,
          "governorGloss": "State",
          "dependent": 4,
          "dependentGloss": "Islamic"
        },
        {
          "dep": "name",
          "governor": 6,
          "governorGloss": "Beheads",
          "dependent": 5,
          "dependentGloss": "State"
        },
        {
          "dep": "appos",
          "governor": 2,
          "governorGloss": "Evil",
          "dependent": 6,
          "dependentGloss": "Beheads"
        },
        {
          "dep": "amod",
          "governor": 8,
          "governorGloss": "Journalist",
          "dependent": 7,
          "dependentGloss": "Amerikanischer"
        },
        {
          "dep": "appos",
          "governor": 6,
          "governorGloss": "Beheads",
          "dependent": 8,
          "dependentGloss": "Journalist"
        },
        {
          "dep": "name",
          "governor": 10,
          "governorGloss": "Wright",
          "dependent": 9,
          "dependentGloss": "James"
        },
        {
          "dep": "appos",
          "governor": 8,
          "governorGloss": "Journalist",
          "dependent": 10,
          "dependentGloss": "Wright"
        }
      ],
      "enhancedPlusPlusDependencies": [
        {
          "dep": "ROOT",
          "governor": 0,
          "governorGloss": "ROOT",
          "dependent": 11,
          "dependentGloss": "Foley"
        },
        {
          "dep": "name",
          "governor": 2,
          "governorGloss": "Evil",
          "dependent": 1,
          "dependentGloss": "Pure"
        },
        {
          "dep": "nsubj",
          "governor": 11,
          "governorGloss": "Foley",
          "dependent": 2,
          "dependentGloss": "Evil"
        },
        {
          "dep": "punct",
          "governor": 2,
          "governorGloss": "Evil",
          "dependent": 3,
          "dependentGloss": ":"
        },
        {
          "dep": "name",
          "governor": 5,
          "governorGloss": "State",
          "dependent": 4,
          "dependentGloss": "Islamic"
        },
        {
          "dep": "name",
          "governor": 6,
          "governorGloss": "Beheads",
          "dependent": 5,
          "dependentGloss": "State"
        },
        {
          "dep": "appos",
          "governor": 2,
          "governorGloss": "Evil",
          "dependent": 6,
          "dependentGloss": "Beheads"
        },
        {
          "dep": "amod",
          "governor": 8,
          "governorGloss": "Journalist",
          "dependent": 7,
          "dependentGloss": "Amerikanischer"
        },
        {
          "dep": "appos",
          "governor": 6,
          "governorGloss": "Beheads",
          "dependent": 8,
          "dependentGloss": "Journalist"
        },
        {
          "dep": "name",
          "governor": 10,
          "governorGloss": "Wright",
          "dependent": 9,
          "dependentGloss": "James"
        },
        {
          "dep": "appos",
          "governor": 8,
          "governorGloss": "Journalist",
          "dependent": 10,
          "dependentGloss": "Wright"
        }
      ],
      "tokens": [
        {
          "index": 1,
          "word": "Pure",
          "originalText": "Pure",
          "characterOffsetBegin": 0,
          "characterOffsetEnd": 4,
          "pos": "ADJA",
          "before": "",
          "after": " "
        },
        {
          "index": 2,
          "word": "Evil",
          "originalText": "Evil",
          "characterOffsetBegin": 5,
          "characterOffsetEnd": 9,
          "pos": "NN",
          "before": " ",
          "after": ""
        },
        {
          "index": 3,
          "word": ":",
          "originalText": ":",
          "characterOffsetBegin": 9,
          "characterOffsetEnd": 10,
          "pos": "$.",
          "before": "",
          "after": " "
        },
        {
          "index": 4,
          "word": "Islamic",
          "originalText": "Islamic",
          "characterOffsetBegin": 11,
          "characterOffsetEnd": 18,
          "pos": "NE",
          "before": " ",
          "after": " "
        },
        {
          "index": 5,
          "word": "State",
          "originalText": "State",
          "characterOffsetBegin": 19,
          "characterOffsetEnd": 24,
          "pos": "NE",
          "before": " ",
          "after": " "
        },
        {
          "index": 6,
          "word": "Beheads",
          "originalText": "Beheads",
          "characterOffsetBegin": 25,
          "characterOffsetEnd": 32,
          "pos": "NE",
          "before": " ",
          "after": " "
        },
        {
          "index": 7,
          "word": "Amerikanischer",
          "originalText": "Amerikanischer",
          "characterOffsetBegin": 33,
          "characterOffsetEnd": 47,
          "pos": "ADJA",
          "before": " ",
          "after": " "
        },
        {
          "index": 8,
          "word": "Journalist",
          "originalText": "Journalist",
          "characterOffsetBegin": 48,
          "characterOffsetEnd": 58,
          "pos": "NN",
          "before": " ",
          "after": " "
        },
        {
          "index": 9,
          "word": "James",
          "originalText": "James",
          "characterOffsetBegin": 59,
          "characterOffsetEnd": 64,
          "pos": "NE",
          "before": " ",
          "after": " "
        },
        {
          "index": 10,
          "word": "Wright",
          "originalText": "Wright",
          "characterOffsetBegin": 65,
          "characterOffsetEnd": 71,
          "pos": "NE",
          "before": " ",
          "after": " "
        },
        {
          "index": 11,
          "word": "Foley",
          "originalText": "Foley",
          "characterOffsetBegin": 72,
          "characterOffsetEnd": 77,
          "pos": "NE",
          "before": " ",
          "after": ""
        }
      ]
    }
  ]
}