{
  "sentences": [
    {
      "index": 0,
      "basicDependencies": [
        {
          "dep": "ROOT",
          "governor": 0,
          "governorGloss": "ROOT",
          "dependent": 2,
          "dependentGloss": "verbringt"
        },
        {
          "dep": "nsubj",
          "governor": 2,
          "governorGloss": "verbringt",
          "dependent": 1,
          "dependentGloss": "Frau"
        },
        {
          "dep": "det",
          "governor": 4,
          "governorGloss": "Woche",
          "dependent": 3,
          "dependentGloss": "eine"
        },
        {
          "dep": "dobj",
          "governor": 2,
          "governorGloss": "verbringt",
          "dependent": 4,
          "dependentGloss": "Woche"
        },
        {
          "dep": "case",
          "governor": 6,
          "governorGloss": "KFC",
          "dependent": 5,
          "dependentGloss": "in"
        },
        {
          "dep": "nmod",
          "governor": 4,
          "governorGloss": "Woche",
          "dependent": 6,
          "dependentGloss": "KFC"
        },
        {
          "dep": "punct",
          "governor": 2,
          "governorGloss": "verbringt",
          "dependent": 7,
          "dependentGloss": ","
        },
        {
          "dep": "mark",
          "governor": 11,
          "governorGloss": "brechen",
          "dependent": 8,
          "dependentGloss": "um"
        },
        {
          "dep": "dobj",
          "governor": 11,
          "governorGloss": "brechen",
          "dependent": 9,
          "dependentGloss": "sie"
        },
        {
          "dep": "aux",
          "governor": 11,
          "governorGloss": "brechen",
          "dependent": 10,
          "dependentGloss": "zu"
        },
        {
          "dep": "advcl",
          "governor": 2,
          "governorGloss": "verbringt",
          "dependent": 11,
          "dependentGloss": "brechen"
        }
      ],
      "enhancedDependencies": [
        {
          "dep": "ROOT",
          "governor": 0,
          "governorGloss": "ROOT",
          "dependent": 2,
          "dependentGloss": "verbringt"
        },
        {
          "dep": "nsubj",
          "governor": 2,
          "governorGloss": "verbringt",
          "dependent": 1,
          "dependentGloss": "Frau"
        },
        {
          "dep": "det",
          "governor": 4,
          "governorGloss": "Woche",
          "dependent": 3,
          "dependentGloss": "eine"
        },
        {
          "dep": "dobj",
          "governor": 2,
          "governorGloss": "verbringt",
          "dependent": 4,
          "dependentGloss": "Woche"
        },
        {
          "dep": "case",
          "governor": 6,
          "governorGloss": "KFC",
          "dependent": 5,
          "dependentGloss": "in"
        },
        {
          "dep": "nmod",
          "governor": 4,
          "governorGloss": "Woche",
          "dependent": 6,
          "dependentGloss": "KFC"
        },
        {
          "dep": "punct",
          "governor": 2,
          "governorGloss": "verbringt",
          "dependent": 7,
          "dependentGloss": ","
        },
        {
          "dep": "mark",
          "governor": 11,
          "governorGloss": "brechen",
          "dependent": 8,
          "dependentGloss": "um"
        },
        {
          "dep": "dobj",
          "governor": 11,
          "governorGloss": "brechen",
          "dependent": 9,
          "dependentGloss": "sie"
        },
        {
          "dep": "aux",
          "governor": 11,
          "governorGloss": "brechen",
          "dependent": 10,
          "dependentGloss": "zu"
        },
        {
          "dep": "advcl",
          "governor": 2,
          "governorGloss": "verbringt",
          "dependent": 11,
          "dependentGloss": "brechen"
        }
      ],
      "enhancedPlusPlusDependencies": [
        {
          "dep": "ROOT",
          "governor": 0,
          "governorGloss": "ROOT",
          "dependent": 2,
          "dependentGloss": "verbringt"
        },
        {
          "dep": "nsubj",
          "governor": 2,
          "governorGloss": "verbringt",
          "dependent": 1,
          "dependentGloss": "Frau"
        },
        {
          "dep": "det",
          "governor": 4,
          "governorGloss": "Woche",
          "dependent": 3,
          "dependentGloss": "eine"
        },
        {
          "dep": "dobj",
          "governor": 2,
          "governorGloss": "verbringt",
          "dependent": 4,
          "dependentGloss": "Woche"
        },
        {
          "dep": "case",
          "governor": 6,
          "governorGloss": "KFC",
          "dependent": 5,
          "dependentGloss": "in"
        },
        {
          "dep": "nmod",
          "governor": 4,
          "governorGloss": "Woche",
          "dependent": 6,
          "dependentGloss": "KFC"
        },
        {
          "dep": "punct",
          "governor": 2,
          "governorGloss": "verbringt",
          "dependent": 7,
          "dependentGloss": ","
        },
        {
          "dep": "mark",
          "governor": 11,
          "governorGloss": "brechen",
          "dependent": 8,
          "dependentGloss": "um"
        },
        {
          "dep": "dobj",
          "governor": 11,
          "governorGloss": "brechen",
          "dependent": 9,
          "dependentGloss": "sie"
        },
        {
          "dep": "aux",
          "governor": 11,
          "governorGloss": "brechen",
          "dependent": 10,
          "dependentGloss": "zu"
        },
        {
          "dep": "advcl",
          "governor": 2,
          "governorGloss": "verbringt",
          "dependent": 11,
          "dependentGloss": "brechen"
        }
      ],
      "tokens": [
        {
          "index": 1,
          "word": "Frau",
          "originalText": "Frau",
          "characterOffsetBegin": 0,
          "characterOffsetEnd": 4,
          "pos": "NN",
          "before": "",
          "after": " "
        },
        {
          "index": 2,
          "word": "verbringt",
          "originalText": "verbringt",
          "characterOffsetBegin": 5,
          "characterOffsetEnd": 14,
          "pos": "VVFIN",
          "before": " ",
          "after": " "
        },
        {
          "index": 3,
          "word": "eine",
          "originalText": "eine",
          "characterOffsetBegin": 15,
          "characterOffsetEnd": 19,
          "pos": "ART",
          "before": " ",
          "after": " "
        },
        {
          "index": 4,
          "word": "Woche",
          "originalText": "Woche",
          "characterOffsetBegin": 20,
          "characterOffsetEnd": 25,
          "pos": "NN",
          "before": " ",
          "after": " "
        },
        {
          "index": 5,
          "word": "in",
          "originalText": "in",
          "characterOffsetBegin": 26,
          "characterOffsetEnd": 28,
          "pos": "APPR",
          "before": " ",
          "after": " "
        },
        {
          "index": 6,
          "word": "KFC",
          "originalText": "KFC",
          "characterOffsetBegin": 29,
          "characterOffsetEnd": 32,
          "pos": "NE",
          "before": " ",
          "after": ""
        },
        {
          "index": 7,
          "word": ",",
          "originalText": ",",
          "characterOffsetBegin": 32,
          "characterOffsetEnd": 33,
          "pos": "$,",
          "before": "",
          "after": " "
        },
        {
          "index": 8,
          "word": "um",
          "originalText": "um",
          "characterOffsetBegin": 34,
          "characterOffsetEnd": 36,
          "pos": "KOUI",
          "before": " ",
          "after": " "
        },
        {
          "index": 9,
          "word": "sie",
          "originalText": "sie",
          "characterOffsetBegin": 37,
          "characterOffsetEnd": 40,
          "pos": "PPER",
          "before": " ",
          "after": " "
        },
        {
          "index": 10,
          "word": "zu",
          "originalText": "zu",
          "characterOffsetBegin": 41,
          "characterOffsetEnd": 43,
          "pos": "PTKZU",
          "before": " ",
          "after": " "
        },
        {
          "index": 11,
          "word": "brechen",
          "originalText": "brechen",
          "characterOffsetBegin": 44,
          "characterOffsetEnd": 51,
          "pos": "VVINF",
          "before": " ",
          "after": ""
        }
      ]
    }
  ]
}