{
  "sentences": [
    {
      "index": 0,
      "basicDependencies": [
        {
          "dep": "ROOT",
          "governor": 0,
          "governorGloss": "ROOT",
          "dependent": 3,
          "dependentGloss": "schlägt"
        },
        {
          "dep": "name",
          "governor": 2,
          "governorGloss": "Mann",
          "dependent": 1,
          "dependentGloss": "Mystery"
        },
        {
          "dep": "nsubj",
          "governor": 3,
          "governorGloss": "schlägt",
          "dependent": 2,
          "dependentGloss": "Mann"
        },
        {
          "dep": "advmod",
          "governor": 3,
          "governorGloss": "schlägt",
          "dependent": 4,
          "dependentGloss": "Käufer"
        },
        {
          "dep": "case",
          "governor": 7,
          "governorGloss": "zum",
          "dependent": 5,
          "dependentGloss": "um"
        },
        {
          "dep": "amod",
          "governor": 7,
          "governorGloss": "zum",
          "dependent": 6,
          "dependentGloss": "Kopf"
        },
        {
          "dep": "nmod",
          "governor": 3,
          "governorGloss": "schlägt",
          "dependent": 7,
          "dependentGloss": "zum"
        },
        {
          "dep": "advmod",
          "governor": 3,
          "governorGloss": "schlägt",
          "dependent": 8,
          "dependentGloss": "Niesen"
        }
      ],
      "enhancedDependencies": [
        {
          "dep": "ROOT",
          "governor": 0,
          "governorGloss": "ROOT",
          "dependent": 3,
          "dependentGloss": "schlägt"
        },
        {
          "dep": "name",
          "governor": 2,
          "governorGloss": "Mann",
          "dependent": 1,
          "dependentGloss": "Mystery"
        },
        {
          "dep": "nsubj",
          "governor": 3,
          "governorGloss": "schlägt",
          "dependent": 2,
          "dependentGloss": "Mann"
        },
        {
          "dep": "advmod",
          "governor": 3,
          "governorGloss": "schlägt",
          "dependent": 4,
          "dependentGloss": "Käufer"
        },
        {
          "dep": "case",
          "governor": 7,
          "governorGloss": "zum",
          "dependent": 5,
          "dependentGloss": "um"
        },
        {
          "dep": "amod",
          "governor": 7,
          "governorGloss": "zum",
          "dependent": 6,
          "dependentGloss": "Kopf"
        },
        {
          "dep": "nmod",
          "governor": 3,
          "governorGloss": "schlägt",
          "dependent": 7,
          "dependentGloss": "zum"
        },
        {
          "dep": "advmod",
          "governor": 3,
          "governorGloss": "schlägt",
          "dependent": 8,
          "dependentGloss": "Niesen"
        }
      ],
      "enhancedPlusPlusDependencies": [
        {
          "dep": "ROOT",
          "governor": 0,
          "governorGloss": "ROOT",
          "dependent": 3,
          "dependentGloss": "schlägt"
        },
        {
          "dep": "name",
          "governor": 2,
          "governorGloss": "Mann",
          "dependent": 1,
          "dependentGloss": "Mystery"
        },
        {
          "dep": "nsubj",
          "governor": 3,
          "governorGloss": "schlägt",
          "dependent": 2,
          "dependentGloss": "Mann"
        },
        {
          "dep": "advmod",
          "governor": 3,
          "governorGloss": "schlägt",
          "dependent": 4,
          "dependentGloss": "Käufer"
        },
        {
          "dep": "case",
          "governor": 7,
          "governorGloss": "zum",
          "dependent": 5,
          "dependentGloss": "um"
        },
        {
          "dep": "amod",
          "governor": 7,
          "governorGloss": "zum",
          "dependent": 6,
          "dependentGloss": "Kopf"
        },
        {
          "dep": "nmod",
          "governor": 3,
          "governorGloss": "schlägt",
          "dependent": 7,
          "dependentGloss": "zum"
        },
        {
          "dep": "advmod",
          "governor": 3,
          "governorGloss": "schlägt",
          "dependent": 8,
          "dependentGloss": "Niesen"
        }
      ],
      "tokens": [
        {
          "index": 1,
          "word": "Mystery",
          "originalText": "Mystery",
          "characterOffsetBegin": 0,
          "characterOffsetEnd": 7,
          "pos": "NE",
          "before": "",
          "after": " "
        },
        {
          "index": 2,
          "word": "Mann",
          "originalText": "Mann",
          "characterOffsetBegin": 8,
          "characterOffsetEnd": 12,
          "pos": "NN",
          "before": " ",
          "after": " "
        },
        {
          "index": 3,
          "word": "schlägt",
          "originalText": "schlägt",
          "characterOffsetBegin": 13,
          "characterOffsetEnd": 20,
          "pos": "VVFIN",
          "before": " ",
          "after": " "
        },
        {
          "index": 4,
          "word": "Käufer",
          "originalText": "Käufer",
          "characterOffsetBegin": 21,
          "characterOffsetEnd": 27,
          "pos": "NN",
          "before": " ",
          "after": " "
        },
        {
          "index": 5,
          "word": "um",
          "originalText": "um",
          "characterOffsetBegin": 28,
          "characterOffsetEnd": 30,
          "pos": "APPR",
          "before": " ",
          "after": " "
        },
        {
          "index": 6,
          "word": "Kopf",
          "originalText": "Kopf",
          "characterOffsetBegin": 31,
          "characterOffsetEnd": 35,
          "pos": "NN",
          "before": " ",
          "after": " "
        },
        {
          "index": 7,
          "word": "zum",
          "originalText": "zum",
          "characterOffsetBegin": 36,
          "characterOffsetEnd": 39,
          "pos": "APPRART",
          "before": " ",
          "after": " "
        },
        {
          "index": 8,
          "word": "Niesen",
          "originalText": "Niesen",
          "characterOffsetBegin": 40,
          "characterOffsetEnd": 46,
          "pos": "NN",
          "before": " ",
          "after": ""
        }
      ]
    }
  ]
}