{
  "sentences": [
    {
      "index": 0,
      "basicDependencies": [
        {
          "dep": "ROOT",
          "governor": 0,
          "governorGloss": "ROOT",
          "dependent": 4,
          "dependentGloss": "stoppen"
        },
        {
          "dep": "det",
          "governor": 4,
          "governorGloss": "stoppen",
          "dependent": 1,
          "dependentGloss": "McDonald"
        },
        {
          "dep": "case",
          "governor": 1,
          "governorGloss": "McDonald",
          "dependent": 2,
          "dependentGloss": "'s"
        },
        {
          "dep": "aux",
          "governor": 4,
          "governorGloss": "stoppen",
          "dependent": 3,
          "dependentGloss": "zu"
        },
        {
          "dep": "nsubj",
          "governor": 4,
          "governorGloss": "stoppen",
          "dependent": 5,
          "dependentGloss": "Serving"
        },
        {
          "dep": "det",
          "governor": 9,
          "governorGloss": "Januar",
          "dependent": 6,
          "dependentGloss": "Übergewicht"
        },
        {
          "dep": "amod",
          "governor": 9,
          "governorGloss": "Januar",
          "dependent": 7,
          "dependentGloss": "Kunden"
        },
        {
          "dep": "amod",
          "governor": 9,
          "governorGloss": "Januar",
          "dependent": 8,
          "dependentGloss": "im"
        },
        {
          "dep": "dobj",
          "governor": 5,
          "governorGloss": "Serving",
          "dependent": 9,
          "dependentGloss": "Januar"
        },
        {
          "dep": "punct",
          "governor": 4,
          "governorGloss": "stoppen",
          "dependent": 10,
          "dependentGloss": "?"
        }
      ],
      "enhancedDependencies": [
        {
          "dep": "ROOT",
          "governor": 0,
          "governorGloss": "ROOT",
          "dependent": 4,
          "dependentGloss": "stoppen"
        },
        {
          "dep": "det",
          "governor": 4,
          "governorGloss": "stoppen",
          "dependent": 1,
          "dependentGloss": "McDonald"
        },
        {
          "dep": "case",
          "governor": 1,
          "governorGloss": "McDonald",
          "dependent": 2,
          "dependentGloss": "'s"
        },
        {
          "dep": "aux",
          "governor": 4,
          "governorGloss": "stoppen",
          "dependent": 3,
          "dependentGloss": "zu"
        },
        {
          "dep": "nsubj",
          "governor": 4,
          "governorGloss": "stoppen",
          "dependent": 5,
          "dependentGloss": "Serving"
        },
        {
          "dep": "det",
          "governor": 9,
          "governorGloss": "Januar",
          "dependent": 6,
          "dependentGloss": "Übergewicht"
        },
        {
          "dep": "amod",
          "governor": 9,
          "governorGloss": "Januar",
          "dependent": 7,
          "dependentGloss": "Kunden"
        },
        {
          "dep": "amod",
          "governor": 9,
          "governorGloss": "Januar",
          "dependent": 8,
          "dependentGloss": "im"
        },
        {
          "dep": "dobj",
          "governor": 5,
          "governorGloss": "Serving",
          "dependent": 9,
          "dependentGloss": "Januar"
        },
        {
          "dep": "punct",
          "governor": 4,
          "governorGloss": "stoppen",
          "dependent": 10,
          "dependentGloss": "?"
        }
      ],
      "enhancedPlusPlusDependencies": [
        {
          "dep": "ROOT",
          "governor": 0,
          "governorGloss": "ROOT",
          "dependent": 4,
          "dependentGloss": "stoppen"
        },
        {
          "dep": "det",
          "governor": 4,
          "governorGloss": "stoppen",
          "dependent": 1,
          "dependentGloss": "McDonald"
        },
        {
          "dep": "case",
          "governor": 1,
          "governorGloss": "McDonald",
          "dependent": 2,
          "dependentGloss": "'s"
        },
        {
          "dep": "aux",
          "governor": 4,
          "governorGloss": "stoppen",
          "dependent": 3,
          "dependentGloss": "zu"
        },
        {
          "dep": "nsubj",
          "governor": 4,
          "governorGloss": "stoppen",
          "dependent": 5,
          "dependentGloss": "Serving"
        },
        {
          "dep": "det",
          "governor": 9,
          "governorGloss": "Januar",
          "dependent": 6,
          "dependentGloss": "Übergewicht"
        },
        {
          "dep": "amod",
          "governor": 9,
          "governorGloss": "Januar",
          "dependent": 7,
          "dependentGloss": "Kunden"
        },
        {
          "dep": "amod",
          "governor": 9,
          "governorGloss": "Januar",
          "dependent": 8,
          "dependentGloss": "im"
        },
        {
          "dep": "dobj",
          "governor": 5,
          "governorGloss": "Serving",
          "dependent": 9,
          "dependentGloss": "Januar"
        },
        {
          "dep": "punct",
          "governor": 4,
          "governorGloss": "stoppen",
          "dependent": 10,
          "dependentGloss": "?"
        }
      ],
      "tokens": [
        {
          "index": 1,
          "word": "McDonald",
          "originalText": "McDonald",
          "characterOffsetBegin": 0,
          "characterOffsetEnd": 8,
          "pos": "NE",
          "before": "",
          "after": ""
        },
        {
          "index": 2,
          "word": "'s",
          "originalText": "'s",
          "characterOffsetBegin": 8,
          "characterOffsetEnd": 10,
          "pos": "PPER",
          "before": "",
          "after": " "
        },
        {
          "index": 3,
          "word": "zu",
          "originalText": "zu",
          "characterOffsetBegin": 11,
          "characterOffsetEnd": 13,
          "pos": "PTKZU",
          "before": " ",
          "after": " "
        },
        {
          "index": 4,
          "word": "stoppen",
          "originalText": "stoppen",
          "characterOffsetBegin": 14,
          "characterOffsetEnd": 21,
          "pos": "VVINF",
          "before": " ",
          "after": " "
        },
        {
          "index": 5,
          "word": "Serving",
          "originalText": "Serving",
          "characterOffsetBegin": 22,
          "characterOffsetEnd": 29,
          "pos": "FM",
          "before": " ",
          "after": " "
        },
        {
          "index": 6,
          "word": "Übergewicht",
          "originalText": "Übergewicht",
          "characterOffsetBegin": 30,
          "characterOffsetEnd": 41,
          "pos": "NN",
          "before": " ",
          "after": " "
        },
        {
          "index": 7,
          "word": "Kunden",
          "originalText": "Kunden",
          "characterOffsetBegin": 42,
          "characterOffsetEnd": 48,
          "pos": "NN",
          "before": " ",
          "after": " "
        },
        {
          "index": 8,
          "word": "im",
          "originalText": "im",
          "characterOffsetBegin": 49,
          "characterOffsetEnd": 51,
          "pos": "APPRART",
          "before": " ",
          "after": " "
        },
        {
          "index": 9,
          "word": "Januar",
          "originalText": "Januar",
          "characterOffsetBegin": 52,
          "characterOffsetEnd": 58,
          "pos": "NN",
          "before": " ",
          "after": ""
        },
        {
          "index": 10,
          "word": "?",
          "originalText": "?",
          "characterOffsetBegin": 58,
          "characterOffsetEnd": 59,
          "pos": "$.",
          "before": "",
          "after": " "
        }
      ]
    },
    {
      "index": 1,
      "basicDependencies": [
        {
          "dep": "ROOT",
          "governor": 0,
          "governorGloss": "ROOT",
          "dependent": 7,
          "dependentGloss": "ist"
        },
        {
          "dep": "det",
          "governor": 6,
          "governorGloss": "Story",
          "dependent": 1,
          "dependentGloss": "Nope"
        },
        {
          "dep": "punct",
          "governor": 4,
          "governorGloss": "1/15/2015",
          "dependent": 2,
          "dependentGloss": ","
        },
        {
          "dep": "punct",
          "governor": 4,
          "governorGloss": "1/15/2015",
          "dependent": 3,
          "dependentGloss": "'"
        },
        {
          "dep": "det",
          "governor": 6,
          "governorGloss": "Story",
          "dependent": 4,
          "dependentGloss": "1/15/2015"
        },
        {
          "dep": "punct",
          "governor": 4,
          "governorGloss": "1/15/2015",
          "dependent": 5,
          "dependentGloss": "'"
        },
        {
          "dep": "nsubj",
          "governor": 7,
          "governorGloss": "ist",
          "dependent": 6,
          "dependentGloss": "Story"
        },
        {
          "dep": "dep",
          "governor": 7,
          "governorGloss": "ist",
          "dependent": 8,
          "dependentGloss": "gefälscht"
        }
      ],
      "enhancedDependencies": [
        {
          "dep": "ROOT",
          "governor": 0,
          "governorGloss": "ROOT",
          "dependent": 7,
          "dependentGloss": "ist"
        },
        {
          "dep": "det",
          "governor": 6,
          "governorGloss": "Story",
          "dependent": 1,
          "dependentGloss": "Nope"
        },
        {
          "dep": "punct",
          "governor": 4,
          "governorGloss": "1/15/2015",
          "dependent": 2,
          "dependentGloss": ","
        },
        {
          "dep": "punct",
          "governor": 4,
          "governorGloss": "1/15/2015",
          "dependent": 3,
          "dependentGloss": "'"
        },
        {
          "dep": "det",
          "governor": 6,
          "governorGloss": "Story",
          "dependent": 4,
          "dependentGloss": "1/15/2015"
        },
        {
          "dep": "punct",
          "governor": 4,
          "governorGloss": "1/15/2015",
          "dependent": 5,
          "dependentGloss": "'"
        },
        {
          "dep": "nsubj",
          "governor": 7,
          "governorGloss": "ist",
          "dependent": 6,
          "dependentGloss": "Story"
        },
        {
          "dep": "dep",
          "governor": 7,
          "governorGloss": "ist",
          "dependent": 8,
          "dependentGloss": "gefälscht"
        }
      ],
      "enhancedPlusPlusDependencies": [
        {
          "dep": "ROOT",
          "governor": 0,
          "governorGloss": "ROOT",
          "dependent": 7,
          "dependentGloss": "ist"
        },
        {
          "dep": "det",
          "governor": 6,
          "governorGloss": "Story",
          "dependent": 1,
          "dependentGloss": "Nope"
        },
        {
          "dep": "punct",
          "governor": 4,
          "governorGloss": "1/15/2015",
          "dependent": 2,
          "dependentGloss": ","
        },
        {
          "dep": "punct",
          "governor": 4,
          "governorGloss": "1/15/2015",
          "dependent": 3,
          "dependentGloss": "'"
        },
        {
          "dep": "det",
          "governor": 6,
          "governorGloss": "Story",
          "dependent": 4,
          "dependentGloss": "1/15/2015"
        },
        {
          "dep": "punct",
          "governor": 4,
          "governorGloss": "1/15/2015",
          "dependent": 5,
          "dependentGloss": "'"
        },
        {
          "dep": "nsubj",
          "governor": 7,
          "governorGloss": "ist",
          "dependent": 6,
          "dependentGloss": "Story"
        },
        {
          "dep": "dep",
          "governor": 7,
          "governorGloss": "ist",
          "dependent": 8,
          "dependentGloss": "gefälscht"
        }
      ],
      "tokens": [
        {
          "index": 1,
          "word": "Nope",
          "originalText": "Nope",
          "characterOffsetBegin": 60,
          "characterOffsetEnd": 64,
          "pos": "NE",
          "before": " ",
          "after": ""
        },
        {
          "index": 2,
          "word": ",",
          "originalText": ",",
          "characterOffsetBegin": 64,
          "characterOffsetEnd": 65,
          "pos": "$,",
          "before": "",
          "after": " "
        },
        {
          "index": 3,
          "word": "'",
          "originalText": "'",
          "characterOffsetBegin": 66,
          "characterOffsetEnd": 67,
          "pos": "$[",
          "before": " ",
          "after": ""
        },
        {
          "index": 4,
          "word": "1/15/2015",
          "originalText": "1/15/2015",
          "characterOffsetBegin": 67,
          "characterOffsetEnd": 76,
          "pos": "CARD",
          "before": "",
          "after": ""
        },
        {
          "index": 5,
          "word": "'",
          "originalText": "'",
          "characterOffsetBegin": 76,
          "characterOffsetEnd": 77,
          "pos": "$[",
          "before": "",
          "after": " "
        },
        {
          "index": 6,
          "word": "Story",
          "originalText": "Story",
          "characterOffsetBegin": 78,
          "characterOffsetEnd": 83,
          "pos": "FM",
          "before": " ",
          "after": " "
        },
        {
          "index": 7,
          "word": "ist",
          "originalText": "ist",
          "characterOffsetBegin": 84,
          "characterOffsetEnd": 87,
          "pos": "VAFIN",
          "before": " ",
          "after": " "
        },
        {
          "index": 8,
          "word": "gefälscht",
          "originalText": "gefälscht",
          "characterOffsetBegin": 88,
          "characterOffsetEnd": 97,
          "pos": "VVPP",
          "before": " ",
          "after": ""
        }
      ]
    }
  ]
}