{
  "sentences": [
    {
      "index": 0,
      "basicDependencies": [
        {
          "dep": "ROOT",
          "governor": 0,
          "governorGloss": "ROOT",
          "dependent": 2,
          "dependentGloss": "bestätigen"
        },
        {
          "dep": "nsubj",
          "governor": 2,
          "governorGloss": "bestätigen",
          "dependent": 1,
          "dependentGloss": "DNA-Tests"
        },
        {
          "dep": "punct",
          "governor": 2,
          "governorGloss": "bestätigen",
          "dependent": 3,
          "dependentGloss": ","
        },
        {
          "dep": "mark",
          "governor": 11,
          "governorGloss": "hält",
          "dependent": 4,
          "dependentGloss": "dass"
        },
        {
          "dep": "det",
          "governor": 6,
          "governorGloss": "Libanon",
          "dependent": 5,
          "dependentGloss": "der"
        },
        {
          "dep": "nsubj",
          "governor": 11,
          "governorGloss": "hält",
          "dependent": 6,
          "dependentGloss": "Libanon"
        },
        {
          "dep": "det",
          "governor": 8,
          "governorGloss": "Kind",
          "dependent": 7,
          "dependentGloss": "das"
        },
        {
          "dep": "dobj",
          "governor": 11,
          "governorGloss": "hält",
          "dependent": 8,
          "dependentGloss": "Kind"
        },
        {
          "dep": "det",
          "governor": 10,
          "governorGloss": "ISIS-Führers",
          "dependent": 9,
          "dependentGloss": "des"
        },
        {
          "dep": "det",
          "governor": 8,
          "governorGloss": "Kind",
          "dependent": 10,
          "dependentGloss": "ISIS-Führers"
        },
        {
          "dep": "ccomp",
          "governor": 2,
          "governorGloss": "bestätigen",
          "dependent": 11,
          "dependentGloss": "hält"
        }
      ],
      "enhancedDependencies": [
        {
          "dep": "ROOT",
          "governor": 0,
          "governorGloss": "ROOT",
          "dependent": 2,
          "dependentGloss": "bestätigen"
        },
        {
          "dep": "nsubj",
          "governor": 2,
          "governorGloss": "bestätigen",
          "dependent": 1,
          "dependentGloss": "DNA-Tests"
        },
        {
          "dep": "punct",
          "governor": 2,
          "governorGloss": "bestätigen",
          "dependent": 3,
          "dependentGloss": ","
        },
        {
          "dep": "mark",
          "governor": 11,
          "governorGloss": "hält",
          "dependent": 4,
          "dependentGloss": "dass"
        },
        {
          "dep": "det",
          "governor": 6,
          "governorGloss": "Libanon",
          "dependent": 5,
          "dependentGloss": "der"
        },
        {
          "dep": "nsubj",
          "governor": 11,
          "governorGloss": "hält",
          "dependent": 6,
          "dependentGloss": "Libanon"
        },
        {
          "dep": "det",
          "governor": 8,
          "governorGloss": "Kind",
          "dependent": 7,
          "dependentGloss": "das"
        },
        {
          "dep": "dobj",
          "governor": 11,
          "governorGloss": "hält",
          "dependent": 8,
          "dependentGloss": "Kind"
        },
        {
          "dep": "det",
          "governor": 10,
          "governorGloss": "ISIS-Führers",
          "dependent": 9,
          "dependentGloss": "des"
        },
        {
          "dep": "det",
          "governor": 8,
          "governorGloss": "Kind",
          "dependent": 10,
          "dependentGloss": "ISIS-Führers"
        },
        {
          "dep": "ccomp",
          "governor": 2,
          "governorGloss": "bestätigen",
          "dependent": 11,
          "dependentGloss": "hält"
        }
      ],
      "enhancedPlusPlusDependencies": [
        {
          "dep": "ROOT",
          "governor": 0,
          "governorGloss": "ROOT",
          "dependent": 2,
          "dependentGloss": "bestätigen"
        },
        {
          "dep": "nsubj",
          "governor": 2,
          "governorGloss": "bestätigen",
          "dependent": 1,
          "dependentGloss": "DNA-Tests"
        },
        {
          "dep": "punct",
          "governor": 2,
          "governorGloss": "bestätigen",
          "dependent": 3,
          "dependentGloss": ","
        },
        {
          "dep": "mark",
          "governor": 11,
          "governorGloss": "hält",
          "dependent": 4,
          "dependentGloss": "dass"
        },
        {
          "dep": "det",
          "governor": 6,
          "governorGloss": "Libanon",
          "dependent": 5,
          "dependentGloss": "der"
        },
        {
          "dep": "nsubj",
          "governor": 11,
          "governorGloss": "hält",
          "dependent": 6,
          "dependentGloss": "Libanon"
        },
        {
          "dep": "det",
          "governor": 8,
          "governorGloss": "Kind",
          "dependent": 7,
          "dependentGloss": "das"
        },
        {
          "dep": "dobj",
          "governor": 11,
          "governorGloss": "hält",
          "dependent": 8,
          "dependentGloss": "Kind"
        },
        {
          "dep": "det",
          "governor": 10,
          "governorGloss": "ISIS-Führers",
          "dependent": 9,
          "dependentGloss": "des"
        },
        {
          "dep": "det",
          "governor": 8,
          "governorGloss": "Kind",
          "dependent": 10,
          "dependentGloss": "ISIS-Führers"
        },
        {
          "dep": "ccomp",
          "governor": 2,
          "governorGloss": "bestätigen",
          "dependent": 11,
          "dependentGloss": "hält"
        }
      ],
      "tokens": [
        {
          "index": 1,
          "word": "DNA-Tests",
          "originalText": "DNA-Tests",
          "characterOffsetBegin": 0,
          "characterOffsetEnd": 9,
          "pos": "NN",
          "before": "",
          "after": " "
        },
        {
          "index": 2,
          "word": "bestätigen",
          "originalText": "bestätigen",
          "characterOffsetBegin": 10,
          "characterOffsetEnd": 20,
          "pos": "VVINF",
          "before": " ",
          "after": ""
        },
        {
          "index": 3,
          "word": ",",
          "originalText": ",",
          "characterOffsetBegin": 20,
          "characterOffsetEnd": 21,
          "pos": "$,",
          "before": "",
          "after": " "
        },
        {
          "index": 4,
          "word": "dass",
          "originalText": "dass",
          "characterOffsetBegin": 22,
          "characterOffsetEnd": 26,
          "pos": "KOUS",
          "before": " ",
          "after": " "
        },
        {
          "index": 5,
          "word": "der",
          "originalText": "der",
          "characterOffsetBegin": 27,
          "characterOffsetEnd": 30,
          "pos": "ART",
          "before": " ",
          "after": " "
        },
        {
          "index": 6,
          "word": "Libanon",
          "originalText": "Libanon",
          "characterOffsetBegin": 31,
          "characterOffsetEnd": 38,
          "pos": "NE",
          "before": " ",
          "after": " "
        },
        {
          "index": 7,
          "word": "das",
          "originalText": "das",
          "characterOffsetBegin": 39,
          "characterOffsetEnd": 42,
          "pos": "ART",
          "before": " ",
          "after": " "
        },
        {
          "index": 8,
          "word": "Kind",
          "originalText": "Kind",
          "characterOffsetBegin": 43,
          "characterOffsetEnd": 47,
          "pos": "NN",
          "before": " ",
          "after": " "
        },
        {
          "index": 9,
          "word": "des",
          "originalText": "des",
          "characterOffsetBegin": 48,
          "characterOffsetEnd": 51,
          "pos": "ART",
          "before": " ",
          "after": " "
        },
        {
          "index": 10,
          "word": "ISIS-Führers",
          "originalText": "ISIS-Führers",
          "characterOffsetBegin": 52,
          "characterOffsetEnd": 64,
          "pos": "NN",
          "before": " ",
          "after": " "
        },
        {
          "index": 11,
          "word": "hält",
          "originalText": "hält",
          "characterOffsetBegin": 65,
          "characterOffsetEnd": 69,
          "pos": "VVFIN",
          "before": " ",
          "after": ""
        }
      ]
    }
  ]
}