{
  "sentences": [
    {
      "index": 0,
      "basicDependencies": [
        {
          "dep": "ROOT",
          "governor": 0,
          "governorGloss": "ROOT",
          "dependent": 9,
          "dependentGloss": "inszeniert"
        },
        {
          "dep": "nsubj",
          "governor": 2,
          "governorGloss": "sagt",
          "dependent": 1,
          "dependentGloss": "Eyewitness"
        },
        {
          "dep": "nsubjpass",
          "governor": 9,
          "governorGloss": "inszeniert",
          "dependent": 2,
          "dependentGloss": "sagt"
        },
        {
          "dep": "amod",
          "governor": 4,
          "governorGloss": "Video",
          "dependent": 3,
          "dependentGloss": "Viral"
        },
        {
          "dep": "dobj",
          "governor": 2,
          "governorGloss": "sagt",
          "dependent": 4,
          "dependentGloss": "Video"
        },
        {
          "dep": "case",
          "governor": 7,
          "governorGloss": "Mann",
          "dependent": 5,
          "dependentGloss": "von"
        },
        {
          "dep": "name",
          "governor": 7,
          "governorGloss": "Mann",
          "dependent": 6,
          "dependentGloss": "Obdachlosen"
        },
        {
          "dep": "nmod",
          "governor": 4,
          "governorGloss": "Video",
          "dependent": 7,
          "dependentGloss": "Mann"
        },
        {
          "dep": "auxpass",
          "governor": 9,
          "governorGloss": "inszeniert",
          "dependent": 8,
          "dependentGloss": "wurde"
        }
      ],
      "enhancedDependencies": [
        {
          "dep": "ROOT",
          "governor": 0,
          "governorGloss": "ROOT",
          "dependent": 9,
          "dependentGloss": "inszeniert"
        },
        {
          "dep": "nsubj",
          "governor": 2,
          "governorGloss": "sagt",
          "dependent": 1,
          "dependentGloss": "Eyewitness"
        },
        {
          "dep": "nsubjpass",
          "governor": 9,
          "governorGloss": "inszeniert",
          "dependent": 2,
          "dependentGloss": "sagt"
        },
        {
          "dep": "amod",
          "governor": 4,
          "governorGloss": "Video",
          "dependent": 3,
          "dependentGloss": "Viral"
        },
        {
          "dep": "dobj",
          "governor": 2,
          "governorGloss": "sagt",
          "dependent": 4,
          "dependentGloss": "Video"
        },
        {
          "dep": "case",
          "governor": 7,
          "governorGloss": "Mann",
          "dependent": 5,
          "dependentGloss": "von"
        },
        {
          "dep": "name",
          "governor": 7,
          "governorGloss": "Mann",
          "dependent": 6,
          "dependentGloss": "Obdachlosen"
        },
        {
          "dep": "nmod",
          "governor": 4,
          "governorGloss": "Video",
          "dependent": 7,
          "dependentGloss": "Mann"
        },
        {
          "dep": "auxpass",
          "governor": 9,
          "governorGloss": "inszeniert",
          "dependent": 8,
          "dependentGloss": "wurde"
        }
      ],
      "enhancedPlusPlusDependencies": [
        {
          "dep": "ROOT",
          "governor": 0,
          "governorGloss": "ROOT",
          "dependent": 9,
          "dependentGloss": "inszeniert"
        },
        {
          "dep": "nsubj",
          "governor": 2,
          "governorGloss": "sagt",
          "dependent": 1,
          "dependentGloss": "Eyewitness"
        },
        {
          "dep": "nsubjpass",
          "governor": 9,
          "governorGloss": "inszeniert",
          "dependent": 2,
          "dependentGloss": "sagt"
        },
        {
          "dep": "amod",
          "governor": 4,
          "governorGloss": "Video",
          "dependent": 3,
          "dependentGloss": "Viral"
        },
        {
          "dep": "dobj",
          "governor": 2,
          "governorGloss": "sagt",
          "dependent": 4,
          "dependentGloss": "Video"
        },
        {
          "dep": "case",
          "governor": 7,
          "governorGloss": "Mann",
          "dependent": 5,
          "dependentGloss": "von"
        },
        {
          "dep": "name",
          "governor": 7,
          "governorGloss": "Mann",
          "dependent": 6,
          "dependentGloss": "Obdachlosen"
        },
        {
          "dep": "nmod",
          "governor": 4,
          "governorGloss": "Video",
          "dependent": 7,
          "dependentGloss": "Mann"
        },
        {
          "dep": "auxpass",
          "governor": 9,
          "governorGloss": "inszeniert",
          "dependent": 8,
          "dependentGloss": "wurde"
        }
      ],
      "tokens": [
        {
          "index": 1,
          "word": "Eyewitness",
          "originalText": "Eyewitness",
          "characterOffsetBegin": 0,
          "characterOffsetEnd": 10,
          "pos": "NN",
          "before": "",
          "after": " "
        },
        {
          "index": 2,
          "word": "sagt",
          "originalText": "sagt",
          "characterOffsetBegin": 11,
          "characterOffsetEnd": 15,
          "pos": "VVFIN",
          "before": " ",
          "after": " "
        },
        {
          "index": 3,
          "word": "Viral",
          "originalText": "Viral",
          "characterOffsetBegin": 16,
          "characterOffsetEnd": 21,
          "pos": "NE",
          "before": " ",
          "after": " "
        },
        {
          "index": 4,
          "word": "Video",
          "originalText": "Video",
          "characterOffsetBegin": 22,
          "characterOffsetEnd": 27,
          "pos": "NN",
          "before": " ",
          "after": " "
        },
        {
          "index": 5,
          "word": "von",
          "originalText": "von",
          "characterOffsetBegin": 28,
          "characterOffsetEnd": 31,
          "pos": "APPR",
          "before": " ",
          "after": " "
        },
        {
          "index": 6,
          "word": "Obdachlosen",
          "originalText": "Obdachlosen",
          "characterOffsetBegin": 32,
          "characterOffsetEnd": 43,
          "pos": "NN",
          "before": " ",
          "after": " "
        },
        {
          "index": 7,
          "word": "Mann",
          "originalText": "Mann",
          "characterOffsetBegin": 44,
          "characterOffsetEnd": 48,
          "pos": "NN",
          "before": " ",
          "after": " "
        },
        {
          "index": 8,
          "word": "wurde",
          "originalText": "wurde",
          "characterOffsetBegin": 49,
          "characterOffsetEnd": 54,
          "pos": "VAFIN",
          "before": " ",
          "after": " "
        },
        {
          "index": 9,
          "word": "inszeniert",
          "originalText": "inszeniert",
          "characterOffsetBegin": 55,
          "characterOffsetEnd": 65,
          "pos": "VVPP",
          "before": " ",
          "after": ""
        }
      ]
    }
  ]
}