{
  "sentences": [
    {
      "index": 0,
      "basicDependencies": [
        {
          "dep": "ROOT",
          "governor": 0,
          "governorGloss": "ROOT",
          "dependent": 2,
          "dependentGloss": "schoss"
        },
        {
          "dep": "nsubj",
          "governor": 2,
          "governorGloss": "schoss",
          "dependent": 1,
          "dependentGloss": "Soldat"
        },
        {
          "dep": "case",
          "governor": 5,
          "governorGloss": "Nähe",
          "dependent": 3,
          "dependentGloss": "in"
        },
        {
          "dep": "det",
          "governor": 5,
          "governorGloss": "Nähe",
          "dependent": 4,
          "dependentGloss": "der"
        },
        {
          "dep": "nmod",
          "governor": 2,
          "governorGloss": "schoss",
          "dependent": 5,
          "dependentGloss": "Nähe"
        },
        {
          "dep": "det",
          "governor": 8,
          "governorGloss": "Parlamentsgebäudes",
          "dependent": 6,
          "dependentGloss": "des"
        },
        {
          "dep": "amod",
          "governor": 8,
          "governorGloss": "Parlamentsgebäudes",
          "dependent": 7,
          "dependentGloss": "kanadischen"
        },
        {
          "dep": "det",
          "governor": 5,
          "governorGloss": "Nähe",
          "dependent": 8,
          "dependentGloss": "Parlamentsgebäudes"
        }
      ],
      "enhancedDependencies": [
        {
          "dep": "ROOT",
          "governor": 0,
          "governorGloss": "ROOT",
          "dependent": 2,
          "dependentGloss": "schoss"
        },
        {
          "dep": "nsubj",
          "governor": 2,
          "governorGloss": "schoss",
          "dependent": 1,
          "dependentGloss": "Soldat"
        },
        {
          "dep": "case",
          "governor": 5,
          "governorGloss": "Nähe",
          "dependent": 3,
          "dependentGloss": "in"
        },
        {
          "dep": "det",
          "governor": 5,
          "governorGloss": "Nähe",
          "dependent": 4,
          "dependentGloss": "der"
        },
        {
          "dep": "nmod",
          "governor": 2,
          "governorGloss": "schoss",
          "dependent": 5,
          "dependentGloss": "Nähe"
        },
        {
          "dep": "det",
          "governor": 8,
          "governorGloss": "Parlamentsgebäudes",
          "dependent": 6,
          "dependentGloss": "des"
        },
        {
          "dep": "amod",
          "governor": 8,
          "governorGloss": "Parlamentsgebäudes",
          "dependent": 7,
          "dependentGloss": "kanadischen"
        },
        {
          "dep": "det",
          "governor": 5,
          "governorGloss": "Nähe",
          "dependent": 8,
          "dependentGloss": "Parlamentsgebäudes"
        }
      ],
      "enhancedPlusPlusDependencies": [
        {
          "dep": "ROOT",
          "governor": 0,
          "governorGloss": "ROOT",
          "dependent": 2,
          "dependentGloss": "schoss"
        },
        {
          "dep": "nsubj",
          "governor": 2,
          "governorGloss": "schoss",
          "dependent": 1,
          "dependentGloss": "Soldat"
        },
        {
          "dep": "case",
          "governor": 5,
          "governorGloss": "Nähe",
          "dependent": 3,
          "dependentGloss": "in"
        },
        {
          "dep": "det",
          "governor": 5,
          "governorGloss": "Nähe",
          "dependent": 4,
          "dependentGloss": "der"
        },
        {
          "dep": "nmod",
          "governor": 2,
          "governorGloss": "schoss",
          "dependent": 5,
          "dependentGloss": "Nähe"
        },
        {
          "dep": "det",
          "governor": 8,
          "governorGloss": "Parlamentsgebäudes",
          "dependent": 6,
          "dependentGloss": "des"
        },
        {
          "dep": "amod",
          "governor": 8,
          "governorGloss": "Parlamentsgebäudes",
          "dependent": 7,
          "dependentGloss": "kanadischen"
        },
        {
          "dep": "det",
          "governor": 5,
          "governorGloss": "Nähe",
          "dependent": 8,
          "dependentGloss": "Parlamentsgebäudes"
        }
      ],
      "tokens": [
        {
          "index": 1,
          "word": "Soldat",
          "originalText": "Soldat",
          "characterOffsetBegin": 0,
          "characterOffsetEnd": 6,
          "pos": "NN",
          "before": "",
          "after": " "
        },
        {
          "index": 2,
          "word": "schoss",
          "originalText": "schoss",
          "characterOffsetBegin": 7,
          "characterOffsetEnd": 13,
          "pos": "VVFIN",
          "before": " ",
          "after": " "
        },
        {
          "index": 3,
          "word": "in",
          "originalText": "in",
          "characterOffsetBegin": 14,
          "characterOffsetEnd": 16,
          "pos": "APPR",
          "before": " ",
          "after": " "
        },
        {
          "index": 4,
          "word": "der",
          "originalText": "der",
          "characterOffsetBegin": 17,
          "characterOffsetEnd": 20,
          "pos": "ART",
          "before": " ",
          "after": " "
        },
        {
          "index": 5,
          "word": "Nähe",
          "originalText": "Nähe",
          "characterOffsetBegin": 21,
          "characterOffsetEnd": 25,
          "pos": "NN",
          "before": " ",
          "after": " "
        },
        {
          "index": 6,
          "word": "des",
          "originalText": "des",
          "characterOffsetBegin": 26,
          "characterOffsetEnd": 29,
          "pos": "ART",
          "before": " ",
          "after": " "
        },
        {
          "index": 7,
          "word": "kanadischen",
          "originalText": "kanadischen",
          "characterOffsetBegin": 30,
          "characterOffsetEnd": 41,
          "pos": "ADJA",
          "before": " ",
          "after": " "
        },
        {
          "index": 8,
          "word": "Parlamentsgebäudes",
          "originalText": "Parlamentsgebäudes",
          "characterOffsetBegin": 42,
          "characterOffsetEnd": 60,
          "pos": "NN",
          "before": " ",
          "after": ""
        }
      ]
    }
  ]
}