{
  "sentences": [
    {
      "index": 0,
      "basicDependencies": [
        {
          "dep": "ROOT",
          "governor": 0,
          "governorGloss": "ROOT",
          "dependent": 8,
          "dependentGloss": "erschossen"
        },
        {
          "dep": "det",
          "governor": 4,
          "governorGloss": "Moment",
          "dependent": 1,
          "dependentGloss": "Audio-Aufzeichnung"
        },
        {
          "dep": "advmod",
          "governor": 3,
          "governorGloss": "fängt",
          "dependent": 2,
          "dependentGloss": "angeblich"
        },
        {
          "dep": "amod",
          "governor": 4,
          "governorGloss": "Moment",
          "dependent": 3,
          "dependentGloss": "fängt"
        },
        {
          "dep": "nsubjpass",
          "governor": 8,
          "governorGloss": "erschossen",
          "dependent": 4,
          "dependentGloss": "Moment"
        },
        {
          "dep": "name",
          "governor": 6,
          "governorGloss": "Brown",
          "dependent": 5,
          "dependentGloss": "Michael"
        },
        {
          "dep": "appos",
          "governor": 4,
          "governorGloss": "Moment",
          "dependent": 6,
          "dependentGloss": "Brown"
        },
        {
          "dep": "auxpass",
          "governor": 8,
          "governorGloss": "erschossen",
          "dependent": 7,
          "dependentGloss": "wurde"
        }
      ],
      "enhancedDependencies": [
        {
          "dep": "ROOT",
          "governor": 0,
          "governorGloss": "ROOT",
          "dependent": 8,
          "dependentGloss": "erschossen"
        },
        {
          "dep": "det",
          "governor": 4,
          "governorGloss": "Moment",
          "dependent": 1,
          "dependentGloss": "Audio-Aufzeichnung"
        },
        {
          "dep": "advmod",
          "governor": 3,
          "governorGloss": "fängt",
          "dependent": 2,
          "dependentGloss": "angeblich"
        },
        {
          "dep": "amod",
          "governor": 4,
          "governorGloss": "Moment",
          "dependent": 3,
          "dependentGloss": "fängt"
        },
        {
          "dep": "nsubjpass",
          "governor": 8,
          "governorGloss": "erschossen",
          "dependent": 4,
          "dependentGloss": "Moment"
        },
        {
          "dep": "name",
          "governor": 6,
          "governorGloss": "Brown",
          "dependent": 5,
          "dependentGloss": "Michael"
        },
        {
          "dep": "appos",
          "governor": 4,
          "governorGloss": "Moment",
          "dependent": 6,
          "dependentGloss": "Brown"
        },
        {
          "dep": "auxpass",
          "governor": 8,
          "governorGloss": "erschossen",
          "dependent": 7,
          "dependentGloss": "wurde"
        }
      ],
      "enhancedPlusPlusDependencies": [
        {
          "dep": "ROOT",
          "governor": 0,
          "governorGloss": "ROOT",
          "dependent": 8,
          "dependentGloss": "erschossen"
        },
        {
          "dep": "det",
          "governor": 4,
          "governorGloss": "Moment",
          "dependent": 1,
          "dependentGloss": "Audio-Aufzeichnung"
        },
        {
          "dep": "advmod",
          "governor": 3,
          "governorGloss": "fängt",
          "dependent": 2,
          "dependentGloss": "angeblich"
        },
        {
          "dep": "amod",
          "governor": 4,
          "governorGloss": "Moment",
          "dependent": 3,
          "dependentGloss": "fängt"
        },
        {
          "dep": "nsubjpass",
          "governor": 8,
          "governorGloss": "erschossen",
          "dependent": 4,
          "dependentGloss": "Moment"
        },
        {
          "dep": "name",
          "governor": 6,
          "governorGloss": "Brown",
          "dependent": 5,
          "dependentGloss": "Michael"
        },
        {
          "dep": "appos",
          "governor": 4,
          "governorGloss": "Moment",
          "dependent": 6,
          "dependentGloss": "Brown"
        },
        {
          "dep": "auxpass",
          "governor": 8,
          "governorGloss": "erschossen",
          "dependent": 7,
          "dependentGloss": "wurde"
        }
      ],
      "tokens": [
        {
          "index": 1,
          "word": "Audio-Aufzeichnung",
          "originalText": "Audio-Aufzeichnung",
          "characterOffsetBegin": 0,
          "characterOffsetEnd": 18,
          "pos": "NN",
          "before": "",
          "after": " "
        },
        {
          "index": 2,
          "word": "angeblich",
          "originalText": "angeblich",
          "characterOffsetBegin": 19,
          "characterOffsetEnd": 28,
          "pos": "ADJD",
          "before": " ",
          "after": " "
        },
        {
          "index": 3,
          "word": "fängt",
          "originalText": "fängt",
          "characterOffsetBegin": 29,
          "characterOffsetEnd": 34,
          "pos": "VVFIN",
          "before": " ",
          "after": " "
        },
        {
          "index": 4,
          "word": "Moment",
          "originalText": "Moment",
          "characterOffsetBegin": 35,
          "characterOffsetEnd": 41,
          "pos": "NN",
          "before": " ",
          "after": " "
        },
        {
          "index": 5,
          "word": "Michael",
          "originalText": "Michael",
          "characterOffsetBegin": 42,
          "characterOffsetEnd": 49,
          "pos": "NE",
          "before": " ",
          "after": " "
        },
        {
          "index": 6,
          "word": "Brown",
          "originalText": "Brown",
          "characterOffsetBegin": 50,
          "characterOffsetEnd": 55,
          "pos": "NE",
          "before": " ",
          "after": " "
        },
        {
          "index": 7,
          "word": "wurde",
          "originalText": "wurde",
          "characterOffsetBegin": 56,
          "characterOffsetEnd": 61,
          "pos": "VAFIN",
          "before": " ",
          "after": " "
        },
        {
          "index": 8,
          "word": "erschossen",
          "originalText": "erschossen",
          "characterOffsetBegin": 62,
          "characterOffsetEnd": 72,
          "pos": "VVPP",
          "before": " ",
          "after": ""
        }
      ]
    }
  ]
}