{
  "sentences": [
    {
      "index": 0,
      "basicDependencies": [
        {
          "dep": "ROOT",
          "governor": 0,
          "governorGloss": "ROOT",
          "dependent": 1,
          "dependentGloss": "Islamistische"
        },
        {
          "dep": "appos",
          "governor": 1,
          "governorGloss": "Islamistische",
          "dependent": 2,
          "dependentGloss": "Militanten"
        },
        {
          "dep": "appos",
          "governor": 2,
          "governorGloss": "Militanten",
          "dependent": 3,
          "dependentGloss": "Stehlen"
        },
        {
          "dep": "amod",
          "governor": 5,
          "governorGloss": "Gewerbeflächen",
          "dependent": 4,
          "dependentGloss": "'11"
        },
        {
          "dep": "det",
          "governor": 3,
          "governorGloss": "Stehlen",
          "dependent": 5,
          "dependentGloss": "Gewerbeflächen"
        },
        {
          "dep": "case",
          "governor": 7,
          "governorGloss": "Libyen",
          "dependent": 6,
          "dependentGloss": "in"
        },
        {
          "dep": "nmod",
          "governor": 5,
          "governorGloss": "Gewerbeflächen",
          "dependent": 7,
          "dependentGloss": "Libyen"
        },
        {
          "dep": "punct",
          "governor": 2,
          "governorGloss": "Militanten",
          "dependent": 8,
          "dependentGloss": ","
        },
        {
          "dep": "name",
          "governor": 10,
          "governorGloss": "Terror",
          "dependent": 9,
          "dependentGloss": "Funken"
        },
        {
          "dep": "conj",
          "governor": 2,
          "governorGloss": "Militanten",
          "dependent": 10,
          "dependentGloss": "Terror"
        },
        {
          "dep": "name",
          "governor": 12,
          "governorGloss": "Fears",
          "dependent": 11,
          "dependentGloss": "Attack"
        },
        {
          "dep": "appos",
          "governor": 10,
          "governorGloss": "Terror",
          "dependent": 12,
          "dependentGloss": "Fears"
        }
      ],
      "enhancedDependencies": [
        {
          "dep": "ROOT",
          "governor": 0,
          "governorGloss": "ROOT",
          "dependent": 1,
          "dependentGloss": "Islamistische"
        },
        {
          "dep": "appos",
          "governor": 1,
          "governorGloss": "Islamistische",
          "dependent": 2,
          "dependentGloss": "Militanten"
        },
        {
          "dep": "appos",
          "governor": 2,
          "governorGloss": "Militanten",
          "dependent": 3,
          "dependentGloss": "Stehlen"
        },
        {
          "dep": "amod",
          "governor": 5,
          "governorGloss": "Gewerbeflächen",
          "dependent": 4,
          "dependentGloss": "'11"
        },
        {
          "dep": "det",
          "governor": 3,
          "governorGloss": "Stehlen",
          "dependent": 5,
          "dependentGloss": "Gewerbeflächen"
        },
        {
          "dep": "case",
          "governor": 7,
          "governorGloss": "Libyen",
          "dependent": 6,
          "dependentGloss": "in"
        },
        {
          "dep": "nmod",
          "governor": 5,
          "governorGloss": "Gewerbeflächen",
          "dependent": 7,
          "dependentGloss": "Libyen"
        },
        {
          "dep": "punct",
          "governor": 2,
          "governorGloss": "Militanten",
          "dependent": 8,
          "dependentGloss": ","
        },
        {
          "dep": "name",
          "governor": 10,
          "governorGloss": "Terror",
          "dependent": 9,
          "dependentGloss": "Funken"
        },
        {
          "dep": "conj",
          "governor": 2,
          "governorGloss": "Militanten",
          "dependent": 10,
          "dependentGloss": "Terror"
        },
        {
          "dep": "name",
          "governor": 12,
          "governorGloss": "Fears",
          "dependent": 11,
          "dependentGloss": "Attack"
        },
        {
          "dep": "appos",
          "governor": 10,
          "governorGloss": "Terror",
          "dependent": 12,
          "dependentGloss": "Fears"
        }
      ],
      "enhancedPlusPlusDependencies": [
        {
          "dep": "ROOT",
          "governor": 0,
          "governorGloss": "ROOT",
          "dependent": 1,
          "dependentGloss": "Islamistische"
        },
        {
          "dep": "appos",
          "governor": 1,
          "governorGloss": "Islamistische",
          "dependent": 2,
          "dependentGloss": "Militanten"
        },
        {
          "dep": "appos",
          "governor": 2,
          "governorGloss": "Militanten",
          "dependent": 3,
          "dependentGloss": "Stehlen"
        },
        {
          "dep": "amod",
          "governor": 5,
          "governorGloss": "Gewerbeflächen",
          "dependent": 4,
          "dependentGloss": "'11"
        },
        {
          "dep": "det",
          "governor": 3,
          "governorGloss": "Stehlen",
          "dependent": 5,
          "dependentGloss": "Gewerbeflächen"
        },
        {
          "dep": "case",
          "governor": 7,
          "governorGloss": "Libyen",
          "dependent": 6,
          "dependentGloss": "in"
        },
        {
          "dep": "nmod",
          "governor": 5,
          "governorGloss": "Gewerbeflächen",
          "dependent": 7,
          "dependentGloss": "Libyen"
        },
        {
          "dep": "punct",
          "governor": 2,
          "governorGloss": "Militanten",
          "dependent": 8,
          "dependentGloss": ","
        },
        {
          "dep": "name",
          "governor": 10,
          "governorGloss": "Terror",
          "dependent": 9,
          "dependentGloss": "Funken"
        },
        {
          "dep": "conj",
          "governor": 2,
          "governorGloss": "Militanten",
          "dependent": 10,
          "dependentGloss": "Terror"
        },
        {
          "dep": "name",
          "governor": 12,
          "governorGloss": "Fears",
          "dependent": 11,
          "dependentGloss": "Attack"
        },
        {
          "dep": "appos",
          "governor": 10,
          "governorGloss": "Terror",
          "dependent": 12,
          "dependentGloss": "Fears"
        }
      ],
      "tokens": [
        {
          "index": 1,
          "word": "Islamistische",
          "originalText": "Islamistische",
          "characterOffsetBegin": 0,
          "characterOffsetEnd": 13,
          "pos": "ADJA",
          "before": "",
          "after": " "
        },
        {
          "index": 2,
          "word": "Militanten",
          "originalText": "Militanten",
          "characterOffsetBegin": 14,
          "characterOffsetEnd": 24,
          "pos": "NN",
          "before": " ",
          "after": " "
        },
        {
          "index": 3,
          "word": "Stehlen",
          "originalText": "Stehlen",
          "characterOffsetBegin": 25,
          "characterOffsetEnd": 32,
          "pos": "NE",
          "before": " ",
          "after": " "
        },
        {
          "index": 4,
          "word": "'11",
          "originalText": "'11",
          "characterOffsetBegin": 33,
          "characterOffsetEnd": 36,
          "pos": "CARD",
          "before": " ",
          "after": " "
        },
        {
          "index": 5,
          "word": "Gewerbeflächen",
          "originalText": "Gewerbeflächen",
          "characterOffsetBegin": 37,
          "characterOffsetEnd": 51,
          "pos": "NN",
          "before": " ",
          "after": " "
        },
        {
          "index": 6,
          "word": "in",
          "originalText": "in",
          "characterOffsetBegin": 52,
          "characterOffsetEnd": 54,
          "pos": "APPR",
          "before": " ",
          "after": " "
        },
        {
          "index": 7,
          "word": "Libyen",
          "originalText": "Libyen",
          "characterOffsetBegin": 55,
          "characterOffsetEnd": 61,
          "pos": "NE",
          "before": " ",
          "after": ""
        },
        {
          "index": 8,
          "word": ",",
          "originalText": ",",
          "characterOffsetBegin": 61,
          "characterOffsetEnd": 62,
          "pos": "$,",
          "before": "",
          "after": " "
        },
        {
          "index": 9,
          "word": "Funken",
          "originalText": "Funken",
          "characterOffsetBegin": 63,
          "characterOffsetEnd": 69,
          "pos": "NN",
          "before": " ",
          "after": " "
        },
        {
          "index": 10,
          "word": "Terror",
          "originalText": "Terror",
          "characterOffsetBegin": 70,
          "characterOffsetEnd": 76,
          "pos": "NN",
          "before": " ",
          "after": " "
        },
        {
          "index": 11,
          "word": "Attack",
          "originalText": "Attack",
          "characterOffsetBegin": 77,
          "characterOffsetEnd": 83,
          "pos": "NE",
          "before": " ",
          "after": " "
        },
        {
          "index": 12,
          "word": "Fears",
          "originalText": "Fears",
          "characterOffsetBegin": 84,
          "characterOffsetEnd": 89,
          "pos": "NE",
          "before": " ",
          "after": ""
        }
      ]
    }
  ]
}