{
  "sentences": [
    {
      "index": 0,
      "basicDependencies": [
        {
          "dep": "ROOT",
          "governor": 0,
          "governorGloss": "ROOT",
          "dependent": 1,
          "dependentGloss": "#ISIS"
        },
        {
          "dep": "nsubj",
          "governor": 1,
          "governorGloss": "#ISIS",
          "dependent": 2,
          "dependentGloss": "Beheads"
        },
        {
          "dep": "appos",
          "governor": 2,
          "governorGloss": "Beheads",
          "dependent": 3,
          "dependentGloss": "Fotojournalist"
        },
        {
          "dep": "name",
          "governor": 5,
          "governorGloss": "Wright",
          "dependent": 4,
          "dependentGloss": "James"
        },
        {
          "dep": "appos",
          "governor": 3,
          "governorGloss": "Fotojournalist",
          "dependent": 5,
          "dependentGloss": "Wright"
        },
        {
          "dep": "dobj",
          "governor": 3,
          "governorGloss": "Fotojournalist",
          "dependent": 6,
          "dependentGloss": "Foley"
        },
        {
          "dep": "case",
          "governor": 9,
          "governorGloss": "Massage",
          "dependent": 7,
          "dependentGloss": "in"
        },
        {
          "dep": "det",
          "governor": 9,
          "governorGloss": "Massage",
          "dependent": 8,
          "dependentGloss": "einer"
        },
        {
          "dep": "nmod",
          "governor": 6,
          "governorGloss": "Foley",
          "dependent": 9,
          "dependentGloss": "Massage"
        },
        {
          "dep": "case",
          "governor": 11,
          "governorGloss": "US",
          "dependent": 10,
          "dependentGloss": "nach"
        },
        {
          "dep": "nmod",
          "governor": 9,
          "governorGloss": "Massage",
          "dependent": 11,
          "dependentGloss": "US"
        },
        {
          "dep": "punct",
          "governor": 6,
          "governorGloss": "Foley",
          "dependent": 12,
          "dependentGloss": ","
        },
        {
          "dep": "mark",
          "governor": 19,
          "governorGloss": "beenden",
          "dependent": 13,
          "dependentGloss": "um"
        },
        {
          "dep": "det",
          "governor": 15,
          "governorGloss": "Intervention",
          "dependent": 14,
          "dependentGloss": "seine"
        },
        {
          "dep": "dobj",
          "governor": 19,
          "governorGloss": "beenden",
          "dependent": 15,
          "dependentGloss": "Intervention"
        },
        {
          "dep": "case",
          "governor": 17,
          "governorGloss": "#Iraq",
          "dependent": 16,
          "dependentGloss": "in"
        },
        {
          "dep": "nmod",
          "governor": 19,
          "governorGloss": "beenden",
          "dependent": 17,
          "dependentGloss": "#Iraq"
        },
        {
          "dep": "aux",
          "governor": 19,
          "governorGloss": "beenden",
          "dependent": 18,
          "dependentGloss": "zu"
        },
        {
          "dep": "advcl",
          "governor": 6,
          "governorGloss": "Foley",
          "dependent": 19,
          "dependentGloss": "beenden"
        },
        {
          "dep": "punct",
          "governor": 1,
          "governorGloss": "#ISIS",
          "dependent": 20,
          "dependentGloss": "."
        }
      ],
      "enhancedDependencies": [
        {
          "dep": "ROOT",
          "governor": 0,
          "governorGloss": "ROOT",
          "dependent": 1,
          "dependentGloss": "#ISIS"
        },
        {
          "dep": "nsubj",
          "governor": 1,
          "governorGloss": "#ISIS",
          "dependent": 2,
          "dependentGloss": "Beheads"
        },
        {
          "dep": "appos",
          "governor": 2,
          "governorGloss": "Beheads",
          "dependent": 3,
          "dependentGloss": "Fotojournalist"
        },
        {
          "dep": "name",
          "governor": 5,
          "governorGloss": "Wright",
          "dependent": 4,
          "dependentGloss": "James"
        },
        {
          "dep": "appos",
          "governor": 3,
          "governorGloss": "Fotojournalist",
          "dependent": 5,
          "dependentGloss": "Wright"
        },
        {
          "dep": "dobj",
          "governor": 3,
          "governorGloss": "Fotojournalist",
          "dependent": 6,
          "dependentGloss": "Foley"
        },
        {
          "dep": "case",
          "governor": 9,
          "governorGloss": "Massage",
          "dependent": 7,
          "dependentGloss": "in"
        },
        {
          "dep": "det",
          "governor": 9,
          "governorGloss": "Massage",
          "dependent": 8,
          "dependentGloss": "einer"
        },
        {
          "dep": "nmod",
          "governor": 6,
          "governorGloss": "Foley",
          "dependent": 9,
          "dependentGloss": "Massage"
        },
        {
          "dep": "case",
          "governor": 11,
          "governorGloss": "US",
          "dependent": 10,
          "dependentGloss": "nach"
        },
        {
          "dep": "nmod",
          "governor": 9,
          "governorGloss": "Massage",
          "dependent": 11,
          "dependentGloss": "US"
        },
        {
          "dep": "punct",
          "governor": 6,
          "governorGloss": "Foley",
          "dependent": 12,
          "dependentGloss": ","
        },
        {
          "dep": "mark",
          "governor": 19,
          "governorGloss": "beenden",
          "dependent": 13,
          "dependentGloss": "um"
        },
        {
          "dep": "det",
          "governor": 15,
          "governorGloss": "Intervention",
          "dependent": 14,
          "dependentGloss": "seine"
        },
        {
          "dep": "dobj",
          "governor": 19,
          "governorGloss": "beenden",
          "dependent": 15,
          "dependentGloss": "Intervention"
        },
        {
          "dep": "case",
          "governor": 17,
          "governorGloss": "#Iraq",
          "dependent": 16,
          "dependentGloss": "in"
        },
        {
          "dep": "nmod",
          "governor": 19,
          "governorGloss": "beenden",
          "dependent": 17,
          "dependentGloss": "#Iraq"
        },
        {
          "dep": "aux",
          "governor": 19,
          "governorGloss": "beenden",
          "dependent": 18,
          "dependentGloss": "zu"
        },
        {
          "dep": "advcl",
          "governor": 6,
          "governorGloss": "Foley",
          "dependent": 19,
          "dependentGloss": "beenden"
        },
        {
          "dep": "punct",
          "governor": 1,
          "governorGloss": "#ISIS",
          "dependent": 20,
          "dependentGloss": "."
        }
      ],
      "enhancedPlusPlusDependencies": [
        {
          "dep": "ROOT",
          "governor": 0,
          "governorGloss": "ROOT",
          "dependent": 1,
          "dependentGloss": "#ISIS"
        },
        {
          "dep": "nsubj",
          "governor": 1,
          "governorGloss": "#ISIS",
          "dependent": 2,
          "dependentGloss": "Beheads"
        },
        {
          "dep": "appos",
          "governor": 2,
          "governorGloss": "Beheads",
          "dependent": 3,
          "dependentGloss": "Fotojournalist"
        },
        {
          "dep": "name",
          "governor": 5,
          "governorGloss": "Wright",
          "dependent": 4,
          "dependentGloss": "James"
        },
        {
          "dep": "appos",
          "governor": 3,
          "governorGloss": "Fotojournalist",
          "dependent": 5,
          "dependentGloss": "Wright"
        },
        {
          "dep": "dobj",
          "governor": 3,
          "governorGloss": "Fotojournalist",
          "dependent": 6,
          "dependentGloss": "Foley"
        },
        {
          "dep": "case",
          "governor": 9,
          "governorGloss": "Massage",
          "dependent": 7,
          "dependentGloss": "in"
        },
        {
          "dep": "det",
          "governor": 9,
          "governorGloss": "Massage",
          "dependent": 8,
          "dependentGloss": "einer"
        },
        {
          "dep": "nmod",
          "governor": 6,
          "governorGloss": "Foley",
          "dependent": 9,
          "dependentGloss": "Massage"
        },
        {
          "dep": "case",
          "governor": 11,
          "governorGloss": "US",
          "dependent": 10,
          "dependentGloss": "nach"
        },
        {
          "dep": "nmod",
          "governor": 9,
          "governorGloss": "Massage",
          "dependent": 11,
          "dependentGloss": "US"
        },
        {
          "dep": "punct",
          "governor": 6,
          "governorGloss": "Foley",
          "dependent": 12,
          "dependentGloss": ","
        },
        {
          "dep": "mark",
          "governor": 19,
          "governorGloss": "beenden",
          "dependent": 13,
          "dependentGloss": "um"
        },
        {
          "dep": "det",
          "governor": 15,
          "governorGloss": "Intervention",
          "dependent": 14,
          "dependentGloss": "seine"
        },
        {
          "dep": "dobj",
          "governor": 19,
          "governorGloss": "beenden",
          "dependent": 15,
          "dependentGloss": "Intervention"
        },
        {
          "dep": "case",
          "governor": 17,
          "governorGloss": "#Iraq",
          "dependent": 16,
          "dependentGloss": "in"
        },
        {
          "dep": "nmod",
          "governor": 19,
          "governorGloss": "beenden",
          "dependent": 17,
          "dependentGloss": "#Iraq"
        },
        {
          "dep": "aux",
          "governor": 19,
          "governorGloss": "beenden",
          "dependent": 18,
          "dependentGloss": "zu"
        },
        {
          "dep": "advcl",
          "governor": 6,
          "governorGloss": "Foley",
          "dependent": 19,
          "dependentGloss": "beenden"
        },
        {
          "dep": "punct",
          "governor": 1,
          "governorGloss": "#ISIS",
          "dependent": 20,
          "dependentGloss": "."
        }
      ],
      "tokens": [
        {
          "index": 1,
          "word": "#ISIS",
          "originalText": "#ISIS",
          "characterOffsetBegin": 0,
          "characterOffsetEnd": 5,
          "pos": "NE",
          "before": "",
          "after": " "
        },
        {
          "index": 2,
          "word": "Beheads",
          "originalText": "Beheads",
          "characterOffsetBegin": 6,
          "characterOffsetEnd": 13,
          "pos": "NE",
          "before": " ",
          "after": " "
        },
        {
          "index": 3,
          "word": "Fotojournalist",
          "originalText": "Fotojournalist",
          "characterOffsetBegin": 14,
          "characterOffsetEnd": 28,
          "pos": "NN",
          "before": " ",
          "after": " "
        },
        {
          "index": 4,
          "word": "James",
          "originalText": "James",
          "characterOffsetBegin": 29,
          "characterOffsetEnd": 34,
          "pos": "NE",
          "before": " ",
          "after": " "
        },
        {
          "index": 5,
          "word": "Wright",
          "originalText": "Wright",
          "characterOffsetBegin": 35,
          "characterOffsetEnd": 41,
          "pos": "NE",
          "before": " ",
          "after": " "
        },
        {
          "index": 6,
          "word": "Foley",
          "originalText": "Foley",
          "characterOffsetBegin": 42,
          "characterOffsetEnd": 47,
          "pos": "NE",
          "before": " ",
          "after": " "
        },
        {
          "index": 7,
          "word": "in",
          "originalText": "in",
          "characterOffsetBegin": 48,
          "characterOffsetEnd": 50,
          "pos": "APPR",
          "before": " ",
          "after": " "
        },
        {
          "index": 8,
          "word": "einer",
          "originalText": "einer",
          "characterOffsetBegin": 51,
          "characterOffsetEnd": 56,
          "pos": "ART",
          "before": " ",
          "after": " "
        },
        {
          "index": 9,
          "word": "Massage",
          "originalText": "Massage",
          "characterOffsetBegin": 57,
          "characterOffsetEnd": 64,
          "pos": "NN",
          "before": " ",
          "after": " "
        },
        {
          "index": 10,
          "word": "nach",
          "originalText": "nach",
          "characterOffsetBegin": 65,
          "characterOffsetEnd": 69,
          "pos": "APPR",
          "before": " ",
          "after": " "
        },
        {
          "index": 11,
          "word": "US",
          "originalText": "US",
          "characterOffsetBegin": 70,
          "characterOffsetEnd": 72,
          "pos": "NN",
          "before": " ",
          "after": ""
        },
        {
          "index": 12,
          "word": ",",
          "originalText": ",",
          "characterOffsetBegin": 72,
          "characterOffsetEnd": 73,
          "pos": "$,",
          "before": "",
          "after": " "
        },
        {
          "index": 13,
          "word": "um",
          "originalText": "um",
          "characterOffsetBegin": 74,
          "characterOffsetEnd": 76,
          "pos": "KOUI",
          "before": " ",
          "after": " "
        },
        {
          "index": 14,
          "word": "seine",
          "originalText": "seine",
          "characterOffsetBegin": 77,
          "characterOffsetEnd": 82,
          "pos": "PPOSAT",
          "before": " ",
          "after": " "
        },
        {
          "index": 15,
          "word": "Intervention",
          "originalText": "Intervention",
          "characterOffsetBegin": 83,
          "characterOffsetEnd": 95,
          "pos": "NN",
          "before": " ",
          "after": " "
        },
        {
          "index": 16,
          "word": "in",
          "originalText": "in",
          "characterOffsetBegin": 96,
          "characterOffsetEnd": 98,
          "pos": "APPR",
          "before": " ",
          "after": " "
        },
        {
          "index": 17,
          "word": "#Iraq",
          "originalText": "#Iraq",
          "characterOffsetBegin": 99,
          "characterOffsetEnd": 104,
          "pos": "NE",
          "before": " ",
          "after": " "
        },
        {
          "index": 18,
          "word": "zu",
          "originalText": "zu",
          "characterOffsetBegin": 105,
          "characterOffsetEnd": 107,
          "pos": "PTKZU",
          "before": " ",
          "after": " "
        },
        {
          "index": 19,
          "word": "beenden",
          "originalText": "beenden",
          "characterOffsetBegin": 108,
          "characterOffsetEnd": 115,
          "pos": "VVINF",
          "before": " ",
          "after": ""
        },
        {
          "index": 20,
          "word": ".",
          "originalText": ".",
          "characterOffsetBegin": 115,
          "characterOffsetEnd": 116,
          "pos": "$.",
          "before": "",
          "after": ""
        }
      ]
    }
  ]
}