{
  "sentences": [
    {
      "index": 0,
      "basicDependencies": [
        {
          "dep": "ROOT",
          "governor": 0,
          "governorGloss": "ROOT",
          "dependent": 29,
          "dependentGloss": "fährt"
        },
        {
          "dep": "amod",
          "governor": 2,
          "governorGloss": "Yorker",
          "dependent": 1,
          "dependentGloss": "New"
        },
        {
          "dep": "amod",
          "governor": 3,
          "governorGloss": "Schuljunge",
          "dependent": 2,
          "dependentGloss": "Yorker"
        },
        {
          "dep": "nsubj",
          "governor": 29,
          "governorGloss": "fährt",
          "dependent": 3,
          "dependentGloss": "Schuljunge"
        },
        {
          "dep": "punct",
          "governor": 3,
          "governorGloss": "Schuljunge",
          "dependent": 4,
          "dependentGloss": ","
        },
        {
          "dep": "det",
          "governor": 6,
          "governorGloss": "$",
          "dependent": 5,
          "dependentGloss": "der"
        },
        {
          "dep": "nsubj",
          "governor": 12,
          "governorGloss": "machte",
          "dependent": 6,
          "dependentGloss": "$"
        },
        {
          "dep": "amod",
          "governor": 8,
          "governorGloss": "Handelsbestände",
          "dependent": 7,
          "dependentGloss": "72MILLION"
        },
        {
          "dep": "det",
          "governor": 6,
          "governorGloss": "$",
          "dependent": 8,
          "dependentGloss": "Handelsbestände"
        },
        {
          "dep": "case",
          "governor": 11,
          "governorGloss": "Mittagspausen",
          "dependent": 9,
          "dependentGloss": "auf"
        },
        {
          "dep": "det",
          "governor": 11,
          "governorGloss": "Mittagspausen",
          "dependent": 10,
          "dependentGloss": "seinen"
        },
        {
          "dep": "nmod",
          "governor": 12,
          "governorGloss": "machte",
          "dependent": 11,
          "dependentGloss": "Mittagspausen"
        },
        {
          "dep": "acl",
          "governor": 3,
          "governorGloss": "Schuljunge",
          "dependent": 12,
          "dependentGloss": "machte"
        },
        {
          "dep": "punct",
          "governor": 12,
          "governorGloss": "machte",
          "dependent": 13,
          "dependentGloss": "-"
        },
        {
          "dep": "cc",
          "governor": 12,
          "governorGloss": "machte",
          "dependent": 14,
          "dependentGloss": "und"
        },
        {
          "dep": "conj",
          "governor": 12,
          "governorGloss": "machte",
          "dependent": 15,
          "dependentGloss": "nimmt"
        },
        {
          "dep": "advmod",
          "governor": 12,
          "governorGloss": "machte",
          "dependent": 16,
          "dependentGloss": "jetzt"
        },
        {
          "dep": "det",
          "governor": 18,
          "governorGloss": "Freunde",
          "dependent": 17,
          "dependentGloss": "seine"
        },
        {
          "dep": "dobj",
          "governor": 12,
          "governorGloss": "machte",
          "dependent": 18,
          "dependentGloss": "Freunde"
        },
        {
          "dep": "mark",
          "governor": 12,
          "governorGloss": "machte",
          "dependent": 19,
          "dependentGloss": "heraus"
        },
        {
          "dep": "punct",
          "governor": 12,
          "governorGloss": "machte",
          "dependent": 20,
          "dependentGloss": ","
        },
        {
          "dep": "mark",
          "governor": 27,
          "governorGloss": "speisen",
          "dependent": 21,
          "dependentGloss": "um"
        },
        {
          "dep": "case",
          "governor": 23,
          "governorGloss": "$",
          "dependent": 22,
          "dependentGloss": "auf"
        },
        {
          "dep": "nmod",
          "governor": 24,
          "governorGloss": "400",
          "dependent": 23,
          "dependentGloss": "$"
        },
        {
          "dep": "nummod",
          "governor": 25,
          "governorGloss": "Kaviar",
          "dependent": 24,
          "dependentGloss": "400"
        },
        {
          "dep": "dobj",
          "governor": 27,
          "governorGloss": "speisen",
          "dependent": 25,
          "dependentGloss": "Kaviar"
        },
        {
          "dep": "aux",
          "governor": 27,
          "governorGloss": "speisen",
          "dependent": 26,
          "dependentGloss": "zu"
        },
        {
          "dep": "advcl",
          "governor": 12,
          "governorGloss": "machte",
          "dependent": 27,
          "dependentGloss": "speisen"
        },
        {
          "dep": "punct",
          "governor": 3,
          "governorGloss": "Schuljunge",
          "dependent": 28,
          "dependentGloss": ","
        },
        {
          "dep": "det",
          "governor": 31,
          "governorGloss": "BMW",
          "dependent": 30,
          "dependentGloss": "einen"
        },
        {
          "dep": "dobj",
          "governor": 29,
          "governorGloss": "fährt",
          "dependent": 31,
          "dependentGloss": "BMW"
        },
        {
          "dep": "cc",
          "governor": 29,
          "governorGloss": "fährt",
          "dependent": 32,
          "dependentGloss": "und"
        },
        {
          "dep": "aux",
          "governor": 38,
          "governorGloss": "gemacht",
          "dependent": 33,
          "dependentGloss": "hat"
        },
        {
          "dep": "advmod",
          "governor": 38,
          "governorGloss": "gemacht",
          "dependent": 34,
          "dependentGloss": "definitiv"
        },
        {
          "dep": "det",
          "governor": 37,
          "governorGloss": "stolz",
          "dependent": 35,
          "dependentGloss": "seine"
        },
        {
          "dep": "amod",
          "governor": 37,
          "governorGloss": "stolz",
          "dependent": 36,
          "dependentGloss": "Immigranten-Eltern"
        },
        {
          "dep": "dobj",
          "governor": 38,
          "governorGloss": "gemacht",
          "dependent": 37,
          "dependentGloss": "stolz"
        },
        {
          "dep": "conj",
          "governor": 29,
          "governorGloss": "fährt",
          "dependent": 38,
          "dependentGloss": "gemacht"
        }
      ],
      "enhancedDependencies": [
        {
          "dep": "ROOT",
          "governor": 0,
          "governorGloss": "ROOT",
          "dependent": 29,
          "dependentGloss": "fährt"
        },
        {
          "dep": "amod",
          "governor": 2,
          "governorGloss": "Yorker",
          "dependent": 1,
          "dependentGloss": "New"
        },
        {
          "dep": "amod",
          "governor": 3,
          "governorGloss": "Schuljunge",
          "dependent": 2,
          "dependentGloss": "Yorker"
        },
        {
          "dep": "nsubj",
          "governor": 29,
          "governorGloss": "fährt",
          "dependent": 3,
          "dependentGloss": "Schuljunge"
        },
        {
          "dep": "punct",
          "governor": 3,
          "governorGloss": "Schuljunge",
          "dependent": 4,
          "dependentGloss": ","
        },
        {
          "dep": "det",
          "governor": 6,
          "governorGloss": "$",
          "dependent": 5,
          "dependentGloss": "der"
        },
        {
          "dep": "nsubj",
          "governor": 12,
          "governorGloss": "machte",
          "dependent": 6,
          "dependentGloss": "$"
        },
        {
          "dep": "amod",
          "governor": 8,
          "governorGloss": "Handelsbestände",
          "dependent": 7,
          "dependentGloss": "72MILLION"
        },
        {
          "dep": "det",
          "governor": 6,
          "governorGloss": "$",
          "dependent": 8,
          "dependentGloss": "Handelsbestände"
        },
        {
          "dep": "case",
          "governor": 11,
          "governorGloss": "Mittagspausen",
          "dependent": 9,
          "dependentGloss": "auf"
        },
        {
          "dep": "det",
          "governor": 11,
          "governorGloss": "Mittagspausen",
          "dependent": 10,
          "dependentGloss": "seinen"
        },
        {
          "dep": "nmod",
          "governor": 12,
          "governorGloss": "machte",
          "dependent": 11,
          "dependentGloss": "Mittagspausen"
        },
        {
          "dep": "acl",
          "governor": 3,
          "governorGloss": "Schuljunge",
          "dependent": 12,
          "dependentGloss": "machte"
        },
        {
          "dep": "punct",
          "governor": 12,
          "governorGloss": "machte",
          "dependent": 13,
          "dependentGloss": "-"
        },
        {
          "dep": "cc",
          "governor": 12,
          "governorGloss": "machte",
          "dependent": 14,
          "dependentGloss": "und"
        },
        {
          "dep": "acl",
          "governor": 3,
          "governorGloss": "Schuljunge",
          "dependent": 15,
          "dependentGloss": "nimmt"
        },
        {
          "dep": "conj:und",
          "governor": 12,
          "governorGloss": "machte",
          "dependent": 15,
          "dependentGloss": "nimmt"
        },
        {
          "dep": "advmod",
          "governor": 12,
          "governorGloss": "machte",
          "dependent": 16,
          "dependentGloss": "jetzt"
        },
        {
          "dep": "det",
          "governor": 18,
          "governorGloss": "Freunde",
          "dependent": 17,
          "dependentGloss": "seine"
        },
        {
          "dep": "dobj",
          "governor": 12,
          "governorGloss": "machte",
          "dependent": 18,
          "dependentGloss": "Freunde"
        },
        {
          "dep": "mark",
          "governor": 12,
          "governorGloss": "machte",
          "dependent": 19,
          "dependentGloss": "heraus"
        },
        {
          "dep": "punct",
          "governor": 12,
          "governorGloss": "machte",
          "dependent": 20,
          "dependentGloss": ","
        },
        {
          "dep": "mark",
          "governor": 27,
          "governorGloss": "speisen",
          "dependent": 21,
          "dependentGloss": "um"
        },
        {
          "dep": "case",
          "governor": 23,
          "governorGloss": "$",
          "dependent": 22,
          "dependentGloss": "auf"
        },
        {
          "dep": "nmod",
          "governor": 24,
          "governorGloss": "400",
          "dependent": 23,
          "dependentGloss": "$"
        },
        {
          "dep": "nummod",
          "governor": 25,
          "governorGloss": "Kaviar",
          "dependent": 24,
          "dependentGloss": "400"
        },
        {
          "dep": "dobj",
          "governor": 27,
          "governorGloss": "speisen",
          "dependent": 25,
          "dependentGloss": "Kaviar"
        },
        {
          "dep": "aux",
          "governor": 27,
          "governorGloss": "speisen",
          "dependent": 26,
          "dependentGloss": "zu"
        },
        {
          "dep": "advcl",
          "governor": 12,
          "governorGloss": "machte",
          "dependent": 27,
          "dependentGloss": "speisen"
        },
        {
          "dep": "punct",
          "governor": 3,
          "governorGloss": "Schuljunge",
          "dependent": 28,
          "dependentGloss": ","
        },
        {
          "dep": "det",
          "governor": 31,
          "governorGloss": "BMW",
          "dependent": 30,
          "dependentGloss": "einen"
        },
        {
          "dep": "dobj",
          "governor": 29,
          "governorGloss": "fährt",
          "dependent": 31,
          "dependentGloss": "BMW"
        },
        {
          "dep": "cc",
          "governor": 29,
          "governorGloss": "fährt",
          "dependent": 32,
          "dependentGloss": "und"
        },
        {
          "dep": "aux",
          "governor": 38,
          "governorGloss": "gemacht",
          "dependent": 33,
          "dependentGloss": "hat"
        },
        {
          "dep": "advmod",
          "governor": 38,
          "governorGloss": "gemacht",
          "dependent": 34,
          "dependentGloss": "definitiv"
        },
        {
          "dep": "det",
          "governor": 37,
          "governorGloss": "stolz",
          "dependent": 35,
          "dependentGloss": "seine"
        },
        {
          "dep": "amod",
          "governor": 37,
          "governorGloss": "stolz",
          "dependent": 36,
          "dependentGloss": "Immigranten-Eltern"
        },
        {
          "dep": "dobj",
          "governor": 38,
          "governorGloss": "gemacht",
          "dependent": 37,
          "dependentGloss": "stolz"
        },
        {
          "dep": "conj:und",
          "governor": 29,
          "governorGloss": "fährt",
          "dependent": 38,
          "dependentGloss": "gemacht"
        }
      ],
      "enhancedPlusPlusDependencies": [
        {
          "dep": "ROOT",
          "governor": 0,
          "governorGloss": "ROOT",
          "dependent": 29,
          "dependentGloss": "fährt"
        },
        {
          "dep": "amod",
          "governor": 2,
          "governorGloss": "Yorker",
          "dependent": 1,
          "dependentGloss": "New"
        },
        {
          "dep": "amod",
          "governor": 3,
          "governorGloss": "Schuljunge",
          "dependent": 2,
          "dependentGloss": "Yorker"
        },
        {
          "dep": "nsubj",
          "governor": 29,
          "governorGloss": "fährt",
          "dependent": 3,
          "dependentGloss": "Schuljunge"
        },
        {
          "dep": "punct",
          "governor": 3,
          "governorGloss": "Schuljunge",
          "dependent": 4,
          "dependentGloss": ","
        },
        {
          "dep": "det",
          "governor": 6,
          "governorGloss": "$",
          "dependent": 5,
          "dependentGloss": "der"
        },
        {
          "dep": "nsubj",
          "governor": 12,
          "governorGloss": "machte",
          "dependent": 6,
          "dependentGloss": "$"
        },
        {
          "dep": "amod",
          "governor": 8,
          "governorGloss": "Handelsbestände",
          "dependent": 7,
          "dependentGloss": "72MILLION"
        },
        {
          "dep": "det",
          "governor": 6,
          "governorGloss": "$",
          "dependent": 8,
          "dependentGloss": "Handelsbestände"
        },
        {
          "dep": "case",
          "governor": 11,
          "governorGloss": "Mittagspausen",
          "dependent": 9,
          "dependentGloss": "auf"
        },
        {
          "dep": "det",
          "governor": 11,
          "governorGloss": "Mittagspausen",
          "dependent": 10,
          "dependentGloss": "seinen"
        },
        {
          "dep": "nmod",
          "governor": 12,
          "governorGloss": "machte",
          "dependent": 11,
          "dependentGloss": "Mittagspausen"
        },
        {
          "dep": "acl",
          "governor": 3,
          "governorGloss": "Schuljunge",
          "dependent": 12,
          "dependentGloss": "machte"
        },
        {
          "dep": "punct",
          "governor": 12,
          "governorGloss": "machte",
          "dependent": 13,
          "dependentGloss": "-"
        },
        {
          "dep": "cc",
          "governor": 12,
          "governorGloss": "machte",
          "dependent": 14,
          "dependentGloss": "und"
        },
        {
          "dep": "acl",
          "governor": 3,
          "governorGloss": "Schuljunge",
          "dependent": 15,
          "dependentGloss": "nimmt"
        },
        {
          "dep": "conj:und",
          "governor": 12,
          "governorGloss": "machte",
          "dependent": 15,
          "dependentGloss": "nimmt"
        },
        {
          "dep": "advmod",
          "governor": 12,
          "governorGloss": "machte",
          "dependent": 16,
          "dependentGloss": "jetzt"
        },
        {
          "dep": "det",
          "governor": 18,
          "governorGloss": "Freunde",
          "dependent": 17,
          "dependentGloss": "seine"
        },
        {
          "dep": "dobj",
          "governor": 12,
          "governorGloss": "machte",
          "dependent": 18,
          "dependentGloss": "Freunde"
        },
        {
          "dep": "mark",
          "governor": 12,
          "governorGloss": "machte",
          "dependent": 19,
          "dependentGloss": "heraus"
        },
        {
          "dep": "punct",
          "governor": 12,
          "governorGloss": "machte",
          "dependent": 20,
          "dependentGloss": ","
        },
        {
          "dep": "mark",
          "governor": 27,
          "governorGloss": "speisen",
          "dependent": 21,
          "dependentGloss": "um"
        },
        {
          "dep": "case",
          "governor": 23,
          "governorGloss": "$",
          "dependent": 22,
          "dependentGloss": "auf"
        },
        {
          "dep": "nmod",
          "governor": 24,
          "governorGloss": "400",
          "dependent": 23,
          "dependentGloss": "$"
        },
        {
          "dep": "nummod",
          "governor": 25,
          "governorGloss": "Kaviar",
          "dependent": 24,
          "dependentGloss": "400"
        },
        {
          "dep": "dobj",
          "governor": 27,
          "governorGloss": "speisen",
          "dependent": 25,
          "dependentGloss": "Kaviar"
        },
        {
          "dep": "aux",
          "governor": 27,
          "governorGloss": "speisen",
          "dependent": 26,
          "dependentGloss": "zu"
        },
        {
          "dep": "advcl",
          "governor": 12,
          "governorGloss": "machte",
          "dependent": 27,
          "dependentGloss": "speisen"
        },
        {
          "dep": "punct",
          "governor": 3,
          "governorGloss": "Schuljunge",
          "dependent": 28,
          "dependentGloss": ","
        },
        {
          "dep": "det",
          "governor": 31,
          "governorGloss": "BMW",
          "dependent": 30,
          "dependentGloss": "einen"
        },
        {
          "dep": "dobj",
          "governor": 29,
          "governorGloss": "fährt",
          "dependent": 31,
          "dependentGloss": "BMW"
        },
        {
          "dep": "cc",
          "governor": 29,
          "governorGloss": "fährt",
          "dependent": 32,
          "dependentGloss": "und"
        },
        {
          "dep": "aux",
          "governor": 38,
          "governorGloss": "gemacht",
          "dependent": 33,
          "dependentGloss": "hat"
        },
        {
          "dep": "advmod",
          "governor": 38,
          "governorGloss": "gemacht",
          "dependent": 34,
          "dependentGloss": "definitiv"
        },
        {
          "dep": "det",
          "governor": 37,
          "governorGloss": "stolz",
          "dependent": 35,
          "dependentGloss": "seine"
        },
        {
          "dep": "amod",
          "governor": 37,
          "governorGloss": "stolz",
          "dependent": 36,
          "dependentGloss": "Immigranten-Eltern"
        },
        {
          "dep": "dobj",
          "governor": 38,
          "governorGloss": "gemacht",
          "dependent": 37,
          "dependentGloss": "stolz"
        },
        {
          "dep": "conj:und",
          "governor": 29,
          "governorGloss": "fährt",
          "dependent": 38,
          "dependentGloss": "gemacht"
        }
      ],
      "tokens": [
        {
          "index": 1,
          "word": "New",
          "originalText": "New",
          "characterOffsetBegin": 0,
          "characterOffsetEnd": 3,
          "pos": "NE",
          "before": "",
          "after": " "
        },
        {
          "index": 2,
          "word": "Yorker",
          "originalText": "Yorker",
          "characterOffsetBegin": 4,
          "characterOffsetEnd": 10,
          "pos": "ADJA",
          "before": " ",
          "after": " "
        },
        {
          "index": 3,
          "word": "Schuljunge",
          "originalText": "Schuljunge",
          "characterOffsetBegin": 11,
          "characterOffsetEnd": 21,
          "pos": "NN",
          "before": " ",
          "after": ""
        },
        {
          "index": 4,
          "word": ",",
          "originalText": ",",
          "characterOffsetBegin": 21,
          "characterOffsetEnd": 22,
          "pos": "$,",
          "before": "",
          "after": " "
        },
        {
          "index": 5,
          "word": "der",
          "originalText": "der",
          "characterOffsetBegin": 23,
          "characterOffsetEnd": 26,
          "pos": "ART",
          "before": " ",
          "after": " "
        },
        {
          "index": 6,
          "word": "$",
          "originalText": "$",
          "characterOffsetBegin": 27,
          "characterOffsetEnd": 28,
          "pos": "CARD",
          "before": " ",
          "after": " "
        },
        {
          "index": 7,
          "word": "72MILLION",
          "originalText": "72MILLION",
          "characterOffsetBegin": 29,
          "characterOffsetEnd": 38,
          "pos": "CARD",
          "before": " ",
          "after": " "
        },
        {
          "index": 8,
          "word": "Handelsbestände",
          "originalText": "Handelsbestände",
          "characterOffsetBegin": 39,
          "characterOffsetEnd": 54,
          "pos": "NN",
          "before": " ",
          "after": " "
        },
        {
          "index": 9,
          "word": "auf",
          "originalText": "auf",
          "characterOffsetBegin": 55,
          "characterOffsetEnd": 58,
          "pos": "APPR",
          "before": " ",
          "after": " "
        },
        {
          "index": 10,
          "word": "seinen",
          "originalText": "seinen",
          "characterOffsetBegin": 59,
          "characterOffsetEnd": 65,
          "pos": "PPOSAT",
          "before": " ",
          "after": " "
        },
        {
          "index": 11,
          "word": "Mittagspausen",
          "originalText": "Mittagspausen",
          "characterOffsetBegin": 66,
          "characterOffsetEnd": 79,
          "pos": "NN",
          "before": " ",
          "after": " "
        },
        {
          "index": 12,
          "word": "machte",
          "originalText": "machte",
          "characterOffsetBegin": 80,
          "characterOffsetEnd": 86,
          "pos": "VVFIN",
          "before": " ",
          "after": " "
        },
        {
          "index": 13,
          "word": "-",
          "originalText": "-",
          "characterOffsetBegin": 87,
          "characterOffsetEnd": 88,
          "pos": "$[",
          "before": " ",
          "after": " "
        },
        {
          "index": 14,
          "word": "und",
          "originalText": "und",
          "characterOffsetBegin": 89,
          "characterOffsetEnd": 92,
          "pos": "KON",
          "before": " ",
          "after": " "
        },
        {
          "index": 15,
          "word": "nimmt",
          "originalText": "nimmt",
          "characterOffsetBegin": 93,
          "characterOffsetEnd": 98,
          "pos": "VVFIN",
          "before": " ",
          "after": " "
        },
        {
          "index": 16,
          "word": "jetzt",
          "originalText": "jetzt",
          "characterOffsetBegin": 99,
          "characterOffsetEnd": 104,
          "pos": "ADV",
          "before": " ",
          "after": " "
        },
        {
          "index": 17,
          "word": "seine",
          "originalText": "seine",
          "characterOffsetBegin": 105,
          "characterOffsetEnd": 110,
          "pos": "PPOSAT",
          "before": " ",
          "after": " "
        },
        {
          "index": 18,
          "word": "Freunde",
          "originalText": "Freunde",
          "characterOffsetBegin": 111,
          "characterOffsetEnd": 118,
          "pos": "NN",
          "before": " ",
          "after": " "
        },
        {
          "index": 19,
          "word": "heraus",
          "originalText": "heraus",
          "characterOffsetBegin": 119,
          "characterOffsetEnd": 125,
          "pos": "PTKVZ",
          "before": " ",
          "after": ""
        },
        {
          "index": 20,
          "word": ",",
          "originalText": ",",
          "characterOffsetBegin": 125,
          "characterOffsetEnd": 126,
          "pos": "$,",
          "before": "",
          "after": " "
        },
        {
          "index": 21,
          "word": "um",
          "originalText": "um",
          "characterOffsetBegin": 127,
          "characterOffsetEnd": 129,
          "pos": "KOUI",
          "before": " ",
          "after": " "
        },
        {
          "index": 22,
          "word": "auf",
          "originalText": "auf",
          "characterOffsetBegin": 130,
          "characterOffsetEnd": 133,
          "pos": "APPR",
          "before": " ",
          "after": " "
        },
        {
          "index": 23,
          "word": "$",
          "originalText": "$",
          "characterOffsetBegin": 134,
          "characterOffsetEnd": 135,
          "pos": "CARD",
          "before": " ",
          "after": " "
        },
        {
          "index": 24,
          "word": "400",
          "originalText": "400",
          "characterOffsetBegin": 136,
          "characterOffsetEnd": 139,
          "pos": "CARD",
          "before": " ",
          "after": " "
        },
        {
          "index": 25,
          "word": "Kaviar",
          "originalText": "Kaviar",
          "characterOffsetBegin": 140,
          "characterOffsetEnd": 146,
          "pos": "NN",
          "before": " ",
          "after": " "
        },
        {
          "index": 26,
          "word": "zu",
          "originalText": "zu",
          "characterOffsetBegin": 147,
          "characterOffsetEnd": 149,
          "pos": "PTKZU",
          "before": " ",
          "after": " "
        },
        {
          "index": 27,
          "word": "speisen",
          "originalText": "speisen",
          "characterOffsetBegin": 150,
          "characterOffsetEnd": 157,
          "pos": "VVINF",
          "before": " ",
          "after": ""
        },
        {
          "index": 28,
          "word": ",",
          "originalText": ",",
          "characterOffsetBegin": 157,
          "characterOffsetEnd": 158,
          "pos": "$,",
          "before": "",
          "after": " "
        },
        {
          "index": 29,
          "word": "fährt",
          "originalText": "fährt",
          "characterOffsetBegin": 159,
          "characterOffsetEnd": 164,
          "pos": "VVFIN",
          "before": " ",
          "after": " "
        },
        {
          "index": 30,
          "word": "einen",
          "originalText": "einen",
          "characterOffsetBegin": 165,
          "characterOffsetEnd": 170,
          "pos": "ART",
          "before": " ",
          "after": " "
        },
        {
          "index": 31,
          "word": "BMW",
          "originalText": "BMW",
          "characterOffsetBegin": 171,
          "characterOffsetEnd": 174,
          "pos": "NE",
          "before": " ",
          "after": " "
        },
        {
          "index": 32,
          "word": "und",
          "originalText": "und",
          "characterOffsetBegin": 175,
          "characterOffsetEnd": 178,
          "pos": "KON",
          "before": " ",
          "after": " "
        },
        {
          "index": 33,
          "word": "hat",
          "originalText": "hat",
          "characterOffsetBegin": 179,
          "characterOffsetEnd": 182,
          "pos": "VAFIN",
          "before": " ",
          "after": " "
        },
        {
          "index": 34,
          "word": "definitiv",
          "originalText": "definitiv",
          "characterOffsetBegin": 183,
          "characterOffsetEnd": 192,
          "pos": "ADJD",
          "before": " ",
          "after": " "
        },
        {
          "index": 35,
          "word": "seine",
          "originalText": "seine",
          "characterOffsetBegin": 193,
          "characterOffsetEnd": 198,
          "pos": "PPOSAT",
          "before": " ",
          "after": " "
        },
        {
          "index": 36,
          "word": "Immigranten-Eltern",
          "originalText": "Immigranten-Eltern",
          "characterOffsetBegin": 199,
          "characterOffsetEnd": 217,
          "pos": "NN",
          "before": " ",
          "after": " "
        },
        {
          "index": 37,
          "word": "stolz",
          "originalText": "stolz",
          "characterOffsetBegin": 218,
          "characterOffsetEnd": 223,
          "pos": "ADJD",
          "before": " ",
          "after": " "
        },
        {
          "index": 38,
          "word": "gemacht",
          "originalText": "gemacht",
          "characterOffsetBegin": 224,
          "characterOffsetEnd": 231,
          "pos": "VVPP",
          "before": " ",
          "after": ""
        }
      ]
    }
  ]
}