{
  "sentences": [
    {
      "index": 0,
      "basicDependencies": [
        {
          "dep": "ROOT",
          "governor": 0,
          "governorGloss": "ROOT",
          "dependent": 2,
          "dependentGloss": "NEWS"
        },
        {
          "dep": "advmod",
          "governor": 2,
          "governorGloss": "NEWS",
          "dependent": 1,
          "dependentGloss": "BREAKING"
        },
        {
          "dep": "punct",
          "governor": 2,
          "governorGloss": "NEWS",
          "dependent": 3,
          "dependentGloss": ":"
        },
        {
          "dep": "amod",
          "governor": 5,
          "governorGloss": "geborener",
          "dependent": 4,
          "dependentGloss": "Britisch"
        },
        {
          "dep": "dobj",
          "governor": 11,
          "governorGloss": "getötet",
          "dependent": 5,
          "dependentGloss": "geborener"
        },
        {
          "dep": "amod",
          "governor": 8,
          "governorGloss": "Geisel",
          "dependent": 6,
          "dependentGloss": "U.S.-Fotojournalist"
        },
        {
          "dep": "amod",
          "governor": 8,
          "governorGloss": "Geisel",
          "dependent": 7,
          "dependentGloss": "hielt"
        },
        {
          "dep": "det",
          "governor": 5,
          "governorGloss": "geborener",
          "dependent": 8,
          "dependentGloss": "Geisel"
        },
        {
          "dep": "case",
          "governor": 10,
          "governorGloss": "al-Qaida",
          "dependent": 9,
          "dependentGloss": "von"
        },
        {
          "dep": "nmod",
          "governor": 8,
          "governorGloss": "Geisel",
          "dependent": 10,
          "dependentGloss": "al-Qaida"
        },
        {
          "dep": "parataxis",
          "governor": 2,
          "governorGloss": "NEWS",
          "dependent": 11,
          "dependentGloss": "getötet"
        },
        {
          "dep": "case",
          "governor": 14,
          "governorGloss": "Rettungsversuch",
          "dependent": 12,
          "dependentGloss": "in"
        },
        {
          "dep": "amod",
          "governor": 14,
          "governorGloss": "Rettungsversuch",
          "dependent": 13,
          "dependentGloss": "gescheiterten"
        },
        {
          "dep": "nmod",
          "governor": 15,
          "governorGloss": "im",
          "dependent": 14,
          "dependentGloss": "Rettungsversuch"
        },
        {
          "dep": "case",
          "governor": 11,
          "governorGloss": "getötet",
          "dependent": 15,
          "dependentGloss": "im"
        },
        {
          "dep": "nsubj",
          "governor": 15,
          "governorGloss": "im",
          "dependent": 16,
          "dependentGloss": "Jemen"
        }
      ],
      "enhancedDependencies": [
        {
          "dep": "ROOT",
          "governor": 0,
          "governorGloss": "ROOT",
          "dependent": 2,
          "dependentGloss": "NEWS"
        },
        {
          "dep": "advmod",
          "governor": 2,
          "governorGloss": "NEWS",
          "dependent": 1,
          "dependentGloss": "BREAKING"
        },
        {
          "dep": "punct",
          "governor": 2,
          "governorGloss": "NEWS",
          "dependent": 3,
          "dependentGloss": ":"
        },
        {
          "dep": "amod",
          "governor": 5,
          "governorGloss": "geborener",
          "dependent": 4,
          "dependentGloss": "Britisch"
        },
        {
          "dep": "dobj",
          "governor": 11,
          "governorGloss": "getötet",
          "dependent": 5,
          "dependentGloss": "geborener"
        },
        {
          "dep": "amod",
          "governor": 8,
          "governorGloss": "Geisel",
          "dependent": 6,
          "dependentGloss": "U.S.-Fotojournalist"
        },
        {
          "dep": "amod",
          "governor": 8,
          "governorGloss": "Geisel",
          "dependent": 7,
          "dependentGloss": "hielt"
        },
        {
          "dep": "det",
          "governor": 5,
          "governorGloss": "geborener",
          "dependent": 8,
          "dependentGloss": "Geisel"
        },
        {
          "dep": "case",
          "governor": 10,
          "governorGloss": "al-Qaida",
          "dependent": 9,
          "dependentGloss": "von"
        },
        {
          "dep": "nmod",
          "governor": 8,
          "governorGloss": "Geisel",
          "dependent": 10,
          "dependentGloss": "al-Qaida"
        },
        {
          "dep": "parataxis",
          "governor": 2,
          "governorGloss": "NEWS",
          "dependent": 11,
          "dependentGloss": "getötet"
        },
        {
          "dep": "case",
          "governor": 14,
          "governorGloss": "Rettungsversuch",
          "dependent": 12,
          "dependentGloss": "in"
        },
        {
          "dep": "amod",
          "governor": 14,
          "governorGloss": "Rettungsversuch",
          "dependent": 13,
          "dependentGloss": "gescheiterten"
        },
        {
          "dep": "nmod",
          "governor": 15,
          "governorGloss": "im",
          "dependent": 14,
          "dependentGloss": "Rettungsversuch"
        },
        {
          "dep": "case",
          "governor": 11,
          "governorGloss": "getötet",
          "dependent": 15,
          "dependentGloss": "im"
        },
        {
          "dep": "nsubj",
          "governor": 15,
          "governorGloss": "im",
          "dependent": 16,
          "dependentGloss": "Jemen"
        }
      ],
      "enhancedPlusPlusDependencies": [
        {
          "dep": "ROOT",
          "governor": 0,
          "governorGloss": "ROOT",
          "dependent": 2,
          "dependentGloss": "NEWS"
        },
        {
          "dep": "advmod",
          "governor": 2,
          "governorGloss": "NEWS",
          "dependent": 1,
          "dependentGloss": "BREAKING"
        },
        {
          "dep": "punct",
          "governor": 2,
          "governorGloss": "NEWS",
          "dependent": 3,
          "dependentGloss": ":"
        },
        {
          "dep": "amod",
          "governor": 5,
          "governorGloss": "geborener",
          "dependent": 4,
          "dependentGloss": "Britisch"
        },
        {
          "dep": "dobj",
          "governor": 11,
          "governorGloss": "getötet",
          "dependent": 5,
          "dependentGloss": "geborener"
        },
        {
          "dep": "amod",
          "governor": 8,
          "governorGloss": "Geisel",
          "dependent": 6,
          "dependentGloss": "U.S.-Fotojournalist"
        },
        {
          "dep": "amod",
          "governor": 8,
          "governorGloss": "Geisel",
          "dependent": 7,
          "dependentGloss": "hielt"
        },
        {
          "dep": "det",
          "governor": 5,
          "governorGloss": "geborener",
          "dependent": 8,
          "dependentGloss": "Geisel"
        },
        {
          "dep": "case",
          "governor": 10,
          "governorGloss": "al-Qaida",
          "dependent": 9,
          "dependentGloss": "von"
        },
        {
          "dep": "nmod",
          "governor": 8,
          "governorGloss": "Geisel",
          "dependent": 10,
          "dependentGloss": "al-Qaida"
        },
        {
          "dep": "parataxis",
          "governor": 2,
          "governorGloss": "NEWS",
          "dependent": 11,
          "dependentGloss": "getötet"
        },
        {
          "dep": "case",
          "governor": 14,
          "governorGloss": "Rettungsversuch",
          "dependent": 12,
          "dependentGloss": "in"
        },
        {
          "dep": "amod",
          "governor": 14,
          "governorGloss": "Rettungsversuch",
          "dependent": 13,
          "dependentGloss": "gescheiterten"
        },
        {
          "dep": "nmod",
          "governor": 15,
          "governorGloss": "im",
          "dependent": 14,
          "dependentGloss": "Rettungsversuch"
        },
        {
          "dep": "case",
          "governor": 11,
          "governorGloss": "getötet",
          "dependent": 15,
          "dependentGloss": "im"
        },
        {
          "dep": "nsubj",
          "governor": 15,
          "governorGloss": "im",
          "dependent": 16,
          "dependentGloss": "Jemen"
        }
      ],
      "tokens": [
        {
          "index": 1,
          "word": "BREAKING",
          "originalText": "BREAKING",
          "characterOffsetBegin": 0,
          "characterOffsetEnd": 8,
          "pos": "NE",
          "before": "",
          "after": " "
        },
        {
          "index": 2,
          "word": "NEWS",
          "originalText": "NEWS",
          "characterOffsetBegin": 9,
          "characterOffsetEnd": 13,
          "pos": "NE",
          "before": " ",
          "after": ""
        },
        {
          "index": 3,
          "word": ":",
          "originalText": ":",
          "characterOffsetBegin": 13,
          "characterOffsetEnd": 14,
          "pos": "$.",
          "before": "",
          "after": " "
        },
        {
          "index": 4,
          "word": "Britisch",
          "originalText": "Britisch",
          "characterOffsetBegin": 15,
          "characterOffsetEnd": 23,
          "pos": "ADJD",
          "before": " ",
          "after": " "
        },
        {
          "index": 5,
          "word": "geborener",
          "originalText": "geborener",
          "characterOffsetBegin": 24,
          "characterOffsetEnd": 33,
          "pos": "ADJA",
          "before": " ",
          "after": " "
        },
        {
          "index": 6,
          "word": "U.S.-Fotojournalist",
          "originalText": "U.S.-Fotojournalist",
          "characterOffsetBegin": 34,
          "characterOffsetEnd": 53,
          "pos": "NN",
          "before": " ",
          "after": " "
        },
        {
          "index": 7,
          "word": "hielt",
          "originalText": "hielt",
          "characterOffsetBegin": 54,
          "characterOffsetEnd": 59,
          "pos": "VVFIN",
          "before": " ",
          "after": " "
        },
        {
          "index": 8,
          "word": "Geisel",
          "originalText": "Geisel",
          "characterOffsetBegin": 60,
          "characterOffsetEnd": 66,
          "pos": "NN",
          "before": " ",
          "after": " "
        },
        {
          "index": 9,
          "word": "von",
          "originalText": "von",
          "characterOffsetBegin": 67,
          "characterOffsetEnd": 70,
          "pos": "APPR",
          "before": " ",
          "after": " "
        },
        {
          "index": 10,
          "word": "al-Qaida",
          "originalText": "al-Qaida",
          "characterOffsetBegin": 71,
          "characterOffsetEnd": 79,
          "pos": "NE",
          "before": " ",
          "after": " "
        },
        {
          "index": 11,
          "word": "getötet",
          "originalText": "getötet",
          "characterOffsetBegin": 80,
          "characterOffsetEnd": 87,
          "pos": "VVPP",
          "before": " ",
          "after": " "
        },
        {
          "index": 12,
          "word": "in",
          "originalText": "in",
          "characterOffsetBegin": 88,
          "characterOffsetEnd": 90,
          "pos": "APPR",
          "before": " ",
          "after": " "
        },
        {
          "index": 13,
          "word": "gescheiterten",
          "originalText": "gescheiterten",
          "characterOffsetBegin": 91,
          "characterOffsetEnd": 104,
          "pos": "ADJA",
          "before": " ",
          "after": " "
        },
        {
          "index": 14,
          "word": "Rettungsversuch",
          "originalText": "Rettungsversuch",
          "characterOffsetBegin": 105,
          "characterOffsetEnd": 120,
          "pos": "NN",
          "before": " ",
          "after": " "
        },
        {
          "index": 15,
          "word": "im",
          "originalText": "im",
          "characterOffsetBegin": 121,
          "characterOffsetEnd": 123,
          "pos": "APPRART",
          "before": " ",
          "after": " "
        },
        {
          "index": 16,
          "word": "Jemen",
          "originalText": "Jemen",
          "characterOffsetBegin": 124,
          "characterOffsetEnd": 129,
          "pos": "NE",
          "before": " ",
          "after": ""
        }
      ]
    }
  ]
}