{
  "sentences": [
    {
      "index": 0,
      "basicDependencies": [
        {
          "dep": "ROOT",
          "governor": 0,
          "governorGloss": "ROOT",
          "dependent": 2,
          "dependentGloss": "spielt"
        },
        {
          "dep": "nsubj",
          "governor": 2,
          "governorGloss": "spielt",
          "dependent": 1,
          "dependentGloss": "CNN"
        },
        {
          "dep": "amod",
          "governor": 4,
          "governorGloss": "Audioaufzeichnungen",
          "dependent": 3,
          "dependentGloss": "kühlende"
        },
        {
          "dep": "dobj",
          "governor": 2,
          "governorGloss": "spielt",
          "dependent": 4,
          "dependentGloss": "Audioaufzeichnungen"
        },
        {
          "dep": "advmod",
          "governor": 9,
          "governorGloss": "Schießen",
          "dependent": 5,
          "dependentGloss": "angeblich"
        },
        {
          "dep": "case",
          "governor": 8,
          "governorGloss": "Brown",
          "dependent": 6,
          "dependentGloss": "von"
        },
        {
          "dep": "name",
          "governor": 8,
          "governorGloss": "Brown",
          "dependent": 7,
          "dependentGloss": "Michael"
        },
        {
          "dep": "nmod",
          "governor": 9,
          "governorGloss": "Schießen",
          "dependent": 8,
          "dependentGloss": "Brown"
        },
        {
          "dep": "xcomp",
          "governor": 2,
          "governorGloss": "spielt",
          "dependent": 9,
          "dependentGloss": "Schießen"
        },
        {
          "dep": "punct",
          "governor": 2,
          "governorGloss": "spielt",
          "dependent": 10,
          "dependentGloss": ":"
        },
        {
          "dep": "punct",
          "governor": 12,
          "governorGloss": "Mindestens",
          "dependent": 11,
          "dependentGloss": "``"
        },
        {
          "dep": "parataxis",
          "governor": 2,
          "governorGloss": "spielt",
          "dependent": 12,
          "dependentGloss": "Mindestens"
        },
        {
          "dep": "nummod",
          "governor": 14,
          "governorGloss": "Schüsse",
          "dependent": 13,
          "dependentGloss": "11"
        },
        {
          "dep": "nsubj",
          "governor": 12,
          "governorGloss": "Mindestens",
          "dependent": 14,
          "dependentGloss": "Schüsse"
        },
        {
          "dep": "punct",
          "governor": 12,
          "governorGloss": "Mindestens",
          "dependent": 15,
          "dependentGloss": "``"
        }
      ],
      "enhancedDependencies": [
        {
          "dep": "ROOT",
          "governor": 0,
          "governorGloss": "ROOT",
          "dependent": 2,
          "dependentGloss": "spielt"
        },
        {
          "dep": "nsubj",
          "governor": 2,
          "governorGloss": "spielt",
          "dependent": 1,
          "dependentGloss": "CNN"
        },
        {
          "dep": "amod",
          "governor": 4,
          "governorGloss": "Audioaufzeichnungen",
          "dependent": 3,
          "dependentGloss": "kühlende"
        },
        {
          "dep": "dobj",
          "governor": 2,
          "governorGloss": "spielt",
          "dependent": 4,
          "dependentGloss": "Audioaufzeichnungen"
        },
        {
          "dep": "advmod",
          "governor": 9,
          "governorGloss": "Schießen",
          "dependent": 5,
          "dependentGloss": "angeblich"
        },
        {
          "dep": "case",
          "governor": 8,
          "governorGloss": "Brown",
          "dependent": 6,
          "dependentGloss": "von"
        },
        {
          "dep": "name",
          "governor": 8,
          "governorGloss": "Brown",
          "dependent": 7,
          "dependentGloss": "Michael"
        },
        {
          "dep": "nmod",
          "governor": 9,
          "governorGloss": "Schießen",
          "dependent": 8,
          "dependentGloss": "Brown"
        },
        {
          "dep": "xcomp",
          "governor": 2,
          "governorGloss": "spielt",
          "dependent": 9,
          "dependentGloss": "Schießen"
        },
        {
          "dep": "punct",
          "governor": 2,
          "governorGloss": "spielt",
          "dependent": 10,
          "dependentGloss": ":"
        },
        {
          "dep": "punct",
          "governor": 12,
          "governorGloss": "Mindestens",
          "dependent": 11,
          "dependentGloss": "``"
        },
        {
          "dep": "parataxis",
          "governor": 2,
          "governorGloss": "spielt",
          "dependent": 12,
          "dependentGloss": "Mindestens"
        },
        {
          "dep": "nummod",
          "governor": 14,
          "governorGloss": "Schüsse",
          "dependent": 13,
          "dependentGloss": "11"
        },
        {
          "dep": "nsubj",
          "governor": 12,
          "governorGloss": "Mindestens",
          "dependent": 14,
          "dependentGloss": "Schüsse"
        },
        {
          "dep": "punct",
          "governor": 12,
          "governorGloss": "Mindestens",
          "dependent": 15,
          "dependentGloss": "``"
        }
      ],
      "enhancedPlusPlusDependencies": [
        {
          "dep": "ROOT",
          "governor": 0,
          "governorGloss": "ROOT",
          "dependent": 2,
          "dependentGloss": "spielt"
        },
        {
          "dep": "nsubj",
          "governor": 2,
          "governorGloss": "spielt",
          "dependent": 1,
          "dependentGloss": "CNN"
        },
        {
          "dep": "amod",
          "governor": 4,
          "governorGloss": "Audioaufzeichnungen",
          "dependent": 3,
          "dependentGloss": "kühlende"
        },
        {
          "dep": "dobj",
          "governor": 2,
          "governorGloss": "spielt",
          "dependent": 4,
          "dependentGloss": "Audioaufzeichnungen"
        },
        {
          "dep": "advmod",
          "governor": 9,
          "governorGloss": "Schießen",
          "dependent": 5,
          "dependentGloss": "angeblich"
        },
        {
          "dep": "case",
          "governor": 8,
          "governorGloss": "Brown",
          "dependent": 6,
          "dependentGloss": "von"
        },
        {
          "dep": "name",
          "governor": 8,
          "governorGloss": "Brown",
          "dependent": 7,
          "dependentGloss": "Michael"
        },
        {
          "dep": "nmod",
          "governor": 9,
          "governorGloss": "Schießen",
          "dependent": 8,
          "dependentGloss": "Brown"
        },
        {
          "dep": "xcomp",
          "governor": 2,
          "governorGloss": "spielt",
          "dependent": 9,
          "dependentGloss": "Schießen"
        },
        {
          "dep": "punct",
          "governor": 2,
          "governorGloss": "spielt",
          "dependent": 10,
          "dependentGloss": ":"
        },
        {
          "dep": "punct",
          "governor": 12,
          "governorGloss": "Mindestens",
          "dependent": 11,
          "dependentGloss": "``"
        },
        {
          "dep": "parataxis",
          "governor": 2,
          "governorGloss": "spielt",
          "dependent": 12,
          "dependentGloss": "Mindestens"
        },
        {
          "dep": "nummod",
          "governor": 14,
          "governorGloss": "Schüsse",
          "dependent": 13,
          "dependentGloss": "11"
        },
        {
          "dep": "nsubj",
          "governor": 12,
          "governorGloss": "Mindestens",
          "dependent": 14,
          "dependentGloss": "Schüsse"
        },
        {
          "dep": "punct",
          "governor": 12,
          "governorGloss": "Mindestens",
          "dependent": 15,
          "dependentGloss": "``"
        }
      ],
      "tokens": [
        {
          "index": 1,
          "word": "CNN",
          "originalText": "CNN",
          "characterOffsetBegin": 0,
          "characterOffsetEnd": 3,
          "pos": "NE",
          "before": "",
          "after": " "
        },
        {
          "index": 2,
          "word": "spielt",
          "originalText": "spielt",
          "characterOffsetBegin": 4,
          "characterOffsetEnd": 10,
          "pos": "VVFIN",
          "before": " ",
          "after": " "
        },
        {
          "index": 3,
          "word": "kühlende",
          "originalText": "kühlende",
          "characterOffsetBegin": 11,
          "characterOffsetEnd": 19,
          "pos": "ADJA",
          "before": " ",
          "after": " "
        },
        {
          "index": 4,
          "word": "Audioaufzeichnungen",
          "originalText": "Audioaufzeichnungen",
          "characterOffsetBegin": 20,
          "characterOffsetEnd": 39,
          "pos": "NN",
          "before": " ",
          "after": " "
        },
        {
          "index": 5,
          "word": "angeblich",
          "originalText": "angeblich",
          "characterOffsetBegin": 40,
          "characterOffsetEnd": 49,
          "pos": "ADJD",
          "before": " ",
          "after": " "
        },
        {
          "index": 6,
          "word": "von",
          "originalText": "von",
          "characterOffsetBegin": 50,
          "characterOffsetEnd": 53,
          "pos": "APPR",
          "before": " ",
          "after": " "
        },
        {
          "index": 7,
          "word": "Michael",
          "originalText": "Michael",
          "characterOffsetBegin": 54,
          "characterOffsetEnd": 61,
          "pos": "NE",
          "before": " ",
          "after": " "
        },
        {
          "index": 8,
          "word": "Brown",
          "originalText": "Brown",
          "characterOffsetBegin": 62,
          "characterOffsetEnd": 67,
          "pos": "NE",
          "before": " ",
          "after": " "
        },
        {
          "index": 9,
          "word": "Schießen",
          "originalText": "Schießen",
          "characterOffsetBegin": 68,
          "characterOffsetEnd": 76,
          "pos": "VVINF",
          "before": " ",
          "after": ""
        },
        {
          "index": 10,
          "word": ":",
          "originalText": ":",
          "characterOffsetBegin": 76,
          "characterOffsetEnd": 77,
          "pos": "$.",
          "before": "",
          "after": " "
        },
        {
          "index": 11,
          "word": "``",
          "originalText": "“",
          "characterOffsetBegin": 78,
          "characterOffsetEnd": 79,
          "pos": "CARD",
          "before": " ",
          "after": ""
        },
        {
          "index": 12,
          "word": "Mindestens",
          "originalText": "Mindestens",
          "characterOffsetBegin": 79,
          "characterOffsetEnd": 89,
          "pos": "ADV",
          "before": "",
          "after": " "
        },
        {
          "index": 13,
          "word": "11",
          "originalText": "11",
          "characterOffsetBegin": 90,
          "characterOffsetEnd": 92,
          "pos": "CARD",
          "before": " ",
          "after": " "
        },
        {
          "index": 14,
          "word": "Schüsse",
          "originalText": "Schüsse",
          "characterOffsetBegin": 93,
          "characterOffsetEnd": 100,
          "pos": "NN",
          "before": " ",
          "after": ""
        },
        {
          "index": 15,
          "word": "``",
          "originalText": "“",
          "characterOffsetBegin": 100,
          "characterOffsetEnd": 101,
          "pos": "XY",
          "before": "",
          "after": ""
        }
      ]
    }
  ]
}