{
  "sentences": [
    {
      "index": 0,
      "basicDependencies": [
        {
          "dep": "ROOT",
          "governor": 0,
          "governorGloss": "ROOT",
          "dependent": 1,
          "dependentGloss": "Boko"
        },
        {
          "dep": "appos",
          "governor": 1,
          "governorGloss": "Boko",
          "dependent": 2,
          "dependentGloss": "Haram"
        },
        {
          "dep": "punct",
          "governor": 2,
          "governorGloss": "Haram",
          "dependent": 3,
          "dependentGloss": "'"
        },
        {
          "dep": "punct",
          "governor": 2,
          "governorGloss": "Haram",
          "dependent": 4,
          "dependentGloss": ","
        },
        {
          "dep": "mark",
          "governor": 13,
          "governorGloss": "entlassen",
          "dependent": 5,
          "dependentGloss": "um"
        },
        {
          "dep": "amod",
          "governor": 7,
          "governorGloss": "Schulmädchen",
          "dependent": 6,
          "dependentGloss": "entführte"
        },
        {
          "dep": "dobj",
          "governor": 13,
          "governorGloss": "entlassen",
          "dependent": 7,
          "dependentGloss": "Schulmädchen"
        },
        {
          "dep": "case",
          "governor": 9,
          "governorGloss": "Teil",
          "dependent": 8,
          "dependentGloss": "als"
        },
        {
          "dep": "nmod",
          "governor": 13,
          "governorGloss": "entlassen",
          "dependent": 9,
          "dependentGloss": "Teil"
        },
        {
          "dep": "det",
          "governor": 11,
          "governorGloss": "Waffenstillstandsabkommens",
          "dependent": 10,
          "dependentGloss": "des"
        },
        {
          "dep": "det",
          "governor": 9,
          "governorGloss": "Teil",
          "dependent": 11,
          "dependentGloss": "Waffenstillstandsabkommens"
        },
        {
          "dep": "aux",
          "governor": 13,
          "governorGloss": "entlassen",
          "dependent": 12,
          "dependentGloss": "zu"
        },
        {
          "dep": "advcl",
          "governor": 2,
          "governorGloss": "Haram",
          "dependent": 13,
          "dependentGloss": "entlassen"
        }
      ],
      "enhancedDependencies": [
        {
          "dep": "ROOT",
          "governor": 0,
          "governorGloss": "ROOT",
          "dependent": 1,
          "dependentGloss": "Boko"
        },
        {
          "dep": "appos",
          "governor": 1,
          "governorGloss": "Boko",
          "dependent": 2,
          "dependentGloss": "Haram"
        },
        {
          "dep": "punct",
          "governor": 2,
          "governorGloss": "Haram",
          "dependent": 3,
          "dependentGloss": "'"
        },
        {
          "dep": "punct",
          "governor": 2,
          "governorGloss": "Haram",
          "dependent": 4,
          "dependentGloss": ","
        },
        {
          "dep": "mark",
          "governor": 13,
          "governorGloss": "entlassen",
          "dependent": 5,
          "dependentGloss": "um"
        },
        {
          "dep": "amod",
          "governor": 7,
          "governorGloss": "Schulmädchen",
          "dependent": 6,
          "dependentGloss": "entführte"
        },
        {
          "dep": "dobj",
          "governor": 13,
          "governorGloss": "entlassen",
          "dependent": 7,
          "dependentGloss": "Schulmädchen"
        },
        {
          "dep": "case",
          "governor": 9,
          "governorGloss": "Teil",
          "dependent": 8,
          "dependentGloss": "als"
        },
        {
          "dep": "nmod",
          "governor": 13,
          "governorGloss": "entlassen",
          "dependent": 9,
          "dependentGloss": "Teil"
        },
        {
          "dep": "det",
          "governor": 11,
          "governorGloss": "Waffenstillstandsabkommens",
          "dependent": 10,
          "dependentGloss": "des"
        },
        {
          "dep": "det",
          "governor": 9,
          "governorGloss": "Teil",
          "dependent": 11,
          "dependentGloss": "Waffenstillstandsabkommens"
        },
        {
          "dep": "aux",
          "governor": 13,
          "governorGloss": "entlassen",
          "dependent": 12,
          "dependentGloss": "zu"
        },
        {
          "dep": "advcl",
          "governor": 2,
          "governorGloss": "Haram",
          "dependent": 13,
          "dependentGloss": "entlassen"
        }
      ],
      "enhancedPlusPlusDependencies": [
        {
          "dep": "ROOT",
          "governor": 0,
          "governorGloss": "ROOT",
          "dependent": 1,
          "dependentGloss": "Boko"
        },
        {
          "dep": "appos",
          "governor": 1,
          "governorGloss": "Boko",
          "dependent": 2,
          "dependentGloss": "Haram"
        },
        {
          "dep": "punct",
          "governor": 2,
          "governorGloss": "Haram",
          "dependent": 3,
          "dependentGloss": "'"
        },
        {
          "dep": "punct",
          "governor": 2,
          "governorGloss": "Haram",
          "dependent": 4,
          "dependentGloss": ","
        },
        {
          "dep": "mark",
          "governor": 13,
          "governorGloss": "entlassen",
          "dependent": 5,
          "dependentGloss": "um"
        },
        {
          "dep": "amod",
          "governor": 7,
          "governorGloss": "Schulmädchen",
          "dependent": 6,
          "dependentGloss": "entführte"
        },
        {
          "dep": "dobj",
          "governor": 13,
          "governorGloss": "entlassen",
          "dependent": 7,
          "dependentGloss": "Schulmädchen"
        },
        {
          "dep": "case",
          "governor": 9,
          "governorGloss": "Teil",
          "dependent": 8,
          "dependentGloss": "als"
        },
        {
          "dep": "nmod",
          "governor": 13,
          "governorGloss": "entlassen",
          "dependent": 9,
          "dependentGloss": "Teil"
        },
        {
          "dep": "det",
          "governor": 11,
          "governorGloss": "Waffenstillstandsabkommens",
          "dependent": 10,
          "dependentGloss": "des"
        },
        {
          "dep": "det",
          "governor": 9,
          "governorGloss": "Teil",
          "dependent": 11,
          "dependentGloss": "Waffenstillstandsabkommens"
        },
        {
          "dep": "aux",
          "governor": 13,
          "governorGloss": "entlassen",
          "dependent": 12,
          "dependentGloss": "zu"
        },
        {
          "dep": "advcl",
          "governor": 2,
          "governorGloss": "Haram",
          "dependent": 13,
          "dependentGloss": "entlassen"
        }
      ],
      "tokens": [
        {
          "index": 1,
          "word": "Boko",
          "originalText": "Boko",
          "characterOffsetBegin": 0,
          "characterOffsetEnd": 4,
          "pos": "NE",
          "before": "",
          "after": " "
        },
        {
          "index": 2,
          "word": "Haram",
          "originalText": "Haram",
          "characterOffsetBegin": 5,
          "characterOffsetEnd": 10,
          "pos": "NE",
          "before": " ",
          "after": " "
        },
        {
          "index": 3,
          "word": "'",
          "originalText": "'",
          "characterOffsetBegin": 11,
          "characterOffsetEnd": 12,
          "pos": "$[",
          "before": " ",
          "after": ""
        },
        {
          "index": 4,
          "word": ",",
          "originalText": ",",
          "characterOffsetBegin": 12,
          "characterOffsetEnd": 13,
          "pos": "$,",
          "before": "",
          "after": " "
        },
        {
          "index": 5,
          "word": "um",
          "originalText": "um",
          "characterOffsetBegin": 14,
          "characterOffsetEnd": 16,
          "pos": "KOUI",
          "before": " ",
          "after": " "
        },
        {
          "index": 6,
          "word": "entführte",
          "originalText": "entführte",
          "characterOffsetBegin": 17,
          "characterOffsetEnd": 26,
          "pos": "ADJA",
          "before": " ",
          "after": " "
        },
        {
          "index": 7,
          "word": "Schulmädchen",
          "originalText": "Schulmädchen",
          "characterOffsetBegin": 27,
          "characterOffsetEnd": 39,
          "pos": "NN",
          "before": " ",
          "after": " "
        },
        {
          "index": 8,
          "word": "als",
          "originalText": "als",
          "characterOffsetBegin": 40,
          "characterOffsetEnd": 43,
          "pos": "APPR",
          "before": " ",
          "after": " "
        },
        {
          "index": 9,
          "word": "Teil",
          "originalText": "Teil",
          "characterOffsetBegin": 44,
          "characterOffsetEnd": 48,
          "pos": "NN",
          "before": " ",
          "after": " "
        },
        {
          "index": 10,
          "word": "des",
          "originalText": "des",
          "characterOffsetBegin": 49,
          "characterOffsetEnd": 52,
          "pos": "ART",
          "before": " ",
          "after": " "
        },
        {
          "index": 11,
          "word": "Waffenstillstandsabkommens",
          "originalText": "Waffenstillstandsabkommens",
          "characterOffsetBegin": 53,
          "characterOffsetEnd": 79,
          "pos": "NN",
          "before": " ",
          "after": " "
        },
        {
          "index": 12,
          "word": "zu",
          "originalText": "zu",
          "characterOffsetBegin": 80,
          "characterOffsetEnd": 82,
          "pos": "PTKZU",
          "before": " ",
          "after": " "
        },
        {
          "index": 13,
          "word": "entlassen",
          "originalText": "entlassen",
          "characterOffsetBegin": 83,
          "characterOffsetEnd": 92,
          "pos": "VVINF",
          "before": " ",
          "after": ""
        }
      ]
    }
  ]
}