{
  "sentences": [
    {
      "index": 0,
      "basicDependencies": [
        {
          "dep": "ROOT",
          "governor": 0,
          "governorGloss": "ROOT",
          "dependent": 13,
          "dependentGloss": "bewegen"
        },
        {
          "dep": "nsubj",
          "governor": 13,
          "governorGloss": "bewegen",
          "dependent": 1,
          "dependentGloss": "Star"
        },
        {
          "dep": "appos",
          "governor": 1,
          "governorGloss": "Star",
          "dependent": 2,
          "dependentGloss": "Wars"
        },
        {
          "dep": "appos",
          "governor": 2,
          "governorGloss": "Wars",
          "dependent": 3,
          "dependentGloss": "7"
        },
        {
          "dep": "punct",
          "governor": 1,
          "governorGloss": "Star",
          "dependent": 4,
          "dependentGloss": ":"
        },
        {
          "dep": "name",
          "governor": 6,
          "governorGloss": "Abrams",
          "dependent": 5,
          "dependentGloss": "JJ"
        },
        {
          "dep": "appos",
          "governor": 1,
          "governorGloss": "Star",
          "dependent": 6,
          "dependentGloss": "Abrams"
        },
        {
          "dep": "punct",
          "governor": 12,
          "governorGloss": "2015",
          "dependent": 7,
          "dependentGloss": "wollen"
        },
        {
          "dep": "det",
          "governor": 11,
          "governorGloss": "Sommer",
          "dependent": 8,
          "dependentGloss": "die"
        },
        {
          "dep": "name",
          "governor": 11,
          "governorGloss": "Sommer",
          "dependent": 9,
          "dependentGloss": "Freigabe"
        },
        {
          "dep": "name",
          "governor": 11,
          "governorGloss": "Sommer",
          "dependent": 10,
          "dependentGloss": "zum"
        },
        {
          "dep": "nsubj",
          "governor": 12,
          "governorGloss": "2015",
          "dependent": 11,
          "dependentGloss": "Sommer"
        },
        {
          "dep": "nmod",
          "governor": 13,
          "governorGloss": "bewegen",
          "dependent": 12,
          "dependentGloss": "2015"
        }
      ],
      "enhancedDependencies": [
        {
          "dep": "ROOT",
          "governor": 0,
          "governorGloss": "ROOT",
          "dependent": 13,
          "dependentGloss": "bewegen"
        },
        {
          "dep": "nsubj",
          "governor": 13,
          "governorGloss": "bewegen",
          "dependent": 1,
          "dependentGloss": "Star"
        },
        {
          "dep": "appos",
          "governor": 1,
          "governorGloss": "Star",
          "dependent": 2,
          "dependentGloss": "Wars"
        },
        {
          "dep": "appos",
          "governor": 2,
          "governorGloss": "Wars",
          "dependent": 3,
          "dependentGloss": "7"
        },
        {
          "dep": "punct",
          "governor": 1,
          "governorGloss": "Star",
          "dependent": 4,
          "dependentGloss": ":"
        },
        {
          "dep": "name",
          "governor": 6,
          "governorGloss": "Abrams",
          "dependent": 5,
          "dependentGloss": "JJ"
        },
        {
          "dep": "appos",
          "governor": 1,
          "governorGloss": "Star",
          "dependent": 6,
          "dependentGloss": "Abrams"
        },
        {
          "dep": "punct",
          "governor": 12,
          "governorGloss": "2015",
          "dependent": 7,
          "dependentGloss": "wollen"
        },
        {
          "dep": "det",
          "governor": 11,
          "governorGloss": "Sommer",
          "dependent": 8,
          "dependentGloss": "die"
        },
        {
          "dep": "name",
          "governor": 11,
          "governorGloss": "Sommer",
          "dependent": 9,
          "dependentGloss": "Freigabe"
        },
        {
          "dep": "name",
          "governor": 11,
          "governorGloss": "Sommer",
          "dependent": 10,
          "dependentGloss": "zum"
        },
        {
          "dep": "nsubj",
          "governor": 12,
          "governorGloss": "2015",
          "dependent": 11,
          "dependentGloss": "Sommer"
        },
        {
          "dep": "nmod",
          "governor": 13,
          "governorGloss": "bewegen",
          "dependent": 12,
          "dependentGloss": "2015"
        }
      ],
      "enhancedPlusPlusDependencies": [
        {
          "dep": "ROOT",
          "governor": 0,
          "governorGloss": "ROOT",
          "dependent": 13,
          "dependentGloss": "bewegen"
        },
        {
          "dep": "nsubj",
          "governor": 13,
          "governorGloss": "bewegen",
          "dependent": 1,
          "dependentGloss": "Star"
        },
        {
          "dep": "appos",
          "governor": 1,
          "governorGloss": "Star",
          "dependent": 2,
          "dependentGloss": "Wars"
        },
        {
          "dep": "appos",
          "governor": 2,
          "governorGloss": "Wars",
          "dependent": 3,
          "dependentGloss": "7"
        },
        {
          "dep": "punct",
          "governor": 1,
          "governorGloss": "Star",
          "dependent": 4,
          "dependentGloss": ":"
        },
        {
          "dep": "name",
          "governor": 6,
          "governorGloss": "Abrams",
          "dependent": 5,
          "dependentGloss": "JJ"
        },
        {
          "dep": "appos",
          "governor": 1,
          "governorGloss": "Star",
          "dependent": 6,
          "dependentGloss": "Abrams"
        },
        {
          "dep": "punct",
          "governor": 12,
          "governorGloss": "2015",
          "dependent": 7,
          "dependentGloss": "wollen"
        },
        {
          "dep": "det",
          "governor": 11,
          "governorGloss": "Sommer",
          "dependent": 8,
          "dependentGloss": "die"
        },
        {
          "dep": "name",
          "governor": 11,
          "governorGloss": "Sommer",
          "dependent": 9,
          "dependentGloss": "Freigabe"
        },
        {
          "dep": "name",
          "governor": 11,
          "governorGloss": "Sommer",
          "dependent": 10,
          "dependentGloss": "zum"
        },
        {
          "dep": "nsubj",
          "governor": 12,
          "governorGloss": "2015",
          "dependent": 11,
          "dependentGloss": "Sommer"
        },
        {
          "dep": "nmod",
          "governor": 13,
          "governorGloss": "bewegen",
          "dependent": 12,
          "dependentGloss": "2015"
        }
      ],
      "tokens": [
        {
          "index": 1,
          "word": "Star",
          "originalText": "Star",
          "characterOffsetBegin": 0,
          "characterOffsetEnd": 4,
          "pos": "NN",
          "before": "",
          "after": " "
        },
        {
          "index": 2,
          "word": "Wars",
          "originalText": "Wars",
          "characterOffsetBegin": 5,
          "characterOffsetEnd": 9,
          "pos": "NE",
          "before": " ",
          "after": " "
        },
        {
          "index": 3,
          "word": "7",
          "originalText": "7",
          "characterOffsetBegin": 10,
          "characterOffsetEnd": 11,
          "pos": "CARD",
          "before": " ",
          "after": ""
        },
        {
          "index": 4,
          "word": ":",
          "originalText": ":",
          "characterOffsetBegin": 11,
          "characterOffsetEnd": 12,
          "pos": "$.",
          "before": "",
          "after": " "
        },
        {
          "index": 5,
          "word": "JJ",
          "originalText": "JJ",
          "characterOffsetBegin": 13,
          "characterOffsetEnd": 15,
          "pos": "NE",
          "before": " ",
          "after": " "
        },
        {
          "index": 6,
          "word": "Abrams",
          "originalText": "Abrams",
          "characterOffsetBegin": 16,
          "characterOffsetEnd": 22,
          "pos": "NE",
          "before": " ",
          "after": " "
        },
        {
          "index": 7,
          "word": "wollen",
          "originalText": "wollen",
          "characterOffsetBegin": 23,
          "characterOffsetEnd": 29,
          "pos": "VMFIN",
          "before": " ",
          "after": " "
        },
        {
          "index": 8,
          "word": "die",
          "originalText": "die",
          "characterOffsetBegin": 30,
          "characterOffsetEnd": 33,
          "pos": "ART",
          "before": " ",
          "after": " "
        },
        {
          "index": 9,
          "word": "Freigabe",
          "originalText": "Freigabe",
          "characterOffsetBegin": 34,
          "characterOffsetEnd": 42,
          "pos": "NN",
          "before": " ",
          "after": " "
        },
        {
          "index": 10,
          "word": "zum",
          "originalText": "zum",
          "characterOffsetBegin": 43,
          "characterOffsetEnd": 46,
          "pos": "APPRART",
          "before": " ",
          "after": " "
        },
        {
          "index": 11,
          "word": "Sommer",
          "originalText": "Sommer",
          "characterOffsetBegin": 47,
          "characterOffsetEnd": 53,
          "pos": "NN",
          "before": " ",
          "after": " "
        },
        {
          "index": 12,
          "word": "2015",
          "originalText": "2015",
          "characterOffsetBegin": 54,
          "characterOffsetEnd": 58,
          "pos": "CARD",
          "before": " ",
          "after": " "
        },
        {
          "index": 13,
          "word": "bewegen",
          "originalText": "bewegen",
          "characterOffsetBegin": 59,
          "characterOffsetEnd": 66,
          "pos": "VVFIN",
          "before": " ",
          "after": ""
        }
      ]
    }
  ]
}