{
  "sentences": [
    {
      "index": 0,
      "basicDependencies": [
        {
          "dep": "ROOT",
          "governor": 0,
          "governorGloss": "ROOT",
          "dependent": 4,
          "dependentGloss": "Spieler"
        },
        {
          "dep": "name",
          "governor": 3,
          "governorGloss": "Tour",
          "dependent": 1,
          "dependentGloss": "Ehemaliger"
        },
        {
          "dep": "name",
          "governor": 3,
          "governorGloss": "Tour",
          "dependent": 2,
          "dependentGloss": "PGA"
        },
        {
          "dep": "nsubj",
          "governor": 4,
          "governorGloss": "Spieler",
          "dependent": 3,
          "dependentGloss": "Tour"
        },
        {
          "dep": "punct",
          "governor": 4,
          "governorGloss": "Spieler",
          "dependent": 5,
          "dependentGloss": ":"
        },
        {
          "dep": "name",
          "governor": 7,
          "governorGloss": "Woods",
          "dependent": 6,
          "dependentGloss": "Tiger"
        },
        {
          "dep": "nsubjpass",
          "governor": 10,
          "governorGloss": "ausgesetzt",
          "dependent": 7,
          "dependentGloss": "Woods"
        },
        {
          "dep": "case",
          "governor": 9,
          "governorGloss": "Drogenproben",
          "dependent": 8,
          "dependentGloss": "für"
        },
        {
          "dep": "nmod",
          "governor": 10,
          "governorGloss": "ausgesetzt",
          "dependent": 9,
          "dependentGloss": "Drogenproben"
        },
        {
          "dep": "parataxis",
          "governor": 4,
          "governorGloss": "Spieler",
          "dependent": 10,
          "dependentGloss": "ausgesetzt"
        }
      ],
      "enhancedDependencies": [
        {
          "dep": "ROOT",
          "governor": 0,
          "governorGloss": "ROOT",
          "dependent": 4,
          "dependentGloss": "Spieler"
        },
        {
          "dep": "name",
          "governor": 3,
          "governorGloss": "Tour",
          "dependent": 1,
          "dependentGloss": "Ehemaliger"
        },
        {
          "dep": "name",
          "governor": 3,
          "governorGloss": "Tour",
          "dependent": 2,
          "dependentGloss": "PGA"
        },
        {
          "dep": "nsubj",
          "governor": 4,
          "governorGloss": "Spieler",
          "dependent": 3,
          "dependentGloss": "Tour"
        },
        {
          "dep": "punct",
          "governor": 4,
          "governorGloss": "Spieler",
          "dependent": 5,
          "dependentGloss": ":"
        },
        {
          "dep": "name",
          "governor": 7,
          "governorGloss": "Woods",
          "dependent": 6,
          "dependentGloss": "Tiger"
        },
        {
          "dep": "nsubjpass",
          "governor": 10,
          "governorGloss": "ausgesetzt",
          "dependent": 7,
          "dependentGloss": "Woods"
        },
        {
          "dep": "case",
          "governor": 9,
          "governorGloss": "Drogenproben",
          "dependent": 8,
          "dependentGloss": "für"
        },
        {
          "dep": "nmod",
          "governor": 10,
          "governorGloss": "ausgesetzt",
          "dependent": 9,
          "dependentGloss": "Drogenproben"
        },
        {
          "dep": "parataxis",
          "governor": 4,
          "governorGloss": "Spieler",
          "dependent": 10,
          "dependentGloss": "ausgesetzt"
        }
      ],
      "enhancedPlusPlusDependencies": [
        {
          "dep": "ROOT",
          "governor": 0,
          "governorGloss": "ROOT",
          "dependent": 4,
          "dependentGloss": "Spieler"
        },
        {
          "dep": "name",
          "governor": 3,
          "governorGloss": "Tour",
          "dependent": 1,
          "dependentGloss": "Ehemaliger"
        },
        {
          "dep": "name",
          "governor": 3,
          "governorGloss": "Tour",
          "dependent": 2,
          "dependentGloss": "PGA"
        },
        {
          "dep": "nsubj",
          "governor": 4,
          "governorGloss": "Spieler",
          "dependent": 3,
          "dependentGloss": "Tour"
        },
        {
          "dep": "punct",
          "governor": 4,
          "governorGloss": "Spieler",
          "dependent": 5,
          "dependentGloss": ":"
        },
        {
          "dep": "name",
          "governor": 7,
          "governorGloss": "Woods",
          "dependent": 6,
          "dependentGloss": "Tiger"
        },
        {
          "dep": "nsubjpass",
          "governor": 10,
          "governorGloss": "ausgesetzt",
          "dependent": 7,
          "dependentGloss": "Woods"
        },
        {
          "dep": "case",
          "governor": 9,
          "governorGloss": "Drogenproben",
          "dependent": 8,
          "dependentGloss": "für"
        },
        {
          "dep": "nmod",
          "governor": 10,
          "governorGloss": "ausgesetzt",
          "dependent": 9,
          "dependentGloss": "Drogenproben"
        },
        {
          "dep": "parataxis",
          "governor": 4,
          "governorGloss": "Spieler",
          "dependent": 10,
          "dependentGloss": "ausgesetzt"
        }
      ],
      "tokens": [
        {
          "index": 1,
          "word": "Ehemaliger",
          "originalText": "Ehemaliger",
          "characterOffsetBegin": 0,
          "characterOffsetEnd": 10,
          "pos": "ADJA",
          "before": "",
          "after": " "
        },
        {
          "index": 2,
          "word": "PGA",
          "originalText": "PGA",
          "characterOffsetBegin": 11,
          "characterOffsetEnd": 14,
          "pos": "NN",
          "before": " ",
          "after": " "
        },
        {
          "index": 3,
          "word": "Tour",
          "originalText": "Tour",
          "characterOffsetBegin": 15,
          "characterOffsetEnd": 19,
          "pos": "NN",
          "before": " ",
          "after": " "
        },
        {
          "index": 4,
          "word": "Spieler",
          "originalText": "Spieler",
          "characterOffsetBegin": 20,
          "characterOffsetEnd": 27,
          "pos": "NN",
          "before": " ",
          "after": ""
        },
        {
          "index": 5,
          "word": ":",
          "originalText": ":",
          "characterOffsetBegin": 27,
          "characterOffsetEnd": 28,
          "pos": "$.",
          "before": "",
          "after": " "
        },
        {
          "index": 6,
          "word": "Tiger",
          "originalText": "Tiger",
          "characterOffsetBegin": 29,
          "characterOffsetEnd": 34,
          "pos": "NE",
          "before": " ",
          "after": " "
        },
        {
          "index": 7,
          "word": "Woods",
          "originalText": "Woods",
          "characterOffsetBegin": 35,
          "characterOffsetEnd": 40,
          "pos": "NE",
          "before": " ",
          "after": " "
        },
        {
          "index": 8,
          "word": "für",
          "originalText": "für",
          "characterOffsetBegin": 41,
          "characterOffsetEnd": 44,
          "pos": "APPR",
          "before": " ",
          "after": " "
        },
        {
          "index": 9,
          "word": "Drogenproben",
          "originalText": "Drogenproben",
          "characterOffsetBegin": 45,
          "characterOffsetEnd": 57,
          "pos": "NN",
          "before": " ",
          "after": " "
        },
        {
          "index": 10,
          "word": "ausgesetzt",
          "originalText": "ausgesetzt",
          "characterOffsetBegin": 58,
          "characterOffsetEnd": 68,
          "pos": "VVPP",
          "before": " ",
          "after": ""
        }
      ]
    }
  ]
}