{
  "sentences": [
    {
      "index": 0,
      "basicDependencies": [
        {
          "dep": "ROOT",
          "governor": 0,
          "governorGloss": "ROOT",
          "dependent": 1,
          "dependentGloss": "Ratten"
        },
        {
          "dep": "case",
          "governor": 4,
          "governorGloss": "NYC-Büros",
          "dependent": 2,
          "dependentGloss": "bei"
        },
        {
          "dep": "det",
          "governor": 4,
          "governorGloss": "NYC-Büros",
          "dependent": 3,
          "dependentGloss": "den"
        },
        {
          "dep": "nmod",
          "governor": 1,
          "governorGloss": "Ratten",
          "dependent": 4,
          "dependentGloss": "NYC-Büros"
        },
        {
          "dep": "case",
          "governor": 9,
          "governorGloss": "Sie",
          "dependent": 5,
          "dependentGloss": "von"
        },
        {
          "dep": "compound",
          "governor": 8,
          "governorGloss": "sehen",
          "dependent": 6,
          "dependentGloss": "Vogue"
        },
        {
          "dep": "punct",
          "governor": 8,
          "governorGloss": "sehen",
          "dependent": 7,
          "dependentGloss": "-"
        },
        {
          "dep": "amod",
          "governor": 9,
          "governorGloss": "Sie",
          "dependent": 8,
          "dependentGloss": "sehen"
        },
        {
          "dep": "nmod",
          "governor": 4,
          "governorGloss": "NYC-Büros",
          "dependent": 9,
          "dependentGloss": "Sie"
        },
        {
          "dep": "det",
          "governor": 11,
          "governorGloss": "Schritt",
          "dependent": 10,
          "dependentGloss": "Ihren"
        },
        {
          "dep": "det",
          "governor": 4,
          "governorGloss": "NYC-Büros",
          "dependent": 11,
          "dependentGloss": "Schritt"
        },
        {
          "dep": "case",
          "governor": 14,
          "governorGloss": "Wintour",
          "dependent": 12,
          "dependentGloss": "an"
        },
        {
          "dep": "name",
          "governor": 14,
          "governorGloss": "Wintour",
          "dependent": 13,
          "dependentGloss": "Anna"
        },
        {
          "dep": "nmod",
          "governor": 11,
          "governorGloss": "Schritt",
          "dependent": 14,
          "dependentGloss": "Wintour"
        }
      ],
      "enhancedDependencies": [
        {
          "dep": "ROOT",
          "governor": 0,
          "governorGloss": "ROOT",
          "dependent": 1,
          "dependentGloss": "Ratten"
        },
        {
          "dep": "case",
          "governor": 4,
          "governorGloss": "NYC-Büros",
          "dependent": 2,
          "dependentGloss": "bei"
        },
        {
          "dep": "det",
          "governor": 4,
          "governorGloss": "NYC-Büros",
          "dependent": 3,
          "dependentGloss": "den"
        },
        {
          "dep": "nmod",
          "governor": 1,
          "governorGloss": "Ratten",
          "dependent": 4,
          "dependentGloss": "NYC-Büros"
        },
        {
          "dep": "case",
          "governor": 9,
          "governorGloss": "Sie",
          "dependent": 5,
          "dependentGloss": "von"
        },
        {
          "dep": "compound",
          "governor": 8,
          "governorGloss": "sehen",
          "dependent": 6,
          "dependentGloss": "Vogue"
        },
        {
          "dep": "punct",
          "governor": 8,
          "governorGloss": "sehen",
          "dependent": 7,
          "dependentGloss": "-"
        },
        {
          "dep": "amod",
          "governor": 9,
          "governorGloss": "Sie",
          "dependent": 8,
          "dependentGloss": "sehen"
        },
        {
          "dep": "nmod",
          "governor": 4,
          "governorGloss": "NYC-Büros",
          "dependent": 9,
          "dependentGloss": "Sie"
        },
        {
          "dep": "det",
          "governor": 11,
          "governorGloss": "Schritt",
          "dependent": 10,
          "dependentGloss": "Ihren"
        },
        {
          "dep": "det",
          "governor": 4,
          "governorGloss": "NYC-Büros",
          "dependent": 11,
          "dependentGloss": "Schritt"
        },
        {
          "dep": "case",
          "governor": 14,
          "governorGloss": "Wintour",
          "dependent": 12,
          "dependentGloss": "an"
        },
        {
          "dep": "name",
          "governor": 14,
          "governorGloss": "Wintour",
          "dependent": 13,
          "dependentGloss": "Anna"
        },
        {
          "dep": "nmod",
          "governor": 11,
          "governorGloss": "Schritt",
          "dependent": 14,
          "dependentGloss": "Wintour"
        }
      ],
      "enhancedPlusPlusDependencies": [
        {
          "dep": "ROOT",
          "governor": 0,
          "governorGloss": "ROOT",
          "dependent": 1,
          "dependentGloss": "Ratten"
        },
        {
          "dep": "case",
          "governor": 4,
          "governorGloss": "NYC-Büros",
          "dependent": 2,
          "dependentGloss": "bei"
        },
        {
          "dep": "det",
          "governor": 4,
          "governorGloss": "NYC-Büros",
          "dependent": 3,
          "dependentGloss": "den"
        },
        {
          "dep": "nmod",
          "governor": 1,
          "governorGloss": "Ratten",
          "dependent": 4,
          "dependentGloss": "NYC-Büros"
        },
        {
          "dep": "case",
          "governor": 9,
          "governorGloss": "Sie",
          "dependent": 5,
          "dependentGloss": "von"
        },
        {
          "dep": "compound",
          "governor": 8,
          "governorGloss": "sehen",
          "dependent": 6,
          "dependentGloss": "Vogue"
        },
        {
          "dep": "punct",
          "governor": 8,
          "governorGloss": "sehen",
          "dependent": 7,
          "dependentGloss": "-"
        },
        {
          "dep": "amod",
          "governor": 9,
          "governorGloss": "Sie",
          "dependent": 8,
          "dependentGloss": "sehen"
        },
        {
          "dep": "nmod",
          "governor": 4,
          "governorGloss": "NYC-Büros",
          "dependent": 9,
          "dependentGloss": "Sie"
        },
        {
          "dep": "det",
          "governor": 11,
          "governorGloss": "Schritt",
          "dependent": 10,
          "dependentGloss": "Ihren"
        },
        {
          "dep": "det",
          "governor": 4,
          "governorGloss": "NYC-Büros",
          "dependent": 11,
          "dependentGloss": "Schritt"
        },
        {
          "dep": "case",
          "governor": 14,
          "governorGloss": "Wintour",
          "dependent": 12,
          "dependentGloss": "an"
        },
        {
          "dep": "name",
          "governor": 14,
          "governorGloss": "Wintour",
          "dependent": 13,
          "dependentGloss": "Anna"
        },
        {
          "dep": "nmod",
          "governor": 11,
          "governorGloss": "Schritt",
          "dependent": 14,
          "dependentGloss": "Wintour"
        }
      ],
      "tokens": [
        {
          "index": 1,
          "word": "Ratten",
          "originalText": "Ratten",
          "characterOffsetBegin": 0,
          "characterOffsetEnd": 6,
          "pos": "NN",
          "before": "",
          "after": " "
        },
        {
          "index": 2,
          "word": "bei",
          "originalText": "bei",
          "characterOffsetBegin": 7,
          "characterOffsetEnd": 10,
          "pos": "APPR",
          "before": " ",
          "after": " "
        },
        {
          "index": 3,
          "word": "den",
          "originalText": "den",
          "characterOffsetBegin": 11,
          "characterOffsetEnd": 14,
          "pos": "ART",
          "before": " ",
          "after": " "
        },
        {
          "index": 4,
          "word": "NYC-Büros",
          "originalText": "NYC-Büros",
          "characterOffsetBegin": 15,
          "characterOffsetEnd": 24,
          "pos": "NN",
          "before": " ",
          "after": " "
        },
        {
          "index": 5,
          "word": "von",
          "originalText": "von",
          "characterOffsetBegin": 25,
          "characterOffsetEnd": 28,
          "pos": "APPR",
          "before": " ",
          "after": " "
        },
        {
          "index": 6,
          "word": "Vogue",
          "originalText": "Vogue",
          "characterOffsetBegin": 29,
          "characterOffsetEnd": 34,
          "pos": "NE",
          "before": " ",
          "after": " "
        },
        {
          "index": 7,
          "word": "-",
          "originalText": "-",
          "characterOffsetBegin": 35,
          "characterOffsetEnd": 36,
          "pos": "$[",
          "before": " ",
          "after": " "
        },
        {
          "index": 8,
          "word": "sehen",
          "originalText": "sehen",
          "characterOffsetBegin": 37,
          "characterOffsetEnd": 42,
          "pos": "VVFIN",
          "before": " ",
          "after": " "
        },
        {
          "index": 9,
          "word": "Sie",
          "originalText": "Sie",
          "characterOffsetBegin": 43,
          "characterOffsetEnd": 46,
          "pos": "PPER",
          "before": " ",
          "after": " "
        },
        {
          "index": 10,
          "word": "Ihren",
          "originalText": "Ihren",
          "characterOffsetBegin": 47,
          "characterOffsetEnd": 52,
          "pos": "PPOSAT",
          "before": " ",
          "after": " "
        },
        {
          "index": 11,
          "word": "Schritt",
          "originalText": "Schritt",
          "characterOffsetBegin": 53,
          "characterOffsetEnd": 60,
          "pos": "NN",
          "before": " ",
          "after": " "
        },
        {
          "index": 12,
          "word": "an",
          "originalText": "an",
          "characterOffsetBegin": 61,
          "characterOffsetEnd": 63,
          "pos": "APPR",
          "before": " ",
          "after": " "
        },
        {
          "index": 13,
          "word": "Anna",
          "originalText": "Anna",
          "characterOffsetBegin": 64,
          "characterOffsetEnd": 68,
          "pos": "NE",
          "before": " ",
          "after": " "
        },
        {
          "index": 14,
          "word": "Wintour",
          "originalText": "Wintour",
          "characterOffsetBegin": 69,
          "characterOffsetEnd": 76,
          "pos": "NE",
          "before": " ",
          "after": ""
        }
      ]
    }
  ]
}