{
  "sentences": [
    {
      "index": 0,
      "basicDependencies": [
        {
          "dep": "ROOT",
          "governor": 0,
          "governorGloss": "ROOT",
          "dependent": 2,
          "dependentGloss": "Selfless"
        },
        {
          "dep": "det",
          "governor": 2,
          "governorGloss": "Selfless",
          "dependent": 1,
          "dependentGloss": "Dieser"
        },
        {
          "dep": "dobj",
          "governor": 5,
          "governorGloss": "erhält",
          "dependent": 3,
          "dependentGloss": "Homeless"
        },
        {
          "dep": "nsubj",
          "governor": 5,
          "governorGloss": "erhält",
          "dependent": 4,
          "dependentGloss": "Man"
        },
        {
          "dep": "acl",
          "governor": 2,
          "governorGloss": "Selfless",
          "dependent": 5,
          "dependentGloss": "erhält"
        },
        {
          "dep": "appos",
          "governor": 5,
          "governorGloss": "erhält",
          "dependent": 6,
          "dependentGloss": "$"
        },
        {
          "dep": "nmod",
          "governor": 6,
          "governorGloss": "$",
          "dependent": 7,
          "dependentGloss": "100"
        },
        {
          "dep": "cc",
          "governor": 7,
          "governorGloss": "100",
          "dependent": 8,
          "dependentGloss": "und"
        },
        {
          "dep": "conj",
          "governor": 7,
          "governorGloss": "100",
          "dependent": 9,
          "dependentGloss": "verbringt"
        },
        {
          "dep": "neg",
          "governor": 11,
          "governorGloss": "Dime",
          "dependent": 10,
          "dependentGloss": "keinen"
        },
        {
          "dep": "appos",
          "governor": 6,
          "governorGloss": "$",
          "dependent": 11,
          "dependentGloss": "Dime"
        },
        {
          "dep": "case",
          "governor": 13,
          "governorGloss": "sich",
          "dependent": 12,
          "dependentGloss": "auf"
        },
        {
          "dep": "nmod",
          "governor": 11,
          "governorGloss": "Dime",
          "dependent": 13,
          "dependentGloss": "sich"
        },
        {
          "dep": "advmod",
          "governor": 13,
          "governorGloss": "sich",
          "dependent": 14,
          "dependentGloss": "selbst"
        },
        {
          "dep": "punct",
          "governor": 2,
          "governorGloss": "Selfless",
          "dependent": 15,
          "dependentGloss": "!"
        }
      ],
      "enhancedDependencies": [
        {
          "dep": "ROOT",
          "governor": 0,
          "governorGloss": "ROOT",
          "dependent": 2,
          "dependentGloss": "Selfless"
        },
        {
          "dep": "det",
          "governor": 2,
          "governorGloss": "Selfless",
          "dependent": 1,
          "dependentGloss": "Dieser"
        },
        {
          "dep": "dobj",
          "governor": 5,
          "governorGloss": "erhält",
          "dependent": 3,
          "dependentGloss": "Homeless"
        },
        {
          "dep": "nsubj",
          "governor": 5,
          "governorGloss": "erhält",
          "dependent": 4,
          "dependentGloss": "Man"
        },
        {
          "dep": "acl",
          "governor": 2,
          "governorGloss": "Selfless",
          "dependent": 5,
          "dependentGloss": "erhält"
        },
        {
          "dep": "appos",
          "governor": 5,
          "governorGloss": "erhält",
          "dependent": 6,
          "dependentGloss": "$"
        },
        {
          "dep": "nmod",
          "governor": 6,
          "governorGloss": "$",
          "dependent": 7,
          "dependentGloss": "100"
        },
        {
          "dep": "cc",
          "governor": 7,
          "governorGloss": "100",
          "dependent": 8,
          "dependentGloss": "und"
        },
        {
          "dep": "nmod",
          "governor": 6,
          "governorGloss": "$",
          "dependent": 9,
          "dependentGloss": "verbringt"
        },
        {
          "dep": "conj:und",
          "governor": 7,
          "governorGloss": "100",
          "dependent": 9,
          "dependentGloss": "verbringt"
        },
        {
          "dep": "neg",
          "governor": 11,
          "governorGloss": "Dime",
          "dependent": 10,
          "dependentGloss": "keinen"
        },
        {
          "dep": "appos",
          "governor": 6,
          "governorGloss": "$",
          "dependent": 11,
          "dependentGloss": "Dime"
        },
        {
          "dep": "case",
          "governor": 13,
          "governorGloss": "sich",
          "dependent": 12,
          "dependentGloss": "auf"
        },
        {
          "dep": "nmod",
          "governor": 11,
          "governorGloss": "Dime",
          "dependent": 13,
          "dependentGloss": "sich"
        },
        {
          "dep": "advmod",
          "governor": 13,
          "governorGloss": "sich",
          "dependent": 14,
          "dependentGloss": "selbst"
        },
        {
          "dep": "punct",
          "governor": 2,
          "governorGloss": "Selfless",
          "dependent": 15,
          "dependentGloss": "!"
        }
      ],
      "enhancedPlusPlusDependencies": [
        {
          "dep": "ROOT",
          "governor": 0,
          "governorGloss": "ROOT",
          "dependent": 2,
          "dependentGloss": "Selfless"
        },
        {
          "dep": "det",
          "governor": 2,
          "governorGloss": "Selfless",
          "dependent": 1,
          "dependentGloss": "Dieser"
        },
        {
          "dep": "dobj",
          "governor": 5,
          "governorGloss": "erhält",
          "dependent": 3,
          "dependentGloss": "Homeless"
        },
        {
          "dep": "nsubj",
          "governor": 5,
          "governorGloss": "erhält",
          "dependent": 4,
          "dependentGloss": "Man"
        },
        {
          "dep": "acl",
          "governor": 2,
          "governorGloss": "Selfless",
          "dependent": 5,
          "dependentGloss": "erhält"
        },
        {
          "dep": "appos",
          "governor": 5,
          "governorGloss": "erhält",
          "dependent": 6,
          "dependentGloss": "$"
        },
        {
          "dep": "nmod",
          "governor": 6,
          "governorGloss": "$",
          "dependent": 7,
          "dependentGloss": "100"
        },
        {
          "dep": "cc",
          "governor": 7,
          "governorGloss": "100",
          "dependent": 8,
          "dependentGloss": "und"
        },
        {
          "dep": "nmod",
          "governor": 6,
          "governorGloss": "$",
          "dependent": 9,
          "dependentGloss": "verbringt"
        },
        {
          "dep": "conj:und",
          "governor": 7,
          "governorGloss": "100",
          "dependent": 9,
          "dependentGloss": "verbringt"
        },
        {
          "dep": "neg",
          "governor": 11,
          "governorGloss": "Dime",
          "dependent": 10,
          "dependentGloss": "keinen"
        },
        {
          "dep": "appos",
          "governor": 6,
          "governorGloss": "$",
          "dependent": 11,
          "dependentGloss": "Dime"
        },
        {
          "dep": "case",
          "governor": 13,
          "governorGloss": "sich",
          "dependent": 12,
          "dependentGloss": "auf"
        },
        {
          "dep": "nmod",
          "governor": 11,
          "governorGloss": "Dime",
          "dependent": 13,
          "dependentGloss": "sich"
        },
        {
          "dep": "advmod",
          "governor": 13,
          "governorGloss": "sich",
          "dependent": 14,
          "dependentGloss": "selbst"
        },
        {
          "dep": "punct",
          "governor": 2,
          "governorGloss": "Selfless",
          "dependent": 15,
          "dependentGloss": "!"
        }
      ],
      "tokens": [
        {
          "index": 1,
          "word": "Dieser",
          "originalText": "Dieser",
          "characterOffsetBegin": 0,
          "characterOffsetEnd": 6,
          "pos": "PDAT",
          "before": "",
          "after": " "
        },
        {
          "index": 2,
          "word": "Selfless",
          "originalText": "Selfless",
          "characterOffsetBegin": 7,
          "characterOffsetEnd": 15,
          "pos": "NN",
          "before": " ",
          "after": " "
        },
        {
          "index": 3,
          "word": "Homeless",
          "originalText": "Homeless",
          "characterOffsetBegin": 16,
          "characterOffsetEnd": 24,
          "pos": "NE",
          "before": " ",
          "after": " "
        },
        {
          "index": 4,
          "word": "Man",
          "originalText": "Man",
          "characterOffsetBegin": 25,
          "characterOffsetEnd": 28,
          "pos": "PIS",
          "before": " ",
          "after": " "
        },
        {
          "index": 5,
          "word": "erhält",
          "originalText": "erhält",
          "characterOffsetBegin": 29,
          "characterOffsetEnd": 35,
          "pos": "VVFIN",
          "before": " ",
          "after": " "
        },
        {
          "index": 6,
          "word": "$",
          "originalText": "$",
          "characterOffsetBegin": 36,
          "characterOffsetEnd": 37,
          "pos": "ADV",
          "before": " ",
          "after": " "
        },
        {
          "index": 7,
          "word": "100",
          "originalText": "100",
          "characterOffsetBegin": 38,
          "characterOffsetEnd": 41,
          "pos": "CARD",
          "before": " ",
          "after": " "
        },
        {
          "index": 8,
          "word": "und",
          "originalText": "und",
          "characterOffsetBegin": 42,
          "characterOffsetEnd": 45,
          "pos": "KON",
          "before": " ",
          "after": " "
        },
        {
          "index": 9,
          "word": "verbringt",
          "originalText": "verbringt",
          "characterOffsetBegin": 46,
          "characterOffsetEnd": 55,
          "pos": "VVFIN",
          "before": " ",
          "after": " "
        },
        {
          "index": 10,
          "word": "keinen",
          "originalText": "keinen",
          "characterOffsetBegin": 56,
          "characterOffsetEnd": 62,
          "pos": "PIAT",
          "before": " ",
          "after": " "
        },
        {
          "index": 11,
          "word": "Dime",
          "originalText": "Dime",
          "characterOffsetBegin": 63,
          "characterOffsetEnd": 67,
          "pos": "NN",
          "before": " ",
          "after": " "
        },
        {
          "index": 12,
          "word": "auf",
          "originalText": "auf",
          "characterOffsetBegin": 68,
          "characterOffsetEnd": 71,
          "pos": "APPR",
          "before": " ",
          "after": " "
        },
        {
          "index": 13,
          "word": "sich",
          "originalText": "sich",
          "characterOffsetBegin": 72,
          "characterOffsetEnd": 76,
          "pos": "PRF",
          "before": " ",
          "after": " "
        },
        {
          "index": 14,
          "word": "selbst",
          "originalText": "selbst",
          "characterOffsetBegin": 77,
          "characterOffsetEnd": 83,
          "pos": "ADV",
          "before": " ",
          "after": ""
        },
        {
          "index": 15,
          "word": "!",
          "originalText": "!",
          "characterOffsetBegin": 83,
          "characterOffsetEnd": 84,
          "pos": "$.",
          "before": "",
          "after": ""
        }
      ]
    }
  ]
}