{
  "sentences": [
    {
      "index": 0,
      "basicDependencies": [
        {
          "dep": "ROOT",
          "governor": 0,
          "governorGloss": "ROOT",
          "dependent": 9,
          "dependentGloss": "regieren"
        },
        {
          "dep": "case",
          "governor": 3,
          "governorGloss": "Jong",
          "dependent": 1,
          "dependentGloss": "In"
        },
        {
          "dep": "name",
          "governor": 3,
          "governorGloss": "Jong",
          "dependent": 2,
          "dependentGloss": "Kim"
        },
        {
          "dep": "nmod",
          "governor": 9,
          "governorGloss": "regieren",
          "dependent": 3,
          "dependentGloss": "Jong"
        },
        {
          "dep": "det",
          "governor": 5,
          "governorGloss": "Abwesenheit",
          "dependent": 4,
          "dependentGloss": "Un"
        },
        {
          "dep": "nsubj",
          "governor": 9,
          "governorGloss": "regieren",
          "dependent": 5,
          "dependentGloss": "Abwesenheit"
        },
        {
          "dep": "aux",
          "governor": 9,
          "governorGloss": "regieren",
          "dependent": 6,
          "dependentGloss": "kann"
        },
        {
          "dep": "det",
          "governor": 8,
          "governorGloss": "Schwester",
          "dependent": 7,
          "dependentGloss": "seine"
        },
        {
          "dep": "dobj",
          "governor": 9,
          "governorGloss": "regieren",
          "dependent": 8,
          "dependentGloss": "Schwester"
        },
        {
          "dep": "punct",
          "governor": 9,
          "governorGloss": "regieren",
          "dependent": 10,
          "dependentGloss": "."
        }
      ],
      "enhancedDependencies": [
        {
          "dep": "ROOT",
          "governor": 0,
          "governorGloss": "ROOT",
          "dependent": 9,
          "dependentGloss": "regieren"
        },
        {
          "dep": "case",
          "governor": 3,
          "governorGloss": "Jong",
          "dependent": 1,
          "dependentGloss": "In"
        },
        {
          "dep": "name",
          "governor": 3,
          "governorGloss": "Jong",
          "dependent": 2,
          "dependentGloss": "Kim"
        },
        {
          "dep": "nmod",
          "governor": 9,
          "governorGloss": "regieren",
          "dependent": 3,
          "dependentGloss": "Jong"
        },
        {
          "dep": "det",
          "governor": 5,
          "governorGloss": "Abwesenheit",
          "dependent": 4,
          "dependentGloss": "Un"
        },
        {
          "dep": "nsubj",
          "governor": 9,
          "governorGloss": "regieren",
          "dependent": 5,
          "dependentGloss": "Abwesenheit"
        },
        {
          "dep": "aux",
          "governor": 9,
          "governorGloss": "regieren",
          "dependent": 6,
          "dependentGloss": "kann"
        },
        {
          "dep": "det",
          "governor": 8,
          "governorGloss": "Schwester",
          "dependent": 7,
          "dependentGloss": "seine"
        },
        {
          "dep": "dobj",
          "governor": 9,
          "governorGloss": "regieren",
          "dependent": 8,
          "dependentGloss": "Schwester"
        },
        {
          "dep": "punct",
          "governor": 9,
          "governorGloss": "regieren",
          "dependent": 10,
          "dependentGloss": "."
        }
      ],
      "enhancedPlusPlusDependencies": [
        {
          "dep": "ROOT",
          "governor": 0,
          "governorGloss": "ROOT",
          "dependent": 9,
          "dependentGloss": "regieren"
        },
        {
          "dep": "case",
          "governor": 3,
          "governorGloss": "Jong",
          "dependent": 1,
          "dependentGloss": "In"
        },
        {
          "dep": "name",
          "governor": 3,
          "governorGloss": "Jong",
          "dependent": 2,
          "dependentGloss": "Kim"
        },
        {
          "dep": "nmod",
          "governor": 9,
          "governorGloss": "regieren",
          "dependent": 3,
          "dependentGloss": "Jong"
        },
        {
          "dep": "det",
          "governor": 5,
          "governorGloss": "Abwesenheit",
          "dependent": 4,
          "dependentGloss": "Un"
        },
        {
          "dep": "nsubj",
          "governor": 9,
          "governorGloss": "regieren",
          "dependent": 5,
          "dependentGloss": "Abwesenheit"
        },
        {
          "dep": "aux",
          "governor": 9,
          "governorGloss": "regieren",
          "dependent": 6,
          "dependentGloss": "kann"
        },
        {
          "dep": "det",
          "governor": 8,
          "governorGloss": "Schwester",
          "dependent": 7,
          "dependentGloss": "seine"
        },
        {
          "dep": "dobj",
          "governor": 9,
          "governorGloss": "regieren",
          "dependent": 8,
          "dependentGloss": "Schwester"
        },
        {
          "dep": "punct",
          "governor": 9,
          "governorGloss": "regieren",
          "dependent": 10,
          "dependentGloss": "."
        }
      ],
      "tokens": [
        {
          "index": 1,
          "word": "In",
          "originalText": "In",
          "characterOffsetBegin": 0,
          "characterOffsetEnd": 2,
          "pos": "APPR",
          "before": "",
          "after": " "
        },
        {
          "index": 2,
          "word": "Kim",
          "originalText": "Kim",
          "characterOffsetBegin": 3,
          "characterOffsetEnd": 6,
          "pos": "NE",
          "before": " ",
          "after": " "
        },
        {
          "index": 3,
          "word": "Jong",
          "originalText": "Jong",
          "characterOffsetBegin": 7,
          "characterOffsetEnd": 11,
          "pos": "NE",
          "before": " ",
          "after": " "
        },
        {
          "index": 4,
          "word": "Un",
          "originalText": "Un",
          "characterOffsetBegin": 12,
          "characterOffsetEnd": 14,
          "pos": "NE",
          "before": " ",
          "after": " "
        },
        {
          "index": 5,
          "word": "Abwesenheit",
          "originalText": "Abwesenheit",
          "characterOffsetBegin": 15,
          "characterOffsetEnd": 26,
          "pos": "NN",
          "before": " ",
          "after": " "
        },
        {
          "index": 6,
          "word": "kann",
          "originalText": "kann",
          "characterOffsetBegin": 27,
          "characterOffsetEnd": 31,
          "pos": "VMFIN",
          "before": " ",
          "after": " "
        },
        {
          "index": 7,
          "word": "seine",
          "originalText": "seine",
          "characterOffsetBegin": 32,
          "characterOffsetEnd": 37,
          "pos": "PPOSAT",
          "before": " ",
          "after": " "
        },
        {
          "index": 8,
          "word": "Schwester",
          "originalText": "Schwester",
          "characterOffsetBegin": 38,
          "characterOffsetEnd": 47,
          "pos": "NN",
          "before": " ",
          "after": " "
        },
        {
          "index": 9,
          "word": "regieren",
          "originalText": "regieren",
          "characterOffsetBegin": 48,
          "characterOffsetEnd": 56,
          "pos": "VVFIN",
          "before": " ",
          "after": ""
        },
        {
          "index": 10,
          "word": ".",
          "originalText": ".",
          "characterOffsetBegin": 56,
          "characterOffsetEnd": 57,
          "pos": "$.",
          "before": "",
          "after": " "
        }
      ]
    },
    {
      "index": 1,
      "basicDependencies": [
        {
          "dep": "ROOT",
          "governor": 0,
          "governorGloss": "ROOT",
          "dependent": 1,
          "dependentGloss": "Oder"
        },
        {
          "dep": "neg",
          "governor": 1,
          "governorGloss": "Oder",
          "dependent": 2,
          "dependentGloss": "nicht"
        },
        {
          "dep": "punct",
          "governor": 1,
          "governorGloss": "Oder",
          "dependent": 3,
          "dependentGloss": "."
        }
      ],
      "enhancedDependencies": [
        {
          "dep": "ROOT",
          "governor": 0,
          "governorGloss": "ROOT",
          "dependent": 1,
          "dependentGloss": "Oder"
        },
        {
          "dep": "neg",
          "governor": 1,
          "governorGloss": "Oder",
          "dependent": 2,
          "dependentGloss": "nicht"
        },
        {
          "dep": "punct",
          "governor": 1,
          "governorGloss": "Oder",
          "dependent": 3,
          "dependentGloss": "."
        }
      ],
      "enhancedPlusPlusDependencies": [
        {
          "dep": "ROOT",
          "governor": 0,
          "governorGloss": "ROOT",
          "dependent": 1,
          "dependentGloss": "Oder"
        },
        {
          "dep": "neg",
          "governor": 1,
          "governorGloss": "Oder",
          "dependent": 2,
          "dependentGloss": "nicht"
        },
        {
          "dep": "punct",
          "governor": 1,
          "governorGloss": "Oder",
          "dependent": 3,
          "dependentGloss": "."
        }
      ],
      "tokens": [
        {
          "index": 1,
          "word": "Oder",
          "originalText": "Oder",
          "characterOffsetBegin": 58,
          "characterOffsetEnd": 62,
          "pos": "KON",
          "before": " ",
          "after": " "
        },
        {
          "index": 2,
          "word": "nicht",
          "originalText": "nicht",
          "characterOffsetBegin": 63,
          "characterOffsetEnd": 68,
          "pos": "PTKNEG",
          "before": " ",
          "after": ""
        },
        {
          "index": 3,
          "word": ".",
          "originalText": ".",
          "characterOffsetBegin": 68,
          "characterOffsetEnd": 69,
          "pos": "$.",
          "before": "",
          "after": ""
        }
      ]
    }
  ]
}