{
  "sentences": [
    {
      "index": 0,
      "basicDependencies": [
        {
          "dep": "ROOT",
          "governor": 0,
          "governorGloss": "ROOT",
          "dependent": 2,
          "dependentGloss": "wirbelt"
        },
        {
          "dep": "nsubj",
          "governor": 2,
          "governorGloss": "wirbelt",
          "dependent": 1,
          "dependentGloss": "Verwirrung"
        },
        {
          "dep": "punct",
          "governor": 2,
          "governorGloss": "wirbelt",
          "dependent": 3,
          "dependentGloss": ","
        },
        {
          "dep": "nsubj",
          "governor": 5,
          "governorGloss": "düster",
          "dependent": 4,
          "dependentGloss": "Details"
        },
        {
          "dep": "parataxis",
          "governor": 2,
          "governorGloss": "wirbelt",
          "dependent": 5,
          "dependentGloss": "düster"
        },
        {
          "dep": "case",
          "governor": 8,
          "governorGloss": "Verhaftung",
          "dependent": 6,
          "dependentGloss": "in"
        },
        {
          "dep": "det",
          "governor": 8,
          "governorGloss": "Verhaftung",
          "dependent": 7,
          "dependentGloss": "der"
        },
        {
          "dep": "nmod",
          "governor": 5,
          "governorGloss": "düster",
          "dependent": 8,
          "dependentGloss": "Verhaftung"
        },
        {
          "dep": "case",
          "governor": 11,
          "governorGloss": "Führer",
          "dependent": 9,
          "dependentGloss": "von"
        },
        {
          "dep": "nummod",
          "governor": 11,
          "governorGloss": "Führer",
          "dependent": 10,
          "dependentGloss": "ISIS"
        },
        {
          "dep": "nmod",
          "governor": 8,
          "governorGloss": "Verhaftung",
          "dependent": 11,
          "dependentGloss": "Führer"
        },
        {
          "dep": "punct",
          "governor": 5,
          "governorGloss": "düster",
          "dependent": 12,
          "dependentGloss": "`"
        },
        {
          "dep": "dobj",
          "governor": 5,
          "governorGloss": "düster",
          "dependent": 13,
          "dependentGloss": "Frau"
        },
        {
          "dep": "punct",
          "governor": 13,
          "governorGloss": "Frau",
          "dependent": 14,
          "dependentGloss": "'"
        }
      ],
      "enhancedDependencies": [
        {
          "dep": "ROOT",
          "governor": 0,
          "governorGloss": "ROOT",
          "dependent": 2,
          "dependentGloss": "wirbelt"
        },
        {
          "dep": "nsubj",
          "governor": 2,
          "governorGloss": "wirbelt",
          "dependent": 1,
          "dependentGloss": "Verwirrung"
        },
        {
          "dep": "punct",
          "governor": 2,
          "governorGloss": "wirbelt",
          "dependent": 3,
          "dependentGloss": ","
        },
        {
          "dep": "nsubj",
          "governor": 5,
          "governorGloss": "düster",
          "dependent": 4,
          "dependentGloss": "Details"
        },
        {
          "dep": "parataxis",
          "governor": 2,
          "governorGloss": "wirbelt",
          "dependent": 5,
          "dependentGloss": "düster"
        },
        {
          "dep": "case",
          "governor": 8,
          "governorGloss": "Verhaftung",
          "dependent": 6,
          "dependentGloss": "in"
        },
        {
          "dep": "det",
          "governor": 8,
          "governorGloss": "Verhaftung",
          "dependent": 7,
          "dependentGloss": "der"
        },
        {
          "dep": "nmod",
          "governor": 5,
          "governorGloss": "düster",
          "dependent": 8,
          "dependentGloss": "Verhaftung"
        },
        {
          "dep": "case",
          "governor": 11,
          "governorGloss": "Führer",
          "dependent": 9,
          "dependentGloss": "von"
        },
        {
          "dep": "nummod",
          "governor": 11,
          "governorGloss": "Führer",
          "dependent": 10,
          "dependentGloss": "ISIS"
        },
        {
          "dep": "nmod",
          "governor": 8,
          "governorGloss": "Verhaftung",
          "dependent": 11,
          "dependentGloss": "Führer"
        },
        {
          "dep": "punct",
          "governor": 5,
          "governorGloss": "düster",
          "dependent": 12,
          "dependentGloss": "`"
        },
        {
          "dep": "dobj",
          "governor": 5,
          "governorGloss": "düster",
          "dependent": 13,
          "dependentGloss": "Frau"
        },
        {
          "dep": "punct",
          "governor": 13,
          "governorGloss": "Frau",
          "dependent": 14,
          "dependentGloss": "'"
        }
      ],
      "enhancedPlusPlusDependencies": [
        {
          "dep": "ROOT",
          "governor": 0,
          "governorGloss": "ROOT",
          "dependent": 2,
          "dependentGloss": "wirbelt"
        },
        {
          "dep": "nsubj",
          "governor": 2,
          "governorGloss": "wirbelt",
          "dependent": 1,
          "dependentGloss": "Verwirrung"
        },
        {
          "dep": "punct",
          "governor": 2,
          "governorGloss": "wirbelt",
          "dependent": 3,
          "dependentGloss": ","
        },
        {
          "dep": "nsubj",
          "governor": 5,
          "governorGloss": "düster",
          "dependent": 4,
          "dependentGloss": "Details"
        },
        {
          "dep": "parataxis",
          "governor": 2,
          "governorGloss": "wirbelt",
          "dependent": 5,
          "dependentGloss": "düster"
        },
        {
          "dep": "case",
          "governor": 8,
          "governorGloss": "Verhaftung",
          "dependent": 6,
          "dependentGloss": "in"
        },
        {
          "dep": "det",
          "governor": 8,
          "governorGloss": "Verhaftung",
          "dependent": 7,
          "dependentGloss": "der"
        },
        {
          "dep": "nmod",
          "governor": 5,
          "governorGloss": "düster",
          "dependent": 8,
          "dependentGloss": "Verhaftung"
        },
        {
          "dep": "case",
          "governor": 11,
          "governorGloss": "Führer",
          "dependent": 9,
          "dependentGloss": "von"
        },
        {
          "dep": "nummod",
          "governor": 11,
          "governorGloss": "Führer",
          "dependent": 10,
          "dependentGloss": "ISIS"
        },
        {
          "dep": "nmod",
          "governor": 8,
          "governorGloss": "Verhaftung",
          "dependent": 11,
          "dependentGloss": "Führer"
        },
        {
          "dep": "punct",
          "governor": 5,
          "governorGloss": "düster",
          "dependent": 12,
          "dependentGloss": "`"
        },
        {
          "dep": "dobj",
          "governor": 5,
          "governorGloss": "düster",
          "dependent": 13,
          "dependentGloss": "Frau"
        },
        {
          "dep": "punct",
          "governor": 13,
          "governorGloss": "Frau",
          "dependent": 14,
          "dependentGloss": "'"
        }
      ],
      "tokens": [
        {
          "index": 1,
          "word": "Verwirrung",
          "originalText": "Verwirrung",
          "characterOffsetBegin": 0,
          "characterOffsetEnd": 10,
          "pos": "NN",
          "before": "",
          "after": " "
        },
        {
          "index": 2,
          "word": "wirbelt",
          "originalText": "wirbelt",
          "characterOffsetBegin": 11,
          "characterOffsetEnd": 18,
          "pos": "VVFIN",
          "before": " ",
          "after": ""
        },
        {
          "index": 3,
          "word": ",",
          "originalText": ",",
          "characterOffsetBegin": 18,
          "characterOffsetEnd": 19,
          "pos": "$,",
          "before": "",
          "after": " "
        },
        {
          "index": 4,
          "word": "Details",
          "originalText": "Details",
          "characterOffsetBegin": 20,
          "characterOffsetEnd": 27,
          "pos": "NN",
          "before": " ",
          "after": " "
        },
        {
          "index": 5,
          "word": "düster",
          "originalText": "düster",
          "characterOffsetBegin": 28,
          "characterOffsetEnd": 34,
          "pos": "ADJD",
          "before": " ",
          "after": " "
        },
        {
          "index": 6,
          "word": "in",
          "originalText": "in",
          "characterOffsetBegin": 35,
          "characterOffsetEnd": 37,
          "pos": "APPR",
          "before": " ",
          "after": " "
        },
        {
          "index": 7,
          "word": "der",
          "originalText": "der",
          "characterOffsetBegin": 38,
          "characterOffsetEnd": 41,
          "pos": "ART",
          "before": " ",
          "after": " "
        },
        {
          "index": 8,
          "word": "Verhaftung",
          "originalText": "Verhaftung",
          "characterOffsetBegin": 42,
          "characterOffsetEnd": 52,
          "pos": "NN",
          "before": " ",
          "after": " "
        },
        {
          "index": 9,
          "word": "von",
          "originalText": "von",
          "characterOffsetBegin": 53,
          "characterOffsetEnd": 56,
          "pos": "APPR",
          "before": " ",
          "after": " "
        },
        {
          "index": 10,
          "word": "ISIS",
          "originalText": "ISIS",
          "characterOffsetBegin": 57,
          "characterOffsetEnd": 61,
          "pos": "NE",
          "before": " ",
          "after": " "
        },
        {
          "index": 11,
          "word": "Führer",
          "originalText": "Führer",
          "characterOffsetBegin": 62,
          "characterOffsetEnd": 68,
          "pos": "NN",
          "before": " ",
          "after": " "
        },
        {
          "index": 12,
          "word": "`",
          "originalText": "'",
          "characterOffsetBegin": 69,
          "characterOffsetEnd": 70,
          "pos": "CARD",
          "before": " ",
          "after": ""
        },
        {
          "index": 13,
          "word": "Frau",
          "originalText": "Frau",
          "characterOffsetBegin": 70,
          "characterOffsetEnd": 74,
          "pos": "NN",
          "before": "",
          "after": ""
        },
        {
          "index": 14,
          "word": "'",
          "originalText": "'",
          "characterOffsetBegin": 74,
          "characterOffsetEnd": 75,
          "pos": "$[",
          "before": "",
          "after": ""
        }
      ]
    }
  ]
}