{
  "sentences": [
    {
      "index": 0,
      "basicDependencies": [
        {
          "dep": "ROOT",
          "governor": 0,
          "governorGloss": "ROOT",
          "dependent": 4,
          "dependentGloss": "Mama"
        },
        {
          "dep": "case",
          "governor": 3,
          "governorGloss": "Trick",
          "dependent": 1,
          "dependentGloss": "Nach"
        },
        {
          "dep": "amod",
          "governor": 3,
          "governorGloss": "Trick",
          "dependent": 2,
          "dependentGloss": "ISIS"
        },
        {
          "dep": "nmod",
          "governor": 4,
          "governorGloss": "Mama",
          "dependent": 3,
          "dependentGloss": "Trick"
        },
        {
          "dep": "case",
          "governor": 6,
          "governorGloss": "Essen",
          "dependent": 5,
          "dependentGloss": "in"
        },
        {
          "dep": "nmod",
          "governor": 4,
          "governorGloss": "Mama",
          "dependent": 6,
          "dependentGloss": "Essen"
        },
        {
          "dep": "name",
          "governor": 9,
          "governorGloss": "5",
          "dependent": 7,
          "dependentGloss": "Sohn"
        },
        {
          "dep": "punct",
          "governor": 9,
          "governorGloss": "5",
          "dependent": 8,
          "dependentGloss": "-"
        },
        {
          "dep": "appos",
          "governor": 6,
          "governorGloss": "Essen",
          "dependent": 9,
          "dependentGloss": "5"
        },
        {
          "dep": "amod",
          "governor": 12,
          "governorGloss": "Kannibalen",
          "dependent": 10,
          "dependentGloss": "andere"
        },
        {
          "dep": "amod",
          "governor": 12,
          "governorGloss": "Kannibalen",
          "dependent": 11,
          "dependentGloss": "widerwillige"
        },
        {
          "dep": "nsubj",
          "governor": 4,
          "governorGloss": "Mama",
          "dependent": 12,
          "dependentGloss": "Kannibalen"
        },
        {
          "dep": "case",
          "governor": 15,
          "governorGloss": "gezwungen",
          "dependent": 13,
          "dependentGloss": "einschließlich"
        },
        {
          "dep": "det",
          "governor": 15,
          "governorGloss": "gezwungen",
          "dependent": 14,
          "dependentGloss": "der"
        },
        {
          "dep": "nmod",
          "governor": 12,
          "governorGloss": "Kannibalen",
          "dependent": 15,
          "dependentGloss": "gezwungen"
        },
        {
          "dep": "punct",
          "governor": 12,
          "governorGloss": "Kannibalen",
          "dependent": 16,
          "dependentGloss": ","
        },
        {
          "dep": "amod",
          "governor": 18,
          "governorGloss": "Körperteile",
          "dependent": 17,
          "dependentGloss": "eigene"
        },
        {
          "dep": "dobj",
          "governor": 20,
          "governorGloss": "essen",
          "dependent": 18,
          "dependentGloss": "Körperteile"
        },
        {
          "dep": "aux",
          "governor": 20,
          "governorGloss": "essen",
          "dependent": 19,
          "dependentGloss": "zu"
        },
        {
          "dep": "acl",
          "governor": 12,
          "governorGloss": "Kannibalen",
          "dependent": 20,
          "dependentGloss": "essen"
        }
      ],
      "enhancedDependencies": [
        {
          "dep": "ROOT",
          "governor": 0,
          "governorGloss": "ROOT",
          "dependent": 4,
          "dependentGloss": "Mama"
        },
        {
          "dep": "case",
          "governor": 3,
          "governorGloss": "Trick",
          "dependent": 1,
          "dependentGloss": "Nach"
        },
        {
          "dep": "amod",
          "governor": 3,
          "governorGloss": "Trick",
          "dependent": 2,
          "dependentGloss": "ISIS"
        },
        {
          "dep": "nmod",
          "governor": 4,
          "governorGloss": "Mama",
          "dependent": 3,
          "dependentGloss": "Trick"
        },
        {
          "dep": "case",
          "governor": 6,
          "governorGloss": "Essen",
          "dependent": 5,
          "dependentGloss": "in"
        },
        {
          "dep": "nmod",
          "governor": 4,
          "governorGloss": "Mama",
          "dependent": 6,
          "dependentGloss": "Essen"
        },
        {
          "dep": "name",
          "governor": 9,
          "governorGloss": "5",
          "dependent": 7,
          "dependentGloss": "Sohn"
        },
        {
          "dep": "punct",
          "governor": 9,
          "governorGloss": "5",
          "dependent": 8,
          "dependentGloss": "-"
        },
        {
          "dep": "appos",
          "governor": 6,
          "governorGloss": "Essen",
          "dependent": 9,
          "dependentGloss": "5"
        },
        {
          "dep": "amod",
          "governor": 12,
          "governorGloss": "Kannibalen",
          "dependent": 10,
          "dependentGloss": "andere"
        },
        {
          "dep": "amod",
          "governor": 12,
          "governorGloss": "Kannibalen",
          "dependent": 11,
          "dependentGloss": "widerwillige"
        },
        {
          "dep": "nsubj",
          "governor": 4,
          "governorGloss": "Mama",
          "dependent": 12,
          "dependentGloss": "Kannibalen"
        },
        {
          "dep": "case",
          "governor": 15,
          "governorGloss": "gezwungen",
          "dependent": 13,
          "dependentGloss": "einschließlich"
        },
        {
          "dep": "det",
          "governor": 15,
          "governorGloss": "gezwungen",
          "dependent": 14,
          "dependentGloss": "der"
        },
        {
          "dep": "nmod",
          "governor": 12,
          "governorGloss": "Kannibalen",
          "dependent": 15,
          "dependentGloss": "gezwungen"
        },
        {
          "dep": "punct",
          "governor": 12,
          "governorGloss": "Kannibalen",
          "dependent": 16,
          "dependentGloss": ","
        },
        {
          "dep": "amod",
          "governor": 18,
          "governorGloss": "Körperteile",
          "dependent": 17,
          "dependentGloss": "eigene"
        },
        {
          "dep": "dobj",
          "governor": 20,
          "governorGloss": "essen",
          "dependent": 18,
          "dependentGloss": "Körperteile"
        },
        {
          "dep": "aux",
          "governor": 20,
          "governorGloss": "essen",
          "dependent": 19,
          "dependentGloss": "zu"
        },
        {
          "dep": "acl",
          "governor": 12,
          "governorGloss": "Kannibalen",
          "dependent": 20,
          "dependentGloss": "essen"
        }
      ],
      "enhancedPlusPlusDependencies": [
        {
          "dep": "ROOT",
          "governor": 0,
          "governorGloss": "ROOT",
          "dependent": 4,
          "dependentGloss": "Mama"
        },
        {
          "dep": "case",
          "governor": 3,
          "governorGloss": "Trick",
          "dependent": 1,
          "dependentGloss": "Nach"
        },
        {
          "dep": "amod",
          "governor": 3,
          "governorGloss": "Trick",
          "dependent": 2,
          "dependentGloss": "ISIS"
        },
        {
          "dep": "nmod",
          "governor": 4,
          "governorGloss": "Mama",
          "dependent": 3,
          "dependentGloss": "Trick"
        },
        {
          "dep": "case",
          "governor": 6,
          "governorGloss": "Essen",
          "dependent": 5,
          "dependentGloss": "in"
        },
        {
          "dep": "nmod",
          "governor": 4,
          "governorGloss": "Mama",
          "dependent": 6,
          "dependentGloss": "Essen"
        },
        {
          "dep": "name",
          "governor": 9,
          "governorGloss": "5",
          "dependent": 7,
          "dependentGloss": "Sohn"
        },
        {
          "dep": "punct",
          "governor": 9,
          "governorGloss": "5",
          "dependent": 8,
          "dependentGloss": "-"
        },
        {
          "dep": "appos",
          "governor": 6,
          "governorGloss": "Essen",
          "dependent": 9,
          "dependentGloss": "5"
        },
        {
          "dep": "amod",
          "governor": 12,
          "governorGloss": "Kannibalen",
          "dependent": 10,
          "dependentGloss": "andere"
        },
        {
          "dep": "amod",
          "governor": 12,
          "governorGloss": "Kannibalen",
          "dependent": 11,
          "dependentGloss": "widerwillige"
        },
        {
          "dep": "nsubj",
          "governor": 4,
          "governorGloss": "Mama",
          "dependent": 12,
          "dependentGloss": "Kannibalen"
        },
        {
          "dep": "case",
          "governor": 15,
          "governorGloss": "gezwungen",
          "dependent": 13,
          "dependentGloss": "einschließlich"
        },
        {
          "dep": "det",
          "governor": 15,
          "governorGloss": "gezwungen",
          "dependent": 14,
          "dependentGloss": "der"
        },
        {
          "dep": "nmod",
          "governor": 12,
          "governorGloss": "Kannibalen",
          "dependent": 15,
          "dependentGloss": "gezwungen"
        },
        {
          "dep": "punct",
          "governor": 12,
          "governorGloss": "Kannibalen",
          "dependent": 16,
          "dependentGloss": ","
        },
        {
          "dep": "amod",
          "governor": 18,
          "governorGloss": "Körperteile",
          "dependent": 17,
          "dependentGloss": "eigene"
        },
        {
          "dep": "dobj",
          "governor": 20,
          "governorGloss": "essen",
          "dependent": 18,
          "dependentGloss": "Körperteile"
        },
        {
          "dep": "aux",
          "governor": 20,
          "governorGloss": "essen",
          "dependent": 19,
          "dependentGloss": "zu"
        },
        {
          "dep": "acl",
          "governor": 12,
          "governorGloss": "Kannibalen",
          "dependent": 20,
          "dependentGloss": "essen"
        }
      ],
      "tokens": [
        {
          "index": 1,
          "word": "Nach",
          "originalText": "Nach",
          "characterOffsetBegin": 0,
          "characterOffsetEnd": 4,
          "pos": "APPR",
          "before": "",
          "after": " "
        },
        {
          "index": 2,
          "word": "ISIS",
          "originalText": "ISIS",
          "characterOffsetBegin": 5,
          "characterOffsetEnd": 9,
          "pos": "NE",
          "before": " ",
          "after": " "
        },
        {
          "index": 3,
          "word": "Trick",
          "originalText": "Trick",
          "characterOffsetBegin": 10,
          "characterOffsetEnd": 15,
          "pos": "NN",
          "before": " ",
          "after": " "
        },
        {
          "index": 4,
          "word": "Mama",
          "originalText": "Mama",
          "characterOffsetBegin": 16,
          "characterOffsetEnd": 20,
          "pos": "NN",
          "before": " ",
          "after": " "
        },
        {
          "index": 5,
          "word": "in",
          "originalText": "in",
          "characterOffsetBegin": 21,
          "characterOffsetEnd": 23,
          "pos": "APPR",
          "before": " ",
          "after": " "
        },
        {
          "index": 6,
          "word": "Essen",
          "originalText": "Essen",
          "characterOffsetBegin": 24,
          "characterOffsetEnd": 29,
          "pos": "NE",
          "before": " ",
          "after": " "
        },
        {
          "index": 7,
          "word": "Sohn",
          "originalText": "Sohn",
          "characterOffsetBegin": 30,
          "characterOffsetEnd": 34,
          "pos": "NN",
          "before": " ",
          "after": " "
        },
        {
          "index": 8,
          "word": "-",
          "originalText": "-",
          "characterOffsetBegin": 35,
          "characterOffsetEnd": 36,
          "pos": "$[",
          "before": " ",
          "after": " "
        },
        {
          "index": 9,
          "word": "5",
          "originalText": "5",
          "characterOffsetBegin": 37,
          "characterOffsetEnd": 38,
          "pos": "CARD",
          "before": " ",
          "after": " "
        },
        {
          "index": 10,
          "word": "andere",
          "originalText": "andere",
          "characterOffsetBegin": 39,
          "characterOffsetEnd": 45,
          "pos": "ADJA",
          "before": " ",
          "after": " "
        },
        {
          "index": 11,
          "word": "widerwillige",
          "originalText": "widerwillige",
          "characterOffsetBegin": 46,
          "characterOffsetEnd": 58,
          "pos": "ADJA",
          "before": " ",
          "after": " "
        },
        {
          "index": 12,
          "word": "Kannibalen",
          "originalText": "Kannibalen",
          "characterOffsetBegin": 59,
          "characterOffsetEnd": 69,
          "pos": "NN",
          "before": " ",
          "after": " "
        },
        {
          "index": 13,
          "word": "einschließlich",
          "originalText": "einschließlich",
          "characterOffsetBegin": 70,
          "characterOffsetEnd": 84,
          "pos": "APPR",
          "before": " ",
          "after": " "
        },
        {
          "index": 14,
          "word": "der",
          "originalText": "der",
          "characterOffsetBegin": 85,
          "characterOffsetEnd": 88,
          "pos": "ART",
          "before": " ",
          "after": " "
        },
        {
          "index": 15,
          "word": "gezwungen",
          "originalText": "gezwungen",
          "characterOffsetBegin": 89,
          "characterOffsetEnd": 98,
          "pos": "VVPP",
          "before": " ",
          "after": ""
        },
        {
          "index": 16,
          "word": ",",
          "originalText": ",",
          "characterOffsetBegin": 98,
          "characterOffsetEnd": 99,
          "pos": "$,",
          "before": "",
          "after": " "
        },
        {
          "index": 17,
          "word": "eigene",
          "originalText": "eigene",
          "characterOffsetBegin": 100,
          "characterOffsetEnd": 106,
          "pos": "ADJA",
          "before": " ",
          "after": " "
        },
        {
          "index": 18,
          "word": "Körperteile",
          "originalText": "Körperteile",
          "characterOffsetBegin": 107,
          "characterOffsetEnd": 118,
          "pos": "NN",
          "before": " ",
          "after": " "
        },
        {
          "index": 19,
          "word": "zu",
          "originalText": "zu",
          "characterOffsetBegin": 119,
          "characterOffsetEnd": 121,
          "pos": "PTKZU",
          "before": " ",
          "after": " "
        },
        {
          "index": 20,
          "word": "essen",
          "originalText": "essen",
          "characterOffsetBegin": 122,
          "characterOffsetEnd": 127,
          "pos": "VVINF",
          "before": " ",
          "after": ""
        }
      ]
    }
  ]
}