{
  "sentences": [
    {
      "index": 0,
      "basicDependencies": [
        {
          "dep": "ROOT",
          "governor": 0,
          "governorGloss": "ROOT",
          "dependent": 4,
          "dependentGloss": "behauptet"
        },
        {
          "dep": "det",
          "governor": 3,
          "governorGloss": "Staat",
          "dependent": 1,
          "dependentGloss": "Der"
        },
        {
          "dep": "amod",
          "governor": 3,
          "governorGloss": "Staat",
          "dependent": 2,
          "dependentGloss": "islamische"
        },
        {
          "dep": "nsubj",
          "governor": 4,
          "governorGloss": "behauptet",
          "dependent": 3,
          "dependentGloss": "Staat"
        },
        {
          "dep": "punct",
          "governor": 4,
          "governorGloss": "behauptet",
          "dependent": 5,
          "dependentGloss": ","
        },
        {
          "dep": "det",
          "governor": 8,
          "governorGloss": "Journalist",
          "dependent": 6,
          "dependentGloss": "der"
        },
        {
          "dep": "amod",
          "governor": 8,
          "governorGloss": "Journalist",
          "dependent": 7,
          "dependentGloss": "amerikanische"
        },
        {
          "dep": "nsubj",
          "governor": 11,
          "governorGloss": "haben",
          "dependent": 8,
          "dependentGloss": "Journalist"
        },
        {
          "dep": "appos",
          "governor": 8,
          "governorGloss": "Journalist",
          "dependent": 9,
          "dependentGloss": "enthauptet"
        },
        {
          "dep": "aux",
          "governor": 11,
          "governorGloss": "haben",
          "dependent": 10,
          "dependentGloss": "zu"
        },
        {
          "dep": "ccomp",
          "governor": 4,
          "governorGloss": "behauptet",
          "dependent": 11,
          "dependentGloss": "haben"
        }
      ],
      "enhancedDependencies": [
        {
          "dep": "ROOT",
          "governor": 0,
          "governorGloss": "ROOT",
          "dependent": 4,
          "dependentGloss": "behauptet"
        },
        {
          "dep": "det",
          "governor": 3,
          "governorGloss": "Staat",
          "dependent": 1,
          "dependentGloss": "Der"
        },
        {
          "dep": "amod",
          "governor": 3,
          "governorGloss": "Staat",
          "dependent": 2,
          "dependentGloss": "islamische"
        },
        {
          "dep": "nsubj",
          "governor": 4,
          "governorGloss": "behauptet",
          "dependent": 3,
          "dependentGloss": "Staat"
        },
        {
          "dep": "punct",
          "governor": 4,
          "governorGloss": "behauptet",
          "dependent": 5,
          "dependentGloss": ","
        },
        {
          "dep": "det",
          "governor": 8,
          "governorGloss": "Journalist",
          "dependent": 6,
          "dependentGloss": "der"
        },
        {
          "dep": "amod",
          "governor": 8,
          "governorGloss": "Journalist",
          "dependent": 7,
          "dependentGloss": "amerikanische"
        },
        {
          "dep": "nsubj",
          "governor": 11,
          "governorGloss": "haben",
          "dependent": 8,
          "dependentGloss": "Journalist"
        },
        {
          "dep": "appos",
          "governor": 8,
          "governorGloss": "Journalist",
          "dependent": 9,
          "dependentGloss": "enthauptet"
        },
        {
          "dep": "aux",
          "governor": 11,
          "governorGloss": "haben",
          "dependent": 10,
          "dependentGloss": "zu"
        },
        {
          "dep": "ccomp",
          "governor": 4,
          "governorGloss": "behauptet",
          "dependent": 11,
          "dependentGloss": "haben"
        }
      ],
      "enhancedPlusPlusDependencies": [
        {
          "dep": "ROOT",
          "governor": 0,
          "governorGloss": "ROOT",
          "dependent": 4,
          "dependentGloss": "behauptet"
        },
        {
          "dep": "det",
          "governor": 3,
          "governorGloss": "Staat",
          "dependent": 1,
          "dependentGloss": "Der"
        },
        {
          "dep": "amod",
          "governor": 3,
          "governorGloss": "Staat",
          "dependent": 2,
          "dependentGloss": "islamische"
        },
        {
          "dep": "nsubj",
          "governor": 4,
          "governorGloss": "behauptet",
          "dependent": 3,
          "dependentGloss": "Staat"
        },
        {
          "dep": "punct",
          "governor": 4,
          "governorGloss": "behauptet",
          "dependent": 5,
          "dependentGloss": ","
        },
        {
          "dep": "det",
          "governor": 8,
          "governorGloss": "Journalist",
          "dependent": 6,
          "dependentGloss": "der"
        },
        {
          "dep": "amod",
          "governor": 8,
          "governorGloss": "Journalist",
          "dependent": 7,
          "dependentGloss": "amerikanische"
        },
        {
          "dep": "nsubj",
          "governor": 11,
          "governorGloss": "haben",
          "dependent": 8,
          "dependentGloss": "Journalist"
        },
        {
          "dep": "appos",
          "governor": 8,
          "governorGloss": "Journalist",
          "dependent": 9,
          "dependentGloss": "enthauptet"
        },
        {
          "dep": "aux",
          "governor": 11,
          "governorGloss": "haben",
          "dependent": 10,
          "dependentGloss": "zu"
        },
        {
          "dep": "ccomp",
          "governor": 4,
          "governorGloss": "behauptet",
          "dependent": 11,
          "dependentGloss": "haben"
        }
      ],
      "tokens": [
        {
          "index": 1,
          "word": "Der",
          "originalText": "Der",
          "characterOffsetBegin": 0,
          "characterOffsetEnd": 3,
          "pos": "ART",
          "before": "",
          "after": " "
        },
        {
          "index": 2,
          "word": "islamische",
          "originalText": "islamische",
          "characterOffsetBegin": 4,
          "characterOffsetEnd": 14,
          "pos": "ADJA",
          "before": " ",
          "after": " "
        },
        {
          "index": 3,
          "word": "Staat",
          "originalText": "Staat",
          "characterOffsetBegin": 15,
          "characterOffsetEnd": 20,
          "pos": "NN",
          "before": " ",
          "after": " "
        },
        {
          "index": 4,
          "word": "behauptet",
          "originalText": "behauptet",
          "characterOffsetBegin": 21,
          "characterOffsetEnd": 30,
          "pos": "VVFIN",
          "before": " ",
          "after": ""
        },
        {
          "index": 5,
          "word": ",",
          "originalText": ",",
          "characterOffsetBegin": 30,
          "characterOffsetEnd": 31,
          "pos": "$,",
          "before": "",
          "after": " "
        },
        {
          "index": 6,
          "word": "der",
          "originalText": "der",
          "characterOffsetBegin": 32,
          "characterOffsetEnd": 35,
          "pos": "ART",
          "before": " ",
          "after": " "
        },
        {
          "index": 7,
          "word": "amerikanische",
          "originalText": "amerikanische",
          "characterOffsetBegin": 36,
          "characterOffsetEnd": 49,
          "pos": "ADJA",
          "before": " ",
          "after": " "
        },
        {
          "index": 8,
          "word": "Journalist",
          "originalText": "Journalist",
          "characterOffsetBegin": 50,
          "characterOffsetEnd": 60,
          "pos": "NN",
          "before": " ",
          "after": " "
        },
        {
          "index": 9,
          "word": "enthauptet",
          "originalText": "enthauptet",
          "characterOffsetBegin": 61,
          "characterOffsetEnd": 71,
          "pos": "VVPP",
          "before": " ",
          "after": " "
        },
        {
          "index": 10,
          "word": "zu",
          "originalText": "zu",
          "characterOffsetBegin": 72,
          "characterOffsetEnd": 74,
          "pos": "PTKZU",
          "before": " ",
          "after": " "
        },
        {
          "index": 11,
          "word": "haben",
          "originalText": "haben",
          "characterOffsetBegin": 75,
          "characterOffsetEnd": 80,
          "pos": "VAINF",
          "before": " ",
          "after": ""
        }
      ]
    }
  ]
}