{
  "sentences": [
    {
      "index": 0,
      "basicDependencies": [
        {
          "dep": "ROOT",
          "governor": 0,
          "governorGloss": "ROOT",
          "dependent": 2,
          "dependentGloss": "Spiderman"
        },
        {
          "dep": "punct",
          "governor": 2,
          "governorGloss": "Spiderman",
          "dependent": 1,
          "dependentGloss": "``"
        },
        {
          "dep": "punct",
          "governor": 4,
          "governorGloss": "gequetscht",
          "dependent": 3,
          "dependentGloss": "``"
        },
        {
          "dep": "appos",
          "governor": 2,
          "governorGloss": "Spiderman",
          "dependent": 4,
          "dependentGloss": "gequetscht"
        },
        {
          "dep": "punct",
          "governor": 4,
          "governorGloss": "gequetscht",
          "dependent": 5,
          "dependentGloss": ":"
        },
        {
          "dep": "dobj",
          "governor": 7,
          "governorGloss": "entschuldigen",
          "dependent": 6,
          "dependentGloss": "Experten"
        },
        {
          "dep": "parataxis",
          "governor": 4,
          "governorGloss": "gequetscht",
          "dependent": 7,
          "dependentGloss": "entschuldigen"
        },
        {
          "dep": "nsubj",
          "governor": 7,
          "governorGloss": "entschuldigen",
          "dependent": 8,
          "dependentGloss": "Ansprüche"
        }
      ],
      "enhancedDependencies": [
        {
          "dep": "ROOT",
          "governor": 0,
          "governorGloss": "ROOT",
          "dependent": 2,
          "dependentGloss": "Spiderman"
        },
        {
          "dep": "punct",
          "governor": 2,
          "governorGloss": "Spiderman",
          "dependent": 1,
          "dependentGloss": "``"
        },
        {
          "dep": "punct",
          "governor": 4,
          "governorGloss": "gequetscht",
          "dependent": 3,
          "dependentGloss": "``"
        },
        {
          "dep": "appos",
          "governor": 2,
          "governorGloss": "Spiderman",
          "dependent": 4,
          "dependentGloss": "gequetscht"
        },
        {
          "dep": "punct",
          "governor": 4,
          "governorGloss": "gequetscht",
          "dependent": 5,
          "dependentGloss": ":"
        },
        {
          "dep": "dobj",
          "governor": 7,
          "governorGloss": "entschuldigen",
          "dependent": 6,
          "dependentGloss": "Experten"
        },
        {
          "dep": "parataxis",
          "governor": 4,
          "governorGloss": "gequetscht",
          "dependent": 7,
          "dependentGloss": "entschuldigen"
        },
        {
          "dep": "nsubj",
          "governor": 7,
          "governorGloss": "entschuldigen",
          "dependent": 8,
          "dependentGloss": "Ansprüche"
        }
      ],
      "enhancedPlusPlusDependencies": [
        {
          "dep": "ROOT",
          "governor": 0,
          "governorGloss": "ROOT",
          "dependent": 2,
          "dependentGloss": "Spiderman"
        },
        {
          "dep": "punct",
          "governor": 2,
          "governorGloss": "Spiderman",
          "dependent": 1,
          "dependentGloss": "``"
        },
        {
          "dep": "punct",
          "governor": 4,
          "governorGloss": "gequetscht",
          "dependent": 3,
          "dependentGloss": "``"
        },
        {
          "dep": "appos",
          "governor": 2,
          "governorGloss": "Spiderman",
          "dependent": 4,
          "dependentGloss": "gequetscht"
        },
        {
          "dep": "punct",
          "governor": 4,
          "governorGloss": "gequetscht",
          "dependent": 5,
          "dependentGloss": ":"
        },
        {
          "dep": "dobj",
          "governor": 7,
          "governorGloss": "entschuldigen",
          "dependent": 6,
          "dependentGloss": "Experten"
        },
        {
          "dep": "parataxis",
          "governor": 4,
          "governorGloss": "gequetscht",
          "dependent": 7,
          "dependentGloss": "entschuldigen"
        },
        {
          "dep": "nsubj",
          "governor": 7,
          "governorGloss": "entschuldigen",
          "dependent": 8,
          "dependentGloss": "Ansprüche"
        }
      ],
      "tokens": [
        {
          "index": 1,
          "word": "``",
          "originalText": "“",
          "characterOffsetBegin": 0,
          "characterOffsetEnd": 1,
          "pos": "CARD",
          "before": "",
          "after": ""
        },
        {
          "index": 2,
          "word": "Spiderman",
          "originalText": "Spiderman",
          "characterOffsetBegin": 1,
          "characterOffsetEnd": 10,
          "pos": "NE",
          "before": "",
          "after": ""
        },
        {
          "index": 3,
          "word": "``",
          "originalText": "“",
          "characterOffsetBegin": 10,
          "characterOffsetEnd": 11,
          "pos": "NE",
          "before": "",
          "after": " "
        },
        {
          "index": 4,
          "word": "gequetscht",
          "originalText": "gequetscht",
          "characterOffsetBegin": 12,
          "characterOffsetEnd": 22,
          "pos": "VVPP",
          "before": " ",
          "after": ""
        },
        {
          "index": 5,
          "word": ":",
          "originalText": ":",
          "characterOffsetBegin": 22,
          "characterOffsetEnd": 23,
          "pos": "$.",
          "before": "",
          "after": " "
        },
        {
          "index": 6,
          "word": "Experten",
          "originalText": "Experten",
          "characterOffsetBegin": 24,
          "characterOffsetEnd": 32,
          "pos": "NN",
          "before": " ",
          "after": " "
        },
        {
          "index": 7,
          "word": "entschuldigen",
          "originalText": "entschuldigen",
          "characterOffsetBegin": 33,
          "characterOffsetEnd": 46,
          "pos": "VVINF",
          "before": " ",
          "after": " "
        },
        {
          "index": 8,
          "word": "Ansprüche",
          "originalText": "Ansprüche",
          "characterOffsetBegin": 47,
          "characterOffsetEnd": 56,
          "pos": "NN",
          "before": " ",
          "after": ""
        }
      ]
    }
  ]
}