{
  "sentences": [
    {
      "index": 0,
      "basicDependencies": [
        {
          "dep": "ROOT",
          "governor": 0,
          "governorGloss": "ROOT",
          "dependent": 2,
          "dependentGloss": "INHALT"
        },
        {
          "dep": "nsubj",
          "governor": 2,
          "governorGloss": "INHALT",
          "dependent": 1,
          "dependentGloss": "GRAPHISCHER"
        },
        {
          "dep": "punct",
          "governor": 2,
          "governorGloss": "INHALT",
          "dependent": 3,
          "dependentGloss": ":"
        },
        {
          "dep": "amod",
          "governor": 5,
          "governorGloss": "schimpft",
          "dependent": 4,
          "dependentGloss": "Mädchen"
        },
        {
          "dep": "parataxis",
          "governor": 2,
          "governorGloss": "INHALT",
          "dependent": 5,
          "dependentGloss": "schimpft"
        },
        {
          "dep": "case",
          "governor": 9,
          "governorGloss": "Penis",
          "dependent": 6,
          "dependentGloss": "auf"
        },
        {
          "dep": "det",
          "governor": 9,
          "governorGloss": "Penis",
          "dependent": 7,
          "dependentGloss": "den"
        },
        {
          "dep": "amod",
          "governor": 9,
          "governorGloss": "Penis",
          "dependent": 8,
          "dependentGloss": "kleinen"
        },
        {
          "dep": "nmod",
          "governor": 5,
          "governorGloss": "schimpft",
          "dependent": 9,
          "dependentGloss": "Penis"
        },
        {
          "dep": "det",
          "governor": 11,
          "governorGloss": "Mannes",
          "dependent": 10,
          "dependentGloss": "des"
        },
        {
          "dep": "det",
          "governor": 9,
          "governorGloss": "Penis",
          "dependent": 11,
          "dependentGloss": "Mannes"
        },
        {
          "dep": "punct",
          "governor": 5,
          "governorGloss": "schimpft",
          "dependent": 12,
          "dependentGloss": ","
        },
        {
          "dep": "advmod",
          "governor": 14,
          "governorGloss": "dass",
          "dependent": 13,
          "dependentGloss": "so"
        },
        {
          "dep": "mark",
          "governor": 17,
          "governorGloss": "ausschaltet",
          "dependent": 14,
          "dependentGloss": "dass"
        },
        {
          "dep": "nsubj",
          "governor": 17,
          "governorGloss": "ausschaltet",
          "dependent": 15,
          "dependentGloss": "er"
        },
        {
          "dep": "dobj",
          "governor": 17,
          "governorGloss": "ausschaltet",
          "dependent": 16,
          "dependentGloss": "es"
        },
        {
          "dep": "advcl",
          "governor": 5,
          "governorGloss": "schimpft",
          "dependent": 17,
          "dependentGloss": "ausschaltet"
        },
        {
          "dep": "cc",
          "governor": 17,
          "governorGloss": "ausschaltet",
          "dependent": 18,
          "dependentGloss": "und"
        },
        {
          "dep": "conj",
          "governor": 17,
          "governorGloss": "ausschaltet",
          "dependent": 19,
          "dependentGloss": "beistellt"
        }
      ],
      "enhancedDependencies": [
        {
          "dep": "ROOT",
          "governor": 0,
          "governorGloss": "ROOT",
          "dependent": 2,
          "dependentGloss": "INHALT"
        },
        {
          "dep": "nsubj",
          "governor": 2,
          "governorGloss": "INHALT",
          "dependent": 1,
          "dependentGloss": "GRAPHISCHER"
        },
        {
          "dep": "punct",
          "governor": 2,
          "governorGloss": "INHALT",
          "dependent": 3,
          "dependentGloss": ":"
        },
        {
          "dep": "amod",
          "governor": 5,
          "governorGloss": "schimpft",
          "dependent": 4,
          "dependentGloss": "Mädchen"
        },
        {
          "dep": "parataxis",
          "governor": 2,
          "governorGloss": "INHALT",
          "dependent": 5,
          "dependentGloss": "schimpft"
        },
        {
          "dep": "case",
          "governor": 9,
          "governorGloss": "Penis",
          "dependent": 6,
          "dependentGloss": "auf"
        },
        {
          "dep": "det",
          "governor": 9,
          "governorGloss": "Penis",
          "dependent": 7,
          "dependentGloss": "den"
        },
        {
          "dep": "amod",
          "governor": 9,
          "governorGloss": "Penis",
          "dependent": 8,
          "dependentGloss": "kleinen"
        },
        {
          "dep": "nmod",
          "governor": 5,
          "governorGloss": "schimpft",
          "dependent": 9,
          "dependentGloss": "Penis"
        },
        {
          "dep": "det",
          "governor": 11,
          "governorGloss": "Mannes",
          "dependent": 10,
          "dependentGloss": "des"
        },
        {
          "dep": "det",
          "governor": 9,
          "governorGloss": "Penis",
          "dependent": 11,
          "dependentGloss": "Mannes"
        },
        {
          "dep": "punct",
          "governor": 5,
          "governorGloss": "schimpft",
          "dependent": 12,
          "dependentGloss": ","
        },
        {
          "dep": "advmod",
          "governor": 14,
          "governorGloss": "dass",
          "dependent": 13,
          "dependentGloss": "so"
        },
        {
          "dep": "mark",
          "governor": 17,
          "governorGloss": "ausschaltet",
          "dependent": 14,
          "dependentGloss": "dass"
        },
        {
          "dep": "nsubj",
          "governor": 17,
          "governorGloss": "ausschaltet",
          "dependent": 15,
          "dependentGloss": "er"
        },
        {
          "dep": "dobj",
          "governor": 17,
          "governorGloss": "ausschaltet",
          "dependent": 16,
          "dependentGloss": "es"
        },
        {
          "dep": "advcl",
          "governor": 5,
          "governorGloss": "schimpft",
          "dependent": 17,
          "dependentGloss": "ausschaltet"
        },
        {
          "dep": "cc",
          "governor": 17,
          "governorGloss": "ausschaltet",
          "dependent": 18,
          "dependentGloss": "und"
        },
        {
          "dep": "advcl",
          "governor": 5,
          "governorGloss": "schimpft",
          "dependent": 19,
          "dependentGloss": "beistellt"
        },
        {
          "dep": "conj:und",
          "governor": 17,
          "governorGloss": "ausschaltet",
          "dependent": 19,
          "dependentGloss": "beistellt"
        }
      ],
      "enhancedPlusPlusDependencies": [
        {
          "dep": "ROOT",
          "governor": 0,
          "governorGloss": "ROOT",
          "dependent": 2,
          "dependentGloss": "INHALT"
        },
        {
          "dep": "nsubj",
          "governor": 2,
          "governorGloss": "INHALT",
          "dependent": 1,
          "dependentGloss": "GRAPHISCHER"
        },
        {
          "dep": "punct",
          "governor": 2,
          "governorGloss": "INHALT",
          "dependent": 3,
          "dependentGloss": ":"
        },
        {
          "dep": "amod",
          "governor": 5,
          "governorGloss": "schimpft",
          "dependent": 4,
          "dependentGloss": "Mädchen"
        },
        {
          "dep": "parataxis",
          "governor": 2,
          "governorGloss": "INHALT",
          "dependent": 5,
          "dependentGloss": "schimpft"
        },
        {
          "dep": "case",
          "governor": 9,
          "governorGloss": "Penis",
          "dependent": 6,
          "dependentGloss": "auf"
        },
        {
          "dep": "det",
          "governor": 9,
          "governorGloss": "Penis",
          "dependent": 7,
          "dependentGloss": "den"
        },
        {
          "dep": "amod",
          "governor": 9,
          "governorGloss": "Penis",
          "dependent": 8,
          "dependentGloss": "kleinen"
        },
        {
          "dep": "nmod",
          "governor": 5,
          "governorGloss": "schimpft",
          "dependent": 9,
          "dependentGloss": "Penis"
        },
        {
          "dep": "det",
          "governor": 11,
          "governorGloss": "Mannes",
          "dependent": 10,
          "dependentGloss": "des"
        },
        {
          "dep": "det",
          "governor": 9,
          "governorGloss": "Penis",
          "dependent": 11,
          "dependentGloss": "Mannes"
        },
        {
          "dep": "punct",
          "governor": 5,
          "governorGloss": "schimpft",
          "dependent": 12,
          "dependentGloss": ","
        },
        {
          "dep": "advmod",
          "governor": 14,
          "governorGloss": "dass",
          "dependent": 13,
          "dependentGloss": "so"
        },
        {
          "dep": "mark",
          "governor": 17,
          "governorGloss": "ausschaltet",
          "dependent": 14,
          "dependentGloss": "dass"
        },
        {
          "dep": "nsubj",
          "governor": 17,
          "governorGloss": "ausschaltet",
          "dependent": 15,
          "dependentGloss": "er"
        },
        {
          "dep": "dobj",
          "governor": 17,
          "governorGloss": "ausschaltet",
          "dependent": 16,
          "dependentGloss": "es"
        },
        {
          "dep": "advcl",
          "governor": 5,
          "governorGloss": "schimpft",
          "dependent": 17,
          "dependentGloss": "ausschaltet"
        },
        {
          "dep": "cc",
          "governor": 17,
          "governorGloss": "ausschaltet",
          "dependent": 18,
          "dependentGloss": "und"
        },
        {
          "dep": "advcl",
          "governor": 5,
          "governorGloss": "schimpft",
          "dependent": 19,
          "dependentGloss": "beistellt"
        },
        {
          "dep": "conj:und",
          "governor": 17,
          "governorGloss": "ausschaltet",
          "dependent": 19,
          "dependentGloss": "beistellt"
        }
      ],
      "tokens": [
        {
          "index": 1,
          "word": "GRAPHISCHER",
          "originalText": "GRAPHISCHER",
          "characterOffsetBegin": 0,
          "characterOffsetEnd": 11,
          "pos": "NE",
          "before": "",
          "after": " "
        },
        {
          "index": 2,
          "word": "INHALT",
          "originalText": "INHALT",
          "characterOffsetBegin": 12,
          "characterOffsetEnd": 18,
          "pos": "NE",
          "before": " ",
          "after": ""
        },
        {
          "index": 3,
          "word": ":",
          "originalText": ":",
          "characterOffsetBegin": 18,
          "characterOffsetEnd": 19,
          "pos": "$.",
          "before": "",
          "after": " "
        },
        {
          "index": 4,
          "word": "Mädchen",
          "originalText": "Mädchen",
          "characterOffsetBegin": 20,
          "characterOffsetEnd": 27,
          "pos": "NN",
          "before": " ",
          "after": " "
        },
        {
          "index": 5,
          "word": "schimpft",
          "originalText": "schimpft",
          "characterOffsetBegin": 28,
          "characterOffsetEnd": 36,
          "pos": "VVFIN",
          "before": " ",
          "after": " "
        },
        {
          "index": 6,
          "word": "auf",
          "originalText": "auf",
          "characterOffsetBegin": 37,
          "characterOffsetEnd": 40,
          "pos": "APPR",
          "before": " ",
          "after": " "
        },
        {
          "index": 7,
          "word": "den",
          "originalText": "den",
          "characterOffsetBegin": 41,
          "characterOffsetEnd": 44,
          "pos": "ART",
          "before": " ",
          "after": " "
        },
        {
          "index": 8,
          "word": "kleinen",
          "originalText": "kleinen",
          "characterOffsetBegin": 45,
          "characterOffsetEnd": 52,
          "pos": "ADJA",
          "before": " ",
          "after": " "
        },
        {
          "index": 9,
          "word": "Penis",
          "originalText": "Penis",
          "characterOffsetBegin": 53,
          "characterOffsetEnd": 58,
          "pos": "NN",
          "before": " ",
          "after": " "
        },
        {
          "index": 10,
          "word": "des",
          "originalText": "des",
          "characterOffsetBegin": 59,
          "characterOffsetEnd": 62,
          "pos": "ART",
          "before": " ",
          "after": " "
        },
        {
          "index": 11,
          "word": "Mannes",
          "originalText": "Mannes",
          "characterOffsetBegin": 63,
          "characterOffsetEnd": 69,
          "pos": "NN",
          "before": " ",
          "after": ""
        },
        {
          "index": 12,
          "word": ",",
          "originalText": ",",
          "characterOffsetBegin": 69,
          "characterOffsetEnd": 70,
          "pos": "$,",
          "before": "",
          "after": " "
        },
        {
          "index": 13,
          "word": "so",
          "originalText": "so",
          "characterOffsetBegin": 71,
          "characterOffsetEnd": 73,
          "pos": "ADV",
          "before": " ",
          "after": " "
        },
        {
          "index": 14,
          "word": "dass",
          "originalText": "dass",
          "characterOffsetBegin": 74,
          "characterOffsetEnd": 78,
          "pos": "KOUS",
          "before": " ",
          "after": " "
        },
        {
          "index": 15,
          "word": "er",
          "originalText": "er",
          "characterOffsetBegin": 79,
          "characterOffsetEnd": 81,
          "pos": "PPER",
          "before": " ",
          "after": " "
        },
        {
          "index": 16,
          "word": "es",
          "originalText": "es",
          "characterOffsetBegin": 82,
          "characterOffsetEnd": 84,
          "pos": "PPER",
          "before": " ",
          "after": " "
        },
        {
          "index": 17,
          "word": "ausschaltet",
          "originalText": "ausschaltet",
          "characterOffsetBegin": 85,
          "characterOffsetEnd": 96,
          "pos": "VVFIN",
          "before": " ",
          "after": " "
        },
        {
          "index": 18,
          "word": "und",
          "originalText": "und",
          "characterOffsetBegin": 97,
          "characterOffsetEnd": 100,
          "pos": "KON",
          "before": " ",
          "after": " "
        },
        {
          "index": 19,
          "word": "beistellt",
          "originalText": "beistellt",
          "characterOffsetBegin": 101,
          "characterOffsetEnd": 110,
          "pos": "VVFIN",
          "before": " ",
          "after": ""
        }
      ]
    }
  ]
}