{
  "sentences": [
    {
      "index": 0,
      "basicDependencies": [
        {
          "dep": "ROOT",
          "governor": 0,
          "governorGloss": "ROOT",
          "dependent": 1,
          "dependentGloss": "`"
        },
        {
          "dep": "root",
          "governor": 1,
          "governorGloss": "`",
          "dependent": 2,
          "dependentGloss": "Hairgate"
        },
        {
          "dep": "case",
          "governor": 2,
          "governorGloss": "Hairgate",
          "dependent": 3,
          "dependentGloss": "'"
        },
        {
          "dep": "punct",
          "governor": 2,
          "governorGloss": "Hairgate",
          "dependent": 4,
          "dependentGloss": ":"
        },
        {
          "dep": "parataxis",
          "governor": 2,
          "governorGloss": "Hairgate",
          "dependent": 5,
          "dependentGloss": "iPhone"
        },
        {
          "dep": "case",
          "governor": 9,
          "governorGloss": "Media",
          "dependent": 6,
          "dependentGloss": "von"
        },
        {
          "dep": "amod",
          "governor": 9,
          "governorGloss": "Media",
          "dependent": 7,
          "dependentGloss": "neuen"
        },
        {
          "dep": "name",
          "governor": 9,
          "governorGloss": "Media",
          "dependent": 8,
          "dependentGloss": "Social"
        },
        {
          "dep": "nmod",
          "governor": 11,
          "governorGloss": "getroffen",
          "dependent": 9,
          "dependentGloss": "Media"
        },
        {
          "dep": "dobj",
          "governor": 11,
          "governorGloss": "getroffen",
          "dependent": 10,
          "dependentGloss": "Sturm"
        },
        {
          "dep": "acl",
          "governor": 5,
          "governorGloss": "iPhone",
          "dependent": 11,
          "dependentGloss": "getroffen"
        }
      ],
      "enhancedDependencies": [
        {
          "dep": "ROOT",
          "governor": 0,
          "governorGloss": "ROOT",
          "dependent": 1,
          "dependentGloss": "`"
        },
        {
          "dep": "root",
          "governor": 1,
          "governorGloss": "`",
          "dependent": 2,
          "dependentGloss": "Hairgate"
        },
        {
          "dep": "case",
          "governor": 2,
          "governorGloss": "Hairgate",
          "dependent": 3,
          "dependentGloss": "'"
        },
        {
          "dep": "punct",
          "governor": 2,
          "governorGloss": "Hairgate",
          "dependent": 4,
          "dependentGloss": ":"
        },
        {
          "dep": "parataxis",
          "governor": 2,
          "governorGloss": "Hairgate",
          "dependent": 5,
          "dependentGloss": "iPhone"
        },
        {
          "dep": "case",
          "governor": 9,
          "governorGloss": "Media",
          "dependent": 6,
          "dependentGloss": "von"
        },
        {
          "dep": "amod",
          "governor": 9,
          "governorGloss": "Media",
          "dependent": 7,
          "dependentGloss": "neuen"
        },
        {
          "dep": "name",
          "governor": 9,
          "governorGloss": "Media",
          "dependent": 8,
          "dependentGloss": "Social"
        },
        {
          "dep": "nmod",
          "governor": 11,
          "governorGloss": "getroffen",
          "dependent": 9,
          "dependentGloss": "Media"
        },
        {
          "dep": "dobj",
          "governor": 11,
          "governorGloss": "getroffen",
          "dependent": 10,
          "dependentGloss": "Sturm"
        },
        {
          "dep": "acl",
          "governor": 5,
          "governorGloss": "iPhone",
          "dependent": 11,
          "dependentGloss": "getroffen"
        }
      ],
      "enhancedPlusPlusDependencies": [
        {
          "dep": "ROOT",
          "governor": 0,
          "governorGloss": "ROOT",
          "dependent": 1,
          "dependentGloss": "`"
        },
        {
          "dep": "root",
          "governor": 1,
          "governorGloss": "`",
          "dependent": 2,
          "dependentGloss": "Hairgate"
        },
        {
          "dep": "case",
          "governor": 2,
          "governorGloss": "Hairgate",
          "dependent": 3,
          "dependentGloss": "'"
        },
        {
          "dep": "punct",
          "governor": 2,
          "governorGloss": "Hairgate",
          "dependent": 4,
          "dependentGloss": ":"
        },
        {
          "dep": "parataxis",
          "governor": 2,
          "governorGloss": "Hairgate",
          "dependent": 5,
          "dependentGloss": "iPhone"
        },
        {
          "dep": "case",
          "governor": 9,
          "governorGloss": "Media",
          "dependent": 6,
          "dependentGloss": "von"
        },
        {
          "dep": "amod",
          "governor": 9,
          "governorGloss": "Media",
          "dependent": 7,
          "dependentGloss": "neuen"
        },
        {
          "dep": "name",
          "governor": 9,
          "governorGloss": "Media",
          "dependent": 8,
          "dependentGloss": "Social"
        },
        {
          "dep": "nmod",
          "governor": 11,
          "governorGloss": "getroffen",
          "dependent": 9,
          "dependentGloss": "Media"
        },
        {
          "dep": "dobj",
          "governor": 11,
          "governorGloss": "getroffen",
          "dependent": 10,
          "dependentGloss": "Sturm"
        },
        {
          "dep": "acl",
          "governor": 5,
          "governorGloss": "iPhone",
          "dependent": 11,
          "dependentGloss": "getroffen"
        }
      ],
      "tokens": [
        {
          "index": 1,
          "word": "`",
          "originalText": "'",
          "characterOffsetBegin": 0,
          "characterOffsetEnd": 1,
          "pos": "XY",
          "before": "",
          "after": ""
        },
        {
          "index": 2,
          "word": "Hairgate",
          "originalText": "Hairgate",
          "characterOffsetBegin": 1,
          "characterOffsetEnd": 9,
          "pos": "NN",
          "before": "",
          "after": ""
        },
        {
          "index": 3,
          "word": "'",
          "originalText": "'",
          "characterOffsetBegin": 9,
          "characterOffsetEnd": 10,
          "pos": "$[",
          "before": "",
          "after": ""
        },
        {
          "index": 4,
          "word": ":",
          "originalText": ":",
          "characterOffsetBegin": 10,
          "characterOffsetEnd": 11,
          "pos": "$.",
          "before": "",
          "after": " "
        },
        {
          "index": 5,
          "word": "iPhone",
          "originalText": "iPhone",
          "characterOffsetBegin": 12,
          "characterOffsetEnd": 18,
          "pos": "NN",
          "before": " ",
          "after": " "
        },
        {
          "index": 6,
          "word": "von",
          "originalText": "von",
          "characterOffsetBegin": 19,
          "characterOffsetEnd": 22,
          "pos": "APPR",
          "before": " ",
          "after": " "
        },
        {
          "index": 7,
          "word": "neuen",
          "originalText": "neuen",
          "characterOffsetBegin": 23,
          "characterOffsetEnd": 28,
          "pos": "ADJA",
          "before": " ",
          "after": " "
        },
        {
          "index": 8,
          "word": "Social",
          "originalText": "Social",
          "characterOffsetBegin": 29,
          "characterOffsetEnd": 35,
          "pos": "NE",
          "before": " ",
          "after": " "
        },
        {
          "index": 9,
          "word": "Media",
          "originalText": "Media",
          "characterOffsetBegin": 36,
          "characterOffsetEnd": 41,
          "pos": "NE",
          "before": " ",
          "after": " "
        },
        {
          "index": 10,
          "word": "Sturm",
          "originalText": "Sturm",
          "characterOffsetBegin": 42,
          "characterOffsetEnd": 47,
          "pos": "NE",
          "before": " ",
          "after": " "
        },
        {
          "index": 11,
          "word": "getroffen",
          "originalText": "getroffen",
          "characterOffsetBegin": 48,
          "characterOffsetEnd": 57,
          "pos": "VVPP",
          "before": " ",
          "after": ""
        }
      ]
    }
  ]
}