{
  "sentences": [
    {
      "index": 0,
      "basicDependencies": [
        {
          "dep": "ROOT",
          "governor": 0,
          "governorGloss": "ROOT",
          "dependent": 4,
          "dependentGloss": "beschleunigt"
        },
        {
          "dep": "nsubj",
          "governor": 4,
          "governorGloss": "beschleunigt",
          "dependent": 1,
          "dependentGloss": "TBS"
        },
        {
          "dep": "cop",
          "governor": 4,
          "governorGloss": "beschleunigt",
          "dependent": 2,
          "dependentGloss": "ist"
        },
        {
          "dep": "advmod",
          "governor": 4,
          "governorGloss": "beschleunigt",
          "dependent": 3,
          "dependentGloss": "vermutlich"
        },
        {
          "dep": "dep",
          "governor": 4,
          "governorGloss": "beschleunigt",
          "dependent": 5,
          "dependentGloss": "`"
        },
        {
          "dep": "det",
          "governor": 8,
          "governorGloss": "Reruns",
          "dependent": 6,
          "dependentGloss": "Seinfeld"
        },
        {
          "dep": "case",
          "governor": 6,
          "governorGloss": "Seinfeld",
          "dependent": 7,
          "dependentGloss": "'"
        },
        {
          "dep": "dobj",
          "governor": 5,
          "governorGloss": "`",
          "dependent": 8,
          "dependentGloss": "Reruns"
        },
        {
          "dep": "punct",
          "governor": 8,
          "governorGloss": "Reruns",
          "dependent": 9,
          "dependentGloss": ","
        },
        {
          "dep": "mark",
          "governor": 15,
          "governorGloss": "passen",
          "dependent": 10,
          "dependentGloss": "um"
        },
        {
          "dep": "case",
          "governor": 13,
          "governorGloss": "Werbespots",
          "dependent": 11,
          "dependentGloss": "in"
        },
        {
          "dep": "det",
          "governor": 13,
          "governorGloss": "Werbespots",
          "dependent": 12,
          "dependentGloss": "mehr"
        },
        {
          "dep": "nmod",
          "governor": 15,
          "governorGloss": "passen",
          "dependent": 13,
          "dependentGloss": "Werbespots"
        },
        {
          "dep": "aux",
          "governor": 15,
          "governorGloss": "passen",
          "dependent": 14,
          "dependentGloss": "zu"
        },
        {
          "dep": "advcl",
          "governor": 8,
          "governorGloss": "Reruns",
          "dependent": 15,
          "dependentGloss": "passen"
        }
      ],
      "enhancedDependencies": [
        {
          "dep": "ROOT",
          "governor": 0,
          "governorGloss": "ROOT",
          "dependent": 4,
          "dependentGloss": "beschleunigt"
        },
        {
          "dep": "nsubj",
          "governor": 4,
          "governorGloss": "beschleunigt",
          "dependent": 1,
          "dependentGloss": "TBS"
        },
        {
          "dep": "cop",
          "governor": 4,
          "governorGloss": "beschleunigt",
          "dependent": 2,
          "dependentGloss": "ist"
        },
        {
          "dep": "advmod",
          "governor": 4,
          "governorGloss": "beschleunigt",
          "dependent": 3,
          "dependentGloss": "vermutlich"
        },
        {
          "dep": "dep",
          "governor": 4,
          "governorGloss": "beschleunigt",
          "dependent": 5,
          "dependentGloss": "`"
        },
        {
          "dep": "det",
          "governor": 8,
          "governorGloss": "Reruns",
          "dependent": 6,
          "dependentGloss": "Seinfeld"
        },
        {
          "dep": "case",
          "governor": 6,
          "governorGloss": "Seinfeld",
          "dependent": 7,
          "dependentGloss": "'"
        },
        {
          "dep": "dobj",
          "governor": 5,
          "governorGloss": "`",
          "dependent": 8,
          "dependentGloss": "Reruns"
        },
        {
          "dep": "punct",
          "governor": 8,
          "governorGloss": "Reruns",
          "dependent": 9,
          "dependentGloss": ","
        },
        {
          "dep": "mark",
          "governor": 15,
          "governorGloss": "passen",
          "dependent": 10,
          "dependentGloss": "um"
        },
        {
          "dep": "case",
          "governor": 13,
          "governorGloss": "Werbespots",
          "dependent": 11,
          "dependentGloss": "in"
        },
        {
          "dep": "det",
          "governor": 13,
          "governorGloss": "Werbespots",
          "dependent": 12,
          "dependentGloss": "mehr"
        },
        {
          "dep": "nmod",
          "governor": 15,
          "governorGloss": "passen",
          "dependent": 13,
          "dependentGloss": "Werbespots"
        },
        {
          "dep": "aux",
          "governor": 15,
          "governorGloss": "passen",
          "dependent": 14,
          "dependentGloss": "zu"
        },
        {
          "dep": "advcl",
          "governor": 8,
          "governorGloss": "Reruns",
          "dependent": 15,
          "dependentGloss": "passen"
        }
      ],
      "enhancedPlusPlusDependencies": [
        {
          "dep": "ROOT",
          "governor": 0,
          "governorGloss": "ROOT",
          "dependent": 4,
          "dependentGloss": "beschleunigt"
        },
        {
          "dep": "nsubj",
          "governor": 4,
          "governorGloss": "beschleunigt",
          "dependent": 1,
          "dependentGloss": "TBS"
        },
        {
          "dep": "cop",
          "governor": 4,
          "governorGloss": "beschleunigt",
          "dependent": 2,
          "dependentGloss": "ist"
        },
        {
          "dep": "advmod",
          "governor": 4,
          "governorGloss": "beschleunigt",
          "dependent": 3,
          "dependentGloss": "vermutlich"
        },
        {
          "dep": "dep",
          "governor": 4,
          "governorGloss": "beschleunigt",
          "dependent": 5,
          "dependentGloss": "`"
        },
        {
          "dep": "det",
          "governor": 8,
          "governorGloss": "Reruns",
          "dependent": 6,
          "dependentGloss": "Seinfeld"
        },
        {
          "dep": "case",
          "governor": 6,
          "governorGloss": "Seinfeld",
          "dependent": 7,
          "dependentGloss": "'"
        },
        {
          "dep": "dobj",
          "governor": 5,
          "governorGloss": "`",
          "dependent": 8,
          "dependentGloss": "Reruns"
        },
        {
          "dep": "punct",
          "governor": 8,
          "governorGloss": "Reruns",
          "dependent": 9,
          "dependentGloss": ","
        },
        {
          "dep": "mark",
          "governor": 15,
          "governorGloss": "passen",
          "dependent": 10,
          "dependentGloss": "um"
        },
        {
          "dep": "case",
          "governor": 13,
          "governorGloss": "Werbespots",
          "dependent": 11,
          "dependentGloss": "in"
        },
        {
          "dep": "det",
          "governor": 13,
          "governorGloss": "Werbespots",
          "dependent": 12,
          "dependentGloss": "mehr"
        },
        {
          "dep": "nmod",
          "governor": 15,
          "governorGloss": "passen",
          "dependent": 13,
          "dependentGloss": "Werbespots"
        },
        {
          "dep": "aux",
          "governor": 15,
          "governorGloss": "passen",
          "dependent": 14,
          "dependentGloss": "zu"
        },
        {
          "dep": "advcl",
          "governor": 8,
          "governorGloss": "Reruns",
          "dependent": 15,
          "dependentGloss": "passen"
        }
      ],
      "tokens": [
        {
          "index": 1,
          "word": "TBS",
          "originalText": "TBS",
          "characterOffsetBegin": 0,
          "characterOffsetEnd": 3,
          "pos": "NE",
          "before": "",
          "after": " "
        },
        {
          "index": 2,
          "word": "ist",
          "originalText": "ist",
          "characterOffsetBegin": 4,
          "characterOffsetEnd": 7,
          "pos": "VAFIN",
          "before": " ",
          "after": " "
        },
        {
          "index": 3,
          "word": "vermutlich",
          "originalText": "vermutlich",
          "characterOffsetBegin": 8,
          "characterOffsetEnd": 18,
          "pos": "ADV",
          "before": " ",
          "after": " "
        },
        {
          "index": 4,
          "word": "beschleunigt",
          "originalText": "beschleunigt",
          "characterOffsetBegin": 19,
          "characterOffsetEnd": 31,
          "pos": "VVPP",
          "before": " ",
          "after": " "
        },
        {
          "index": 5,
          "word": "`",
          "originalText": "'",
          "characterOffsetBegin": 32,
          "characterOffsetEnd": 33,
          "pos": "XY",
          "before": " ",
          "after": ""
        },
        {
          "index": 6,
          "word": "Seinfeld",
          "originalText": "Seinfeld",
          "characterOffsetBegin": 33,
          "characterOffsetEnd": 41,
          "pos": "NE",
          "before": "",
          "after": ""
        },
        {
          "index": 7,
          "word": "'",
          "originalText": "'",
          "characterOffsetBegin": 41,
          "characterOffsetEnd": 42,
          "pos": "$[",
          "before": "",
          "after": " "
        },
        {
          "index": 8,
          "word": "Reruns",
          "originalText": "Reruns",
          "characterOffsetBegin": 43,
          "characterOffsetEnd": 49,
          "pos": "NE",
          "before": " ",
          "after": ""
        },
        {
          "index": 9,
          "word": ",",
          "originalText": ",",
          "characterOffsetBegin": 49,
          "characterOffsetEnd": 50,
          "pos": "$,",
          "before": "",
          "after": " "
        },
        {
          "index": 10,
          "word": "um",
          "originalText": "um",
          "characterOffsetBegin": 51,
          "characterOffsetEnd": 53,
          "pos": "KOUI",
          "before": " ",
          "after": " "
        },
        {
          "index": 11,
          "word": "in",
          "originalText": "in",
          "characterOffsetBegin": 54,
          "characterOffsetEnd": 56,
          "pos": "APPR",
          "before": " ",
          "after": " "
        },
        {
          "index": 12,
          "word": "mehr",
          "originalText": "mehr",
          "characterOffsetBegin": 57,
          "characterOffsetEnd": 61,
          "pos": "PIAT",
          "before": " ",
          "after": " "
        },
        {
          "index": 13,
          "word": "Werbespots",
          "originalText": "Werbespots",
          "characterOffsetBegin": 62,
          "characterOffsetEnd": 72,
          "pos": "NN",
          "before": " ",
          "after": " "
        },
        {
          "index": 14,
          "word": "zu",
          "originalText": "zu",
          "characterOffsetBegin": 73,
          "characterOffsetEnd": 75,
          "pos": "PTKZU",
          "before": " ",
          "after": " "
        },
        {
          "index": 15,
          "word": "passen",
          "originalText": "passen",
          "characterOffsetBegin": 76,
          "characterOffsetEnd": 82,
          "pos": "VVINF",
          "before": " ",
          "after": ""
        }
      ]
    }
  ]
}