{
  "sentences": [
    {
      "index": 0,
      "basicDependencies": [
        {
          "dep": "ROOT",
          "governor": 0,
          "governorGloss": "ROOT",
          "dependent": 1,
          "dependentGloss": "Nein"
        },
        {
          "dep": "punct",
          "governor": 1,
          "governorGloss": "Nein",
          "dependent": 2,
          "dependentGloss": ","
        },
        {
          "dep": "det",
          "governor": 4,
          "governorGloss": "Spinne",
          "dependent": 3,
          "dependentGloss": "eine"
        },
        {
          "dep": "appos",
          "governor": 1,
          "governorGloss": "Nein",
          "dependent": 4,
          "dependentGloss": "Spinne"
        },
        {
          "dep": "appos",
          "governor": 4,
          "governorGloss": "Spinne",
          "dependent": 5,
          "dependentGloss": "-LRB-"
        },
        {
          "dep": "advmod",
          "governor": 7,
          "governorGloss": "-RRB-",
          "dependent": 6,
          "dependentGloss": "vermutlich"
        },
        {
          "dep": "amod",
          "governor": 8,
          "governorGloss": "kroch",
          "dependent": 7,
          "dependentGloss": "-RRB-"
        },
        {
          "dep": "det",
          "governor": 5,
          "governorGloss": "-LRB-",
          "dependent": 8,
          "dependentGloss": "kroch"
        },
        {
          "dep": "neg",
          "governor": 10,
          "governorGloss": "mehr",
          "dependent": 9,
          "dependentGloss": "nicht"
        },
        {
          "dep": "advmod",
          "governor": 5,
          "governorGloss": "-LRB-",
          "dependent": 10,
          "dependentGloss": "mehr"
        },
        {
          "dep": "case",
          "governor": 13,
          "governorGloss": "Körper",
          "dependent": 11,
          "dependentGloss": "durch"
        },
        {
          "dep": "det",
          "governor": 13,
          "governorGloss": "Körper",
          "dependent": 12,
          "dependentGloss": "den"
        },
        {
          "dep": "nmod",
          "governor": 10,
          "governorGloss": "mehr",
          "dependent": 13,
          "dependentGloss": "Körper"
        },
        {
          "dep": "det",
          "governor": 15,
          "governorGloss": "Mannes",
          "dependent": 14,
          "dependentGloss": "eines"
        },
        {
          "dep": "det",
          "governor": 13,
          "governorGloss": "Körper",
          "dependent": 15,
          "dependentGloss": "Mannes"
        }
      ],
      "enhancedDependencies": [
        {
          "dep": "ROOT",
          "governor": 0,
          "governorGloss": "ROOT",
          "dependent": 1,
          "dependentGloss": "Nein"
        },
        {
          "dep": "punct",
          "governor": 1,
          "governorGloss": "Nein",
          "dependent": 2,
          "dependentGloss": ","
        },
        {
          "dep": "det",
          "governor": 4,
          "governorGloss": "Spinne",
          "dependent": 3,
          "dependentGloss": "eine"
        },
        {
          "dep": "appos",
          "governor": 1,
          "governorGloss": "Nein",
          "dependent": 4,
          "dependentGloss": "Spinne"
        },
        {
          "dep": "appos",
          "governor": 4,
          "governorGloss": "Spinne",
          "dependent": 5,
          "dependentGloss": "-LRB-"
        },
        {
          "dep": "advmod",
          "governor": 7,
          "governorGloss": "-RRB-",
          "dependent": 6,
          "dependentGloss": "vermutlich"
        },
        {
          "dep": "amod",
          "governor": 8,
          "governorGloss": "kroch",
          "dependent": 7,
          "dependentGloss": "-RRB-"
        },
        {
          "dep": "det",
          "governor": 5,
          "governorGloss": "-LRB-",
          "dependent": 8,
          "dependentGloss": "kroch"
        },
        {
          "dep": "neg",
          "governor": 10,
          "governorGloss": "mehr",
          "dependent": 9,
          "dependentGloss": "nicht"
        },
        {
          "dep": "advmod",
          "governor": 5,
          "governorGloss": "-LRB-",
          "dependent": 10,
          "dependentGloss": "mehr"
        },
        {
          "dep": "case",
          "governor": 13,
          "governorGloss": "Körper",
          "dependent": 11,
          "dependentGloss": "durch"
        },
        {
          "dep": "det",
          "governor": 13,
          "governorGloss": "Körper",
          "dependent": 12,
          "dependentGloss": "den"
        },
        {
          "dep": "nmod",
          "governor": 10,
          "governorGloss": "mehr",
          "dependent": 13,
          "dependentGloss": "Körper"
        },
        {
          "dep": "det",
          "governor": 15,
          "governorGloss": "Mannes",
          "dependent": 14,
          "dependentGloss": "eines"
        },
        {
          "dep": "det",
          "governor": 13,
          "governorGloss": "Körper",
          "dependent": 15,
          "dependentGloss": "Mannes"
        }
      ],
      "enhancedPlusPlusDependencies": [
        {
          "dep": "ROOT",
          "governor": 0,
          "governorGloss": "ROOT",
          "dependent": 1,
          "dependentGloss": "Nein"
        },
        {
          "dep": "punct",
          "governor": 1,
          "governorGloss": "Nein",
          "dependent": 2,
          "dependentGloss": ","
        },
        {
          "dep": "det",
          "governor": 4,
          "governorGloss": "Spinne",
          "dependent": 3,
          "dependentGloss": "eine"
        },
        {
          "dep": "appos",
          "governor": 1,
          "governorGloss": "Nein",
          "dependent": 4,
          "dependentGloss": "Spinne"
        },
        {
          "dep": "appos",
          "governor": 4,
          "governorGloss": "Spinne",
          "dependent": 5,
          "dependentGloss": "-LRB-"
        },
        {
          "dep": "advmod",
          "governor": 7,
          "governorGloss": "-RRB-",
          "dependent": 6,
          "dependentGloss": "vermutlich"
        },
        {
          "dep": "amod",
          "governor": 8,
          "governorGloss": "kroch",
          "dependent": 7,
          "dependentGloss": "-RRB-"
        },
        {
          "dep": "det",
          "governor": 5,
          "governorGloss": "-LRB-",
          "dependent": 8,
          "dependentGloss": "kroch"
        },
        {
          "dep": "neg",
          "governor": 10,
          "governorGloss": "mehr",
          "dependent": 9,
          "dependentGloss": "nicht"
        },
        {
          "dep": "advmod",
          "governor": 5,
          "governorGloss": "-LRB-",
          "dependent": 10,
          "dependentGloss": "mehr"
        },
        {
          "dep": "case",
          "governor": 13,
          "governorGloss": "Körper",
          "dependent": 11,
          "dependentGloss": "durch"
        },
        {
          "dep": "det",
          "governor": 13,
          "governorGloss": "Körper",
          "dependent": 12,
          "dependentGloss": "den"
        },
        {
          "dep": "nmod",
          "governor": 10,
          "governorGloss": "mehr",
          "dependent": 13,
          "dependentGloss": "Körper"
        },
        {
          "dep": "det",
          "governor": 15,
          "governorGloss": "Mannes",
          "dependent": 14,
          "dependentGloss": "eines"
        },
        {
          "dep": "det",
          "governor": 13,
          "governorGloss": "Körper",
          "dependent": 15,
          "dependentGloss": "Mannes"
        }
      ],
      "tokens": [
        {
          "index": 1,
          "word": "Nein",
          "originalText": "Nein",
          "characterOffsetBegin": 0,
          "characterOffsetEnd": 4,
          "pos": "PTKANT",
          "before": "",
          "after": ""
        },
        {
          "index": 2,
          "word": ",",
          "originalText": ",",
          "characterOffsetBegin": 4,
          "characterOffsetEnd": 5,
          "pos": "$,",
          "before": "",
          "after": " "
        },
        {
          "index": 3,
          "word": "eine",
          "originalText": "eine",
          "characterOffsetBegin": 6,
          "characterOffsetEnd": 10,
          "pos": "ART",
          "before": " ",
          "after": " "
        },
        {
          "index": 4,
          "word": "Spinne",
          "originalText": "Spinne",
          "characterOffsetBegin": 11,
          "characterOffsetEnd": 17,
          "pos": "NN",
          "before": " ",
          "after": " "
        },
        {
          "index": 5,
          "word": "-LRB-",
          "originalText": "(",
          "characterOffsetBegin": 18,
          "characterOffsetEnd": 19,
          "pos": "TRUNC",
          "before": " ",
          "after": ""
        },
        {
          "index": 6,
          "word": "vermutlich",
          "originalText": "vermutlich",
          "characterOffsetBegin": 19,
          "characterOffsetEnd": 29,
          "pos": "ADV",
          "before": "",
          "after": ""
        },
        {
          "index": 7,
          "word": "-RRB-",
          "originalText": ")",
          "characterOffsetBegin": 29,
          "characterOffsetEnd": 30,
          "pos": "TRUNC",
          "before": "",
          "after": " "
        },
        {
          "index": 8,
          "word": "kroch",
          "originalText": "kroch",
          "characterOffsetBegin": 31,
          "characterOffsetEnd": 36,
          "pos": "KON",
          "before": " ",
          "after": " "
        },
        {
          "index": 9,
          "word": "nicht",
          "originalText": "nicht",
          "characterOffsetBegin": 37,
          "characterOffsetEnd": 42,
          "pos": "PTKNEG",
          "before": " ",
          "after": " "
        },
        {
          "index": 10,
          "word": "mehr",
          "originalText": "mehr",
          "characterOffsetBegin": 43,
          "characterOffsetEnd": 47,
          "pos": "ADV",
          "before": " ",
          "after": " "
        },
        {
          "index": 11,
          "word": "durch",
          "originalText": "durch",
          "characterOffsetBegin": 48,
          "characterOffsetEnd": 53,
          "pos": "APPR",
          "before": " ",
          "after": " "
        },
        {
          "index": 12,
          "word": "den",
          "originalText": "den",
          "characterOffsetBegin": 54,
          "characterOffsetEnd": 57,
          "pos": "ART",
          "before": " ",
          "after": " "
        },
        {
          "index": 13,
          "word": "Körper",
          "originalText": "Körper",
          "characterOffsetBegin": 58,
          "characterOffsetEnd": 64,
          "pos": "NN",
          "before": " ",
          "after": " "
        },
        {
          "index": 14,
          "word": "eines",
          "originalText": "eines",
          "characterOffsetBegin": 65,
          "characterOffsetEnd": 70,
          "pos": "ART",
          "before": " ",
          "after": " "
        },
        {
          "index": 15,
          "word": "Mannes",
          "originalText": "Mannes",
          "characterOffsetBegin": 71,
          "characterOffsetEnd": 77,
          "pos": "NN",
          "before": " ",
          "after": ""
        }
      ]
    }
  ]
}