{
  "sentences": [
    {
      "index": 0,
      "basicDependencies": [
        {
          "dep": "ROOT",
          "governor": 0,
          "governorGloss": "ROOT",
          "dependent": 3,
          "dependentGloss": "Berichte"
        },
        {
          "dep": "dep",
          "governor": 3,
          "governorGloss": "Berichte",
          "dependent": 1,
          "dependentGloss": "WHO"
        },
        {
          "dep": "punct",
          "governor": 3,
          "governorGloss": "Berichte",
          "dependent": 2,
          "dependentGloss": ":"
        },
        {
          "dep": "advmod",
          "governor": 5,
          "governorGloss": "vermutete",
          "dependent": 4,
          "dependentGloss": "über"
        },
        {
          "dep": "punct",
          "governor": 3,
          "governorGloss": "Berichte",
          "dependent": 5,
          "dependentGloss": "vermutete"
        },
        {
          "dep": "amod",
          "governor": 7,
          "governorGloss": "im",
          "dependent": 6,
          "dependentGloss": "Ebola-Fälle"
        },
        {
          "dep": "nsubj",
          "governor": 5,
          "governorGloss": "vermutete",
          "dependent": 7,
          "dependentGloss": "im"
        },
        {
          "dep": "name",
          "governor": 9,
          "governorGloss": "Unwahr",
          "dependent": 8,
          "dependentGloss": "Irak"
        },
        {
          "dep": "appos",
          "governor": 7,
          "governorGloss": "im",
          "dependent": 9,
          "dependentGloss": "Unwahr"
        }
      ],
      "enhancedDependencies": [
        {
          "dep": "ROOT",
          "governor": 0,
          "governorGloss": "ROOT",
          "dependent": 3,
          "dependentGloss": "Berichte"
        },
        {
          "dep": "dep",
          "governor": 3,
          "governorGloss": "Berichte",
          "dependent": 1,
          "dependentGloss": "WHO"
        },
        {
          "dep": "punct",
          "governor": 3,
          "governorGloss": "Berichte",
          "dependent": 2,
          "dependentGloss": ":"
        },
        {
          "dep": "advmod",
          "governor": 5,
          "governorGloss": "vermutete",
          "dependent": 4,
          "dependentGloss": "über"
        },
        {
          "dep": "punct",
          "governor": 3,
          "governorGloss": "Berichte",
          "dependent": 5,
          "dependentGloss": "vermutete"
        },
        {
          "dep": "amod",
          "governor": 7,
          "governorGloss": "im",
          "dependent": 6,
          "dependentGloss": "Ebola-Fälle"
        },
        {
          "dep": "nsubj",
          "governor": 5,
          "governorGloss": "vermutete",
          "dependent": 7,
          "dependentGloss": "im"
        },
        {
          "dep": "name",
          "governor": 9,
          "governorGloss": "Unwahr",
          "dependent": 8,
          "dependentGloss": "Irak"
        },
        {
          "dep": "appos",
          "governor": 7,
          "governorGloss": "im",
          "dependent": 9,
          "dependentGloss": "Unwahr"
        }
      ],
      "enhancedPlusPlusDependencies": [
        {
          "dep": "ROOT",
          "governor": 0,
          "governorGloss": "ROOT",
          "dependent": 3,
          "dependentGloss": "Berichte"
        },
        {
          "dep": "dep",
          "governor": 3,
          "governorGloss": "Berichte",
          "dependent": 1,
          "dependentGloss": "WHO"
        },
        {
          "dep": "punct",
          "governor": 3,
          "governorGloss": "Berichte",
          "dependent": 2,
          "dependentGloss": ":"
        },
        {
          "dep": "advmod",
          "governor": 5,
          "governorGloss": "vermutete",
          "dependent": 4,
          "dependentGloss": "über"
        },
        {
          "dep": "punct",
          "governor": 3,
          "governorGloss": "Berichte",
          "dependent": 5,
          "dependentGloss": "vermutete"
        },
        {
          "dep": "amod",
          "governor": 7,
          "governorGloss": "im",
          "dependent": 6,
          "dependentGloss": "Ebola-Fälle"
        },
        {
          "dep": "nsubj",
          "governor": 5,
          "governorGloss": "vermutete",
          "dependent": 7,
          "dependentGloss": "im"
        },
        {
          "dep": "name",
          "governor": 9,
          "governorGloss": "Unwahr",
          "dependent": 8,
          "dependentGloss": "Irak"
        },
        {
          "dep": "appos",
          "governor": 7,
          "governorGloss": "im",
          "dependent": 9,
          "dependentGloss": "Unwahr"
        }
      ],
      "tokens": [
        {
          "index": 1,
          "word": "WHO",
          "originalText": "WHO",
          "characterOffsetBegin": 0,
          "characterOffsetEnd": 3,
          "pos": "NE",
          "before": "",
          "after": ""
        },
        {
          "index": 2,
          "word": ":",
          "originalText": ":",
          "characterOffsetBegin": 3,
          "characterOffsetEnd": 4,
          "pos": "$.",
          "before": "",
          "after": " "
        },
        {
          "index": 3,
          "word": "Berichte",
          "originalText": "Berichte",
          "characterOffsetBegin": 5,
          "characterOffsetEnd": 13,
          "pos": "NN",
          "before": " ",
          "after": " "
        },
        {
          "index": 4,
          "word": "über",
          "originalText": "über",
          "characterOffsetBegin": 14,
          "characterOffsetEnd": 18,
          "pos": "APPR",
          "before": " ",
          "after": " "
        },
        {
          "index": 5,
          "word": "vermutete",
          "originalText": "vermutete",
          "characterOffsetBegin": 19,
          "characterOffsetEnd": 28,
          "pos": "ADJA",
          "before": " ",
          "after": " "
        },
        {
          "index": 6,
          "word": "Ebola-Fälle",
          "originalText": "Ebola-Fälle",
          "characterOffsetBegin": 29,
          "characterOffsetEnd": 40,
          "pos": "NN",
          "before": " ",
          "after": " "
        },
        {
          "index": 7,
          "word": "im",
          "originalText": "im",
          "characterOffsetBegin": 41,
          "characterOffsetEnd": 43,
          "pos": "APPRART",
          "before": " ",
          "after": " "
        },
        {
          "index": 8,
          "word": "Irak",
          "originalText": "Irak",
          "characterOffsetBegin": 44,
          "characterOffsetEnd": 48,
          "pos": "NE",
          "before": " ",
          "after": " "
        },
        {
          "index": 9,
          "word": "Unwahr",
          "originalText": "Unwahr",
          "characterOffsetBegin": 49,
          "characterOffsetEnd": 55,
          "pos": "NE",
          "before": " ",
          "after": ""
        }
      ]
    }
  ]
}