{
  "sentences": [
    {
      "index": 0,
      "basicDependencies": [
        {
          "dep": "ROOT",
          "governor": 0,
          "governorGloss": "ROOT",
          "dependent": 10,
          "dependentGloss": "Dudes"
        },
        {
          "dep": "det",
          "governor": 4,
          "governorGloss": "Missbrauch",
          "dependent": 1,
          "dependentGloss": "ESPN"
        },
        {
          "dep": "case",
          "governor": 1,
          "governorGloss": "ESPN",
          "dependent": 2,
          "dependentGloss": "'s"
        },
        {
          "dep": "amod",
          "governor": 4,
          "governorGloss": "Missbrauch",
          "dependent": 3,
          "dependentGloss": "Inland"
        },
        {
          "dep": "nsubjpass",
          "governor": 10,
          "governorGloss": "Dudes",
          "dependent": 4,
          "dependentGloss": "Missbrauch"
        },
        {
          "dep": "nummod",
          "governor": 6,
          "governorGloss": "Panel",
          "dependent": 5,
          "dependentGloss": "Tonight"
        },
        {
          "dep": "appos",
          "governor": 4,
          "governorGloss": "Missbrauch",
          "dependent": 6,
          "dependentGloss": "Panel"
        },
        {
          "dep": "auxpass",
          "governor": 10,
          "governorGloss": "Dudes",
          "dependent": 7,
          "dependentGloss": "wird"
        },
        {
          "dep": "nummod",
          "governor": 9,
          "governorGloss": "%",
          "dependent": 8,
          "dependentGloss": "100"
        },
        {
          "dep": "nmod",
          "governor": 10,
          "governorGloss": "Dudes",
          "dependent": 9,
          "dependentGloss": "%"
        }
      ],
      "enhancedDependencies": [
        {
          "dep": "ROOT",
          "governor": 0,
          "governorGloss": "ROOT",
          "dependent": 10,
          "dependentGloss": "Dudes"
        },
        {
          "dep": "det",
          "governor": 4,
          "governorGloss": "Missbrauch",
          "dependent": 1,
          "dependentGloss": "ESPN"
        },
        {
          "dep": "case",
          "governor": 1,
          "governorGloss": "ESPN",
          "dependent": 2,
          "dependentGloss": "'s"
        },
        {
          "dep": "amod",
          "governor": 4,
          "governorGloss": "Missbrauch",
          "dependent": 3,
          "dependentGloss": "Inland"
        },
        {
          "dep": "nsubjpass",
          "governor": 10,
          "governorGloss": "Dudes",
          "dependent": 4,
          "dependentGloss": "Missbrauch"
        },
        {
          "dep": "nummod",
          "governor": 6,
          "governorGloss": "Panel",
          "dependent": 5,
          "dependentGloss": "Tonight"
        },
        {
          "dep": "appos",
          "governor": 4,
          "governorGloss": "Missbrauch",
          "dependent": 6,
          "dependentGloss": "Panel"
        },
        {
          "dep": "auxpass",
          "governor": 10,
          "governorGloss": "Dudes",
          "dependent": 7,
          "dependentGloss": "wird"
        },
        {
          "dep": "nummod",
          "governor": 9,
          "governorGloss": "%",
          "dependent": 8,
          "dependentGloss": "100"
        },
        {
          "dep": "nmod",
          "governor": 10,
          "governorGloss": "Dudes",
          "dependent": 9,
          "dependentGloss": "%"
        }
      ],
      "enhancedPlusPlusDependencies": [
        {
          "dep": "ROOT",
          "governor": 0,
          "governorGloss": "ROOT",
          "dependent": 10,
          "dependentGloss": "Dudes"
        },
        {
          "dep": "det",
          "governor": 4,
          "governorGloss": "Missbrauch",
          "dependent": 1,
          "dependentGloss": "ESPN"
        },
        {
          "dep": "case",
          "governor": 1,
          "governorGloss": "ESPN",
          "dependent": 2,
          "dependentGloss": "'s"
        },
        {
          "dep": "amod",
          "governor": 4,
          "governorGloss": "Missbrauch",
          "dependent": 3,
          "dependentGloss": "Inland"
        },
        {
          "dep": "nsubjpass",
          "governor": 10,
          "governorGloss": "Dudes",
          "dependent": 4,
          "dependentGloss": "Missbrauch"
        },
        {
          "dep": "nummod",
          "governor": 6,
          "governorGloss": "Panel",
          "dependent": 5,
          "dependentGloss": "Tonight"
        },
        {
          "dep": "appos",
          "governor": 4,
          "governorGloss": "Missbrauch",
          "dependent": 6,
          "dependentGloss": "Panel"
        },
        {
          "dep": "auxpass",
          "governor": 10,
          "governorGloss": "Dudes",
          "dependent": 7,
          "dependentGloss": "wird"
        },
        {
          "dep": "nummod",
          "governor": 9,
          "governorGloss": "%",
          "dependent": 8,
          "dependentGloss": "100"
        },
        {
          "dep": "nmod",
          "governor": 10,
          "governorGloss": "Dudes",
          "dependent": 9,
          "dependentGloss": "%"
        }
      ],
      "tokens": [
        {
          "index": 1,
          "word": "ESPN",
          "originalText": "ESPN",
          "characterOffsetBegin": 0,
          "characterOffsetEnd": 4,
          "pos": "NE",
          "before": "",
          "after": ""
        },
        {
          "index": 2,
          "word": "'s",
          "originalText": "'s",
          "characterOffsetBegin": 4,
          "characterOffsetEnd": 6,
          "pos": "PPER",
          "before": "",
          "after": " "
        },
        {
          "index": 3,
          "word": "Inland",
          "originalText": "Inland",
          "characterOffsetBegin": 7,
          "characterOffsetEnd": 13,
          "pos": "NN",
          "before": " ",
          "after": " "
        },
        {
          "index": 4,
          "word": "Missbrauch",
          "originalText": "Missbrauch",
          "characterOffsetBegin": 14,
          "characterOffsetEnd": 24,
          "pos": "NE",
          "before": " ",
          "after": " "
        },
        {
          "index": 5,
          "word": "Tonight",
          "originalText": "Tonight",
          "characterOffsetBegin": 25,
          "characterOffsetEnd": 32,
          "pos": "NE",
          "before": " ",
          "after": " "
        },
        {
          "index": 6,
          "word": "Panel",
          "originalText": "Panel",
          "characterOffsetBegin": 33,
          "characterOffsetEnd": 38,
          "pos": "NE",
          "before": " ",
          "after": " "
        },
        {
          "index": 7,
          "word": "wird",
          "originalText": "wird",
          "characterOffsetBegin": 39,
          "characterOffsetEnd": 43,
          "pos": "VAFIN",
          "before": " ",
          "after": " "
        },
        {
          "index": 8,
          "word": "100",
          "originalText": "100",
          "characterOffsetBegin": 44,
          "characterOffsetEnd": 47,
          "pos": "CARD",
          "before": " ",
          "after": ""
        },
        {
          "index": 9,
          "word": "%",
          "originalText": "%",
          "characterOffsetBegin": 47,
          "characterOffsetEnd": 48,
          "pos": "NN",
          "before": "",
          "after": " "
        },
        {
          "index": 10,
          "word": "Dudes",
          "originalText": "Dudes",
          "characterOffsetBegin": 49,
          "characterOffsetEnd": 54,
          "pos": "NE",
          "before": " ",
          "after": ""
        }
      ]
    }
  ]
}