{
  "sentences": [
    {
      "index": 0,
      "basicDependencies": [
        {
          "dep": "ROOT",
          "governor": 0,
          "governorGloss": "ROOT",
          "dependent": 1,
          "dependentGloss": "Nein"
        },
        {
          "dep": "punct",
          "governor": 1,
          "governorGloss": "Nein",
          "dependent": 2,
          "dependentGloss": ","
        },
        {
          "dep": "conj",
          "governor": 1,
          "governorGloss": "Nein",
          "dependent": 3,
          "dependentGloss": "ESPN"
        },
        {
          "dep": "aux",
          "governor": 6,
          "governorGloss": "Abend",
          "dependent": 4,
          "dependentGloss": "hat"
        },
        {
          "dep": "advmod",
          "governor": 6,
          "governorGloss": "Abend",
          "dependent": 5,
          "dependentGloss": "heute"
        },
        {
          "dep": "conj",
          "governor": 1,
          "governorGloss": "Nein",
          "dependent": 6,
          "dependentGloss": "Abend"
        },
        {
          "dep": "neg",
          "governor": 8,
          "governorGloss": "all-männliche",
          "dependent": 7,
          "dependentGloss": "keine"
        },
        {
          "dep": "nsubj",
          "governor": 6,
          "governorGloss": "Abend",
          "dependent": 8,
          "dependentGloss": "all-männliche"
        },
        {
          "dep": "amod",
          "governor": 10,
          "governorGloss": "Gewalttafel",
          "dependent": 9,
          "dependentGloss": "häusliche"
        },
        {
          "dep": "det",
          "governor": 8,
          "governorGloss": "all-männliche",
          "dependent": 10,
          "dependentGloss": "Gewalttafel"
        }
      ],
      "enhancedDependencies": [
        {
          "dep": "ROOT",
          "governor": 0,
          "governorGloss": "ROOT",
          "dependent": 1,
          "dependentGloss": "Nein"
        },
        {
          "dep": "punct",
          "governor": 1,
          "governorGloss": "Nein",
          "dependent": 2,
          "dependentGloss": ","
        },
        {
          "dep": "conj",
          "governor": 1,
          "governorGloss": "Nein",
          "dependent": 3,
          "dependentGloss": "ESPN"
        },
        {
          "dep": "aux",
          "governor": 6,
          "governorGloss": "Abend",
          "dependent": 4,
          "dependentGloss": "hat"
        },
        {
          "dep": "advmod",
          "governor": 6,
          "governorGloss": "Abend",
          "dependent": 5,
          "dependentGloss": "heute"
        },
        {
          "dep": "conj",
          "governor": 1,
          "governorGloss": "Nein",
          "dependent": 6,
          "dependentGloss": "Abend"
        },
        {
          "dep": "neg",
          "governor": 8,
          "governorGloss": "all-männliche",
          "dependent": 7,
          "dependentGloss": "keine"
        },
        {
          "dep": "nsubj",
          "governor": 6,
          "governorGloss": "Abend",
          "dependent": 8,
          "dependentGloss": "all-männliche"
        },
        {
          "dep": "amod",
          "governor": 10,
          "governorGloss": "Gewalttafel",
          "dependent": 9,
          "dependentGloss": "häusliche"
        },
        {
          "dep": "det",
          "governor": 8,
          "governorGloss": "all-männliche",
          "dependent": 10,
          "dependentGloss": "Gewalttafel"
        }
      ],
      "enhancedPlusPlusDependencies": [
        {
          "dep": "ROOT",
          "governor": 0,
          "governorGloss": "ROOT",
          "dependent": 1,
          "dependentGloss": "Nein"
        },
        {
          "dep": "punct",
          "governor": 1,
          "governorGloss": "Nein",
          "dependent": 2,
          "dependentGloss": ","
        },
        {
          "dep": "conj",
          "governor": 1,
          "governorGloss": "Nein",
          "dependent": 3,
          "dependentGloss": "ESPN"
        },
        {
          "dep": "aux",
          "governor": 6,
          "governorGloss": "Abend",
          "dependent": 4,
          "dependentGloss": "hat"
        },
        {
          "dep": "advmod",
          "governor": 6,
          "governorGloss": "Abend",
          "dependent": 5,
          "dependentGloss": "heute"
        },
        {
          "dep": "conj",
          "governor": 1,
          "governorGloss": "Nein",
          "dependent": 6,
          "dependentGloss": "Abend"
        },
        {
          "dep": "neg",
          "governor": 8,
          "governorGloss": "all-männliche",
          "dependent": 7,
          "dependentGloss": "keine"
        },
        {
          "dep": "nsubj",
          "governor": 6,
          "governorGloss": "Abend",
          "dependent": 8,
          "dependentGloss": "all-männliche"
        },
        {
          "dep": "amod",
          "governor": 10,
          "governorGloss": "Gewalttafel",
          "dependent": 9,
          "dependentGloss": "häusliche"
        },
        {
          "dep": "det",
          "governor": 8,
          "governorGloss": "all-männliche",
          "dependent": 10,
          "dependentGloss": "Gewalttafel"
        }
      ],
      "tokens": [
        {
          "index": 1,
          "word": "Nein",
          "originalText": "Nein",
          "characterOffsetBegin": 0,
          "characterOffsetEnd": 4,
          "pos": "PTKANT",
          "before": "",
          "after": ""
        },
        {
          "index": 2,
          "word": ",",
          "originalText": ",",
          "characterOffsetBegin": 4,
          "characterOffsetEnd": 5,
          "pos": "$,",
          "before": "",
          "after": " "
        },
        {
          "index": 3,
          "word": "ESPN",
          "originalText": "ESPN",
          "characterOffsetBegin": 6,
          "characterOffsetEnd": 10,
          "pos": "NE",
          "before": " ",
          "after": " "
        },
        {
          "index": 4,
          "word": "hat",
          "originalText": "hat",
          "characterOffsetBegin": 11,
          "characterOffsetEnd": 14,
          "pos": "VAFIN",
          "before": " ",
          "after": " "
        },
        {
          "index": 5,
          "word": "heute",
          "originalText": "heute",
          "characterOffsetBegin": 15,
          "characterOffsetEnd": 20,
          "pos": "ADV",
          "before": " ",
          "after": " "
        },
        {
          "index": 6,
          "word": "Abend",
          "originalText": "Abend",
          "characterOffsetBegin": 21,
          "characterOffsetEnd": 26,
          "pos": "NN",
          "before": " ",
          "after": " "
        },
        {
          "index": 7,
          "word": "keine",
          "originalText": "keine",
          "characterOffsetBegin": 27,
          "characterOffsetEnd": 32,
          "pos": "PIAT",
          "before": " ",
          "after": " "
        },
        {
          "index": 8,
          "word": "all-männliche",
          "originalText": "all-männliche",
          "characterOffsetBegin": 33,
          "characterOffsetEnd": 46,
          "pos": "ADJA",
          "before": " ",
          "after": " "
        },
        {
          "index": 9,
          "word": "häusliche",
          "originalText": "häusliche",
          "characterOffsetBegin": 47,
          "characterOffsetEnd": 56,
          "pos": "ADJA",
          "before": " ",
          "after": " "
        },
        {
          "index": 10,
          "word": "Gewalttafel",
          "originalText": "Gewalttafel",
          "characterOffsetBegin": 57,
          "characterOffsetEnd": 68,
          "pos": "NN",
          "before": " ",
          "after": ""
        }
      ]
    }
  ]
}