{
  "sentences": [
    {
      "index": 0,
      "basicDependencies": [
        {
          "dep": "ROOT",
          "governor": 0,
          "governorGloss": "ROOT",
          "dependent": 2,
          "dependentGloss": "airstrike"
        },
        {
          "dep": "nsubj",
          "governor": 2,
          "governorGloss": "airstrike",
          "dependent": 1,
          "dependentGloss": "Jordanien"
        },
        {
          "dep": "amod",
          "governor": 6,
          "governorGloss": "Geisel",
          "dependent": 3,
          "dependentGloss": "getötet"
        },
        {
          "dep": "amod",
          "governor": 6,
          "governorGloss": "Geisel",
          "dependent": 4,
          "dependentGloss": "amerikanischen"
        },
        {
          "dep": "amod",
          "governor": 6,
          "governorGloss": "Geisel",
          "dependent": 5,
          "dependentGloss": "Hilfskraftgeber"
        },
        {
          "dep": "dobj",
          "governor": 2,
          "governorGloss": "airstrike",
          "dependent": 6,
          "dependentGloss": "Geisel"
        },
        {
          "dep": "case",
          "governor": 8,
          "governorGloss": "ISIS",
          "dependent": 7,
          "dependentGloss": "von"
        },
        {
          "dep": "nmod",
          "governor": 2,
          "governorGloss": "airstrike",
          "dependent": 8,
          "dependentGloss": "ISIS"
        },
        {
          "dep": "case",
          "governor": 10,
          "governorGloss": "Aussage",
          "dependent": 9,
          "dependentGloss": "nach"
        },
        {
          "dep": "nmod",
          "governor": 2,
          "governorGloss": "airstrike",
          "dependent": 10,
          "dependentGloss": "Aussage"
        },
        {
          "dep": "case",
          "governor": 12,
          "governorGloss": "Militanten",
          "dependent": 11,
          "dependentGloss": "von"
        },
        {
          "dep": "nmod",
          "governor": 10,
          "governorGloss": "Aussage",
          "dependent": 12,
          "dependentGloss": "Militanten"
        }
      ],
      "enhancedDependencies": [
        {
          "dep": "ROOT",
          "governor": 0,
          "governorGloss": "ROOT",
          "dependent": 2,
          "dependentGloss": "airstrike"
        },
        {
          "dep": "nsubj",
          "governor": 2,
          "governorGloss": "airstrike",
          "dependent": 1,
          "dependentGloss": "Jordanien"
        },
        {
          "dep": "amod",
          "governor": 6,
          "governorGloss": "Geisel",
          "dependent": 3,
          "dependentGloss": "getötet"
        },
        {
          "dep": "amod",
          "governor": 6,
          "governorGloss": "Geisel",
          "dependent": 4,
          "dependentGloss": "amerikanischen"
        },
        {
          "dep": "amod",
          "governor": 6,
          "governorGloss": "Geisel",
          "dependent": 5,
          "dependentGloss": "Hilfskraftgeber"
        },
        {
          "dep": "dobj",
          "governor": 2,
          "governorGloss": "airstrike",
          "dependent": 6,
          "dependentGloss": "Geisel"
        },
        {
          "dep": "case",
          "governor": 8,
          "governorGloss": "ISIS",
          "dependent": 7,
          "dependentGloss": "von"
        },
        {
          "dep": "nmod",
          "governor": 2,
          "governorGloss": "airstrike",
          "dependent": 8,
          "dependentGloss": "ISIS"
        },
        {
          "dep": "case",
          "governor": 10,
          "governorGloss": "Aussage",
          "dependent": 9,
          "dependentGloss": "nach"
        },
        {
          "dep": "nmod",
          "governor": 2,
          "governorGloss": "airstrike",
          "dependent": 10,
          "dependentGloss": "Aussage"
        },
        {
          "dep": "case",
          "governor": 12,
          "governorGloss": "Militanten",
          "dependent": 11,
          "dependentGloss": "von"
        },
        {
          "dep": "nmod",
          "governor": 10,
          "governorGloss": "Aussage",
          "dependent": 12,
          "dependentGloss": "Militanten"
        }
      ],
      "enhancedPlusPlusDependencies": [
        {
          "dep": "ROOT",
          "governor": 0,
          "governorGloss": "ROOT",
          "dependent": 2,
          "dependentGloss": "airstrike"
        },
        {
          "dep": "nsubj",
          "governor": 2,
          "governorGloss": "airstrike",
          "dependent": 1,
          "dependentGloss": "Jordanien"
        },
        {
          "dep": "amod",
          "governor": 6,
          "governorGloss": "Geisel",
          "dependent": 3,
          "dependentGloss": "getötet"
        },
        {
          "dep": "amod",
          "governor": 6,
          "governorGloss": "Geisel",
          "dependent": 4,
          "dependentGloss": "amerikanischen"
        },
        {
          "dep": "amod",
          "governor": 6,
          "governorGloss": "Geisel",
          "dependent": 5,
          "dependentGloss": "Hilfskraftgeber"
        },
        {
          "dep": "dobj",
          "governor": 2,
          "governorGloss": "airstrike",
          "dependent": 6,
          "dependentGloss": "Geisel"
        },
        {
          "dep": "case",
          "governor": 8,
          "governorGloss": "ISIS",
          "dependent": 7,
          "dependentGloss": "von"
        },
        {
          "dep": "nmod",
          "governor": 2,
          "governorGloss": "airstrike",
          "dependent": 8,
          "dependentGloss": "ISIS"
        },
        {
          "dep": "case",
          "governor": 10,
          "governorGloss": "Aussage",
          "dependent": 9,
          "dependentGloss": "nach"
        },
        {
          "dep": "nmod",
          "governor": 2,
          "governorGloss": "airstrike",
          "dependent": 10,
          "dependentGloss": "Aussage"
        },
        {
          "dep": "case",
          "governor": 12,
          "governorGloss": "Militanten",
          "dependent": 11,
          "dependentGloss": "von"
        },
        {
          "dep": "nmod",
          "governor": 10,
          "governorGloss": "Aussage",
          "dependent": 12,
          "dependentGloss": "Militanten"
        }
      ],
      "tokens": [
        {
          "index": 1,
          "word": "Jordanien",
          "originalText": "Jordanien",
          "characterOffsetBegin": 0,
          "characterOffsetEnd": 9,
          "pos": "NE",
          "before": "",
          "after": " "
        },
        {
          "index": 2,
          "word": "airstrike",
          "originalText": "airstrike",
          "characterOffsetBegin": 10,
          "characterOffsetEnd": 19,
          "pos": "VVFIN",
          "before": " ",
          "after": " "
        },
        {
          "index": 3,
          "word": "getötet",
          "originalText": "getötet",
          "characterOffsetBegin": 20,
          "characterOffsetEnd": 27,
          "pos": "VVPP",
          "before": " ",
          "after": " "
        },
        {
          "index": 4,
          "word": "amerikanischen",
          "originalText": "amerikanischen",
          "characterOffsetBegin": 28,
          "characterOffsetEnd": 42,
          "pos": "ADJA",
          "before": " ",
          "after": " "
        },
        {
          "index": 5,
          "word": "Hilfskraftgeber",
          "originalText": "Hilfskraftgeber",
          "characterOffsetBegin": 43,
          "characterOffsetEnd": 58,
          "pos": "NN",
          "before": " ",
          "after": " "
        },
        {
          "index": 6,
          "word": "Geisel",
          "originalText": "Geisel",
          "characterOffsetBegin": 59,
          "characterOffsetEnd": 65,
          "pos": "NN",
          "before": " ",
          "after": " "
        },
        {
          "index": 7,
          "word": "von",
          "originalText": "von",
          "characterOffsetBegin": 66,
          "characterOffsetEnd": 69,
          "pos": "APPR",
          "before": " ",
          "after": " "
        },
        {
          "index": 8,
          "word": "ISIS",
          "originalText": "ISIS",
          "characterOffsetBegin": 70,
          "characterOffsetEnd": 74,
          "pos": "NE",
          "before": " ",
          "after": " "
        },
        {
          "index": 9,
          "word": "nach",
          "originalText": "nach",
          "characterOffsetBegin": 75,
          "characterOffsetEnd": 79,
          "pos": "APPR",
          "before": " ",
          "after": " "
        },
        {
          "index": 10,
          "word": "Aussage",
          "originalText": "Aussage",
          "characterOffsetBegin": 80,
          "characterOffsetEnd": 87,
          "pos": "NN",
          "before": " ",
          "after": " "
        },
        {
          "index": 11,
          "word": "von",
          "originalText": "von",
          "characterOffsetBegin": 88,
          "characterOffsetEnd": 91,
          "pos": "APPR",
          "before": " ",
          "after": " "
        },
        {
          "index": 12,
          "word": "Militanten",
          "originalText": "Militanten",
          "characterOffsetBegin": 92,
          "characterOffsetEnd": 102,
          "pos": "NN",
          "before": " ",
          "after": ""
        }
      ]
    }
  ]
}