{
  "sentences": [
    {
      "index": 0,
      "basicDependencies": [
        {
          "dep": "ROOT",
          "governor": 0,
          "governorGloss": "ROOT",
          "dependent": 11,
          "dependentGloss": "tot"
        },
        {
          "dep": "amod",
          "governor": 2,
          "governorGloss": "Bank",
          "dependent": 1,
          "dependentGloss": "Big"
        },
        {
          "dep": "name",
          "governor": 3,
          "governorGloss": "Hank",
          "dependent": 2,
          "dependentGloss": "Bank"
        },
        {
          "dep": "nsubj",
          "governor": 11,
          "governorGloss": "tot",
          "dependent": 3,
          "dependentGloss": "Hank"
        },
        {
          "dep": "case",
          "governor": 7,
          "governorGloss": "Gang",
          "dependent": 4,
          "dependentGloss": "von"
        },
        {
          "dep": "det",
          "governor": 7,
          "governorGloss": "Gang",
          "dependent": 5,
          "dependentGloss": "der"
        },
        {
          "dep": "amod",
          "governor": 7,
          "governorGloss": "Gang",
          "dependent": 6,
          "dependentGloss": "Sugarhill"
        },
        {
          "dep": "nmod",
          "governor": 3,
          "governorGloss": "Hank",
          "dependent": 7,
          "dependentGloss": "Gang"
        },
        {
          "dep": "cop",
          "governor": 11,
          "governorGloss": "tot",
          "dependent": 8,
          "dependentGloss": "ist"
        },
        {
          "dep": "case",
          "governor": 10,
          "governorGloss": "57",
          "dependent": 9,
          "dependentGloss": "bei"
        },
        {
          "dep": "nmod",
          "governor": 11,
          "governorGloss": "tot",
          "dependent": 10,
          "dependentGloss": "57"
        }
      ],
      "enhancedDependencies": [
        {
          "dep": "ROOT",
          "governor": 0,
          "governorGloss": "ROOT",
          "dependent": 11,
          "dependentGloss": "tot"
        },
        {
          "dep": "amod",
          "governor": 2,
          "governorGloss": "Bank",
          "dependent": 1,
          "dependentGloss": "Big"
        },
        {
          "dep": "name",
          "governor": 3,
          "governorGloss": "Hank",
          "dependent": 2,
          "dependentGloss": "Bank"
        },
        {
          "dep": "nsubj",
          "governor": 11,
          "governorGloss": "tot",
          "dependent": 3,
          "dependentGloss": "Hank"
        },
        {
          "dep": "case",
          "governor": 7,
          "governorGloss": "Gang",
          "dependent": 4,
          "dependentGloss": "von"
        },
        {
          "dep": "det",
          "governor": 7,
          "governorGloss": "Gang",
          "dependent": 5,
          "dependentGloss": "der"
        },
        {
          "dep": "amod",
          "governor": 7,
          "governorGloss": "Gang",
          "dependent": 6,
          "dependentGloss": "Sugarhill"
        },
        {
          "dep": "nmod",
          "governor": 3,
          "governorGloss": "Hank",
          "dependent": 7,
          "dependentGloss": "Gang"
        },
        {
          "dep": "cop",
          "governor": 11,
          "governorGloss": "tot",
          "dependent": 8,
          "dependentGloss": "ist"
        },
        {
          "dep": "case",
          "governor": 10,
          "governorGloss": "57",
          "dependent": 9,
          "dependentGloss": "bei"
        },
        {
          "dep": "nmod",
          "governor": 11,
          "governorGloss": "tot",
          "dependent": 10,
          "dependentGloss": "57"
        }
      ],
      "enhancedPlusPlusDependencies": [
        {
          "dep": "ROOT",
          "governor": 0,
          "governorGloss": "ROOT",
          "dependent": 11,
          "dependentGloss": "tot"
        },
        {
          "dep": "amod",
          "governor": 2,
          "governorGloss": "Bank",
          "dependent": 1,
          "dependentGloss": "Big"
        },
        {
          "dep": "name",
          "governor": 3,
          "governorGloss": "Hank",
          "dependent": 2,
          "dependentGloss": "Bank"
        },
        {
          "dep": "nsubj",
          "governor": 11,
          "governorGloss": "tot",
          "dependent": 3,
          "dependentGloss": "Hank"
        },
        {
          "dep": "case",
          "governor": 7,
          "governorGloss": "Gang",
          "dependent": 4,
          "dependentGloss": "von"
        },
        {
          "dep": "det",
          "governor": 7,
          "governorGloss": "Gang",
          "dependent": 5,
          "dependentGloss": "der"
        },
        {
          "dep": "amod",
          "governor": 7,
          "governorGloss": "Gang",
          "dependent": 6,
          "dependentGloss": "Sugarhill"
        },
        {
          "dep": "nmod",
          "governor": 3,
          "governorGloss": "Hank",
          "dependent": 7,
          "dependentGloss": "Gang"
        },
        {
          "dep": "cop",
          "governor": 11,
          "governorGloss": "tot",
          "dependent": 8,
          "dependentGloss": "ist"
        },
        {
          "dep": "case",
          "governor": 10,
          "governorGloss": "57",
          "dependent": 9,
          "dependentGloss": "bei"
        },
        {
          "dep": "nmod",
          "governor": 11,
          "governorGloss": "tot",
          "dependent": 10,
          "dependentGloss": "57"
        }
      ],
      "tokens": [
        {
          "index": 1,
          "word": "Big",
          "originalText": "Big",
          "characterOffsetBegin": 0,
          "characterOffsetEnd": 3,
          "pos": "NE",
          "before": "",
          "after": " "
        },
        {
          "index": 2,
          "word": "Bank",
          "originalText": "Bank",
          "characterOffsetBegin": 4,
          "characterOffsetEnd": 8,
          "pos": "NN",
          "before": " ",
          "after": " "
        },
        {
          "index": 3,
          "word": "Hank",
          "originalText": "Hank",
          "characterOffsetBegin": 9,
          "characterOffsetEnd": 13,
          "pos": "NE",
          "before": " ",
          "after": " "
        },
        {
          "index": 4,
          "word": "von",
          "originalText": "von",
          "characterOffsetBegin": 14,
          "characterOffsetEnd": 17,
          "pos": "APPR",
          "before": " ",
          "after": " "
        },
        {
          "index": 5,
          "word": "der",
          "originalText": "der",
          "characterOffsetBegin": 18,
          "characterOffsetEnd": 21,
          "pos": "ART",
          "before": " ",
          "after": " "
        },
        {
          "index": 6,
          "word": "Sugarhill",
          "originalText": "Sugarhill",
          "characterOffsetBegin": 22,
          "characterOffsetEnd": 31,
          "pos": "NE",
          "before": " ",
          "after": " "
        },
        {
          "index": 7,
          "word": "Gang",
          "originalText": "Gang",
          "characterOffsetBegin": 32,
          "characterOffsetEnd": 36,
          "pos": "NN",
          "before": " ",
          "after": " "
        },
        {
          "index": 8,
          "word": "ist",
          "originalText": "ist",
          "characterOffsetBegin": 37,
          "characterOffsetEnd": 40,
          "pos": "VAFIN",
          "before": " ",
          "after": " "
        },
        {
          "index": 9,
          "word": "bei",
          "originalText": "bei",
          "characterOffsetBegin": 41,
          "characterOffsetEnd": 44,
          "pos": "APPR",
          "before": " ",
          "after": " "
        },
        {
          "index": 10,
          "word": "57",
          "originalText": "57",
          "characterOffsetBegin": 45,
          "characterOffsetEnd": 47,
          "pos": "CARD",
          "before": " ",
          "after": " "
        },
        {
          "index": 11,
          "word": "tot",
          "originalText": "tot",
          "characterOffsetBegin": 48,
          "characterOffsetEnd": 51,
          "pos": "ADJD",
          "before": " ",
          "after": ""
        }
      ]
    }
  ]
}