{
  "sentences": [
    {
      "index": 0,
      "basicDependencies": [
        {
          "dep": "ROOT",
          "governor": 0,
          "governorGloss": "ROOT",
          "dependent": 2,
          "dependentGloss": "verlässt"
        },
        {
          "dep": "nsubj",
          "governor": 2,
          "governorGloss": "verlässt",
          "dependent": 1,
          "dependentGloss": "Meteorit"
        },
        {
          "dep": "amod",
          "governor": 4,
          "governorGloss": "Krater",
          "dependent": 3,
          "dependentGloss": "House-Size"
        },
        {
          "dep": "dobj",
          "governor": 2,
          "governorGloss": "verlässt",
          "dependent": 4,
          "dependentGloss": "Krater"
        },
        {
          "dep": "case",
          "governor": 7,
          "governorGloss": "Hauptstadt",
          "dependent": 5,
          "dependentGloss": "in"
        },
        {
          "dep": "amod",
          "governor": 7,
          "governorGloss": "Hauptstadt",
          "dependent": 6,
          "dependentGloss": "Nicaraguas"
        },
        {
          "dep": "nmod",
          "governor": 2,
          "governorGloss": "verlässt",
          "dependent": 7,
          "dependentGloss": "Hauptstadt"
        }
      ],
      "enhancedDependencies": [
        {
          "dep": "ROOT",
          "governor": 0,
          "governorGloss": "ROOT",
          "dependent": 2,
          "dependentGloss": "verlässt"
        },
        {
          "dep": "nsubj",
          "governor": 2,
          "governorGloss": "verlässt",
          "dependent": 1,
          "dependentGloss": "Meteorit"
        },
        {
          "dep": "amod",
          "governor": 4,
          "governorGloss": "Krater",
          "dependent": 3,
          "dependentGloss": "House-Size"
        },
        {
          "dep": "dobj",
          "governor": 2,
          "governorGloss": "verlässt",
          "dependent": 4,
          "dependentGloss": "Krater"
        },
        {
          "dep": "case",
          "governor": 7,
          "governorGloss": "Hauptstadt",
          "dependent": 5,
          "dependentGloss": "in"
        },
        {
          "dep": "amod",
          "governor": 7,
          "governorGloss": "Hauptstadt",
          "dependent": 6,
          "dependentGloss": "Nicaraguas"
        },
        {
          "dep": "nmod",
          "governor": 2,
          "governorGloss": "verlässt",
          "dependent": 7,
          "dependentGloss": "Hauptstadt"
        }
      ],
      "enhancedPlusPlusDependencies": [
        {
          "dep": "ROOT",
          "governor": 0,
          "governorGloss": "ROOT",
          "dependent": 2,
          "dependentGloss": "verlässt"
        },
        {
          "dep": "nsubj",
          "governor": 2,
          "governorGloss": "verlässt",
          "dependent": 1,
          "dependentGloss": "Meteorit"
        },
        {
          "dep": "amod",
          "governor": 4,
          "governorGloss": "Krater",
          "dependent": 3,
          "dependentGloss": "House-Size"
        },
        {
          "dep": "dobj",
          "governor": 2,
          "governorGloss": "verlässt",
          "dependent": 4,
          "dependentGloss": "Krater"
        },
        {
          "dep": "case",
          "governor": 7,
          "governorGloss": "Hauptstadt",
          "dependent": 5,
          "dependentGloss": "in"
        },
        {
          "dep": "amod",
          "governor": 7,
          "governorGloss": "Hauptstadt",
          "dependent": 6,
          "dependentGloss": "Nicaraguas"
        },
        {
          "dep": "nmod",
          "governor": 2,
          "governorGloss": "verlässt",
          "dependent": 7,
          "dependentGloss": "Hauptstadt"
        }
      ],
      "tokens": [
        {
          "index": 1,
          "word": "Meteorit",
          "originalText": "Meteorit",
          "characterOffsetBegin": 0,
          "characterOffsetEnd": 8,
          "pos": "NN",
          "before": "",
          "after": " "
        },
        {
          "index": 2,
          "word": "verlässt",
          "originalText": "verlässt",
          "characterOffsetBegin": 9,
          "characterOffsetEnd": 17,
          "pos": "VVFIN",
          "before": " ",
          "after": " "
        },
        {
          "index": 3,
          "word": "House-Size",
          "originalText": "House-Size",
          "characterOffsetBegin": 18,
          "characterOffsetEnd": 28,
          "pos": "NN",
          "before": " ",
          "after": " "
        },
        {
          "index": 4,
          "word": "Krater",
          "originalText": "Krater",
          "characterOffsetBegin": 29,
          "characterOffsetEnd": 35,
          "pos": "NN",
          "before": " ",
          "after": " "
        },
        {
          "index": 5,
          "word": "in",
          "originalText": "in",
          "characterOffsetBegin": 36,
          "characterOffsetEnd": 38,
          "pos": "APPR",
          "before": " ",
          "after": " "
        },
        {
          "index": 6,
          "word": "Nicaraguas",
          "originalText": "Nicaraguas",
          "characterOffsetBegin": 39,
          "characterOffsetEnd": 49,
          "pos": "NE",
          "before": " ",
          "after": " "
        },
        {
          "index": 7,
          "word": "Hauptstadt",
          "originalText": "Hauptstadt",
          "characterOffsetBegin": 50,
          "characterOffsetEnd": 60,
          "pos": "NN",
          "before": " ",
          "after": ""
        }
      ]
    }
  ]
}