{
  "sentences": [
    {
      "index": 0,
      "basicDependencies": [
        {
          "dep": "ROOT",
          "governor": 0,
          "governorGloss": "ROOT",
          "dependent": 7,
          "dependentGloss": "im"
        },
        {
          "dep": "name",
          "governor": 4,
          "governorGloss": "Obama",
          "dependent": 1,
          "dependentGloss": "Saudis"
        },
        {
          "dep": "name",
          "governor": 4,
          "governorGloss": "Obama",
          "dependent": 2,
          "dependentGloss": "Say"
        },
        {
          "dep": "name",
          "governor": 4,
          "governorGloss": "Obama",
          "dependent": 3,
          "dependentGloss": "Michelle"
        },
        {
          "dep": "nsubj",
          "governor": 7,
          "governorGloss": "im",
          "dependent": 4,
          "dependentGloss": "Obama"
        },
        {
          "dep": "neg",
          "governor": 7,
          "governorGloss": "im",
          "dependent": 5,
          "dependentGloss": "Nicht"
        },
        {
          "dep": "advmod",
          "governor": 7,
          "governorGloss": "im",
          "dependent": 6,
          "dependentGloss": "verschwommen"
        },
        {
          "dep": "dobj",
          "governor": 7,
          "governorGloss": "im",
          "dependent": 8,
          "dependentGloss": "Fernsehen"
        }
      ],
      "enhancedDependencies": [
        {
          "dep": "ROOT",
          "governor": 0,
          "governorGloss": "ROOT",
          "dependent": 7,
          "dependentGloss": "im"
        },
        {
          "dep": "name",
          "governor": 4,
          "governorGloss": "Obama",
          "dependent": 1,
          "dependentGloss": "Saudis"
        },
        {
          "dep": "name",
          "governor": 4,
          "governorGloss": "Obama",
          "dependent": 2,
          "dependentGloss": "Say"
        },
        {
          "dep": "name",
          "governor": 4,
          "governorGloss": "Obama",
          "dependent": 3,
          "dependentGloss": "Michelle"
        },
        {
          "dep": "nsubj",
          "governor": 7,
          "governorGloss": "im",
          "dependent": 4,
          "dependentGloss": "Obama"
        },
        {
          "dep": "neg",
          "governor": 7,
          "governorGloss": "im",
          "dependent": 5,
          "dependentGloss": "Nicht"
        },
        {
          "dep": "advmod",
          "governor": 7,
          "governorGloss": "im",
          "dependent": 6,
          "dependentGloss": "verschwommen"
        },
        {
          "dep": "dobj",
          "governor": 7,
          "governorGloss": "im",
          "dependent": 8,
          "dependentGloss": "Fernsehen"
        }
      ],
      "enhancedPlusPlusDependencies": [
        {
          "dep": "ROOT",
          "governor": 0,
          "governorGloss": "ROOT",
          "dependent": 7,
          "dependentGloss": "im"
        },
        {
          "dep": "name",
          "governor": 4,
          "governorGloss": "Obama",
          "dependent": 1,
          "dependentGloss": "Saudis"
        },
        {
          "dep": "name",
          "governor": 4,
          "governorGloss": "Obama",
          "dependent": 2,
          "dependentGloss": "Say"
        },
        {
          "dep": "name",
          "governor": 4,
          "governorGloss": "Obama",
          "dependent": 3,
          "dependentGloss": "Michelle"
        },
        {
          "dep": "nsubj",
          "governor": 7,
          "governorGloss": "im",
          "dependent": 4,
          "dependentGloss": "Obama"
        },
        {
          "dep": "neg",
          "governor": 7,
          "governorGloss": "im",
          "dependent": 5,
          "dependentGloss": "Nicht"
        },
        {
          "dep": "advmod",
          "governor": 7,
          "governorGloss": "im",
          "dependent": 6,
          "dependentGloss": "verschwommen"
        },
        {
          "dep": "dobj",
          "governor": 7,
          "governorGloss": "im",
          "dependent": 8,
          "dependentGloss": "Fernsehen"
        }
      ],
      "tokens": [
        {
          "index": 1,
          "word": "Saudis",
          "originalText": "Saudis",
          "characterOffsetBegin": 0,
          "characterOffsetEnd": 6,
          "pos": "FM",
          "before": "",
          "after": " "
        },
        {
          "index": 2,
          "word": "Say",
          "originalText": "Say",
          "characterOffsetBegin": 7,
          "characterOffsetEnd": 10,
          "pos": "FM",
          "before": " ",
          "after": " "
        },
        {
          "index": 3,
          "word": "Michelle",
          "originalText": "Michelle",
          "characterOffsetBegin": 11,
          "characterOffsetEnd": 19,
          "pos": "FM",
          "before": " ",
          "after": " "
        },
        {
          "index": 4,
          "word": "Obama",
          "originalText": "Obama",
          "characterOffsetBegin": 20,
          "characterOffsetEnd": 25,
          "pos": "FM",
          "before": " ",
          "after": " "
        },
        {
          "index": 5,
          "word": "Nicht",
          "originalText": "Nicht",
          "characterOffsetBegin": 26,
          "characterOffsetEnd": 31,
          "pos": "PTKNEG",
          "before": " ",
          "after": " "
        },
        {
          "index": 6,
          "word": "verschwommen",
          "originalText": "verschwommen",
          "characterOffsetBegin": 32,
          "characterOffsetEnd": 44,
          "pos": "ADJD",
          "before": " ",
          "after": " "
        },
        {
          "index": 7,
          "word": "im",
          "originalText": "im",
          "characterOffsetBegin": 45,
          "characterOffsetEnd": 47,
          "pos": "APPRART",
          "before": " ",
          "after": " "
        },
        {
          "index": 8,
          "word": "Fernsehen",
          "originalText": "Fernsehen",
          "characterOffsetBegin": 48,
          "characterOffsetEnd": 57,
          "pos": "NN",
          "before": " ",
          "after": ""
        }
      ]
    }
  ]
}