{
  "sentences": [
    {
      "index": 0,
      "basicDependencies": [
        {
          "dep": "ROOT",
          "governor": 0,
          "governorGloss": "ROOT",
          "dependent": 9,
          "dependentGloss": "Run"
        },
        {
          "dep": "nsubj",
          "governor": 9,
          "governorGloss": "Run",
          "dependent": 1,
          "dependentGloss": "Apple-Aufträge"
        },
        {
          "dep": "advmod",
          "governor": 6,
          "governorGloss": "Uhren",
          "dependent": 2,
          "dependentGloss": "mehr"
        },
        {
          "dep": "case",
          "governor": 6,
          "governorGloss": "Uhren",
          "dependent": 3,
          "dependentGloss": "als"
        },
        {
          "dep": "nummod",
          "governor": 5,
          "governorGloss": "Millionen",
          "dependent": 4,
          "dependentGloss": "5"
        },
        {
          "dep": "nummod",
          "governor": 6,
          "governorGloss": "Uhren",
          "dependent": 5,
          "dependentGloss": "Millionen"
        },
        {
          "dep": "nmod",
          "governor": 1,
          "governorGloss": "Apple-Aufträge",
          "dependent": 6,
          "dependentGloss": "Uhren"
        },
        {
          "dep": "case",
          "governor": 8,
          "governorGloss": "Initial",
          "dependent": 7,
          "dependentGloss": "für"
        },
        {
          "dep": "nmod",
          "governor": 6,
          "governorGloss": "Uhren",
          "dependent": 8,
          "dependentGloss": "Initial"
        }
      ],
      "enhancedDependencies": [
        {
          "dep": "ROOT",
          "governor": 0,
          "governorGloss": "ROOT",
          "dependent": 9,
          "dependentGloss": "Run"
        },
        {
          "dep": "nsubj",
          "governor": 9,
          "governorGloss": "Run",
          "dependent": 1,
          "dependentGloss": "Apple-Aufträge"
        },
        {
          "dep": "advmod",
          "governor": 6,
          "governorGloss": "Uhren",
          "dependent": 2,
          "dependentGloss": "mehr"
        },
        {
          "dep": "case",
          "governor": 6,
          "governorGloss": "Uhren",
          "dependent": 3,
          "dependentGloss": "als"
        },
        {
          "dep": "nummod",
          "governor": 5,
          "governorGloss": "Millionen",
          "dependent": 4,
          "dependentGloss": "5"
        },
        {
          "dep": "nummod",
          "governor": 6,
          "governorGloss": "Uhren",
          "dependent": 5,
          "dependentGloss": "Millionen"
        },
        {
          "dep": "nmod",
          "governor": 1,
          "governorGloss": "Apple-Aufträge",
          "dependent": 6,
          "dependentGloss": "Uhren"
        },
        {
          "dep": "case",
          "governor": 8,
          "governorGloss": "Initial",
          "dependent": 7,
          "dependentGloss": "für"
        },
        {
          "dep": "nmod",
          "governor": 6,
          "governorGloss": "Uhren",
          "dependent": 8,
          "dependentGloss": "Initial"
        }
      ],
      "enhancedPlusPlusDependencies": [
        {
          "dep": "ROOT",
          "governor": 0,
          "governorGloss": "ROOT",
          "dependent": 9,
          "dependentGloss": "Run"
        },
        {
          "dep": "nsubj",
          "governor": 9,
          "governorGloss": "Run",
          "dependent": 1,
          "dependentGloss": "Apple-Aufträge"
        },
        {
          "dep": "advmod",
          "governor": 6,
          "governorGloss": "Uhren",
          "dependent": 2,
          "dependentGloss": "mehr"
        },
        {
          "dep": "case",
          "governor": 6,
          "governorGloss": "Uhren",
          "dependent": 3,
          "dependentGloss": "als"
        },
        {
          "dep": "nummod",
          "governor": 5,
          "governorGloss": "Millionen",
          "dependent": 4,
          "dependentGloss": "5"
        },
        {
          "dep": "nummod",
          "governor": 6,
          "governorGloss": "Uhren",
          "dependent": 5,
          "dependentGloss": "Millionen"
        },
        {
          "dep": "nmod",
          "governor": 1,
          "governorGloss": "Apple-Aufträge",
          "dependent": 6,
          "dependentGloss": "Uhren"
        },
        {
          "dep": "case",
          "governor": 8,
          "governorGloss": "Initial",
          "dependent": 7,
          "dependentGloss": "für"
        },
        {
          "dep": "nmod",
          "governor": 6,
          "governorGloss": "Uhren",
          "dependent": 8,
          "dependentGloss": "Initial"
        }
      ],
      "tokens": [
        {
          "index": 1,
          "word": "Apple-Aufträge",
          "originalText": "Apple-Aufträge",
          "characterOffsetBegin": 0,
          "characterOffsetEnd": 14,
          "pos": "NN",
          "before": "",
          "after": " "
        },
        {
          "index": 2,
          "word": "mehr",
          "originalText": "mehr",
          "characterOffsetBegin": 15,
          "characterOffsetEnd": 19,
          "pos": "ADV",
          "before": " ",
          "after": " "
        },
        {
          "index": 3,
          "word": "als",
          "originalText": "als",
          "characterOffsetBegin": 20,
          "characterOffsetEnd": 23,
          "pos": "KOKOM",
          "before": " ",
          "after": " "
        },
        {
          "index": 4,
          "word": "5",
          "originalText": "5",
          "characterOffsetBegin": 24,
          "characterOffsetEnd": 25,
          "pos": "CARD",
          "before": " ",
          "after": " "
        },
        {
          "index": 5,
          "word": "Millionen",
          "originalText": "Millionen",
          "characterOffsetBegin": 26,
          "characterOffsetEnd": 35,
          "pos": "NN",
          "before": " ",
          "after": " "
        },
        {
          "index": 6,
          "word": "Uhren",
          "originalText": "Uhren",
          "characterOffsetBegin": 36,
          "characterOffsetEnd": 41,
          "pos": "NN",
          "before": " ",
          "after": " "
        },
        {
          "index": 7,
          "word": "für",
          "originalText": "für",
          "characterOffsetBegin": 42,
          "characterOffsetEnd": 45,
          "pos": "APPR",
          "before": " ",
          "after": " "
        },
        {
          "index": 8,
          "word": "Initial",
          "originalText": "Initial",
          "characterOffsetBegin": 46,
          "characterOffsetEnd": 53,
          "pos": "NN",
          "before": " ",
          "after": " "
        },
        {
          "index": 9,
          "word": "Run",
          "originalText": "Run",
          "characterOffsetBegin": 54,
          "characterOffsetEnd": 57,
          "pos": "NN",
          "before": " ",
          "after": ""
        }
      ]
    }
  ]
}