{
  "sentences": [
    {
      "index": 0,
      "basicDependencies": [
        {
          "dep": "ROOT",
          "governor": 0,
          "governorGloss": "ROOT",
          "dependent": 12,
          "dependentGloss": "Frau"
        },
        {
          "dep": "nsubj",
          "governor": 12,
          "governorGloss": "Frau",
          "dependent": 1,
          "dependentGloss": "Frau"
        },
        {
          "dep": "punct",
          "governor": 1,
          "governorGloss": "Frau",
          "dependent": 2,
          "dependentGloss": ","
        },
        {
          "dep": "det",
          "governor": 5,
          "governorGloss": "Libanon",
          "dependent": 3,
          "dependentGloss": "die"
        },
        {
          "dep": "amod",
          "governor": 5,
          "governorGloss": "Libanon",
          "dependent": 4,
          "dependentGloss": "im"
        },
        {
          "dep": "dobj",
          "governor": 6,
          "governorGloss": "eingesperrt",
          "dependent": 5,
          "dependentGloss": "Libanon"
        },
        {
          "dep": "acl",
          "governor": 1,
          "governorGloss": "Frau",
          "dependent": 6,
          "dependentGloss": "eingesperrt"
        },
        {
          "dep": "cop",
          "governor": 6,
          "governorGloss": "eingesperrt",
          "dependent": 7,
          "dependentGloss": "ist"
        },
        {
          "dep": "punct",
          "governor": 6,
          "governorGloss": "eingesperrt",
          "dependent": 8,
          "dependentGloss": ","
        },
        {
          "dep": "cop",
          "governor": 12,
          "governorGloss": "Frau",
          "dependent": 9,
          "dependentGloss": "ist"
        },
        {
          "dep": "neg",
          "governor": 11,
          "governorGloss": "al-Baghdadis",
          "dependent": 10,
          "dependentGloss": "nicht"
        },
        {
          "dep": "amod",
          "governor": 12,
          "governorGloss": "Frau",
          "dependent": 11,
          "dependentGloss": "al-Baghdadis"
        },
        {
          "dep": "punct",
          "governor": 12,
          "governorGloss": "Frau",
          "dependent": 13,
          "dependentGloss": ","
        },
        {
          "dep": "appos",
          "governor": 12,
          "governorGloss": "Frau",
          "dependent": 14,
          "dependentGloss": "sagt"
        },
        {
          "dep": "det",
          "governor": 16,
          "governorGloss": "Irak",
          "dependent": 15,
          "dependentGloss": "der"
        },
        {
          "dep": "det",
          "governor": 14,
          "governorGloss": "sagt",
          "dependent": 16,
          "dependentGloss": "Irak"
        }
      ],
      "enhancedDependencies": [
        {
          "dep": "ROOT",
          "governor": 0,
          "governorGloss": "ROOT",
          "dependent": 12,
          "dependentGloss": "Frau"
        },
        {
          "dep": "nsubj",
          "governor": 12,
          "governorGloss": "Frau",
          "dependent": 1,
          "dependentGloss": "Frau"
        },
        {
          "dep": "punct",
          "governor": 1,
          "governorGloss": "Frau",
          "dependent": 2,
          "dependentGloss": ","
        },
        {
          "dep": "det",
          "governor": 5,
          "governorGloss": "Libanon",
          "dependent": 3,
          "dependentGloss": "die"
        },
        {
          "dep": "amod",
          "governor": 5,
          "governorGloss": "Libanon",
          "dependent": 4,
          "dependentGloss": "im"
        },
        {
          "dep": "dobj",
          "governor": 6,
          "governorGloss": "eingesperrt",
          "dependent": 5,
          "dependentGloss": "Libanon"
        },
        {
          "dep": "acl",
          "governor": 1,
          "governorGloss": "Frau",
          "dependent": 6,
          "dependentGloss": "eingesperrt"
        },
        {
          "dep": "cop",
          "governor": 6,
          "governorGloss": "eingesperrt",
          "dependent": 7,
          "dependentGloss": "ist"
        },
        {
          "dep": "punct",
          "governor": 6,
          "governorGloss": "eingesperrt",
          "dependent": 8,
          "dependentGloss": ","
        },
        {
          "dep": "cop",
          "governor": 12,
          "governorGloss": "Frau",
          "dependent": 9,
          "dependentGloss": "ist"
        },
        {
          "dep": "neg",
          "governor": 11,
          "governorGloss": "al-Baghdadis",
          "dependent": 10,
          "dependentGloss": "nicht"
        },
        {
          "dep": "amod",
          "governor": 12,
          "governorGloss": "Frau",
          "dependent": 11,
          "dependentGloss": "al-Baghdadis"
        },
        {
          "dep": "punct",
          "governor": 12,
          "governorGloss": "Frau",
          "dependent": 13,
          "dependentGloss": ","
        },
        {
          "dep": "appos",
          "governor": 12,
          "governorGloss": "Frau",
          "dependent": 14,
          "dependentGloss": "sagt"
        },
        {
          "dep": "det",
          "governor": 16,
          "governorGloss": "Irak",
          "dependent": 15,
          "dependentGloss": "der"
        },
        {
          "dep": "det",
          "governor": 14,
          "governorGloss": "sagt",
          "dependent": 16,
          "dependentGloss": "Irak"
        }
      ],
      "enhancedPlusPlusDependencies": [
        {
          "dep": "ROOT",
          "governor": 0,
          "governorGloss": "ROOT",
          "dependent": 12,
          "dependentGloss": "Frau"
        },
        {
          "dep": "nsubj",
          "governor": 12,
          "governorGloss": "Frau",
          "dependent": 1,
          "dependentGloss": "Frau"
        },
        {
          "dep": "punct",
          "governor": 1,
          "governorGloss": "Frau",
          "dependent": 2,
          "dependentGloss": ","
        },
        {
          "dep": "det",
          "governor": 5,
          "governorGloss": "Libanon",
          "dependent": 3,
          "dependentGloss": "die"
        },
        {
          "dep": "amod",
          "governor": 5,
          "governorGloss": "Libanon",
          "dependent": 4,
          "dependentGloss": "im"
        },
        {
          "dep": "dobj",
          "governor": 6,
          "governorGloss": "eingesperrt",
          "dependent": 5,
          "dependentGloss": "Libanon"
        },
        {
          "dep": "acl",
          "governor": 1,
          "governorGloss": "Frau",
          "dependent": 6,
          "dependentGloss": "eingesperrt"
        },
        {
          "dep": "cop",
          "governor": 6,
          "governorGloss": "eingesperrt",
          "dependent": 7,
          "dependentGloss": "ist"
        },
        {
          "dep": "punct",
          "governor": 6,
          "governorGloss": "eingesperrt",
          "dependent": 8,
          "dependentGloss": ","
        },
        {
          "dep": "cop",
          "governor": 12,
          "governorGloss": "Frau",
          "dependent": 9,
          "dependentGloss": "ist"
        },
        {
          "dep": "neg",
          "governor": 11,
          "governorGloss": "al-Baghdadis",
          "dependent": 10,
          "dependentGloss": "nicht"
        },
        {
          "dep": "amod",
          "governor": 12,
          "governorGloss": "Frau",
          "dependent": 11,
          "dependentGloss": "al-Baghdadis"
        },
        {
          "dep": "punct",
          "governor": 12,
          "governorGloss": "Frau",
          "dependent": 13,
          "dependentGloss": ","
        },
        {
          "dep": "appos",
          "governor": 12,
          "governorGloss": "Frau",
          "dependent": 14,
          "dependentGloss": "sagt"
        },
        {
          "dep": "det",
          "governor": 16,
          "governorGloss": "Irak",
          "dependent": 15,
          "dependentGloss": "der"
        },
        {
          "dep": "det",
          "governor": 14,
          "governorGloss": "sagt",
          "dependent": 16,
          "dependentGloss": "Irak"
        }
      ],
      "tokens": [
        {
          "index": 1,
          "word": "Frau",
          "originalText": "Frau",
          "characterOffsetBegin": 0,
          "characterOffsetEnd": 4,
          "pos": "NN",
          "before": "",
          "after": ""
        },
        {
          "index": 2,
          "word": ",",
          "originalText": ",",
          "characterOffsetBegin": 4,
          "characterOffsetEnd": 5,
          "pos": "$,",
          "before": "",
          "after": " "
        },
        {
          "index": 3,
          "word": "die",
          "originalText": "die",
          "characterOffsetBegin": 6,
          "characterOffsetEnd": 9,
          "pos": "PRELS",
          "before": " ",
          "after": " "
        },
        {
          "index": 4,
          "word": "im",
          "originalText": "im",
          "characterOffsetBegin": 10,
          "characterOffsetEnd": 12,
          "pos": "APPRART",
          "before": " ",
          "after": " "
        },
        {
          "index": 5,
          "word": "Libanon",
          "originalText": "Libanon",
          "characterOffsetBegin": 13,
          "characterOffsetEnd": 20,
          "pos": "NE",
          "before": " ",
          "after": " "
        },
        {
          "index": 6,
          "word": "eingesperrt",
          "originalText": "eingesperrt",
          "characterOffsetBegin": 21,
          "characterOffsetEnd": 32,
          "pos": "VVPP",
          "before": " ",
          "after": " "
        },
        {
          "index": 7,
          "word": "ist",
          "originalText": "ist",
          "characterOffsetBegin": 33,
          "characterOffsetEnd": 36,
          "pos": "VAFIN",
          "before": " ",
          "after": ""
        },
        {
          "index": 8,
          "word": ",",
          "originalText": ",",
          "characterOffsetBegin": 36,
          "characterOffsetEnd": 37,
          "pos": "$,",
          "before": "",
          "after": " "
        },
        {
          "index": 9,
          "word": "ist",
          "originalText": "ist",
          "characterOffsetBegin": 38,
          "characterOffsetEnd": 41,
          "pos": "VAFIN",
          "before": " ",
          "after": " "
        },
        {
          "index": 10,
          "word": "nicht",
          "originalText": "nicht",
          "characterOffsetBegin": 42,
          "characterOffsetEnd": 47,
          "pos": "PTKNEG",
          "before": " ",
          "after": " "
        },
        {
          "index": 11,
          "word": "al-Baghdadis",
          "originalText": "al-Baghdadis",
          "characterOffsetBegin": 48,
          "characterOffsetEnd": 60,
          "pos": "NE",
          "before": " ",
          "after": " "
        },
        {
          "index": 12,
          "word": "Frau",
          "originalText": "Frau",
          "characterOffsetBegin": 61,
          "characterOffsetEnd": 65,
          "pos": "NN",
          "before": " ",
          "after": ""
        },
        {
          "index": 13,
          "word": ",",
          "originalText": ",",
          "characterOffsetBegin": 65,
          "characterOffsetEnd": 66,
          "pos": "$,",
          "before": "",
          "after": " "
        },
        {
          "index": 14,
          "word": "sagt",
          "originalText": "sagt",
          "characterOffsetBegin": 67,
          "characterOffsetEnd": 71,
          "pos": "VVFIN",
          "before": " ",
          "after": " "
        },
        {
          "index": 15,
          "word": "der",
          "originalText": "der",
          "characterOffsetBegin": 72,
          "characterOffsetEnd": 75,
          "pos": "ART",
          "before": " ",
          "after": " "
        },
        {
          "index": 16,
          "word": "Irak",
          "originalText": "Irak",
          "characterOffsetBegin": 76,
          "characterOffsetEnd": 80,
          "pos": "NE",
          "before": " ",
          "after": ""
        }
      ]
    }
  ]
}