{
  "sentences": [
    {
      "index": 0,
      "basicDependencies": [
        {
          "dep": "ROOT",
          "governor": 0,
          "governorGloss": "ROOT",
          "dependent": 3,
          "dependentGloss": "Airdrop"
        },
        {
          "dep": "name",
          "governor": 2,
          "governorGloss": "Arme",
          "dependent": 1,
          "dependentGloss": "U.S."
        },
        {
          "dep": "nsubj",
          "governor": 3,
          "governorGloss": "Airdrop",
          "dependent": 2,
          "dependentGloss": "Arme"
        },
        {
          "dep": "dobj",
          "governor": 3,
          "governorGloss": "Airdrop",
          "dependent": 4,
          "dependentGloss": "fiel"
        },
        {
          "dep": "case",
          "governor": 7,
          "governorGloss": "Hände",
          "dependent": 5,
          "dependentGloss": "in"
        },
        {
          "dep": "amod",
          "governor": 7,
          "governorGloss": "Hände",
          "dependent": 6,
          "dependentGloss": "ISIS"
        },
        {
          "dep": "nmod",
          "governor": 4,
          "governorGloss": "fiel",
          "dependent": 7,
          "dependentGloss": "Hände"
        },
        {
          "dep": "punct",
          "governor": 4,
          "governorGloss": "fiel",
          "dependent": 8,
          "dependentGloss": ":"
        },
        {
          "dep": "dep",
          "governor": 4,
          "governorGloss": "fiel",
          "dependent": 9,
          "dependentGloss": "Pentagon"
        }
      ],
      "enhancedDependencies": [
        {
          "dep": "ROOT",
          "governor": 0,
          "governorGloss": "ROOT",
          "dependent": 3,
          "dependentGloss": "Airdrop"
        },
        {
          "dep": "name",
          "governor": 2,
          "governorGloss": "Arme",
          "dependent": 1,
          "dependentGloss": "U.S."
        },
        {
          "dep": "nsubj",
          "governor": 3,
          "governorGloss": "Airdrop",
          "dependent": 2,
          "dependentGloss": "Arme"
        },
        {
          "dep": "dobj",
          "governor": 3,
          "governorGloss": "Airdrop",
          "dependent": 4,
          "dependentGloss": "fiel"
        },
        {
          "dep": "case",
          "governor": 7,
          "governorGloss": "Hände",
          "dependent": 5,
          "dependentGloss": "in"
        },
        {
          "dep": "amod",
          "governor": 7,
          "governorGloss": "Hände",
          "dependent": 6,
          "dependentGloss": "ISIS"
        },
        {
          "dep": "nmod",
          "governor": 4,
          "governorGloss": "fiel",
          "dependent": 7,
          "dependentGloss": "Hände"
        },
        {
          "dep": "punct",
          "governor": 4,
          "governorGloss": "fiel",
          "dependent": 8,
          "dependentGloss": ":"
        },
        {
          "dep": "dep",
          "governor": 4,
          "governorGloss": "fiel",
          "dependent": 9,
          "dependentGloss": "Pentagon"
        }
      ],
      "enhancedPlusPlusDependencies": [
        {
          "dep": "ROOT",
          "governor": 0,
          "governorGloss": "ROOT",
          "dependent": 3,
          "dependentGloss": "Airdrop"
        },
        {
          "dep": "name",
          "governor": 2,
          "governorGloss": "Arme",
          "dependent": 1,
          "dependentGloss": "U.S."
        },
        {
          "dep": "nsubj",
          "governor": 3,
          "governorGloss": "Airdrop",
          "dependent": 2,
          "dependentGloss": "Arme"
        },
        {
          "dep": "dobj",
          "governor": 3,
          "governorGloss": "Airdrop",
          "dependent": 4,
          "dependentGloss": "fiel"
        },
        {
          "dep": "case",
          "governor": 7,
          "governorGloss": "Hände",
          "dependent": 5,
          "dependentGloss": "in"
        },
        {
          "dep": "amod",
          "governor": 7,
          "governorGloss": "Hände",
          "dependent": 6,
          "dependentGloss": "ISIS"
        },
        {
          "dep": "nmod",
          "governor": 4,
          "governorGloss": "fiel",
          "dependent": 7,
          "dependentGloss": "Hände"
        },
        {
          "dep": "punct",
          "governor": 4,
          "governorGloss": "fiel",
          "dependent": 8,
          "dependentGloss": ":"
        },
        {
          "dep": "dep",
          "governor": 4,
          "governorGloss": "fiel",
          "dependent": 9,
          "dependentGloss": "Pentagon"
        }
      ],
      "tokens": [
        {
          "index": 1,
          "word": "U.S.",
          "originalText": "U.S.",
          "characterOffsetBegin": 0,
          "characterOffsetEnd": 4,
          "pos": "NE",
          "before": "",
          "after": " "
        },
        {
          "index": 2,
          "word": "Arme",
          "originalText": "Arme",
          "characterOffsetBegin": 5,
          "characterOffsetEnd": 9,
          "pos": "NN",
          "before": " ",
          "after": " "
        },
        {
          "index": 3,
          "word": "Airdrop",
          "originalText": "Airdrop",
          "characterOffsetBegin": 10,
          "characterOffsetEnd": 17,
          "pos": "NE",
          "before": " ",
          "after": " "
        },
        {
          "index": 4,
          "word": "fiel",
          "originalText": "fiel",
          "characterOffsetBegin": 18,
          "characterOffsetEnd": 22,
          "pos": "VVFIN",
          "before": " ",
          "after": " "
        },
        {
          "index": 5,
          "word": "in",
          "originalText": "in",
          "characterOffsetBegin": 23,
          "characterOffsetEnd": 25,
          "pos": "APPR",
          "before": " ",
          "after": " "
        },
        {
          "index": 6,
          "word": "ISIS",
          "originalText": "ISIS",
          "characterOffsetBegin": 26,
          "characterOffsetEnd": 30,
          "pos": "NE",
          "before": " ",
          "after": " "
        },
        {
          "index": 7,
          "word": "Hände",
          "originalText": "Hände",
          "characterOffsetBegin": 31,
          "characterOffsetEnd": 36,
          "pos": "NN",
          "before": " ",
          "after": ""
        },
        {
          "index": 8,
          "word": ":",
          "originalText": ":",
          "characterOffsetBegin": 36,
          "characterOffsetEnd": 37,
          "pos": "$.",
          "before": "",
          "after": " "
        },
        {
          "index": 9,
          "word": "Pentagon",
          "originalText": "Pentagon",
          "characterOffsetBegin": 38,
          "characterOffsetEnd": 46,
          "pos": "NN",
          "before": " ",
          "after": ""
        }
      ]
    }
  ]
}