{
  "sentences": [
    {
      "index": 0,
      "basicDependencies": [
        {
          "dep": "ROOT",
          "governor": 0,
          "governorGloss": "ROOT",
          "dependent": 3,
          "dependentGloss": "Geben"
        },
        {
          "dep": "case",
          "governor": 3,
          "governorGloss": "Geben",
          "dependent": 1,
          "dependentGloss": "Nach"
        },
        {
          "dep": "det",
          "governor": 3,
          "governorGloss": "Geben",
          "dependent": 2,
          "dependentGloss": "dem"
        },
        {
          "dep": "det",
          "governor": 7,
          "governorGloss": "$",
          "dependent": 4,
          "dependentGloss": "eines"
        },
        {
          "dep": "amod",
          "governor": 7,
          "governorGloss": "$",
          "dependent": 5,
          "dependentGloss": "Obdachlosen"
        },
        {
          "dep": "name",
          "governor": 7,
          "governorGloss": "$",
          "dependent": 6,
          "dependentGloss": "Mannes"
        },
        {
          "dep": "det",
          "governor": 3,
          "governorGloss": "Geben",
          "dependent": 7,
          "dependentGloss": "$"
        },
        {
          "dep": "appos",
          "governor": 7,
          "governorGloss": "$",
          "dependent": 8,
          "dependentGloss": "100"
        },
        {
          "dep": "punct",
          "governor": 3,
          "governorGloss": "Geben",
          "dependent": 9,
          "dependentGloss": ","
        },
        {
          "dep": "det",
          "governor": 11,
          "governorGloss": "Kerl",
          "dependent": 10,
          "dependentGloss": "dieser"
        },
        {
          "dep": "conj",
          "governor": 3,
          "governorGloss": "Geben",
          "dependent": 11,
          "dependentGloss": "Kerl"
        },
        {
          "dep": "advmod",
          "governor": 11,
          "governorGloss": "Kerl",
          "dependent": 12,
          "dependentGloss": "heimlich"
        },
        {
          "dep": "punct",
          "governor": 3,
          "governorGloss": "Geben",
          "dependent": 13,
          "dependentGloss": "..."
        }
      ],
      "enhancedDependencies": [
        {
          "dep": "ROOT",
          "governor": 0,
          "governorGloss": "ROOT",
          "dependent": 3,
          "dependentGloss": "Geben"
        },
        {
          "dep": "case",
          "governor": 3,
          "governorGloss": "Geben",
          "dependent": 1,
          "dependentGloss": "Nach"
        },
        {
          "dep": "det",
          "governor": 3,
          "governorGloss": "Geben",
          "dependent": 2,
          "dependentGloss": "dem"
        },
        {
          "dep": "det",
          "governor": 7,
          "governorGloss": "$",
          "dependent": 4,
          "dependentGloss": "eines"
        },
        {
          "dep": "amod",
          "governor": 7,
          "governorGloss": "$",
          "dependent": 5,
          "dependentGloss": "Obdachlosen"
        },
        {
          "dep": "name",
          "governor": 7,
          "governorGloss": "$",
          "dependent": 6,
          "dependentGloss": "Mannes"
        },
        {
          "dep": "det",
          "governor": 3,
          "governorGloss": "Geben",
          "dependent": 7,
          "dependentGloss": "$"
        },
        {
          "dep": "appos",
          "governor": 7,
          "governorGloss": "$",
          "dependent": 8,
          "dependentGloss": "100"
        },
        {
          "dep": "punct",
          "governor": 3,
          "governorGloss": "Geben",
          "dependent": 9,
          "dependentGloss": ","
        },
        {
          "dep": "det",
          "governor": 11,
          "governorGloss": "Kerl",
          "dependent": 10,
          "dependentGloss": "dieser"
        },
        {
          "dep": "conj",
          "governor": 3,
          "governorGloss": "Geben",
          "dependent": 11,
          "dependentGloss": "Kerl"
        },
        {
          "dep": "advmod",
          "governor": 11,
          "governorGloss": "Kerl",
          "dependent": 12,
          "dependentGloss": "heimlich"
        },
        {
          "dep": "punct",
          "governor": 3,
          "governorGloss": "Geben",
          "dependent": 13,
          "dependentGloss": "..."
        }
      ],
      "enhancedPlusPlusDependencies": [
        {
          "dep": "ROOT",
          "governor": 0,
          "governorGloss": "ROOT",
          "dependent": 3,
          "dependentGloss": "Geben"
        },
        {
          "dep": "case",
          "governor": 3,
          "governorGloss": "Geben",
          "dependent": 1,
          "dependentGloss": "Nach"
        },
        {
          "dep": "det",
          "governor": 3,
          "governorGloss": "Geben",
          "dependent": 2,
          "dependentGloss": "dem"
        },
        {
          "dep": "det",
          "governor": 7,
          "governorGloss": "$",
          "dependent": 4,
          "dependentGloss": "eines"
        },
        {
          "dep": "amod",
          "governor": 7,
          "governorGloss": "$",
          "dependent": 5,
          "dependentGloss": "Obdachlosen"
        },
        {
          "dep": "name",
          "governor": 7,
          "governorGloss": "$",
          "dependent": 6,
          "dependentGloss": "Mannes"
        },
        {
          "dep": "det",
          "governor": 3,
          "governorGloss": "Geben",
          "dependent": 7,
          "dependentGloss": "$"
        },
        {
          "dep": "appos",
          "governor": 7,
          "governorGloss": "$",
          "dependent": 8,
          "dependentGloss": "100"
        },
        {
          "dep": "punct",
          "governor": 3,
          "governorGloss": "Geben",
          "dependent": 9,
          "dependentGloss": ","
        },
        {
          "dep": "det",
          "governor": 11,
          "governorGloss": "Kerl",
          "dependent": 10,
          "dependentGloss": "dieser"
        },
        {
          "dep": "conj",
          "governor": 3,
          "governorGloss": "Geben",
          "dependent": 11,
          "dependentGloss": "Kerl"
        },
        {
          "dep": "advmod",
          "governor": 11,
          "governorGloss": "Kerl",
          "dependent": 12,
          "dependentGloss": "heimlich"
        },
        {
          "dep": "punct",
          "governor": 3,
          "governorGloss": "Geben",
          "dependent": 13,
          "dependentGloss": "..."
        }
      ],
      "tokens": [
        {
          "index": 1,
          "word": "Nach",
          "originalText": "Nach",
          "characterOffsetBegin": 0,
          "characterOffsetEnd": 4,
          "pos": "APPR",
          "before": "",
          "after": " "
        },
        {
          "index": 2,
          "word": "dem",
          "originalText": "dem",
          "characterOffsetBegin": 5,
          "characterOffsetEnd": 8,
          "pos": "ART",
          "before": " ",
          "after": " "
        },
        {
          "index": 3,
          "word": "Geben",
          "originalText": "Geben",
          "characterOffsetBegin": 9,
          "characterOffsetEnd": 14,
          "pos": "NN",
          "before": " ",
          "after": " "
        },
        {
          "index": 4,
          "word": "eines",
          "originalText": "eines",
          "characterOffsetBegin": 15,
          "characterOffsetEnd": 20,
          "pos": "ART",
          "before": " ",
          "after": " "
        },
        {
          "index": 5,
          "word": "Obdachlosen",
          "originalText": "Obdachlosen",
          "characterOffsetBegin": 21,
          "characterOffsetEnd": 32,
          "pos": "NN",
          "before": " ",
          "after": " "
        },
        {
          "index": 6,
          "word": "Mannes",
          "originalText": "Mannes",
          "characterOffsetBegin": 33,
          "characterOffsetEnd": 39,
          "pos": "NN",
          "before": " ",
          "after": " "
        },
        {
          "index": 7,
          "word": "$",
          "originalText": "$",
          "characterOffsetBegin": 40,
          "characterOffsetEnd": 41,
          "pos": "CARD",
          "before": " ",
          "after": " "
        },
        {
          "index": 8,
          "word": "100",
          "originalText": "100",
          "characterOffsetBegin": 42,
          "characterOffsetEnd": 45,
          "pos": "CARD",
          "before": " ",
          "after": ""
        },
        {
          "index": 9,
          "word": ",",
          "originalText": ",",
          "characterOffsetBegin": 45,
          "characterOffsetEnd": 46,
          "pos": "$,",
          "before": "",
          "after": " "
        },
        {
          "index": 10,
          "word": "dieser",
          "originalText": "dieser",
          "characterOffsetBegin": 47,
          "characterOffsetEnd": 53,
          "pos": "PDAT",
          "before": " ",
          "after": " "
        },
        {
          "index": 11,
          "word": "Kerl",
          "originalText": "Kerl",
          "characterOffsetBegin": 54,
          "characterOffsetEnd": 58,
          "pos": "NN",
          "before": " ",
          "after": " "
        },
        {
          "index": 12,
          "word": "heimlich",
          "originalText": "heimlich",
          "characterOffsetBegin": 59,
          "characterOffsetEnd": 67,
          "pos": "ADJD",
          "before": " ",
          "after": " "
        },
        {
          "index": 13,
          "word": "...",
          "originalText": "...",
          "characterOffsetBegin": 68,
          "characterOffsetEnd": 71,
          "pos": "$[",
          "before": " ",
          "after": ""
        }
      ]
    }
  ]
}