{
  "sentences": [
    {
      "index": 0,
      "basicDependencies": [
        {
          "dep": "ROOT",
          "governor": 0,
          "governorGloss": "ROOT",
          "dependent": 1,
          "dependentGloss": "BREAKING"
        },
        {
          "dep": "punct",
          "governor": 1,
          "governorGloss": "BREAKING",
          "dependent": 2,
          "dependentGloss": ":"
        },
        {
          "dep": "amod",
          "governor": 5,
          "governorGloss": "Geisel",
          "dependent": 3,
          "dependentGloss": "Britisch"
        },
        {
          "dep": "amod",
          "governor": 5,
          "governorGloss": "Geisel",
          "dependent": 4,
          "dependentGloss": "geborene"
        },
        {
          "dep": "dobj",
          "governor": 7,
          "governorGloss": "getötet",
          "dependent": 5,
          "dependentGloss": "Geisel"
        },
        {
          "dep": "punct",
          "governor": 7,
          "governorGloss": "getötet",
          "dependent": 6,
          "dependentGloss": "``"
        },
        {
          "dep": "parataxis",
          "governor": 1,
          "governorGloss": "BREAKING",
          "dependent": 7,
          "dependentGloss": "getötet"
        },
        {
          "dep": "case",
          "governor": 10,
          "governorGloss": "Rettungsversuch",
          "dependent": 8,
          "dependentGloss": "in"
        },
        {
          "dep": "amod",
          "governor": 10,
          "governorGloss": "Rettungsversuch",
          "dependent": 9,
          "dependentGloss": "gescheiterten"
        },
        {
          "dep": "nmod",
          "governor": 7,
          "governorGloss": "getötet",
          "dependent": 10,
          "dependentGloss": "Rettungsversuch"
        },
        {
          "dep": "punct",
          "governor": 7,
          "governorGloss": "getötet",
          "dependent": 11,
          "dependentGloss": "``"
        }
      ],
      "enhancedDependencies": [
        {
          "dep": "ROOT",
          "governor": 0,
          "governorGloss": "ROOT",
          "dependent": 1,
          "dependentGloss": "BREAKING"
        },
        {
          "dep": "punct",
          "governor": 1,
          "governorGloss": "BREAKING",
          "dependent": 2,
          "dependentGloss": ":"
        },
        {
          "dep": "amod",
          "governor": 5,
          "governorGloss": "Geisel",
          "dependent": 3,
          "dependentGloss": "Britisch"
        },
        {
          "dep": "amod",
          "governor": 5,
          "governorGloss": "Geisel",
          "dependent": 4,
          "dependentGloss": "geborene"
        },
        {
          "dep": "dobj",
          "governor": 7,
          "governorGloss": "getötet",
          "dependent": 5,
          "dependentGloss": "Geisel"
        },
        {
          "dep": "punct",
          "governor": 7,
          "governorGloss": "getötet",
          "dependent": 6,
          "dependentGloss": "``"
        },
        {
          "dep": "parataxis",
          "governor": 1,
          "governorGloss": "BREAKING",
          "dependent": 7,
          "dependentGloss": "getötet"
        },
        {
          "dep": "case",
          "governor": 10,
          "governorGloss": "Rettungsversuch",
          "dependent": 8,
          "dependentGloss": "in"
        },
        {
          "dep": "amod",
          "governor": 10,
          "governorGloss": "Rettungsversuch",
          "dependent": 9,
          "dependentGloss": "gescheiterten"
        },
        {
          "dep": "nmod",
          "governor": 7,
          "governorGloss": "getötet",
          "dependent": 10,
          "dependentGloss": "Rettungsversuch"
        },
        {
          "dep": "punct",
          "governor": 7,
          "governorGloss": "getötet",
          "dependent": 11,
          "dependentGloss": "``"
        }
      ],
      "enhancedPlusPlusDependencies": [
        {
          "dep": "ROOT",
          "governor": 0,
          "governorGloss": "ROOT",
          "dependent": 1,
          "dependentGloss": "BREAKING"
        },
        {
          "dep": "punct",
          "governor": 1,
          "governorGloss": "BREAKING",
          "dependent": 2,
          "dependentGloss": ":"
        },
        {
          "dep": "amod",
          "governor": 5,
          "governorGloss": "Geisel",
          "dependent": 3,
          "dependentGloss": "Britisch"
        },
        {
          "dep": "amod",
          "governor": 5,
          "governorGloss": "Geisel",
          "dependent": 4,
          "dependentGloss": "geborene"
        },
        {
          "dep": "dobj",
          "governor": 7,
          "governorGloss": "getötet",
          "dependent": 5,
          "dependentGloss": "Geisel"
        },
        {
          "dep": "punct",
          "governor": 7,
          "governorGloss": "getötet",
          "dependent": 6,
          "dependentGloss": "``"
        },
        {
          "dep": "parataxis",
          "governor": 1,
          "governorGloss": "BREAKING",
          "dependent": 7,
          "dependentGloss": "getötet"
        },
        {
          "dep": "case",
          "governor": 10,
          "governorGloss": "Rettungsversuch",
          "dependent": 8,
          "dependentGloss": "in"
        },
        {
          "dep": "amod",
          "governor": 10,
          "governorGloss": "Rettungsversuch",
          "dependent": 9,
          "dependentGloss": "gescheiterten"
        },
        {
          "dep": "nmod",
          "governor": 7,
          "governorGloss": "getötet",
          "dependent": 10,
          "dependentGloss": "Rettungsversuch"
        },
        {
          "dep": "punct",
          "governor": 7,
          "governorGloss": "getötet",
          "dependent": 11,
          "dependentGloss": "``"
        }
      ],
      "tokens": [
        {
          "index": 1,
          "word": "BREAKING",
          "originalText": "BREAKING",
          "characterOffsetBegin": 0,
          "characterOffsetEnd": 8,
          "pos": "NE",
          "before": "",
          "after": ""
        },
        {
          "index": 2,
          "word": ":",
          "originalText": ":",
          "characterOffsetBegin": 8,
          "characterOffsetEnd": 9,
          "pos": "$.",
          "before": "",
          "after": " "
        },
        {
          "index": 3,
          "word": "Britisch",
          "originalText": "Britisch",
          "characterOffsetBegin": 10,
          "characterOffsetEnd": 18,
          "pos": "ADJD",
          "before": " ",
          "after": " "
        },
        {
          "index": 4,
          "word": "geborene",
          "originalText": "geborene",
          "characterOffsetBegin": 19,
          "characterOffsetEnd": 27,
          "pos": "ADJA",
          "before": " ",
          "after": " "
        },
        {
          "index": 5,
          "word": "Geisel",
          "originalText": "Geisel",
          "characterOffsetBegin": 28,
          "characterOffsetEnd": 34,
          "pos": "NN",
          "before": " ",
          "after": " "
        },
        {
          "index": 6,
          "word": "``",
          "originalText": "“",
          "characterOffsetBegin": 35,
          "characterOffsetEnd": 36,
          "pos": "CARD",
          "before": " ",
          "after": ""
        },
        {
          "index": 7,
          "word": "getötet",
          "originalText": "getötet",
          "characterOffsetBegin": 36,
          "characterOffsetEnd": 43,
          "pos": "VVPP",
          "before": "",
          "after": " "
        },
        {
          "index": 8,
          "word": "in",
          "originalText": "in",
          "characterOffsetBegin": 44,
          "characterOffsetEnd": 46,
          "pos": "APPR",
          "before": " ",
          "after": " "
        },
        {
          "index": 9,
          "word": "gescheiterten",
          "originalText": "gescheiterten",
          "characterOffsetBegin": 47,
          "characterOffsetEnd": 60,
          "pos": "ADJA",
          "before": " ",
          "after": " "
        },
        {
          "index": 10,
          "word": "Rettungsversuch",
          "originalText": "Rettungsversuch",
          "characterOffsetBegin": 61,
          "characterOffsetEnd": 76,
          "pos": "NN",
          "before": " ",
          "after": ""
        },
        {
          "index": 11,
          "word": "``",
          "originalText": "“",
          "characterOffsetBegin": 76,
          "characterOffsetEnd": 77,
          "pos": "CARD",
          "before": "",
          "after": ""
        }
      ]
    }
  ]
}