{
  "sentences": [
    {
      "index": 0,
      "basicDependencies": [
        {
          "dep": "ROOT",
          "governor": 0,
          "governorGloss": "ROOT",
          "dependent": 4,
          "dependentGloss": "gefunden"
        },
        {
          "dep": "nsubj",
          "governor": 4,
          "governorGloss": "gefunden",
          "dependent": 1,
          "dependentGloss": "Gründungsväter-Zeit-Kapsel"
        },
        {
          "dep": "case",
          "governor": 3,
          "governorGloss": "Boston",
          "dependent": 2,
          "dependentGloss": "in"
        },
        {
          "dep": "nmod",
          "governor": 1,
          "governorGloss": "Gründungsväter-Zeit-Kapsel",
          "dependent": 3,
          "dependentGloss": "Boston"
        }
      ],
      "enhancedDependencies": [
        {
          "dep": "ROOT",
          "governor": 0,
          "governorGloss": "ROOT",
          "dependent": 4,
          "dependentGloss": "gefunden"
        },
        {
          "dep": "nsubj",
          "governor": 4,
          "governorGloss": "gefunden",
          "dependent": 1,
          "dependentGloss": "Gründungsväter-Zeit-Kapsel"
        },
        {
          "dep": "case",
          "governor": 3,
          "governorGloss": "Boston",
          "dependent": 2,
          "dependentGloss": "in"
        },
        {
          "dep": "nmod",
          "governor": 1,
          "governorGloss": "Gründungsväter-Zeit-Kapsel",
          "dependent": 3,
          "dependentGloss": "Boston"
        }
      ],
      "enhancedPlusPlusDependencies": [
        {
          "dep": "ROOT",
          "governor": 0,
          "governorGloss": "ROOT",
          "dependent": 4,
          "dependentGloss": "gefunden"
        },
        {
          "dep": "nsubj",
          "governor": 4,
          "governorGloss": "gefunden",
          "dependent": 1,
          "dependentGloss": "Gründungsväter-Zeit-Kapsel"
        },
        {
          "dep": "case",
          "governor": 3,
          "governorGloss": "Boston",
          "dependent": 2,
          "dependentGloss": "in"
        },
        {
          "dep": "nmod",
          "governor": 1,
          "governorGloss": "Gründungsväter-Zeit-Kapsel",
          "dependent": 3,
          "dependentGloss": "Boston"
        }
      ],
      "tokens": [
        {
          "index": 1,
          "word": "Gründungsväter-Zeit-Kapsel",
          "originalText": "Gründungsväter-Zeit-Kapsel",
          "characterOffsetBegin": 0,
          "characterOffsetEnd": 26,
          "pos": "NN",
          "before": "",
          "after": " "
        },
        {
          "index": 2,
          "word": "in",
          "originalText": "in",
          "characterOffsetBegin": 27,
          "characterOffsetEnd": 29,
          "pos": "APPR",
          "before": " ",
          "after": " "
        },
        {
          "index": 3,
          "word": "Boston",
          "originalText": "Boston",
          "characterOffsetBegin": 30,
          "characterOffsetEnd": 36,
          "pos": "NE",
          "before": " ",
          "after": " "
        },
        {
          "index": 4,
          "word": "gefunden",
          "originalText": "gefunden",
          "characterOffsetBegin": 37,
          "characterOffsetEnd": 45,
          "pos": "VVPP",
          "before": " ",
          "after": ""
        }
      ]
    }
  ]
}