{
  "sentences": [
    {
      "index": 0,
      "basicDependencies": [
        {
          "dep": "ROOT",
          "governor": 0,
          "governorGloss": "ROOT",
          "dependent": 8,
          "dependentGloss": "gesagt"
        },
        {
          "dep": "nsubj",
          "governor": 8,
          "governorGloss": "gesagt",
          "dependent": 1,
          "dependentGloss": "Wir"
        },
        {
          "dep": "aux",
          "governor": 8,
          "governorGloss": "gesagt",
          "dependent": 2,
          "dependentGloss": "haben"
        },
        {
          "dep": "det",
          "governor": 4,
          "governorGloss": "Blick",
          "dependent": 3,
          "dependentGloss": "einen"
        },
        {
          "dep": "dobj",
          "governor": 8,
          "governorGloss": "gesagt",
          "dependent": 4,
          "dependentGloss": "Blick"
        },
        {
          "dep": "case",
          "governor": 7,
          "governorGloss": "Foto",
          "dependent": 5,
          "dependentGloss": "auf"
        },
        {
          "dep": "det",
          "governor": 7,
          "governorGloss": "Foto",
          "dependent": 6,
          "dependentGloss": "das"
        },
        {
          "dep": "nmod",
          "governor": 8,
          "governorGloss": "gesagt",
          "dependent": 7,
          "dependentGloss": "Foto"
        },
        {
          "dep": "punct",
          "governor": 8,
          "governorGloss": "gesagt",
          "dependent": 9,
          "dependentGloss": ","
        },
        {
          "dep": "mark",
          "governor": 23,
          "governorGloss": "zeigen",
          "dependent": 10,
          "dependentGloss": "um"
        },
        {
          "dep": "det",
          "governor": 12,
          "governorGloss": "Körper",
          "dependent": 11,
          "dependentGloss": "den"
        },
        {
          "dep": "dobj",
          "governor": 23,
          "governorGloss": "zeigen",
          "dependent": 12,
          "dependentGloss": "Körper"
        },
        {
          "dep": "det",
          "governor": 15,
          "governorGloss": "Staatsführers",
          "dependent": 13,
          "dependentGloss": "des"
        },
        {
          "dep": "amod",
          "governor": 15,
          "governorGloss": "Staatsführers",
          "dependent": 14,
          "dependentGloss": "islamischen"
        },
        {
          "dep": "iobj",
          "governor": 23,
          "governorGloss": "zeigen",
          "dependent": 15,
          "dependentGloss": "Staatsführers"
        },
        {
          "dep": "advmod",
          "governor": 23,
          "governorGloss": "zeigen",
          "dependent": 16,
          "dependentGloss": "Abu"
        },
        {
          "dep": "dobj",
          "governor": 23,
          "governorGloss": "zeigen",
          "dependent": 17,
          "dependentGloss": "Bakr"
        },
        {
          "dep": "nsubj",
          "governor": 23,
          "governorGloss": "zeigen",
          "dependent": 18,
          "dependentGloss": "Al-Baghdadi"
        },
        {
          "dep": "advmod",
          "governor": 23,
          "governorGloss": "zeigen",
          "dependent": 19,
          "dependentGloss": "-LRB-"
        },
        {
          "dep": "advmod",
          "governor": 21,
          "governorGloss": "-RRB-",
          "dependent": 20,
          "dependentGloss": "rechts"
        },
        {
          "dep": "dobj",
          "governor": 23,
          "governorGloss": "zeigen",
          "dependent": 21,
          "dependentGloss": "-RRB-"
        },
        {
          "dep": "aux",
          "governor": 23,
          "governorGloss": "zeigen",
          "dependent": 22,
          "dependentGloss": "zu"
        },
        {
          "dep": "advcl",
          "governor": 8,
          "governorGloss": "gesagt",
          "dependent": 23,
          "dependentGloss": "zeigen"
        },
        {
          "dep": "cc",
          "governor": 23,
          "governorGloss": "zeigen",
          "dependent": 24,
          "dependentGloss": "und"
        },
        {
          "dep": "conj",
          "governor": 23,
          "governorGloss": "zeigen",
          "dependent": 25,
          "dependentGloss": "fand"
        },
        {
          "dep": "punct",
          "governor": 8,
          "governorGloss": "gesagt",
          "dependent": 26,
          "dependentGloss": ","
        },
        {
          "dep": "mark",
          "governor": 33,
          "governorGloss": "Militant",
          "dependent": 27,
          "dependentGloss": "dass"
        },
        {
          "dep": "expl",
          "governor": 33,
          "governorGloss": "Militant",
          "dependent": 28,
          "dependentGloss": "es"
        },
        {
          "dep": "advmod",
          "governor": 33,
          "governorGloss": "Militant",
          "dependent": 29,
          "dependentGloss": "wirklich"
        },
        {
          "dep": "det",
          "governor": 32,
          "governorGloss": "albanischer",
          "dependent": 30,
          "dependentGloss": "ein"
        },
        {
          "dep": "amod",
          "governor": 32,
          "governorGloss": "albanischer",
          "dependent": 31,
          "dependentGloss": "ethnischer"
        },
        {
          "dep": "nsubj",
          "governor": 33,
          "governorGloss": "Militant",
          "dependent": 32,
          "dependentGloss": "albanischer"
        },
        {
          "dep": "ccomp",
          "governor": 8,
          "governorGloss": "gesagt",
          "dependent": 33,
          "dependentGloss": "Militant"
        },
        {
          "dep": "cop",
          "governor": 33,
          "governorGloss": "Militant",
          "dependent": 34,
          "dependentGloss": "war"
        },
        {
          "dep": "punct",
          "governor": 33,
          "governorGloss": "Militant",
          "dependent": 35,
          "dependentGloss": ","
        },
        {
          "dep": "det",
          "governor": 37,
          "governorGloss": "2013",
          "dependent": 36,
          "dependentGloss": "der"
        },
        {
          "dep": "nsubjpass",
          "governor": 38,
          "governorGloss": "getötet",
          "dependent": 37,
          "dependentGloss": "2013"
        },
        {
          "dep": "conj",
          "governor": 33,
          "governorGloss": "Militant",
          "dependent": 38,
          "dependentGloss": "getötet"
        },
        {
          "dep": "auxpass",
          "governor": 38,
          "governorGloss": "getötet",
          "dependent": 39,
          "dependentGloss": "wurde"
        }
      ],
      "enhancedDependencies": [
        {
          "dep": "ROOT",
          "governor": 0,
          "governorGloss": "ROOT",
          "dependent": 8,
          "dependentGloss": "gesagt"
        },
        {
          "dep": "nsubj",
          "governor": 8,
          "governorGloss": "gesagt",
          "dependent": 1,
          "dependentGloss": "Wir"
        },
        {
          "dep": "aux",
          "governor": 8,
          "governorGloss": "gesagt",
          "dependent": 2,
          "dependentGloss": "haben"
        },
        {
          "dep": "det",
          "governor": 4,
          "governorGloss": "Blick",
          "dependent": 3,
          "dependentGloss": "einen"
        },
        {
          "dep": "dobj",
          "governor": 8,
          "governorGloss": "gesagt",
          "dependent": 4,
          "dependentGloss": "Blick"
        },
        {
          "dep": "case",
          "governor": 7,
          "governorGloss": "Foto",
          "dependent": 5,
          "dependentGloss": "auf"
        },
        {
          "dep": "det",
          "governor": 7,
          "governorGloss": "Foto",
          "dependent": 6,
          "dependentGloss": "das"
        },
        {
          "dep": "nmod",
          "governor": 8,
          "governorGloss": "gesagt",
          "dependent": 7,
          "dependentGloss": "Foto"
        },
        {
          "dep": "punct",
          "governor": 8,
          "governorGloss": "gesagt",
          "dependent": 9,
          "dependentGloss": ","
        },
        {
          "dep": "mark",
          "governor": 23,
          "governorGloss": "zeigen",
          "dependent": 10,
          "dependentGloss": "um"
        },
        {
          "dep": "det",
          "governor": 12,
          "governorGloss": "Körper",
          "dependent": 11,
          "dependentGloss": "den"
        },
        {
          "dep": "dobj",
          "governor": 23,
          "governorGloss": "zeigen",
          "dependent": 12,
          "dependentGloss": "Körper"
        },
        {
          "dep": "det",
          "governor": 15,
          "governorGloss": "Staatsführers",
          "dependent": 13,
          "dependentGloss": "des"
        },
        {
          "dep": "amod",
          "governor": 15,
          "governorGloss": "Staatsführers",
          "dependent": 14,
          "dependentGloss": "islamischen"
        },
        {
          "dep": "iobj",
          "governor": 23,
          "governorGloss": "zeigen",
          "dependent": 15,
          "dependentGloss": "Staatsführers"
        },
        {
          "dep": "advmod",
          "governor": 23,
          "governorGloss": "zeigen",
          "dependent": 16,
          "dependentGloss": "Abu"
        },
        {
          "dep": "dobj",
          "governor": 23,
          "governorGloss": "zeigen",
          "dependent": 17,
          "dependentGloss": "Bakr"
        },
        {
          "dep": "nsubj",
          "governor": 23,
          "governorGloss": "zeigen",
          "dependent": 18,
          "dependentGloss": "Al-Baghdadi"
        },
        {
          "dep": "advmod",
          "governor": 23,
          "governorGloss": "zeigen",
          "dependent": 19,
          "dependentGloss": "-LRB-"
        },
        {
          "dep": "advmod",
          "governor": 21,
          "governorGloss": "-RRB-",
          "dependent": 20,
          "dependentGloss": "rechts"
        },
        {
          "dep": "dobj",
          "governor": 23,
          "governorGloss": "zeigen",
          "dependent": 21,
          "dependentGloss": "-RRB-"
        },
        {
          "dep": "aux",
          "governor": 23,
          "governorGloss": "zeigen",
          "dependent": 22,
          "dependentGloss": "zu"
        },
        {
          "dep": "advcl",
          "governor": 8,
          "governorGloss": "gesagt",
          "dependent": 23,
          "dependentGloss": "zeigen"
        },
        {
          "dep": "cc",
          "governor": 23,
          "governorGloss": "zeigen",
          "dependent": 24,
          "dependentGloss": "und"
        },
        {
          "dep": "advcl",
          "governor": 8,
          "governorGloss": "gesagt",
          "dependent": 25,
          "dependentGloss": "fand"
        },
        {
          "dep": "conj:und",
          "governor": 23,
          "governorGloss": "zeigen",
          "dependent": 25,
          "dependentGloss": "fand"
        },
        {
          "dep": "punct",
          "governor": 8,
          "governorGloss": "gesagt",
          "dependent": 26,
          "dependentGloss": ","
        },
        {
          "dep": "mark",
          "governor": 33,
          "governorGloss": "Militant",
          "dependent": 27,
          "dependentGloss": "dass"
        },
        {
          "dep": "expl",
          "governor": 33,
          "governorGloss": "Militant",
          "dependent": 28,
          "dependentGloss": "es"
        },
        {
          "dep": "advmod",
          "governor": 33,
          "governorGloss": "Militant",
          "dependent": 29,
          "dependentGloss": "wirklich"
        },
        {
          "dep": "det",
          "governor": 32,
          "governorGloss": "albanischer",
          "dependent": 30,
          "dependentGloss": "ein"
        },
        {
          "dep": "amod",
          "governor": 32,
          "governorGloss": "albanischer",
          "dependent": 31,
          "dependentGloss": "ethnischer"
        },
        {
          "dep": "nsubj",
          "governor": 33,
          "governorGloss": "Militant",
          "dependent": 32,
          "dependentGloss": "albanischer"
        },
        {
          "dep": "ccomp",
          "governor": 8,
          "governorGloss": "gesagt",
          "dependent": 33,
          "dependentGloss": "Militant"
        },
        {
          "dep": "cop",
          "governor": 33,
          "governorGloss": "Militant",
          "dependent": 34,
          "dependentGloss": "war"
        },
        {
          "dep": "punct",
          "governor": 33,
          "governorGloss": "Militant",
          "dependent": 35,
          "dependentGloss": ","
        },
        {
          "dep": "det",
          "governor": 37,
          "governorGloss": "2013",
          "dependent": 36,
          "dependentGloss": "der"
        },
        {
          "dep": "nsubjpass",
          "governor": 38,
          "governorGloss": "getötet",
          "dependent": 37,
          "dependentGloss": "2013"
        },
        {
          "dep": "conj",
          "governor": 33,
          "governorGloss": "Militant",
          "dependent": 38,
          "dependentGloss": "getötet"
        },
        {
          "dep": "auxpass",
          "governor": 38,
          "governorGloss": "getötet",
          "dependent": 39,
          "dependentGloss": "wurde"
        }
      ],
      "enhancedPlusPlusDependencies": [
        {
          "dep": "ROOT",
          "governor": 0,
          "governorGloss": "ROOT",
          "dependent": 8,
          "dependentGloss": "gesagt"
        },
        {
          "dep": "nsubj",
          "governor": 8,
          "governorGloss": "gesagt",
          "dependent": 1,
          "dependentGloss": "Wir"
        },
        {
          "dep": "aux",
          "governor": 8,
          "governorGloss": "gesagt",
          "dependent": 2,
          "dependentGloss": "haben"
        },
        {
          "dep": "det",
          "governor": 4,
          "governorGloss": "Blick",
          "dependent": 3,
          "dependentGloss": "einen"
        },
        {
          "dep": "dobj",
          "governor": 8,
          "governorGloss": "gesagt",
          "dependent": 4,
          "dependentGloss": "Blick"
        },
        {
          "dep": "case",
          "governor": 7,
          "governorGloss": "Foto",
          "dependent": 5,
          "dependentGloss": "auf"
        },
        {
          "dep": "det",
          "governor": 7,
          "governorGloss": "Foto",
          "dependent": 6,
          "dependentGloss": "das"
        },
        {
          "dep": "nmod",
          "governor": 8,
          "governorGloss": "gesagt",
          "dependent": 7,
          "dependentGloss": "Foto"
        },
        {
          "dep": "punct",
          "governor": 8,
          "governorGloss": "gesagt",
          "dependent": 9,
          "dependentGloss": ","
        },
        {
          "dep": "mark",
          "governor": 23,
          "governorGloss": "zeigen",
          "dependent": 10,
          "dependentGloss": "um"
        },
        {
          "dep": "det",
          "governor": 12,
          "governorGloss": "Körper",
          "dependent": 11,
          "dependentGloss": "den"
        },
        {
          "dep": "dobj",
          "governor": 23,
          "governorGloss": "zeigen",
          "dependent": 12,
          "dependentGloss": "Körper"
        },
        {
          "dep": "det",
          "governor": 15,
          "governorGloss": "Staatsführers",
          "dependent": 13,
          "dependentGloss": "des"
        },
        {
          "dep": "amod",
          "governor": 15,
          "governorGloss": "Staatsführers",
          "dependent": 14,
          "dependentGloss": "islamischen"
        },
        {
          "dep": "iobj",
          "governor": 23,
          "governorGloss": "zeigen",
          "dependent": 15,
          "dependentGloss": "Staatsführers"
        },
        {
          "dep": "advmod",
          "governor": 23,
          "governorGloss": "zeigen",
          "dependent": 16,
          "dependentGloss": "Abu"
        },
        {
          "dep": "dobj",
          "governor": 23,
          "governorGloss": "zeigen",
          "dependent": 17,
          "dependentGloss": "Bakr"
        },
        {
          "dep": "nsubj",
          "governor": 23,
          "governorGloss": "zeigen",
          "dependent": 18,
          "dependentGloss": "Al-Baghdadi"
        },
        {
          "dep": "advmod",
          "governor": 23,
          "governorGloss": "zeigen",
          "dependent": 19,
          "dependentGloss": "-LRB-"
        },
        {
          "dep": "advmod",
          "governor": 21,
          "governorGloss": "-RRB-",
          "dependent": 20,
          "dependentGloss": "rechts"
        },
        {
          "dep": "dobj",
          "governor": 23,
          "governorGloss": "zeigen",
          "dependent": 21,
          "dependentGloss": "-RRB-"
        },
        {
          "dep": "aux",
          "governor": 23,
          "governorGloss": "zeigen",
          "dependent": 22,
          "dependentGloss": "zu"
        },
        {
          "dep": "advcl",
          "governor": 8,
          "governorGloss": "gesagt",
          "dependent": 23,
          "dependentGloss": "zeigen"
        },
        {
          "dep": "cc",
          "governor": 23,
          "governorGloss": "zeigen",
          "dependent": 24,
          "dependentGloss": "und"
        },
        {
          "dep": "advcl",
          "governor": 8,
          "governorGloss": "gesagt",
          "dependent": 25,
          "dependentGloss": "fand"
        },
        {
          "dep": "conj:und",
          "governor": 23,
          "governorGloss": "zeigen",
          "dependent": 25,
          "dependentGloss": "fand"
        },
        {
          "dep": "punct",
          "governor": 8,
          "governorGloss": "gesagt",
          "dependent": 26,
          "dependentGloss": ","
        },
        {
          "dep": "mark",
          "governor": 33,
          "governorGloss": "Militant",
          "dependent": 27,
          "dependentGloss": "dass"
        },
        {
          "dep": "expl",
          "governor": 33,
          "governorGloss": "Militant",
          "dependent": 28,
          "dependentGloss": "es"
        },
        {
          "dep": "advmod",
          "governor": 33,
          "governorGloss": "Militant",
          "dependent": 29,
          "dependentGloss": "wirklich"
        },
        {
          "dep": "det",
          "governor": 32,
          "governorGloss": "albanischer",
          "dependent": 30,
          "dependentGloss": "ein"
        },
        {
          "dep": "amod",
          "governor": 32,
          "governorGloss": "albanischer",
          "dependent": 31,
          "dependentGloss": "ethnischer"
        },
        {
          "dep": "nsubj",
          "governor": 33,
          "governorGloss": "Militant",
          "dependent": 32,
          "dependentGloss": "albanischer"
        },
        {
          "dep": "ccomp",
          "governor": 8,
          "governorGloss": "gesagt",
          "dependent": 33,
          "dependentGloss": "Militant"
        },
        {
          "dep": "cop",
          "governor": 33,
          "governorGloss": "Militant",
          "dependent": 34,
          "dependentGloss": "war"
        },
        {
          "dep": "punct",
          "governor": 33,
          "governorGloss": "Militant",
          "dependent": 35,
          "dependentGloss": ","
        },
        {
          "dep": "det",
          "governor": 37,
          "governorGloss": "2013",
          "dependent": 36,
          "dependentGloss": "der"
        },
        {
          "dep": "nsubjpass",
          "governor": 38,
          "governorGloss": "getötet",
          "dependent": 37,
          "dependentGloss": "2013"
        },
        {
          "dep": "conj",
          "governor": 33,
          "governorGloss": "Militant",
          "dependent": 38,
          "dependentGloss": "getötet"
        },
        {
          "dep": "auxpass",
          "governor": 38,
          "governorGloss": "getötet",
          "dependent": 39,
          "dependentGloss": "wurde"
        }
      ],
      "tokens": [
        {
          "index": 1,
          "word": "Wir",
          "originalText": "Wir",
          "characterOffsetBegin": 0,
          "characterOffsetEnd": 3,
          "pos": "PPER",
          "before": "",
          "after": " "
        },
        {
          "index": 2,
          "word": "haben",
          "originalText": "haben",
          "characterOffsetBegin": 4,
          "characterOffsetEnd": 9,
          "pos": "VAFIN",
          "before": " ",
          "after": " "
        },
        {
          "index": 3,
          "word": "einen",
          "originalText": "einen",
          "characterOffsetBegin": 10,
          "characterOffsetEnd": 15,
          "pos": "ART",
          "before": " ",
          "after": " "
        },
        {
          "index": 4,
          "word": "Blick",
          "originalText": "Blick",
          "characterOffsetBegin": 16,
          "characterOffsetEnd": 21,
          "pos": "NN",
          "before": " ",
          "after": " "
        },
        {
          "index": 5,
          "word": "auf",
          "originalText": "auf",
          "characterOffsetBegin": 22,
          "characterOffsetEnd": 25,
          "pos": "APPR",
          "before": " ",
          "after": " "
        },
        {
          "index": 6,
          "word": "das",
          "originalText": "das",
          "characterOffsetBegin": 26,
          "characterOffsetEnd": 29,
          "pos": "ART",
          "before": " ",
          "after": " "
        },
        {
          "index": 7,
          "word": "Foto",
          "originalText": "Foto",
          "characterOffsetBegin": 30,
          "characterOffsetEnd": 34,
          "pos": "NN",
          "before": " ",
          "after": " "
        },
        {
          "index": 8,
          "word": "gesagt",
          "originalText": "gesagt",
          "characterOffsetBegin": 35,
          "characterOffsetEnd": 41,
          "pos": "VVPP",
          "before": " ",
          "after": ""
        },
        {
          "index": 9,
          "word": ",",
          "originalText": ",",
          "characterOffsetBegin": 41,
          "characterOffsetEnd": 42,
          "pos": "$,",
          "before": "",
          "after": " "
        },
        {
          "index": 10,
          "word": "um",
          "originalText": "um",
          "characterOffsetBegin": 43,
          "characterOffsetEnd": 45,
          "pos": "KOUI",
          "before": " ",
          "after": " "
        },
        {
          "index": 11,
          "word": "den",
          "originalText": "den",
          "characterOffsetBegin": 46,
          "characterOffsetEnd": 49,
          "pos": "ART",
          "before": " ",
          "after": " "
        },
        {
          "index": 12,
          "word": "Körper",
          "originalText": "Körper",
          "characterOffsetBegin": 50,
          "characterOffsetEnd": 56,
          "pos": "NN",
          "before": " ",
          "after": " "
        },
        {
          "index": 13,
          "word": "des",
          "originalText": "des",
          "characterOffsetBegin": 57,
          "characterOffsetEnd": 60,
          "pos": "ART",
          "before": " ",
          "after": " "
        },
        {
          "index": 14,
          "word": "islamischen",
          "originalText": "islamischen",
          "characterOffsetBegin": 61,
          "characterOffsetEnd": 72,
          "pos": "ADJA",
          "before": " ",
          "after": " "
        },
        {
          "index": 15,
          "word": "Staatsführers",
          "originalText": "Staatsführers",
          "characterOffsetBegin": 73,
          "characterOffsetEnd": 86,
          "pos": "NN",
          "before": " ",
          "after": " "
        },
        {
          "index": 16,
          "word": "Abu",
          "originalText": "Abu",
          "characterOffsetBegin": 87,
          "characterOffsetEnd": 90,
          "pos": "NE",
          "before": " ",
          "after": " "
        },
        {
          "index": 17,
          "word": "Bakr",
          "originalText": "Bakr",
          "characterOffsetBegin": 91,
          "characterOffsetEnd": 95,
          "pos": "NE",
          "before": " ",
          "after": " "
        },
        {
          "index": 18,
          "word": "Al-Baghdadi",
          "originalText": "Al-Baghdadi",
          "characterOffsetBegin": 96,
          "characterOffsetEnd": 107,
          "pos": "NE",
          "before": " ",
          "after": " "
        },
        {
          "index": 19,
          "word": "-LRB-",
          "originalText": "(",
          "characterOffsetBegin": 108,
          "characterOffsetEnd": 109,
          "pos": "TRUNC",
          "before": " ",
          "after": ""
        },
        {
          "index": 20,
          "word": "rechts",
          "originalText": "rechts",
          "characterOffsetBegin": 109,
          "characterOffsetEnd": 115,
          "pos": "ADV",
          "before": "",
          "after": ""
        },
        {
          "index": 21,
          "word": "-RRB-",
          "originalText": ")",
          "characterOffsetBegin": 115,
          "characterOffsetEnd": 116,
          "pos": "TRUNC",
          "before": "",
          "after": " "
        },
        {
          "index": 22,
          "word": "zu",
          "originalText": "zu",
          "characterOffsetBegin": 117,
          "characterOffsetEnd": 119,
          "pos": "PTKZU",
          "before": " ",
          "after": " "
        },
        {
          "index": 23,
          "word": "zeigen",
          "originalText": "zeigen",
          "characterOffsetBegin": 120,
          "characterOffsetEnd": 126,
          "pos": "VVINF",
          "before": " ",
          "after": " "
        },
        {
          "index": 24,
          "word": "und",
          "originalText": "und",
          "characterOffsetBegin": 127,
          "characterOffsetEnd": 130,
          "pos": "KON",
          "before": " ",
          "after": " "
        },
        {
          "index": 25,
          "word": "fand",
          "originalText": "fand",
          "characterOffsetBegin": 131,
          "characterOffsetEnd": 135,
          "pos": "VVFIN",
          "before": " ",
          "after": ""
        },
        {
          "index": 26,
          "word": ",",
          "originalText": ",",
          "characterOffsetBegin": 135,
          "characterOffsetEnd": 136,
          "pos": "$,",
          "before": "",
          "after": " "
        },
        {
          "index": 27,
          "word": "dass",
          "originalText": "dass",
          "characterOffsetBegin": 137,
          "characterOffsetEnd": 141,
          "pos": "KOUS",
          "before": " ",
          "after": " "
        },
        {
          "index": 28,
          "word": "es",
          "originalText": "es",
          "characterOffsetBegin": 142,
          "characterOffsetEnd": 144,
          "pos": "PPER",
          "before": " ",
          "after": " "
        },
        {
          "index": 29,
          "word": "wirklich",
          "originalText": "wirklich",
          "characterOffsetBegin": 145,
          "characterOffsetEnd": 153,
          "pos": "ADJD",
          "before": " ",
          "after": " "
        },
        {
          "index": 30,
          "word": "ein",
          "originalText": "ein",
          "characterOffsetBegin": 154,
          "characterOffsetEnd": 157,
          "pos": "ART",
          "before": " ",
          "after": " "
        },
        {
          "index": 31,
          "word": "ethnischer",
          "originalText": "ethnischer",
          "characterOffsetBegin": 158,
          "characterOffsetEnd": 168,
          "pos": "ADJA",
          "before": " ",
          "after": " "
        },
        {
          "index": 32,
          "word": "albanischer",
          "originalText": "albanischer",
          "characterOffsetBegin": 169,
          "characterOffsetEnd": 180,
          "pos": "ADJA",
          "before": " ",
          "after": " "
        },
        {
          "index": 33,
          "word": "Militant",
          "originalText": "Militant",
          "characterOffsetBegin": 181,
          "characterOffsetEnd": 189,
          "pos": "NN",
          "before": " ",
          "after": " "
        },
        {
          "index": 34,
          "word": "war",
          "originalText": "war",
          "characterOffsetBegin": 190,
          "characterOffsetEnd": 193,
          "pos": "VAFIN",
          "before": " ",
          "after": ""
        },
        {
          "index": 35,
          "word": ",",
          "originalText": ",",
          "characterOffsetBegin": 193,
          "characterOffsetEnd": 194,
          "pos": "$,",
          "before": "",
          "after": " "
        },
        {
          "index": 36,
          "word": "der",
          "originalText": "der",
          "characterOffsetBegin": 195,
          "characterOffsetEnd": 198,
          "pos": "ART",
          "before": " ",
          "after": " "
        },
        {
          "index": 37,
          "word": "2013",
          "originalText": "2013",
          "characterOffsetBegin": 199,
          "characterOffsetEnd": 203,
          "pos": "CARD",
          "before": " ",
          "after": " "
        },
        {
          "index": 38,
          "word": "getötet",
          "originalText": "getötet",
          "characterOffsetBegin": 204,
          "characterOffsetEnd": 211,
          "pos": "VVPP",
          "before": " ",
          "after": " "
        },
        {
          "index": 39,
          "word": "wurde",
          "originalText": "wurde",
          "characterOffsetBegin": 212,
          "characterOffsetEnd": 217,
          "pos": "VAFIN",
          "before": " ",
          "after": ""
        }
      ]
    }
  ]
}