{
  "sentences": [
    {
      "index": 0,
      "basicDependencies": [
        {
          "dep": "ROOT",
          "governor": 0,
          "governorGloss": "ROOT",
          "dependent": 1,
          "dependentGloss": "Angry"
        },
        {
          "dep": "amod",
          "governor": 3,
          "governorGloss": "Hacks",
          "dependent": 2,
          "dependentGloss": "Mob"
        },
        {
          "dep": "nsubj",
          "governor": 1,
          "governorGloss": "Angry",
          "dependent": 3,
          "dependentGloss": "Hacks"
        },
        {
          "dep": "case",
          "governor": 6,
          "governorGloss": "Vergewaltiger",
          "dependent": 4,
          "dependentGloss": "aus"
        },
        {
          "dep": "amod",
          "governor": 6,
          "governorGloss": "Vergewaltiger",
          "dependent": 5,
          "dependentGloss": "angeblichen"
        },
        {
          "dep": "nmod",
          "governor": 3,
          "governorGloss": "Hacks",
          "dependent": 6,
          "dependentGloss": "Vergewaltiger"
        },
        {
          "dep": "appos",
          "governor": 3,
          "governorGloss": "Hacks",
          "dependent": 7,
          "dependentGloss": "Genitalien"
        },
        {
          "dep": "case",
          "governor": 10,
          "governorGloss": "Hacker",
          "dependent": 8,
          "dependentGloss": "mit"
        },
        {
          "dep": "amod",
          "governor": 10,
          "governorGloss": "Hacker",
          "dependent": 9,
          "dependentGloss": "Fleisch"
        },
        {
          "dep": "nmod",
          "governor": 7,
          "governorGloss": "Genitalien",
          "dependent": 10,
          "dependentGloss": "Hacker"
        },
        {
          "dep": "case",
          "governor": 13,
          "governorGloss": "Ziehen",
          "dependent": 11,
          "dependentGloss": "nach"
        },
        {
          "dep": "det",
          "governor": 13,
          "governorGloss": "Ziehen",
          "dependent": 12,
          "dependentGloss": "dem"
        },
        {
          "dep": "nmod",
          "governor": 7,
          "governorGloss": "Genitalien",
          "dependent": 13,
          "dependentGloss": "Ziehen"
        },
        {
          "dep": "appos",
          "governor": 13,
          "governorGloss": "Ziehen",
          "dependent": 14,
          "dependentGloss": "ihn"
        },
        {
          "dep": "case",
          "governor": 16,
          "governorGloss": "Metzger",
          "dependent": 15,
          "dependentGloss": "in"
        },
        {
          "dep": "nmod",
          "governor": 14,
          "governorGloss": "ihn",
          "dependent": 16,
          "dependentGloss": "Metzger"
        }
      ],
      "enhancedDependencies": [
        {
          "dep": "ROOT",
          "governor": 0,
          "governorGloss": "ROOT",
          "dependent": 1,
          "dependentGloss": "Angry"
        },
        {
          "dep": "amod",
          "governor": 3,
          "governorGloss": "Hacks",
          "dependent": 2,
          "dependentGloss": "Mob"
        },
        {
          "dep": "nsubj",
          "governor": 1,
          "governorGloss": "Angry",
          "dependent": 3,
          "dependentGloss": "Hacks"
        },
        {
          "dep": "case",
          "governor": 6,
          "governorGloss": "Vergewaltiger",
          "dependent": 4,
          "dependentGloss": "aus"
        },
        {
          "dep": "amod",
          "governor": 6,
          "governorGloss": "Vergewaltiger",
          "dependent": 5,
          "dependentGloss": "angeblichen"
        },
        {
          "dep": "nmod",
          "governor": 3,
          "governorGloss": "Hacks",
          "dependent": 6,
          "dependentGloss": "Vergewaltiger"
        },
        {
          "dep": "appos",
          "governor": 3,
          "governorGloss": "Hacks",
          "dependent": 7,
          "dependentGloss": "Genitalien"
        },
        {
          "dep": "case",
          "governor": 10,
          "governorGloss": "Hacker",
          "dependent": 8,
          "dependentGloss": "mit"
        },
        {
          "dep": "amod",
          "governor": 10,
          "governorGloss": "Hacker",
          "dependent": 9,
          "dependentGloss": "Fleisch"
        },
        {
          "dep": "nmod",
          "governor": 7,
          "governorGloss": "Genitalien",
          "dependent": 10,
          "dependentGloss": "Hacker"
        },
        {
          "dep": "case",
          "governor": 13,
          "governorGloss": "Ziehen",
          "dependent": 11,
          "dependentGloss": "nach"
        },
        {
          "dep": "det",
          "governor": 13,
          "governorGloss": "Ziehen",
          "dependent": 12,
          "dependentGloss": "dem"
        },
        {
          "dep": "nmod",
          "governor": 7,
          "governorGloss": "Genitalien",
          "dependent": 13,
          "dependentGloss": "Ziehen"
        },
        {
          "dep": "appos",
          "governor": 13,
          "governorGloss": "Ziehen",
          "dependent": 14,
          "dependentGloss": "ihn"
        },
        {
          "dep": "case",
          "governor": 16,
          "governorGloss": "Metzger",
          "dependent": 15,
          "dependentGloss": "in"
        },
        {
          "dep": "nmod",
          "governor": 14,
          "governorGloss": "ihn",
          "dependent": 16,
          "dependentGloss": "Metzger"
        }
      ],
      "enhancedPlusPlusDependencies": [
        {
          "dep": "ROOT",
          "governor": 0,
          "governorGloss": "ROOT",
          "dependent": 1,
          "dependentGloss": "Angry"
        },
        {
          "dep": "amod",
          "governor": 3,
          "governorGloss": "Hacks",
          "dependent": 2,
          "dependentGloss": "Mob"
        },
        {
          "dep": "nsubj",
          "governor": 1,
          "governorGloss": "Angry",
          "dependent": 3,
          "dependentGloss": "Hacks"
        },
        {
          "dep": "case",
          "governor": 6,
          "governorGloss": "Vergewaltiger",
          "dependent": 4,
          "dependentGloss": "aus"
        },
        {
          "dep": "amod",
          "governor": 6,
          "governorGloss": "Vergewaltiger",
          "dependent": 5,
          "dependentGloss": "angeblichen"
        },
        {
          "dep": "nmod",
          "governor": 3,
          "governorGloss": "Hacks",
          "dependent": 6,
          "dependentGloss": "Vergewaltiger"
        },
        {
          "dep": "appos",
          "governor": 3,
          "governorGloss": "Hacks",
          "dependent": 7,
          "dependentGloss": "Genitalien"
        },
        {
          "dep": "case",
          "governor": 10,
          "governorGloss": "Hacker",
          "dependent": 8,
          "dependentGloss": "mit"
        },
        {
          "dep": "amod",
          "governor": 10,
          "governorGloss": "Hacker",
          "dependent": 9,
          "dependentGloss": "Fleisch"
        },
        {
          "dep": "nmod",
          "governor": 7,
          "governorGloss": "Genitalien",
          "dependent": 10,
          "dependentGloss": "Hacker"
        },
        {
          "dep": "case",
          "governor": 13,
          "governorGloss": "Ziehen",
          "dependent": 11,
          "dependentGloss": "nach"
        },
        {
          "dep": "det",
          "governor": 13,
          "governorGloss": "Ziehen",
          "dependent": 12,
          "dependentGloss": "dem"
        },
        {
          "dep": "nmod",
          "governor": 7,
          "governorGloss": "Genitalien",
          "dependent": 13,
          "dependentGloss": "Ziehen"
        },
        {
          "dep": "appos",
          "governor": 13,
          "governorGloss": "Ziehen",
          "dependent": 14,
          "dependentGloss": "ihn"
        },
        {
          "dep": "case",
          "governor": 16,
          "governorGloss": "Metzger",
          "dependent": 15,
          "dependentGloss": "in"
        },
        {
          "dep": "nmod",
          "governor": 14,
          "governorGloss": "ihn",
          "dependent": 16,
          "dependentGloss": "Metzger"
        }
      ],
      "tokens": [
        {
          "index": 1,
          "word": "Angry",
          "originalText": "Angry",
          "characterOffsetBegin": 0,
          "characterOffsetEnd": 5,
          "pos": "NE",
          "before": "",
          "after": " "
        },
        {
          "index": 2,
          "word": "Mob",
          "originalText": "Mob",
          "characterOffsetBegin": 6,
          "characterOffsetEnd": 9,
          "pos": "NE",
          "before": " ",
          "after": " "
        },
        {
          "index": 3,
          "word": "Hacks",
          "originalText": "Hacks",
          "characterOffsetBegin": 10,
          "characterOffsetEnd": 15,
          "pos": "NE",
          "before": " ",
          "after": " "
        },
        {
          "index": 4,
          "word": "aus",
          "originalText": "aus",
          "characterOffsetBegin": 16,
          "characterOffsetEnd": 19,
          "pos": "APPR",
          "before": " ",
          "after": " "
        },
        {
          "index": 5,
          "word": "angeblichen",
          "originalText": "angeblichen",
          "characterOffsetBegin": 20,
          "characterOffsetEnd": 31,
          "pos": "ADJA",
          "before": " ",
          "after": " "
        },
        {
          "index": 6,
          "word": "Vergewaltiger",
          "originalText": "Vergewaltiger",
          "characterOffsetBegin": 32,
          "characterOffsetEnd": 45,
          "pos": "NN",
          "before": " ",
          "after": " "
        },
        {
          "index": 7,
          "word": "Genitalien",
          "originalText": "Genitalien",
          "characterOffsetBegin": 46,
          "characterOffsetEnd": 56,
          "pos": "NN",
          "before": " ",
          "after": " "
        },
        {
          "index": 8,
          "word": "mit",
          "originalText": "mit",
          "characterOffsetBegin": 57,
          "characterOffsetEnd": 60,
          "pos": "APPR",
          "before": " ",
          "after": " "
        },
        {
          "index": 9,
          "word": "Fleisch",
          "originalText": "Fleisch",
          "characterOffsetBegin": 61,
          "characterOffsetEnd": 68,
          "pos": "NN",
          "before": " ",
          "after": " "
        },
        {
          "index": 10,
          "word": "Hacker",
          "originalText": "Hacker",
          "characterOffsetBegin": 69,
          "characterOffsetEnd": 75,
          "pos": "NE",
          "before": " ",
          "after": " "
        },
        {
          "index": 11,
          "word": "nach",
          "originalText": "nach",
          "characterOffsetBegin": 76,
          "characterOffsetEnd": 80,
          "pos": "APPR",
          "before": " ",
          "after": " "
        },
        {
          "index": 12,
          "word": "dem",
          "originalText": "dem",
          "characterOffsetBegin": 81,
          "characterOffsetEnd": 84,
          "pos": "ART",
          "before": " ",
          "after": " "
        },
        {
          "index": 13,
          "word": "Ziehen",
          "originalText": "Ziehen",
          "characterOffsetBegin": 85,
          "characterOffsetEnd": 91,
          "pos": "NN",
          "before": " ",
          "after": " "
        },
        {
          "index": 14,
          "word": "ihn",
          "originalText": "ihn",
          "characterOffsetBegin": 92,
          "characterOffsetEnd": 95,
          "pos": "PPER",
          "before": " ",
          "after": " "
        },
        {
          "index": 15,
          "word": "in",
          "originalText": "in",
          "characterOffsetBegin": 96,
          "characterOffsetEnd": 98,
          "pos": "APPR",
          "before": " ",
          "after": " "
        },
        {
          "index": 16,
          "word": "Metzger",
          "originalText": "Metzger",
          "characterOffsetBegin": 99,
          "characterOffsetEnd": 106,
          "pos": "NE",
          "before": " ",
          "after": ""
        }
      ]
    }
  ]
}