{
  "sentences": [
    {
      "index": 0,
      "basicDependencies": [
        {
          "dep": "ROOT",
          "governor": 0,
          "governorGloss": "ROOT",
          "dependent": 6,
          "dependentGloss": "gefunden"
        },
        {
          "dep": "name",
          "governor": 5,
          "governorGloss": "Palace",
          "dependent": 1,
          "dependentGloss": "Magische"
        },
        {
          "dep": "name",
          "governor": 5,
          "governorGloss": "Palace",
          "dependent": 2,
          "dependentGloss": "Pilze"
        },
        {
          "dep": "name",
          "governor": 5,
          "governorGloss": "Palace",
          "dependent": 3,
          "dependentGloss": "im"
        },
        {
          "dep": "name",
          "governor": 5,
          "governorGloss": "Palace",
          "dependent": 4,
          "dependentGloss": "Buckingham"
        },
        {
          "dep": "nsubj",
          "governor": 6,
          "governorGloss": "gefunden",
          "dependent": 5,
          "dependentGloss": "Palace"
        }
      ],
      "enhancedDependencies": [
        {
          "dep": "ROOT",
          "governor": 0,
          "governorGloss": "ROOT",
          "dependent": 6,
          "dependentGloss": "gefunden"
        },
        {
          "dep": "name",
          "governor": 5,
          "governorGloss": "Palace",
          "dependent": 1,
          "dependentGloss": "Magische"
        },
        {
          "dep": "name",
          "governor": 5,
          "governorGloss": "Palace",
          "dependent": 2,
          "dependentGloss": "Pilze"
        },
        {
          "dep": "name",
          "governor": 5,
          "governorGloss": "Palace",
          "dependent": 3,
          "dependentGloss": "im"
        },
        {
          "dep": "name",
          "governor": 5,
          "governorGloss": "Palace",
          "dependent": 4,
          "dependentGloss": "Buckingham"
        },
        {
          "dep": "nsubj",
          "governor": 6,
          "governorGloss": "gefunden",
          "dependent": 5,
          "dependentGloss": "Palace"
        }
      ],
      "enhancedPlusPlusDependencies": [
        {
          "dep": "ROOT",
          "governor": 0,
          "governorGloss": "ROOT",
          "dependent": 6,
          "dependentGloss": "gefunden"
        },
        {
          "dep": "name",
          "governor": 5,
          "governorGloss": "Palace",
          "dependent": 1,
          "dependentGloss": "Magische"
        },
        {
          "dep": "name",
          "governor": 5,
          "governorGloss": "Palace",
          "dependent": 2,
          "dependentGloss": "Pilze"
        },
        {
          "dep": "name",
          "governor": 5,
          "governorGloss": "Palace",
          "dependent": 3,
          "dependentGloss": "im"
        },
        {
          "dep": "name",
          "governor": 5,
          "governorGloss": "Palace",
          "dependent": 4,
          "dependentGloss": "Buckingham"
        },
        {
          "dep": "nsubj",
          "governor": 6,
          "governorGloss": "gefunden",
          "dependent": 5,
          "dependentGloss": "Palace"
        }
      ],
      "tokens": [
        {
          "index": 1,
          "word": "Magische",
          "originalText": "Magische",
          "characterOffsetBegin": 0,
          "characterOffsetEnd": 8,
          "pos": "ADJA",
          "before": "",
          "after": " "
        },
        {
          "index": 2,
          "word": "Pilze",
          "originalText": "Pilze",
          "characterOffsetBegin": 9,
          "characterOffsetEnd": 14,
          "pos": "NN",
          "before": " ",
          "after": " "
        },
        {
          "index": 3,
          "word": "im",
          "originalText": "im",
          "characterOffsetBegin": 15,
          "characterOffsetEnd": 17,
          "pos": "APPRART",
          "before": " ",
          "after": " "
        },
        {
          "index": 4,
          "word": "Buckingham",
          "originalText": "Buckingham",
          "characterOffsetBegin": 18,
          "characterOffsetEnd": 28,
          "pos": "NN",
          "before": " ",
          "after": " "
        },
        {
          "index": 5,
          "word": "Palace",
          "originalText": "Palace",
          "characterOffsetBegin": 29,
          "characterOffsetEnd": 35,
          "pos": "NE",
          "before": " ",
          "after": " "
        },
        {
          "index": 6,
          "word": "gefunden",
          "originalText": "gefunden",
          "characterOffsetBegin": 36,
          "characterOffsetEnd": 44,
          "pos": "VVPP",
          "before": " ",
          "after": ""
        }
      ]
    }
  ]
}