{
  "sentences": [
    {
      "index": 0,
      "basicDependencies": [
        {
          "dep": "ROOT",
          "governor": 0,
          "governorGloss": "ROOT",
          "dependent": 4,
          "dependentGloss": "Update"
        },
        {
          "dep": "nsubj",
          "governor": 4,
          "governorGloss": "Update",
          "dependent": 1,
          "dependentGloss": "Ebola"
        },
        {
          "dep": "advmod",
          "governor": 4,
          "governorGloss": "Update",
          "dependent": 2,
          "dependentGloss": "Outbreak"
        },
        {
          "dep": "nmod",
          "governor": 4,
          "governorGloss": "Update",
          "dependent": 3,
          "dependentGloss": "2015"
        },
        {
          "dep": "punct",
          "governor": 4,
          "governorGloss": "Update",
          "dependent": 5,
          "dependentGloss": ":"
        },
        {
          "dep": "advmod",
          "governor": 10,
          "governorGloss": "vergeben",
          "dependent": 6,
          "dependentGloss": "ISIS-Kämpfer"
        },
        {
          "dep": "aux",
          "governor": 10,
          "governorGloss": "vergeben",
          "dependent": 7,
          "dependentGloss": "können"
        },
        {
          "dep": "amod",
          "governor": 9,
          "governorGloss": "Virus",
          "dependent": 8,
          "dependentGloss": "tödliches"
        },
        {
          "dep": "nsubj",
          "governor": 10,
          "governorGloss": "vergeben",
          "dependent": 9,
          "dependentGloss": "Virus"
        },
        {
          "dep": "parataxis",
          "governor": 4,
          "governorGloss": "Update",
          "dependent": 10,
          "dependentGloss": "vergeben"
        },
        {
          "dep": "aux",
          "governor": 10,
          "governorGloss": "vergeben",
          "dependent": 11,
          "dependentGloss": "haben"
        }
      ],
      "enhancedDependencies": [
        {
          "dep": "ROOT",
          "governor": 0,
          "governorGloss": "ROOT",
          "dependent": 4,
          "dependentGloss": "Update"
        },
        {
          "dep": "nsubj",
          "governor": 4,
          "governorGloss": "Update",
          "dependent": 1,
          "dependentGloss": "Ebola"
        },
        {
          "dep": "advmod",
          "governor": 4,
          "governorGloss": "Update",
          "dependent": 2,
          "dependentGloss": "Outbreak"
        },
        {
          "dep": "nmod",
          "governor": 4,
          "governorGloss": "Update",
          "dependent": 3,
          "dependentGloss": "2015"
        },
        {
          "dep": "punct",
          "governor": 4,
          "governorGloss": "Update",
          "dependent": 5,
          "dependentGloss": ":"
        },
        {
          "dep": "advmod",
          "governor": 10,
          "governorGloss": "vergeben",
          "dependent": 6,
          "dependentGloss": "ISIS-Kämpfer"
        },
        {
          "dep": "aux",
          "governor": 10,
          "governorGloss": "vergeben",
          "dependent": 7,
          "dependentGloss": "können"
        },
        {
          "dep": "amod",
          "governor": 9,
          "governorGloss": "Virus",
          "dependent": 8,
          "dependentGloss": "tödliches"
        },
        {
          "dep": "nsubj",
          "governor": 10,
          "governorGloss": "vergeben",
          "dependent": 9,
          "dependentGloss": "Virus"
        },
        {
          "dep": "parataxis",
          "governor": 4,
          "governorGloss": "Update",
          "dependent": 10,
          "dependentGloss": "vergeben"
        },
        {
          "dep": "aux",
          "governor": 10,
          "governorGloss": "vergeben",
          "dependent": 11,
          "dependentGloss": "haben"
        }
      ],
      "enhancedPlusPlusDependencies": [
        {
          "dep": "ROOT",
          "governor": 0,
          "governorGloss": "ROOT",
          "dependent": 4,
          "dependentGloss": "Update"
        },
        {
          "dep": "nsubj",
          "governor": 4,
          "governorGloss": "Update",
          "dependent": 1,
          "dependentGloss": "Ebola"
        },
        {
          "dep": "advmod",
          "governor": 4,
          "governorGloss": "Update",
          "dependent": 2,
          "dependentGloss": "Outbreak"
        },
        {
          "dep": "nmod",
          "governor": 4,
          "governorGloss": "Update",
          "dependent": 3,
          "dependentGloss": "2015"
        },
        {
          "dep": "punct",
          "governor": 4,
          "governorGloss": "Update",
          "dependent": 5,
          "dependentGloss": ":"
        },
        {
          "dep": "advmod",
          "governor": 10,
          "governorGloss": "vergeben",
          "dependent": 6,
          "dependentGloss": "ISIS-Kämpfer"
        },
        {
          "dep": "aux",
          "governor": 10,
          "governorGloss": "vergeben",
          "dependent": 7,
          "dependentGloss": "können"
        },
        {
          "dep": "amod",
          "governor": 9,
          "governorGloss": "Virus",
          "dependent": 8,
          "dependentGloss": "tödliches"
        },
        {
          "dep": "nsubj",
          "governor": 10,
          "governorGloss": "vergeben",
          "dependent": 9,
          "dependentGloss": "Virus"
        },
        {
          "dep": "parataxis",
          "governor": 4,
          "governorGloss": "Update",
          "dependent": 10,
          "dependentGloss": "vergeben"
        },
        {
          "dep": "aux",
          "governor": 10,
          "governorGloss": "vergeben",
          "dependent": 11,
          "dependentGloss": "haben"
        }
      ],
      "tokens": [
        {
          "index": 1,
          "word": "Ebola",
          "originalText": "Ebola",
          "characterOffsetBegin": 0,
          "characterOffsetEnd": 5,
          "pos": "NE",
          "before": "",
          "after": " "
        },
        {
          "index": 2,
          "word": "Outbreak",
          "originalText": "Outbreak",
          "characterOffsetBegin": 6,
          "characterOffsetEnd": 14,
          "pos": "NE",
          "before": " ",
          "after": " "
        },
        {
          "index": 3,
          "word": "2015",
          "originalText": "2015",
          "characterOffsetBegin": 15,
          "characterOffsetEnd": 19,
          "pos": "CARD",
          "before": " ",
          "after": " "
        },
        {
          "index": 4,
          "word": "Update",
          "originalText": "Update",
          "characterOffsetBegin": 20,
          "characterOffsetEnd": 26,
          "pos": "NN",
          "before": " ",
          "after": ""
        },
        {
          "index": 5,
          "word": ":",
          "originalText": ":",
          "characterOffsetBegin": 26,
          "characterOffsetEnd": 27,
          "pos": "$.",
          "before": "",
          "after": " "
        },
        {
          "index": 6,
          "word": "ISIS-Kämpfer",
          "originalText": "ISIS-Kämpfer",
          "characterOffsetBegin": 28,
          "characterOffsetEnd": 40,
          "pos": "NN",
          "before": " ",
          "after": " "
        },
        {
          "index": 7,
          "word": "können",
          "originalText": "können",
          "characterOffsetBegin": 41,
          "characterOffsetEnd": 47,
          "pos": "VMFIN",
          "before": " ",
          "after": " "
        },
        {
          "index": 8,
          "word": "tödliches",
          "originalText": "tödliches",
          "characterOffsetBegin": 48,
          "characterOffsetEnd": 57,
          "pos": "ADJA",
          "before": " ",
          "after": " "
        },
        {
          "index": 9,
          "word": "Virus",
          "originalText": "Virus",
          "characterOffsetBegin": 58,
          "characterOffsetEnd": 63,
          "pos": "NN",
          "before": " ",
          "after": " "
        },
        {
          "index": 10,
          "word": "vergeben",
          "originalText": "vergeben",
          "characterOffsetBegin": 64,
          "characterOffsetEnd": 72,
          "pos": "VVPP",
          "before": " ",
          "after": " "
        },
        {
          "index": 11,
          "word": "haben",
          "originalText": "haben",
          "characterOffsetBegin": 73,
          "characterOffsetEnd": 78,
          "pos": "VAFIN",
          "before": " ",
          "after": ""
        }
      ]
    }
  ]
}