{
  "sentences": [
    {
      "index": 0,
      "basicDependencies": [
        {
          "dep": "ROOT",
          "governor": 0,
          "governorGloss": "ROOT",
          "dependent": 4,
          "dependentGloss": "College"
        },
        {
          "dep": "name",
          "governor": 4,
          "governorGloss": "College",
          "dependent": 1,
          "dependentGloss": "Blundering"
        },
        {
          "dep": "name",
          "governor": 4,
          "governorGloss": "College",
          "dependent": 2,
          "dependentGloss": "Boyfriend"
        },
        {
          "dep": "name",
          "governor": 4,
          "governorGloss": "College",
          "dependent": 3,
          "dependentGloss": "verbrennt"
        },
        {
          "dep": "punct",
          "governor": 4,
          "governorGloss": "College",
          "dependent": 5,
          "dependentGloss": ","
        },
        {
          "dep": "mark",
          "governor": 8,
          "governorGloss": "versucht",
          "dependent": 6,
          "dependentGloss": "nachdem"
        },
        {
          "dep": "nsubj",
          "governor": 8,
          "governorGloss": "versucht",
          "dependent": 7,
          "dependentGloss": "er"
        },
        {
          "dep": "advcl",
          "governor": 4,
          "governorGloss": "College",
          "dependent": 8,
          "dependentGloss": "versucht"
        },
        {
          "dep": "punct",
          "governor": 8,
          "governorGloss": "versucht",
          "dependent": 9,
          "dependentGloss": ","
        },
        {
          "dep": "nmod:poss",
          "governor": 11,
          "governorGloss": "Freundin",
          "dependent": 10,
          "dependentGloss": "seine"
        },
        {
          "dep": "dobj",
          "governor": 16,
          "governorGloss": "beeindrucken",
          "dependent": 11,
          "dependentGloss": "Freundin"
        },
        {
          "dep": "case",
          "governor": 14,
          "governorGloss": "Heiratsantrag",
          "dependent": 12,
          "dependentGloss": "mit"
        },
        {
          "dep": "amod",
          "governor": 14,
          "governorGloss": "Heiratsantrag",
          "dependent": 13,
          "dependentGloss": "aufwendigen"
        },
        {
          "dep": "nmod",
          "governor": 16,
          "governorGloss": "beeindrucken",
          "dependent": 14,
          "dependentGloss": "Heiratsantrag"
        },
        {
          "dep": "aux",
          "governor": 16,
          "governorGloss": "beeindrucken",
          "dependent": 15,
          "dependentGloss": "zu"
        },
        {
          "dep": "xcomp",
          "governor": 8,
          "governorGloss": "versucht",
          "dependent": 16,
          "dependentGloss": "beeindrucken"
        }
      ],
      "enhancedDependencies": [
        {
          "dep": "ROOT",
          "governor": 0,
          "governorGloss": "ROOT",
          "dependent": 4,
          "dependentGloss": "College"
        },
        {
          "dep": "name",
          "governor": 4,
          "governorGloss": "College",
          "dependent": 1,
          "dependentGloss": "Blundering"
        },
        {
          "dep": "name",
          "governor": 4,
          "governorGloss": "College",
          "dependent": 2,
          "dependentGloss": "Boyfriend"
        },
        {
          "dep": "name",
          "governor": 4,
          "governorGloss": "College",
          "dependent": 3,
          "dependentGloss": "verbrennt"
        },
        {
          "dep": "punct",
          "governor": 4,
          "governorGloss": "College",
          "dependent": 5,
          "dependentGloss": ","
        },
        {
          "dep": "mark",
          "governor": 8,
          "governorGloss": "versucht",
          "dependent": 6,
          "dependentGloss": "nachdem"
        },
        {
          "dep": "nsubj",
          "governor": 8,
          "governorGloss": "versucht",
          "dependent": 7,
          "dependentGloss": "er"
        },
        {
          "dep": "advcl",
          "governor": 4,
          "governorGloss": "College",
          "dependent": 8,
          "dependentGloss": "versucht"
        },
        {
          "dep": "punct",
          "governor": 8,
          "governorGloss": "versucht",
          "dependent": 9,
          "dependentGloss": ","
        },
        {
          "dep": "nmod:poss",
          "governor": 11,
          "governorGloss": "Freundin",
          "dependent": 10,
          "dependentGloss": "seine"
        },
        {
          "dep": "dobj",
          "governor": 16,
          "governorGloss": "beeindrucken",
          "dependent": 11,
          "dependentGloss": "Freundin"
        },
        {
          "dep": "case",
          "governor": 14,
          "governorGloss": "Heiratsantrag",
          "dependent": 12,
          "dependentGloss": "mit"
        },
        {
          "dep": "amod",
          "governor": 14,
          "governorGloss": "Heiratsantrag",
          "dependent": 13,
          "dependentGloss": "aufwendigen"
        },
        {
          "dep": "nmod",
          "governor": 16,
          "governorGloss": "beeindrucken",
          "dependent": 14,
          "dependentGloss": "Heiratsantrag"
        },
        {
          "dep": "aux",
          "governor": 16,
          "governorGloss": "beeindrucken",
          "dependent": 15,
          "dependentGloss": "zu"
        },
        {
          "dep": "xcomp",
          "governor": 8,
          "governorGloss": "versucht",
          "dependent": 16,
          "dependentGloss": "beeindrucken"
        }
      ],
      "enhancedPlusPlusDependencies": [
        {
          "dep": "ROOT",
          "governor": 0,
          "governorGloss": "ROOT",
          "dependent": 4,
          "dependentGloss": "College"
        },
        {
          "dep": "name",
          "governor": 4,
          "governorGloss": "College",
          "dependent": 1,
          "dependentGloss": "Blundering"
        },
        {
          "dep": "name",
          "governor": 4,
          "governorGloss": "College",
          "dependent": 2,
          "dependentGloss": "Boyfriend"
        },
        {
          "dep": "name",
          "governor": 4,
          "governorGloss": "College",
          "dependent": 3,
          "dependentGloss": "verbrennt"
        },
        {
          "dep": "punct",
          "governor": 4,
          "governorGloss": "College",
          "dependent": 5,
          "dependentGloss": ","
        },
        {
          "dep": "mark",
          "governor": 8,
          "governorGloss": "versucht",
          "dependent": 6,
          "dependentGloss": "nachdem"
        },
        {
          "dep": "nsubj",
          "governor": 8,
          "governorGloss": "versucht",
          "dependent": 7,
          "dependentGloss": "er"
        },
        {
          "dep": "advcl",
          "governor": 4,
          "governorGloss": "College",
          "dependent": 8,
          "dependentGloss": "versucht"
        },
        {
          "dep": "punct",
          "governor": 8,
          "governorGloss": "versucht",
          "dependent": 9,
          "dependentGloss": ","
        },
        {
          "dep": "nmod:poss",
          "governor": 11,
          "governorGloss": "Freundin",
          "dependent": 10,
          "dependentGloss": "seine"
        },
        {
          "dep": "dobj",
          "governor": 16,
          "governorGloss": "beeindrucken",
          "dependent": 11,
          "dependentGloss": "Freundin"
        },
        {
          "dep": "case",
          "governor": 14,
          "governorGloss": "Heiratsantrag",
          "dependent": 12,
          "dependentGloss": "mit"
        },
        {
          "dep": "amod",
          "governor": 14,
          "governorGloss": "Heiratsantrag",
          "dependent": 13,
          "dependentGloss": "aufwendigen"
        },
        {
          "dep": "nmod",
          "governor": 16,
          "governorGloss": "beeindrucken",
          "dependent": 14,
          "dependentGloss": "Heiratsantrag"
        },
        {
          "dep": "aux",
          "governor": 16,
          "governorGloss": "beeindrucken",
          "dependent": 15,
          "dependentGloss": "zu"
        },
        {
          "dep": "xcomp",
          "governor": 8,
          "governorGloss": "versucht",
          "dependent": 16,
          "dependentGloss": "beeindrucken"
        }
      ],
      "tokens": [
        {
          "index": 1,
          "word": "Blundering",
          "originalText": "Blundering",
          "characterOffsetBegin": 0,
          "characterOffsetEnd": 10,
          "pos": "NE",
          "before": "",
          "after": " "
        },
        {
          "index": 2,
          "word": "Boyfriend",
          "originalText": "Boyfriend",
          "characterOffsetBegin": 11,
          "characterOffsetEnd": 20,
          "pos": "NE",
          "before": " ",
          "after": " "
        },
        {
          "index": 3,
          "word": "verbrennt",
          "originalText": "verbrennt",
          "characterOffsetBegin": 21,
          "characterOffsetEnd": 30,
          "pos": "VVFIN",
          "before": " ",
          "after": " "
        },
        {
          "index": 4,
          "word": "College",
          "originalText": "College",
          "characterOffsetBegin": 31,
          "characterOffsetEnd": 38,
          "pos": "NE",
          "before": " ",
          "after": ""
        },
        {
          "index": 5,
          "word": ",",
          "originalText": ",",
          "characterOffsetBegin": 38,
          "characterOffsetEnd": 39,
          "pos": "$,",
          "before": "",
          "after": " "
        },
        {
          "index": 6,
          "word": "nachdem",
          "originalText": "nachdem",
          "characterOffsetBegin": 40,
          "characterOffsetEnd": 47,
          "pos": "KOUS",
          "before": " ",
          "after": " "
        },
        {
          "index": 7,
          "word": "er",
          "originalText": "er",
          "characterOffsetBegin": 48,
          "characterOffsetEnd": 50,
          "pos": "PPER",
          "before": " ",
          "after": " "
        },
        {
          "index": 8,
          "word": "versucht",
          "originalText": "versucht",
          "characterOffsetBegin": 51,
          "characterOffsetEnd": 59,
          "pos": "VVFIN",
          "before": " ",
          "after": ""
        },
        {
          "index": 9,
          "word": ",",
          "originalText": ",",
          "characterOffsetBegin": 59,
          "characterOffsetEnd": 60,
          "pos": "$,",
          "before": "",
          "after": " "
        },
        {
          "index": 10,
          "word": "seine",
          "originalText": "seine",
          "characterOffsetBegin": 61,
          "characterOffsetEnd": 66,
          "pos": "PPOSAT",
          "before": " ",
          "after": " "
        },
        {
          "index": 11,
          "word": "Freundin",
          "originalText": "Freundin",
          "characterOffsetBegin": 67,
          "characterOffsetEnd": 75,
          "pos": "NN",
          "before": " ",
          "after": " "
        },
        {
          "index": 12,
          "word": "mit",
          "originalText": "mit",
          "characterOffsetBegin": 76,
          "characterOffsetEnd": 79,
          "pos": "APPR",
          "before": " ",
          "after": " "
        },
        {
          "index": 13,
          "word": "aufwendigen",
          "originalText": "aufwendigen",
          "characterOffsetBegin": 80,
          "characterOffsetEnd": 91,
          "pos": "ADJA",
          "before": " ",
          "after": " "
        },
        {
          "index": 14,
          "word": "Heiratsantrag",
          "originalText": "Heiratsantrag",
          "characterOffsetBegin": 92,
          "characterOffsetEnd": 105,
          "pos": "NN",
          "before": " ",
          "after": " "
        },
        {
          "index": 15,
          "word": "zu",
          "originalText": "zu",
          "characterOffsetBegin": 106,
          "characterOffsetEnd": 108,
          "pos": "PTKZU",
          "before": " ",
          "after": " "
        },
        {
          "index": 16,
          "word": "beeindrucken",
          "originalText": "beeindrucken",
          "characterOffsetBegin": 109,
          "characterOffsetEnd": 121,
          "pos": "VVINF",
          "before": " ",
          "after": ""
        }
      ]
    }
  ]
}