{
  "sentences": [
    {
      "index": 0,
      "basicDependencies": [
        {
          "dep": "ROOT",
          "governor": 0,
          "governorGloss": "ROOT",
          "dependent": 7,
          "dependentGloss": "Arzt"
        },
        {
          "dep": "det",
          "governor": 2,
          "governorGloss": "Watch",
          "dependent": 1,
          "dependentGloss": "Apple"
        },
        {
          "dep": "nsubj",
          "governor": 7,
          "governorGloss": "Arzt",
          "dependent": 2,
          "dependentGloss": "Watch"
        },
        {
          "dep": "cop",
          "governor": 7,
          "governorGloss": "Arzt",
          "dependent": 3,
          "dependentGloss": "ist"
        },
        {
          "dep": "neg",
          "governor": 7,
          "governorGloss": "Arzt",
          "dependent": 4,
          "dependentGloss": "nicht"
        },
        {
          "dep": "det",
          "governor": 7,
          "governorGloss": "Arzt",
          "dependent": 5,
          "dependentGloss": "der"
        },
        {
          "dep": "amod",
          "governor": 7,
          "governorGloss": "Arzt",
          "dependent": 6,
          "dependentGloss": "digitale"
        },
        {
          "dep": "punct",
          "governor": 7,
          "governorGloss": "Arzt",
          "dependent": 8,
          "dependentGloss": ","
        },
        {
          "dep": "dobj",
          "governor": 12,
          "governorGloss": "sein",
          "dependent": 9,
          "dependentGloss": "den"
        },
        {
          "dep": "nsubj",
          "governor": 12,
          "governorGloss": "sein",
          "dependent": 10,
          "dependentGloss": "es"
        },
        {
          "dep": "aux",
          "governor": 12,
          "governorGloss": "sein",
          "dependent": 11,
          "dependentGloss": "hätte"
        },
        {
          "dep": "acl",
          "governor": 7,
          "governorGloss": "Arzt",
          "dependent": 12,
          "dependentGloss": "sein"
        },
        {
          "dep": "aux",
          "governor": 12,
          "governorGloss": "sein",
          "dependent": 13,
          "dependentGloss": "können"
        }
      ],
      "enhancedDependencies": [
        {
          "dep": "ROOT",
          "governor": 0,
          "governorGloss": "ROOT",
          "dependent": 7,
          "dependentGloss": "Arzt"
        },
        {
          "dep": "det",
          "governor": 2,
          "governorGloss": "Watch",
          "dependent": 1,
          "dependentGloss": "Apple"
        },
        {
          "dep": "nsubj",
          "governor": 7,
          "governorGloss": "Arzt",
          "dependent": 2,
          "dependentGloss": "Watch"
        },
        {
          "dep": "cop",
          "governor": 7,
          "governorGloss": "Arzt",
          "dependent": 3,
          "dependentGloss": "ist"
        },
        {
          "dep": "neg",
          "governor": 7,
          "governorGloss": "Arzt",
          "dependent": 4,
          "dependentGloss": "nicht"
        },
        {
          "dep": "det",
          "governor": 7,
          "governorGloss": "Arzt",
          "dependent": 5,
          "dependentGloss": "der"
        },
        {
          "dep": "amod",
          "governor": 7,
          "governorGloss": "Arzt",
          "dependent": 6,
          "dependentGloss": "digitale"
        },
        {
          "dep": "punct",
          "governor": 7,
          "governorGloss": "Arzt",
          "dependent": 8,
          "dependentGloss": ","
        },
        {
          "dep": "dobj",
          "governor": 12,
          "governorGloss": "sein",
          "dependent": 9,
          "dependentGloss": "den"
        },
        {
          "dep": "nsubj",
          "governor": 12,
          "governorGloss": "sein",
          "dependent": 10,
          "dependentGloss": "es"
        },
        {
          "dep": "aux",
          "governor": 12,
          "governorGloss": "sein",
          "dependent": 11,
          "dependentGloss": "hätte"
        },
        {
          "dep": "acl",
          "governor": 7,
          "governorGloss": "Arzt",
          "dependent": 12,
          "dependentGloss": "sein"
        },
        {
          "dep": "aux",
          "governor": 12,
          "governorGloss": "sein",
          "dependent": 13,
          "dependentGloss": "können"
        }
      ],
      "enhancedPlusPlusDependencies": [
        {
          "dep": "ROOT",
          "governor": 0,
          "governorGloss": "ROOT",
          "dependent": 7,
          "dependentGloss": "Arzt"
        },
        {
          "dep": "det",
          "governor": 2,
          "governorGloss": "Watch",
          "dependent": 1,
          "dependentGloss": "Apple"
        },
        {
          "dep": "nsubj",
          "governor": 7,
          "governorGloss": "Arzt",
          "dependent": 2,
          "dependentGloss": "Watch"
        },
        {
          "dep": "cop",
          "governor": 7,
          "governorGloss": "Arzt",
          "dependent": 3,
          "dependentGloss": "ist"
        },
        {
          "dep": "neg",
          "governor": 7,
          "governorGloss": "Arzt",
          "dependent": 4,
          "dependentGloss": "nicht"
        },
        {
          "dep": "det",
          "governor": 7,
          "governorGloss": "Arzt",
          "dependent": 5,
          "dependentGloss": "der"
        },
        {
          "dep": "amod",
          "governor": 7,
          "governorGloss": "Arzt",
          "dependent": 6,
          "dependentGloss": "digitale"
        },
        {
          "dep": "punct",
          "governor": 7,
          "governorGloss": "Arzt",
          "dependent": 8,
          "dependentGloss": ","
        },
        {
          "dep": "dobj",
          "governor": 12,
          "governorGloss": "sein",
          "dependent": 9,
          "dependentGloss": "den"
        },
        {
          "dep": "nsubj",
          "governor": 12,
          "governorGloss": "sein",
          "dependent": 10,
          "dependentGloss": "es"
        },
        {
          "dep": "aux",
          "governor": 12,
          "governorGloss": "sein",
          "dependent": 11,
          "dependentGloss": "hätte"
        },
        {
          "dep": "acl",
          "governor": 7,
          "governorGloss": "Arzt",
          "dependent": 12,
          "dependentGloss": "sein"
        },
        {
          "dep": "aux",
          "governor": 12,
          "governorGloss": "sein",
          "dependent": 13,
          "dependentGloss": "können"
        }
      ],
      "tokens": [
        {
          "index": 1,
          "word": "Apple",
          "originalText": "Apple",
          "characterOffsetBegin": 0,
          "characterOffsetEnd": 5,
          "pos": "NE",
          "before": "",
          "after": " "
        },
        {
          "index": 2,
          "word": "Watch",
          "originalText": "Watch",
          "characterOffsetBegin": 6,
          "characterOffsetEnd": 11,
          "pos": "NE",
          "before": " ",
          "after": " "
        },
        {
          "index": 3,
          "word": "ist",
          "originalText": "ist",
          "characterOffsetBegin": 12,
          "characterOffsetEnd": 15,
          "pos": "VAFIN",
          "before": " ",
          "after": " "
        },
        {
          "index": 4,
          "word": "nicht",
          "originalText": "nicht",
          "characterOffsetBegin": 16,
          "characterOffsetEnd": 21,
          "pos": "PTKNEG",
          "before": " ",
          "after": " "
        },
        {
          "index": 5,
          "word": "der",
          "originalText": "der",
          "characterOffsetBegin": 22,
          "characterOffsetEnd": 25,
          "pos": "ART",
          "before": " ",
          "after": " "
        },
        {
          "index": 6,
          "word": "digitale",
          "originalText": "digitale",
          "characterOffsetBegin": 26,
          "characterOffsetEnd": 34,
          "pos": "ADJA",
          "before": " ",
          "after": " "
        },
        {
          "index": 7,
          "word": "Arzt",
          "originalText": "Arzt",
          "characterOffsetBegin": 35,
          "characterOffsetEnd": 39,
          "pos": "NN",
          "before": " ",
          "after": ""
        },
        {
          "index": 8,
          "word": ",",
          "originalText": ",",
          "characterOffsetBegin": 39,
          "characterOffsetEnd": 40,
          "pos": "$,",
          "before": "",
          "after": " "
        },
        {
          "index": 9,
          "word": "den",
          "originalText": "den",
          "characterOffsetBegin": 41,
          "characterOffsetEnd": 44,
          "pos": "PRELS",
          "before": " ",
          "after": " "
        },
        {
          "index": 10,
          "word": "es",
          "originalText": "es",
          "characterOffsetBegin": 45,
          "characterOffsetEnd": 47,
          "pos": "PPER",
          "before": " ",
          "after": " "
        },
        {
          "index": 11,
          "word": "hätte",
          "originalText": "hätte",
          "characterOffsetBegin": 48,
          "characterOffsetEnd": 53,
          "pos": "VAFIN",
          "before": " ",
          "after": " "
        },
        {
          "index": 12,
          "word": "sein",
          "originalText": "sein",
          "characterOffsetBegin": 54,
          "characterOffsetEnd": 58,
          "pos": "VAINF",
          "before": " ",
          "after": " "
        },
        {
          "index": 13,
          "word": "können",
          "originalText": "können",
          "characterOffsetBegin": 59,
          "characterOffsetEnd": 65,
          "pos": "VMFIN",
          "before": " ",
          "after": ""
        }
      ]
    }
  ]
}