{
  "sentences": [
    {
      "index": 0,
      "basicDependencies": [
        {
          "dep": "ROOT",
          "governor": 0,
          "governorGloss": "ROOT",
          "dependent": 2,
          "dependentGloss": "behauptet"
        },
        {
          "dep": "nsubj",
          "governor": 2,
          "governorGloss": "behauptet",
          "dependent": 1,
          "dependentGloss": "Nigeria"
        },
        {
          "dep": "case",
          "governor": 5,
          "governorGloss": "Haram",
          "dependent": 3,
          "dependentGloss": "mit"
        },
        {
          "dep": "amod",
          "governor": 5,
          "governorGloss": "Haram",
          "dependent": 4,
          "dependentGloss": "Boko"
        },
        {
          "dep": "nmod",
          "governor": 2,
          "governorGloss": "behauptet",
          "dependent": 5,
          "dependentGloss": "Haram"
        },
        {
          "dep": "case",
          "governor": 7,
          "governorGloss": "Waffenstillstand",
          "dependent": 6,
          "dependentGloss": "auf"
        },
        {
          "dep": "nmod",
          "governor": 2,
          "governorGloss": "behauptet",
          "dependent": 7,
          "dependentGloss": "Waffenstillstand"
        },
        {
          "dep": "punct",
          "governor": 2,
          "governorGloss": "behauptet",
          "dependent": 8,
          "dependentGloss": ","
        },
        {
          "dep": "amod",
          "governor": 10,
          "governorGloss": "Mädchen",
          "dependent": 9,
          "dependentGloss": "entführte"
        },
        {
          "dep": "conj",
          "governor": 2,
          "governorGloss": "behauptet",
          "dependent": 10,
          "dependentGloss": "Mädchen"
        }
      ],
      "enhancedDependencies": [
        {
          "dep": "ROOT",
          "governor": 0,
          "governorGloss": "ROOT",
          "dependent": 2,
          "dependentGloss": "behauptet"
        },
        {
          "dep": "nsubj",
          "governor": 2,
          "governorGloss": "behauptet",
          "dependent": 1,
          "dependentGloss": "Nigeria"
        },
        {
          "dep": "case",
          "governor": 5,
          "governorGloss": "Haram",
          "dependent": 3,
          "dependentGloss": "mit"
        },
        {
          "dep": "amod",
          "governor": 5,
          "governorGloss": "Haram",
          "dependent": 4,
          "dependentGloss": "Boko"
        },
        {
          "dep": "nmod",
          "governor": 2,
          "governorGloss": "behauptet",
          "dependent": 5,
          "dependentGloss": "Haram"
        },
        {
          "dep": "case",
          "governor": 7,
          "governorGloss": "Waffenstillstand",
          "dependent": 6,
          "dependentGloss": "auf"
        },
        {
          "dep": "nmod",
          "governor": 2,
          "governorGloss": "behauptet",
          "dependent": 7,
          "dependentGloss": "Waffenstillstand"
        },
        {
          "dep": "punct",
          "governor": 2,
          "governorGloss": "behauptet",
          "dependent": 8,
          "dependentGloss": ","
        },
        {
          "dep": "amod",
          "governor": 10,
          "governorGloss": "Mädchen",
          "dependent": 9,
          "dependentGloss": "entführte"
        },
        {
          "dep": "conj",
          "governor": 2,
          "governorGloss": "behauptet",
          "dependent": 10,
          "dependentGloss": "Mädchen"
        }
      ],
      "enhancedPlusPlusDependencies": [
        {
          "dep": "ROOT",
          "governor": 0,
          "governorGloss": "ROOT",
          "dependent": 2,
          "dependentGloss": "behauptet"
        },
        {
          "dep": "nsubj",
          "governor": 2,
          "governorGloss": "behauptet",
          "dependent": 1,
          "dependentGloss": "Nigeria"
        },
        {
          "dep": "case",
          "governor": 5,
          "governorGloss": "Haram",
          "dependent": 3,
          "dependentGloss": "mit"
        },
        {
          "dep": "amod",
          "governor": 5,
          "governorGloss": "Haram",
          "dependent": 4,
          "dependentGloss": "Boko"
        },
        {
          "dep": "nmod",
          "governor": 2,
          "governorGloss": "behauptet",
          "dependent": 5,
          "dependentGloss": "Haram"
        },
        {
          "dep": "case",
          "governor": 7,
          "governorGloss": "Waffenstillstand",
          "dependent": 6,
          "dependentGloss": "auf"
        },
        {
          "dep": "nmod",
          "governor": 2,
          "governorGloss": "behauptet",
          "dependent": 7,
          "dependentGloss": "Waffenstillstand"
        },
        {
          "dep": "punct",
          "governor": 2,
          "governorGloss": "behauptet",
          "dependent": 8,
          "dependentGloss": ","
        },
        {
          "dep": "amod",
          "governor": 10,
          "governorGloss": "Mädchen",
          "dependent": 9,
          "dependentGloss": "entführte"
        },
        {
          "dep": "conj",
          "governor": 2,
          "governorGloss": "behauptet",
          "dependent": 10,
          "dependentGloss": "Mädchen"
        }
      ],
      "tokens": [
        {
          "index": 1,
          "word": "Nigeria",
          "originalText": "Nigeria",
          "characterOffsetBegin": 0,
          "characterOffsetEnd": 7,
          "pos": "NE",
          "before": "",
          "after": " "
        },
        {
          "index": 2,
          "word": "behauptet",
          "originalText": "behauptet",
          "characterOffsetBegin": 8,
          "characterOffsetEnd": 17,
          "pos": "VVFIN",
          "before": " ",
          "after": " "
        },
        {
          "index": 3,
          "word": "mit",
          "originalText": "mit",
          "characterOffsetBegin": 18,
          "characterOffsetEnd": 21,
          "pos": "APPR",
          "before": " ",
          "after": " "
        },
        {
          "index": 4,
          "word": "Boko",
          "originalText": "Boko",
          "characterOffsetBegin": 22,
          "characterOffsetEnd": 26,
          "pos": "NE",
          "before": " ",
          "after": " "
        },
        {
          "index": 5,
          "word": "Haram",
          "originalText": "Haram",
          "characterOffsetBegin": 27,
          "characterOffsetEnd": 32,
          "pos": "NE",
          "before": " ",
          "after": " "
        },
        {
          "index": 6,
          "word": "auf",
          "originalText": "auf",
          "characterOffsetBegin": 33,
          "characterOffsetEnd": 36,
          "pos": "APPR",
          "before": " ",
          "after": " "
        },
        {
          "index": 7,
          "word": "Waffenstillstand",
          "originalText": "Waffenstillstand",
          "characterOffsetBegin": 37,
          "characterOffsetEnd": 53,
          "pos": "NN",
          "before": " ",
          "after": ""
        },
        {
          "index": 8,
          "word": ",",
          "originalText": ",",
          "characterOffsetBegin": 53,
          "characterOffsetEnd": 54,
          "pos": "$,",
          "before": "",
          "after": " "
        },
        {
          "index": 9,
          "word": "entführte",
          "originalText": "entführte",
          "characterOffsetBegin": 55,
          "characterOffsetEnd": 64,
          "pos": "ADJA",
          "before": " ",
          "after": " "
        },
        {
          "index": 10,
          "word": "Mädchen",
          "originalText": "Mädchen",
          "characterOffsetBegin": 65,
          "characterOffsetEnd": 72,
          "pos": "NN",
          "before": " ",
          "after": ""
        }
      ]
    }
  ]
}