{
  "sentences": [
    {
      "index": 0,
      "basicDependencies": [
        {
          "dep": "ROOT",
          "governor": 0,
          "governorGloss": "ROOT",
          "dependent": 7,
          "dependentGloss": "spielen"
        },
        {
          "dep": "advmod",
          "governor": 7,
          "governorGloss": "spielen",
          "dependent": 1,
          "dependentGloss": "High"
        },
        {
          "dep": "nmod",
          "governor": 7,
          "governorGloss": "spielen",
          "dependent": 2,
          "dependentGloss": "School"
        },
        {
          "dep": "nsubj",
          "governor": 7,
          "governorGloss": "spielen",
          "dependent": 3,
          "dependentGloss": "Student"
        },
        {
          "dep": "nummod",
          "governor": 5,
          "governorGloss": "$",
          "dependent": 4,
          "dependentGloss": "Scores"
        },
        {
          "dep": "nmod",
          "governor": 6,
          "governorGloss": "72M",
          "dependent": 5,
          "dependentGloss": "$"
        },
        {
          "dep": "nmod",
          "governor": 7,
          "governorGloss": "spielen",
          "dependent": 6,
          "dependentGloss": "72M"
        },
        {
          "dep": "det",
          "governor": 9,
          "governorGloss": "Börse",
          "dependent": 8,
          "dependentGloss": "die"
        },
        {
          "dep": "nsubj",
          "governor": 7,
          "governorGloss": "spielen",
          "dependent": 9,
          "dependentGloss": "Börse"
        }
      ],
      "enhancedDependencies": [
        {
          "dep": "ROOT",
          "governor": 0,
          "governorGloss": "ROOT",
          "dependent": 7,
          "dependentGloss": "spielen"
        },
        {
          "dep": "advmod",
          "governor": 7,
          "governorGloss": "spielen",
          "dependent": 1,
          "dependentGloss": "High"
        },
        {
          "dep": "nmod",
          "governor": 7,
          "governorGloss": "spielen",
          "dependent": 2,
          "dependentGloss": "School"
        },
        {
          "dep": "nsubj",
          "governor": 7,
          "governorGloss": "spielen",
          "dependent": 3,
          "dependentGloss": "Student"
        },
        {
          "dep": "nummod",
          "governor": 5,
          "governorGloss": "$",
          "dependent": 4,
          "dependentGloss": "Scores"
        },
        {
          "dep": "nmod",
          "governor": 6,
          "governorGloss": "72M",
          "dependent": 5,
          "dependentGloss": "$"
        },
        {
          "dep": "nmod",
          "governor": 7,
          "governorGloss": "spielen",
          "dependent": 6,
          "dependentGloss": "72M"
        },
        {
          "dep": "det",
          "governor": 9,
          "governorGloss": "Börse",
          "dependent": 8,
          "dependentGloss": "die"
        },
        {
          "dep": "nsubj",
          "governor": 7,
          "governorGloss": "spielen",
          "dependent": 9,
          "dependentGloss": "Börse"
        }
      ],
      "enhancedPlusPlusDependencies": [
        {
          "dep": "ROOT",
          "governor": 0,
          "governorGloss": "ROOT",
          "dependent": 7,
          "dependentGloss": "spielen"
        },
        {
          "dep": "advmod",
          "governor": 7,
          "governorGloss": "spielen",
          "dependent": 1,
          "dependentGloss": "High"
        },
        {
          "dep": "nmod",
          "governor": 7,
          "governorGloss": "spielen",
          "dependent": 2,
          "dependentGloss": "School"
        },
        {
          "dep": "nsubj",
          "governor": 7,
          "governorGloss": "spielen",
          "dependent": 3,
          "dependentGloss": "Student"
        },
        {
          "dep": "nummod",
          "governor": 5,
          "governorGloss": "$",
          "dependent": 4,
          "dependentGloss": "Scores"
        },
        {
          "dep": "nmod",
          "governor": 6,
          "governorGloss": "72M",
          "dependent": 5,
          "dependentGloss": "$"
        },
        {
          "dep": "nmod",
          "governor": 7,
          "governorGloss": "spielen",
          "dependent": 6,
          "dependentGloss": "72M"
        },
        {
          "dep": "det",
          "governor": 9,
          "governorGloss": "Börse",
          "dependent": 8,
          "dependentGloss": "die"
        },
        {
          "dep": "nsubj",
          "governor": 7,
          "governorGloss": "spielen",
          "dependent": 9,
          "dependentGloss": "Börse"
        }
      ],
      "tokens": [
        {
          "index": 1,
          "word": "High",
          "originalText": "High",
          "characterOffsetBegin": 0,
          "characterOffsetEnd": 4,
          "pos": "NE",
          "before": "",
          "after": " "
        },
        {
          "index": 2,
          "word": "School",
          "originalText": "School",
          "characterOffsetBegin": 5,
          "characterOffsetEnd": 11,
          "pos": "NE",
          "before": " ",
          "after": " "
        },
        {
          "index": 3,
          "word": "Student",
          "originalText": "Student",
          "characterOffsetBegin": 12,
          "characterOffsetEnd": 19,
          "pos": "NN",
          "before": " ",
          "after": " "
        },
        {
          "index": 4,
          "word": "Scores",
          "originalText": "Scores",
          "characterOffsetBegin": 20,
          "characterOffsetEnd": 26,
          "pos": "NE",
          "before": " ",
          "after": " "
        },
        {
          "index": 5,
          "word": "$",
          "originalText": "$",
          "characterOffsetBegin": 27,
          "characterOffsetEnd": 28,
          "pos": "CARD",
          "before": " ",
          "after": " "
        },
        {
          "index": 6,
          "word": "72M",
          "originalText": "72M",
          "characterOffsetBegin": 29,
          "characterOffsetEnd": 32,
          "pos": "CARD",
          "before": " ",
          "after": " "
        },
        {
          "index": 7,
          "word": "spielen",
          "originalText": "spielen",
          "characterOffsetBegin": 33,
          "characterOffsetEnd": 40,
          "pos": "VVFIN",
          "before": " ",
          "after": " "
        },
        {
          "index": 8,
          "word": "die",
          "originalText": "die",
          "characterOffsetBegin": 41,
          "characterOffsetEnd": 44,
          "pos": "ART",
          "before": " ",
          "after": " "
        },
        {
          "index": 9,
          "word": "Börse",
          "originalText": "Börse",
          "characterOffsetBegin": 45,
          "characterOffsetEnd": 50,
          "pos": "NN",
          "before": " ",
          "after": ""
        }
      ]
    }
  ]
}