{
  "sentences": [
    {
      "index": 0,
      "basicDependencies": [
        {
          "dep": "ROOT",
          "governor": 0,
          "governorGloss": "ROOT",
          "dependent": 3,
          "dependentGloss": "Pizzabieferfahrer"
        },
        {
          "dep": "name",
          "governor": 2,
          "governorGloss": "Arbor",
          "dependent": 1,
          "dependentGloss": "Ann"
        },
        {
          "dep": "nsubj",
          "governor": 3,
          "governorGloss": "Pizzabieferfahrer",
          "dependent": 2,
          "dependentGloss": "Arbor"
        },
        {
          "dep": "nmod",
          "governor": 3,
          "governorGloss": "Pizzabieferfahrer",
          "dependent": 4,
          "dependentGloss": "überrascht"
        },
        {
          "dep": "case",
          "governor": 7,
          "governorGloss": "2.000",
          "dependent": 5,
          "dependentGloss": "mit"
        },
        {
          "dep": "nummod",
          "governor": 7,
          "governorGloss": "2.000",
          "dependent": 6,
          "dependentGloss": "$"
        },
        {
          "dep": "nmod",
          "governor": 3,
          "governorGloss": "Pizzabieferfahrer",
          "dependent": 7,
          "dependentGloss": "2.000"
        },
        {
          "dep": "dep",
          "governor": 3,
          "governorGloss": "Pizzabieferfahrer",
          "dependent": 8,
          "dependentGloss": "Tipp"
        }
      ],
      "enhancedDependencies": [
        {
          "dep": "ROOT",
          "governor": 0,
          "governorGloss": "ROOT",
          "dependent": 3,
          "dependentGloss": "Pizzabieferfahrer"
        },
        {
          "dep": "name",
          "governor": 2,
          "governorGloss": "Arbor",
          "dependent": 1,
          "dependentGloss": "Ann"
        },
        {
          "dep": "nsubj",
          "governor": 3,
          "governorGloss": "Pizzabieferfahrer",
          "dependent": 2,
          "dependentGloss": "Arbor"
        },
        {
          "dep": "nmod",
          "governor": 3,
          "governorGloss": "Pizzabieferfahrer",
          "dependent": 4,
          "dependentGloss": "überrascht"
        },
        {
          "dep": "case",
          "governor": 7,
          "governorGloss": "2.000",
          "dependent": 5,
          "dependentGloss": "mit"
        },
        {
          "dep": "nummod",
          "governor": 7,
          "governorGloss": "2.000",
          "dependent": 6,
          "dependentGloss": "$"
        },
        {
          "dep": "nmod",
          "governor": 3,
          "governorGloss": "Pizzabieferfahrer",
          "dependent": 7,
          "dependentGloss": "2.000"
        },
        {
          "dep": "dep",
          "governor": 3,
          "governorGloss": "Pizzabieferfahrer",
          "dependent": 8,
          "dependentGloss": "Tipp"
        }
      ],
      "enhancedPlusPlusDependencies": [
        {
          "dep": "ROOT",
          "governor": 0,
          "governorGloss": "ROOT",
          "dependent": 3,
          "dependentGloss": "Pizzabieferfahrer"
        },
        {
          "dep": "name",
          "governor": 2,
          "governorGloss": "Arbor",
          "dependent": 1,
          "dependentGloss": "Ann"
        },
        {
          "dep": "nsubj",
          "governor": 3,
          "governorGloss": "Pizzabieferfahrer",
          "dependent": 2,
          "dependentGloss": "Arbor"
        },
        {
          "dep": "nmod",
          "governor": 3,
          "governorGloss": "Pizzabieferfahrer",
          "dependent": 4,
          "dependentGloss": "überrascht"
        },
        {
          "dep": "case",
          "governor": 7,
          "governorGloss": "2.000",
          "dependent": 5,
          "dependentGloss": "mit"
        },
        {
          "dep": "nummod",
          "governor": 7,
          "governorGloss": "2.000",
          "dependent": 6,
          "dependentGloss": "$"
        },
        {
          "dep": "nmod",
          "governor": 3,
          "governorGloss": "Pizzabieferfahrer",
          "dependent": 7,
          "dependentGloss": "2.000"
        },
        {
          "dep": "dep",
          "governor": 3,
          "governorGloss": "Pizzabieferfahrer",
          "dependent": 8,
          "dependentGloss": "Tipp"
        }
      ],
      "tokens": [
        {
          "index": 1,
          "word": "Ann",
          "originalText": "Ann",
          "characterOffsetBegin": 0,
          "characterOffsetEnd": 3,
          "pos": "NE",
          "before": "",
          "after": " "
        },
        {
          "index": 2,
          "word": "Arbor",
          "originalText": "Arbor",
          "characterOffsetBegin": 4,
          "characterOffsetEnd": 9,
          "pos": "NE",
          "before": " ",
          "after": " "
        },
        {
          "index": 3,
          "word": "Pizzabieferfahrer",
          "originalText": "Pizzabieferfahrer",
          "characterOffsetBegin": 10,
          "characterOffsetEnd": 27,
          "pos": "NN",
          "before": " ",
          "after": " "
        },
        {
          "index": 4,
          "word": "überrascht",
          "originalText": "überrascht",
          "characterOffsetBegin": 28,
          "characterOffsetEnd": 38,
          "pos": "ADJD",
          "before": " ",
          "after": " "
        },
        {
          "index": 5,
          "word": "mit",
          "originalText": "mit",
          "characterOffsetBegin": 39,
          "characterOffsetEnd": 42,
          "pos": "APPR",
          "before": " ",
          "after": " "
        },
        {
          "index": 6,
          "word": "$",
          "originalText": "$",
          "characterOffsetBegin": 43,
          "characterOffsetEnd": 44,
          "pos": "CARD",
          "before": " ",
          "after": " "
        },
        {
          "index": 7,
          "word": "2.000",
          "originalText": "2.000",
          "characterOffsetBegin": 45,
          "characterOffsetEnd": 50,
          "pos": "CARD",
          "before": " ",
          "after": " "
        },
        {
          "index": 8,
          "word": "Tipp",
          "originalText": "Tipp",
          "characterOffsetBegin": 51,
          "characterOffsetEnd": 55,
          "pos": "NN",
          "before": " ",
          "after": ""
        }
      ]
    }
  ]
}