{
  "sentences": [
    {
      "index": 0,
      "basicDependencies": [
        {
          "dep": "ROOT",
          "governor": 0,
          "governorGloss": "ROOT",
          "dependent": 1,
          "dependentGloss": "Nasty"
        },
        {
          "dep": "appos",
          "governor": 1,
          "governorGloss": "Nasty",
          "dependent": 2,
          "dependentGloss": "iOS"
        },
        {
          "dep": "nummod",
          "governor": 4,
          "governorGloss": "Bug",
          "dependent": 3,
          "dependentGloss": "8"
        },
        {
          "dep": "dobj",
          "governor": 2,
          "governorGloss": "iOS",
          "dependent": 4,
          "dependentGloss": "Bug"
        },
        {
          "dep": "punct",
          "governor": 4,
          "governorGloss": "Bug",
          "dependent": 5,
          "dependentGloss": "könnte"
        },
        {
          "dep": "det",
          "governor": 8,
          "governorGloss": "Drive",
          "dependent": 6,
          "dependentGloss": "Ihre"
        },
        {
          "dep": "amod",
          "governor": 8,
          "governorGloss": "Drive",
          "dependent": 7,
          "dependentGloss": "iCloud"
        },
        {
          "dep": "dobj",
          "governor": 5,
          "governorGloss": "könnte",
          "dependent": 8,
          "dependentGloss": "Drive"
        },
        {
          "dep": "amod",
          "governor": 10,
          "governorGloss": "löschen",
          "dependent": 9,
          "dependentGloss": "Dokumente"
        },
        {
          "dep": "appos",
          "governor": 8,
          "governorGloss": "Drive",
          "dependent": 10,
          "dependentGloss": "löschen"
        }
      ],
      "enhancedDependencies": [
        {
          "dep": "ROOT",
          "governor": 0,
          "governorGloss": "ROOT",
          "dependent": 1,
          "dependentGloss": "Nasty"
        },
        {
          "dep": "appos",
          "governor": 1,
          "governorGloss": "Nasty",
          "dependent": 2,
          "dependentGloss": "iOS"
        },
        {
          "dep": "nummod",
          "governor": 4,
          "governorGloss": "Bug",
          "dependent": 3,
          "dependentGloss": "8"
        },
        {
          "dep": "dobj",
          "governor": 2,
          "governorGloss": "iOS",
          "dependent": 4,
          "dependentGloss": "Bug"
        },
        {
          "dep": "punct",
          "governor": 4,
          "governorGloss": "Bug",
          "dependent": 5,
          "dependentGloss": "könnte"
        },
        {
          "dep": "det",
          "governor": 8,
          "governorGloss": "Drive",
          "dependent": 6,
          "dependentGloss": "Ihre"
        },
        {
          "dep": "amod",
          "governor": 8,
          "governorGloss": "Drive",
          "dependent": 7,
          "dependentGloss": "iCloud"
        },
        {
          "dep": "dobj",
          "governor": 5,
          "governorGloss": "könnte",
          "dependent": 8,
          "dependentGloss": "Drive"
        },
        {
          "dep": "amod",
          "governor": 10,
          "governorGloss": "löschen",
          "dependent": 9,
          "dependentGloss": "Dokumente"
        },
        {
          "dep": "appos",
          "governor": 8,
          "governorGloss": "Drive",
          "dependent": 10,
          "dependentGloss": "löschen"
        }
      ],
      "enhancedPlusPlusDependencies": [
        {
          "dep": "ROOT",
          "governor": 0,
          "governorGloss": "ROOT",
          "dependent": 1,
          "dependentGloss": "Nasty"
        },
        {
          "dep": "appos",
          "governor": 1,
          "governorGloss": "Nasty",
          "dependent": 2,
          "dependentGloss": "iOS"
        },
        {
          "dep": "nummod",
          "governor": 4,
          "governorGloss": "Bug",
          "dependent": 3,
          "dependentGloss": "8"
        },
        {
          "dep": "dobj",
          "governor": 2,
          "governorGloss": "iOS",
          "dependent": 4,
          "dependentGloss": "Bug"
        },
        {
          "dep": "punct",
          "governor": 4,
          "governorGloss": "Bug",
          "dependent": 5,
          "dependentGloss": "könnte"
        },
        {
          "dep": "det",
          "governor": 8,
          "governorGloss": "Drive",
          "dependent": 6,
          "dependentGloss": "Ihre"
        },
        {
          "dep": "amod",
          "governor": 8,
          "governorGloss": "Drive",
          "dependent": 7,
          "dependentGloss": "iCloud"
        },
        {
          "dep": "dobj",
          "governor": 5,
          "governorGloss": "könnte",
          "dependent": 8,
          "dependentGloss": "Drive"
        },
        {
          "dep": "amod",
          "governor": 10,
          "governorGloss": "löschen",
          "dependent": 9,
          "dependentGloss": "Dokumente"
        },
        {
          "dep": "appos",
          "governor": 8,
          "governorGloss": "Drive",
          "dependent": 10,
          "dependentGloss": "löschen"
        }
      ],
      "tokens": [
        {
          "index": 1,
          "word": "Nasty",
          "originalText": "Nasty",
          "characterOffsetBegin": 0,
          "characterOffsetEnd": 5,
          "pos": "NE",
          "before": "",
          "after": " "
        },
        {
          "index": 2,
          "word": "iOS",
          "originalText": "iOS",
          "characterOffsetBegin": 6,
          "characterOffsetEnd": 9,
          "pos": "NE",
          "before": " ",
          "after": " "
        },
        {
          "index": 3,
          "word": "8",
          "originalText": "8",
          "characterOffsetBegin": 10,
          "characterOffsetEnd": 11,
          "pos": "CARD",
          "before": " ",
          "after": " "
        },
        {
          "index": 4,
          "word": "Bug",
          "originalText": "Bug",
          "characterOffsetBegin": 12,
          "characterOffsetEnd": 15,
          "pos": "NN",
          "before": " ",
          "after": " "
        },
        {
          "index": 5,
          "word": "könnte",
          "originalText": "könnte",
          "characterOffsetBegin": 16,
          "characterOffsetEnd": 22,
          "pos": "VMFIN",
          "before": " ",
          "after": " "
        },
        {
          "index": 6,
          "word": "Ihre",
          "originalText": "Ihre",
          "characterOffsetBegin": 23,
          "characterOffsetEnd": 27,
          "pos": "PPOSAT",
          "before": " ",
          "after": " "
        },
        {
          "index": 7,
          "word": "iCloud",
          "originalText": "iCloud",
          "characterOffsetBegin": 28,
          "characterOffsetEnd": 34,
          "pos": "NN",
          "before": " ",
          "after": " "
        },
        {
          "index": 8,
          "word": "Drive",
          "originalText": "Drive",
          "characterOffsetBegin": 35,
          "characterOffsetEnd": 40,
          "pos": "ADJA",
          "before": " ",
          "after": " "
        },
        {
          "index": 9,
          "word": "Dokumente",
          "originalText": "Dokumente",
          "characterOffsetBegin": 41,
          "characterOffsetEnd": 50,
          "pos": "NN",
          "before": " ",
          "after": " "
        },
        {
          "index": 10,
          "word": "löschen",
          "originalText": "löschen",
          "characterOffsetBegin": 51,
          "characterOffsetEnd": 58,
          "pos": "VVINF",
          "before": " ",
          "after": ""
        }
      ]
    }
  ]
}