{
  "sentences": [
    {
      "index": 0,
      "basicDependencies": [
        {
          "dep": "ROOT",
          "governor": 0,
          "governorGloss": "ROOT",
          "dependent": 2,
          "dependentGloss": "Syrien"
        },
        {
          "dep": "name",
          "governor": 2,
          "governorGloss": "Syrien",
          "dependent": 1,
          "dependentGloss": "Isis"
        },
        {
          "dep": "appos",
          "governor": 2,
          "governorGloss": "Syrien",
          "dependent": 3,
          "dependentGloss": "Nachrichten"
        },
        {
          "dep": "punct",
          "governor": 3,
          "governorGloss": "Nachrichten",
          "dependent": 4,
          "dependentGloss": ":"
        },
        {
          "dep": "name",
          "governor": 7,
          "governorGloss": "Training",
          "dependent": 5,
          "dependentGloss": "Iraqi"
        },
        {
          "dep": "name",
          "governor": 7,
          "governorGloss": "Training",
          "dependent": 6,
          "dependentGloss": "Piloten"
        },
        {
          "dep": "appos",
          "governor": 3,
          "governorGloss": "Nachrichten",
          "dependent": 7,
          "dependentGloss": "Training"
        },
        {
          "dep": "name",
          "governor": 9,
          "governorGloss": "Kämpfer",
          "dependent": 8,
          "dependentGloss": "Isis"
        },
        {
          "dep": "appos",
          "governor": 7,
          "governorGloss": "Training",
          "dependent": 9,
          "dependentGloss": "Kämpfer"
        },
        {
          "dep": "punct",
          "governor": 2,
          "governorGloss": "Syrien",
          "dependent": 10,
          "dependentGloss": "'"
        },
        {
          "dep": "punct",
          "governor": 2,
          "governorGloss": "Syrien",
          "dependent": 11,
          "dependentGloss": ","
        },
        {
          "dep": "mark",
          "governor": 16,
          "governorGloss": "fliegen",
          "dependent": 12,
          "dependentGloss": "um"
        },
        {
          "dep": "amod",
          "governor": 14,
          "governorGloss": "Flugzeuge",
          "dependent": 13,
          "dependentGloss": "gefangene"
        },
        {
          "dep": "dobj",
          "governor": 16,
          "governorGloss": "fliegen",
          "dependent": 14,
          "dependentGloss": "Flugzeuge"
        },
        {
          "dep": "aux",
          "governor": 16,
          "governorGloss": "fliegen",
          "dependent": 15,
          "dependentGloss": "zu"
        },
        {
          "dep": "advcl",
          "governor": 2,
          "governorGloss": "Syrien",
          "dependent": 16,
          "dependentGloss": "fliegen"
        }
      ],
      "enhancedDependencies": [
        {
          "dep": "ROOT",
          "governor": 0,
          "governorGloss": "ROOT",
          "dependent": 2,
          "dependentGloss": "Syrien"
        },
        {
          "dep": "name",
          "governor": 2,
          "governorGloss": "Syrien",
          "dependent": 1,
          "dependentGloss": "Isis"
        },
        {
          "dep": "appos",
          "governor": 2,
          "governorGloss": "Syrien",
          "dependent": 3,
          "dependentGloss": "Nachrichten"
        },
        {
          "dep": "punct",
          "governor": 3,
          "governorGloss": "Nachrichten",
          "dependent": 4,
          "dependentGloss": ":"
        },
        {
          "dep": "name",
          "governor": 7,
          "governorGloss": "Training",
          "dependent": 5,
          "dependentGloss": "Iraqi"
        },
        {
          "dep": "name",
          "governor": 7,
          "governorGloss": "Training",
          "dependent": 6,
          "dependentGloss": "Piloten"
        },
        {
          "dep": "appos",
          "governor": 3,
          "governorGloss": "Nachrichten",
          "dependent": 7,
          "dependentGloss": "Training"
        },
        {
          "dep": "name",
          "governor": 9,
          "governorGloss": "Kämpfer",
          "dependent": 8,
          "dependentGloss": "Isis"
        },
        {
          "dep": "appos",
          "governor": 7,
          "governorGloss": "Training",
          "dependent": 9,
          "dependentGloss": "Kämpfer"
        },
        {
          "dep": "punct",
          "governor": 2,
          "governorGloss": "Syrien",
          "dependent": 10,
          "dependentGloss": "'"
        },
        {
          "dep": "punct",
          "governor": 2,
          "governorGloss": "Syrien",
          "dependent": 11,
          "dependentGloss": ","
        },
        {
          "dep": "mark",
          "governor": 16,
          "governorGloss": "fliegen",
          "dependent": 12,
          "dependentGloss": "um"
        },
        {
          "dep": "amod",
          "governor": 14,
          "governorGloss": "Flugzeuge",
          "dependent": 13,
          "dependentGloss": "gefangene"
        },
        {
          "dep": "dobj",
          "governor": 16,
          "governorGloss": "fliegen",
          "dependent": 14,
          "dependentGloss": "Flugzeuge"
        },
        {
          "dep": "aux",
          "governor": 16,
          "governorGloss": "fliegen",
          "dependent": 15,
          "dependentGloss": "zu"
        },
        {
          "dep": "advcl",
          "governor": 2,
          "governorGloss": "Syrien",
          "dependent": 16,
          "dependentGloss": "fliegen"
        }
      ],
      "enhancedPlusPlusDependencies": [
        {
          "dep": "ROOT",
          "governor": 0,
          "governorGloss": "ROOT",
          "dependent": 2,
          "dependentGloss": "Syrien"
        },
        {
          "dep": "name",
          "governor": 2,
          "governorGloss": "Syrien",
          "dependent": 1,
          "dependentGloss": "Isis"
        },
        {
          "dep": "appos",
          "governor": 2,
          "governorGloss": "Syrien",
          "dependent": 3,
          "dependentGloss": "Nachrichten"
        },
        {
          "dep": "punct",
          "governor": 3,
          "governorGloss": "Nachrichten",
          "dependent": 4,
          "dependentGloss": ":"
        },
        {
          "dep": "name",
          "governor": 7,
          "governorGloss": "Training",
          "dependent": 5,
          "dependentGloss": "Iraqi"
        },
        {
          "dep": "name",
          "governor": 7,
          "governorGloss": "Training",
          "dependent": 6,
          "dependentGloss": "Piloten"
        },
        {
          "dep": "appos",
          "governor": 3,
          "governorGloss": "Nachrichten",
          "dependent": 7,
          "dependentGloss": "Training"
        },
        {
          "dep": "name",
          "governor": 9,
          "governorGloss": "Kämpfer",
          "dependent": 8,
          "dependentGloss": "Isis"
        },
        {
          "dep": "appos",
          "governor": 7,
          "governorGloss": "Training",
          "dependent": 9,
          "dependentGloss": "Kämpfer"
        },
        {
          "dep": "punct",
          "governor": 2,
          "governorGloss": "Syrien",
          "dependent": 10,
          "dependentGloss": "'"
        },
        {
          "dep": "punct",
          "governor": 2,
          "governorGloss": "Syrien",
          "dependent": 11,
          "dependentGloss": ","
        },
        {
          "dep": "mark",
          "governor": 16,
          "governorGloss": "fliegen",
          "dependent": 12,
          "dependentGloss": "um"
        },
        {
          "dep": "amod",
          "governor": 14,
          "governorGloss": "Flugzeuge",
          "dependent": 13,
          "dependentGloss": "gefangene"
        },
        {
          "dep": "dobj",
          "governor": 16,
          "governorGloss": "fliegen",
          "dependent": 14,
          "dependentGloss": "Flugzeuge"
        },
        {
          "dep": "aux",
          "governor": 16,
          "governorGloss": "fliegen",
          "dependent": 15,
          "dependentGloss": "zu"
        },
        {
          "dep": "advcl",
          "governor": 2,
          "governorGloss": "Syrien",
          "dependent": 16,
          "dependentGloss": "fliegen"
        }
      ],
      "tokens": [
        {
          "index": 1,
          "word": "Isis",
          "originalText": "Isis",
          "characterOffsetBegin": 0,
          "characterOffsetEnd": 4,
          "pos": "NE",
          "before": "",
          "after": " "
        },
        {
          "index": 2,
          "word": "Syrien",
          "originalText": "Syrien",
          "characterOffsetBegin": 5,
          "characterOffsetEnd": 11,
          "pos": "NE",
          "before": " ",
          "after": " "
        },
        {
          "index": 3,
          "word": "Nachrichten",
          "originalText": "Nachrichten",
          "characterOffsetBegin": 12,
          "characterOffsetEnd": 23,
          "pos": "NN",
          "before": " ",
          "after": ""
        },
        {
          "index": 4,
          "word": ":",
          "originalText": ":",
          "characterOffsetBegin": 23,
          "characterOffsetEnd": 24,
          "pos": "$.",
          "before": "",
          "after": " "
        },
        {
          "index": 5,
          "word": "Iraqi",
          "originalText": "Iraqi",
          "characterOffsetBegin": 25,
          "characterOffsetEnd": 30,
          "pos": "NE",
          "before": " ",
          "after": " "
        },
        {
          "index": 6,
          "word": "Piloten",
          "originalText": "Piloten",
          "characterOffsetBegin": 31,
          "characterOffsetEnd": 38,
          "pos": "NN",
          "before": " ",
          "after": " "
        },
        {
          "index": 7,
          "word": "Training",
          "originalText": "Training",
          "characterOffsetBegin": 39,
          "characterOffsetEnd": 47,
          "pos": "NN",
          "before": " ",
          "after": " "
        },
        {
          "index": 8,
          "word": "Isis",
          "originalText": "Isis",
          "characterOffsetBegin": 48,
          "characterOffsetEnd": 52,
          "pos": "NE",
          "before": " ",
          "after": " "
        },
        {
          "index": 9,
          "word": "Kämpfer",
          "originalText": "Kämpfer",
          "characterOffsetBegin": 53,
          "characterOffsetEnd": 60,
          "pos": "NN",
          "before": " ",
          "after": " "
        },
        {
          "index": 10,
          "word": "'",
          "originalText": "'",
          "characterOffsetBegin": 61,
          "characterOffsetEnd": 62,
          "pos": "$[",
          "before": " ",
          "after": ""
        },
        {
          "index": 11,
          "word": ",",
          "originalText": ",",
          "characterOffsetBegin": 62,
          "characterOffsetEnd": 63,
          "pos": "$,",
          "before": "",
          "after": " "
        },
        {
          "index": 12,
          "word": "um",
          "originalText": "um",
          "characterOffsetBegin": 64,
          "characterOffsetEnd": 66,
          "pos": "KOUI",
          "before": " ",
          "after": " "
        },
        {
          "index": 13,
          "word": "gefangene",
          "originalText": "gefangene",
          "characterOffsetBegin": 67,
          "characterOffsetEnd": 76,
          "pos": "ADJA",
          "before": " ",
          "after": " "
        },
        {
          "index": 14,
          "word": "Flugzeuge",
          "originalText": "Flugzeuge",
          "characterOffsetBegin": 77,
          "characterOffsetEnd": 86,
          "pos": "NN",
          "before": " ",
          "after": " "
        },
        {
          "index": 15,
          "word": "zu",
          "originalText": "zu",
          "characterOffsetBegin": 87,
          "characterOffsetEnd": 89,
          "pos": "PTKZU",
          "before": " ",
          "after": " "
        },
        {
          "index": 16,
          "word": "fliegen",
          "originalText": "fliegen",
          "characterOffsetBegin": 90,
          "characterOffsetEnd": 97,
          "pos": "VVINF",
          "before": " ",
          "after": ""
        }
      ]
    }
  ]
}