{
  "sentences": [
    {
      "index": 0,
      "basicDependencies": [
        {
          "dep": "ROOT",
          "governor": 0,
          "governorGloss": "ROOT",
          "dependent": 3,
          "dependentGloss": "gehen"
        },
        {
          "dep": "amod",
          "governor": 2,
          "governorGloss": "Flughafenarbeiter",
          "dependent": 1,
          "dependentGloss": "NAKED"
        },
        {
          "dep": "nsubj",
          "governor": 3,
          "governorGloss": "gehen",
          "dependent": 2,
          "dependentGloss": "Flughafenarbeiter"
        },
        {
          "dep": "case",
          "governor": 5,
          "governorGloss": "Scanner",
          "dependent": 4,
          "dependentGloss": "durch"
        },
        {
          "dep": "nmod",
          "governor": 3,
          "governorGloss": "gehen",
          "dependent": 5,
          "dependentGloss": "Scanner"
        },
        {
          "dep": "case",
          "governor": 8,
          "governorGloss": "Protest",
          "dependent": 6,
          "dependentGloss": "in"
        },
        {
          "dep": "amod",
          "governor": 8,
          "governorGloss": "Protest",
          "dependent": 7,
          "dependentGloss": "bizarren"
        },
        {
          "dep": "nmod",
          "governor": 3,
          "governorGloss": "gehen",
          "dependent": 8,
          "dependentGloss": "Protest"
        },
        {
          "dep": "case",
          "governor": 11,
          "governorGloss": "raue",
          "dependent": 9,
          "dependentGloss": "gegen"
        },
        {
          "dep": "punct",
          "governor": 11,
          "governorGloss": "raue",
          "dependent": 10,
          "dependentGloss": "``"
        },
        {
          "dep": "nmod",
          "governor": 3,
          "governorGloss": "gehen",
          "dependent": 11,
          "dependentGloss": "raue"
        },
        {
          "dep": "punct",
          "governor": 13,
          "governorGloss": "Wachen",
          "dependent": 12,
          "dependentGloss": "``"
        },
        {
          "dep": "appos",
          "governor": 11,
          "governorGloss": "raue",
          "dependent": 13,
          "dependentGloss": "Wachen"
        }
      ],
      "enhancedDependencies": [
        {
          "dep": "ROOT",
          "governor": 0,
          "governorGloss": "ROOT",
          "dependent": 3,
          "dependentGloss": "gehen"
        },
        {
          "dep": "amod",
          "governor": 2,
          "governorGloss": "Flughafenarbeiter",
          "dependent": 1,
          "dependentGloss": "NAKED"
        },
        {
          "dep": "nsubj",
          "governor": 3,
          "governorGloss": "gehen",
          "dependent": 2,
          "dependentGloss": "Flughafenarbeiter"
        },
        {
          "dep": "case",
          "governor": 5,
          "governorGloss": "Scanner",
          "dependent": 4,
          "dependentGloss": "durch"
        },
        {
          "dep": "nmod",
          "governor": 3,
          "governorGloss": "gehen",
          "dependent": 5,
          "dependentGloss": "Scanner"
        },
        {
          "dep": "case",
          "governor": 8,
          "governorGloss": "Protest",
          "dependent": 6,
          "dependentGloss": "in"
        },
        {
          "dep": "amod",
          "governor": 8,
          "governorGloss": "Protest",
          "dependent": 7,
          "dependentGloss": "bizarren"
        },
        {
          "dep": "nmod",
          "governor": 3,
          "governorGloss": "gehen",
          "dependent": 8,
          "dependentGloss": "Protest"
        },
        {
          "dep": "case",
          "governor": 11,
          "governorGloss": "raue",
          "dependent": 9,
          "dependentGloss": "gegen"
        },
        {
          "dep": "punct",
          "governor": 11,
          "governorGloss": "raue",
          "dependent": 10,
          "dependentGloss": "``"
        },
        {
          "dep": "nmod",
          "governor": 3,
          "governorGloss": "gehen",
          "dependent": 11,
          "dependentGloss": "raue"
        },
        {
          "dep": "punct",
          "governor": 13,
          "governorGloss": "Wachen",
          "dependent": 12,
          "dependentGloss": "``"
        },
        {
          "dep": "appos",
          "governor": 11,
          "governorGloss": "raue",
          "dependent": 13,
          "dependentGloss": "Wachen"
        }
      ],
      "enhancedPlusPlusDependencies": [
        {
          "dep": "ROOT",
          "governor": 0,
          "governorGloss": "ROOT",
          "dependent": 3,
          "dependentGloss": "gehen"
        },
        {
          "dep": "amod",
          "governor": 2,
          "governorGloss": "Flughafenarbeiter",
          "dependent": 1,
          "dependentGloss": "NAKED"
        },
        {
          "dep": "nsubj",
          "governor": 3,
          "governorGloss": "gehen",
          "dependent": 2,
          "dependentGloss": "Flughafenarbeiter"
        },
        {
          "dep": "case",
          "governor": 5,
          "governorGloss": "Scanner",
          "dependent": 4,
          "dependentGloss": "durch"
        },
        {
          "dep": "nmod",
          "governor": 3,
          "governorGloss": "gehen",
          "dependent": 5,
          "dependentGloss": "Scanner"
        },
        {
          "dep": "case",
          "governor": 8,
          "governorGloss": "Protest",
          "dependent": 6,
          "dependentGloss": "in"
        },
        {
          "dep": "amod",
          "governor": 8,
          "governorGloss": "Protest",
          "dependent": 7,
          "dependentGloss": "bizarren"
        },
        {
          "dep": "nmod",
          "governor": 3,
          "governorGloss": "gehen",
          "dependent": 8,
          "dependentGloss": "Protest"
        },
        {
          "dep": "case",
          "governor": 11,
          "governorGloss": "raue",
          "dependent": 9,
          "dependentGloss": "gegen"
        },
        {
          "dep": "punct",
          "governor": 11,
          "governorGloss": "raue",
          "dependent": 10,
          "dependentGloss": "``"
        },
        {
          "dep": "nmod",
          "governor": 3,
          "governorGloss": "gehen",
          "dependent": 11,
          "dependentGloss": "raue"
        },
        {
          "dep": "punct",
          "governor": 13,
          "governorGloss": "Wachen",
          "dependent": 12,
          "dependentGloss": "``"
        },
        {
          "dep": "appos",
          "governor": 11,
          "governorGloss": "raue",
          "dependent": 13,
          "dependentGloss": "Wachen"
        }
      ],
      "tokens": [
        {
          "index": 1,
          "word": "NAKED",
          "originalText": "NAKED",
          "characterOffsetBegin": 0,
          "characterOffsetEnd": 5,
          "pos": "NE",
          "before": "",
          "after": " "
        },
        {
          "index": 2,
          "word": "Flughafenarbeiter",
          "originalText": "Flughafenarbeiter",
          "characterOffsetBegin": 6,
          "characterOffsetEnd": 23,
          "pos": "NN",
          "before": " ",
          "after": " "
        },
        {
          "index": 3,
          "word": "gehen",
          "originalText": "gehen",
          "characterOffsetBegin": 24,
          "characterOffsetEnd": 29,
          "pos": "VVFIN",
          "before": " ",
          "after": " "
        },
        {
          "index": 4,
          "word": "durch",
          "originalText": "durch",
          "characterOffsetBegin": 30,
          "characterOffsetEnd": 35,
          "pos": "APPR",
          "before": " ",
          "after": " "
        },
        {
          "index": 5,
          "word": "Scanner",
          "originalText": "Scanner",
          "characterOffsetBegin": 36,
          "characterOffsetEnd": 43,
          "pos": "NN",
          "before": " ",
          "after": " "
        },
        {
          "index": 6,
          "word": "in",
          "originalText": "in",
          "characterOffsetBegin": 44,
          "characterOffsetEnd": 46,
          "pos": "APPR",
          "before": " ",
          "after": " "
        },
        {
          "index": 7,
          "word": "bizarren",
          "originalText": "bizarren",
          "characterOffsetBegin": 47,
          "characterOffsetEnd": 55,
          "pos": "ADJA",
          "before": " ",
          "after": " "
        },
        {
          "index": 8,
          "word": "Protest",
          "originalText": "Protest",
          "characterOffsetBegin": 56,
          "characterOffsetEnd": 63,
          "pos": "NN",
          "before": " ",
          "after": " "
        },
        {
          "index": 9,
          "word": "gegen",
          "originalText": "gegen",
          "characterOffsetBegin": 64,
          "characterOffsetEnd": 69,
          "pos": "APPR",
          "before": " ",
          "after": " "
        },
        {
          "index": 10,
          "word": "``",
          "originalText": "“",
          "characterOffsetBegin": 70,
          "characterOffsetEnd": 71,
          "pos": "CARD",
          "before": " ",
          "after": ""
        },
        {
          "index": 11,
          "word": "raue",
          "originalText": "raue",
          "characterOffsetBegin": 71,
          "characterOffsetEnd": 75,
          "pos": "NE",
          "before": "",
          "after": ""
        },
        {
          "index": 12,
          "word": "``",
          "originalText": "“",
          "characterOffsetBegin": 75,
          "characterOffsetEnd": 76,
          "pos": "CARD",
          "before": "",
          "after": " "
        },
        {
          "index": 13,
          "word": "Wachen",
          "originalText": "Wachen",
          "characterOffsetBegin": 77,
          "characterOffsetEnd": 83,
          "pos": "NN",
          "before": " ",
          "after": ""
        }
      ]
    }
  ]
}