{
  "sentences": [
    {
      "index": 0,
      "basicDependencies": [
        {
          "dep": "ROOT",
          "governor": 0,
          "governorGloss": "ROOT",
          "dependent": 1,
          "dependentGloss": "Kongressabgeordneter"
        },
        {
          "dep": "punct",
          "governor": 1,
          "governorGloss": "Kongressabgeordneter",
          "dependent": 2,
          "dependentGloss": ":"
        },
        {
          "dep": "punct",
          "governor": 4,
          "governorGloss": "Mindestens",
          "dependent": 3,
          "dependentGloss": "``"
        },
        {
          "dep": "advmod",
          "governor": 7,
          "governorGloss": "fingen",
          "dependent": 4,
          "dependentGloss": "Mindestens"
        },
        {
          "dep": "nummod",
          "governor": 6,
          "governorGloss": "ISIS-Kämpfer",
          "dependent": 5,
          "dependentGloss": "10"
        },
        {
          "dep": "nsubj",
          "governor": 7,
          "governorGloss": "fingen",
          "dependent": 6,
          "dependentGloss": "ISIS-Kämpfer"
        },
        {
          "dep": "parataxis",
          "governor": 1,
          "governorGloss": "Kongressabgeordneter",
          "dependent": 7,
          "dependentGloss": "fingen"
        },
        {
          "dep": "mark",
          "governor": 7,
          "governorGloss": "fingen",
          "dependent": 8,
          "dependentGloss": "an"
        },
        {
          "dep": "punct",
          "governor": 7,
          "governorGloss": "fingen",
          "dependent": 9,
          "dependentGloss": ","
        },
        {
          "dep": "case",
          "governor": 12,
          "governorGloss": "USA",
          "dependent": 10,
          "dependentGloss": "in"
        },
        {
          "dep": "det",
          "governor": 12,
          "governorGloss": "USA",
          "dependent": 11,
          "dependentGloss": "die"
        },
        {
          "dep": "nmod",
          "governor": 14,
          "governorGloss": "gehen",
          "dependent": 12,
          "dependentGloss": "USA"
        },
        {
          "dep": "aux",
          "governor": 14,
          "governorGloss": "gehen",
          "dependent": 13,
          "dependentGloss": "zu"
        },
        {
          "dep": "xcomp",
          "governor": 7,
          "governorGloss": "fingen",
          "dependent": 14,
          "dependentGloss": "gehen"
        }
      ],
      "enhancedDependencies": [
        {
          "dep": "ROOT",
          "governor": 0,
          "governorGloss": "ROOT",
          "dependent": 1,
          "dependentGloss": "Kongressabgeordneter"
        },
        {
          "dep": "punct",
          "governor": 1,
          "governorGloss": "Kongressabgeordneter",
          "dependent": 2,
          "dependentGloss": ":"
        },
        {
          "dep": "punct",
          "governor": 4,
          "governorGloss": "Mindestens",
          "dependent": 3,
          "dependentGloss": "``"
        },
        {
          "dep": "advmod",
          "governor": 7,
          "governorGloss": "fingen",
          "dependent": 4,
          "dependentGloss": "Mindestens"
        },
        {
          "dep": "nummod",
          "governor": 6,
          "governorGloss": "ISIS-Kämpfer",
          "dependent": 5,
          "dependentGloss": "10"
        },
        {
          "dep": "nsubj",
          "governor": 7,
          "governorGloss": "fingen",
          "dependent": 6,
          "dependentGloss": "ISIS-Kämpfer"
        },
        {
          "dep": "parataxis",
          "governor": 1,
          "governorGloss": "Kongressabgeordneter",
          "dependent": 7,
          "dependentGloss": "fingen"
        },
        {
          "dep": "mark",
          "governor": 7,
          "governorGloss": "fingen",
          "dependent": 8,
          "dependentGloss": "an"
        },
        {
          "dep": "punct",
          "governor": 7,
          "governorGloss": "fingen",
          "dependent": 9,
          "dependentGloss": ","
        },
        {
          "dep": "case",
          "governor": 12,
          "governorGloss": "USA",
          "dependent": 10,
          "dependentGloss": "in"
        },
        {
          "dep": "det",
          "governor": 12,
          "governorGloss": "USA",
          "dependent": 11,
          "dependentGloss": "die"
        },
        {
          "dep": "nmod",
          "governor": 14,
          "governorGloss": "gehen",
          "dependent": 12,
          "dependentGloss": "USA"
        },
        {
          "dep": "aux",
          "governor": 14,
          "governorGloss": "gehen",
          "dependent": 13,
          "dependentGloss": "zu"
        },
        {
          "dep": "xcomp",
          "governor": 7,
          "governorGloss": "fingen",
          "dependent": 14,
          "dependentGloss": "gehen"
        }
      ],
      "enhancedPlusPlusDependencies": [
        {
          "dep": "ROOT",
          "governor": 0,
          "governorGloss": "ROOT",
          "dependent": 1,
          "dependentGloss": "Kongressabgeordneter"
        },
        {
          "dep": "punct",
          "governor": 1,
          "governorGloss": "Kongressabgeordneter",
          "dependent": 2,
          "dependentGloss": ":"
        },
        {
          "dep": "punct",
          "governor": 4,
          "governorGloss": "Mindestens",
          "dependent": 3,
          "dependentGloss": "``"
        },
        {
          "dep": "advmod",
          "governor": 7,
          "governorGloss": "fingen",
          "dependent": 4,
          "dependentGloss": "Mindestens"
        },
        {
          "dep": "nummod",
          "governor": 6,
          "governorGloss": "ISIS-Kämpfer",
          "dependent": 5,
          "dependentGloss": "10"
        },
        {
          "dep": "nsubj",
          "governor": 7,
          "governorGloss": "fingen",
          "dependent": 6,
          "dependentGloss": "ISIS-Kämpfer"
        },
        {
          "dep": "parataxis",
          "governor": 1,
          "governorGloss": "Kongressabgeordneter",
          "dependent": 7,
          "dependentGloss": "fingen"
        },
        {
          "dep": "mark",
          "governor": 7,
          "governorGloss": "fingen",
          "dependent": 8,
          "dependentGloss": "an"
        },
        {
          "dep": "punct",
          "governor": 7,
          "governorGloss": "fingen",
          "dependent": 9,
          "dependentGloss": ","
        },
        {
          "dep": "case",
          "governor": 12,
          "governorGloss": "USA",
          "dependent": 10,
          "dependentGloss": "in"
        },
        {
          "dep": "det",
          "governor": 12,
          "governorGloss": "USA",
          "dependent": 11,
          "dependentGloss": "die"
        },
        {
          "dep": "nmod",
          "governor": 14,
          "governorGloss": "gehen",
          "dependent": 12,
          "dependentGloss": "USA"
        },
        {
          "dep": "aux",
          "governor": 14,
          "governorGloss": "gehen",
          "dependent": 13,
          "dependentGloss": "zu"
        },
        {
          "dep": "xcomp",
          "governor": 7,
          "governorGloss": "fingen",
          "dependent": 14,
          "dependentGloss": "gehen"
        }
      ],
      "tokens": [
        {
          "index": 1,
          "word": "Kongressabgeordneter",
          "originalText": "Kongressabgeordneter",
          "characterOffsetBegin": 0,
          "characterOffsetEnd": 20,
          "pos": "NN",
          "before": "",
          "after": ""
        },
        {
          "index": 2,
          "word": ":",
          "originalText": ":",
          "characterOffsetBegin": 20,
          "characterOffsetEnd": 21,
          "pos": "$.",
          "before": "",
          "after": " "
        },
        {
          "index": 3,
          "word": "``",
          "originalText": "“",
          "characterOffsetBegin": 22,
          "characterOffsetEnd": 23,
          "pos": "CARD",
          "before": " ",
          "after": ""
        },
        {
          "index": 4,
          "word": "Mindestens",
          "originalText": "Mindestens",
          "characterOffsetBegin": 23,
          "characterOffsetEnd": 33,
          "pos": "ADV",
          "before": "",
          "after": " "
        },
        {
          "index": 5,
          "word": "10",
          "originalText": "10",
          "characterOffsetBegin": 34,
          "characterOffsetEnd": 36,
          "pos": "CARD",
          "before": " ",
          "after": " "
        },
        {
          "index": 6,
          "word": "ISIS-Kämpfer",
          "originalText": "ISIS-Kämpfer",
          "characterOffsetBegin": 37,
          "characterOffsetEnd": 49,
          "pos": "NN",
          "before": " ",
          "after": " "
        },
        {
          "index": 7,
          "word": "fingen",
          "originalText": "fingen",
          "characterOffsetBegin": 50,
          "characterOffsetEnd": 56,
          "pos": "VVFIN",
          "before": " ",
          "after": " "
        },
        {
          "index": 8,
          "word": "an",
          "originalText": "an",
          "characterOffsetBegin": 57,
          "characterOffsetEnd": 59,
          "pos": "PTKVZ",
          "before": " ",
          "after": ""
        },
        {
          "index": 9,
          "word": ",",
          "originalText": ",",
          "characterOffsetBegin": 59,
          "characterOffsetEnd": 60,
          "pos": "$,",
          "before": "",
          "after": " "
        },
        {
          "index": 10,
          "word": "in",
          "originalText": "in",
          "characterOffsetBegin": 61,
          "characterOffsetEnd": 63,
          "pos": "APPR",
          "before": " ",
          "after": " "
        },
        {
          "index": 11,
          "word": "die",
          "originalText": "die",
          "characterOffsetBegin": 64,
          "characterOffsetEnd": 67,
          "pos": "ART",
          "before": " ",
          "after": " "
        },
        {
          "index": 12,
          "word": "USA",
          "originalText": "USA",
          "characterOffsetBegin": 68,
          "characterOffsetEnd": 71,
          "pos": "NE",
          "before": " ",
          "after": " "
        },
        {
          "index": 13,
          "word": "zu",
          "originalText": "zu",
          "characterOffsetBegin": 72,
          "characterOffsetEnd": 74,
          "pos": "PTKZU",
          "before": " ",
          "after": " "
        },
        {
          "index": 14,
          "word": "gehen",
          "originalText": "gehen",
          "characterOffsetBegin": 75,
          "characterOffsetEnd": 80,
          "pos": "VVINF",
          "before": " ",
          "after": ""
        }
      ]
    }
  ]
}