{
  "sentences": [
    {
      "index": 0,
      "basicDependencies": [
        {
          "dep": "ROOT",
          "governor": 0,
          "governorGloss": "ROOT",
          "dependent": 11,
          "dependentGloss": "nehmen"
        },
        {
          "dep": "nsubj",
          "governor": 11,
          "governorGloss": "nehmen",
          "dependent": 1,
          "dependentGloss": "Apple"
        },
        {
          "dep": "punct",
          "governor": 11,
          "governorGloss": "nehmen",
          "dependent": 2,
          "dependentGloss": ","
        },
        {
          "dep": "case",
          "governor": 4,
          "governorGloss": "Reservierungen",
          "dependent": 3,
          "dependentGloss": "um"
        },
        {
          "dep": "nmod",
          "governor": 11,
          "governorGloss": "nehmen",
          "dependent": 4,
          "dependentGloss": "Reservierungen"
        },
        {
          "dep": "case",
          "governor": 7,
          "governorGloss": "Versuch",
          "dependent": 5,
          "dependentGloss": "für"
        },
        {
          "dep": "det",
          "governor": 7,
          "governorGloss": "Versuch",
          "dependent": 6,
          "dependentGloss": "den"
        },
        {
          "dep": "nmod",
          "governor": 11,
          "governorGloss": "nehmen",
          "dependent": 7,
          "dependentGloss": "Versuch"
        },
        {
          "dep": "case",
          "governor": 10,
          "governorGloss": "Watch",
          "dependent": 8,
          "dependentGloss": "auf"
        },
        {
          "dep": "det",
          "governor": 10,
          "governorGloss": "Watch",
          "dependent": 9,
          "dependentGloss": "Apple"
        },
        {
          "dep": "nmod",
          "governor": 11,
          "governorGloss": "nehmen",
          "dependent": 10,
          "dependentGloss": "Watch"
        },
        {
          "dep": "punct",
          "governor": 11,
          "governorGloss": "nehmen",
          "dependent": 12,
          "dependentGloss": ","
        },
        {
          "dep": "case",
          "governor": 14,
          "governorGloss": "Platinum-Modell",
          "dependent": 13,
          "dependentGloss": "als"
        },
        {
          "dep": "nmod",
          "governor": 11,
          "governorGloss": "nehmen",
          "dependent": 14,
          "dependentGloss": "Platinum-Modell"
        },
        {
          "dep": "punct",
          "governor": 11,
          "governorGloss": "nehmen",
          "dependent": 15,
          "dependentGloss": "betrachtet"
        }
      ],
      "enhancedDependencies": [
        {
          "dep": "ROOT",
          "governor": 0,
          "governorGloss": "ROOT",
          "dependent": 11,
          "dependentGloss": "nehmen"
        },
        {
          "dep": "nsubj",
          "governor": 11,
          "governorGloss": "nehmen",
          "dependent": 1,
          "dependentGloss": "Apple"
        },
        {
          "dep": "punct",
          "governor": 11,
          "governorGloss": "nehmen",
          "dependent": 2,
          "dependentGloss": ","
        },
        {
          "dep": "case",
          "governor": 4,
          "governorGloss": "Reservierungen",
          "dependent": 3,
          "dependentGloss": "um"
        },
        {
          "dep": "nmod",
          "governor": 11,
          "governorGloss": "nehmen",
          "dependent": 4,
          "dependentGloss": "Reservierungen"
        },
        {
          "dep": "case",
          "governor": 7,
          "governorGloss": "Versuch",
          "dependent": 5,
          "dependentGloss": "für"
        },
        {
          "dep": "det",
          "governor": 7,
          "governorGloss": "Versuch",
          "dependent": 6,
          "dependentGloss": "den"
        },
        {
          "dep": "nmod",
          "governor": 11,
          "governorGloss": "nehmen",
          "dependent": 7,
          "dependentGloss": "Versuch"
        },
        {
          "dep": "case",
          "governor": 10,
          "governorGloss": "Watch",
          "dependent": 8,
          "dependentGloss": "auf"
        },
        {
          "dep": "det",
          "governor": 10,
          "governorGloss": "Watch",
          "dependent": 9,
          "dependentGloss": "Apple"
        },
        {
          "dep": "nmod",
          "governor": 11,
          "governorGloss": "nehmen",
          "dependent": 10,
          "dependentGloss": "Watch"
        },
        {
          "dep": "punct",
          "governor": 11,
          "governorGloss": "nehmen",
          "dependent": 12,
          "dependentGloss": ","
        },
        {
          "dep": "case",
          "governor": 14,
          "governorGloss": "Platinum-Modell",
          "dependent": 13,
          "dependentGloss": "als"
        },
        {
          "dep": "nmod",
          "governor": 11,
          "governorGloss": "nehmen",
          "dependent": 14,
          "dependentGloss": "Platinum-Modell"
        },
        {
          "dep": "punct",
          "governor": 11,
          "governorGloss": "nehmen",
          "dependent": 15,
          "dependentGloss": "betrachtet"
        }
      ],
      "enhancedPlusPlusDependencies": [
        {
          "dep": "ROOT",
          "governor": 0,
          "governorGloss": "ROOT",
          "dependent": 11,
          "dependentGloss": "nehmen"
        },
        {
          "dep": "nsubj",
          "governor": 11,
          "governorGloss": "nehmen",
          "dependent": 1,
          "dependentGloss": "Apple"
        },
        {
          "dep": "punct",
          "governor": 11,
          "governorGloss": "nehmen",
          "dependent": 2,
          "dependentGloss": ","
        },
        {
          "dep": "case",
          "governor": 4,
          "governorGloss": "Reservierungen",
          "dependent": 3,
          "dependentGloss": "um"
        },
        {
          "dep": "nmod",
          "governor": 11,
          "governorGloss": "nehmen",
          "dependent": 4,
          "dependentGloss": "Reservierungen"
        },
        {
          "dep": "case",
          "governor": 7,
          "governorGloss": "Versuch",
          "dependent": 5,
          "dependentGloss": "für"
        },
        {
          "dep": "det",
          "governor": 7,
          "governorGloss": "Versuch",
          "dependent": 6,
          "dependentGloss": "den"
        },
        {
          "dep": "nmod",
          "governor": 11,
          "governorGloss": "nehmen",
          "dependent": 7,
          "dependentGloss": "Versuch"
        },
        {
          "dep": "case",
          "governor": 10,
          "governorGloss": "Watch",
          "dependent": 8,
          "dependentGloss": "auf"
        },
        {
          "dep": "det",
          "governor": 10,
          "governorGloss": "Watch",
          "dependent": 9,
          "dependentGloss": "Apple"
        },
        {
          "dep": "nmod",
          "governor": 11,
          "governorGloss": "nehmen",
          "dependent": 10,
          "dependentGloss": "Watch"
        },
        {
          "dep": "punct",
          "governor": 11,
          "governorGloss": "nehmen",
          "dependent": 12,
          "dependentGloss": ","
        },
        {
          "dep": "case",
          "governor": 14,
          "governorGloss": "Platinum-Modell",
          "dependent": 13,
          "dependentGloss": "als"
        },
        {
          "dep": "nmod",
          "governor": 11,
          "governorGloss": "nehmen",
          "dependent": 14,
          "dependentGloss": "Platinum-Modell"
        },
        {
          "dep": "punct",
          "governor": 11,
          "governorGloss": "nehmen",
          "dependent": 15,
          "dependentGloss": "betrachtet"
        }
      ],
      "tokens": [
        {
          "index": 1,
          "word": "Apple",
          "originalText": "Apple",
          "characterOffsetBegin": 0,
          "characterOffsetEnd": 5,
          "pos": "NE",
          "before": "",
          "after": ""
        },
        {
          "index": 2,
          "word": ",",
          "originalText": ",",
          "characterOffsetBegin": 5,
          "characterOffsetEnd": 6,
          "pos": "$,",
          "before": "",
          "after": " "
        },
        {
          "index": 3,
          "word": "um",
          "originalText": "um",
          "characterOffsetBegin": 7,
          "characterOffsetEnd": 9,
          "pos": "APPR",
          "before": " ",
          "after": " "
        },
        {
          "index": 4,
          "word": "Reservierungen",
          "originalText": "Reservierungen",
          "characterOffsetBegin": 10,
          "characterOffsetEnd": 24,
          "pos": "NN",
          "before": " ",
          "after": " "
        },
        {
          "index": 5,
          "word": "für",
          "originalText": "für",
          "characterOffsetBegin": 25,
          "characterOffsetEnd": 28,
          "pos": "APPR",
          "before": " ",
          "after": " "
        },
        {
          "index": 6,
          "word": "den",
          "originalText": "den",
          "characterOffsetBegin": 29,
          "characterOffsetEnd": 32,
          "pos": "ART",
          "before": " ",
          "after": " "
        },
        {
          "index": 7,
          "word": "Versuch",
          "originalText": "Versuch",
          "characterOffsetBegin": 33,
          "characterOffsetEnd": 40,
          "pos": "NN",
          "before": " ",
          "after": " "
        },
        {
          "index": 8,
          "word": "auf",
          "originalText": "auf",
          "characterOffsetBegin": 41,
          "characterOffsetEnd": 44,
          "pos": "APPR",
          "before": " ",
          "after": " "
        },
        {
          "index": 9,
          "word": "Apple",
          "originalText": "Apple",
          "characterOffsetBegin": 45,
          "characterOffsetEnd": 50,
          "pos": "NE",
          "before": " ",
          "after": " "
        },
        {
          "index": 10,
          "word": "Watch",
          "originalText": "Watch",
          "characterOffsetBegin": 51,
          "characterOffsetEnd": 56,
          "pos": "NE",
          "before": " ",
          "after": " "
        },
        {
          "index": 11,
          "word": "nehmen",
          "originalText": "nehmen",
          "characterOffsetBegin": 57,
          "characterOffsetEnd": 63,
          "pos": "VVINF",
          "before": " ",
          "after": ""
        },
        {
          "index": 12,
          "word": ",",
          "originalText": ",",
          "characterOffsetBegin": 63,
          "characterOffsetEnd": 64,
          "pos": "$,",
          "before": "",
          "after": " "
        },
        {
          "index": 13,
          "word": "als",
          "originalText": "als",
          "characterOffsetBegin": 65,
          "characterOffsetEnd": 68,
          "pos": "KOUS",
          "before": " ",
          "after": " "
        },
        {
          "index": 14,
          "word": "Platinum-Modell",
          "originalText": "Platinum-Modell",
          "characterOffsetBegin": 69,
          "characterOffsetEnd": 84,
          "pos": "NN",
          "before": " ",
          "after": " "
        },
        {
          "index": 15,
          "word": "betrachtet",
          "originalText": "betrachtet",
          "characterOffsetBegin": 85,
          "characterOffsetEnd": 95,
          "pos": "VVPP",
          "before": " ",
          "after": ""
        }
      ]
    }
  ]
}