{
  "sentences": [
    {
      "index": 0,
      "basicDependencies": [
        {
          "dep": "ROOT",
          "governor": 0,
          "governorGloss": "ROOT",
          "dependent": 1,
          "dependentGloss": "Etats-Unis"
        },
        {
          "dep": "punct",
          "governor": 1,
          "governorGloss": "Etats-Unis",
          "dependent": 2,
          "dependentGloss": ":"
        },
        {
          "dep": "nummod",
          "governor": 6,
          "governorGloss": "Minuten",
          "dependent": 3,
          "dependentGloss": "Mort"
        },
        {
          "dep": "cop",
          "governor": 6,
          "governorGloss": "Minuten",
          "dependent": 4,
          "dependentGloss": "Anhänger"
        },
        {
          "dep": "nummod",
          "governor": 6,
          "governorGloss": "Minuten",
          "dependent": 5,
          "dependentGloss": "48"
        },
        {
          "dep": "appos",
          "governor": 1,
          "governorGloss": "Etats-Unis",
          "dependent": 6,
          "dependentGloss": "Minuten"
        },
        {
          "dep": "punct",
          "governor": 6,
          "governorGloss": "Minuten",
          "dependent": 7,
          "dependentGloss": ","
        },
        {
          "dep": "dep",
          "governor": 6,
          "governorGloss": "Minuten",
          "dependent": 8,
          "dependentGloss": "un"
        },
        {
          "dep": "root",
          "governor": 8,
          "governorGloss": "un",
          "dependent": 9,
          "dependentGloss": "prêtre"
        },
        {
          "dep": "appos",
          "governor": 9,
          "governorGloss": "prêtre",
          "dependent": 10,
          "dependentGloss": "affirme"
        },
        {
          "dep": "dobj",
          "governor": 10,
          "governorGloss": "affirme",
          "dependent": 11,
          "dependentGloss": "que"
        },
        {
          "dep": "advmod",
          "governor": 15,
          "governorGloss": "femme",
          "dependent": 12,
          "dependentGloss": "Dieu"
        },
        {
          "dep": "amod",
          "governor": 14,
          "governorGloss": "une",
          "dependent": 13,
          "dependentGloss": "est"
        },
        {
          "dep": "dobj",
          "governor": 15,
          "governorGloss": "femme",
          "dependent": 14,
          "dependentGloss": "une"
        },
        {
          "dep": "acl",
          "governor": 11,
          "governorGloss": "que",
          "dependent": 15,
          "dependentGloss": "femme"
        }
      ],
      "enhancedDependencies": [
        {
          "dep": "ROOT",
          "governor": 0,
          "governorGloss": "ROOT",
          "dependent": 1,
          "dependentGloss": "Etats-Unis"
        },
        {
          "dep": "punct",
          "governor": 1,
          "governorGloss": "Etats-Unis",
          "dependent": 2,
          "dependentGloss": ":"
        },
        {
          "dep": "nummod",
          "governor": 6,
          "governorGloss": "Minuten",
          "dependent": 3,
          "dependentGloss": "Mort"
        },
        {
          "dep": "cop",
          "governor": 6,
          "governorGloss": "Minuten",
          "dependent": 4,
          "dependentGloss": "Anhänger"
        },
        {
          "dep": "nummod",
          "governor": 6,
          "governorGloss": "Minuten",
          "dependent": 5,
          "dependentGloss": "48"
        },
        {
          "dep": "appos",
          "governor": 1,
          "governorGloss": "Etats-Unis",
          "dependent": 6,
          "dependentGloss": "Minuten"
        },
        {
          "dep": "punct",
          "governor": 6,
          "governorGloss": "Minuten",
          "dependent": 7,
          "dependentGloss": ","
        },
        {
          "dep": "dep",
          "governor": 6,
          "governorGloss": "Minuten",
          "dependent": 8,
          "dependentGloss": "un"
        },
        {
          "dep": "root",
          "governor": 8,
          "governorGloss": "un",
          "dependent": 9,
          "dependentGloss": "prêtre"
        },
        {
          "dep": "appos",
          "governor": 9,
          "governorGloss": "prêtre",
          "dependent": 10,
          "dependentGloss": "affirme"
        },
        {
          "dep": "dobj",
          "governor": 10,
          "governorGloss": "affirme",
          "dependent": 11,
          "dependentGloss": "que"
        },
        {
          "dep": "advmod",
          "governor": 15,
          "governorGloss": "femme",
          "dependent": 12,
          "dependentGloss": "Dieu"
        },
        {
          "dep": "amod",
          "governor": 14,
          "governorGloss": "une",
          "dependent": 13,
          "dependentGloss": "est"
        },
        {
          "dep": "dobj",
          "governor": 15,
          "governorGloss": "femme",
          "dependent": 14,
          "dependentGloss": "une"
        },
        {
          "dep": "acl",
          "governor": 11,
          "governorGloss": "que",
          "dependent": 15,
          "dependentGloss": "femme"
        }
      ],
      "enhancedPlusPlusDependencies": [
        {
          "dep": "ROOT",
          "governor": 0,
          "governorGloss": "ROOT",
          "dependent": 1,
          "dependentGloss": "Etats-Unis"
        },
        {
          "dep": "punct",
          "governor": 1,
          "governorGloss": "Etats-Unis",
          "dependent": 2,
          "dependentGloss": ":"
        },
        {
          "dep": "nummod",
          "governor": 6,
          "governorGloss": "Minuten",
          "dependent": 3,
          "dependentGloss": "Mort"
        },
        {
          "dep": "cop",
          "governor": 6,
          "governorGloss": "Minuten",
          "dependent": 4,
          "dependentGloss": "Anhänger"
        },
        {
          "dep": "nummod",
          "governor": 6,
          "governorGloss": "Minuten",
          "dependent": 5,
          "dependentGloss": "48"
        },
        {
          "dep": "appos",
          "governor": 1,
          "governorGloss": "Etats-Unis",
          "dependent": 6,
          "dependentGloss": "Minuten"
        },
        {
          "dep": "punct",
          "governor": 6,
          "governorGloss": "Minuten",
          "dependent": 7,
          "dependentGloss": ","
        },
        {
          "dep": "dep",
          "governor": 6,
          "governorGloss": "Minuten",
          "dependent": 8,
          "dependentGloss": "un"
        },
        {
          "dep": "root",
          "governor": 8,
          "governorGloss": "un",
          "dependent": 9,
          "dependentGloss": "prêtre"
        },
        {
          "dep": "appos",
          "governor": 9,
          "governorGloss": "prêtre",
          "dependent": 10,
          "dependentGloss": "affirme"
        },
        {
          "dep": "dobj",
          "governor": 10,
          "governorGloss": "affirme",
          "dependent": 11,
          "dependentGloss": "que"
        },
        {
          "dep": "advmod",
          "governor": 15,
          "governorGloss": "femme",
          "dependent": 12,
          "dependentGloss": "Dieu"
        },
        {
          "dep": "amod",
          "governor": 14,
          "governorGloss": "une",
          "dependent": 13,
          "dependentGloss": "est"
        },
        {
          "dep": "dobj",
          "governor": 15,
          "governorGloss": "femme",
          "dependent": 14,
          "dependentGloss": "une"
        },
        {
          "dep": "acl",
          "governor": 11,
          "governorGloss": "que",
          "dependent": 15,
          "dependentGloss": "femme"
        }
      ],
      "tokens": [
        {
          "index": 1,
          "word": "Etats-Unis",
          "originalText": "Etats-Unis",
          "characterOffsetBegin": 0,
          "characterOffsetEnd": 10,
          "pos": "NN",
          "before": "",
          "after": ""
        },
        {
          "index": 2,
          "word": ":",
          "originalText": ":",
          "characterOffsetBegin": 10,
          "characterOffsetEnd": 11,
          "pos": "$.",
          "before": "",
          "after": " "
        },
        {
          "index": 3,
          "word": "Mort",
          "originalText": "Mort",
          "characterOffsetBegin": 12,
          "characterOffsetEnd": 16,
          "pos": "NE",
          "before": " ",
          "after": " "
        },
        {
          "index": 4,
          "word": "Anhänger",
          "originalText": "Anhänger",
          "characterOffsetBegin": 17,
          "characterOffsetEnd": 25,
          "pos": "NN",
          "before": " ",
          "after": " "
        },
        {
          "index": 5,
          "word": "48",
          "originalText": "48",
          "characterOffsetBegin": 26,
          "characterOffsetEnd": 28,
          "pos": "CARD",
          "before": " ",
          "after": " "
        },
        {
          "index": 6,
          "word": "Minuten",
          "originalText": "Minuten",
          "characterOffsetBegin": 29,
          "characterOffsetEnd": 36,
          "pos": "NN",
          "before": " ",
          "after": ""
        },
        {
          "index": 7,
          "word": ",",
          "originalText": ",",
          "characterOffsetBegin": 36,
          "characterOffsetEnd": 37,
          "pos": "$,",
          "before": "",
          "after": " "
        },
        {
          "index": 8,
          "word": "un",
          "originalText": "un",
          "characterOffsetBegin": 38,
          "characterOffsetEnd": 40,
          "pos": "KON",
          "before": " ",
          "after": " "
        },
        {
          "index": 9,
          "word": "prêtre",
          "originalText": "prêtre",
          "characterOffsetBegin": 41,
          "characterOffsetEnd": 47,
          "pos": "FM",
          "before": " ",
          "after": " "
        },
        {
          "index": 10,
          "word": "affirme",
          "originalText": "affirme",
          "characterOffsetBegin": 48,
          "characterOffsetEnd": 55,
          "pos": "FM",
          "before": " ",
          "after": " "
        },
        {
          "index": 11,
          "word": "que",
          "originalText": "que",
          "characterOffsetBegin": 56,
          "characterOffsetEnd": 59,
          "pos": "FM",
          "before": " ",
          "after": " "
        },
        {
          "index": 12,
          "word": "Dieu",
          "originalText": "Dieu",
          "characterOffsetBegin": 60,
          "characterOffsetEnd": 64,
          "pos": "FM",
          "before": " ",
          "after": " "
        },
        {
          "index": 13,
          "word": "est",
          "originalText": "est",
          "characterOffsetBegin": 65,
          "characterOffsetEnd": 68,
          "pos": "FM",
          "before": " ",
          "after": " "
        },
        {
          "index": 14,
          "word": "une",
          "originalText": "une",
          "characterOffsetBegin": 69,
          "characterOffsetEnd": 72,
          "pos": "FM",
          "before": " ",
          "after": " "
        },
        {
          "index": 15,
          "word": "femme",
          "originalText": "femme",
          "characterOffsetBegin": 73,
          "characterOffsetEnd": 78,
          "pos": "FM",
          "before": " ",
          "after": ""
        }
      ]
    }
  ]
}