{
  "sentences": [
    {
      "index": 0,
      "basicDependencies": [
        {
          "dep": "ROOT",
          "governor": 0,
          "governorGloss": "ROOT",
          "dependent": 2,
          "dependentGloss": "Nachricht"
        },
        {
          "dep": "det",
          "governor": 2,
          "governorGloss": "Nachricht",
          "dependent": 1,
          "dependentGloss": "Eine"
        },
        {
          "dep": "case",
          "governor": 5,
          "governorGloss": "Mutter",
          "dependent": 3,
          "dependentGloss": "von"
        },
        {
          "dep": "name",
          "governor": 5,
          "governorGloss": "Mutter",
          "dependent": 4,
          "dependentGloss": "Jims"
        },
        {
          "dep": "nmod",
          "governor": 2,
          "governorGloss": "Nachricht",
          "dependent": 5,
          "dependentGloss": "Mutter"
        },
        {
          "dep": "punct",
          "governor": 2,
          "governorGloss": "Nachricht",
          "dependent": 6,
          "dependentGloss": ","
        },
        {
          "dep": "name",
          "governor": 8,
          "governorGloss": "Foley",
          "dependent": 7,
          "dependentGloss": "Diane"
        },
        {
          "dep": "appos",
          "governor": 2,
          "governorGloss": "Nachricht",
          "dependent": 8,
          "dependentGloss": "Foley"
        },
        {
          "dep": "punct",
          "governor": 2,
          "governorGloss": "Nachricht",
          "dependent": 9,
          "dependentGloss": ":"
        }
      ],
      "enhancedDependencies": [
        {
          "dep": "ROOT",
          "governor": 0,
          "governorGloss": "ROOT",
          "dependent": 2,
          "dependentGloss": "Nachricht"
        },
        {
          "dep": "det",
          "governor": 2,
          "governorGloss": "Nachricht",
          "dependent": 1,
          "dependentGloss": "Eine"
        },
        {
          "dep": "case",
          "governor": 5,
          "governorGloss": "Mutter",
          "dependent": 3,
          "dependentGloss": "von"
        },
        {
          "dep": "name",
          "governor": 5,
          "governorGloss": "Mutter",
          "dependent": 4,
          "dependentGloss": "Jims"
        },
        {
          "dep": "nmod",
          "governor": 2,
          "governorGloss": "Nachricht",
          "dependent": 5,
          "dependentGloss": "Mutter"
        },
        {
          "dep": "punct",
          "governor": 2,
          "governorGloss": "Nachricht",
          "dependent": 6,
          "dependentGloss": ","
        },
        {
          "dep": "name",
          "governor": 8,
          "governorGloss": "Foley",
          "dependent": 7,
          "dependentGloss": "Diane"
        },
        {
          "dep": "appos",
          "governor": 2,
          "governorGloss": "Nachricht",
          "dependent": 8,
          "dependentGloss": "Foley"
        },
        {
          "dep": "punct",
          "governor": 2,
          "governorGloss": "Nachricht",
          "dependent": 9,
          "dependentGloss": ":"
        }
      ],
      "enhancedPlusPlusDependencies": [
        {
          "dep": "ROOT",
          "governor": 0,
          "governorGloss": "ROOT",
          "dependent": 2,
          "dependentGloss": "Nachricht"
        },
        {
          "dep": "det",
          "governor": 2,
          "governorGloss": "Nachricht",
          "dependent": 1,
          "dependentGloss": "Eine"
        },
        {
          "dep": "case",
          "governor": 5,
          "governorGloss": "Mutter",
          "dependent": 3,
          "dependentGloss": "von"
        },
        {
          "dep": "name",
          "governor": 5,
          "governorGloss": "Mutter",
          "dependent": 4,
          "dependentGloss": "Jims"
        },
        {
          "dep": "nmod",
          "governor": 2,
          "governorGloss": "Nachricht",
          "dependent": 5,
          "dependentGloss": "Mutter"
        },
        {
          "dep": "punct",
          "governor": 2,
          "governorGloss": "Nachricht",
          "dependent": 6,
          "dependentGloss": ","
        },
        {
          "dep": "name",
          "governor": 8,
          "governorGloss": "Foley",
          "dependent": 7,
          "dependentGloss": "Diane"
        },
        {
          "dep": "appos",
          "governor": 2,
          "governorGloss": "Nachricht",
          "dependent": 8,
          "dependentGloss": "Foley"
        },
        {
          "dep": "punct",
          "governor": 2,
          "governorGloss": "Nachricht",
          "dependent": 9,
          "dependentGloss": ":"
        }
      ],
      "tokens": [
        {
          "index": 1,
          "word": "Eine",
          "originalText": "Eine",
          "characterOffsetBegin": 0,
          "characterOffsetEnd": 4,
          "pos": "ART",
          "before": "",
          "after": " "
        },
        {
          "index": 2,
          "word": "Nachricht",
          "originalText": "Nachricht",
          "characterOffsetBegin": 5,
          "characterOffsetEnd": 14,
          "pos": "NN",
          "before": " ",
          "after": " "
        },
        {
          "index": 3,
          "word": "von",
          "originalText": "von",
          "characterOffsetBegin": 15,
          "characterOffsetEnd": 18,
          "pos": "APPR",
          "before": " ",
          "after": " "
        },
        {
          "index": 4,
          "word": "Jims",
          "originalText": "Jims",
          "characterOffsetBegin": 19,
          "characterOffsetEnd": 23,
          "pos": "NE",
          "before": " ",
          "after": " "
        },
        {
          "index": 5,
          "word": "Mutter",
          "originalText": "Mutter",
          "characterOffsetBegin": 24,
          "characterOffsetEnd": 30,
          "pos": "NN",
          "before": " ",
          "after": ""
        },
        {
          "index": 6,
          "word": ",",
          "originalText": ",",
          "characterOffsetBegin": 30,
          "characterOffsetEnd": 31,
          "pos": "$,",
          "before": "",
          "after": " "
        },
        {
          "index": 7,
          "word": "Diane",
          "originalText": "Diane",
          "characterOffsetBegin": 32,
          "characterOffsetEnd": 37,
          "pos": "NE",
          "before": " ",
          "after": " "
        },
        {
          "index": 8,
          "word": "Foley",
          "originalText": "Foley",
          "characterOffsetBegin": 38,
          "characterOffsetEnd": 43,
          "pos": "NE",
          "before": " ",
          "after": ""
        },
        {
          "index": 9,
          "word": ":",
          "originalText": ":",
          "characterOffsetBegin": 43,
          "characterOffsetEnd": 44,
          "pos": "$.",
          "before": "",
          "after": ""
        }
      ]
    }
  ]
}