{
  "sentences": [
    {
      "index": 0,
      "basicDependencies": [
        {
          "dep": "ROOT",
          "governor": 0,
          "governorGloss": "ROOT",
          "dependent": 2,
          "dependentGloss": "Woods"
        },
        {
          "dep": "name",
          "governor": 2,
          "governorGloss": "Woods",
          "dependent": 1,
          "dependentGloss": "Tiger"
        },
        {
          "dep": "punct",
          "governor": 2,
          "governorGloss": "Woods",
          "dependent": 3,
          "dependentGloss": "`"
        },
        {
          "dep": "amod",
          "governor": 5,
          "governorGloss": "Luxusinsel",
          "dependent": 4,
          "dependentGloss": "ehemalige"
        },
        {
          "dep": "nsubj",
          "governor": 6,
          "governorGloss": "geht",
          "dependent": 5,
          "dependentGloss": "Luxusinsel"
        },
        {
          "dep": "acl",
          "governor": 3,
          "governorGloss": "`",
          "dependent": 6,
          "dependentGloss": "geht"
        },
        {
          "dep": "amod",
          "governor": 8,
          "governorGloss": "Verkauf",
          "dependent": 7,
          "dependentGloss": "zum"
        },
        {
          "dep": "dobj",
          "governor": 6,
          "governorGloss": "geht",
          "dependent": 8,
          "dependentGloss": "Verkauf"
        }
      ],
      "enhancedDependencies": [
        {
          "dep": "ROOT",
          "governor": 0,
          "governorGloss": "ROOT",
          "dependent": 2,
          "dependentGloss": "Woods"
        },
        {
          "dep": "name",
          "governor": 2,
          "governorGloss": "Woods",
          "dependent": 1,
          "dependentGloss": "Tiger"
        },
        {
          "dep": "punct",
          "governor": 2,
          "governorGloss": "Woods",
          "dependent": 3,
          "dependentGloss": "`"
        },
        {
          "dep": "amod",
          "governor": 5,
          "governorGloss": "Luxusinsel",
          "dependent": 4,
          "dependentGloss": "ehemalige"
        },
        {
          "dep": "nsubj",
          "governor": 6,
          "governorGloss": "geht",
          "dependent": 5,
          "dependentGloss": "Luxusinsel"
        },
        {
          "dep": "acl",
          "governor": 3,
          "governorGloss": "`",
          "dependent": 6,
          "dependentGloss": "geht"
        },
        {
          "dep": "amod",
          "governor": 8,
          "governorGloss": "Verkauf",
          "dependent": 7,
          "dependentGloss": "zum"
        },
        {
          "dep": "dobj",
          "governor": 6,
          "governorGloss": "geht",
          "dependent": 8,
          "dependentGloss": "Verkauf"
        }
      ],
      "enhancedPlusPlusDependencies": [
        {
          "dep": "ROOT",
          "governor": 0,
          "governorGloss": "ROOT",
          "dependent": 2,
          "dependentGloss": "Woods"
        },
        {
          "dep": "name",
          "governor": 2,
          "governorGloss": "Woods",
          "dependent": 1,
          "dependentGloss": "Tiger"
        },
        {
          "dep": "punct",
          "governor": 2,
          "governorGloss": "Woods",
          "dependent": 3,
          "dependentGloss": "`"
        },
        {
          "dep": "amod",
          "governor": 5,
          "governorGloss": "Luxusinsel",
          "dependent": 4,
          "dependentGloss": "ehemalige"
        },
        {
          "dep": "nsubj",
          "governor": 6,
          "governorGloss": "geht",
          "dependent": 5,
          "dependentGloss": "Luxusinsel"
        },
        {
          "dep": "acl",
          "governor": 3,
          "governorGloss": "`",
          "dependent": 6,
          "dependentGloss": "geht"
        },
        {
          "dep": "amod",
          "governor": 8,
          "governorGloss": "Verkauf",
          "dependent": 7,
          "dependentGloss": "zum"
        },
        {
          "dep": "dobj",
          "governor": 6,
          "governorGloss": "geht",
          "dependent": 8,
          "dependentGloss": "Verkauf"
        }
      ],
      "tokens": [
        {
          "index": 1,
          "word": "Tiger",
          "originalText": "Tiger",
          "characterOffsetBegin": 0,
          "characterOffsetEnd": 5,
          "pos": "NE",
          "before": "",
          "after": " "
        },
        {
          "index": 2,
          "word": "Woods",
          "originalText": "Woods",
          "characterOffsetBegin": 6,
          "characterOffsetEnd": 11,
          "pos": "NE",
          "before": " ",
          "after": " "
        },
        {
          "index": 3,
          "word": "`",
          "originalText": "'",
          "characterOffsetBegin": 12,
          "characterOffsetEnd": 13,
          "pos": "CARD",
          "before": " ",
          "after": ""
        },
        {
          "index": 4,
          "word": "ehemalige",
          "originalText": "ehemalige",
          "characterOffsetBegin": 13,
          "characterOffsetEnd": 22,
          "pos": "ADJA",
          "before": "",
          "after": " "
        },
        {
          "index": 5,
          "word": "Luxusinsel",
          "originalText": "Luxusinsel",
          "characterOffsetBegin": 23,
          "characterOffsetEnd": 33,
          "pos": "NN",
          "before": " ",
          "after": " "
        },
        {
          "index": 6,
          "word": "geht",
          "originalText": "geht",
          "characterOffsetBegin": 34,
          "characterOffsetEnd": 38,
          "pos": "VVFIN",
          "before": " ",
          "after": " "
        },
        {
          "index": 7,
          "word": "zum",
          "originalText": "zum",
          "characterOffsetBegin": 39,
          "characterOffsetEnd": 42,
          "pos": "APPRART",
          "before": " ",
          "after": " "
        },
        {
          "index": 8,
          "word": "Verkauf",
          "originalText": "Verkauf",
          "characterOffsetBegin": 43,
          "characterOffsetEnd": 50,
          "pos": "NN",
          "before": " ",
          "after": ""
        }
      ]
    }
  ]
}