{
  "sentences": [
    {
      "index": 0,
      "basicDependencies": [
        {
          "dep": "ROOT",
          "governor": 0,
          "governorGloss": "ROOT",
          "dependent": 1,
          "dependentGloss": "WSJ"
        },
        {
          "dep": "punct",
          "governor": 1,
          "governorGloss": "WSJ",
          "dependent": 2,
          "dependentGloss": ":"
        },
        {
          "dep": "amod",
          "governor": 7,
          "governorGloss": "Features",
          "dependent": 3,
          "dependentGloss": "Apfel"
        },
        {
          "dep": "nummod",
          "governor": 5,
          "governorGloss": "Uhr",
          "dependent": 4,
          "dependentGloss": "schneiden"
        },
        {
          "dep": "nmod",
          "governor": 6,
          "governorGloss": "Gesundheit",
          "dependent": 5,
          "dependentGloss": "Uhr"
        },
        {
          "dep": "amod",
          "governor": 7,
          "governorGloss": "Features",
          "dependent": 6,
          "dependentGloss": "Gesundheit"
        },
        {
          "dep": "appos",
          "governor": 1,
          "governorGloss": "WSJ",
          "dependent": 7,
          "dependentGloss": "Features"
        },
        {
          "dep": "case",
          "governor": 10,
          "governorGloss": "Sensoren",
          "dependent": 8,
          "dependentGloss": "durch"
        },
        {
          "dep": "amod",
          "governor": 10,
          "governorGloss": "Sensoren",
          "dependent": 9,
          "dependentGloss": "erratische"
        },
        {
          "dep": "nmod",
          "governor": 7,
          "governorGloss": "Features",
          "dependent": 10,
          "dependentGloss": "Sensoren"
        }
      ],
      "enhancedDependencies": [
        {
          "dep": "ROOT",
          "governor": 0,
          "governorGloss": "ROOT",
          "dependent": 1,
          "dependentGloss": "WSJ"
        },
        {
          "dep": "punct",
          "governor": 1,
          "governorGloss": "WSJ",
          "dependent": 2,
          "dependentGloss": ":"
        },
        {
          "dep": "amod",
          "governor": 7,
          "governorGloss": "Features",
          "dependent": 3,
          "dependentGloss": "Apfel"
        },
        {
          "dep": "nummod",
          "governor": 5,
          "governorGloss": "Uhr",
          "dependent": 4,
          "dependentGloss": "schneiden"
        },
        {
          "dep": "nmod",
          "governor": 6,
          "governorGloss": "Gesundheit",
          "dependent": 5,
          "dependentGloss": "Uhr"
        },
        {
          "dep": "amod",
          "governor": 7,
          "governorGloss": "Features",
          "dependent": 6,
          "dependentGloss": "Gesundheit"
        },
        {
          "dep": "appos",
          "governor": 1,
          "governorGloss": "WSJ",
          "dependent": 7,
          "dependentGloss": "Features"
        },
        {
          "dep": "case",
          "governor": 10,
          "governorGloss": "Sensoren",
          "dependent": 8,
          "dependentGloss": "durch"
        },
        {
          "dep": "amod",
          "governor": 10,
          "governorGloss": "Sensoren",
          "dependent": 9,
          "dependentGloss": "erratische"
        },
        {
          "dep": "nmod",
          "governor": 7,
          "governorGloss": "Features",
          "dependent": 10,
          "dependentGloss": "Sensoren"
        }
      ],
      "enhancedPlusPlusDependencies": [
        {
          "dep": "ROOT",
          "governor": 0,
          "governorGloss": "ROOT",
          "dependent": 1,
          "dependentGloss": "WSJ"
        },
        {
          "dep": "punct",
          "governor": 1,
          "governorGloss": "WSJ",
          "dependent": 2,
          "dependentGloss": ":"
        },
        {
          "dep": "amod",
          "governor": 7,
          "governorGloss": "Features",
          "dependent": 3,
          "dependentGloss": "Apfel"
        },
        {
          "dep": "nummod",
          "governor": 5,
          "governorGloss": "Uhr",
          "dependent": 4,
          "dependentGloss": "schneiden"
        },
        {
          "dep": "nmod",
          "governor": 6,
          "governorGloss": "Gesundheit",
          "dependent": 5,
          "dependentGloss": "Uhr"
        },
        {
          "dep": "amod",
          "governor": 7,
          "governorGloss": "Features",
          "dependent": 6,
          "dependentGloss": "Gesundheit"
        },
        {
          "dep": "appos",
          "governor": 1,
          "governorGloss": "WSJ",
          "dependent": 7,
          "dependentGloss": "Features"
        },
        {
          "dep": "case",
          "governor": 10,
          "governorGloss": "Sensoren",
          "dependent": 8,
          "dependentGloss": "durch"
        },
        {
          "dep": "amod",
          "governor": 10,
          "governorGloss": "Sensoren",
          "dependent": 9,
          "dependentGloss": "erratische"
        },
        {
          "dep": "nmod",
          "governor": 7,
          "governorGloss": "Features",
          "dependent": 10,
          "dependentGloss": "Sensoren"
        }
      ],
      "tokens": [
        {
          "index": 1,
          "word": "WSJ",
          "originalText": "WSJ",
          "characterOffsetBegin": 0,
          "characterOffsetEnd": 3,
          "pos": "NE",
          "before": "",
          "after": ""
        },
        {
          "index": 2,
          "word": ":",
          "originalText": ":",
          "characterOffsetBegin": 3,
          "characterOffsetEnd": 4,
          "pos": "$.",
          "before": "",
          "after": " "
        },
        {
          "index": 3,
          "word": "Apfel",
          "originalText": "Apfel",
          "characterOffsetBegin": 5,
          "characterOffsetEnd": 10,
          "pos": "NN",
          "before": " ",
          "after": " "
        },
        {
          "index": 4,
          "word": "schneiden",
          "originalText": "schneiden",
          "characterOffsetBegin": 11,
          "characterOffsetEnd": 20,
          "pos": "VVFIN",
          "before": " ",
          "after": " "
        },
        {
          "index": 5,
          "word": "Uhr",
          "originalText": "Uhr",
          "characterOffsetBegin": 21,
          "characterOffsetEnd": 24,
          "pos": "NN",
          "before": " ",
          "after": " "
        },
        {
          "index": 6,
          "word": "Gesundheit",
          "originalText": "Gesundheit",
          "characterOffsetBegin": 25,
          "characterOffsetEnd": 35,
          "pos": "NN",
          "before": " ",
          "after": " "
        },
        {
          "index": 7,
          "word": "Features",
          "originalText": "Features",
          "characterOffsetBegin": 36,
          "characterOffsetEnd": 44,
          "pos": "NN",
          "before": " ",
          "after": " "
        },
        {
          "index": 8,
          "word": "durch",
          "originalText": "durch",
          "characterOffsetBegin": 45,
          "characterOffsetEnd": 50,
          "pos": "APPR",
          "before": " ",
          "after": " "
        },
        {
          "index": 9,
          "word": "erratische",
          "originalText": "erratische",
          "characterOffsetBegin": 51,
          "characterOffsetEnd": 61,
          "pos": "ADJA",
          "before": " ",
          "after": " "
        },
        {
          "index": 10,
          "word": "Sensoren",
          "originalText": "Sensoren",
          "characterOffsetBegin": 62,
          "characterOffsetEnd": 70,
          "pos": "NN",
          "before": " ",
          "after": ""
        }
      ]
    }
  ]
}