{
  "sentences": [
    {
      "index": 0,
      "basicDependencies": [
        {
          "dep": "ROOT",
          "governor": 0,
          "governorGloss": "ROOT",
          "dependent": 3,
          "dependentGloss": "sagen"
        },
        {
          "dep": "name",
          "governor": 2,
          "governorGloss": "Berichte",
          "dependent": 1,
          "dependentGloss": "Unbestätigte"
        },
        {
          "dep": "nsubj",
          "governor": 3,
          "governorGloss": "sagen",
          "dependent": 2,
          "dependentGloss": "Berichte"
        },
        {
          "dep": "dobj",
          "governor": 3,
          "governorGloss": "sagen",
          "dependent": 4,
          "dependentGloss": "ISIS"
        },
        {
          "dep": "det",
          "governor": 6,
          "governorGloss": "Geisel",
          "dependent": 5,
          "dependentGloss": "UK"
        },
        {
          "dep": "dobj",
          "governor": 4,
          "governorGloss": "ISIS",
          "dependent": 6,
          "dependentGloss": "Geisel"
        },
        {
          "dep": "name",
          "governor": 8,
          "governorGloss": "Haines",
          "dependent": 7,
          "dependentGloss": "David"
        },
        {
          "dep": "appos",
          "governor": 6,
          "governorGloss": "Geisel",
          "dependent": 8,
          "dependentGloss": "Haines"
        },
        {
          "dep": "advmod",
          "governor": 3,
          "governorGloss": "sagen",
          "dependent": 9,
          "dependentGloss": "Beheaded"
        }
      ],
      "enhancedDependencies": [
        {
          "dep": "ROOT",
          "governor": 0,
          "governorGloss": "ROOT",
          "dependent": 3,
          "dependentGloss": "sagen"
        },
        {
          "dep": "name",
          "governor": 2,
          "governorGloss": "Berichte",
          "dependent": 1,
          "dependentGloss": "Unbestätigte"
        },
        {
          "dep": "nsubj",
          "governor": 3,
          "governorGloss": "sagen",
          "dependent": 2,
          "dependentGloss": "Berichte"
        },
        {
          "dep": "dobj",
          "governor": 3,
          "governorGloss": "sagen",
          "dependent": 4,
          "dependentGloss": "ISIS"
        },
        {
          "dep": "det",
          "governor": 6,
          "governorGloss": "Geisel",
          "dependent": 5,
          "dependentGloss": "UK"
        },
        {
          "dep": "dobj",
          "governor": 4,
          "governorGloss": "ISIS",
          "dependent": 6,
          "dependentGloss": "Geisel"
        },
        {
          "dep": "name",
          "governor": 8,
          "governorGloss": "Haines",
          "dependent": 7,
          "dependentGloss": "David"
        },
        {
          "dep": "appos",
          "governor": 6,
          "governorGloss": "Geisel",
          "dependent": 8,
          "dependentGloss": "Haines"
        },
        {
          "dep": "advmod",
          "governor": 3,
          "governorGloss": "sagen",
          "dependent": 9,
          "dependentGloss": "Beheaded"
        }
      ],
      "enhancedPlusPlusDependencies": [
        {
          "dep": "ROOT",
          "governor": 0,
          "governorGloss": "ROOT",
          "dependent": 3,
          "dependentGloss": "sagen"
        },
        {
          "dep": "name",
          "governor": 2,
          "governorGloss": "Berichte",
          "dependent": 1,
          "dependentGloss": "Unbestätigte"
        },
        {
          "dep": "nsubj",
          "governor": 3,
          "governorGloss": "sagen",
          "dependent": 2,
          "dependentGloss": "Berichte"
        },
        {
          "dep": "dobj",
          "governor": 3,
          "governorGloss": "sagen",
          "dependent": 4,
          "dependentGloss": "ISIS"
        },
        {
          "dep": "det",
          "governor": 6,
          "governorGloss": "Geisel",
          "dependent": 5,
          "dependentGloss": "UK"
        },
        {
          "dep": "dobj",
          "governor": 4,
          "governorGloss": "ISIS",
          "dependent": 6,
          "dependentGloss": "Geisel"
        },
        {
          "dep": "name",
          "governor": 8,
          "governorGloss": "Haines",
          "dependent": 7,
          "dependentGloss": "David"
        },
        {
          "dep": "appos",
          "governor": 6,
          "governorGloss": "Geisel",
          "dependent": 8,
          "dependentGloss": "Haines"
        },
        {
          "dep": "advmod",
          "governor": 3,
          "governorGloss": "sagen",
          "dependent": 9,
          "dependentGloss": "Beheaded"
        }
      ],
      "tokens": [
        {
          "index": 1,
          "word": "Unbestätigte",
          "originalText": "Unbestätigte",
          "characterOffsetBegin": 0,
          "characterOffsetEnd": 12,
          "pos": "ADJA",
          "before": "",
          "after": " "
        },
        {
          "index": 2,
          "word": "Berichte",
          "originalText": "Berichte",
          "characterOffsetBegin": 13,
          "characterOffsetEnd": 21,
          "pos": "NN",
          "before": " ",
          "after": " "
        },
        {
          "index": 3,
          "word": "sagen",
          "originalText": "sagen",
          "characterOffsetBegin": 22,
          "characterOffsetEnd": 27,
          "pos": "VVFIN",
          "before": " ",
          "after": " "
        },
        {
          "index": 4,
          "word": "ISIS",
          "originalText": "ISIS",
          "characterOffsetBegin": 28,
          "characterOffsetEnd": 32,
          "pos": "NE",
          "before": " ",
          "after": " "
        },
        {
          "index": 5,
          "word": "UK",
          "originalText": "UK",
          "characterOffsetBegin": 33,
          "characterOffsetEnd": 35,
          "pos": "NE",
          "before": " ",
          "after": " "
        },
        {
          "index": 6,
          "word": "Geisel",
          "originalText": "Geisel",
          "characterOffsetBegin": 36,
          "characterOffsetEnd": 42,
          "pos": "NN",
          "before": " ",
          "after": " "
        },
        {
          "index": 7,
          "word": "David",
          "originalText": "David",
          "characterOffsetBegin": 43,
          "characterOffsetEnd": 48,
          "pos": "NE",
          "before": " ",
          "after": " "
        },
        {
          "index": 8,
          "word": "Haines",
          "originalText": "Haines",
          "characterOffsetBegin": 49,
          "characterOffsetEnd": 55,
          "pos": "NE",
          "before": " ",
          "after": " "
        },
        {
          "index": 9,
          "word": "Beheaded",
          "originalText": "Beheaded",
          "characterOffsetBegin": 56,
          "characterOffsetEnd": 64,
          "pos": "NE",
          "before": " ",
          "after": ""
        }
      ]
    }
  ]
}