{
  "sentences": [
    {
      "index": 0,
      "basicDependencies": [
        {
          "dep": "ROOT",
          "governor": 0,
          "governorGloss": "ROOT",
          "dependent": 12,
          "dependentGloss": "gefangen"
        },
        {
          "dep": "det",
          "governor": 2,
          "governorGloss": "Wetterkanal",
          "dependent": 1,
          "dependentGloss": "Der"
        },
        {
          "dep": "nsubj",
          "governor": 12,
          "governorGloss": "gefangen",
          "dependent": 2,
          "dependentGloss": "Wetterkanal"
        },
        {
          "dep": "name",
          "governor": 4,
          "governorGloss": "Seidel",
          "dependent": 3,
          "dependentGloss": "Mike"
        },
        {
          "dep": "appos",
          "governor": 2,
          "governorGloss": "Wetterkanal",
          "dependent": 4,
          "dependentGloss": "Seidel"
        },
        {
          "dep": "cop",
          "governor": 12,
          "governorGloss": "gefangen",
          "dependent": 5,
          "dependentGloss": "war"
        },
        {
          "dep": "neg",
          "governor": 5,
          "governorGloss": "war",
          "dependent": 6,
          "dependentGloss": "nicht"
        },
        {
          "dep": "case",
          "governor": 9,
          "governorGloss": "Hose",
          "dependent": 7,
          "dependentGloss": "mit"
        },
        {
          "dep": "det",
          "governor": 9,
          "governorGloss": "Hose",
          "dependent": 8,
          "dependentGloss": "seiner"
        },
        {
          "dep": "nmod",
          "governor": 12,
          "governorGloss": "gefangen",
          "dependent": 9,
          "dependentGloss": "Hose"
        },
        {
          "dep": "case",
          "governor": 12,
          "governorGloss": "gefangen",
          "dependent": 10,
          "dependentGloss": "nach"
        },
        {
          "dep": "advmod",
          "governor": 12,
          "governorGloss": "gefangen",
          "dependent": 11,
          "dependentGloss": "unten"
        }
      ],
      "enhancedDependencies": [
        {
          "dep": "ROOT",
          "governor": 0,
          "governorGloss": "ROOT",
          "dependent": 12,
          "dependentGloss": "gefangen"
        },
        {
          "dep": "det",
          "governor": 2,
          "governorGloss": "Wetterkanal",
          "dependent": 1,
          "dependentGloss": "Der"
        },
        {
          "dep": "nsubj",
          "governor": 12,
          "governorGloss": "gefangen",
          "dependent": 2,
          "dependentGloss": "Wetterkanal"
        },
        {
          "dep": "name",
          "governor": 4,
          "governorGloss": "Seidel",
          "dependent": 3,
          "dependentGloss": "Mike"
        },
        {
          "dep": "appos",
          "governor": 2,
          "governorGloss": "Wetterkanal",
          "dependent": 4,
          "dependentGloss": "Seidel"
        },
        {
          "dep": "cop",
          "governor": 12,
          "governorGloss": "gefangen",
          "dependent": 5,
          "dependentGloss": "war"
        },
        {
          "dep": "neg",
          "governor": 5,
          "governorGloss": "war",
          "dependent": 6,
          "dependentGloss": "nicht"
        },
        {
          "dep": "case",
          "governor": 9,
          "governorGloss": "Hose",
          "dependent": 7,
          "dependentGloss": "mit"
        },
        {
          "dep": "det",
          "governor": 9,
          "governorGloss": "Hose",
          "dependent": 8,
          "dependentGloss": "seiner"
        },
        {
          "dep": "nmod",
          "governor": 12,
          "governorGloss": "gefangen",
          "dependent": 9,
          "dependentGloss": "Hose"
        },
        {
          "dep": "case",
          "governor": 12,
          "governorGloss": "gefangen",
          "dependent": 10,
          "dependentGloss": "nach"
        },
        {
          "dep": "advmod",
          "governor": 12,
          "governorGloss": "gefangen",
          "dependent": 11,
          "dependentGloss": "unten"
        }
      ],
      "enhancedPlusPlusDependencies": [
        {
          "dep": "ROOT",
          "governor": 0,
          "governorGloss": "ROOT",
          "dependent": 12,
          "dependentGloss": "gefangen"
        },
        {
          "dep": "det",
          "governor": 2,
          "governorGloss": "Wetterkanal",
          "dependent": 1,
          "dependentGloss": "Der"
        },
        {
          "dep": "nsubj",
          "governor": 12,
          "governorGloss": "gefangen",
          "dependent": 2,
          "dependentGloss": "Wetterkanal"
        },
        {
          "dep": "name",
          "governor": 4,
          "governorGloss": "Seidel",
          "dependent": 3,
          "dependentGloss": "Mike"
        },
        {
          "dep": "appos",
          "governor": 2,
          "governorGloss": "Wetterkanal",
          "dependent": 4,
          "dependentGloss": "Seidel"
        },
        {
          "dep": "cop",
          "governor": 12,
          "governorGloss": "gefangen",
          "dependent": 5,
          "dependentGloss": "war"
        },
        {
          "dep": "neg",
          "governor": 5,
          "governorGloss": "war",
          "dependent": 6,
          "dependentGloss": "nicht"
        },
        {
          "dep": "case",
          "governor": 9,
          "governorGloss": "Hose",
          "dependent": 7,
          "dependentGloss": "mit"
        },
        {
          "dep": "det",
          "governor": 9,
          "governorGloss": "Hose",
          "dependent": 8,
          "dependentGloss": "seiner"
        },
        {
          "dep": "nmod",
          "governor": 12,
          "governorGloss": "gefangen",
          "dependent": 9,
          "dependentGloss": "Hose"
        },
        {
          "dep": "case",
          "governor": 12,
          "governorGloss": "gefangen",
          "dependent": 10,
          "dependentGloss": "nach"
        },
        {
          "dep": "advmod",
          "governor": 12,
          "governorGloss": "gefangen",
          "dependent": 11,
          "dependentGloss": "unten"
        }
      ],
      "tokens": [
        {
          "index": 1,
          "word": "Der",
          "originalText": "Der",
          "characterOffsetBegin": 0,
          "characterOffsetEnd": 3,
          "pos": "ART",
          "before": "",
          "after": " "
        },
        {
          "index": 2,
          "word": "Wetterkanal",
          "originalText": "Wetterkanal",
          "characterOffsetBegin": 4,
          "characterOffsetEnd": 15,
          "pos": "NN",
          "before": " ",
          "after": " "
        },
        {
          "index": 3,
          "word": "Mike",
          "originalText": "Mike",
          "characterOffsetBegin": 16,
          "characterOffsetEnd": 20,
          "pos": "NE",
          "before": " ",
          "after": " "
        },
        {
          "index": 4,
          "word": "Seidel",
          "originalText": "Seidel",
          "characterOffsetBegin": 21,
          "characterOffsetEnd": 27,
          "pos": "NE",
          "before": " ",
          "after": " "
        },
        {
          "index": 5,
          "word": "war",
          "originalText": "war",
          "characterOffsetBegin": 28,
          "characterOffsetEnd": 31,
          "pos": "VAFIN",
          "before": " ",
          "after": " "
        },
        {
          "index": 6,
          "word": "nicht",
          "originalText": "nicht",
          "characterOffsetBegin": 32,
          "characterOffsetEnd": 37,
          "pos": "PTKNEG",
          "before": " ",
          "after": " "
        },
        {
          "index": 7,
          "word": "mit",
          "originalText": "mit",
          "characterOffsetBegin": 38,
          "characterOffsetEnd": 41,
          "pos": "APPR",
          "before": " ",
          "after": " "
        },
        {
          "index": 8,
          "word": "seiner",
          "originalText": "seiner",
          "characterOffsetBegin": 42,
          "characterOffsetEnd": 48,
          "pos": "PPOSAT",
          "before": " ",
          "after": " "
        },
        {
          "index": 9,
          "word": "Hose",
          "originalText": "Hose",
          "characterOffsetBegin": 49,
          "characterOffsetEnd": 53,
          "pos": "NN",
          "before": " ",
          "after": " "
        },
        {
          "index": 10,
          "word": "nach",
          "originalText": "nach",
          "characterOffsetBegin": 54,
          "characterOffsetEnd": 58,
          "pos": "APPR",
          "before": " ",
          "after": " "
        },
        {
          "index": 11,
          "word": "unten",
          "originalText": "unten",
          "characterOffsetBegin": 59,
          "characterOffsetEnd": 64,
          "pos": "ADV",
          "before": " ",
          "after": " "
        },
        {
          "index": 12,
          "word": "gefangen",
          "originalText": "gefangen",
          "characterOffsetBegin": 65,
          "characterOffsetEnd": 73,
          "pos": "VVPP",
          "before": " ",
          "after": ""
        }
      ]
    }
  ]
}