{
  "sentences": [
    {
      "index": 0,
      "basicDependencies": [
        {
          "dep": "ROOT",
          "governor": 0,
          "governorGloss": "ROOT",
          "dependent": 3,
          "dependentGloss": "verweigert"
        },
        {
          "dep": "amod",
          "governor": 2,
          "governorGloss": "Polizei",
          "dependent": 1,
          "dependentGloss": "Met"
        },
        {
          "dep": "nsubj",
          "governor": 3,
          "governorGloss": "verweigert",
          "dependent": 2,
          "dependentGloss": "Polizei"
        },
        {
          "dep": "dobj",
          "governor": 3,
          "governorGloss": "verweigert",
          "dependent": 4,
          "dependentGloss": "Berichte"
        },
        {
          "dep": "case",
          "governor": 6,
          "governorGloss": "Banksy",
          "dependent": 5,
          "dependentGloss": "über"
        },
        {
          "dep": "nmod",
          "governor": 4,
          "governorGloss": "Berichte",
          "dependent": 6,
          "dependentGloss": "Banksy"
        },
        {
          "dep": "advmod",
          "governor": 3,
          "governorGloss": "verweigert",
          "dependent": 7,
          "dependentGloss": "Arrest"
        }
      ],
      "enhancedDependencies": [
        {
          "dep": "ROOT",
          "governor": 0,
          "governorGloss": "ROOT",
          "dependent": 3,
          "dependentGloss": "verweigert"
        },
        {
          "dep": "amod",
          "governor": 2,
          "governorGloss": "Polizei",
          "dependent": 1,
          "dependentGloss": "Met"
        },
        {
          "dep": "nsubj",
          "governor": 3,
          "governorGloss": "verweigert",
          "dependent": 2,
          "dependentGloss": "Polizei"
        },
        {
          "dep": "dobj",
          "governor": 3,
          "governorGloss": "verweigert",
          "dependent": 4,
          "dependentGloss": "Berichte"
        },
        {
          "dep": "case",
          "governor": 6,
          "governorGloss": "Banksy",
          "dependent": 5,
          "dependentGloss": "über"
        },
        {
          "dep": "nmod",
          "governor": 4,
          "governorGloss": "Berichte",
          "dependent": 6,
          "dependentGloss": "Banksy"
        },
        {
          "dep": "advmod",
          "governor": 3,
          "governorGloss": "verweigert",
          "dependent": 7,
          "dependentGloss": "Arrest"
        }
      ],
      "enhancedPlusPlusDependencies": [
        {
          "dep": "ROOT",
          "governor": 0,
          "governorGloss": "ROOT",
          "dependent": 3,
          "dependentGloss": "verweigert"
        },
        {
          "dep": "amod",
          "governor": 2,
          "governorGloss": "Polizei",
          "dependent": 1,
          "dependentGloss": "Met"
        },
        {
          "dep": "nsubj",
          "governor": 3,
          "governorGloss": "verweigert",
          "dependent": 2,
          "dependentGloss": "Polizei"
        },
        {
          "dep": "dobj",
          "governor": 3,
          "governorGloss": "verweigert",
          "dependent": 4,
          "dependentGloss": "Berichte"
        },
        {
          "dep": "case",
          "governor": 6,
          "governorGloss": "Banksy",
          "dependent": 5,
          "dependentGloss": "über"
        },
        {
          "dep": "nmod",
          "governor": 4,
          "governorGloss": "Berichte",
          "dependent": 6,
          "dependentGloss": "Banksy"
        },
        {
          "dep": "advmod",
          "governor": 3,
          "governorGloss": "verweigert",
          "dependent": 7,
          "dependentGloss": "Arrest"
        }
      ],
      "tokens": [
        {
          "index": 1,
          "word": "Met",
          "originalText": "Met",
          "characterOffsetBegin": 0,
          "characterOffsetEnd": 3,
          "pos": "PIDAT",
          "before": "",
          "after": " "
        },
        {
          "index": 2,
          "word": "Polizei",
          "originalText": "Polizei",
          "characterOffsetBegin": 4,
          "characterOffsetEnd": 11,
          "pos": "NN",
          "before": " ",
          "after": " "
        },
        {
          "index": 3,
          "word": "verweigert",
          "originalText": "verweigert",
          "characterOffsetBegin": 12,
          "characterOffsetEnd": 22,
          "pos": "VVFIN",
          "before": " ",
          "after": " "
        },
        {
          "index": 4,
          "word": "Berichte",
          "originalText": "Berichte",
          "characterOffsetBegin": 23,
          "characterOffsetEnd": 31,
          "pos": "NN",
          "before": " ",
          "after": " "
        },
        {
          "index": 5,
          "word": "über",
          "originalText": "über",
          "characterOffsetBegin": 32,
          "characterOffsetEnd": 36,
          "pos": "APPR",
          "before": " ",
          "after": " "
        },
        {
          "index": 6,
          "word": "Banksy",
          "originalText": "Banksy",
          "characterOffsetBegin": 37,
          "characterOffsetEnd": 43,
          "pos": "NE",
          "before": " ",
          "after": " "
        },
        {
          "index": 7,
          "word": "Arrest",
          "originalText": "Arrest",
          "characterOffsetBegin": 44,
          "characterOffsetEnd": 50,
          "pos": "NN",
          "before": " ",
          "after": ""
        }
      ]
    }
  ]
}