{
  "sentences": [
    {
      "index": 0,
      "basicDependencies": [
        {
          "dep": "ROOT",
          "governor": 0,
          "governorGloss": "ROOT",
          "dependent": 3,
          "dependentGloss": "behauptet"
        },
        {
          "dep": "advmod",
          "governor": 3,
          "governorGloss": "behauptet",
          "dependent": 1,
          "dependentGloss": "ISIS"
        },
        {
          "dep": "nsubj",
          "governor": 3,
          "governorGloss": "behauptet",
          "dependent": 2,
          "dependentGloss": "Video"
        },
        {
          "dep": "punct",
          "governor": 3,
          "governorGloss": "behauptet",
          "dependent": 4,
          "dependentGloss": ","
        },
        {
          "dep": "det",
          "governor": 6,
          "governorGloss": "Enthauptung",
          "dependent": 5,
          "dependentGloss": "die"
        },
        {
          "dep": "dobj",
          "governor": 11,
          "governorGloss": "zeigen",
          "dependent": 6,
          "dependentGloss": "Enthauptung"
        },
        {
          "dep": "det",
          "governor": 9,
          "governorGloss": "Geisel",
          "dependent": 7,
          "dependentGloss": "der"
        },
        {
          "dep": "amod",
          "governor": 9,
          "governorGloss": "Geisel",
          "dependent": 8,
          "dependentGloss": "britischen"
        },
        {
          "dep": "det",
          "governor": 6,
          "governorGloss": "Enthauptung",
          "dependent": 9,
          "dependentGloss": "Geisel"
        },
        {
          "dep": "aux",
          "governor": 11,
          "governorGloss": "zeigen",
          "dependent": 10,
          "dependentGloss": "zu"
        },
        {
          "dep": "xcomp",
          "governor": 3,
          "governorGloss": "behauptet",
          "dependent": 11,
          "dependentGloss": "zeigen"
        }
      ],
      "enhancedDependencies": [
        {
          "dep": "ROOT",
          "governor": 0,
          "governorGloss": "ROOT",
          "dependent": 3,
          "dependentGloss": "behauptet"
        },
        {
          "dep": "advmod",
          "governor": 3,
          "governorGloss": "behauptet",
          "dependent": 1,
          "dependentGloss": "ISIS"
        },
        {
          "dep": "nsubj",
          "governor": 3,
          "governorGloss": "behauptet",
          "dependent": 2,
          "dependentGloss": "Video"
        },
        {
          "dep": "punct",
          "governor": 3,
          "governorGloss": "behauptet",
          "dependent": 4,
          "dependentGloss": ","
        },
        {
          "dep": "det",
          "governor": 6,
          "governorGloss": "Enthauptung",
          "dependent": 5,
          "dependentGloss": "die"
        },
        {
          "dep": "dobj",
          "governor": 11,
          "governorGloss": "zeigen",
          "dependent": 6,
          "dependentGloss": "Enthauptung"
        },
        {
          "dep": "det",
          "governor": 9,
          "governorGloss": "Geisel",
          "dependent": 7,
          "dependentGloss": "der"
        },
        {
          "dep": "amod",
          "governor": 9,
          "governorGloss": "Geisel",
          "dependent": 8,
          "dependentGloss": "britischen"
        },
        {
          "dep": "det",
          "governor": 6,
          "governorGloss": "Enthauptung",
          "dependent": 9,
          "dependentGloss": "Geisel"
        },
        {
          "dep": "aux",
          "governor": 11,
          "governorGloss": "zeigen",
          "dependent": 10,
          "dependentGloss": "zu"
        },
        {
          "dep": "xcomp",
          "governor": 3,
          "governorGloss": "behauptet",
          "dependent": 11,
          "dependentGloss": "zeigen"
        }
      ],
      "enhancedPlusPlusDependencies": [
        {
          "dep": "ROOT",
          "governor": 0,
          "governorGloss": "ROOT",
          "dependent": 3,
          "dependentGloss": "behauptet"
        },
        {
          "dep": "advmod",
          "governor": 3,
          "governorGloss": "behauptet",
          "dependent": 1,
          "dependentGloss": "ISIS"
        },
        {
          "dep": "nsubj",
          "governor": 3,
          "governorGloss": "behauptet",
          "dependent": 2,
          "dependentGloss": "Video"
        },
        {
          "dep": "punct",
          "governor": 3,
          "governorGloss": "behauptet",
          "dependent": 4,
          "dependentGloss": ","
        },
        {
          "dep": "det",
          "governor": 6,
          "governorGloss": "Enthauptung",
          "dependent": 5,
          "dependentGloss": "die"
        },
        {
          "dep": "dobj",
          "governor": 11,
          "governorGloss": "zeigen",
          "dependent": 6,
          "dependentGloss": "Enthauptung"
        },
        {
          "dep": "det",
          "governor": 9,
          "governorGloss": "Geisel",
          "dependent": 7,
          "dependentGloss": "der"
        },
        {
          "dep": "amod",
          "governor": 9,
          "governorGloss": "Geisel",
          "dependent": 8,
          "dependentGloss": "britischen"
        },
        {
          "dep": "det",
          "governor": 6,
          "governorGloss": "Enthauptung",
          "dependent": 9,
          "dependentGloss": "Geisel"
        },
        {
          "dep": "aux",
          "governor": 11,
          "governorGloss": "zeigen",
          "dependent": 10,
          "dependentGloss": "zu"
        },
        {
          "dep": "xcomp",
          "governor": 3,
          "governorGloss": "behauptet",
          "dependent": 11,
          "dependentGloss": "zeigen"
        }
      ],
      "tokens": [
        {
          "index": 1,
          "word": "ISIS",
          "originalText": "ISIS",
          "characterOffsetBegin": 0,
          "characterOffsetEnd": 4,
          "pos": "NE",
          "before": "",
          "after": " "
        },
        {
          "index": 2,
          "word": "Video",
          "originalText": "Video",
          "characterOffsetBegin": 5,
          "characterOffsetEnd": 10,
          "pos": "NN",
          "before": " ",
          "after": " "
        },
        {
          "index": 3,
          "word": "behauptet",
          "originalText": "behauptet",
          "characterOffsetBegin": 11,
          "characterOffsetEnd": 20,
          "pos": "VVFIN",
          "before": " ",
          "after": ""
        },
        {
          "index": 4,
          "word": ",",
          "originalText": ",",
          "characterOffsetBegin": 20,
          "characterOffsetEnd": 21,
          "pos": "$,",
          "before": "",
          "after": " "
        },
        {
          "index": 5,
          "word": "die",
          "originalText": "die",
          "characterOffsetBegin": 22,
          "characterOffsetEnd": 25,
          "pos": "ART",
          "before": " ",
          "after": " "
        },
        {
          "index": 6,
          "word": "Enthauptung",
          "originalText": "Enthauptung",
          "characterOffsetBegin": 26,
          "characterOffsetEnd": 37,
          "pos": "NN",
          "before": " ",
          "after": " "
        },
        {
          "index": 7,
          "word": "der",
          "originalText": "der",
          "characterOffsetBegin": 38,
          "characterOffsetEnd": 41,
          "pos": "ART",
          "before": " ",
          "after": " "
        },
        {
          "index": 8,
          "word": "britischen",
          "originalText": "britischen",
          "characterOffsetBegin": 42,
          "characterOffsetEnd": 52,
          "pos": "ADJA",
          "before": " ",
          "after": " "
        },
        {
          "index": 9,
          "word": "Geisel",
          "originalText": "Geisel",
          "characterOffsetBegin": 53,
          "characterOffsetEnd": 59,
          "pos": "NN",
          "before": " ",
          "after": " "
        },
        {
          "index": 10,
          "word": "zu",
          "originalText": "zu",
          "characterOffsetBegin": 60,
          "characterOffsetEnd": 62,
          "pos": "PTKZU",
          "before": " ",
          "after": " "
        },
        {
          "index": 11,
          "word": "zeigen",
          "originalText": "zeigen",
          "characterOffsetBegin": 63,
          "characterOffsetEnd": 69,
          "pos": "VVINF",
          "before": " ",
          "after": ""
        }
      ]
    }
  ]
}