{
  "sentences": [
    {
      "index": 0,
      "basicDependencies": [
        {
          "dep": "ROOT",
          "governor": 0,
          "governorGloss": "ROOT",
          "dependent": 2,
          "dependentGloss": "Video"
        },
        {
          "dep": "name",
          "governor": 2,
          "governorGloss": "Video",
          "dependent": 1,
          "dependentGloss": "ISIS"
        },
        {
          "dep": "punct",
          "governor": 2,
          "governorGloss": "Video",
          "dependent": 3,
          "dependentGloss": ":"
        },
        {
          "dep": "appos",
          "governor": 2,
          "governorGloss": "Video",
          "dependent": 4,
          "dependentGloss": "Amerikas"
        },
        {
          "dep": "appos",
          "governor": 4,
          "governorGloss": "Amerikas",
          "dependent": 5,
          "dependentGloss": "Air"
        },
        {
          "dep": "amod",
          "governor": 7,
          "governorGloss": "Waffen",
          "dependent": 6,
          "dependentGloss": "dropped"
        },
        {
          "dep": "appos",
          "governor": 5,
          "governorGloss": "Air",
          "dependent": 7,
          "dependentGloss": "Waffen"
        },
        {
          "dep": "advmod",
          "governor": 11,
          "governorGloss": "Händen",
          "dependent": 8,
          "dependentGloss": "jetzt"
        },
        {
          "dep": "case",
          "governor": 11,
          "governorGloss": "Händen",
          "dependent": 9,
          "dependentGloss": "in"
        },
        {
          "dep": "det",
          "governor": 11,
          "governorGloss": "Händen",
          "dependent": 10,
          "dependentGloss": "unseren"
        },
        {
          "dep": "nmod",
          "governor": 7,
          "governorGloss": "Waffen",
          "dependent": 11,
          "dependentGloss": "Händen"
        }
      ],
      "enhancedDependencies": [
        {
          "dep": "ROOT",
          "governor": 0,
          "governorGloss": "ROOT",
          "dependent": 2,
          "dependentGloss": "Video"
        },
        {
          "dep": "name",
          "governor": 2,
          "governorGloss": "Video",
          "dependent": 1,
          "dependentGloss": "ISIS"
        },
        {
          "dep": "punct",
          "governor": 2,
          "governorGloss": "Video",
          "dependent": 3,
          "dependentGloss": ":"
        },
        {
          "dep": "appos",
          "governor": 2,
          "governorGloss": "Video",
          "dependent": 4,
          "dependentGloss": "Amerikas"
        },
        {
          "dep": "appos",
          "governor": 4,
          "governorGloss": "Amerikas",
          "dependent": 5,
          "dependentGloss": "Air"
        },
        {
          "dep": "amod",
          "governor": 7,
          "governorGloss": "Waffen",
          "dependent": 6,
          "dependentGloss": "dropped"
        },
        {
          "dep": "appos",
          "governor": 5,
          "governorGloss": "Air",
          "dependent": 7,
          "dependentGloss": "Waffen"
        },
        {
          "dep": "advmod",
          "governor": 11,
          "governorGloss": "Händen",
          "dependent": 8,
          "dependentGloss": "jetzt"
        },
        {
          "dep": "case",
          "governor": 11,
          "governorGloss": "Händen",
          "dependent": 9,
          "dependentGloss": "in"
        },
        {
          "dep": "det",
          "governor": 11,
          "governorGloss": "Händen",
          "dependent": 10,
          "dependentGloss": "unseren"
        },
        {
          "dep": "nmod",
          "governor": 7,
          "governorGloss": "Waffen",
          "dependent": 11,
          "dependentGloss": "Händen"
        }
      ],
      "enhancedPlusPlusDependencies": [
        {
          "dep": "ROOT",
          "governor": 0,
          "governorGloss": "ROOT",
          "dependent": 2,
          "dependentGloss": "Video"
        },
        {
          "dep": "name",
          "governor": 2,
          "governorGloss": "Video",
          "dependent": 1,
          "dependentGloss": "ISIS"
        },
        {
          "dep": "punct",
          "governor": 2,
          "governorGloss": "Video",
          "dependent": 3,
          "dependentGloss": ":"
        },
        {
          "dep": "appos",
          "governor": 2,
          "governorGloss": "Video",
          "dependent": 4,
          "dependentGloss": "Amerikas"
        },
        {
          "dep": "appos",
          "governor": 4,
          "governorGloss": "Amerikas",
          "dependent": 5,
          "dependentGloss": "Air"
        },
        {
          "dep": "amod",
          "governor": 7,
          "governorGloss": "Waffen",
          "dependent": 6,
          "dependentGloss": "dropped"
        },
        {
          "dep": "appos",
          "governor": 5,
          "governorGloss": "Air",
          "dependent": 7,
          "dependentGloss": "Waffen"
        },
        {
          "dep": "advmod",
          "governor": 11,
          "governorGloss": "Händen",
          "dependent": 8,
          "dependentGloss": "jetzt"
        },
        {
          "dep": "case",
          "governor": 11,
          "governorGloss": "Händen",
          "dependent": 9,
          "dependentGloss": "in"
        },
        {
          "dep": "det",
          "governor": 11,
          "governorGloss": "Händen",
          "dependent": 10,
          "dependentGloss": "unseren"
        },
        {
          "dep": "nmod",
          "governor": 7,
          "governorGloss": "Waffen",
          "dependent": 11,
          "dependentGloss": "Händen"
        }
      ],
      "tokens": [
        {
          "index": 1,
          "word": "ISIS",
          "originalText": "ISIS",
          "characterOffsetBegin": 0,
          "characterOffsetEnd": 4,
          "pos": "NE",
          "before": "",
          "after": " "
        },
        {
          "index": 2,
          "word": "Video",
          "originalText": "Video",
          "characterOffsetBegin": 5,
          "characterOffsetEnd": 10,
          "pos": "NN",
          "before": " ",
          "after": ""
        },
        {
          "index": 3,
          "word": ":",
          "originalText": ":",
          "characterOffsetBegin": 10,
          "characterOffsetEnd": 11,
          "pos": "$.",
          "before": "",
          "after": " "
        },
        {
          "index": 4,
          "word": "Amerikas",
          "originalText": "Amerikas",
          "characterOffsetBegin": 12,
          "characterOffsetEnd": 20,
          "pos": "NE",
          "before": " ",
          "after": " "
        },
        {
          "index": 5,
          "word": "Air",
          "originalText": "Air",
          "characterOffsetBegin": 21,
          "characterOffsetEnd": 24,
          "pos": "NE",
          "before": " ",
          "after": " "
        },
        {
          "index": 6,
          "word": "dropped",
          "originalText": "dropped",
          "characterOffsetBegin": 25,
          "characterOffsetEnd": 32,
          "pos": "ADJA",
          "before": " ",
          "after": " "
        },
        {
          "index": 7,
          "word": "Waffen",
          "originalText": "Waffen",
          "characterOffsetBegin": 33,
          "characterOffsetEnd": 39,
          "pos": "NN",
          "before": " ",
          "after": " "
        },
        {
          "index": 8,
          "word": "jetzt",
          "originalText": "jetzt",
          "characterOffsetBegin": 40,
          "characterOffsetEnd": 45,
          "pos": "ADV",
          "before": " ",
          "after": " "
        },
        {
          "index": 9,
          "word": "in",
          "originalText": "in",
          "characterOffsetBegin": 46,
          "characterOffsetEnd": 48,
          "pos": "APPR",
          "before": " ",
          "after": " "
        },
        {
          "index": 10,
          "word": "unseren",
          "originalText": "unseren",
          "characterOffsetBegin": 49,
          "characterOffsetEnd": 56,
          "pos": "PPOSAT",
          "before": " ",
          "after": " "
        },
        {
          "index": 11,
          "word": "Händen",
          "originalText": "Händen",
          "characterOffsetBegin": 57,
          "characterOffsetEnd": 63,
          "pos": "NN",
          "before": " ",
          "after": ""
        }
      ]
    }
  ]
}