{
  "sentences": [
    {
      "index": 0,
      "basicDependencies": [
        {
          "dep": "ROOT",
          "governor": 0,
          "governorGloss": "ROOT",
          "dependent": 5,
          "dependentGloss": "verbrachte"
        },
        {
          "dep": "det",
          "governor": 4,
          "governorGloss": "Mann",
          "dependent": 1,
          "dependentGloss": "Ein"
        },
        {
          "dep": "advmod",
          "governor": 3,
          "governorGloss": "hingebungsvoller",
          "dependent": 2,
          "dependentGloss": "wirklich"
        },
        {
          "dep": "amod",
          "governor": 4,
          "governorGloss": "Mann",
          "dependent": 3,
          "dependentGloss": "hingebungsvoller"
        },
        {
          "dep": "nsubj",
          "governor": 5,
          "governorGloss": "verbrachte",
          "dependent": 4,
          "dependentGloss": "Mann"
        },
        {
          "dep": "dobj",
          "governor": 5,
          "governorGloss": "verbrachte",
          "dependent": 6,
          "dependentGloss": "$"
        },
        {
          "dep": "appos",
          "governor": 6,
          "governorGloss": "$",
          "dependent": 7,
          "dependentGloss": "460"
        },
        {
          "dep": "case",
          "governor": 9,
          "governorGloss": "Chirurgie",
          "dependent": 8,
          "dependentGloss": "auf"
        },
        {
          "dep": "nmod",
          "governor": 5,
          "governorGloss": "verbrachte",
          "dependent": 9,
          "dependentGloss": "Chirurgie"
        },
        {
          "dep": "case",
          "governor": 13,
          "governorGloss": "Goldfisch",
          "dependent": 10,
          "dependentGloss": "für"
        },
        {
          "dep": "det",
          "governor": 13,
          "governorGloss": "Goldfisch",
          "dependent": 11,
          "dependentGloss": "seinen"
        },
        {
          "dep": "amod",
          "governor": 13,
          "governorGloss": "Goldfisch",
          "dependent": 12,
          "dependentGloss": "verstopften"
        },
        {
          "dep": "nmod",
          "governor": 5,
          "governorGloss": "verbrachte",
          "dependent": 13,
          "dependentGloss": "Goldfisch"
        }
      ],
      "enhancedDependencies": [
        {
          "dep": "ROOT",
          "governor": 0,
          "governorGloss": "ROOT",
          "dependent": 5,
          "dependentGloss": "verbrachte"
        },
        {
          "dep": "det",
          "governor": 4,
          "governorGloss": "Mann",
          "dependent": 1,
          "dependentGloss": "Ein"
        },
        {
          "dep": "advmod",
          "governor": 3,
          "governorGloss": "hingebungsvoller",
          "dependent": 2,
          "dependentGloss": "wirklich"
        },
        {
          "dep": "amod",
          "governor": 4,
          "governorGloss": "Mann",
          "dependent": 3,
          "dependentGloss": "hingebungsvoller"
        },
        {
          "dep": "nsubj",
          "governor": 5,
          "governorGloss": "verbrachte",
          "dependent": 4,
          "dependentGloss": "Mann"
        },
        {
          "dep": "dobj",
          "governor": 5,
          "governorGloss": "verbrachte",
          "dependent": 6,
          "dependentGloss": "$"
        },
        {
          "dep": "appos",
          "governor": 6,
          "governorGloss": "$",
          "dependent": 7,
          "dependentGloss": "460"
        },
        {
          "dep": "case",
          "governor": 9,
          "governorGloss": "Chirurgie",
          "dependent": 8,
          "dependentGloss": "auf"
        },
        {
          "dep": "nmod",
          "governor": 5,
          "governorGloss": "verbrachte",
          "dependent": 9,
          "dependentGloss": "Chirurgie"
        },
        {
          "dep": "case",
          "governor": 13,
          "governorGloss": "Goldfisch",
          "dependent": 10,
          "dependentGloss": "für"
        },
        {
          "dep": "det",
          "governor": 13,
          "governorGloss": "Goldfisch",
          "dependent": 11,
          "dependentGloss": "seinen"
        },
        {
          "dep": "amod",
          "governor": 13,
          "governorGloss": "Goldfisch",
          "dependent": 12,
          "dependentGloss": "verstopften"
        },
        {
          "dep": "nmod",
          "governor": 5,
          "governorGloss": "verbrachte",
          "dependent": 13,
          "dependentGloss": "Goldfisch"
        }
      ],
      "enhancedPlusPlusDependencies": [
        {
          "dep": "ROOT",
          "governor": 0,
          "governorGloss": "ROOT",
          "dependent": 5,
          "dependentGloss": "verbrachte"
        },
        {
          "dep": "det",
          "governor": 4,
          "governorGloss": "Mann",
          "dependent": 1,
          "dependentGloss": "Ein"
        },
        {
          "dep": "advmod",
          "governor": 3,
          "governorGloss": "hingebungsvoller",
          "dependent": 2,
          "dependentGloss": "wirklich"
        },
        {
          "dep": "amod",
          "governor": 4,
          "governorGloss": "Mann",
          "dependent": 3,
          "dependentGloss": "hingebungsvoller"
        },
        {
          "dep": "nsubj",
          "governor": 5,
          "governorGloss": "verbrachte",
          "dependent": 4,
          "dependentGloss": "Mann"
        },
        {
          "dep": "dobj",
          "governor": 5,
          "governorGloss": "verbrachte",
          "dependent": 6,
          "dependentGloss": "$"
        },
        {
          "dep": "appos",
          "governor": 6,
          "governorGloss": "$",
          "dependent": 7,
          "dependentGloss": "460"
        },
        {
          "dep": "case",
          "governor": 9,
          "governorGloss": "Chirurgie",
          "dependent": 8,
          "dependentGloss": "auf"
        },
        {
          "dep": "nmod",
          "governor": 5,
          "governorGloss": "verbrachte",
          "dependent": 9,
          "dependentGloss": "Chirurgie"
        },
        {
          "dep": "case",
          "governor": 13,
          "governorGloss": "Goldfisch",
          "dependent": 10,
          "dependentGloss": "für"
        },
        {
          "dep": "det",
          "governor": 13,
          "governorGloss": "Goldfisch",
          "dependent": 11,
          "dependentGloss": "seinen"
        },
        {
          "dep": "amod",
          "governor": 13,
          "governorGloss": "Goldfisch",
          "dependent": 12,
          "dependentGloss": "verstopften"
        },
        {
          "dep": "nmod",
          "governor": 5,
          "governorGloss": "verbrachte",
          "dependent": 13,
          "dependentGloss": "Goldfisch"
        }
      ],
      "tokens": [
        {
          "index": 1,
          "word": "Ein",
          "originalText": "Ein",
          "characterOffsetBegin": 0,
          "characterOffsetEnd": 3,
          "pos": "ART",
          "before": "",
          "after": " "
        },
        {
          "index": 2,
          "word": "wirklich",
          "originalText": "wirklich",
          "characterOffsetBegin": 4,
          "characterOffsetEnd": 12,
          "pos": "ADJD",
          "before": " ",
          "after": " "
        },
        {
          "index": 3,
          "word": "hingebungsvoller",
          "originalText": "hingebungsvoller",
          "characterOffsetBegin": 13,
          "characterOffsetEnd": 29,
          "pos": "ADJA",
          "before": " ",
          "after": " "
        },
        {
          "index": 4,
          "word": "Mann",
          "originalText": "Mann",
          "characterOffsetBegin": 30,
          "characterOffsetEnd": 34,
          "pos": "NN",
          "before": " ",
          "after": " "
        },
        {
          "index": 5,
          "word": "verbrachte",
          "originalText": "verbrachte",
          "characterOffsetBegin": 35,
          "characterOffsetEnd": 45,
          "pos": "VVFIN",
          "before": " ",
          "after": " "
        },
        {
          "index": 6,
          "word": "$",
          "originalText": "$",
          "characterOffsetBegin": 46,
          "characterOffsetEnd": 47,
          "pos": "XY",
          "before": " ",
          "after": " "
        },
        {
          "index": 7,
          "word": "460",
          "originalText": "460",
          "characterOffsetBegin": 48,
          "characterOffsetEnd": 51,
          "pos": "CARD",
          "before": " ",
          "after": " "
        },
        {
          "index": 8,
          "word": "auf",
          "originalText": "auf",
          "characterOffsetBegin": 52,
          "characterOffsetEnd": 55,
          "pos": "APPR",
          "before": " ",
          "after": " "
        },
        {
          "index": 9,
          "word": "Chirurgie",
          "originalText": "Chirurgie",
          "characterOffsetBegin": 56,
          "characterOffsetEnd": 65,
          "pos": "NN",
          "before": " ",
          "after": " "
        },
        {
          "index": 10,
          "word": "für",
          "originalText": "für",
          "characterOffsetBegin": 66,
          "characterOffsetEnd": 69,
          "pos": "APPR",
          "before": " ",
          "after": " "
        },
        {
          "index": 11,
          "word": "seinen",
          "originalText": "seinen",
          "characterOffsetBegin": 70,
          "characterOffsetEnd": 76,
          "pos": "PPOSAT",
          "before": " ",
          "after": " "
        },
        {
          "index": 12,
          "word": "verstopften",
          "originalText": "verstopften",
          "characterOffsetBegin": 77,
          "characterOffsetEnd": 88,
          "pos": "ADJA",
          "before": " ",
          "after": " "
        },
        {
          "index": 13,
          "word": "Goldfisch",
          "originalText": "Goldfisch",
          "characterOffsetBegin": 89,
          "characterOffsetEnd": 98,
          "pos": "NN",
          "before": " ",
          "after": ""
        }
      ]
    }
  ]
}