{
  "sentences": [
    {
      "index": 0,
      "basicDependencies": [
        {
          "dep": "ROOT",
          "governor": 0,
          "governorGloss": "ROOT",
          "dependent": 1,
          "dependentGloss": "Google"
        },
        {
          "dep": "punct",
          "governor": 1,
          "governorGloss": "Google",
          "dependent": 2,
          "dependentGloss": ","
        },
        {
          "dep": "case",
          "governor": 5,
          "governorGloss": "Stücke",
          "dependent": 3,
          "dependentGloss": "um"
        },
        {
          "dep": "amod",
          "governor": 5,
          "governorGloss": "Stücke",
          "dependent": 4,
          "dependentGloss": "große"
        },
        {
          "dep": "nmod",
          "governor": 16,
          "governorGloss": "kaufen",
          "dependent": 5,
          "dependentGloss": "Stücke"
        },
        {
          "dep": "case",
          "governor": 8,
          "governorGloss": "Shores",
          "dependent": 6,
          "dependentGloss": "von"
        },
        {
          "dep": "amod",
          "governor": 8,
          "governorGloss": "Shores",
          "dependent": 7,
          "dependentGloss": "Pacific"
        },
        {
          "dep": "nmod",
          "governor": 16,
          "governorGloss": "kaufen",
          "dependent": 8,
          "dependentGloss": "Shores"
        },
        {
          "dep": "punct",
          "governor": 8,
          "governorGloss": "Shores",
          "dependent": 9,
          "dependentGloss": ","
        },
        {
          "dep": "name",
          "governor": 14,
          "governorGloss": "Park",
          "dependent": 10,
          "dependentGloss": "ikonischen"
        },
        {
          "dep": "name",
          "governor": 14,
          "governorGloss": "Park",
          "dependent": 11,
          "dependentGloss": "Redwood"
        },
        {
          "dep": "name",
          "governor": 14,
          "governorGloss": "Park",
          "dependent": 12,
          "dependentGloss": "City"
        },
        {
          "dep": "name",
          "governor": 14,
          "governorGloss": "Park",
          "dependent": 13,
          "dependentGloss": "Büro"
        },
        {
          "dep": "appos",
          "governor": 8,
          "governorGloss": "Shores",
          "dependent": 14,
          "dependentGloss": "Park"
        },
        {
          "dep": "aux",
          "governor": 16,
          "governorGloss": "kaufen",
          "dependent": 15,
          "dependentGloss": "zu"
        },
        {
          "dep": "acl",
          "governor": 1,
          "governorGloss": "Google",
          "dependent": 16,
          "dependentGloss": "kaufen"
        }
      ],
      "enhancedDependencies": [
        {
          "dep": "ROOT",
          "governor": 0,
          "governorGloss": "ROOT",
          "dependent": 1,
          "dependentGloss": "Google"
        },
        {
          "dep": "punct",
          "governor": 1,
          "governorGloss": "Google",
          "dependent": 2,
          "dependentGloss": ","
        },
        {
          "dep": "case",
          "governor": 5,
          "governorGloss": "Stücke",
          "dependent": 3,
          "dependentGloss": "um"
        },
        {
          "dep": "amod",
          "governor": 5,
          "governorGloss": "Stücke",
          "dependent": 4,
          "dependentGloss": "große"
        },
        {
          "dep": "nmod",
          "governor": 16,
          "governorGloss": "kaufen",
          "dependent": 5,
          "dependentGloss": "Stücke"
        },
        {
          "dep": "case",
          "governor": 8,
          "governorGloss": "Shores",
          "dependent": 6,
          "dependentGloss": "von"
        },
        {
          "dep": "amod",
          "governor": 8,
          "governorGloss": "Shores",
          "dependent": 7,
          "dependentGloss": "Pacific"
        },
        {
          "dep": "nmod",
          "governor": 16,
          "governorGloss": "kaufen",
          "dependent": 8,
          "dependentGloss": "Shores"
        },
        {
          "dep": "punct",
          "governor": 8,
          "governorGloss": "Shores",
          "dependent": 9,
          "dependentGloss": ","
        },
        {
          "dep": "name",
          "governor": 14,
          "governorGloss": "Park",
          "dependent": 10,
          "dependentGloss": "ikonischen"
        },
        {
          "dep": "name",
          "governor": 14,
          "governorGloss": "Park",
          "dependent": 11,
          "dependentGloss": "Redwood"
        },
        {
          "dep": "name",
          "governor": 14,
          "governorGloss": "Park",
          "dependent": 12,
          "dependentGloss": "City"
        },
        {
          "dep": "name",
          "governor": 14,
          "governorGloss": "Park",
          "dependent": 13,
          "dependentGloss": "Büro"
        },
        {
          "dep": "appos",
          "governor": 8,
          "governorGloss": "Shores",
          "dependent": 14,
          "dependentGloss": "Park"
        },
        {
          "dep": "aux",
          "governor": 16,
          "governorGloss": "kaufen",
          "dependent": 15,
          "dependentGloss": "zu"
        },
        {
          "dep": "acl",
          "governor": 1,
          "governorGloss": "Google",
          "dependent": 16,
          "dependentGloss": "kaufen"
        }
      ],
      "enhancedPlusPlusDependencies": [
        {
          "dep": "ROOT",
          "governor": 0,
          "governorGloss": "ROOT",
          "dependent": 1,
          "dependentGloss": "Google"
        },
        {
          "dep": "punct",
          "governor": 1,
          "governorGloss": "Google",
          "dependent": 2,
          "dependentGloss": ","
        },
        {
          "dep": "case",
          "governor": 5,
          "governorGloss": "Stücke",
          "dependent": 3,
          "dependentGloss": "um"
        },
        {
          "dep": "amod",
          "governor": 5,
          "governorGloss": "Stücke",
          "dependent": 4,
          "dependentGloss": "große"
        },
        {
          "dep": "nmod",
          "governor": 16,
          "governorGloss": "kaufen",
          "dependent": 5,
          "dependentGloss": "Stücke"
        },
        {
          "dep": "case",
          "governor": 8,
          "governorGloss": "Shores",
          "dependent": 6,
          "dependentGloss": "von"
        },
        {
          "dep": "amod",
          "governor": 8,
          "governorGloss": "Shores",
          "dependent": 7,
          "dependentGloss": "Pacific"
        },
        {
          "dep": "nmod",
          "governor": 16,
          "governorGloss": "kaufen",
          "dependent": 8,
          "dependentGloss": "Shores"
        },
        {
          "dep": "punct",
          "governor": 8,
          "governorGloss": "Shores",
          "dependent": 9,
          "dependentGloss": ","
        },
        {
          "dep": "name",
          "governor": 14,
          "governorGloss": "Park",
          "dependent": 10,
          "dependentGloss": "ikonischen"
        },
        {
          "dep": "name",
          "governor": 14,
          "governorGloss": "Park",
          "dependent": 11,
          "dependentGloss": "Redwood"
        },
        {
          "dep": "name",
          "governor": 14,
          "governorGloss": "Park",
          "dependent": 12,
          "dependentGloss": "City"
        },
        {
          "dep": "name",
          "governor": 14,
          "governorGloss": "Park",
          "dependent": 13,
          "dependentGloss": "Büro"
        },
        {
          "dep": "appos",
          "governor": 8,
          "governorGloss": "Shores",
          "dependent": 14,
          "dependentGloss": "Park"
        },
        {
          "dep": "aux",
          "governor": 16,
          "governorGloss": "kaufen",
          "dependent": 15,
          "dependentGloss": "zu"
        },
        {
          "dep": "acl",
          "governor": 1,
          "governorGloss": "Google",
          "dependent": 16,
          "dependentGloss": "kaufen"
        }
      ],
      "tokens": [
        {
          "index": 1,
          "word": "Google",
          "originalText": "Google",
          "characterOffsetBegin": 0,
          "characterOffsetEnd": 6,
          "pos": "NE",
          "before": "",
          "after": ""
        },
        {
          "index": 2,
          "word": ",",
          "originalText": ",",
          "characterOffsetBegin": 6,
          "characterOffsetEnd": 7,
          "pos": "$,",
          "before": "",
          "after": " "
        },
        {
          "index": 3,
          "word": "um",
          "originalText": "um",
          "characterOffsetBegin": 8,
          "characterOffsetEnd": 10,
          "pos": "APPR",
          "before": " ",
          "after": " "
        },
        {
          "index": 4,
          "word": "große",
          "originalText": "große",
          "characterOffsetBegin": 11,
          "characterOffsetEnd": 16,
          "pos": "ADJA",
          "before": " ",
          "after": " "
        },
        {
          "index": 5,
          "word": "Stücke",
          "originalText": "Stücke",
          "characterOffsetBegin": 17,
          "characterOffsetEnd": 23,
          "pos": "NN",
          "before": " ",
          "after": " "
        },
        {
          "index": 6,
          "word": "von",
          "originalText": "von",
          "characterOffsetBegin": 24,
          "characterOffsetEnd": 27,
          "pos": "APPR",
          "before": " ",
          "after": " "
        },
        {
          "index": 7,
          "word": "Pacific",
          "originalText": "Pacific",
          "characterOffsetBegin": 28,
          "characterOffsetEnd": 35,
          "pos": "NE",
          "before": " ",
          "after": " "
        },
        {
          "index": 8,
          "word": "Shores",
          "originalText": "Shores",
          "characterOffsetBegin": 36,
          "characterOffsetEnd": 42,
          "pos": "NE",
          "before": " ",
          "after": ""
        },
        {
          "index": 9,
          "word": ",",
          "originalText": ",",
          "characterOffsetBegin": 42,
          "characterOffsetEnd": 43,
          "pos": "$,",
          "before": "",
          "after": " "
        },
        {
          "index": 10,
          "word": "ikonischen",
          "originalText": "ikonischen",
          "characterOffsetBegin": 44,
          "characterOffsetEnd": 54,
          "pos": "ADJA",
          "before": " ",
          "after": " "
        },
        {
          "index": 11,
          "word": "Redwood",
          "originalText": "Redwood",
          "characterOffsetBegin": 55,
          "characterOffsetEnd": 62,
          "pos": "NN",
          "before": " ",
          "after": " "
        },
        {
          "index": 12,
          "word": "City",
          "originalText": "City",
          "characterOffsetBegin": 63,
          "characterOffsetEnd": 67,
          "pos": "NE",
          "before": " ",
          "after": " "
        },
        {
          "index": 13,
          "word": "Büro",
          "originalText": "Büro",
          "characterOffsetBegin": 68,
          "characterOffsetEnd": 72,
          "pos": "NN",
          "before": " ",
          "after": " "
        },
        {
          "index": 14,
          "word": "Park",
          "originalText": "Park",
          "characterOffsetBegin": 73,
          "characterOffsetEnd": 77,
          "pos": "NN",
          "before": " ",
          "after": " "
        },
        {
          "index": 15,
          "word": "zu",
          "originalText": "zu",
          "characterOffsetBegin": 78,
          "characterOffsetEnd": 80,
          "pos": "PTKZU",
          "before": " ",
          "after": " "
        },
        {
          "index": 16,
          "word": "kaufen",
          "originalText": "kaufen",
          "characterOffsetBegin": 81,
          "characterOffsetEnd": 87,
          "pos": "VVINF",
          "before": " ",
          "after": ""
        }
      ]
    }
  ]
}