{
  "sentences": [
    {
      "index": 0,
      "basicDependencies": [
        {
          "dep": "ROOT",
          "governor": 0,
          "governorGloss": "ROOT",
          "dependent": 11,
          "dependentGloss": "Kämpferjets"
        },
        {
          "dep": "det",
          "governor": 3,
          "governorGloss": "Staat",
          "dependent": 1,
          "dependentGloss": "Der"
        },
        {
          "dep": "amod",
          "governor": 3,
          "governorGloss": "Staat",
          "dependent": 2,
          "dependentGloss": "islamische"
        },
        {
          "dep": "nsubj",
          "governor": 11,
          "governorGloss": "Kämpferjets",
          "dependent": 3,
          "dependentGloss": "Staat"
        },
        {
          "dep": "aux",
          "governor": 11,
          "governorGloss": "Kämpferjets",
          "dependent": 4,
          "dependentGloss": "kann"
        },
        {
          "dep": "case",
          "governor": 7,
          "governorGloss": "Ergreifen",
          "dependent": 5,
          "dependentGloss": "nach"
        },
        {
          "dep": "det",
          "governor": 7,
          "governorGloss": "Ergreifen",
          "dependent": 6,
          "dependentGloss": "dem"
        },
        {
          "dep": "nmod",
          "governor": 11,
          "governorGloss": "Kämpferjets",
          "dependent": 7,
          "dependentGloss": "Ergreifen"
        },
        {
          "dep": "case",
          "governor": 10,
          "governorGloss": "MiGs",
          "dependent": 8,
          "dependentGloss": "von"
        },
        {
          "dep": "amod",
          "governor": 10,
          "governorGloss": "MiGs",
          "dependent": 9,
          "dependentGloss": "russisch-gemischten"
        },
        {
          "dep": "nmod",
          "governor": 7,
          "governorGloss": "Ergreifen",
          "dependent": 10,
          "dependentGloss": "MiGs"
        },
        {
          "dep": "punct",
          "governor": 11,
          "governorGloss": "Kämpferjets",
          "dependent": 12,
          "dependentGloss": "haben"
        }
      ],
      "enhancedDependencies": [
        {
          "dep": "ROOT",
          "governor": 0,
          "governorGloss": "ROOT",
          "dependent": 11,
          "dependentGloss": "Kämpferjets"
        },
        {
          "dep": "det",
          "governor": 3,
          "governorGloss": "Staat",
          "dependent": 1,
          "dependentGloss": "Der"
        },
        {
          "dep": "amod",
          "governor": 3,
          "governorGloss": "Staat",
          "dependent": 2,
          "dependentGloss": "islamische"
        },
        {
          "dep": "nsubj",
          "governor": 11,
          "governorGloss": "Kämpferjets",
          "dependent": 3,
          "dependentGloss": "Staat"
        },
        {
          "dep": "aux",
          "governor": 11,
          "governorGloss": "Kämpferjets",
          "dependent": 4,
          "dependentGloss": "kann"
        },
        {
          "dep": "case",
          "governor": 7,
          "governorGloss": "Ergreifen",
          "dependent": 5,
          "dependentGloss": "nach"
        },
        {
          "dep": "det",
          "governor": 7,
          "governorGloss": "Ergreifen",
          "dependent": 6,
          "dependentGloss": "dem"
        },
        {
          "dep": "nmod",
          "governor": 11,
          "governorGloss": "Kämpferjets",
          "dependent": 7,
          "dependentGloss": "Ergreifen"
        },
        {
          "dep": "case",
          "governor": 10,
          "governorGloss": "MiGs",
          "dependent": 8,
          "dependentGloss": "von"
        },
        {
          "dep": "amod",
          "governor": 10,
          "governorGloss": "MiGs",
          "dependent": 9,
          "dependentGloss": "russisch-gemischten"
        },
        {
          "dep": "nmod",
          "governor": 7,
          "governorGloss": "Ergreifen",
          "dependent": 10,
          "dependentGloss": "MiGs"
        },
        {
          "dep": "punct",
          "governor": 11,
          "governorGloss": "Kämpferjets",
          "dependent": 12,
          "dependentGloss": "haben"
        }
      ],
      "enhancedPlusPlusDependencies": [
        {
          "dep": "ROOT",
          "governor": 0,
          "governorGloss": "ROOT",
          "dependent": 11,
          "dependentGloss": "Kämpferjets"
        },
        {
          "dep": "det",
          "governor": 3,
          "governorGloss": "Staat",
          "dependent": 1,
          "dependentGloss": "Der"
        },
        {
          "dep": "amod",
          "governor": 3,
          "governorGloss": "Staat",
          "dependent": 2,
          "dependentGloss": "islamische"
        },
        {
          "dep": "nsubj",
          "governor": 11,
          "governorGloss": "Kämpferjets",
          "dependent": 3,
          "dependentGloss": "Staat"
        },
        {
          "dep": "aux",
          "governor": 11,
          "governorGloss": "Kämpferjets",
          "dependent": 4,
          "dependentGloss": "kann"
        },
        {
          "dep": "case",
          "governor": 7,
          "governorGloss": "Ergreifen",
          "dependent": 5,
          "dependentGloss": "nach"
        },
        {
          "dep": "det",
          "governor": 7,
          "governorGloss": "Ergreifen",
          "dependent": 6,
          "dependentGloss": "dem"
        },
        {
          "dep": "nmod",
          "governor": 11,
          "governorGloss": "Kämpferjets",
          "dependent": 7,
          "dependentGloss": "Ergreifen"
        },
        {
          "dep": "case",
          "governor": 10,
          "governorGloss": "MiGs",
          "dependent": 8,
          "dependentGloss": "von"
        },
        {
          "dep": "amod",
          "governor": 10,
          "governorGloss": "MiGs",
          "dependent": 9,
          "dependentGloss": "russisch-gemischten"
        },
        {
          "dep": "nmod",
          "governor": 7,
          "governorGloss": "Ergreifen",
          "dependent": 10,
          "dependentGloss": "MiGs"
        },
        {
          "dep": "punct",
          "governor": 11,
          "governorGloss": "Kämpferjets",
          "dependent": 12,
          "dependentGloss": "haben"
        }
      ],
      "tokens": [
        {
          "index": 1,
          "word": "Der",
          "originalText": "Der",
          "characterOffsetBegin": 0,
          "characterOffsetEnd": 3,
          "pos": "ART",
          "before": "",
          "after": " "
        },
        {
          "index": 2,
          "word": "islamische",
          "originalText": "islamische",
          "characterOffsetBegin": 4,
          "characterOffsetEnd": 14,
          "pos": "ADJA",
          "before": " ",
          "after": " "
        },
        {
          "index": 3,
          "word": "Staat",
          "originalText": "Staat",
          "characterOffsetBegin": 15,
          "characterOffsetEnd": 20,
          "pos": "NN",
          "before": " ",
          "after": " "
        },
        {
          "index": 4,
          "word": "kann",
          "originalText": "kann",
          "characterOffsetBegin": 21,
          "characterOffsetEnd": 25,
          "pos": "VMFIN",
          "before": " ",
          "after": " "
        },
        {
          "index": 5,
          "word": "nach",
          "originalText": "nach",
          "characterOffsetBegin": 26,
          "characterOffsetEnd": 30,
          "pos": "APPR",
          "before": " ",
          "after": " "
        },
        {
          "index": 6,
          "word": "dem",
          "originalText": "dem",
          "characterOffsetBegin": 31,
          "characterOffsetEnd": 34,
          "pos": "ART",
          "before": " ",
          "after": " "
        },
        {
          "index": 7,
          "word": "Ergreifen",
          "originalText": "Ergreifen",
          "characterOffsetBegin": 35,
          "characterOffsetEnd": 44,
          "pos": "NN",
          "before": " ",
          "after": " "
        },
        {
          "index": 8,
          "word": "von",
          "originalText": "von",
          "characterOffsetBegin": 45,
          "characterOffsetEnd": 48,
          "pos": "APPR",
          "before": " ",
          "after": " "
        },
        {
          "index": 9,
          "word": "russisch-gemischten",
          "originalText": "russisch-gemischten",
          "characterOffsetBegin": 49,
          "characterOffsetEnd": 68,
          "pos": "ADJA",
          "before": " ",
          "after": " "
        },
        {
          "index": 10,
          "word": "MiGs",
          "originalText": "MiGs",
          "characterOffsetBegin": 69,
          "characterOffsetEnd": 73,
          "pos": "NN",
          "before": " ",
          "after": " "
        },
        {
          "index": 11,
          "word": "Kämpferjets",
          "originalText": "Kämpferjets",
          "characterOffsetBegin": 74,
          "characterOffsetEnd": 85,
          "pos": "NN",
          "before": " ",
          "after": " "
        },
        {
          "index": 12,
          "word": "haben",
          "originalText": "haben",
          "characterOffsetBegin": 86,
          "characterOffsetEnd": 91,
          "pos": "VAFIN",
          "before": " ",
          "after": ""
        }
      ]
    }
  ]
}