{
  "sentences": [
    {
      "index": 0,
      "basicDependencies": [
        {
          "dep": "ROOT",
          "governor": 0,
          "governorGloss": "ROOT",
          "dependent": 3,
          "dependentGloss": "abgebrochen"
        },
        {
          "dep": "nsubj",
          "governor": 3,
          "governorGloss": "abgebrochen",
          "dependent": 1,
          "dependentGloss": "Weihnachten"
        },
        {
          "dep": "cop",
          "governor": 3,
          "governorGloss": "abgebrochen",
          "dependent": 2,
          "dependentGloss": "ist"
        },
        {
          "dep": "punct",
          "governor": 3,
          "governorGloss": "abgebrochen",
          "dependent": 4,
          "dependentGloss": ":"
        },
        {
          "dep": "amod",
          "governor": 7,
          "governorGloss": "Kondome",
          "dependent": 5,
          "dependentGloss": "Kürbis"
        },
        {
          "dep": "amod",
          "governor": 7,
          "governorGloss": "Kondome",
          "dependent": 6,
          "dependentGloss": "Gewürz"
        },
        {
          "dep": "nsubj",
          "governor": 11,
          "governorGloss": "Hoax",
          "dependent": 7,
          "dependentGloss": "Kondome"
        },
        {
          "dep": "cop",
          "governor": 11,
          "governorGloss": "Hoax",
          "dependent": 8,
          "dependentGloss": "sind"
        },
        {
          "dep": "det",
          "governor": 11,
          "governorGloss": "Hoax",
          "dependent": 9,
          "dependentGloss": "ein"
        },
        {
          "dep": "amod",
          "governor": 11,
          "governorGloss": "Hoax",
          "dependent": 10,
          "dependentGloss": "verdammter"
        },
        {
          "dep": "parataxis",
          "governor": 3,
          "governorGloss": "abgebrochen",
          "dependent": 11,
          "dependentGloss": "Hoax"
        }
      ],
      "enhancedDependencies": [
        {
          "dep": "ROOT",
          "governor": 0,
          "governorGloss": "ROOT",
          "dependent": 3,
          "dependentGloss": "abgebrochen"
        },
        {
          "dep": "nsubj",
          "governor": 3,
          "governorGloss": "abgebrochen",
          "dependent": 1,
          "dependentGloss": "Weihnachten"
        },
        {
          "dep": "cop",
          "governor": 3,
          "governorGloss": "abgebrochen",
          "dependent": 2,
          "dependentGloss": "ist"
        },
        {
          "dep": "punct",
          "governor": 3,
          "governorGloss": "abgebrochen",
          "dependent": 4,
          "dependentGloss": ":"
        },
        {
          "dep": "amod",
          "governor": 7,
          "governorGloss": "Kondome",
          "dependent": 5,
          "dependentGloss": "Kürbis"
        },
        {
          "dep": "amod",
          "governor": 7,
          "governorGloss": "Kondome",
          "dependent": 6,
          "dependentGloss": "Gewürz"
        },
        {
          "dep": "nsubj",
          "governor": 11,
          "governorGloss": "Hoax",
          "dependent": 7,
          "dependentGloss": "Kondome"
        },
        {
          "dep": "cop",
          "governor": 11,
          "governorGloss": "Hoax",
          "dependent": 8,
          "dependentGloss": "sind"
        },
        {
          "dep": "det",
          "governor": 11,
          "governorGloss": "Hoax",
          "dependent": 9,
          "dependentGloss": "ein"
        },
        {
          "dep": "amod",
          "governor": 11,
          "governorGloss": "Hoax",
          "dependent": 10,
          "dependentGloss": "verdammter"
        },
        {
          "dep": "parataxis",
          "governor": 3,
          "governorGloss": "abgebrochen",
          "dependent": 11,
          "dependentGloss": "Hoax"
        }
      ],
      "enhancedPlusPlusDependencies": [
        {
          "dep": "ROOT",
          "governor": 0,
          "governorGloss": "ROOT",
          "dependent": 3,
          "dependentGloss": "abgebrochen"
        },
        {
          "dep": "nsubj",
          "governor": 3,
          "governorGloss": "abgebrochen",
          "dependent": 1,
          "dependentGloss": "Weihnachten"
        },
        {
          "dep": "cop",
          "governor": 3,
          "governorGloss": "abgebrochen",
          "dependent": 2,
          "dependentGloss": "ist"
        },
        {
          "dep": "punct",
          "governor": 3,
          "governorGloss": "abgebrochen",
          "dependent": 4,
          "dependentGloss": ":"
        },
        {
          "dep": "amod",
          "governor": 7,
          "governorGloss": "Kondome",
          "dependent": 5,
          "dependentGloss": "Kürbis"
        },
        {
          "dep": "amod",
          "governor": 7,
          "governorGloss": "Kondome",
          "dependent": 6,
          "dependentGloss": "Gewürz"
        },
        {
          "dep": "nsubj",
          "governor": 11,
          "governorGloss": "Hoax",
          "dependent": 7,
          "dependentGloss": "Kondome"
        },
        {
          "dep": "cop",
          "governor": 11,
          "governorGloss": "Hoax",
          "dependent": 8,
          "dependentGloss": "sind"
        },
        {
          "dep": "det",
          "governor": 11,
          "governorGloss": "Hoax",
          "dependent": 9,
          "dependentGloss": "ein"
        },
        {
          "dep": "amod",
          "governor": 11,
          "governorGloss": "Hoax",
          "dependent": 10,
          "dependentGloss": "verdammter"
        },
        {
          "dep": "parataxis",
          "governor": 3,
          "governorGloss": "abgebrochen",
          "dependent": 11,
          "dependentGloss": "Hoax"
        }
      ],
      "tokens": [
        {
          "index": 1,
          "word": "Weihnachten",
          "originalText": "Weihnachten",
          "characterOffsetBegin": 0,
          "characterOffsetEnd": 11,
          "pos": "NN",
          "before": "",
          "after": " "
        },
        {
          "index": 2,
          "word": "ist",
          "originalText": "ist",
          "characterOffsetBegin": 12,
          "characterOffsetEnd": 15,
          "pos": "VAFIN",
          "before": " ",
          "after": " "
        },
        {
          "index": 3,
          "word": "abgebrochen",
          "originalText": "abgebrochen",
          "characterOffsetBegin": 16,
          "characterOffsetEnd": 27,
          "pos": "VVPP",
          "before": " ",
          "after": ""
        },
        {
          "index": 4,
          "word": ":",
          "originalText": ":",
          "characterOffsetBegin": 27,
          "characterOffsetEnd": 28,
          "pos": "$.",
          "before": "",
          "after": " "
        },
        {
          "index": 5,
          "word": "Kürbis",
          "originalText": "Kürbis",
          "characterOffsetBegin": 29,
          "characterOffsetEnd": 35,
          "pos": "NE",
          "before": " ",
          "after": " "
        },
        {
          "index": 6,
          "word": "Gewürz",
          "originalText": "Gewürz",
          "characterOffsetBegin": 36,
          "characterOffsetEnd": 42,
          "pos": "NE",
          "before": " ",
          "after": " "
        },
        {
          "index": 7,
          "word": "Kondome",
          "originalText": "Kondome",
          "characterOffsetBegin": 43,
          "characterOffsetEnd": 50,
          "pos": "NN",
          "before": " ",
          "after": " "
        },
        {
          "index": 8,
          "word": "sind",
          "originalText": "sind",
          "characterOffsetBegin": 51,
          "characterOffsetEnd": 55,
          "pos": "VAFIN",
          "before": " ",
          "after": " "
        },
        {
          "index": 9,
          "word": "ein",
          "originalText": "ein",
          "characterOffsetBegin": 56,
          "characterOffsetEnd": 59,
          "pos": "ART",
          "before": " ",
          "after": " "
        },
        {
          "index": 10,
          "word": "verdammter",
          "originalText": "verdammter",
          "characterOffsetBegin": 60,
          "characterOffsetEnd": 70,
          "pos": "ADJA",
          "before": " ",
          "after": " "
        },
        {
          "index": 11,
          "word": "Hoax",
          "originalText": "Hoax",
          "characterOffsetBegin": 71,
          "characterOffsetEnd": 75,
          "pos": "NE",
          "before": " ",
          "after": ""
        }
      ]
    }
  ]
}