{
  "sentences": [
    {
      "index": 0,
      "basicDependencies": [
        {
          "dep": "ROOT",
          "governor": 0,
          "governorGloss": "ROOT",
          "dependent": 2,
          "dependentGloss": "sagt"
        },
        {
          "dep": "nsubj",
          "governor": 2,
          "governorGloss": "sagt",
          "dependent": 1,
          "dependentGloss": "Mexiko"
        },
        {
          "dep": "punct",
          "governor": 2,
          "governorGloss": "sagt",
          "dependent": 3,
          "dependentGloss": ","
        },
        {
          "dep": "mark",
          "governor": 9,
          "governorGloss": "Massengrab",
          "dependent": 4,
          "dependentGloss": "dass"
        },
        {
          "dep": "det",
          "governor": 6,
          "governorGloss": "Schüler",
          "dependent": 5,
          "dependentGloss": "die"
        },
        {
          "dep": "nsubj",
          "governor": 9,
          "governorGloss": "Massengrab",
          "dependent": 6,
          "dependentGloss": "Schüler"
        },
        {
          "dep": "neg",
          "governor": 8,
          "governorGloss": "im",
          "dependent": 7,
          "dependentGloss": "nicht"
        },
        {
          "dep": "acl",
          "governor": 9,
          "governorGloss": "Massengrab",
          "dependent": 8,
          "dependentGloss": "im"
        },
        {
          "dep": "ccomp",
          "governor": 2,
          "governorGloss": "sagt",
          "dependent": 9,
          "dependentGloss": "Massengrab"
        },
        {
          "dep": "cop",
          "governor": 9,
          "governorGloss": "Massengrab",
          "dependent": 10,
          "dependentGloss": "tot"
        },
        {
          "dep": "cop",
          "governor": 10,
          "governorGloss": "tot",
          "dependent": 11,
          "dependentGloss": "sind"
        }
      ],
      "enhancedDependencies": [
        {
          "dep": "ROOT",
          "governor": 0,
          "governorGloss": "ROOT",
          "dependent": 2,
          "dependentGloss": "sagt"
        },
        {
          "dep": "nsubj",
          "governor": 2,
          "governorGloss": "sagt",
          "dependent": 1,
          "dependentGloss": "Mexiko"
        },
        {
          "dep": "punct",
          "governor": 2,
          "governorGloss": "sagt",
          "dependent": 3,
          "dependentGloss": ","
        },
        {
          "dep": "mark",
          "governor": 9,
          "governorGloss": "Massengrab",
          "dependent": 4,
          "dependentGloss": "dass"
        },
        {
          "dep": "det",
          "governor": 6,
          "governorGloss": "Schüler",
          "dependent": 5,
          "dependentGloss": "die"
        },
        {
          "dep": "nsubj",
          "governor": 9,
          "governorGloss": "Massengrab",
          "dependent": 6,
          "dependentGloss": "Schüler"
        },
        {
          "dep": "neg",
          "governor": 8,
          "governorGloss": "im",
          "dependent": 7,
          "dependentGloss": "nicht"
        },
        {
          "dep": "acl",
          "governor": 9,
          "governorGloss": "Massengrab",
          "dependent": 8,
          "dependentGloss": "im"
        },
        {
          "dep": "ccomp",
          "governor": 2,
          "governorGloss": "sagt",
          "dependent": 9,
          "dependentGloss": "Massengrab"
        },
        {
          "dep": "cop",
          "governor": 9,
          "governorGloss": "Massengrab",
          "dependent": 10,
          "dependentGloss": "tot"
        },
        {
          "dep": "cop",
          "governor": 10,
          "governorGloss": "tot",
          "dependent": 11,
          "dependentGloss": "sind"
        }
      ],
      "enhancedPlusPlusDependencies": [
        {
          "dep": "ROOT",
          "governor": 0,
          "governorGloss": "ROOT",
          "dependent": 2,
          "dependentGloss": "sagt"
        },
        {
          "dep": "nsubj",
          "governor": 2,
          "governorGloss": "sagt",
          "dependent": 1,
          "dependentGloss": "Mexiko"
        },
        {
          "dep": "punct",
          "governor": 2,
          "governorGloss": "sagt",
          "dependent": 3,
          "dependentGloss": ","
        },
        {
          "dep": "mark",
          "governor": 9,
          "governorGloss": "Massengrab",
          "dependent": 4,
          "dependentGloss": "dass"
        },
        {
          "dep": "det",
          "governor": 6,
          "governorGloss": "Schüler",
          "dependent": 5,
          "dependentGloss": "die"
        },
        {
          "dep": "nsubj",
          "governor": 9,
          "governorGloss": "Massengrab",
          "dependent": 6,
          "dependentGloss": "Schüler"
        },
        {
          "dep": "neg",
          "governor": 8,
          "governorGloss": "im",
          "dependent": 7,
          "dependentGloss": "nicht"
        },
        {
          "dep": "acl",
          "governor": 9,
          "governorGloss": "Massengrab",
          "dependent": 8,
          "dependentGloss": "im"
        },
        {
          "dep": "ccomp",
          "governor": 2,
          "governorGloss": "sagt",
          "dependent": 9,
          "dependentGloss": "Massengrab"
        },
        {
          "dep": "cop",
          "governor": 9,
          "governorGloss": "Massengrab",
          "dependent": 10,
          "dependentGloss": "tot"
        },
        {
          "dep": "cop",
          "governor": 10,
          "governorGloss": "tot",
          "dependent": 11,
          "dependentGloss": "sind"
        }
      ],
      "tokens": [
        {
          "index": 1,
          "word": "Mexiko",
          "originalText": "Mexiko",
          "characterOffsetBegin": 0,
          "characterOffsetEnd": 6,
          "pos": "NE",
          "before": "",
          "after": " "
        },
        {
          "index": 2,
          "word": "sagt",
          "originalText": "sagt",
          "characterOffsetBegin": 7,
          "characterOffsetEnd": 11,
          "pos": "VVFIN",
          "before": " ",
          "after": ""
        },
        {
          "index": 3,
          "word": ",",
          "originalText": ",",
          "characterOffsetBegin": 11,
          "characterOffsetEnd": 12,
          "pos": "$,",
          "before": "",
          "after": " "
        },
        {
          "index": 4,
          "word": "dass",
          "originalText": "dass",
          "characterOffsetBegin": 13,
          "characterOffsetEnd": 17,
          "pos": "KOUS",
          "before": " ",
          "after": " "
        },
        {
          "index": 5,
          "word": "die",
          "originalText": "die",
          "characterOffsetBegin": 18,
          "characterOffsetEnd": 21,
          "pos": "ART",
          "before": " ",
          "after": " "
        },
        {
          "index": 6,
          "word": "Schüler",
          "originalText": "Schüler",
          "characterOffsetBegin": 22,
          "characterOffsetEnd": 29,
          "pos": "NN",
          "before": " ",
          "after": " "
        },
        {
          "index": 7,
          "word": "nicht",
          "originalText": "nicht",
          "characterOffsetBegin": 30,
          "characterOffsetEnd": 35,
          "pos": "PTKNEG",
          "before": " ",
          "after": " "
        },
        {
          "index": 8,
          "word": "im",
          "originalText": "im",
          "characterOffsetBegin": 36,
          "characterOffsetEnd": 38,
          "pos": "APPRART",
          "before": " ",
          "after": " "
        },
        {
          "index": 9,
          "word": "Massengrab",
          "originalText": "Massengrab",
          "characterOffsetBegin": 39,
          "characterOffsetEnd": 49,
          "pos": "NN",
          "before": " ",
          "after": " "
        },
        {
          "index": 10,
          "word": "tot",
          "originalText": "tot",
          "characterOffsetBegin": 50,
          "characterOffsetEnd": 53,
          "pos": "ADJD",
          "before": " ",
          "after": " "
        },
        {
          "index": 11,
          "word": "sind",
          "originalText": "sind",
          "characterOffsetBegin": 54,
          "characterOffsetEnd": 58,
          "pos": "VAFIN",
          "before": " ",
          "after": ""
        }
      ]
    }
  ]
}