{
  "sentences": [
    {
      "index": 0,
      "basicDependencies": [
        {
          "dep": "ROOT",
          "governor": 0,
          "governorGloss": "ROOT",
          "dependent": 1,
          "dependentGloss": "Apples"
        },
        {
          "dep": "amod",
          "governor": 3,
          "governorGloss": "MacBook",
          "dependent": 2,
          "dependentGloss": "neues"
        },
        {
          "dep": "det",
          "governor": 1,
          "governorGloss": "Apples",
          "dependent": 3,
          "dependentGloss": "MacBook"
        },
        {
          "dep": "case",
          "governor": 1,
          "governorGloss": "Apples",
          "dependent": 4,
          "dependentGloss": "wird"
        },
        {
          "dep": "det",
          "governor": 11,
          "governorGloss": "12-Zoll",
          "dependent": 5,
          "dependentGloss": "ein"
        },
        {
          "dep": "amod",
          "governor": 11,
          "governorGloss": "12-Zoll",
          "dependent": 6,
          "dependentGloss": "dünner"
        },
        {
          "dep": "punct",
          "governor": 6,
          "governorGloss": "dünner",
          "dependent": 7,
          "dependentGloss": ","
        },
        {
          "dep": "conj",
          "governor": 6,
          "governorGloss": "dünner",
          "dependent": 8,
          "dependentGloss": "sauberer"
        },
        {
          "dep": "punct",
          "governor": 6,
          "governorGloss": "dünner",
          "dependent": 9,
          "dependentGloss": ","
        },
        {
          "dep": "conj",
          "governor": 6,
          "governorGloss": "dünner",
          "dependent": 10,
          "dependentGloss": "schneller"
        },
        {
          "dep": "dep",
          "governor": 4,
          "governorGloss": "wird",
          "dependent": 11,
          "dependentGloss": "12-Zoll"
        },
        {
          "dep": "name",
          "governor": 13,
          "governorGloss": "Air",
          "dependent": 12,
          "dependentGloss": "MacBook"
        },
        {
          "dep": "appos",
          "governor": 11,
          "governorGloss": "12-Zoll",
          "dependent": 13,
          "dependentGloss": "Air"
        }
      ],
      "enhancedDependencies": [
        {
          "dep": "ROOT",
          "governor": 0,
          "governorGloss": "ROOT",
          "dependent": 1,
          "dependentGloss": "Apples"
        },
        {
          "dep": "amod",
          "governor": 3,
          "governorGloss": "MacBook",
          "dependent": 2,
          "dependentGloss": "neues"
        },
        {
          "dep": "det",
          "governor": 1,
          "governorGloss": "Apples",
          "dependent": 3,
          "dependentGloss": "MacBook"
        },
        {
          "dep": "case",
          "governor": 1,
          "governorGloss": "Apples",
          "dependent": 4,
          "dependentGloss": "wird"
        },
        {
          "dep": "det",
          "governor": 11,
          "governorGloss": "12-Zoll",
          "dependent": 5,
          "dependentGloss": "ein"
        },
        {
          "dep": "amod",
          "governor": 11,
          "governorGloss": "12-Zoll",
          "dependent": 6,
          "dependentGloss": "dünner"
        },
        {
          "dep": "punct",
          "governor": 6,
          "governorGloss": "dünner",
          "dependent": 7,
          "dependentGloss": ","
        },
        {
          "dep": "conj",
          "governor": 6,
          "governorGloss": "dünner",
          "dependent": 8,
          "dependentGloss": "sauberer"
        },
        {
          "dep": "punct",
          "governor": 6,
          "governorGloss": "dünner",
          "dependent": 9,
          "dependentGloss": ","
        },
        {
          "dep": "conj",
          "governor": 6,
          "governorGloss": "dünner",
          "dependent": 10,
          "dependentGloss": "schneller"
        },
        {
          "dep": "dep",
          "governor": 4,
          "governorGloss": "wird",
          "dependent": 11,
          "dependentGloss": "12-Zoll"
        },
        {
          "dep": "name",
          "governor": 13,
          "governorGloss": "Air",
          "dependent": 12,
          "dependentGloss": "MacBook"
        },
        {
          "dep": "appos",
          "governor": 11,
          "governorGloss": "12-Zoll",
          "dependent": 13,
          "dependentGloss": "Air"
        }
      ],
      "enhancedPlusPlusDependencies": [
        {
          "dep": "ROOT",
          "governor": 0,
          "governorGloss": "ROOT",
          "dependent": 1,
          "dependentGloss": "Apples"
        },
        {
          "dep": "amod",
          "governor": 3,
          "governorGloss": "MacBook",
          "dependent": 2,
          "dependentGloss": "neues"
        },
        {
          "dep": "det",
          "governor": 1,
          "governorGloss": "Apples",
          "dependent": 3,
          "dependentGloss": "MacBook"
        },
        {
          "dep": "case",
          "governor": 1,
          "governorGloss": "Apples",
          "dependent": 4,
          "dependentGloss": "wird"
        },
        {
          "dep": "det",
          "governor": 11,
          "governorGloss": "12-Zoll",
          "dependent": 5,
          "dependentGloss": "ein"
        },
        {
          "dep": "amod",
          "governor": 11,
          "governorGloss": "12-Zoll",
          "dependent": 6,
          "dependentGloss": "dünner"
        },
        {
          "dep": "punct",
          "governor": 6,
          "governorGloss": "dünner",
          "dependent": 7,
          "dependentGloss": ","
        },
        {
          "dep": "conj",
          "governor": 6,
          "governorGloss": "dünner",
          "dependent": 8,
          "dependentGloss": "sauberer"
        },
        {
          "dep": "punct",
          "governor": 6,
          "governorGloss": "dünner",
          "dependent": 9,
          "dependentGloss": ","
        },
        {
          "dep": "conj",
          "governor": 6,
          "governorGloss": "dünner",
          "dependent": 10,
          "dependentGloss": "schneller"
        },
        {
          "dep": "dep",
          "governor": 4,
          "governorGloss": "wird",
          "dependent": 11,
          "dependentGloss": "12-Zoll"
        },
        {
          "dep": "name",
          "governor": 13,
          "governorGloss": "Air",
          "dependent": 12,
          "dependentGloss": "MacBook"
        },
        {
          "dep": "appos",
          "governor": 11,
          "governorGloss": "12-Zoll",
          "dependent": 13,
          "dependentGloss": "Air"
        }
      ],
      "tokens": [
        {
          "index": 1,
          "word": "Apples",
          "originalText": "Apples",
          "characterOffsetBegin": 0,
          "characterOffsetEnd": 6,
          "pos": "NE",
          "before": "",
          "after": " "
        },
        {
          "index": 2,
          "word": "neues",
          "originalText": "neues",
          "characterOffsetBegin": 7,
          "characterOffsetEnd": 12,
          "pos": "ADJA",
          "before": " ",
          "after": " "
        },
        {
          "index": 3,
          "word": "MacBook",
          "originalText": "MacBook",
          "characterOffsetBegin": 13,
          "characterOffsetEnd": 20,
          "pos": "NN",
          "before": " ",
          "after": " "
        },
        {
          "index": 4,
          "word": "wird",
          "originalText": "wird",
          "characterOffsetBegin": 21,
          "characterOffsetEnd": 25,
          "pos": "VAFIN",
          "before": " ",
          "after": " "
        },
        {
          "index": 5,
          "word": "ein",
          "originalText": "ein",
          "characterOffsetBegin": 26,
          "characterOffsetEnd": 29,
          "pos": "ART",
          "before": " ",
          "after": " "
        },
        {
          "index": 6,
          "word": "dünner",
          "originalText": "dünner",
          "characterOffsetBegin": 30,
          "characterOffsetEnd": 36,
          "pos": "ADJA",
          "before": " ",
          "after": ""
        },
        {
          "index": 7,
          "word": ",",
          "originalText": ",",
          "characterOffsetBegin": 36,
          "characterOffsetEnd": 37,
          "pos": "$,",
          "before": "",
          "after": " "
        },
        {
          "index": 8,
          "word": "sauberer",
          "originalText": "sauberer",
          "characterOffsetBegin": 38,
          "characterOffsetEnd": 46,
          "pos": "ADJA",
          "before": " ",
          "after": ""
        },
        {
          "index": 9,
          "word": ",",
          "originalText": ",",
          "characterOffsetBegin": 46,
          "characterOffsetEnd": 47,
          "pos": "$,",
          "before": "",
          "after": " "
        },
        {
          "index": 10,
          "word": "schneller",
          "originalText": "schneller",
          "characterOffsetBegin": 48,
          "characterOffsetEnd": 57,
          "pos": "ADJD",
          "before": " ",
          "after": " "
        },
        {
          "index": 11,
          "word": "12-Zoll",
          "originalText": "12-Zoll",
          "characterOffsetBegin": 58,
          "characterOffsetEnd": 65,
          "pos": "NN",
          "before": " ",
          "after": " "
        },
        {
          "index": 12,
          "word": "MacBook",
          "originalText": "MacBook",
          "characterOffsetBegin": 66,
          "characterOffsetEnd": 73,
          "pos": "NE",
          "before": " ",
          "after": " "
        },
        {
          "index": 13,
          "word": "Air",
          "originalText": "Air",
          "characterOffsetBegin": 74,
          "characterOffsetEnd": 77,
          "pos": "NE",
          "before": " ",
          "after": ""
        }
      ]
    }
  ]
}