{
  "sentences": [
    {
      "index": 0,
      "basicDependencies": [
        {
          "dep": "ROOT",
          "governor": 0,
          "governorGloss": "ROOT",
          "dependent": 3,
          "dependentGloss": "zurück"
        },
        {
          "dep": "nsubj",
          "governor": 3,
          "governorGloss": "zurück",
          "dependent": 1,
          "dependentGloss": "Es"
        },
        {
          "dep": "cop",
          "governor": 3,
          "governorGloss": "zurück",
          "dependent": 2,
          "dependentGloss": "ist"
        },
        {
          "dep": "punct",
          "governor": 3,
          "governorGloss": "zurück",
          "dependent": 4,
          "dependentGloss": "!"
        }
      ],
      "enhancedDependencies": [
        {
          "dep": "ROOT",
          "governor": 0,
          "governorGloss": "ROOT",
          "dependent": 3,
          "dependentGloss": "zurück"
        },
        {
          "dep": "nsubj",
          "governor": 3,
          "governorGloss": "zurück",
          "dependent": 1,
          "dependentGloss": "Es"
        },
        {
          "dep": "cop",
          "governor": 3,
          "governorGloss": "zurück",
          "dependent": 2,
          "dependentGloss": "ist"
        },
        {
          "dep": "punct",
          "governor": 3,
          "governorGloss": "zurück",
          "dependent": 4,
          "dependentGloss": "!"
        }
      ],
      "enhancedPlusPlusDependencies": [
        {
          "dep": "ROOT",
          "governor": 0,
          "governorGloss": "ROOT",
          "dependent": 3,
          "dependentGloss": "zurück"
        },
        {
          "dep": "nsubj",
          "governor": 3,
          "governorGloss": "zurück",
          "dependent": 1,
          "dependentGloss": "Es"
        },
        {
          "dep": "cop",
          "governor": 3,
          "governorGloss": "zurück",
          "dependent": 2,
          "dependentGloss": "ist"
        },
        {
          "dep": "punct",
          "governor": 3,
          "governorGloss": "zurück",
          "dependent": 4,
          "dependentGloss": "!"
        }
      ],
      "tokens": [
        {
          "index": 1,
          "word": "Es",
          "originalText": "Es",
          "characterOffsetBegin": 0,
          "characterOffsetEnd": 2,
          "pos": "PPER",
          "before": "",
          "after": " "
        },
        {
          "index": 2,
          "word": "ist",
          "originalText": "ist",
          "characterOffsetBegin": 3,
          "characterOffsetEnd": 6,
          "pos": "VAFIN",
          "before": " ",
          "after": " "
        },
        {
          "index": 3,
          "word": "zurück",
          "originalText": "zurück",
          "characterOffsetBegin": 7,
          "characterOffsetEnd": 13,
          "pos": "ADV",
          "before": " ",
          "after": ""
        },
        {
          "index": 4,
          "word": "!",
          "originalText": "!",
          "characterOffsetBegin": 13,
          "characterOffsetEnd": 14,
          "pos": "$.",
          "before": "",
          "after": " "
        }
      ]
    },
    {
      "index": 1,
      "basicDependencies": [
        {
          "dep": "ROOT",
          "governor": 0,
          "governorGloss": "ROOT",
          "dependent": 5,
          "dependentGloss": "nimmt"
        },
        {
          "dep": "det",
          "governor": 2,
          "governorGloss": "unglaubliche",
          "dependent": 1,
          "dependentGloss": "Das"
        },
        {
          "dep": "nsubj",
          "governor": 5,
          "governorGloss": "nimmt",
          "dependent": 2,
          "dependentGloss": "unglaubliche"
        },
        {
          "dep": "amod",
          "governor": 4,
          "governorGloss": "Batmobile",
          "dependent": 3,
          "dependentGloss": "neue"
        },
        {
          "dep": "det",
          "governor": 2,
          "governorGloss": "unglaubliche",
          "dependent": 4,
          "dependentGloss": "Batmobile"
        },
        {
          "dep": "det",
          "governor": 7,
          "governorGloss": "Drehung",
          "dependent": 6,
          "dependentGloss": "eine"
        },
        {
          "dep": "dobj",
          "governor": 5,
          "governorGloss": "nimmt",
          "dependent": 7,
          "dependentGloss": "Drehung"
        },
        {
          "dep": "case",
          "governor": 9,
          "governorGloss": "Detroit",
          "dependent": 8,
          "dependentGloss": "um"
        },
        {
          "dep": "nmod",
          "governor": 7,
          "governorGloss": "Drehung",
          "dependent": 9,
          "dependentGloss": "Detroit"
        },
        {
          "dep": "punct",
          "governor": 5,
          "governorGloss": "nimmt",
          "dependent": 10,
          "dependentGloss": "..."
        },
        {
          "dep": "case",
          "governor": 13,
          "governorGloss": "Gerüchten",
          "dependent": 11,
          "dependentGloss": "nach"
        },
        {
          "dep": "det",
          "governor": 13,
          "governorGloss": "Gerüchten",
          "dependent": 12,
          "dependentGloss": "den"
        },
        {
          "dep": "nmod",
          "governor": 16,
          "governorGloss": "STOLEN",
          "dependent": 13,
          "dependentGloss": "Gerüchten"
        },
        {
          "dep": "cop",
          "governor": 16,
          "governorGloss": "STOLEN",
          "dependent": 14,
          "dependentGloss": "war"
        },
        {
          "dep": "nsubj",
          "governor": 16,
          "governorGloss": "STOLEN",
          "dependent": 15,
          "dependentGloss": "es"
        },
        {
          "dep": "parataxis",
          "governor": 5,
          "governorGloss": "nimmt",
          "dependent": 16,
          "dependentGloss": "STOLEN"
        }
      ],
      "enhancedDependencies": [
        {
          "dep": "ROOT",
          "governor": 0,
          "governorGloss": "ROOT",
          "dependent": 5,
          "dependentGloss": "nimmt"
        },
        {
          "dep": "det",
          "governor": 2,
          "governorGloss": "unglaubliche",
          "dependent": 1,
          "dependentGloss": "Das"
        },
        {
          "dep": "nsubj",
          "governor": 5,
          "governorGloss": "nimmt",
          "dependent": 2,
          "dependentGloss": "unglaubliche"
        },
        {
          "dep": "amod",
          "governor": 4,
          "governorGloss": "Batmobile",
          "dependent": 3,
          "dependentGloss": "neue"
        },
        {
          "dep": "det",
          "governor": 2,
          "governorGloss": "unglaubliche",
          "dependent": 4,
          "dependentGloss": "Batmobile"
        },
        {
          "dep": "det",
          "governor": 7,
          "governorGloss": "Drehung",
          "dependent": 6,
          "dependentGloss": "eine"
        },
        {
          "dep": "dobj",
          "governor": 5,
          "governorGloss": "nimmt",
          "dependent": 7,
          "dependentGloss": "Drehung"
        },
        {
          "dep": "case",
          "governor": 9,
          "governorGloss": "Detroit",
          "dependent": 8,
          "dependentGloss": "um"
        },
        {
          "dep": "nmod",
          "governor": 7,
          "governorGloss": "Drehung",
          "dependent": 9,
          "dependentGloss": "Detroit"
        },
        {
          "dep": "punct",
          "governor": 5,
          "governorGloss": "nimmt",
          "dependent": 10,
          "dependentGloss": "..."
        },
        {
          "dep": "case",
          "governor": 13,
          "governorGloss": "Gerüchten",
          "dependent": 11,
          "dependentGloss": "nach"
        },
        {
          "dep": "det",
          "governor": 13,
          "governorGloss": "Gerüchten",
          "dependent": 12,
          "dependentGloss": "den"
        },
        {
          "dep": "nmod",
          "governor": 16,
          "governorGloss": "STOLEN",
          "dependent": 13,
          "dependentGloss": "Gerüchten"
        },
        {
          "dep": "cop",
          "governor": 16,
          "governorGloss": "STOLEN",
          "dependent": 14,
          "dependentGloss": "war"
        },
        {
          "dep": "nsubj",
          "governor": 16,
          "governorGloss": "STOLEN",
          "dependent": 15,
          "dependentGloss": "es"
        },
        {
          "dep": "parataxis",
          "governor": 5,
          "governorGloss": "nimmt",
          "dependent": 16,
          "dependentGloss": "STOLEN"
        }
      ],
      "enhancedPlusPlusDependencies": [
        {
          "dep": "ROOT",
          "governor": 0,
          "governorGloss": "ROOT",
          "dependent": 5,
          "dependentGloss": "nimmt"
        },
        {
          "dep": "det",
          "governor": 2,
          "governorGloss": "unglaubliche",
          "dependent": 1,
          "dependentGloss": "Das"
        },
        {
          "dep": "nsubj",
          "governor": 5,
          "governorGloss": "nimmt",
          "dependent": 2,
          "dependentGloss": "unglaubliche"
        },
        {
          "dep": "amod",
          "governor": 4,
          "governorGloss": "Batmobile",
          "dependent": 3,
          "dependentGloss": "neue"
        },
        {
          "dep": "det",
          "governor": 2,
          "governorGloss": "unglaubliche",
          "dependent": 4,
          "dependentGloss": "Batmobile"
        },
        {
          "dep": "det",
          "governor": 7,
          "governorGloss": "Drehung",
          "dependent": 6,
          "dependentGloss": "eine"
        },
        {
          "dep": "dobj",
          "governor": 5,
          "governorGloss": "nimmt",
          "dependent": 7,
          "dependentGloss": "Drehung"
        },
        {
          "dep": "case",
          "governor": 9,
          "governorGloss": "Detroit",
          "dependent": 8,
          "dependentGloss": "um"
        },
        {
          "dep": "nmod",
          "governor": 7,
          "governorGloss": "Drehung",
          "dependent": 9,
          "dependentGloss": "Detroit"
        },
        {
          "dep": "punct",
          "governor": 5,
          "governorGloss": "nimmt",
          "dependent": 10,
          "dependentGloss": "..."
        },
        {
          "dep": "case",
          "governor": 13,
          "governorGloss": "Gerüchten",
          "dependent": 11,
          "dependentGloss": "nach"
        },
        {
          "dep": "det",
          "governor": 13,
          "governorGloss": "Gerüchten",
          "dependent": 12,
          "dependentGloss": "den"
        },
        {
          "dep": "nmod",
          "governor": 16,
          "governorGloss": "STOLEN",
          "dependent": 13,
          "dependentGloss": "Gerüchten"
        },
        {
          "dep": "cop",
          "governor": 16,
          "governorGloss": "STOLEN",
          "dependent": 14,
          "dependentGloss": "war"
        },
        {
          "dep": "nsubj",
          "governor": 16,
          "governorGloss": "STOLEN",
          "dependent": 15,
          "dependentGloss": "es"
        },
        {
          "dep": "parataxis",
          "governor": 5,
          "governorGloss": "nimmt",
          "dependent": 16,
          "dependentGloss": "STOLEN"
        }
      ],
      "tokens": [
        {
          "index": 1,
          "word": "Das",
          "originalText": "Das",
          "characterOffsetBegin": 15,
          "characterOffsetEnd": 18,
          "pos": "ART",
          "before": " ",
          "after": " "
        },
        {
          "index": 2,
          "word": "unglaubliche",
          "originalText": "unglaubliche",
          "characterOffsetBegin": 19,
          "characterOffsetEnd": 31,
          "pos": "ADJA",
          "before": " ",
          "after": " "
        },
        {
          "index": 3,
          "word": "neue",
          "originalText": "neue",
          "characterOffsetBegin": 32,
          "characterOffsetEnd": 36,
          "pos": "ADJA",
          "before": " ",
          "after": " "
        },
        {
          "index": 4,
          "word": "Batmobile",
          "originalText": "Batmobile",
          "characterOffsetBegin": 37,
          "characterOffsetEnd": 46,
          "pos": "NN",
          "before": " ",
          "after": " "
        },
        {
          "index": 5,
          "word": "nimmt",
          "originalText": "nimmt",
          "characterOffsetBegin": 47,
          "characterOffsetEnd": 52,
          "pos": "VVFIN",
          "before": " ",
          "after": " "
        },
        {
          "index": 6,
          "word": "eine",
          "originalText": "eine",
          "characterOffsetBegin": 53,
          "characterOffsetEnd": 57,
          "pos": "ART",
          "before": " ",
          "after": " "
        },
        {
          "index": 7,
          "word": "Drehung",
          "originalText": "Drehung",
          "characterOffsetBegin": 58,
          "characterOffsetEnd": 65,
          "pos": "NN",
          "before": " ",
          "after": " "
        },
        {
          "index": 8,
          "word": "um",
          "originalText": "um",
          "characterOffsetBegin": 66,
          "characterOffsetEnd": 68,
          "pos": "APPR",
          "before": " ",
          "after": " "
        },
        {
          "index": 9,
          "word": "Detroit",
          "originalText": "Detroit",
          "characterOffsetBegin": 69,
          "characterOffsetEnd": 76,
          "pos": "NE",
          "before": " ",
          "after": " "
        },
        {
          "index": 10,
          "word": "...",
          "originalText": "...",
          "characterOffsetBegin": 77,
          "characterOffsetEnd": 80,
          "pos": "$[",
          "before": " ",
          "after": " "
        },
        {
          "index": 11,
          "word": "nach",
          "originalText": "nach",
          "characterOffsetBegin": 81,
          "characterOffsetEnd": 85,
          "pos": "APPR",
          "before": " ",
          "after": " "
        },
        {
          "index": 12,
          "word": "den",
          "originalText": "den",
          "characterOffsetBegin": 86,
          "characterOffsetEnd": 89,
          "pos": "ART",
          "before": " ",
          "after": " "
        },
        {
          "index": 13,
          "word": "Gerüchten",
          "originalText": "Gerüchten",
          "characterOffsetBegin": 90,
          "characterOffsetEnd": 99,
          "pos": "NN",
          "before": " ",
          "after": " "
        },
        {
          "index": 14,
          "word": "war",
          "originalText": "war",
          "characterOffsetBegin": 100,
          "characterOffsetEnd": 103,
          "pos": "VAFIN",
          "before": " ",
          "after": " "
        },
        {
          "index": 15,
          "word": "es",
          "originalText": "es",
          "characterOffsetBegin": 104,
          "characterOffsetEnd": 106,
          "pos": "PPER",
          "before": " ",
          "after": " "
        },
        {
          "index": 16,
          "word": "STOLEN",
          "originalText": "STOLEN",
          "characterOffsetBegin": 107,
          "characterOffsetEnd": 113,
          "pos": "NE",
          "before": " ",
          "after": ""
        }
      ]
    }
  ]
}