{
  "sentences": [
    {
      "index": 0,
      "basicDependencies": [
        {
          "dep": "ROOT",
          "governor": 0,
          "governorGloss": "ROOT",
          "dependent": 10,
          "dependentGloss": "sagt"
        },
        {
          "dep": "nsubj",
          "governor": 10,
          "governorGloss": "sagt",
          "dependent": 1,
          "dependentGloss": "Geisel"
        },
        {
          "dep": "name",
          "governor": 3,
          "governorGloss": "Haines",
          "dependent": 2,
          "dependentGloss": "David"
        },
        {
          "dep": "appos",
          "governor": 1,
          "governorGloss": "Geisel",
          "dependent": 3,
          "dependentGloss": "Haines"
        },
        {
          "dep": "punct",
          "governor": 7,
          "governorGloss": "Böse",
          "dependent": 4,
          "dependentGloss": "`"
        },
        {
          "dep": "name",
          "governor": 7,
          "governorGloss": "Böse",
          "dependent": 5,
          "dependentGloss": "Mord"
        },
        {
          "dep": "punct",
          "governor": 7,
          "governorGloss": "Böse",
          "dependent": 6,
          "dependentGloss": "'"
        },
        {
          "dep": "appos",
          "governor": 1,
          "governorGloss": "Geisel",
          "dependent": 7,
          "dependentGloss": "Böse"
        },
        {
          "dep": "punct",
          "governor": 7,
          "governorGloss": "Böse",
          "dependent": 8,
          "dependentGloss": "'"
        },
        {
          "dep": "punct",
          "governor": 7,
          "governorGloss": "Böse",
          "dependent": 9,
          "dependentGloss": ","
        },
        {
          "dep": "dobj",
          "governor": 10,
          "governorGloss": "sagt",
          "dependent": 11,
          "dependentGloss": "PM"
        }
      ],
      "enhancedDependencies": [
        {
          "dep": "ROOT",
          "governor": 0,
          "governorGloss": "ROOT",
          "dependent": 10,
          "dependentGloss": "sagt"
        },
        {
          "dep": "nsubj",
          "governor": 10,
          "governorGloss": "sagt",
          "dependent": 1,
          "dependentGloss": "Geisel"
        },
        {
          "dep": "name",
          "governor": 3,
          "governorGloss": "Haines",
          "dependent": 2,
          "dependentGloss": "David"
        },
        {
          "dep": "appos",
          "governor": 1,
          "governorGloss": "Geisel",
          "dependent": 3,
          "dependentGloss": "Haines"
        },
        {
          "dep": "punct",
          "governor": 7,
          "governorGloss": "Böse",
          "dependent": 4,
          "dependentGloss": "`"
        },
        {
          "dep": "name",
          "governor": 7,
          "governorGloss": "Böse",
          "dependent": 5,
          "dependentGloss": "Mord"
        },
        {
          "dep": "punct",
          "governor": 7,
          "governorGloss": "Böse",
          "dependent": 6,
          "dependentGloss": "'"
        },
        {
          "dep": "appos",
          "governor": 1,
          "governorGloss": "Geisel",
          "dependent": 7,
          "dependentGloss": "Böse"
        },
        {
          "dep": "punct",
          "governor": 7,
          "governorGloss": "Böse",
          "dependent": 8,
          "dependentGloss": "'"
        },
        {
          "dep": "punct",
          "governor": 7,
          "governorGloss": "Böse",
          "dependent": 9,
          "dependentGloss": ","
        },
        {
          "dep": "dobj",
          "governor": 10,
          "governorGloss": "sagt",
          "dependent": 11,
          "dependentGloss": "PM"
        }
      ],
      "enhancedPlusPlusDependencies": [
        {
          "dep": "ROOT",
          "governor": 0,
          "governorGloss": "ROOT",
          "dependent": 10,
          "dependentGloss": "sagt"
        },
        {
          "dep": "nsubj",
          "governor": 10,
          "governorGloss": "sagt",
          "dependent": 1,
          "dependentGloss": "Geisel"
        },
        {
          "dep": "name",
          "governor": 3,
          "governorGloss": "Haines",
          "dependent": 2,
          "dependentGloss": "David"
        },
        {
          "dep": "appos",
          "governor": 1,
          "governorGloss": "Geisel",
          "dependent": 3,
          "dependentGloss": "Haines"
        },
        {
          "dep": "punct",
          "governor": 7,
          "governorGloss": "Böse",
          "dependent": 4,
          "dependentGloss": "`"
        },
        {
          "dep": "name",
          "governor": 7,
          "governorGloss": "Böse",
          "dependent": 5,
          "dependentGloss": "Mord"
        },
        {
          "dep": "punct",
          "governor": 7,
          "governorGloss": "Böse",
          "dependent": 6,
          "dependentGloss": "'"
        },
        {
          "dep": "appos",
          "governor": 1,
          "governorGloss": "Geisel",
          "dependent": 7,
          "dependentGloss": "Böse"
        },
        {
          "dep": "punct",
          "governor": 7,
          "governorGloss": "Böse",
          "dependent": 8,
          "dependentGloss": "'"
        },
        {
          "dep": "punct",
          "governor": 7,
          "governorGloss": "Böse",
          "dependent": 9,
          "dependentGloss": ","
        },
        {
          "dep": "dobj",
          "governor": 10,
          "governorGloss": "sagt",
          "dependent": 11,
          "dependentGloss": "PM"
        }
      ],
      "tokens": [
        {
          "index": 1,
          "word": "Geisel",
          "originalText": "Geisel",
          "characterOffsetBegin": 0,
          "characterOffsetEnd": 6,
          "pos": "NN",
          "before": "",
          "after": " "
        },
        {
          "index": 2,
          "word": "David",
          "originalText": "David",
          "characterOffsetBegin": 7,
          "characterOffsetEnd": 12,
          "pos": "NE",
          "before": " ",
          "after": " "
        },
        {
          "index": 3,
          "word": "Haines",
          "originalText": "Haines",
          "characterOffsetBegin": 13,
          "characterOffsetEnd": 19,
          "pos": "NE",
          "before": " ",
          "after": " "
        },
        {
          "index": 4,
          "word": "`",
          "originalText": "'",
          "characterOffsetBegin": 20,
          "characterOffsetEnd": 21,
          "pos": "CARD",
          "before": " ",
          "after": ""
        },
        {
          "index": 5,
          "word": "Mord",
          "originalText": "Mord",
          "characterOffsetBegin": 21,
          "characterOffsetEnd": 25,
          "pos": "NN",
          "before": "",
          "after": ""
        },
        {
          "index": 6,
          "word": "'",
          "originalText": "'",
          "characterOffsetBegin": 25,
          "characterOffsetEnd": 26,
          "pos": "$[",
          "before": "",
          "after": " "
        },
        {
          "index": 7,
          "word": "Böse",
          "originalText": "Böse",
          "characterOffsetBegin": 27,
          "characterOffsetEnd": 31,
          "pos": "NN",
          "before": " ",
          "after": " "
        },
        {
          "index": 8,
          "word": "'",
          "originalText": "'",
          "characterOffsetBegin": 32,
          "characterOffsetEnd": 33,
          "pos": "$[",
          "before": " ",
          "after": ""
        },
        {
          "index": 9,
          "word": ",",
          "originalText": ",",
          "characterOffsetBegin": 33,
          "characterOffsetEnd": 34,
          "pos": "$,",
          "before": "",
          "after": " "
        },
        {
          "index": 10,
          "word": "sagt",
          "originalText": "sagt",
          "characterOffsetBegin": 35,
          "characterOffsetEnd": 39,
          "pos": "VVFIN",
          "before": " ",
          "after": " "
        },
        {
          "index": 11,
          "word": "PM",
          "originalText": "PM",
          "characterOffsetBegin": 40,
          "characterOffsetEnd": 42,
          "pos": "NE",
          "before": " ",
          "after": ""
        }
      ]
    }
  ]
}