{
  "sentences": [
    {
      "index": 0,
      "basicDependencies": [
        {
          "dep": "ROOT",
          "governor": 0,
          "governorGloss": "ROOT",
          "dependent": 2,
          "dependentGloss": "Tipped"
        },
        {
          "dep": "name",
          "governor": 2,
          "governorGloss": "Tipped",
          "dependent": 1,
          "dependentGloss": "Apfel-Uhr-Spezifikationen"
        },
        {
          "dep": "punct",
          "governor": 2,
          "governorGloss": "Tipped",
          "dependent": 3,
          "dependentGloss": ";"
        },
        {
          "dep": "appos",
          "governor": 2,
          "governorGloss": "Tipped",
          "dependent": 4,
          "dependentGloss": "Said"
        },
        {
          "dep": "punct",
          "governor": 4,
          "governorGloss": "Said",
          "dependent": 5,
          "dependentGloss": ","
        },
        {
          "dep": "case",
          "governor": 8,
          "governorGloss": "RAM",
          "dependent": 6,
          "dependentGloss": "um"
        },
        {
          "dep": "nummod",
          "governor": 8,
          "governorGloss": "RAM",
          "dependent": 7,
          "dependentGloss": "512MB"
        },
        {
          "dep": "nmod",
          "governor": 4,
          "governorGloss": "Said",
          "dependent": 8,
          "dependentGloss": "RAM"
        },
        {
          "dep": "punct",
          "governor": 8,
          "governorGloss": "RAM",
          "dependent": 9,
          "dependentGloss": ","
        },
        {
          "dep": "amod",
          "governor": 11,
          "governorGloss": "Speicher",
          "dependent": 10,
          "dependentGloss": "4GB"
        },
        {
          "dep": "dobj",
          "governor": 13,
          "governorGloss": "kennzeichnen",
          "dependent": 11,
          "dependentGloss": "Speicher"
        },
        {
          "dep": "aux",
          "governor": 13,
          "governorGloss": "kennzeichnen",
          "dependent": 12,
          "dependentGloss": "zu"
        },
        {
          "dep": "acl",
          "governor": 8,
          "governorGloss": "RAM",
          "dependent": 13,
          "dependentGloss": "kennzeichnen"
        }
      ],
      "enhancedDependencies": [
        {
          "dep": "ROOT",
          "governor": 0,
          "governorGloss": "ROOT",
          "dependent": 2,
          "dependentGloss": "Tipped"
        },
        {
          "dep": "name",
          "governor": 2,
          "governorGloss": "Tipped",
          "dependent": 1,
          "dependentGloss": "Apfel-Uhr-Spezifikationen"
        },
        {
          "dep": "punct",
          "governor": 2,
          "governorGloss": "Tipped",
          "dependent": 3,
          "dependentGloss": ";"
        },
        {
          "dep": "appos",
          "governor": 2,
          "governorGloss": "Tipped",
          "dependent": 4,
          "dependentGloss": "Said"
        },
        {
          "dep": "punct",
          "governor": 4,
          "governorGloss": "Said",
          "dependent": 5,
          "dependentGloss": ","
        },
        {
          "dep": "case",
          "governor": 8,
          "governorGloss": "RAM",
          "dependent": 6,
          "dependentGloss": "um"
        },
        {
          "dep": "nummod",
          "governor": 8,
          "governorGloss": "RAM",
          "dependent": 7,
          "dependentGloss": "512MB"
        },
        {
          "dep": "nmod",
          "governor": 4,
          "governorGloss": "Said",
          "dependent": 8,
          "dependentGloss": "RAM"
        },
        {
          "dep": "punct",
          "governor": 8,
          "governorGloss": "RAM",
          "dependent": 9,
          "dependentGloss": ","
        },
        {
          "dep": "amod",
          "governor": 11,
          "governorGloss": "Speicher",
          "dependent": 10,
          "dependentGloss": "4GB"
        },
        {
          "dep": "dobj",
          "governor": 13,
          "governorGloss": "kennzeichnen",
          "dependent": 11,
          "dependentGloss": "Speicher"
        },
        {
          "dep": "aux",
          "governor": 13,
          "governorGloss": "kennzeichnen",
          "dependent": 12,
          "dependentGloss": "zu"
        },
        {
          "dep": "acl",
          "governor": 8,
          "governorGloss": "RAM",
          "dependent": 13,
          "dependentGloss": "kennzeichnen"
        }
      ],
      "enhancedPlusPlusDependencies": [
        {
          "dep": "ROOT",
          "governor": 0,
          "governorGloss": "ROOT",
          "dependent": 2,
          "dependentGloss": "Tipped"
        },
        {
          "dep": "name",
          "governor": 2,
          "governorGloss": "Tipped",
          "dependent": 1,
          "dependentGloss": "Apfel-Uhr-Spezifikationen"
        },
        {
          "dep": "punct",
          "governor": 2,
          "governorGloss": "Tipped",
          "dependent": 3,
          "dependentGloss": ";"
        },
        {
          "dep": "appos",
          "governor": 2,
          "governorGloss": "Tipped",
          "dependent": 4,
          "dependentGloss": "Said"
        },
        {
          "dep": "punct",
          "governor": 4,
          "governorGloss": "Said",
          "dependent": 5,
          "dependentGloss": ","
        },
        {
          "dep": "case",
          "governor": 8,
          "governorGloss": "RAM",
          "dependent": 6,
          "dependentGloss": "um"
        },
        {
          "dep": "nummod",
          "governor": 8,
          "governorGloss": "RAM",
          "dependent": 7,
          "dependentGloss": "512MB"
        },
        {
          "dep": "nmod",
          "governor": 4,
          "governorGloss": "Said",
          "dependent": 8,
          "dependentGloss": "RAM"
        },
        {
          "dep": "punct",
          "governor": 8,
          "governorGloss": "RAM",
          "dependent": 9,
          "dependentGloss": ","
        },
        {
          "dep": "amod",
          "governor": 11,
          "governorGloss": "Speicher",
          "dependent": 10,
          "dependentGloss": "4GB"
        },
        {
          "dep": "dobj",
          "governor": 13,
          "governorGloss": "kennzeichnen",
          "dependent": 11,
          "dependentGloss": "Speicher"
        },
        {
          "dep": "aux",
          "governor": 13,
          "governorGloss": "kennzeichnen",
          "dependent": 12,
          "dependentGloss": "zu"
        },
        {
          "dep": "acl",
          "governor": 8,
          "governorGloss": "RAM",
          "dependent": 13,
          "dependentGloss": "kennzeichnen"
        }
      ],
      "tokens": [
        {
          "index": 1,
          "word": "Apfel-Uhr-Spezifikationen",
          "originalText": "Apfel-Uhr-Spezifikationen",
          "characterOffsetBegin": 0,
          "characterOffsetEnd": 25,
          "pos": "NN",
          "before": "",
          "after": " "
        },
        {
          "index": 2,
          "word": "Tipped",
          "originalText": "Tipped",
          "characterOffsetBegin": 26,
          "characterOffsetEnd": 32,
          "pos": "NE",
          "before": " ",
          "after": ""
        },
        {
          "index": 3,
          "word": ";",
          "originalText": ";",
          "characterOffsetBegin": 32,
          "characterOffsetEnd": 33,
          "pos": "$.",
          "before": "",
          "after": " "
        },
        {
          "index": 4,
          "word": "Said",
          "originalText": "Said",
          "characterOffsetBegin": 34,
          "characterOffsetEnd": 38,
          "pos": "NE",
          "before": " ",
          "after": ""
        },
        {
          "index": 5,
          "word": ",",
          "originalText": ",",
          "characterOffsetBegin": 38,
          "characterOffsetEnd": 39,
          "pos": "$,",
          "before": "",
          "after": " "
        },
        {
          "index": 6,
          "word": "um",
          "originalText": "um",
          "characterOffsetBegin": 40,
          "characterOffsetEnd": 42,
          "pos": "APPR",
          "before": " ",
          "after": " "
        },
        {
          "index": 7,
          "word": "512MB",
          "originalText": "512MB",
          "characterOffsetBegin": 43,
          "characterOffsetEnd": 48,
          "pos": "CARD",
          "before": " ",
          "after": " "
        },
        {
          "index": 8,
          "word": "RAM",
          "originalText": "RAM",
          "characterOffsetBegin": 49,
          "characterOffsetEnd": 52,
          "pos": "NE",
          "before": " ",
          "after": ""
        },
        {
          "index": 9,
          "word": ",",
          "originalText": ",",
          "characterOffsetBegin": 52,
          "characterOffsetEnd": 53,
          "pos": "$,",
          "before": "",
          "after": " "
        },
        {
          "index": 10,
          "word": "4GB",
          "originalText": "4GB",
          "characterOffsetBegin": 54,
          "characterOffsetEnd": 57,
          "pos": "CARD",
          "before": " ",
          "after": " "
        },
        {
          "index": 11,
          "word": "Speicher",
          "originalText": "Speicher",
          "characterOffsetBegin": 58,
          "characterOffsetEnd": 66,
          "pos": "NN",
          "before": " ",
          "after": " "
        },
        {
          "index": 12,
          "word": "zu",
          "originalText": "zu",
          "characterOffsetBegin": 67,
          "characterOffsetEnd": 69,
          "pos": "PTKZU",
          "before": " ",
          "after": " "
        },
        {
          "index": 13,
          "word": "kennzeichnen",
          "originalText": "kennzeichnen",
          "characterOffsetBegin": 70,
          "characterOffsetEnd": 82,
          "pos": "VVINF",
          "before": " ",
          "after": ""
        }
      ]
    }
  ]
}