{
  "sentences": [
    {
      "index": 0,
      "basicDependencies": [
        {
          "dep": "ROOT",
          "governor": 0,
          "governorGloss": "ROOT",
          "dependent": 2,
          "dependentGloss": "Culkin"
        },
        {
          "dep": "nsubj",
          "governor": 2,
          "governorGloss": "Culkin",
          "dependent": 1,
          "dependentGloss": "Macaulay"
        },
        {
          "dep": "neg",
          "governor": 12,
          "governorGloss": "Viral",
          "dependent": 3,
          "dependentGloss": "NICHT"
        },
        {
          "dep": "amod",
          "governor": 12,
          "governorGloss": "Viral",
          "dependent": 4,
          "dependentGloss": "Tote"
        },
        {
          "dep": "punct",
          "governor": 4,
          "governorGloss": "Tote",
          "dependent": 5,
          "dependentGloss": ":"
        },
        {
          "dep": "conj",
          "governor": 4,
          "governorGloss": "Tote",
          "dependent": 6,
          "dependentGloss": "Facebook"
        },
        {
          "dep": "punct",
          "governor": 4,
          "governorGloss": "Tote",
          "dependent": 7,
          "dependentGloss": ","
        },
        {
          "dep": "nmod",
          "governor": 11,
          "governorGloss": "geht",
          "dependent": 8,
          "dependentGloss": "Twitter"
        },
        {
          "dep": "cop",
          "governor": 11,
          "governorGloss": "geht",
          "dependent": 9,
          "dependentGloss": "Death"
        },
        {
          "dep": "nsubj",
          "governor": 11,
          "governorGloss": "geht",
          "dependent": 10,
          "dependentGloss": "Hoax"
        },
        {
          "dep": "conj",
          "governor": 4,
          "governorGloss": "Tote",
          "dependent": 11,
          "dependentGloss": "geht"
        },
        {
          "dep": "dobj",
          "governor": 2,
          "governorGloss": "Culkin",
          "dependent": 12,
          "dependentGloss": "Viral"
        }
      ],
      "enhancedDependencies": [
        {
          "dep": "ROOT",
          "governor": 0,
          "governorGloss": "ROOT",
          "dependent": 2,
          "dependentGloss": "Culkin"
        },
        {
          "dep": "nsubj",
          "governor": 2,
          "governorGloss": "Culkin",
          "dependent": 1,
          "dependentGloss": "Macaulay"
        },
        {
          "dep": "neg",
          "governor": 12,
          "governorGloss": "Viral",
          "dependent": 3,
          "dependentGloss": "NICHT"
        },
        {
          "dep": "amod",
          "governor": 12,
          "governorGloss": "Viral",
          "dependent": 4,
          "dependentGloss": "Tote"
        },
        {
          "dep": "punct",
          "governor": 4,
          "governorGloss": "Tote",
          "dependent": 5,
          "dependentGloss": ":"
        },
        {
          "dep": "conj",
          "governor": 4,
          "governorGloss": "Tote",
          "dependent": 6,
          "dependentGloss": "Facebook"
        },
        {
          "dep": "punct",
          "governor": 4,
          "governorGloss": "Tote",
          "dependent": 7,
          "dependentGloss": ","
        },
        {
          "dep": "nmod",
          "governor": 11,
          "governorGloss": "geht",
          "dependent": 8,
          "dependentGloss": "Twitter"
        },
        {
          "dep": "cop",
          "governor": 11,
          "governorGloss": "geht",
          "dependent": 9,
          "dependentGloss": "Death"
        },
        {
          "dep": "nsubj",
          "governor": 11,
          "governorGloss": "geht",
          "dependent": 10,
          "dependentGloss": "Hoax"
        },
        {
          "dep": "conj",
          "governor": 4,
          "governorGloss": "Tote",
          "dependent": 11,
          "dependentGloss": "geht"
        },
        {
          "dep": "dobj",
          "governor": 2,
          "governorGloss": "Culkin",
          "dependent": 12,
          "dependentGloss": "Viral"
        }
      ],
      "enhancedPlusPlusDependencies": [
        {
          "dep": "ROOT",
          "governor": 0,
          "governorGloss": "ROOT",
          "dependent": 2,
          "dependentGloss": "Culkin"
        },
        {
          "dep": "nsubj",
          "governor": 2,
          "governorGloss": "Culkin",
          "dependent": 1,
          "dependentGloss": "Macaulay"
        },
        {
          "dep": "neg",
          "governor": 12,
          "governorGloss": "Viral",
          "dependent": 3,
          "dependentGloss": "NICHT"
        },
        {
          "dep": "amod",
          "governor": 12,
          "governorGloss": "Viral",
          "dependent": 4,
          "dependentGloss": "Tote"
        },
        {
          "dep": "punct",
          "governor": 4,
          "governorGloss": "Tote",
          "dependent": 5,
          "dependentGloss": ":"
        },
        {
          "dep": "conj",
          "governor": 4,
          "governorGloss": "Tote",
          "dependent": 6,
          "dependentGloss": "Facebook"
        },
        {
          "dep": "punct",
          "governor": 4,
          "governorGloss": "Tote",
          "dependent": 7,
          "dependentGloss": ","
        },
        {
          "dep": "nmod",
          "governor": 11,
          "governorGloss": "geht",
          "dependent": 8,
          "dependentGloss": "Twitter"
        },
        {
          "dep": "cop",
          "governor": 11,
          "governorGloss": "geht",
          "dependent": 9,
          "dependentGloss": "Death"
        },
        {
          "dep": "nsubj",
          "governor": 11,
          "governorGloss": "geht",
          "dependent": 10,
          "dependentGloss": "Hoax"
        },
        {
          "dep": "conj",
          "governor": 4,
          "governorGloss": "Tote",
          "dependent": 11,
          "dependentGloss": "geht"
        },
        {
          "dep": "dobj",
          "governor": 2,
          "governorGloss": "Culkin",
          "dependent": 12,
          "dependentGloss": "Viral"
        }
      ],
      "tokens": [
        {
          "index": 1,
          "word": "Macaulay",
          "originalText": "Macaulay",
          "characterOffsetBegin": 0,
          "characterOffsetEnd": 8,
          "pos": "NE",
          "before": "",
          "after": " "
        },
        {
          "index": 2,
          "word": "Culkin",
          "originalText": "Culkin",
          "characterOffsetBegin": 9,
          "characterOffsetEnd": 15,
          "pos": "NE",
          "before": " ",
          "after": " "
        },
        {
          "index": 3,
          "word": "NICHT",
          "originalText": "NICHT",
          "characterOffsetBegin": 16,
          "characterOffsetEnd": 21,
          "pos": "NE",
          "before": " ",
          "after": " "
        },
        {
          "index": 4,
          "word": "Tote",
          "originalText": "Tote",
          "characterOffsetBegin": 22,
          "characterOffsetEnd": 26,
          "pos": "NN",
          "before": " ",
          "after": ""
        },
        {
          "index": 5,
          "word": ":",
          "originalText": ":",
          "characterOffsetBegin": 26,
          "characterOffsetEnd": 27,
          "pos": "$.",
          "before": "",
          "after": " "
        },
        {
          "index": 6,
          "word": "Facebook",
          "originalText": "Facebook",
          "characterOffsetBegin": 28,
          "characterOffsetEnd": 36,
          "pos": "NN",
          "before": " ",
          "after": ""
        },
        {
          "index": 7,
          "word": ",",
          "originalText": ",",
          "characterOffsetBegin": 36,
          "characterOffsetEnd": 37,
          "pos": "$,",
          "before": "",
          "after": " "
        },
        {
          "index": 8,
          "word": "Twitter",
          "originalText": "Twitter",
          "characterOffsetBegin": 38,
          "characterOffsetEnd": 45,
          "pos": "FM",
          "before": " ",
          "after": " "
        },
        {
          "index": 9,
          "word": "Death",
          "originalText": "Death",
          "characterOffsetBegin": 46,
          "characterOffsetEnd": 51,
          "pos": "FM",
          "before": " ",
          "after": " "
        },
        {
          "index": 10,
          "word": "Hoax",
          "originalText": "Hoax",
          "characterOffsetBegin": 52,
          "characterOffsetEnd": 56,
          "pos": "FM",
          "before": " ",
          "after": " "
        },
        {
          "index": 11,
          "word": "geht",
          "originalText": "geht",
          "characterOffsetBegin": 57,
          "characterOffsetEnd": 61,
          "pos": "VVFIN",
          "before": " ",
          "after": " "
        },
        {
          "index": 12,
          "word": "Viral",
          "originalText": "Viral",
          "characterOffsetBegin": 62,
          "characterOffsetEnd": 67,
          "pos": "NE",
          "before": " ",
          "after": ""
        }
      ]
    }
  ]
}