{
  "sentences": [
    {
      "index": 0,
      "basicDependencies": [
        {
          "dep": "ROOT",
          "governor": 0,
          "governorGloss": "ROOT",
          "dependent": 4,
          "dependentGloss": "stirbt"
        },
        {
          "dep": "nsubj",
          "governor": 4,
          "governorGloss": "stirbt",
          "dependent": 1,
          "dependentGloss": "US-Geisel"
        },
        {
          "dep": "amod",
          "governor": 3,
          "governorGloss": "Somers",
          "dependent": 2,
          "dependentGloss": "Luke"
        },
        {
          "dep": "det",
          "governor": 1,
          "governorGloss": "US-Geisel",
          "dependent": 3,
          "dependentGloss": "Somers"
        },
        {
          "dep": "case",
          "governor": 6,
          "governorGloss": "Rettungsgebot",
          "dependent": 5,
          "dependentGloss": "nach"
        },
        {
          "dep": "nmod",
          "governor": 4,
          "governorGloss": "stirbt",
          "dependent": 6,
          "dependentGloss": "Rettungsgebot"
        }
      ],
      "enhancedDependencies": [
        {
          "dep": "ROOT",
          "governor": 0,
          "governorGloss": "ROOT",
          "dependent": 4,
          "dependentGloss": "stirbt"
        },
        {
          "dep": "nsubj",
          "governor": 4,
          "governorGloss": "stirbt",
          "dependent": 1,
          "dependentGloss": "US-Geisel"
        },
        {
          "dep": "amod",
          "governor": 3,
          "governorGloss": "Somers",
          "dependent": 2,
          "dependentGloss": "Luke"
        },
        {
          "dep": "det",
          "governor": 1,
          "governorGloss": "US-Geisel",
          "dependent": 3,
          "dependentGloss": "Somers"
        },
        {
          "dep": "case",
          "governor": 6,
          "governorGloss": "Rettungsgebot",
          "dependent": 5,
          "dependentGloss": "nach"
        },
        {
          "dep": "nmod",
          "governor": 4,
          "governorGloss": "stirbt",
          "dependent": 6,
          "dependentGloss": "Rettungsgebot"
        }
      ],
      "enhancedPlusPlusDependencies": [
        {
          "dep": "ROOT",
          "governor": 0,
          "governorGloss": "ROOT",
          "dependent": 4,
          "dependentGloss": "stirbt"
        },
        {
          "dep": "nsubj",
          "governor": 4,
          "governorGloss": "stirbt",
          "dependent": 1,
          "dependentGloss": "US-Geisel"
        },
        {
          "dep": "amod",
          "governor": 3,
          "governorGloss": "Somers",
          "dependent": 2,
          "dependentGloss": "Luke"
        },
        {
          "dep": "det",
          "governor": 1,
          "governorGloss": "US-Geisel",
          "dependent": 3,
          "dependentGloss": "Somers"
        },
        {
          "dep": "case",
          "governor": 6,
          "governorGloss": "Rettungsgebot",
          "dependent": 5,
          "dependentGloss": "nach"
        },
        {
          "dep": "nmod",
          "governor": 4,
          "governorGloss": "stirbt",
          "dependent": 6,
          "dependentGloss": "Rettungsgebot"
        }
      ],
      "tokens": [
        {
          "index": 1,
          "word": "US-Geisel",
          "originalText": "US-Geisel",
          "characterOffsetBegin": 0,
          "characterOffsetEnd": 9,
          "pos": "NN",
          "before": "",
          "after": " "
        },
        {
          "index": 2,
          "word": "Luke",
          "originalText": "Luke",
          "characterOffsetBegin": 10,
          "characterOffsetEnd": 14,
          "pos": "NE",
          "before": " ",
          "after": " "
        },
        {
          "index": 3,
          "word": "Somers",
          "originalText": "Somers",
          "characterOffsetBegin": 15,
          "characterOffsetEnd": 21,
          "pos": "NE",
          "before": " ",
          "after": " "
        },
        {
          "index": 4,
          "word": "stirbt",
          "originalText": "stirbt",
          "characterOffsetBegin": 22,
          "characterOffsetEnd": 28,
          "pos": "VVFIN",
          "before": " ",
          "after": " "
        },
        {
          "index": 5,
          "word": "nach",
          "originalText": "nach",
          "characterOffsetBegin": 29,
          "characterOffsetEnd": 33,
          "pos": "APPR",
          "before": " ",
          "after": " "
        },
        {
          "index": 6,
          "word": "Rettungsgebot",
          "originalText": "Rettungsgebot",
          "characterOffsetBegin": 34,
          "characterOffsetEnd": 47,
          "pos": "NN",
          "before": " ",
          "after": ""
        }
      ]
    }
  ]
}