{
  "sentences": [
    {
      "index": 0,
      "basicDependencies": [
        {
          "dep": "ROOT",
          "governor": 0,
          "governorGloss": "ROOT",
          "dependent": 27,
          "dependentGloss": "-RRB-"
        },
        {
          "dep": "name",
          "governor": 2,
          "governorGloss": "Alert",
          "dependent": 1,
          "dependentGloss": "Hoax"
        },
        {
          "dep": "nsubj",
          "governor": 27,
          "governorGloss": "-RRB-",
          "dependent": 2,
          "dependentGloss": "Alert"
        },
        {
          "dep": "punct",
          "governor": 2,
          "governorGloss": "Alert",
          "dependent": 3,
          "dependentGloss": ":"
        },
        {
          "dep": "name",
          "governor": 5,
          "governorGloss": "O'Neal",
          "dependent": 4,
          "dependentGloss": "Vater"
        },
        {
          "dep": "appos",
          "governor": 2,
          "governorGloss": "Alert",
          "dependent": 5,
          "dependentGloss": "O'Neal"
        },
        {
          "dep": "punct",
          "governor": 2,
          "governorGloss": "Alert",
          "dependent": 6,
          "dependentGloss": ","
        },
        {
          "dep": "det",
          "governor": 8,
          "governorGloss": "Gott",
          "dependent": 7,
          "dependentGloss": "der"
        },
        {
          "dep": "nsubj",
          "governor": 9,
          "governorGloss": "geträumt",
          "dependent": 8,
          "dependentGloss": "Gott"
        },
        {
          "dep": "conj",
          "governor": 2,
          "governorGloss": "Alert",
          "dependent": 9,
          "dependentGloss": "geträumt"
        },
        {
          "dep": "aux",
          "governor": 9,
          "governorGloss": "geträumt",
          "dependent": 10,
          "dependentGloss": "hat"
        },
        {
          "dep": "cc",
          "governor": 9,
          "governorGloss": "geträumt",
          "dependent": 11,
          "dependentGloss": "und"
        },
        {
          "dep": "conj",
          "governor": 9,
          "governorGloss": "geträumt",
          "dependent": 12,
          "dependentGloss": "denkt"
        },
        {
          "dep": "punct",
          "governor": 12,
          "governorGloss": "denkt",
          "dependent": 13,
          "dependentGloss": ","
        },
        {
          "dep": "mark",
          "governor": 17,
          "governorGloss": "Frau",
          "dependent": 14,
          "dependentGloss": "dass"
        },
        {
          "dep": "nsubj",
          "governor": 17,
          "governorGloss": "Frau",
          "dependent": 15,
          "dependentGloss": "sie"
        },
        {
          "dep": "det",
          "governor": 17,
          "governorGloss": "Frau",
          "dependent": 16,
          "dependentGloss": "eine"
        },
        {
          "dep": "ccomp",
          "governor": 12,
          "governorGloss": "denkt",
          "dependent": 17,
          "dependentGloss": "Frau"
        },
        {
          "dep": "cop",
          "governor": 17,
          "governorGloss": "Frau",
          "dependent": 18,
          "dependentGloss": "ist"
        },
        {
          "dep": "punct",
          "governor": 2,
          "governorGloss": "Alert",
          "dependent": 19,
          "dependentGloss": ","
        },
        {
          "dep": "cop",
          "governor": 27,
          "governorGloss": "-RRB-",
          "dependent": 20,
          "dependentGloss": "ist"
        },
        {
          "dep": "cop",
          "governor": 27,
          "governorGloss": "-RRB-",
          "dependent": 21,
          "dependentGloss": "gemacht"
        },
        {
          "dep": "advmod",
          "governor": 27,
          "governorGloss": "-RRB-",
          "dependent": 22,
          "dependentGloss": "-LRB-"
        },
        {
          "dep": "advmod",
          "governor": 25,
          "governorGloss": "Gott",
          "dependent": 23,
          "dependentGloss": "genau"
        },
        {
          "dep": "case",
          "governor": 25,
          "governorGloss": "Gott",
          "dependent": 24,
          "dependentGloss": "wie"
        },
        {
          "dep": "nmod",
          "governor": 27,
          "governorGloss": "-RRB-",
          "dependent": 25,
          "dependentGloss": "Gott"
        },
        {
          "dep": "advmod",
          "governor": 25,
          "governorGloss": "Gott",
          "dependent": 26,
          "dependentGloss": "selbst"
        }
      ],
      "enhancedDependencies": [
        {
          "dep": "ROOT",
          "governor": 0,
          "governorGloss": "ROOT",
          "dependent": 27,
          "dependentGloss": "-RRB-"
        },
        {
          "dep": "name",
          "governor": 2,
          "governorGloss": "Alert",
          "dependent": 1,
          "dependentGloss": "Hoax"
        },
        {
          "dep": "nsubj",
          "governor": 27,
          "governorGloss": "-RRB-",
          "dependent": 2,
          "dependentGloss": "Alert"
        },
        {
          "dep": "punct",
          "governor": 2,
          "governorGloss": "Alert",
          "dependent": 3,
          "dependentGloss": ":"
        },
        {
          "dep": "name",
          "governor": 5,
          "governorGloss": "O'Neal",
          "dependent": 4,
          "dependentGloss": "Vater"
        },
        {
          "dep": "appos",
          "governor": 2,
          "governorGloss": "Alert",
          "dependent": 5,
          "dependentGloss": "O'Neal"
        },
        {
          "dep": "punct",
          "governor": 2,
          "governorGloss": "Alert",
          "dependent": 6,
          "dependentGloss": ","
        },
        {
          "dep": "det",
          "governor": 8,
          "governorGloss": "Gott",
          "dependent": 7,
          "dependentGloss": "der"
        },
        {
          "dep": "nsubj",
          "governor": 9,
          "governorGloss": "geträumt",
          "dependent": 8,
          "dependentGloss": "Gott"
        },
        {
          "dep": "conj",
          "governor": 2,
          "governorGloss": "Alert",
          "dependent": 9,
          "dependentGloss": "geträumt"
        },
        {
          "dep": "aux",
          "governor": 9,
          "governorGloss": "geträumt",
          "dependent": 10,
          "dependentGloss": "hat"
        },
        {
          "dep": "cc",
          "governor": 9,
          "governorGloss": "geträumt",
          "dependent": 11,
          "dependentGloss": "und"
        },
        {
          "dep": "conj",
          "governor": 2,
          "governorGloss": "Alert",
          "dependent": 12,
          "dependentGloss": "denkt"
        },
        {
          "dep": "conj:und",
          "governor": 9,
          "governorGloss": "geträumt",
          "dependent": 12,
          "dependentGloss": "denkt"
        },
        {
          "dep": "punct",
          "governor": 12,
          "governorGloss": "denkt",
          "dependent": 13,
          "dependentGloss": ","
        },
        {
          "dep": "mark",
          "governor": 17,
          "governorGloss": "Frau",
          "dependent": 14,
          "dependentGloss": "dass"
        },
        {
          "dep": "nsubj",
          "governor": 17,
          "governorGloss": "Frau",
          "dependent": 15,
          "dependentGloss": "sie"
        },
        {
          "dep": "det",
          "governor": 17,
          "governorGloss": "Frau",
          "dependent": 16,
          "dependentGloss": "eine"
        },
        {
          "dep": "ccomp",
          "governor": 12,
          "governorGloss": "denkt",
          "dependent": 17,
          "dependentGloss": "Frau"
        },
        {
          "dep": "cop",
          "governor": 17,
          "governorGloss": "Frau",
          "dependent": 18,
          "dependentGloss": "ist"
        },
        {
          "dep": "punct",
          "governor": 2,
          "governorGloss": "Alert",
          "dependent": 19,
          "dependentGloss": ","
        },
        {
          "dep": "cop",
          "governor": 27,
          "governorGloss": "-RRB-",
          "dependent": 20,
          "dependentGloss": "ist"
        },
        {
          "dep": "cop",
          "governor": 27,
          "governorGloss": "-RRB-",
          "dependent": 21,
          "dependentGloss": "gemacht"
        },
        {
          "dep": "advmod",
          "governor": 27,
          "governorGloss": "-RRB-",
          "dependent": 22,
          "dependentGloss": "-LRB-"
        },
        {
          "dep": "advmod",
          "governor": 25,
          "governorGloss": "Gott",
          "dependent": 23,
          "dependentGloss": "genau"
        },
        {
          "dep": "case",
          "governor": 25,
          "governorGloss": "Gott",
          "dependent": 24,
          "dependentGloss": "wie"
        },
        {
          "dep": "nmod",
          "governor": 27,
          "governorGloss": "-RRB-",
          "dependent": 25,
          "dependentGloss": "Gott"
        },
        {
          "dep": "advmod",
          "governor": 25,
          "governorGloss": "Gott",
          "dependent": 26,
          "dependentGloss": "selbst"
        }
      ],
      "enhancedPlusPlusDependencies": [
        {
          "dep": "ROOT",
          "governor": 0,
          "governorGloss": "ROOT",
          "dependent": 27,
          "dependentGloss": "-RRB-"
        },
        {
          "dep": "name",
          "governor": 2,
          "governorGloss": "Alert",
          "dependent": 1,
          "dependentGloss": "Hoax"
        },
        {
          "dep": "nsubj",
          "governor": 27,
          "governorGloss": "-RRB-",
          "dependent": 2,
          "dependentGloss": "Alert"
        },
        {
          "dep": "punct",
          "governor": 2,
          "governorGloss": "Alert",
          "dependent": 3,
          "dependentGloss": ":"
        },
        {
          "dep": "name",
          "governor": 5,
          "governorGloss": "O'Neal",
          "dependent": 4,
          "dependentGloss": "Vater"
        },
        {
          "dep": "appos",
          "governor": 2,
          "governorGloss": "Alert",
          "dependent": 5,
          "dependentGloss": "O'Neal"
        },
        {
          "dep": "punct",
          "governor": 2,
          "governorGloss": "Alert",
          "dependent": 6,
          "dependentGloss": ","
        },
        {
          "dep": "det",
          "governor": 8,
          "governorGloss": "Gott",
          "dependent": 7,
          "dependentGloss": "der"
        },
        {
          "dep": "nsubj",
          "governor": 9,
          "governorGloss": "geträumt",
          "dependent": 8,
          "dependentGloss": "Gott"
        },
        {
          "dep": "conj",
          "governor": 2,
          "governorGloss": "Alert",
          "dependent": 9,
          "dependentGloss": "geträumt"
        },
        {
          "dep": "aux",
          "governor": 9,
          "governorGloss": "geträumt",
          "dependent": 10,
          "dependentGloss": "hat"
        },
        {
          "dep": "cc",
          "governor": 9,
          "governorGloss": "geträumt",
          "dependent": 11,
          "dependentGloss": "und"
        },
        {
          "dep": "conj",
          "governor": 2,
          "governorGloss": "Alert",
          "dependent": 12,
          "dependentGloss": "denkt"
        },
        {
          "dep": "conj:und",
          "governor": 9,
          "governorGloss": "geträumt",
          "dependent": 12,
          "dependentGloss": "denkt"
        },
        {
          "dep": "punct",
          "governor": 12,
          "governorGloss": "denkt",
          "dependent": 13,
          "dependentGloss": ","
        },
        {
          "dep": "mark",
          "governor": 17,
          "governorGloss": "Frau",
          "dependent": 14,
          "dependentGloss": "dass"
        },
        {
          "dep": "nsubj",
          "governor": 17,
          "governorGloss": "Frau",
          "dependent": 15,
          "dependentGloss": "sie"
        },
        {
          "dep": "det",
          "governor": 17,
          "governorGloss": "Frau",
          "dependent": 16,
          "dependentGloss": "eine"
        },
        {
          "dep": "ccomp",
          "governor": 12,
          "governorGloss": "denkt",
          "dependent": 17,
          "dependentGloss": "Frau"
        },
        {
          "dep": "cop",
          "governor": 17,
          "governorGloss": "Frau",
          "dependent": 18,
          "dependentGloss": "ist"
        },
        {
          "dep": "punct",
          "governor": 2,
          "governorGloss": "Alert",
          "dependent": 19,
          "dependentGloss": ","
        },
        {
          "dep": "cop",
          "governor": 27,
          "governorGloss": "-RRB-",
          "dependent": 20,
          "dependentGloss": "ist"
        },
        {
          "dep": "cop",
          "governor": 27,
          "governorGloss": "-RRB-",
          "dependent": 21,
          "dependentGloss": "gemacht"
        },
        {
          "dep": "advmod",
          "governor": 27,
          "governorGloss": "-RRB-",
          "dependent": 22,
          "dependentGloss": "-LRB-"
        },
        {
          "dep": "advmod",
          "governor": 25,
          "governorGloss": "Gott",
          "dependent": 23,
          "dependentGloss": "genau"
        },
        {
          "dep": "case",
          "governor": 25,
          "governorGloss": "Gott",
          "dependent": 24,
          "dependentGloss": "wie"
        },
        {
          "dep": "nmod",
          "governor": 27,
          "governorGloss": "-RRB-",
          "dependent": 25,
          "dependentGloss": "Gott"
        },
        {
          "dep": "advmod",
          "governor": 25,
          "governorGloss": "Gott",
          "dependent": 26,
          "dependentGloss": "selbst"
        }
      ],
      "tokens": [
        {
          "index": 1,
          "word": "Hoax",
          "originalText": "Hoax",
          "characterOffsetBegin": 0,
          "characterOffsetEnd": 4,
          "pos": "NE",
          "before": "",
          "after": " "
        },
        {
          "index": 2,
          "word": "Alert",
          "originalText": "Alert",
          "characterOffsetBegin": 5,
          "characterOffsetEnd": 10,
          "pos": "NE",
          "before": " ",
          "after": ""
        },
        {
          "index": 3,
          "word": ":",
          "originalText": ":",
          "characterOffsetBegin": 10,
          "characterOffsetEnd": 11,
          "pos": "$.",
          "before": "",
          "after": " "
        },
        {
          "index": 4,
          "word": "Vater",
          "originalText": "Vater",
          "characterOffsetBegin": 12,
          "characterOffsetEnd": 17,
          "pos": "NN",
          "before": " ",
          "after": " "
        },
        {
          "index": 5,
          "word": "O'Neal",
          "originalText": "O'Neal",
          "characterOffsetBegin": 18,
          "characterOffsetEnd": 24,
          "pos": "NN",
          "before": " ",
          "after": ""
        },
        {
          "index": 6,
          "word": ",",
          "originalText": ",",
          "characterOffsetBegin": 24,
          "characterOffsetEnd": 25,
          "pos": "$,",
          "before": "",
          "after": " "
        },
        {
          "index": 7,
          "word": "der",
          "originalText": "der",
          "characterOffsetBegin": 26,
          "characterOffsetEnd": 29,
          "pos": "ART",
          "before": " ",
          "after": " "
        },
        {
          "index": 8,
          "word": "Gott",
          "originalText": "Gott",
          "characterOffsetBegin": 30,
          "characterOffsetEnd": 34,
          "pos": "NN",
          "before": " ",
          "after": " "
        },
        {
          "index": 9,
          "word": "geträumt",
          "originalText": "geträumt",
          "characterOffsetBegin": 35,
          "characterOffsetEnd": 43,
          "pos": "VVPP",
          "before": " ",
          "after": " "
        },
        {
          "index": 10,
          "word": "hat",
          "originalText": "hat",
          "characterOffsetBegin": 44,
          "characterOffsetEnd": 47,
          "pos": "VAFIN",
          "before": " ",
          "after": " "
        },
        {
          "index": 11,
          "word": "und",
          "originalText": "und",
          "characterOffsetBegin": 48,
          "characterOffsetEnd": 51,
          "pos": "KON",
          "before": " ",
          "after": " "
        },
        {
          "index": 12,
          "word": "denkt",
          "originalText": "denkt",
          "characterOffsetBegin": 52,
          "characterOffsetEnd": 57,
          "pos": "VVFIN",
          "before": " ",
          "after": ""
        },
        {
          "index": 13,
          "word": ",",
          "originalText": ",",
          "characterOffsetBegin": 57,
          "characterOffsetEnd": 58,
          "pos": "$,",
          "before": "",
          "after": " "
        },
        {
          "index": 14,
          "word": "dass",
          "originalText": "dass",
          "characterOffsetBegin": 59,
          "characterOffsetEnd": 63,
          "pos": "KOUS",
          "before": " ",
          "after": " "
        },
        {
          "index": 15,
          "word": "sie",
          "originalText": "sie",
          "characterOffsetBegin": 64,
          "characterOffsetEnd": 67,
          "pos": "PPER",
          "before": " ",
          "after": " "
        },
        {
          "index": 16,
          "word": "eine",
          "originalText": "eine",
          "characterOffsetBegin": 68,
          "characterOffsetEnd": 72,
          "pos": "ART",
          "before": " ",
          "after": " "
        },
        {
          "index": 17,
          "word": "Frau",
          "originalText": "Frau",
          "characterOffsetBegin": 73,
          "characterOffsetEnd": 77,
          "pos": "NN",
          "before": " ",
          "after": " "
        },
        {
          "index": 18,
          "word": "ist",
          "originalText": "ist",
          "characterOffsetBegin": 78,
          "characterOffsetEnd": 81,
          "pos": "VAFIN",
          "before": " ",
          "after": ""
        },
        {
          "index": 19,
          "word": ",",
          "originalText": ",",
          "characterOffsetBegin": 81,
          "characterOffsetEnd": 82,
          "pos": "$,",
          "before": "",
          "after": " "
        },
        {
          "index": 20,
          "word": "ist",
          "originalText": "ist",
          "characterOffsetBegin": 83,
          "characterOffsetEnd": 86,
          "pos": "VAFIN",
          "before": " ",
          "after": " "
        },
        {
          "index": 21,
          "word": "gemacht",
          "originalText": "gemacht",
          "characterOffsetBegin": 87,
          "characterOffsetEnd": 94,
          "pos": "VVPP",
          "before": " ",
          "after": " "
        },
        {
          "index": 22,
          "word": "-LRB-",
          "originalText": "(",
          "characterOffsetBegin": 95,
          "characterOffsetEnd": 96,
          "pos": "TRUNC",
          "before": " ",
          "after": ""
        },
        {
          "index": 23,
          "word": "genau",
          "originalText": "genau",
          "characterOffsetBegin": 96,
          "characterOffsetEnd": 101,
          "pos": "ADJD",
          "before": "",
          "after": " "
        },
        {
          "index": 24,
          "word": "wie",
          "originalText": "wie",
          "characterOffsetBegin": 102,
          "characterOffsetEnd": 105,
          "pos": "KOKOM",
          "before": " ",
          "after": " "
        },
        {
          "index": 25,
          "word": "Gott",
          "originalText": "Gott",
          "characterOffsetBegin": 106,
          "characterOffsetEnd": 110,
          "pos": "NN",
          "before": " ",
          "after": " "
        },
        {
          "index": 26,
          "word": "selbst",
          "originalText": "selbst",
          "characterOffsetBegin": 111,
          "characterOffsetEnd": 117,
          "pos": "ADV",
          "before": " ",
          "after": ""
        },
        {
          "index": 27,
          "word": "-RRB-",
          "originalText": ")",
          "characterOffsetBegin": 117,
          "characterOffsetEnd": 118,
          "pos": "TRUNC",
          "before": "",
          "after": ""
        }
      ]
    }
  ]
}