{
  "sentences": [
    {
      "index": 0,
      "basicDependencies": [
        {
          "dep": "ROOT",
          "governor": 0,
          "governorGloss": "ROOT",
          "dependent": 1,
          "dependentGloss": "`"
        },
        {
          "dep": "appos",
          "governor": 1,
          "governorGloss": "`",
          "dependent": 2,
          "dependentGloss": "Jihadi"
        },
        {
          "dep": "det",
          "governor": 5,
          "governorGloss": "identifiziert",
          "dependent": 3,
          "dependentGloss": "John"
        },
        {
          "dep": "case",
          "governor": 3,
          "governorGloss": "John",
          "dependent": 4,
          "dependentGloss": "'"
        },
        {
          "dep": "dobj",
          "governor": 2,
          "governorGloss": "Jihadi",
          "dependent": 5,
          "dependentGloss": "identifiziert"
        },
        {
          "dep": "punct",
          "governor": 5,
          "governorGloss": "identifiziert",
          "dependent": 6,
          "dependentGloss": ":"
        },
        {
          "dep": "name",
          "governor": 8,
          "governorGloss": "Killer",
          "dependent": 7,
          "dependentGloss": "ISIS"
        },
        {
          "dep": "appos",
          "governor": 5,
          "governorGloss": "identifiziert",
          "dependent": 8,
          "dependentGloss": "Killer"
        },
        {
          "dep": "case",
          "governor": 11,
          "governorGloss": "Emwazi",
          "dependent": 9,
          "dependentGloss": "namens"
        },
        {
          "dep": "name",
          "governor": 11,
          "governorGloss": "Emwazi",
          "dependent": 10,
          "dependentGloss": "Mohammed"
        },
        {
          "dep": "nmod",
          "governor": 8,
          "governorGloss": "Killer",
          "dependent": 11,
          "dependentGloss": "Emwazi"
        },
        {
          "dep": "case",
          "governor": 14,
          "governorGloss": "London",
          "dependent": 12,
          "dependentGloss": "aus"
        },
        {
          "dep": "name",
          "governor": 14,
          "governorGloss": "London",
          "dependent": 13,
          "dependentGloss": "West"
        },
        {
          "dep": "nmod",
          "governor": 11,
          "governorGloss": "Emwazi",
          "dependent": 14,
          "dependentGloss": "London"
        }
      ],
      "enhancedDependencies": [
        {
          "dep": "ROOT",
          "governor": 0,
          "governorGloss": "ROOT",
          "dependent": 1,
          "dependentGloss": "`"
        },
        {
          "dep": "appos",
          "governor": 1,
          "governorGloss": "`",
          "dependent": 2,
          "dependentGloss": "Jihadi"
        },
        {
          "dep": "det",
          "governor": 5,
          "governorGloss": "identifiziert",
          "dependent": 3,
          "dependentGloss": "John"
        },
        {
          "dep": "case",
          "governor": 3,
          "governorGloss": "John",
          "dependent": 4,
          "dependentGloss": "'"
        },
        {
          "dep": "dobj",
          "governor": 2,
          "governorGloss": "Jihadi",
          "dependent": 5,
          "dependentGloss": "identifiziert"
        },
        {
          "dep": "punct",
          "governor": 5,
          "governorGloss": "identifiziert",
          "dependent": 6,
          "dependentGloss": ":"
        },
        {
          "dep": "name",
          "governor": 8,
          "governorGloss": "Killer",
          "dependent": 7,
          "dependentGloss": "ISIS"
        },
        {
          "dep": "appos",
          "governor": 5,
          "governorGloss": "identifiziert",
          "dependent": 8,
          "dependentGloss": "Killer"
        },
        {
          "dep": "case",
          "governor": 11,
          "governorGloss": "Emwazi",
          "dependent": 9,
          "dependentGloss": "namens"
        },
        {
          "dep": "name",
          "governor": 11,
          "governorGloss": "Emwazi",
          "dependent": 10,
          "dependentGloss": "Mohammed"
        },
        {
          "dep": "nmod",
          "governor": 8,
          "governorGloss": "Killer",
          "dependent": 11,
          "dependentGloss": "Emwazi"
        },
        {
          "dep": "case",
          "governor": 14,
          "governorGloss": "London",
          "dependent": 12,
          "dependentGloss": "aus"
        },
        {
          "dep": "name",
          "governor": 14,
          "governorGloss": "London",
          "dependent": 13,
          "dependentGloss": "West"
        },
        {
          "dep": "nmod",
          "governor": 11,
          "governorGloss": "Emwazi",
          "dependent": 14,
          "dependentGloss": "London"
        }
      ],
      "enhancedPlusPlusDependencies": [
        {
          "dep": "ROOT",
          "governor": 0,
          "governorGloss": "ROOT",
          "dependent": 1,
          "dependentGloss": "`"
        },
        {
          "dep": "appos",
          "governor": 1,
          "governorGloss": "`",
          "dependent": 2,
          "dependentGloss": "Jihadi"
        },
        {
          "dep": "det",
          "governor": 5,
          "governorGloss": "identifiziert",
          "dependent": 3,
          "dependentGloss": "John"
        },
        {
          "dep": "case",
          "governor": 3,
          "governorGloss": "John",
          "dependent": 4,
          "dependentGloss": "'"
        },
        {
          "dep": "dobj",
          "governor": 2,
          "governorGloss": "Jihadi",
          "dependent": 5,
          "dependentGloss": "identifiziert"
        },
        {
          "dep": "punct",
          "governor": 5,
          "governorGloss": "identifiziert",
          "dependent": 6,
          "dependentGloss": ":"
        },
        {
          "dep": "name",
          "governor": 8,
          "governorGloss": "Killer",
          "dependent": 7,
          "dependentGloss": "ISIS"
        },
        {
          "dep": "appos",
          "governor": 5,
          "governorGloss": "identifiziert",
          "dependent": 8,
          "dependentGloss": "Killer"
        },
        {
          "dep": "case",
          "governor": 11,
          "governorGloss": "Emwazi",
          "dependent": 9,
          "dependentGloss": "namens"
        },
        {
          "dep": "name",
          "governor": 11,
          "governorGloss": "Emwazi",
          "dependent": 10,
          "dependentGloss": "Mohammed"
        },
        {
          "dep": "nmod",
          "governor": 8,
          "governorGloss": "Killer",
          "dependent": 11,
          "dependentGloss": "Emwazi"
        },
        {
          "dep": "case",
          "governor": 14,
          "governorGloss": "London",
          "dependent": 12,
          "dependentGloss": "aus"
        },
        {
          "dep": "name",
          "governor": 14,
          "governorGloss": "London",
          "dependent": 13,
          "dependentGloss": "West"
        },
        {
          "dep": "nmod",
          "governor": 11,
          "governorGloss": "Emwazi",
          "dependent": 14,
          "dependentGloss": "London"
        }
      ],
      "tokens": [
        {
          "index": 1,
          "word": "`",
          "originalText": "'",
          "characterOffsetBegin": 0,
          "characterOffsetEnd": 1,
          "pos": "XY",
          "before": "",
          "after": ""
        },
        {
          "index": 2,
          "word": "Jihadi",
          "originalText": "Jihadi",
          "characterOffsetBegin": 1,
          "characterOffsetEnd": 7,
          "pos": "NE",
          "before": "",
          "after": " "
        },
        {
          "index": 3,
          "word": "John",
          "originalText": "John",
          "characterOffsetBegin": 8,
          "characterOffsetEnd": 12,
          "pos": "NE",
          "before": " ",
          "after": ""
        },
        {
          "index": 4,
          "word": "'",
          "originalText": "'",
          "characterOffsetBegin": 12,
          "characterOffsetEnd": 13,
          "pos": "$[",
          "before": "",
          "after": " "
        },
        {
          "index": 5,
          "word": "identifiziert",
          "originalText": "identifiziert",
          "characterOffsetBegin": 14,
          "characterOffsetEnd": 27,
          "pos": "VVFIN",
          "before": " ",
          "after": ""
        },
        {
          "index": 6,
          "word": ":",
          "originalText": ":",
          "characterOffsetBegin": 27,
          "characterOffsetEnd": 28,
          "pos": "$.",
          "before": "",
          "after": " "
        },
        {
          "index": 7,
          "word": "ISIS",
          "originalText": "ISIS",
          "characterOffsetBegin": 29,
          "characterOffsetEnd": 33,
          "pos": "NE",
          "before": " ",
          "after": " "
        },
        {
          "index": 8,
          "word": "Killer",
          "originalText": "Killer",
          "characterOffsetBegin": 34,
          "characterOffsetEnd": 40,
          "pos": "NE",
          "before": " ",
          "after": " "
        },
        {
          "index": 9,
          "word": "namens",
          "originalText": "namens",
          "characterOffsetBegin": 41,
          "characterOffsetEnd": 47,
          "pos": "APPR",
          "before": " ",
          "after": " "
        },
        {
          "index": 10,
          "word": "Mohammed",
          "originalText": "Mohammed",
          "characterOffsetBegin": 48,
          "characterOffsetEnd": 56,
          "pos": "NE",
          "before": " ",
          "after": " "
        },
        {
          "index": 11,
          "word": "Emwazi",
          "originalText": "Emwazi",
          "characterOffsetBegin": 57,
          "characterOffsetEnd": 63,
          "pos": "NE",
          "before": " ",
          "after": " "
        },
        {
          "index": 12,
          "word": "aus",
          "originalText": "aus",
          "characterOffsetBegin": 64,
          "characterOffsetEnd": 67,
          "pos": "APPR",
          "before": " ",
          "after": " "
        },
        {
          "index": 13,
          "word": "West",
          "originalText": "West",
          "characterOffsetBegin": 68,
          "characterOffsetEnd": 72,
          "pos": "NN",
          "before": " ",
          "after": " "
        },
        {
          "index": 14,
          "word": "London",
          "originalText": "London",
          "characterOffsetBegin": 73,
          "characterOffsetEnd": 79,
          "pos": "NE",
          "before": " ",
          "after": ""
        }
      ]
    }
  ]
}