{
  "sentences": [
    {
      "index": 0,
      "basicDependencies": [
        {
          "dep": "ROOT",
          "governor": 0,
          "governorGloss": "ROOT",
          "dependent": 3,
          "dependentGloss": "Beschwerden"
        },
        {
          "dep": "advmod",
          "governor": 3,
          "governorGloss": "Beschwerden",
          "dependent": 1,
          "dependentGloss": "Nun"
        },
        {
          "dep": "punct",
          "governor": 3,
          "governorGloss": "Beschwerden",
          "dependent": 2,
          "dependentGloss": ","
        },
        {
          "dep": "case",
          "governor": 5,
          "governorGloss": "Magenschmerzen",
          "dependent": 4,
          "dependentGloss": "von"
        },
        {
          "dep": "nmod",
          "governor": 3,
          "governorGloss": "Beschwerden",
          "dependent": 5,
          "dependentGloss": "Magenschmerzen"
        },
        {
          "dep": "punct",
          "governor": 3,
          "governorGloss": "Beschwerden",
          "dependent": 6,
          "dependentGloss": ","
        },
        {
          "dep": "advmod",
          "governor": 8,
          "governorGloss": "gibt",
          "dependent": 7,
          "dependentGloss": "Später"
        },
        {
          "dep": "amod",
          "governor": 9,
          "governorGloss": "Geburt",
          "dependent": 8,
          "dependentGloss": "gibt"
        },
        {
          "dep": "conj",
          "governor": 3,
          "governorGloss": "Beschwerden",
          "dependent": 9,
          "dependentGloss": "Geburt"
        },
        {
          "dep": "case",
          "governor": 12,
          "governorGloss": "Boy",
          "dependent": 10,
          "dependentGloss": "zu"
        },
        {
          "dep": "name",
          "governor": 12,
          "governorGloss": "Boy",
          "dependent": 11,
          "dependentGloss": "Baby"
        },
        {
          "dep": "nmod",
          "governor": 9,
          "governorGloss": "Geburt",
          "dependent": 12,
          "dependentGloss": "Boy"
        }
      ],
      "enhancedDependencies": [
        {
          "dep": "ROOT",
          "governor": 0,
          "governorGloss": "ROOT",
          "dependent": 3,
          "dependentGloss": "Beschwerden"
        },
        {
          "dep": "advmod",
          "governor": 3,
          "governorGloss": "Beschwerden",
          "dependent": 1,
          "dependentGloss": "Nun"
        },
        {
          "dep": "punct",
          "governor": 3,
          "governorGloss": "Beschwerden",
          "dependent": 2,
          "dependentGloss": ","
        },
        {
          "dep": "case",
          "governor": 5,
          "governorGloss": "Magenschmerzen",
          "dependent": 4,
          "dependentGloss": "von"
        },
        {
          "dep": "nmod",
          "governor": 3,
          "governorGloss": "Beschwerden",
          "dependent": 5,
          "dependentGloss": "Magenschmerzen"
        },
        {
          "dep": "punct",
          "governor": 3,
          "governorGloss": "Beschwerden",
          "dependent": 6,
          "dependentGloss": ","
        },
        {
          "dep": "advmod",
          "governor": 8,
          "governorGloss": "gibt",
          "dependent": 7,
          "dependentGloss": "Später"
        },
        {
          "dep": "amod",
          "governor": 9,
          "governorGloss": "Geburt",
          "dependent": 8,
          "dependentGloss": "gibt"
        },
        {
          "dep": "conj",
          "governor": 3,
          "governorGloss": "Beschwerden",
          "dependent": 9,
          "dependentGloss": "Geburt"
        },
        {
          "dep": "case",
          "governor": 12,
          "governorGloss": "Boy",
          "dependent": 10,
          "dependentGloss": "zu"
        },
        {
          "dep": "name",
          "governor": 12,
          "governorGloss": "Boy",
          "dependent": 11,
          "dependentGloss": "Baby"
        },
        {
          "dep": "nmod",
          "governor": 9,
          "governorGloss": "Geburt",
          "dependent": 12,
          "dependentGloss": "Boy"
        }
      ],
      "enhancedPlusPlusDependencies": [
        {
          "dep": "ROOT",
          "governor": 0,
          "governorGloss": "ROOT",
          "dependent": 3,
          "dependentGloss": "Beschwerden"
        },
        {
          "dep": "advmod",
          "governor": 3,
          "governorGloss": "Beschwerden",
          "dependent": 1,
          "dependentGloss": "Nun"
        },
        {
          "dep": "punct",
          "governor": 3,
          "governorGloss": "Beschwerden",
          "dependent": 2,
          "dependentGloss": ","
        },
        {
          "dep": "case",
          "governor": 5,
          "governorGloss": "Magenschmerzen",
          "dependent": 4,
          "dependentGloss": "von"
        },
        {
          "dep": "nmod",
          "governor": 3,
          "governorGloss": "Beschwerden",
          "dependent": 5,
          "dependentGloss": "Magenschmerzen"
        },
        {
          "dep": "punct",
          "governor": 3,
          "governorGloss": "Beschwerden",
          "dependent": 6,
          "dependentGloss": ","
        },
        {
          "dep": "advmod",
          "governor": 8,
          "governorGloss": "gibt",
          "dependent": 7,
          "dependentGloss": "Später"
        },
        {
          "dep": "amod",
          "governor": 9,
          "governorGloss": "Geburt",
          "dependent": 8,
          "dependentGloss": "gibt"
        },
        {
          "dep": "conj",
          "governor": 3,
          "governorGloss": "Beschwerden",
          "dependent": 9,
          "dependentGloss": "Geburt"
        },
        {
          "dep": "case",
          "governor": 12,
          "governorGloss": "Boy",
          "dependent": 10,
          "dependentGloss": "zu"
        },
        {
          "dep": "name",
          "governor": 12,
          "governorGloss": "Boy",
          "dependent": 11,
          "dependentGloss": "Baby"
        },
        {
          "dep": "nmod",
          "governor": 9,
          "governorGloss": "Geburt",
          "dependent": 12,
          "dependentGloss": "Boy"
        }
      ],
      "tokens": [
        {
          "index": 1,
          "word": "Nun",
          "originalText": "Nun",
          "characterOffsetBegin": 0,
          "characterOffsetEnd": 3,
          "pos": "ADV",
          "before": "",
          "after": ""
        },
        {
          "index": 2,
          "word": ",",
          "originalText": ",",
          "characterOffsetBegin": 3,
          "characterOffsetEnd": 4,
          "pos": "$,",
          "before": "",
          "after": " "
        },
        {
          "index": 3,
          "word": "Beschwerden",
          "originalText": "Beschwerden",
          "characterOffsetBegin": 5,
          "characterOffsetEnd": 16,
          "pos": "NN",
          "before": " ",
          "after": " "
        },
        {
          "index": 4,
          "word": "von",
          "originalText": "von",
          "characterOffsetBegin": 17,
          "characterOffsetEnd": 20,
          "pos": "APPR",
          "before": " ",
          "after": " "
        },
        {
          "index": 5,
          "word": "Magenschmerzen",
          "originalText": "Magenschmerzen",
          "characterOffsetBegin": 21,
          "characterOffsetEnd": 35,
          "pos": "NN",
          "before": " ",
          "after": ""
        },
        {
          "index": 6,
          "word": ",",
          "originalText": ",",
          "characterOffsetBegin": 35,
          "characterOffsetEnd": 36,
          "pos": "$,",
          "before": "",
          "after": " "
        },
        {
          "index": 7,
          "word": "Später",
          "originalText": "Später",
          "characterOffsetBegin": 37,
          "characterOffsetEnd": 43,
          "pos": "ADJD",
          "before": " ",
          "after": " "
        },
        {
          "index": 8,
          "word": "gibt",
          "originalText": "gibt",
          "characterOffsetBegin": 44,
          "characterOffsetEnd": 48,
          "pos": "VVFIN",
          "before": " ",
          "after": " "
        },
        {
          "index": 9,
          "word": "Geburt",
          "originalText": "Geburt",
          "characterOffsetBegin": 49,
          "characterOffsetEnd": 55,
          "pos": "NN",
          "before": " ",
          "after": " "
        },
        {
          "index": 10,
          "word": "zu",
          "originalText": "zu",
          "characterOffsetBegin": 56,
          "characterOffsetEnd": 58,
          "pos": "APPR",
          "before": " ",
          "after": " "
        },
        {
          "index": 11,
          "word": "Baby",
          "originalText": "Baby",
          "characterOffsetBegin": 59,
          "characterOffsetEnd": 63,
          "pos": "NN",
          "before": " ",
          "after": " "
        },
        {
          "index": 12,
          "word": "Boy",
          "originalText": "Boy",
          "characterOffsetBegin": 64,
          "characterOffsetEnd": 67,
          "pos": "NN",
          "before": " ",
          "after": ""
        }
      ]
    }
  ]
}