{
  "sentences": [
    {
      "index": 0,
      "basicDependencies": [
        {
          "dep": "ROOT",
          "governor": 0,
          "governorGloss": "ROOT",
          "dependent": 9,
          "dependentGloss": "Waffenstillstand"
        },
        {
          "dep": "det",
          "governor": 2,
          "governorGloss": "Boko",
          "dependent": 1,
          "dependentGloss": "Der"
        },
        {
          "dep": "nsubj",
          "governor": 3,
          "governorGloss": "Haram",
          "dependent": 2,
          "dependentGloss": "Boko"
        },
        {
          "dep": "nsubj",
          "governor": 9,
          "governorGloss": "Waffenstillstand",
          "dependent": 3,
          "dependentGloss": "Haram"
        },
        {
          "dep": "nmod",
          "governor": 3,
          "governorGloss": "Haram",
          "dependent": 4,
          "dependentGloss": "Waffenstillstand"
        },
        {
          "dep": "case",
          "governor": 6,
          "governorGloss": "Nigeria",
          "dependent": 5,
          "dependentGloss": "in"
        },
        {
          "dep": "nmod",
          "governor": 3,
          "governorGloss": "Haram",
          "dependent": 6,
          "dependentGloss": "Nigeria"
        },
        {
          "dep": "cop",
          "governor": 9,
          "governorGloss": "Waffenstillstand",
          "dependent": 7,
          "dependentGloss": "ist"
        },
        {
          "dep": "neg",
          "governor": 9,
          "governorGloss": "Waffenstillstand",
          "dependent": 8,
          "dependentGloss": "kein"
        }
      ],
      "enhancedDependencies": [
        {
          "dep": "ROOT",
          "governor": 0,
          "governorGloss": "ROOT",
          "dependent": 9,
          "dependentGloss": "Waffenstillstand"
        },
        {
          "dep": "det",
          "governor": 2,
          "governorGloss": "Boko",
          "dependent": 1,
          "dependentGloss": "Der"
        },
        {
          "dep": "nsubj",
          "governor": 3,
          "governorGloss": "Haram",
          "dependent": 2,
          "dependentGloss": "Boko"
        },
        {
          "dep": "nsubj",
          "governor": 9,
          "governorGloss": "Waffenstillstand",
          "dependent": 3,
          "dependentGloss": "Haram"
        },
        {
          "dep": "nmod",
          "governor": 3,
          "governorGloss": "Haram",
          "dependent": 4,
          "dependentGloss": "Waffenstillstand"
        },
        {
          "dep": "case",
          "governor": 6,
          "governorGloss": "Nigeria",
          "dependent": 5,
          "dependentGloss": "in"
        },
        {
          "dep": "nmod",
          "governor": 3,
          "governorGloss": "Haram",
          "dependent": 6,
          "dependentGloss": "Nigeria"
        },
        {
          "dep": "cop",
          "governor": 9,
          "governorGloss": "Waffenstillstand",
          "dependent": 7,
          "dependentGloss": "ist"
        },
        {
          "dep": "neg",
          "governor": 9,
          "governorGloss": "Waffenstillstand",
          "dependent": 8,
          "dependentGloss": "kein"
        }
      ],
      "enhancedPlusPlusDependencies": [
        {
          "dep": "ROOT",
          "governor": 0,
          "governorGloss": "ROOT",
          "dependent": 9,
          "dependentGloss": "Waffenstillstand"
        },
        {
          "dep": "det",
          "governor": 2,
          "governorGloss": "Boko",
          "dependent": 1,
          "dependentGloss": "Der"
        },
        {
          "dep": "nsubj",
          "governor": 3,
          "governorGloss": "Haram",
          "dependent": 2,
          "dependentGloss": "Boko"
        },
        {
          "dep": "nsubj",
          "governor": 9,
          "governorGloss": "Waffenstillstand",
          "dependent": 3,
          "dependentGloss": "Haram"
        },
        {
          "dep": "nmod",
          "governor": 3,
          "governorGloss": "Haram",
          "dependent": 4,
          "dependentGloss": "Waffenstillstand"
        },
        {
          "dep": "case",
          "governor": 6,
          "governorGloss": "Nigeria",
          "dependent": 5,
          "dependentGloss": "in"
        },
        {
          "dep": "nmod",
          "governor": 3,
          "governorGloss": "Haram",
          "dependent": 6,
          "dependentGloss": "Nigeria"
        },
        {
          "dep": "cop",
          "governor": 9,
          "governorGloss": "Waffenstillstand",
          "dependent": 7,
          "dependentGloss": "ist"
        },
        {
          "dep": "neg",
          "governor": 9,
          "governorGloss": "Waffenstillstand",
          "dependent": 8,
          "dependentGloss": "kein"
        }
      ],
      "tokens": [
        {
          "index": 1,
          "word": "Der",
          "originalText": "Der",
          "characterOffsetBegin": 0,
          "characterOffsetEnd": 3,
          "pos": "ART",
          "before": "",
          "after": " "
        },
        {
          "index": 2,
          "word": "Boko",
          "originalText": "Boko",
          "characterOffsetBegin": 4,
          "characterOffsetEnd": 8,
          "pos": "NE",
          "before": " ",
          "after": " "
        },
        {
          "index": 3,
          "word": "Haram",
          "originalText": "Haram",
          "characterOffsetBegin": 9,
          "characterOffsetEnd": 14,
          "pos": "NE",
          "before": " ",
          "after": " "
        },
        {
          "index": 4,
          "word": "Waffenstillstand",
          "originalText": "Waffenstillstand",
          "characterOffsetBegin": 15,
          "characterOffsetEnd": 31,
          "pos": "NN",
          "before": " ",
          "after": " "
        },
        {
          "index": 5,
          "word": "in",
          "originalText": "in",
          "characterOffsetBegin": 32,
          "characterOffsetEnd": 34,
          "pos": "APPR",
          "before": " ",
          "after": " "
        },
        {
          "index": 6,
          "word": "Nigeria",
          "originalText": "Nigeria",
          "characterOffsetBegin": 35,
          "characterOffsetEnd": 42,
          "pos": "NE",
          "before": " ",
          "after": " "
        },
        {
          "index": 7,
          "word": "ist",
          "originalText": "ist",
          "characterOffsetBegin": 43,
          "characterOffsetEnd": 46,
          "pos": "VAFIN",
          "before": " ",
          "after": " "
        },
        {
          "index": 8,
          "word": "kein",
          "originalText": "kein",
          "characterOffsetBegin": 47,
          "characterOffsetEnd": 51,
          "pos": "PIAT",
          "before": " ",
          "after": " "
        },
        {
          "index": 9,
          "word": "Waffenstillstand",
          "originalText": "Waffenstillstand",
          "characterOffsetBegin": 52,
          "characterOffsetEnd": 68,
          "pos": "NN",
          "before": " ",
          "after": ""
        }
      ]
    }
  ]
}