{
  "sentences": [
    {
      "index": 0,
      "basicDependencies": [
        {
          "dep": "ROOT",
          "governor": 0,
          "governorGloss": "ROOT",
          "dependent": 4,
          "dependentGloss": "sagt"
        },
        {
          "dep": "punct",
          "governor": 2,
          "governorGloss": "Feministin",
          "dependent": 1,
          "dependentGloss": "``"
        },
        {
          "dep": "nsubj",
          "governor": 4,
          "governorGloss": "sagt",
          "dependent": 2,
          "dependentGloss": "Feministin"
        },
        {
          "dep": "punct",
          "governor": 4,
          "governorGloss": "sagt",
          "dependent": 3,
          "dependentGloss": "``"
        },
        {
          "dep": "punct",
          "governor": 4,
          "governorGloss": "sagt",
          "dependent": 5,
          "dependentGloss": ","
        },
        {
          "dep": "mark",
          "governor": 9,
          "governorGloss": "abgebrochen",
          "dependent": 6,
          "dependentGloss": "dass"
        },
        {
          "dep": "nsubj",
          "governor": 9,
          "governorGloss": "abgebrochen",
          "dependent": 7,
          "dependentGloss": "sie"
        },
        {
          "dep": "dobj",
          "governor": 9,
          "governorGloss": "abgebrochen",
          "dependent": 8,
          "dependentGloss": "Baby"
        },
        {
          "dep": "ccomp",
          "governor": 4,
          "governorGloss": "sagt",
          "dependent": 9,
          "dependentGloss": "abgebrochen"
        },
        {
          "dep": "aux",
          "governor": 9,
          "governorGloss": "abgebrochen",
          "dependent": 10,
          "dependentGloss": "hat"
        },
        {
          "dep": "punct",
          "governor": 4,
          "governorGloss": "sagt",
          "dependent": 11,
          "dependentGloss": ","
        },
        {
          "dep": "mark",
          "governor": 15,
          "governorGloss": "Junge",
          "dependent": 12,
          "dependentGloss": "weil"
        },
        {
          "dep": "nsubj",
          "governor": 15,
          "governorGloss": "Junge",
          "dependent": 13,
          "dependentGloss": "es"
        },
        {
          "dep": "det",
          "governor": 15,
          "governorGloss": "Junge",
          "dependent": 14,
          "dependentGloss": "ein"
        },
        {
          "dep": "advcl",
          "governor": 4,
          "governorGloss": "sagt",
          "dependent": 15,
          "dependentGloss": "Junge"
        },
        {
          "dep": "cop",
          "governor": 15,
          "governorGloss": "Junge",
          "dependent": 16,
          "dependentGloss": "war"
        }
      ],
      "enhancedDependencies": [
        {
          "dep": "ROOT",
          "governor": 0,
          "governorGloss": "ROOT",
          "dependent": 4,
          "dependentGloss": "sagt"
        },
        {
          "dep": "punct",
          "governor": 2,
          "governorGloss": "Feministin",
          "dependent": 1,
          "dependentGloss": "``"
        },
        {
          "dep": "nsubj",
          "governor": 4,
          "governorGloss": "sagt",
          "dependent": 2,
          "dependentGloss": "Feministin"
        },
        {
          "dep": "punct",
          "governor": 4,
          "governorGloss": "sagt",
          "dependent": 3,
          "dependentGloss": "``"
        },
        {
          "dep": "punct",
          "governor": 4,
          "governorGloss": "sagt",
          "dependent": 5,
          "dependentGloss": ","
        },
        {
          "dep": "mark",
          "governor": 9,
          "governorGloss": "abgebrochen",
          "dependent": 6,
          "dependentGloss": "dass"
        },
        {
          "dep": "nsubj",
          "governor": 9,
          "governorGloss": "abgebrochen",
          "dependent": 7,
          "dependentGloss": "sie"
        },
        {
          "dep": "dobj",
          "governor": 9,
          "governorGloss": "abgebrochen",
          "dependent": 8,
          "dependentGloss": "Baby"
        },
        {
          "dep": "ccomp",
          "governor": 4,
          "governorGloss": "sagt",
          "dependent": 9,
          "dependentGloss": "abgebrochen"
        },
        {
          "dep": "aux",
          "governor": 9,
          "governorGloss": "abgebrochen",
          "dependent": 10,
          "dependentGloss": "hat"
        },
        {
          "dep": "punct",
          "governor": 4,
          "governorGloss": "sagt",
          "dependent": 11,
          "dependentGloss": ","
        },
        {
          "dep": "mark",
          "governor": 15,
          "governorGloss": "Junge",
          "dependent": 12,
          "dependentGloss": "weil"
        },
        {
          "dep": "nsubj",
          "governor": 15,
          "governorGloss": "Junge",
          "dependent": 13,
          "dependentGloss": "es"
        },
        {
          "dep": "det",
          "governor": 15,
          "governorGloss": "Junge",
          "dependent": 14,
          "dependentGloss": "ein"
        },
        {
          "dep": "advcl",
          "governor": 4,
          "governorGloss": "sagt",
          "dependent": 15,
          "dependentGloss": "Junge"
        },
        {
          "dep": "cop",
          "governor": 15,
          "governorGloss": "Junge",
          "dependent": 16,
          "dependentGloss": "war"
        }
      ],
      "enhancedPlusPlusDependencies": [
        {
          "dep": "ROOT",
          "governor": 0,
          "governorGloss": "ROOT",
          "dependent": 4,
          "dependentGloss": "sagt"
        },
        {
          "dep": "punct",
          "governor": 2,
          "governorGloss": "Feministin",
          "dependent": 1,
          "dependentGloss": "``"
        },
        {
          "dep": "nsubj",
          "governor": 4,
          "governorGloss": "sagt",
          "dependent": 2,
          "dependentGloss": "Feministin"
        },
        {
          "dep": "punct",
          "governor": 4,
          "governorGloss": "sagt",
          "dependent": 3,
          "dependentGloss": "``"
        },
        {
          "dep": "punct",
          "governor": 4,
          "governorGloss": "sagt",
          "dependent": 5,
          "dependentGloss": ","
        },
        {
          "dep": "mark",
          "governor": 9,
          "governorGloss": "abgebrochen",
          "dependent": 6,
          "dependentGloss": "dass"
        },
        {
          "dep": "nsubj",
          "governor": 9,
          "governorGloss": "abgebrochen",
          "dependent": 7,
          "dependentGloss": "sie"
        },
        {
          "dep": "dobj",
          "governor": 9,
          "governorGloss": "abgebrochen",
          "dependent": 8,
          "dependentGloss": "Baby"
        },
        {
          "dep": "ccomp",
          "governor": 4,
          "governorGloss": "sagt",
          "dependent": 9,
          "dependentGloss": "abgebrochen"
        },
        {
          "dep": "aux",
          "governor": 9,
          "governorGloss": "abgebrochen",
          "dependent": 10,
          "dependentGloss": "hat"
        },
        {
          "dep": "punct",
          "governor": 4,
          "governorGloss": "sagt",
          "dependent": 11,
          "dependentGloss": ","
        },
        {
          "dep": "mark",
          "governor": 15,
          "governorGloss": "Junge",
          "dependent": 12,
          "dependentGloss": "weil"
        },
        {
          "dep": "nsubj",
          "governor": 15,
          "governorGloss": "Junge",
          "dependent": 13,
          "dependentGloss": "es"
        },
        {
          "dep": "det",
          "governor": 15,
          "governorGloss": "Junge",
          "dependent": 14,
          "dependentGloss": "ein"
        },
        {
          "dep": "advcl",
          "governor": 4,
          "governorGloss": "sagt",
          "dependent": 15,
          "dependentGloss": "Junge"
        },
        {
          "dep": "cop",
          "governor": 15,
          "governorGloss": "Junge",
          "dependent": 16,
          "dependentGloss": "war"
        }
      ],
      "tokens": [
        {
          "index": 1,
          "word": "``",
          "originalText": "“",
          "characterOffsetBegin": 0,
          "characterOffsetEnd": 1,
          "pos": "CARD",
          "before": "",
          "after": ""
        },
        {
          "index": 2,
          "word": "Feministin",
          "originalText": "Feministin",
          "characterOffsetBegin": 1,
          "characterOffsetEnd": 11,
          "pos": "NN",
          "before": "",
          "after": ""
        },
        {
          "index": 3,
          "word": "``",
          "originalText": "“",
          "characterOffsetBegin": 11,
          "characterOffsetEnd": 12,
          "pos": "CARD",
          "before": "",
          "after": " "
        },
        {
          "index": 4,
          "word": "sagt",
          "originalText": "sagt",
          "characterOffsetBegin": 13,
          "characterOffsetEnd": 17,
          "pos": "VVFIN",
          "before": " ",
          "after": ""
        },
        {
          "index": 5,
          "word": ",",
          "originalText": ",",
          "characterOffsetBegin": 17,
          "characterOffsetEnd": 18,
          "pos": "$,",
          "before": "",
          "after": " "
        },
        {
          "index": 6,
          "word": "dass",
          "originalText": "dass",
          "characterOffsetBegin": 19,
          "characterOffsetEnd": 23,
          "pos": "KOUS",
          "before": " ",
          "after": " "
        },
        {
          "index": 7,
          "word": "sie",
          "originalText": "sie",
          "characterOffsetBegin": 24,
          "characterOffsetEnd": 27,
          "pos": "PPER",
          "before": " ",
          "after": " "
        },
        {
          "index": 8,
          "word": "Baby",
          "originalText": "Baby",
          "characterOffsetBegin": 28,
          "characterOffsetEnd": 32,
          "pos": "NN",
          "before": " ",
          "after": " "
        },
        {
          "index": 9,
          "word": "abgebrochen",
          "originalText": "abgebrochen",
          "characterOffsetBegin": 33,
          "characterOffsetEnd": 44,
          "pos": "VVPP",
          "before": " ",
          "after": " "
        },
        {
          "index": 10,
          "word": "hat",
          "originalText": "hat",
          "characterOffsetBegin": 45,
          "characterOffsetEnd": 48,
          "pos": "VAFIN",
          "before": " ",
          "after": ""
        },
        {
          "index": 11,
          "word": ",",
          "originalText": ",",
          "characterOffsetBegin": 48,
          "characterOffsetEnd": 49,
          "pos": "$,",
          "before": "",
          "after": " "
        },
        {
          "index": 12,
          "word": "weil",
          "originalText": "weil",
          "characterOffsetBegin": 50,
          "characterOffsetEnd": 54,
          "pos": "KOUS",
          "before": " ",
          "after": " "
        },
        {
          "index": 13,
          "word": "es",
          "originalText": "es",
          "characterOffsetBegin": 55,
          "characterOffsetEnd": 57,
          "pos": "PPER",
          "before": " ",
          "after": " "
        },
        {
          "index": 14,
          "word": "ein",
          "originalText": "ein",
          "characterOffsetBegin": 58,
          "characterOffsetEnd": 61,
          "pos": "ART",
          "before": " ",
          "after": " "
        },
        {
          "index": 15,
          "word": "Junge",
          "originalText": "Junge",
          "characterOffsetBegin": 62,
          "characterOffsetEnd": 67,
          "pos": "NN",
          "before": " ",
          "after": " "
        },
        {
          "index": 16,
          "word": "war",
          "originalText": "war",
          "characterOffsetBegin": 68,
          "characterOffsetEnd": 71,
          "pos": "VAFIN",
          "before": " ",
          "after": ""
        }
      ]
    }
  ]
}