{
  "sentences": [
    {
      "index": 0,
      "basicDependencies": [
        {
          "dep": "ROOT",
          "governor": 0,
          "governorGloss": "ROOT",
          "dependent": 2,
          "dependentGloss": "Mexiko-Studenten"
        },
        {
          "dep": "nsubj",
          "governor": 2,
          "governorGloss": "Mexiko-Studenten",
          "dependent": 1,
          "dependentGloss": "Fehlende"
        },
        {
          "dep": "neg",
          "governor": 2,
          "governorGloss": "Mexiko-Studenten",
          "dependent": 3,
          "dependentGloss": "nicht"
        },
        {
          "dep": "case",
          "governor": 6,
          "governorGloss": "Körper",
          "dependent": 4,
          "dependentGloss": "unter"
        },
        {
          "dep": "nummod",
          "governor": 6,
          "governorGloss": "Körper",
          "dependent": 5,
          "dependentGloss": "28"
        },
        {
          "dep": "nmod",
          "governor": 2,
          "governorGloss": "Mexiko-Studenten",
          "dependent": 6,
          "dependentGloss": "Körper"
        },
        {
          "dep": "case",
          "governor": 8,
          "governorGloss": "Massengrab",
          "dependent": 7,
          "dependentGloss": "in"
        },
        {
          "dep": "nmod",
          "governor": 2,
          "governorGloss": "Mexiko-Studenten",
          "dependent": 8,
          "dependentGloss": "Massengrab"
        },
        {
          "dep": "punct",
          "governor": 2,
          "governorGloss": "Mexiko-Studenten",
          "dependent": 9,
          "dependentGloss": "gefunden"
        }
      ],
      "enhancedDependencies": [
        {
          "dep": "ROOT",
          "governor": 0,
          "governorGloss": "ROOT",
          "dependent": 2,
          "dependentGloss": "Mexiko-Studenten"
        },
        {
          "dep": "nsubj",
          "governor": 2,
          "governorGloss": "Mexiko-Studenten",
          "dependent": 1,
          "dependentGloss": "Fehlende"
        },
        {
          "dep": "neg",
          "governor": 2,
          "governorGloss": "Mexiko-Studenten",
          "dependent": 3,
          "dependentGloss": "nicht"
        },
        {
          "dep": "case",
          "governor": 6,
          "governorGloss": "Körper",
          "dependent": 4,
          "dependentGloss": "unter"
        },
        {
          "dep": "nummod",
          "governor": 6,
          "governorGloss": "Körper",
          "dependent": 5,
          "dependentGloss": "28"
        },
        {
          "dep": "nmod",
          "governor": 2,
          "governorGloss": "Mexiko-Studenten",
          "dependent": 6,
          "dependentGloss": "Körper"
        },
        {
          "dep": "case",
          "governor": 8,
          "governorGloss": "Massengrab",
          "dependent": 7,
          "dependentGloss": "in"
        },
        {
          "dep": "nmod",
          "governor": 2,
          "governorGloss": "Mexiko-Studenten",
          "dependent": 8,
          "dependentGloss": "Massengrab"
        },
        {
          "dep": "punct",
          "governor": 2,
          "governorGloss": "Mexiko-Studenten",
          "dependent": 9,
          "dependentGloss": "gefunden"
        }
      ],
      "enhancedPlusPlusDependencies": [
        {
          "dep": "ROOT",
          "governor": 0,
          "governorGloss": "ROOT",
          "dependent": 2,
          "dependentGloss": "Mexiko-Studenten"
        },
        {
          "dep": "nsubj",
          "governor": 2,
          "governorGloss": "Mexiko-Studenten",
          "dependent": 1,
          "dependentGloss": "Fehlende"
        },
        {
          "dep": "neg",
          "governor": 2,
          "governorGloss": "Mexiko-Studenten",
          "dependent": 3,
          "dependentGloss": "nicht"
        },
        {
          "dep": "case",
          "governor": 6,
          "governorGloss": "Körper",
          "dependent": 4,
          "dependentGloss": "unter"
        },
        {
          "dep": "nummod",
          "governor": 6,
          "governorGloss": "Körper",
          "dependent": 5,
          "dependentGloss": "28"
        },
        {
          "dep": "nmod",
          "governor": 2,
          "governorGloss": "Mexiko-Studenten",
          "dependent": 6,
          "dependentGloss": "Körper"
        },
        {
          "dep": "case",
          "governor": 8,
          "governorGloss": "Massengrab",
          "dependent": 7,
          "dependentGloss": "in"
        },
        {
          "dep": "nmod",
          "governor": 2,
          "governorGloss": "Mexiko-Studenten",
          "dependent": 8,
          "dependentGloss": "Massengrab"
        },
        {
          "dep": "punct",
          "governor": 2,
          "governorGloss": "Mexiko-Studenten",
          "dependent": 9,
          "dependentGloss": "gefunden"
        }
      ],
      "tokens": [
        {
          "index": 1,
          "word": "Fehlende",
          "originalText": "Fehlende",
          "characterOffsetBegin": 0,
          "characterOffsetEnd": 8,
          "pos": "ADJA",
          "before": "",
          "after": " "
        },
        {
          "index": 2,
          "word": "Mexiko-Studenten",
          "originalText": "Mexiko-Studenten",
          "characterOffsetBegin": 9,
          "characterOffsetEnd": 25,
          "pos": "NN",
          "before": " ",
          "after": " "
        },
        {
          "index": 3,
          "word": "nicht",
          "originalText": "nicht",
          "characterOffsetBegin": 26,
          "characterOffsetEnd": 31,
          "pos": "PTKNEG",
          "before": " ",
          "after": " "
        },
        {
          "index": 4,
          "word": "unter",
          "originalText": "unter",
          "characterOffsetBegin": 32,
          "characterOffsetEnd": 37,
          "pos": "APPR",
          "before": " ",
          "after": " "
        },
        {
          "index": 5,
          "word": "28",
          "originalText": "28",
          "characterOffsetBegin": 38,
          "characterOffsetEnd": 40,
          "pos": "CARD",
          "before": " ",
          "after": " "
        },
        {
          "index": 6,
          "word": "Körper",
          "originalText": "Körper",
          "characterOffsetBegin": 41,
          "characterOffsetEnd": 47,
          "pos": "NN",
          "before": " ",
          "after": " "
        },
        {
          "index": 7,
          "word": "in",
          "originalText": "in",
          "characterOffsetBegin": 48,
          "characterOffsetEnd": 50,
          "pos": "APPR",
          "before": " ",
          "after": " "
        },
        {
          "index": 8,
          "word": "Massengrab",
          "originalText": "Massengrab",
          "characterOffsetBegin": 51,
          "characterOffsetEnd": 61,
          "pos": "NN",
          "before": " ",
          "after": " "
        },
        {
          "index": 9,
          "word": "gefunden",
          "originalText": "gefunden",
          "characterOffsetBegin": 62,
          "characterOffsetEnd": 70,
          "pos": "VVPP",
          "before": " ",
          "after": ""
        }
      ]
    }
  ]
}