{
  "sentences": [
    {
      "index": 0,
      "basicDependencies": [
        {
          "dep": "ROOT",
          "governor": 0,
          "governorGloss": "ROOT",
          "dependent": 2,
          "dependentGloss": "Kerl"
        },
        {
          "dep": "det",
          "governor": 2,
          "governorGloss": "Kerl",
          "dependent": 1,
          "dependentGloss": "Der"
        },
        {
          "dep": "punct",
          "governor": 2,
          "governorGloss": "Kerl",
          "dependent": 3,
          "dependentGloss": ","
        },
        {
          "dep": "nsubj",
          "governor": 10,
          "governorGloss": "gegraben",
          "dependent": 4,
          "dependentGloss": "der"
        },
        {
          "dep": "det",
          "governor": 6,
          "governorGloss": "Spinne",
          "dependent": 5,
          "dependentGloss": "eine"
        },
        {
          "dep": "dobj",
          "governor": 10,
          "governorGloss": "gegraben",
          "dependent": 6,
          "dependentGloss": "Spinne"
        },
        {
          "dep": "case",
          "governor": 9,
          "governorGloss": "Haut",
          "dependent": 7,
          "dependentGloss": "unter"
        },
        {
          "dep": "det",
          "governor": 9,
          "governorGloss": "Haut",
          "dependent": 8,
          "dependentGloss": "seiner"
        },
        {
          "dep": "nmod",
          "governor": 6,
          "governorGloss": "Spinne",
          "dependent": 9,
          "dependentGloss": "Haut"
        },
        {
          "dep": "acl",
          "governor": 2,
          "governorGloss": "Kerl",
          "dependent": 10,
          "dependentGloss": "gegraben"
        },
        {
          "dep": "aux",
          "governor": 10,
          "governorGloss": "gegraben",
          "dependent": 11,
          "dependentGloss": "hat"
        },
        {
          "dep": "punct",
          "governor": 2,
          "governorGloss": "Kerl",
          "dependent": 12,
          "dependentGloss": "?"
        }
      ],
      "enhancedDependencies": [
        {
          "dep": "ROOT",
          "governor": 0,
          "governorGloss": "ROOT",
          "dependent": 2,
          "dependentGloss": "Kerl"
        },
        {
          "dep": "det",
          "governor": 2,
          "governorGloss": "Kerl",
          "dependent": 1,
          "dependentGloss": "Der"
        },
        {
          "dep": "punct",
          "governor": 2,
          "governorGloss": "Kerl",
          "dependent": 3,
          "dependentGloss": ","
        },
        {
          "dep": "nsubj",
          "governor": 10,
          "governorGloss": "gegraben",
          "dependent": 4,
          "dependentGloss": "der"
        },
        {
          "dep": "det",
          "governor": 6,
          "governorGloss": "Spinne",
          "dependent": 5,
          "dependentGloss": "eine"
        },
        {
          "dep": "dobj",
          "governor": 10,
          "governorGloss": "gegraben",
          "dependent": 6,
          "dependentGloss": "Spinne"
        },
        {
          "dep": "case",
          "governor": 9,
          "governorGloss": "Haut",
          "dependent": 7,
          "dependentGloss": "unter"
        },
        {
          "dep": "det",
          "governor": 9,
          "governorGloss": "Haut",
          "dependent": 8,
          "dependentGloss": "seiner"
        },
        {
          "dep": "nmod",
          "governor": 6,
          "governorGloss": "Spinne",
          "dependent": 9,
          "dependentGloss": "Haut"
        },
        {
          "dep": "acl",
          "governor": 2,
          "governorGloss": "Kerl",
          "dependent": 10,
          "dependentGloss": "gegraben"
        },
        {
          "dep": "aux",
          "governor": 10,
          "governorGloss": "gegraben",
          "dependent": 11,
          "dependentGloss": "hat"
        },
        {
          "dep": "punct",
          "governor": 2,
          "governorGloss": "Kerl",
          "dependent": 12,
          "dependentGloss": "?"
        }
      ],
      "enhancedPlusPlusDependencies": [
        {
          "dep": "ROOT",
          "governor": 0,
          "governorGloss": "ROOT",
          "dependent": 2,
          "dependentGloss": "Kerl"
        },
        {
          "dep": "det",
          "governor": 2,
          "governorGloss": "Kerl",
          "dependent": 1,
          "dependentGloss": "Der"
        },
        {
          "dep": "punct",
          "governor": 2,
          "governorGloss": "Kerl",
          "dependent": 3,
          "dependentGloss": ","
        },
        {
          "dep": "nsubj",
          "governor": 10,
          "governorGloss": "gegraben",
          "dependent": 4,
          "dependentGloss": "der"
        },
        {
          "dep": "det",
          "governor": 6,
          "governorGloss": "Spinne",
          "dependent": 5,
          "dependentGloss": "eine"
        },
        {
          "dep": "dobj",
          "governor": 10,
          "governorGloss": "gegraben",
          "dependent": 6,
          "dependentGloss": "Spinne"
        },
        {
          "dep": "case",
          "governor": 9,
          "governorGloss": "Haut",
          "dependent": 7,
          "dependentGloss": "unter"
        },
        {
          "dep": "det",
          "governor": 9,
          "governorGloss": "Haut",
          "dependent": 8,
          "dependentGloss": "seiner"
        },
        {
          "dep": "nmod",
          "governor": 6,
          "governorGloss": "Spinne",
          "dependent": 9,
          "dependentGloss": "Haut"
        },
        {
          "dep": "acl",
          "governor": 2,
          "governorGloss": "Kerl",
          "dependent": 10,
          "dependentGloss": "gegraben"
        },
        {
          "dep": "aux",
          "governor": 10,
          "governorGloss": "gegraben",
          "dependent": 11,
          "dependentGloss": "hat"
        },
        {
          "dep": "punct",
          "governor": 2,
          "governorGloss": "Kerl",
          "dependent": 12,
          "dependentGloss": "?"
        }
      ],
      "tokens": [
        {
          "index": 1,
          "word": "Der",
          "originalText": "Der",
          "characterOffsetBegin": 0,
          "characterOffsetEnd": 3,
          "pos": "ART",
          "before": "",
          "after": " "
        },
        {
          "index": 2,
          "word": "Kerl",
          "originalText": "Kerl",
          "characterOffsetBegin": 4,
          "characterOffsetEnd": 8,
          "pos": "NN",
          "before": " ",
          "after": ""
        },
        {
          "index": 3,
          "word": ",",
          "originalText": ",",
          "characterOffsetBegin": 8,
          "characterOffsetEnd": 9,
          "pos": "$,",
          "before": "",
          "after": " "
        },
        {
          "index": 4,
          "word": "der",
          "originalText": "der",
          "characterOffsetBegin": 10,
          "characterOffsetEnd": 13,
          "pos": "PRELS",
          "before": " ",
          "after": " "
        },
        {
          "index": 5,
          "word": "eine",
          "originalText": "eine",
          "characterOffsetBegin": 14,
          "characterOffsetEnd": 18,
          "pos": "ART",
          "before": " ",
          "after": " "
        },
        {
          "index": 6,
          "word": "Spinne",
          "originalText": "Spinne",
          "characterOffsetBegin": 19,
          "characterOffsetEnd": 25,
          "pos": "NN",
          "before": " ",
          "after": " "
        },
        {
          "index": 7,
          "word": "unter",
          "originalText": "unter",
          "characterOffsetBegin": 26,
          "characterOffsetEnd": 31,
          "pos": "APPR",
          "before": " ",
          "after": " "
        },
        {
          "index": 8,
          "word": "seiner",
          "originalText": "seiner",
          "characterOffsetBegin": 32,
          "characterOffsetEnd": 38,
          "pos": "PPOSAT",
          "before": " ",
          "after": " "
        },
        {
          "index": 9,
          "word": "Haut",
          "originalText": "Haut",
          "characterOffsetBegin": 39,
          "characterOffsetEnd": 43,
          "pos": "NN",
          "before": " ",
          "after": " "
        },
        {
          "index": 10,
          "word": "gegraben",
          "originalText": "gegraben",
          "characterOffsetBegin": 44,
          "characterOffsetEnd": 52,
          "pos": "VVPP",
          "before": " ",
          "after": " "
        },
        {
          "index": 11,
          "word": "hat",
          "originalText": "hat",
          "characterOffsetBegin": 53,
          "characterOffsetEnd": 56,
          "pos": "VAFIN",
          "before": " ",
          "after": ""
        },
        {
          "index": 12,
          "word": "?",
          "originalText": "?",
          "characterOffsetBegin": 56,
          "characterOffsetEnd": 57,
          "pos": "$.",
          "before": "",
          "after": " "
        }
      ]
    },
    {
      "index": 1,
      "basicDependencies": [
        {
          "dep": "ROOT",
          "governor": 0,
          "governorGloss": "ROOT",
          "dependent": 2,
          "dependentGloss": "sagen"
        },
        {
          "dep": "nsubj",
          "governor": 2,
          "governorGloss": "sagen",
          "dependent": 1,
          "dependentGloss": "Experten"
        },
        {
          "dep": "punct",
          "governor": 2,
          "governorGloss": "sagen",
          "dependent": 3,
          "dependentGloss": "..."
        }
      ],
      "enhancedDependencies": [
        {
          "dep": "ROOT",
          "governor": 0,
          "governorGloss": "ROOT",
          "dependent": 2,
          "dependentGloss": "sagen"
        },
        {
          "dep": "nsubj",
          "governor": 2,
          "governorGloss": "sagen",
          "dependent": 1,
          "dependentGloss": "Experten"
        },
        {
          "dep": "punct",
          "governor": 2,
          "governorGloss": "sagen",
          "dependent": 3,
          "dependentGloss": "..."
        }
      ],
      "enhancedPlusPlusDependencies": [
        {
          "dep": "ROOT",
          "governor": 0,
          "governorGloss": "ROOT",
          "dependent": 2,
          "dependentGloss": "sagen"
        },
        {
          "dep": "nsubj",
          "governor": 2,
          "governorGloss": "sagen",
          "dependent": 1,
          "dependentGloss": "Experten"
        },
        {
          "dep": "punct",
          "governor": 2,
          "governorGloss": "sagen",
          "dependent": 3,
          "dependentGloss": "..."
        }
      ],
      "tokens": [
        {
          "index": 1,
          "word": "Experten",
          "originalText": "Experten",
          "characterOffsetBegin": 58,
          "characterOffsetEnd": 66,
          "pos": "NN",
          "before": " ",
          "after": " "
        },
        {
          "index": 2,
          "word": "sagen",
          "originalText": "sagen",
          "characterOffsetBegin": 67,
          "characterOffsetEnd": 72,
          "pos": "VVFIN",
          "before": " ",
          "after": ""
        },
        {
          "index": 3,
          "word": "...",
          "originalText": "…",
          "characterOffsetBegin": 72,
          "characterOffsetEnd": 73,
          "pos": "$[",
          "before": "",
          "after": ""
        }
      ]
    }
  ]
}