{
  "sentences": [
    {
      "index": 0,
      "basicDependencies": [
        {
          "dep": "ROOT",
          "governor": 0,
          "governorGloss": "ROOT",
          "dependent": 12,
          "dependentGloss": "spielen"
        },
        {
          "dep": "name",
          "governor": 2,
          "governorGloss": "Rogen",
          "dependent": 1,
          "dependentGloss": "Seth"
        },
        {
          "dep": "dobj",
          "governor": 12,
          "governorGloss": "spielen",
          "dependent": 2,
          "dependentGloss": "Rogen"
        },
        {
          "dep": "aux",
          "governor": 12,
          "governorGloss": "spielen",
          "dependent": 3,
          "dependentGloss": "kann"
        },
        {
          "dep": "name",
          "governor": 5,
          "governorGloss": "Wozniak",
          "dependent": 4,
          "dependentGloss": "Steve"
        },
        {
          "dep": "nsubj",
          "governor": 12,
          "governorGloss": "spielen",
          "dependent": 5,
          "dependentGloss": "Wozniak"
        },
        {
          "dep": "case",
          "governor": 8,
          "governorGloss": "Bale",
          "dependent": 6,
          "dependentGloss": "neben"
        },
        {
          "dep": "name",
          "governor": 8,
          "governorGloss": "Bale",
          "dependent": 7,
          "dependentGloss": "Christian"
        },
        {
          "dep": "nmod",
          "governor": 12,
          "governorGloss": "spielen",
          "dependent": 8,
          "dependentGloss": "Bale"
        },
        {
          "dep": "case",
          "governor": 11,
          "governorGloss": "Jobs",
          "dependent": 9,
          "dependentGloss": "als"
        },
        {
          "dep": "name",
          "governor": 11,
          "governorGloss": "Jobs",
          "dependent": 10,
          "dependentGloss": "Steve"
        },
        {
          "dep": "nmod",
          "governor": 12,
          "governorGloss": "spielen",
          "dependent": 11,
          "dependentGloss": "Jobs"
        }
      ],
      "enhancedDependencies": [
        {
          "dep": "ROOT",
          "governor": 0,
          "governorGloss": "ROOT",
          "dependent": 12,
          "dependentGloss": "spielen"
        },
        {
          "dep": "name",
          "governor": 2,
          "governorGloss": "Rogen",
          "dependent": 1,
          "dependentGloss": "Seth"
        },
        {
          "dep": "dobj",
          "governor": 12,
          "governorGloss": "spielen",
          "dependent": 2,
          "dependentGloss": "Rogen"
        },
        {
          "dep": "aux",
          "governor": 12,
          "governorGloss": "spielen",
          "dependent": 3,
          "dependentGloss": "kann"
        },
        {
          "dep": "name",
          "governor": 5,
          "governorGloss": "Wozniak",
          "dependent": 4,
          "dependentGloss": "Steve"
        },
        {
          "dep": "nsubj",
          "governor": 12,
          "governorGloss": "spielen",
          "dependent": 5,
          "dependentGloss": "Wozniak"
        },
        {
          "dep": "case",
          "governor": 8,
          "governorGloss": "Bale",
          "dependent": 6,
          "dependentGloss": "neben"
        },
        {
          "dep": "name",
          "governor": 8,
          "governorGloss": "Bale",
          "dependent": 7,
          "dependentGloss": "Christian"
        },
        {
          "dep": "nmod",
          "governor": 12,
          "governorGloss": "spielen",
          "dependent": 8,
          "dependentGloss": "Bale"
        },
        {
          "dep": "case",
          "governor": 11,
          "governorGloss": "Jobs",
          "dependent": 9,
          "dependentGloss": "als"
        },
        {
          "dep": "name",
          "governor": 11,
          "governorGloss": "Jobs",
          "dependent": 10,
          "dependentGloss": "Steve"
        },
        {
          "dep": "nmod",
          "governor": 12,
          "governorGloss": "spielen",
          "dependent": 11,
          "dependentGloss": "Jobs"
        }
      ],
      "enhancedPlusPlusDependencies": [
        {
          "dep": "ROOT",
          "governor": 0,
          "governorGloss": "ROOT",
          "dependent": 12,
          "dependentGloss": "spielen"
        },
        {
          "dep": "name",
          "governor": 2,
          "governorGloss": "Rogen",
          "dependent": 1,
          "dependentGloss": "Seth"
        },
        {
          "dep": "dobj",
          "governor": 12,
          "governorGloss": "spielen",
          "dependent": 2,
          "dependentGloss": "Rogen"
        },
        {
          "dep": "aux",
          "governor": 12,
          "governorGloss": "spielen",
          "dependent": 3,
          "dependentGloss": "kann"
        },
        {
          "dep": "name",
          "governor": 5,
          "governorGloss": "Wozniak",
          "dependent": 4,
          "dependentGloss": "Steve"
        },
        {
          "dep": "nsubj",
          "governor": 12,
          "governorGloss": "spielen",
          "dependent": 5,
          "dependentGloss": "Wozniak"
        },
        {
          "dep": "case",
          "governor": 8,
          "governorGloss": "Bale",
          "dependent": 6,
          "dependentGloss": "neben"
        },
        {
          "dep": "name",
          "governor": 8,
          "governorGloss": "Bale",
          "dependent": 7,
          "dependentGloss": "Christian"
        },
        {
          "dep": "nmod",
          "governor": 12,
          "governorGloss": "spielen",
          "dependent": 8,
          "dependentGloss": "Bale"
        },
        {
          "dep": "case",
          "governor": 11,
          "governorGloss": "Jobs",
          "dependent": 9,
          "dependentGloss": "als"
        },
        {
          "dep": "name",
          "governor": 11,
          "governorGloss": "Jobs",
          "dependent": 10,
          "dependentGloss": "Steve"
        },
        {
          "dep": "nmod",
          "governor": 12,
          "governorGloss": "spielen",
          "dependent": 11,
          "dependentGloss": "Jobs"
        }
      ],
      "tokens": [
        {
          "index": 1,
          "word": "Seth",
          "originalText": "Seth",
          "characterOffsetBegin": 0,
          "characterOffsetEnd": 4,
          "pos": "NE",
          "before": "",
          "after": " "
        },
        {
          "index": 2,
          "word": "Rogen",
          "originalText": "Rogen",
          "characterOffsetBegin": 5,
          "characterOffsetEnd": 10,
          "pos": "NN",
          "before": " ",
          "after": " "
        },
        {
          "index": 3,
          "word": "kann",
          "originalText": "kann",
          "characterOffsetBegin": 11,
          "characterOffsetEnd": 15,
          "pos": "VMFIN",
          "before": " ",
          "after": " "
        },
        {
          "index": 4,
          "word": "Steve",
          "originalText": "Steve",
          "characterOffsetBegin": 16,
          "characterOffsetEnd": 21,
          "pos": "NE",
          "before": " ",
          "after": " "
        },
        {
          "index": 5,
          "word": "Wozniak",
          "originalText": "Wozniak",
          "characterOffsetBegin": 22,
          "characterOffsetEnd": 29,
          "pos": "NE",
          "before": " ",
          "after": " "
        },
        {
          "index": 6,
          "word": "neben",
          "originalText": "neben",
          "characterOffsetBegin": 30,
          "characterOffsetEnd": 35,
          "pos": "APPR",
          "before": " ",
          "after": " "
        },
        {
          "index": 7,
          "word": "Christian",
          "originalText": "Christian",
          "characterOffsetBegin": 36,
          "characterOffsetEnd": 45,
          "pos": "NE",
          "before": " ",
          "after": " "
        },
        {
          "index": 8,
          "word": "Bale",
          "originalText": "Bale",
          "characterOffsetBegin": 46,
          "characterOffsetEnd": 50,
          "pos": "NE",
          "before": " ",
          "after": " "
        },
        {
          "index": 9,
          "word": "als",
          "originalText": "als",
          "characterOffsetBegin": 51,
          "characterOffsetEnd": 54,
          "pos": "APPR",
          "before": " ",
          "after": " "
        },
        {
          "index": 10,
          "word": "Steve",
          "originalText": "Steve",
          "characterOffsetBegin": 55,
          "characterOffsetEnd": 60,
          "pos": "NE",
          "before": " ",
          "after": " "
        },
        {
          "index": 11,
          "word": "Jobs",
          "originalText": "Jobs",
          "characterOffsetBegin": 61,
          "characterOffsetEnd": 65,
          "pos": "NN",
          "before": " ",
          "after": " "
        },
        {
          "index": 12,
          "word": "spielen",
          "originalText": "spielen",
          "characterOffsetBegin": 66,
          "characterOffsetEnd": 73,
          "pos": "VVINF",
          "before": " ",
          "after": ""
        }
      ]
    }
  ]
}