{
  "sentences": [
    {
      "index": 0,
      "basicDependencies": [
        {
          "dep": "ROOT",
          "governor": 0,
          "governorGloss": "ROOT",
          "dependent": 8,
          "dependentGloss": "True"
        },
        {
          "dep": "cop",
          "governor": 8,
          "governorGloss": "True",
          "dependent": 1,
          "dependentGloss": "Sind"
        },
        {
          "dep": "nsubj",
          "governor": 8,
          "governorGloss": "True",
          "dependent": 2,
          "dependentGloss": "Gerüchte"
        },
        {
          "dep": "cop",
          "governor": 8,
          "governorGloss": "True",
          "dependent": 3,
          "dependentGloss": "der"
        },
        {
          "dep": "name",
          "governor": 5,
          "governorGloss": "Watch",
          "dependent": 4,
          "dependentGloss": "Apple"
        },
        {
          "dep": "nmod",
          "governor": 8,
          "governorGloss": "True",
          "dependent": 5,
          "dependentGloss": "Watch"
        },
        {
          "dep": "nsubj",
          "governor": 8,
          "governorGloss": "True",
          "dependent": 6,
          "dependentGloss": "im"
        },
        {
          "dep": "cop",
          "governor": 8,
          "governorGloss": "True",
          "dependent": 7,
          "dependentGloss": "Feb"
        },
        {
          "dep": "punct",
          "governor": 8,
          "governorGloss": "True",
          "dependent": 9,
          "dependentGloss": "?"
        }
      ],
      "enhancedDependencies": [
        {
          "dep": "ROOT",
          "governor": 0,
          "governorGloss": "ROOT",
          "dependent": 8,
          "dependentGloss": "True"
        },
        {
          "dep": "cop",
          "governor": 8,
          "governorGloss": "True",
          "dependent": 1,
          "dependentGloss": "Sind"
        },
        {
          "dep": "nsubj",
          "governor": 8,
          "governorGloss": "True",
          "dependent": 2,
          "dependentGloss": "Gerüchte"
        },
        {
          "dep": "cop",
          "governor": 8,
          "governorGloss": "True",
          "dependent": 3,
          "dependentGloss": "der"
        },
        {
          "dep": "name",
          "governor": 5,
          "governorGloss": "Watch",
          "dependent": 4,
          "dependentGloss": "Apple"
        },
        {
          "dep": "nmod",
          "governor": 8,
          "governorGloss": "True",
          "dependent": 5,
          "dependentGloss": "Watch"
        },
        {
          "dep": "nsubj",
          "governor": 8,
          "governorGloss": "True",
          "dependent": 6,
          "dependentGloss": "im"
        },
        {
          "dep": "cop",
          "governor": 8,
          "governorGloss": "True",
          "dependent": 7,
          "dependentGloss": "Feb"
        },
        {
          "dep": "punct",
          "governor": 8,
          "governorGloss": "True",
          "dependent": 9,
          "dependentGloss": "?"
        }
      ],
      "enhancedPlusPlusDependencies": [
        {
          "dep": "ROOT",
          "governor": 0,
          "governorGloss": "ROOT",
          "dependent": 8,
          "dependentGloss": "True"
        },
        {
          "dep": "cop",
          "governor": 8,
          "governorGloss": "True",
          "dependent": 1,
          "dependentGloss": "Sind"
        },
        {
          "dep": "nsubj",
          "governor": 8,
          "governorGloss": "True",
          "dependent": 2,
          "dependentGloss": "Gerüchte"
        },
        {
          "dep": "cop",
          "governor": 8,
          "governorGloss": "True",
          "dependent": 3,
          "dependentGloss": "der"
        },
        {
          "dep": "name",
          "governor": 5,
          "governorGloss": "Watch",
          "dependent": 4,
          "dependentGloss": "Apple"
        },
        {
          "dep": "nmod",
          "governor": 8,
          "governorGloss": "True",
          "dependent": 5,
          "dependentGloss": "Watch"
        },
        {
          "dep": "nsubj",
          "governor": 8,
          "governorGloss": "True",
          "dependent": 6,
          "dependentGloss": "im"
        },
        {
          "dep": "cop",
          "governor": 8,
          "governorGloss": "True",
          "dependent": 7,
          "dependentGloss": "Feb"
        },
        {
          "dep": "punct",
          "governor": 8,
          "governorGloss": "True",
          "dependent": 9,
          "dependentGloss": "?"
        }
      ],
      "tokens": [
        {
          "index": 1,
          "word": "Sind",
          "originalText": "Sind",
          "characterOffsetBegin": 0,
          "characterOffsetEnd": 4,
          "pos": "VAFIN",
          "before": "",
          "after": " "
        },
        {
          "index": 2,
          "word": "Gerüchte",
          "originalText": "Gerüchte",
          "characterOffsetBegin": 5,
          "characterOffsetEnd": 13,
          "pos": "NN",
          "before": " ",
          "after": " "
        },
        {
          "index": 3,
          "word": "der",
          "originalText": "der",
          "characterOffsetBegin": 14,
          "characterOffsetEnd": 17,
          "pos": "ART",
          "before": " ",
          "after": " "
        },
        {
          "index": 4,
          "word": "Apple",
          "originalText": "Apple",
          "characterOffsetBegin": 18,
          "characterOffsetEnd": 23,
          "pos": "NE",
          "before": " ",
          "after": " "
        },
        {
          "index": 5,
          "word": "Watch",
          "originalText": "Watch",
          "characterOffsetBegin": 24,
          "characterOffsetEnd": 29,
          "pos": "NE",
          "before": " ",
          "after": " "
        },
        {
          "index": 6,
          "word": "im",
          "originalText": "im",
          "characterOffsetBegin": 30,
          "characterOffsetEnd": 32,
          "pos": "APPRART",
          "before": " ",
          "after": " "
        },
        {
          "index": 7,
          "word": "Feb",
          "originalText": "Feb",
          "characterOffsetBegin": 33,
          "characterOffsetEnd": 36,
          "pos": "FM",
          "before": " ",
          "after": " "
        },
        {
          "index": 8,
          "word": "True",
          "originalText": "True",
          "characterOffsetBegin": 37,
          "characterOffsetEnd": 41,
          "pos": "FM",
          "before": " ",
          "after": ""
        },
        {
          "index": 9,
          "word": "?",
          "originalText": "?",
          "characterOffsetBegin": 41,
          "characterOffsetEnd": 42,
          "pos": "$.",
          "before": "",
          "after": ""
        }
      ]
    }
  ]
}