{
  "sentences": [
    {
      "index": 0,
      "basicDependencies": [
        {
          "dep": "ROOT",
          "governor": 0,
          "governorGloss": "ROOT",
          "dependent": 3,
          "dependentGloss": "Zaun-Jumper"
        },
        {
          "dep": "name",
          "governor": 2,
          "governorGloss": "House",
          "dependent": 1,
          "dependentGloss": "White"
        },
        {
          "dep": "nsubj",
          "governor": 3,
          "governorGloss": "Zaun-Jumper",
          "dependent": 2,
          "dependentGloss": "House"
        },
        {
          "dep": "cop",
          "governor": 7,
          "governorGloss": "tiefer",
          "dependent": 4,
          "dependentGloss": "machte"
        },
        {
          "dep": "nsubj",
          "governor": 7,
          "governorGloss": "tiefer",
          "dependent": 5,
          "dependentGloss": "es"
        },
        {
          "dep": "advmod",
          "governor": 7,
          "governorGloss": "tiefer",
          "dependent": 6,
          "dependentGloss": "weit"
        },
        {
          "dep": "ccomp",
          "governor": 3,
          "governorGloss": "Zaun-Jumper",
          "dependent": 7,
          "dependentGloss": "tiefer"
        },
        {
          "dep": "case",
          "governor": 10,
          "governorGloss": "Gebäude",
          "dependent": 8,
          "dependentGloss": "in"
        },
        {
          "dep": "det",
          "governor": 10,
          "governorGloss": "Gebäude",
          "dependent": 9,
          "dependentGloss": "das"
        },
        {
          "dep": "nmod",
          "governor": 7,
          "governorGloss": "tiefer",
          "dependent": 10,
          "dependentGloss": "Gebäude"
        },
        {
          "dep": "case",
          "governor": 13,
          "governorGloss": "bekannt",
          "dependent": 11,
          "dependentGloss": "als"
        },
        {
          "dep": "advmod",
          "governor": 13,
          "governorGloss": "bekannt",
          "dependent": 12,
          "dependentGloss": "bisher"
        },
        {
          "dep": "nmod",
          "governor": 7,
          "governorGloss": "tiefer",
          "dependent": 13,
          "dependentGloss": "bekannt"
        }
      ],
      "enhancedDependencies": [
        {
          "dep": "ROOT",
          "governor": 0,
          "governorGloss": "ROOT",
          "dependent": 3,
          "dependentGloss": "Zaun-Jumper"
        },
        {
          "dep": "name",
          "governor": 2,
          "governorGloss": "House",
          "dependent": 1,
          "dependentGloss": "White"
        },
        {
          "dep": "nsubj",
          "governor": 3,
          "governorGloss": "Zaun-Jumper",
          "dependent": 2,
          "dependentGloss": "House"
        },
        {
          "dep": "cop",
          "governor": 7,
          "governorGloss": "tiefer",
          "dependent": 4,
          "dependentGloss": "machte"
        },
        {
          "dep": "nsubj",
          "governor": 7,
          "governorGloss": "tiefer",
          "dependent": 5,
          "dependentGloss": "es"
        },
        {
          "dep": "advmod",
          "governor": 7,
          "governorGloss": "tiefer",
          "dependent": 6,
          "dependentGloss": "weit"
        },
        {
          "dep": "ccomp",
          "governor": 3,
          "governorGloss": "Zaun-Jumper",
          "dependent": 7,
          "dependentGloss": "tiefer"
        },
        {
          "dep": "case",
          "governor": 10,
          "governorGloss": "Gebäude",
          "dependent": 8,
          "dependentGloss": "in"
        },
        {
          "dep": "det",
          "governor": 10,
          "governorGloss": "Gebäude",
          "dependent": 9,
          "dependentGloss": "das"
        },
        {
          "dep": "nmod",
          "governor": 7,
          "governorGloss": "tiefer",
          "dependent": 10,
          "dependentGloss": "Gebäude"
        },
        {
          "dep": "case",
          "governor": 13,
          "governorGloss": "bekannt",
          "dependent": 11,
          "dependentGloss": "als"
        },
        {
          "dep": "advmod",
          "governor": 13,
          "governorGloss": "bekannt",
          "dependent": 12,
          "dependentGloss": "bisher"
        },
        {
          "dep": "nmod",
          "governor": 7,
          "governorGloss": "tiefer",
          "dependent": 13,
          "dependentGloss": "bekannt"
        }
      ],
      "enhancedPlusPlusDependencies": [
        {
          "dep": "ROOT",
          "governor": 0,
          "governorGloss": "ROOT",
          "dependent": 3,
          "dependentGloss": "Zaun-Jumper"
        },
        {
          "dep": "name",
          "governor": 2,
          "governorGloss": "House",
          "dependent": 1,
          "dependentGloss": "White"
        },
        {
          "dep": "nsubj",
          "governor": 3,
          "governorGloss": "Zaun-Jumper",
          "dependent": 2,
          "dependentGloss": "House"
        },
        {
          "dep": "cop",
          "governor": 7,
          "governorGloss": "tiefer",
          "dependent": 4,
          "dependentGloss": "machte"
        },
        {
          "dep": "nsubj",
          "governor": 7,
          "governorGloss": "tiefer",
          "dependent": 5,
          "dependentGloss": "es"
        },
        {
          "dep": "advmod",
          "governor": 7,
          "governorGloss": "tiefer",
          "dependent": 6,
          "dependentGloss": "weit"
        },
        {
          "dep": "ccomp",
          "governor": 3,
          "governorGloss": "Zaun-Jumper",
          "dependent": 7,
          "dependentGloss": "tiefer"
        },
        {
          "dep": "case",
          "governor": 10,
          "governorGloss": "Gebäude",
          "dependent": 8,
          "dependentGloss": "in"
        },
        {
          "dep": "det",
          "governor": 10,
          "governorGloss": "Gebäude",
          "dependent": 9,
          "dependentGloss": "das"
        },
        {
          "dep": "nmod",
          "governor": 7,
          "governorGloss": "tiefer",
          "dependent": 10,
          "dependentGloss": "Gebäude"
        },
        {
          "dep": "case",
          "governor": 13,
          "governorGloss": "bekannt",
          "dependent": 11,
          "dependentGloss": "als"
        },
        {
          "dep": "advmod",
          "governor": 13,
          "governorGloss": "bekannt",
          "dependent": 12,
          "dependentGloss": "bisher"
        },
        {
          "dep": "nmod",
          "governor": 7,
          "governorGloss": "tiefer",
          "dependent": 13,
          "dependentGloss": "bekannt"
        }
      ],
      "tokens": [
        {
          "index": 1,
          "word": "White",
          "originalText": "White",
          "characterOffsetBegin": 0,
          "characterOffsetEnd": 5,
          "pos": "FM",
          "before": "",
          "after": " "
        },
        {
          "index": 2,
          "word": "House",
          "originalText": "House",
          "characterOffsetBegin": 6,
          "characterOffsetEnd": 11,
          "pos": "FM",
          "before": " ",
          "after": " "
        },
        {
          "index": 3,
          "word": "Zaun-Jumper",
          "originalText": "Zaun-Jumper",
          "characterOffsetBegin": 12,
          "characterOffsetEnd": 23,
          "pos": "FM",
          "before": " ",
          "after": " "
        },
        {
          "index": 4,
          "word": "machte",
          "originalText": "machte",
          "characterOffsetBegin": 24,
          "characterOffsetEnd": 30,
          "pos": "VVFIN",
          "before": " ",
          "after": " "
        },
        {
          "index": 5,
          "word": "es",
          "originalText": "es",
          "characterOffsetBegin": 31,
          "characterOffsetEnd": 33,
          "pos": "PPER",
          "before": " ",
          "after": " "
        },
        {
          "index": 6,
          "word": "weit",
          "originalText": "weit",
          "characterOffsetBegin": 34,
          "characterOffsetEnd": 38,
          "pos": "ADJD",
          "before": " ",
          "after": " "
        },
        {
          "index": 7,
          "word": "tiefer",
          "originalText": "tiefer",
          "characterOffsetBegin": 39,
          "characterOffsetEnd": 45,
          "pos": "ADJD",
          "before": " ",
          "after": " "
        },
        {
          "index": 8,
          "word": "in",
          "originalText": "in",
          "characterOffsetBegin": 46,
          "characterOffsetEnd": 48,
          "pos": "APPR",
          "before": " ",
          "after": " "
        },
        {
          "index": 9,
          "word": "das",
          "originalText": "das",
          "characterOffsetBegin": 49,
          "characterOffsetEnd": 52,
          "pos": "ART",
          "before": " ",
          "after": " "
        },
        {
          "index": 10,
          "word": "Gebäude",
          "originalText": "Gebäude",
          "characterOffsetBegin": 53,
          "characterOffsetEnd": 60,
          "pos": "NN",
          "before": " ",
          "after": " "
        },
        {
          "index": 11,
          "word": "als",
          "originalText": "als",
          "characterOffsetBegin": 61,
          "characterOffsetEnd": 64,
          "pos": "APPR",
          "before": " ",
          "after": " "
        },
        {
          "index": 12,
          "word": "bisher",
          "originalText": "bisher",
          "characterOffsetBegin": 65,
          "characterOffsetEnd": 71,
          "pos": "ADV",
          "before": " ",
          "after": " "
        },
        {
          "index": 13,
          "word": "bekannt",
          "originalText": "bekannt",
          "characterOffsetBegin": 72,
          "characterOffsetEnd": 79,
          "pos": "ADJD",
          "before": " ",
          "after": ""
        }
      ]
    }
  ]
}