{
  "sentences": [
    {
      "index": 0,
      "basicDependencies": [
        {
          "dep": "ROOT",
          "governor": 0,
          "governorGloss": "ROOT",
          "dependent": 2,
          "dependentGloss": "Staat"
        },
        {
          "dep": "amod",
          "governor": 2,
          "governorGloss": "Staat",
          "dependent": 1,
          "dependentGloss": "Islamischen"
        },
        {
          "dep": "punct",
          "governor": 2,
          "governorGloss": "Staat",
          "dependent": 3,
          "dependentGloss": ","
        },
        {
          "dep": "amod",
          "governor": 5,
          "governorGloss": "Video",
          "dependent": 4,
          "dependentGloss": "im"
        },
        {
          "dep": "nsubj",
          "governor": 27,
          "governorGloss": "entführt",
          "dependent": 5,
          "dependentGloss": "Video"
        },
        {
          "dep": "case",
          "governor": 8,
          "governorGloss": "Titel",
          "dependent": 6,
          "dependentGloss": "mit"
        },
        {
          "dep": "det",
          "governor": 8,
          "governorGloss": "Titel",
          "dependent": 7,
          "dependentGloss": "dem"
        },
        {
          "dep": "nmod",
          "governor": 5,
          "governorGloss": "Video",
          "dependent": 8,
          "dependentGloss": "Titel"
        },
        {
          "dep": "punct",
          "governor": 27,
          "governorGloss": "entführt",
          "dependent": 9,
          "dependentGloss": "``"
        },
        {
          "dep": "det",
          "governor": 11,
          "governorGloss": "Botschaft",
          "dependent": 10,
          "dependentGloss": "Eine"
        },
        {
          "dep": "dobj",
          "governor": 27,
          "governorGloss": "entführt",
          "dependent": 11,
          "dependentGloss": "Botschaft"
        },
        {
          "dep": "case",
          "governor": 13,
          "governorGloss": "Amerika",
          "dependent": 12,
          "dependentGloss": "an"
        },
        {
          "dep": "nmod",
          "governor": 11,
          "governorGloss": "Botschaft",
          "dependent": 13,
          "dependentGloss": "Amerika"
        },
        {
          "dep": "punct",
          "governor": 21,
          "governorGloss": "Foley",
          "dependent": 14,
          "dependentGloss": "``"
        },
        {
          "dep": "punct",
          "governor": 21,
          "governorGloss": "Foley",
          "dependent": 15,
          "dependentGloss": ","
        },
        {
          "dep": "advmod",
          "governor": 21,
          "governorGloss": "Foley",
          "dependent": 16,
          "dependentGloss": "beheads"
        },
        {
          "dep": "amod",
          "governor": 18,
          "governorGloss": "Journalist",
          "dependent": 17,
          "dependentGloss": "amerikanischer"
        },
        {
          "dep": "nsubj",
          "governor": 21,
          "governorGloss": "Foley",
          "dependent": 18,
          "dependentGloss": "Journalist"
        },
        {
          "dep": "name",
          "governor": 20,
          "governorGloss": "Wright",
          "dependent": 19,
          "dependentGloss": "James"
        },
        {
          "dep": "appos",
          "governor": 18,
          "governorGloss": "Journalist",
          "dependent": 20,
          "dependentGloss": "Wright"
        },
        {
          "dep": "nsubjpass",
          "governor": 27,
          "governorGloss": "entführt",
          "dependent": 21,
          "dependentGloss": "Foley"
        },
        {
          "dep": "punct",
          "governor": 21,
          "governorGloss": "Foley",
          "dependent": 22,
          "dependentGloss": ","
        },
        {
          "dep": "det",
          "governor": 25,
          "governorGloss": "Jahr",
          "dependent": 23,
          "dependentGloss": "der"
        },
        {
          "dep": "amod",
          "governor": 25,
          "governorGloss": "Jahr",
          "dependent": 24,
          "dependentGloss": "im"
        },
        {
          "dep": "conj",
          "governor": 21,
          "governorGloss": "Foley",
          "dependent": 25,
          "dependentGloss": "Jahr"
        },
        {
          "dep": "nmod",
          "governor": 25,
          "governorGloss": "Jahr",
          "dependent": 26,
          "dependentGloss": "2012"
        },
        {
          "dep": "acl",
          "governor": 2,
          "governorGloss": "Staat",
          "dependent": 27,
          "dependentGloss": "entführt"
        },
        {
          "dep": "auxpass",
          "governor": 27,
          "governorGloss": "entführt",
          "dependent": 28,
          "dependentGloss": "wurde"
        }
      ],
      "enhancedDependencies": [
        {
          "dep": "ROOT",
          "governor": 0,
          "governorGloss": "ROOT",
          "dependent": 2,
          "dependentGloss": "Staat"
        },
        {
          "dep": "amod",
          "governor": 2,
          "governorGloss": "Staat",
          "dependent": 1,
          "dependentGloss": "Islamischen"
        },
        {
          "dep": "punct",
          "governor": 2,
          "governorGloss": "Staat",
          "dependent": 3,
          "dependentGloss": ","
        },
        {
          "dep": "amod",
          "governor": 5,
          "governorGloss": "Video",
          "dependent": 4,
          "dependentGloss": "im"
        },
        {
          "dep": "nsubj",
          "governor": 27,
          "governorGloss": "entführt",
          "dependent": 5,
          "dependentGloss": "Video"
        },
        {
          "dep": "case",
          "governor": 8,
          "governorGloss": "Titel",
          "dependent": 6,
          "dependentGloss": "mit"
        },
        {
          "dep": "det",
          "governor": 8,
          "governorGloss": "Titel",
          "dependent": 7,
          "dependentGloss": "dem"
        },
        {
          "dep": "nmod",
          "governor": 5,
          "governorGloss": "Video",
          "dependent": 8,
          "dependentGloss": "Titel"
        },
        {
          "dep": "punct",
          "governor": 27,
          "governorGloss": "entführt",
          "dependent": 9,
          "dependentGloss": "``"
        },
        {
          "dep": "det",
          "governor": 11,
          "governorGloss": "Botschaft",
          "dependent": 10,
          "dependentGloss": "Eine"
        },
        {
          "dep": "dobj",
          "governor": 27,
          "governorGloss": "entführt",
          "dependent": 11,
          "dependentGloss": "Botschaft"
        },
        {
          "dep": "case",
          "governor": 13,
          "governorGloss": "Amerika",
          "dependent": 12,
          "dependentGloss": "an"
        },
        {
          "dep": "nmod",
          "governor": 11,
          "governorGloss": "Botschaft",
          "dependent": 13,
          "dependentGloss": "Amerika"
        },
        {
          "dep": "punct",
          "governor": 21,
          "governorGloss": "Foley",
          "dependent": 14,
          "dependentGloss": "``"
        },
        {
          "dep": "punct",
          "governor": 21,
          "governorGloss": "Foley",
          "dependent": 15,
          "dependentGloss": ","
        },
        {
          "dep": "advmod",
          "governor": 21,
          "governorGloss": "Foley",
          "dependent": 16,
          "dependentGloss": "beheads"
        },
        {
          "dep": "amod",
          "governor": 18,
          "governorGloss": "Journalist",
          "dependent": 17,
          "dependentGloss": "amerikanischer"
        },
        {
          "dep": "nsubj",
          "governor": 21,
          "governorGloss": "Foley",
          "dependent": 18,
          "dependentGloss": "Journalist"
        },
        {
          "dep": "name",
          "governor": 20,
          "governorGloss": "Wright",
          "dependent": 19,
          "dependentGloss": "James"
        },
        {
          "dep": "appos",
          "governor": 18,
          "governorGloss": "Journalist",
          "dependent": 20,
          "dependentGloss": "Wright"
        },
        {
          "dep": "nsubjpass",
          "governor": 27,
          "governorGloss": "entführt",
          "dependent": 21,
          "dependentGloss": "Foley"
        },
        {
          "dep": "punct",
          "governor": 21,
          "governorGloss": "Foley",
          "dependent": 22,
          "dependentGloss": ","
        },
        {
          "dep": "det",
          "governor": 25,
          "governorGloss": "Jahr",
          "dependent": 23,
          "dependentGloss": "der"
        },
        {
          "dep": "amod",
          "governor": 25,
          "governorGloss": "Jahr",
          "dependent": 24,
          "dependentGloss": "im"
        },
        {
          "dep": "conj",
          "governor": 21,
          "governorGloss": "Foley",
          "dependent": 25,
          "dependentGloss": "Jahr"
        },
        {
          "dep": "nmod",
          "governor": 25,
          "governorGloss": "Jahr",
          "dependent": 26,
          "dependentGloss": "2012"
        },
        {
          "dep": "acl",
          "governor": 2,
          "governorGloss": "Staat",
          "dependent": 27,
          "dependentGloss": "entführt"
        },
        {
          "dep": "auxpass",
          "governor": 27,
          "governorGloss": "entführt",
          "dependent": 28,
          "dependentGloss": "wurde"
        }
      ],
      "enhancedPlusPlusDependencies": [
        {
          "dep": "ROOT",
          "governor": 0,
          "governorGloss": "ROOT",
          "dependent": 2,
          "dependentGloss": "Staat"
        },
        {
          "dep": "amod",
          "governor": 2,
          "governorGloss": "Staat",
          "dependent": 1,
          "dependentGloss": "Islamischen"
        },
        {
          "dep": "punct",
          "governor": 2,
          "governorGloss": "Staat",
          "dependent": 3,
          "dependentGloss": ","
        },
        {
          "dep": "amod",
          "governor": 5,
          "governorGloss": "Video",
          "dependent": 4,
          "dependentGloss": "im"
        },
        {
          "dep": "nsubj",
          "governor": 27,
          "governorGloss": "entführt",
          "dependent": 5,
          "dependentGloss": "Video"
        },
        {
          "dep": "case",
          "governor": 8,
          "governorGloss": "Titel",
          "dependent": 6,
          "dependentGloss": "mit"
        },
        {
          "dep": "det",
          "governor": 8,
          "governorGloss": "Titel",
          "dependent": 7,
          "dependentGloss": "dem"
        },
        {
          "dep": "nmod",
          "governor": 5,
          "governorGloss": "Video",
          "dependent": 8,
          "dependentGloss": "Titel"
        },
        {
          "dep": "punct",
          "governor": 27,
          "governorGloss": "entführt",
          "dependent": 9,
          "dependentGloss": "``"
        },
        {
          "dep": "det",
          "governor": 11,
          "governorGloss": "Botschaft",
          "dependent": 10,
          "dependentGloss": "Eine"
        },
        {
          "dep": "dobj",
          "governor": 27,
          "governorGloss": "entführt",
          "dependent": 11,
          "dependentGloss": "Botschaft"
        },
        {
          "dep": "case",
          "governor": 13,
          "governorGloss": "Amerika",
          "dependent": 12,
          "dependentGloss": "an"
        },
        {
          "dep": "nmod",
          "governor": 11,
          "governorGloss": "Botschaft",
          "dependent": 13,
          "dependentGloss": "Amerika"
        },
        {
          "dep": "punct",
          "governor": 21,
          "governorGloss": "Foley",
          "dependent": 14,
          "dependentGloss": "``"
        },
        {
          "dep": "punct",
          "governor": 21,
          "governorGloss": "Foley",
          "dependent": 15,
          "dependentGloss": ","
        },
        {
          "dep": "advmod",
          "governor": 21,
          "governorGloss": "Foley",
          "dependent": 16,
          "dependentGloss": "beheads"
        },
        {
          "dep": "amod",
          "governor": 18,
          "governorGloss": "Journalist",
          "dependent": 17,
          "dependentGloss": "amerikanischer"
        },
        {
          "dep": "nsubj",
          "governor": 21,
          "governorGloss": "Foley",
          "dependent": 18,
          "dependentGloss": "Journalist"
        },
        {
          "dep": "name",
          "governor": 20,
          "governorGloss": "Wright",
          "dependent": 19,
          "dependentGloss": "James"
        },
        {
          "dep": "appos",
          "governor": 18,
          "governorGloss": "Journalist",
          "dependent": 20,
          "dependentGloss": "Wright"
        },
        {
          "dep": "nsubjpass",
          "governor": 27,
          "governorGloss": "entführt",
          "dependent": 21,
          "dependentGloss": "Foley"
        },
        {
          "dep": "punct",
          "governor": 21,
          "governorGloss": "Foley",
          "dependent": 22,
          "dependentGloss": ","
        },
        {
          "dep": "det",
          "governor": 25,
          "governorGloss": "Jahr",
          "dependent": 23,
          "dependentGloss": "der"
        },
        {
          "dep": "amod",
          "governor": 25,
          "governorGloss": "Jahr",
          "dependent": 24,
          "dependentGloss": "im"
        },
        {
          "dep": "conj",
          "governor": 21,
          "governorGloss": "Foley",
          "dependent": 25,
          "dependentGloss": "Jahr"
        },
        {
          "dep": "nmod",
          "governor": 25,
          "governorGloss": "Jahr",
          "dependent": 26,
          "dependentGloss": "2012"
        },
        {
          "dep": "acl",
          "governor": 2,
          "governorGloss": "Staat",
          "dependent": 27,
          "dependentGloss": "entführt"
        },
        {
          "dep": "auxpass",
          "governor": 27,
          "governorGloss": "entführt",
          "dependent": 28,
          "dependentGloss": "wurde"
        }
      ],
      "tokens": [
        {
          "index": 1,
          "word": "Islamischen",
          "originalText": "Islamischen",
          "characterOffsetBegin": 0,
          "characterOffsetEnd": 11,
          "pos": "ADJA",
          "before": "",
          "after": " "
        },
        {
          "index": 2,
          "word": "Staat",
          "originalText": "Staat",
          "characterOffsetBegin": 12,
          "characterOffsetEnd": 17,
          "pos": "NN",
          "before": " ",
          "after": ""
        },
        {
          "index": 3,
          "word": ",",
          "originalText": ",",
          "characterOffsetBegin": 17,
          "characterOffsetEnd": 18,
          "pos": "$,",
          "before": "",
          "after": " "
        },
        {
          "index": 4,
          "word": "im",
          "originalText": "im",
          "characterOffsetBegin": 19,
          "characterOffsetEnd": 21,
          "pos": "APPRART",
          "before": " ",
          "after": " "
        },
        {
          "index": 5,
          "word": "Video",
          "originalText": "Video",
          "characterOffsetBegin": 22,
          "characterOffsetEnd": 27,
          "pos": "NN",
          "before": " ",
          "after": " "
        },
        {
          "index": 6,
          "word": "mit",
          "originalText": "mit",
          "characterOffsetBegin": 28,
          "characterOffsetEnd": 31,
          "pos": "APPR",
          "before": " ",
          "after": " "
        },
        {
          "index": 7,
          "word": "dem",
          "originalText": "dem",
          "characterOffsetBegin": 32,
          "characterOffsetEnd": 35,
          "pos": "ART",
          "before": " ",
          "after": " "
        },
        {
          "index": 8,
          "word": "Titel",
          "originalText": "Titel",
          "characterOffsetBegin": 36,
          "characterOffsetEnd": 41,
          "pos": "NN",
          "before": " ",
          "after": " "
        },
        {
          "index": 9,
          "word": "``",
          "originalText": "“",
          "characterOffsetBegin": 42,
          "characterOffsetEnd": 43,
          "pos": "CARD",
          "before": " ",
          "after": ""
        },
        {
          "index": 10,
          "word": "Eine",
          "originalText": "Eine",
          "characterOffsetBegin": 43,
          "characterOffsetEnd": 47,
          "pos": "ART",
          "before": "",
          "after": " "
        },
        {
          "index": 11,
          "word": "Botschaft",
          "originalText": "Botschaft",
          "characterOffsetBegin": 48,
          "characterOffsetEnd": 57,
          "pos": "NN",
          "before": " ",
          "after": " "
        },
        {
          "index": 12,
          "word": "an",
          "originalText": "an",
          "characterOffsetBegin": 58,
          "characterOffsetEnd": 60,
          "pos": "APPR",
          "before": " ",
          "after": " "
        },
        {
          "index": 13,
          "word": "Amerika",
          "originalText": "Amerika",
          "characterOffsetBegin": 61,
          "characterOffsetEnd": 68,
          "pos": "NE",
          "before": " ",
          "after": ""
        },
        {
          "index": 14,
          "word": "``",
          "originalText": "“",
          "characterOffsetBegin": 68,
          "characterOffsetEnd": 69,
          "pos": "CARD",
          "before": "",
          "after": ""
        },
        {
          "index": 15,
          "word": ",",
          "originalText": ",",
          "characterOffsetBegin": 69,
          "characterOffsetEnd": 70,
          "pos": "$,",
          "before": "",
          "after": " "
        },
        {
          "index": 16,
          "word": "beheads",
          "originalText": "beheads",
          "characterOffsetBegin": 71,
          "characterOffsetEnd": 78,
          "pos": "ADV",
          "before": " ",
          "after": " "
        },
        {
          "index": 17,
          "word": "amerikanischer",
          "originalText": "amerikanischer",
          "characterOffsetBegin": 79,
          "characterOffsetEnd": 93,
          "pos": "ADJA",
          "before": " ",
          "after": " "
        },
        {
          "index": 18,
          "word": "Journalist",
          "originalText": "Journalist",
          "characterOffsetBegin": 94,
          "characterOffsetEnd": 104,
          "pos": "NN",
          "before": " ",
          "after": " "
        },
        {
          "index": 19,
          "word": "James",
          "originalText": "James",
          "characterOffsetBegin": 105,
          "characterOffsetEnd": 110,
          "pos": "NE",
          "before": " ",
          "after": " "
        },
        {
          "index": 20,
          "word": "Wright",
          "originalText": "Wright",
          "characterOffsetBegin": 111,
          "characterOffsetEnd": 117,
          "pos": "NE",
          "before": " ",
          "after": " "
        },
        {
          "index": 21,
          "word": "Foley",
          "originalText": "Foley",
          "characterOffsetBegin": 118,
          "characterOffsetEnd": 123,
          "pos": "NE",
          "before": " ",
          "after": ""
        },
        {
          "index": 22,
          "word": ",",
          "originalText": ",",
          "characterOffsetBegin": 123,
          "characterOffsetEnd": 124,
          "pos": "$,",
          "before": "",
          "after": " "
        },
        {
          "index": 23,
          "word": "der",
          "originalText": "der",
          "characterOffsetBegin": 125,
          "characterOffsetEnd": 128,
          "pos": "PRELS",
          "before": " ",
          "after": " "
        },
        {
          "index": 24,
          "word": "im",
          "originalText": "im",
          "characterOffsetBegin": 129,
          "characterOffsetEnd": 131,
          "pos": "APPRART",
          "before": " ",
          "after": " "
        },
        {
          "index": 25,
          "word": "Jahr",
          "originalText": "Jahr",
          "characterOffsetBegin": 132,
          "characterOffsetEnd": 136,
          "pos": "NN",
          "before": " ",
          "after": " "
        },
        {
          "index": 26,
          "word": "2012",
          "originalText": "2012",
          "characterOffsetBegin": 137,
          "characterOffsetEnd": 141,
          "pos": "CARD",
          "before": " ",
          "after": " "
        },
        {
          "index": 27,
          "word": "entführt",
          "originalText": "entführt",
          "characterOffsetBegin": 142,
          "characterOffsetEnd": 150,
          "pos": "VVPP",
          "before": " ",
          "after": " "
        },
        {
          "index": 28,
          "word": "wurde",
          "originalText": "wurde",
          "characterOffsetBegin": 151,
          "characterOffsetEnd": 156,
          "pos": "VAFIN",
          "before": " ",
          "after": ""
        }
      ]
    }
  ]
}