{
  "sentences": [
    {
      "index": 0,
      "basicDependencies": [
        {
          "dep": "ROOT",
          "governor": 0,
          "governorGloss": "ROOT",
          "dependent": 3,
          "dependentGloss": "tot"
        },
        {
          "dep": "nsubj",
          "governor": 3,
          "governorGloss": "tot",
          "dependent": 1,
          "dependentGloss": "Macaulay"
        },
        {
          "dep": "cop",
          "governor": 3,
          "governorGloss": "tot",
          "dependent": 2,
          "dependentGloss": "Culkin"
        },
        {
          "dep": "punct",
          "governor": 3,
          "governorGloss": "tot",
          "dependent": 4,
          "dependentGloss": ":"
        },
        {
          "dep": "det",
          "governor": 6,
          "governorGloss": "Tod",
          "dependent": 5,
          "dependentGloss": "Der"
        },
        {
          "dep": "nsubj",
          "governor": 14,
          "governorGloss": "Schauspieler",
          "dependent": 6,
          "dependentGloss": "Tod"
        },
        {
          "dep": "appos",
          "governor": 6,
          "governorGloss": "Tod",
          "dependent": 7,
          "dependentGloss": "Hoax"
        },
        {
          "dep": "cop",
          "governor": 14,
          "governorGloss": "Schauspieler",
          "dependent": 8,
          "dependentGloss": "ist"
        },
        {
          "dep": "advmod",
          "governor": 10,
          "governorGloss": "einmal",
          "dependent": 9,
          "dependentGloss": "wieder"
        },
        {
          "dep": "advmod",
          "governor": 14,
          "governorGloss": "Schauspieler",
          "dependent": 10,
          "dependentGloss": "einmal"
        },
        {
          "dep": "case",
          "governor": 13,
          "governorGloss": "Kind",
          "dependent": 11,
          "dependentGloss": "auf"
        },
        {
          "dep": "det",
          "governor": 13,
          "governorGloss": "Kind",
          "dependent": 12,
          "dependentGloss": "dem"
        },
        {
          "dep": "nmod",
          "governor": 14,
          "governorGloss": "Schauspieler",
          "dependent": 13,
          "dependentGloss": "Kind"
        },
        {
          "dep": "parataxis",
          "governor": 3,
          "governorGloss": "tot",
          "dependent": 14,
          "dependentGloss": "Schauspieler"
        }
      ],
      "enhancedDependencies": [
        {
          "dep": "ROOT",
          "governor": 0,
          "governorGloss": "ROOT",
          "dependent": 3,
          "dependentGloss": "tot"
        },
        {
          "dep": "nsubj",
          "governor": 3,
          "governorGloss": "tot",
          "dependent": 1,
          "dependentGloss": "Macaulay"
        },
        {
          "dep": "cop",
          "governor": 3,
          "governorGloss": "tot",
          "dependent": 2,
          "dependentGloss": "Culkin"
        },
        {
          "dep": "punct",
          "governor": 3,
          "governorGloss": "tot",
          "dependent": 4,
          "dependentGloss": ":"
        },
        {
          "dep": "det",
          "governor": 6,
          "governorGloss": "Tod",
          "dependent": 5,
          "dependentGloss": "Der"
        },
        {
          "dep": "nsubj",
          "governor": 14,
          "governorGloss": "Schauspieler",
          "dependent": 6,
          "dependentGloss": "Tod"
        },
        {
          "dep": "appos",
          "governor": 6,
          "governorGloss": "Tod",
          "dependent": 7,
          "dependentGloss": "Hoax"
        },
        {
          "dep": "cop",
          "governor": 14,
          "governorGloss": "Schauspieler",
          "dependent": 8,
          "dependentGloss": "ist"
        },
        {
          "dep": "advmod",
          "governor": 10,
          "governorGloss": "einmal",
          "dependent": 9,
          "dependentGloss": "wieder"
        },
        {
          "dep": "advmod",
          "governor": 14,
          "governorGloss": "Schauspieler",
          "dependent": 10,
          "dependentGloss": "einmal"
        },
        {
          "dep": "case",
          "governor": 13,
          "governorGloss": "Kind",
          "dependent": 11,
          "dependentGloss": "auf"
        },
        {
          "dep": "det",
          "governor": 13,
          "governorGloss": "Kind",
          "dependent": 12,
          "dependentGloss": "dem"
        },
        {
          "dep": "nmod",
          "governor": 14,
          "governorGloss": "Schauspieler",
          "dependent": 13,
          "dependentGloss": "Kind"
        },
        {
          "dep": "parataxis",
          "governor": 3,
          "governorGloss": "tot",
          "dependent": 14,
          "dependentGloss": "Schauspieler"
        }
      ],
      "enhancedPlusPlusDependencies": [
        {
          "dep": "ROOT",
          "governor": 0,
          "governorGloss": "ROOT",
          "dependent": 3,
          "dependentGloss": "tot"
        },
        {
          "dep": "nsubj",
          "governor": 3,
          "governorGloss": "tot",
          "dependent": 1,
          "dependentGloss": "Macaulay"
        },
        {
          "dep": "cop",
          "governor": 3,
          "governorGloss": "tot",
          "dependent": 2,
          "dependentGloss": "Culkin"
        },
        {
          "dep": "punct",
          "governor": 3,
          "governorGloss": "tot",
          "dependent": 4,
          "dependentGloss": ":"
        },
        {
          "dep": "det",
          "governor": 6,
          "governorGloss": "Tod",
          "dependent": 5,
          "dependentGloss": "Der"
        },
        {
          "dep": "nsubj",
          "governor": 14,
          "governorGloss": "Schauspieler",
          "dependent": 6,
          "dependentGloss": "Tod"
        },
        {
          "dep": "appos",
          "governor": 6,
          "governorGloss": "Tod",
          "dependent": 7,
          "dependentGloss": "Hoax"
        },
        {
          "dep": "cop",
          "governor": 14,
          "governorGloss": "Schauspieler",
          "dependent": 8,
          "dependentGloss": "ist"
        },
        {
          "dep": "advmod",
          "governor": 10,
          "governorGloss": "einmal",
          "dependent": 9,
          "dependentGloss": "wieder"
        },
        {
          "dep": "advmod",
          "governor": 14,
          "governorGloss": "Schauspieler",
          "dependent": 10,
          "dependentGloss": "einmal"
        },
        {
          "dep": "case",
          "governor": 13,
          "governorGloss": "Kind",
          "dependent": 11,
          "dependentGloss": "auf"
        },
        {
          "dep": "det",
          "governor": 13,
          "governorGloss": "Kind",
          "dependent": 12,
          "dependentGloss": "dem"
        },
        {
          "dep": "nmod",
          "governor": 14,
          "governorGloss": "Schauspieler",
          "dependent": 13,
          "dependentGloss": "Kind"
        },
        {
          "dep": "parataxis",
          "governor": 3,
          "governorGloss": "tot",
          "dependent": 14,
          "dependentGloss": "Schauspieler"
        }
      ],
      "tokens": [
        {
          "index": 1,
          "word": "Macaulay",
          "originalText": "Macaulay",
          "characterOffsetBegin": 0,
          "characterOffsetEnd": 8,
          "pos": "NE",
          "before": "",
          "after": " "
        },
        {
          "index": 2,
          "word": "Culkin",
          "originalText": "Culkin",
          "characterOffsetBegin": 9,
          "characterOffsetEnd": 15,
          "pos": "NE",
          "before": " ",
          "after": " "
        },
        {
          "index": 3,
          "word": "tot",
          "originalText": "tot",
          "characterOffsetBegin": 16,
          "characterOffsetEnd": 19,
          "pos": "ADJD",
          "before": " ",
          "after": ""
        },
        {
          "index": 4,
          "word": ":",
          "originalText": ":",
          "characterOffsetBegin": 19,
          "characterOffsetEnd": 20,
          "pos": "$.",
          "before": "",
          "after": " "
        },
        {
          "index": 5,
          "word": "Der",
          "originalText": "Der",
          "characterOffsetBegin": 21,
          "characterOffsetEnd": 24,
          "pos": "ART",
          "before": " ",
          "after": " "
        },
        {
          "index": 6,
          "word": "Tod",
          "originalText": "Tod",
          "characterOffsetBegin": 25,
          "characterOffsetEnd": 28,
          "pos": "NN",
          "before": " ",
          "after": " "
        },
        {
          "index": 7,
          "word": "Hoax",
          "originalText": "Hoax",
          "characterOffsetBegin": 29,
          "characterOffsetEnd": 33,
          "pos": "NE",
          "before": " ",
          "after": " "
        },
        {
          "index": 8,
          "word": "ist",
          "originalText": "ist",
          "characterOffsetBegin": 34,
          "characterOffsetEnd": 37,
          "pos": "VAFIN",
          "before": " ",
          "after": " "
        },
        {
          "index": 9,
          "word": "wieder",
          "originalText": "wieder",
          "characterOffsetBegin": 38,
          "characterOffsetEnd": 44,
          "pos": "ADV",
          "before": " ",
          "after": " "
        },
        {
          "index": 10,
          "word": "einmal",
          "originalText": "einmal",
          "characterOffsetBegin": 45,
          "characterOffsetEnd": 51,
          "pos": "ADV",
          "before": " ",
          "after": " "
        },
        {
          "index": 11,
          "word": "auf",
          "originalText": "auf",
          "characterOffsetBegin": 52,
          "characterOffsetEnd": 55,
          "pos": "APPR",
          "before": " ",
          "after": " "
        },
        {
          "index": 12,
          "word": "dem",
          "originalText": "dem",
          "characterOffsetBegin": 56,
          "characterOffsetEnd": 59,
          "pos": "ART",
          "before": " ",
          "after": " "
        },
        {
          "index": 13,
          "word": "Kind",
          "originalText": "Kind",
          "characterOffsetBegin": 60,
          "characterOffsetEnd": 64,
          "pos": "NN",
          "before": " ",
          "after": " "
        },
        {
          "index": 14,
          "word": "Schauspieler",
          "originalText": "Schauspieler",
          "characterOffsetBegin": 65,
          "characterOffsetEnd": 77,
          "pos": "NN",
          "before": " ",
          "after": ""
        }
      ]
    }
  ]
}