{
  "sentences": [
    {
      "index": 0,
      "basicDependencies": [
        {
          "dep": "ROOT",
          "governor": 0,
          "governorGloss": "ROOT",
          "dependent": 1,
          "dependentGloss": "Treffen"
        },
        {
          "dep": "nsubj",
          "governor": 1,
          "governorGloss": "Treffen",
          "dependent": 2,
          "dependentGloss": "Sie"
        },
        {
          "dep": "amod",
          "governor": 4,
          "governorGloss": "Boy",
          "dependent": 3,
          "dependentGloss": "Magneto"
        },
        {
          "dep": "dobj",
          "governor": 1,
          "governorGloss": "Treffen",
          "dependent": 4,
          "dependentGloss": "Boy"
        },
        {
          "dep": "punct",
          "governor": 1,
          "governorGloss": "Treffen",
          "dependent": 5,
          "dependentGloss": ","
        },
        {
          "dep": "det",
          "governor": 7,
          "governorGloss": "Kind",
          "dependent": 6,
          "dependentGloss": "das"
        },
        {
          "dep": "conj",
          "governor": 1,
          "governorGloss": "Treffen",
          "dependent": 7,
          "dependentGloss": "Kind"
        },
        {
          "dep": "punct",
          "governor": 1,
          "governorGloss": "Treffen",
          "dependent": 8,
          "dependentGloss": ","
        },
        {
          "dep": "det",
          "governor": 10,
          "governorGloss": "Metall",
          "dependent": 9,
          "dependentGloss": "das"
        },
        {
          "dep": "conj",
          "governor": 1,
          "governorGloss": "Treffen",
          "dependent": 10,
          "dependentGloss": "Metall"
        },
        {
          "dep": "case",
          "governor": 13,
          "governorGloss": "Körper",
          "dependent": 11,
          "dependentGloss": "mit"
        },
        {
          "dep": "det",
          "governor": 13,
          "governorGloss": "Körper",
          "dependent": 12,
          "dependentGloss": "seinem"
        },
        {
          "dep": "nmod",
          "governor": 10,
          "governorGloss": "Metall",
          "dependent": 13,
          "dependentGloss": "Körper"
        },
        {
          "dep": "punct",
          "governor": 1,
          "governorGloss": "Treffen",
          "dependent": 14,
          "dependentGloss": "anzieht"
        }
      ],
      "enhancedDependencies": [
        {
          "dep": "ROOT",
          "governor": 0,
          "governorGloss": "ROOT",
          "dependent": 1,
          "dependentGloss": "Treffen"
        },
        {
          "dep": "nsubj",
          "governor": 1,
          "governorGloss": "Treffen",
          "dependent": 2,
          "dependentGloss": "Sie"
        },
        {
          "dep": "amod",
          "governor": 4,
          "governorGloss": "Boy",
          "dependent": 3,
          "dependentGloss": "Magneto"
        },
        {
          "dep": "dobj",
          "governor": 1,
          "governorGloss": "Treffen",
          "dependent": 4,
          "dependentGloss": "Boy"
        },
        {
          "dep": "punct",
          "governor": 1,
          "governorGloss": "Treffen",
          "dependent": 5,
          "dependentGloss": ","
        },
        {
          "dep": "det",
          "governor": 7,
          "governorGloss": "Kind",
          "dependent": 6,
          "dependentGloss": "das"
        },
        {
          "dep": "conj",
          "governor": 1,
          "governorGloss": "Treffen",
          "dependent": 7,
          "dependentGloss": "Kind"
        },
        {
          "dep": "punct",
          "governor": 1,
          "governorGloss": "Treffen",
          "dependent": 8,
          "dependentGloss": ","
        },
        {
          "dep": "det",
          "governor": 10,
          "governorGloss": "Metall",
          "dependent": 9,
          "dependentGloss": "das"
        },
        {
          "dep": "conj",
          "governor": 1,
          "governorGloss": "Treffen",
          "dependent": 10,
          "dependentGloss": "Metall"
        },
        {
          "dep": "case",
          "governor": 13,
          "governorGloss": "Körper",
          "dependent": 11,
          "dependentGloss": "mit"
        },
        {
          "dep": "det",
          "governor": 13,
          "governorGloss": "Körper",
          "dependent": 12,
          "dependentGloss": "seinem"
        },
        {
          "dep": "nmod",
          "governor": 10,
          "governorGloss": "Metall",
          "dependent": 13,
          "dependentGloss": "Körper"
        },
        {
          "dep": "punct",
          "governor": 1,
          "governorGloss": "Treffen",
          "dependent": 14,
          "dependentGloss": "anzieht"
        }
      ],
      "enhancedPlusPlusDependencies": [
        {
          "dep": "ROOT",
          "governor": 0,
          "governorGloss": "ROOT",
          "dependent": 1,
          "dependentGloss": "Treffen"
        },
        {
          "dep": "nsubj",
          "governor": 1,
          "governorGloss": "Treffen",
          "dependent": 2,
          "dependentGloss": "Sie"
        },
        {
          "dep": "amod",
          "governor": 4,
          "governorGloss": "Boy",
          "dependent": 3,
          "dependentGloss": "Magneto"
        },
        {
          "dep": "dobj",
          "governor": 1,
          "governorGloss": "Treffen",
          "dependent": 4,
          "dependentGloss": "Boy"
        },
        {
          "dep": "punct",
          "governor": 1,
          "governorGloss": "Treffen",
          "dependent": 5,
          "dependentGloss": ","
        },
        {
          "dep": "det",
          "governor": 7,
          "governorGloss": "Kind",
          "dependent": 6,
          "dependentGloss": "das"
        },
        {
          "dep": "conj",
          "governor": 1,
          "governorGloss": "Treffen",
          "dependent": 7,
          "dependentGloss": "Kind"
        },
        {
          "dep": "punct",
          "governor": 1,
          "governorGloss": "Treffen",
          "dependent": 8,
          "dependentGloss": ","
        },
        {
          "dep": "det",
          "governor": 10,
          "governorGloss": "Metall",
          "dependent": 9,
          "dependentGloss": "das"
        },
        {
          "dep": "conj",
          "governor": 1,
          "governorGloss": "Treffen",
          "dependent": 10,
          "dependentGloss": "Metall"
        },
        {
          "dep": "case",
          "governor": 13,
          "governorGloss": "Körper",
          "dependent": 11,
          "dependentGloss": "mit"
        },
        {
          "dep": "det",
          "governor": 13,
          "governorGloss": "Körper",
          "dependent": 12,
          "dependentGloss": "seinem"
        },
        {
          "dep": "nmod",
          "governor": 10,
          "governorGloss": "Metall",
          "dependent": 13,
          "dependentGloss": "Körper"
        },
        {
          "dep": "punct",
          "governor": 1,
          "governorGloss": "Treffen",
          "dependent": 14,
          "dependentGloss": "anzieht"
        }
      ],
      "tokens": [
        {
          "index": 1,
          "word": "Treffen",
          "originalText": "Treffen",
          "characterOffsetBegin": 0,
          "characterOffsetEnd": 7,
          "pos": "NN",
          "before": "",
          "after": " "
        },
        {
          "index": 2,
          "word": "Sie",
          "originalText": "Sie",
          "characterOffsetBegin": 8,
          "characterOffsetEnd": 11,
          "pos": "PPER",
          "before": " ",
          "after": " "
        },
        {
          "index": 3,
          "word": "Magneto",
          "originalText": "Magneto",
          "characterOffsetBegin": 12,
          "characterOffsetEnd": 19,
          "pos": "NN",
          "before": " ",
          "after": " "
        },
        {
          "index": 4,
          "word": "Boy",
          "originalText": "Boy",
          "characterOffsetBegin": 20,
          "characterOffsetEnd": 23,
          "pos": "NN",
          "before": " ",
          "after": ""
        },
        {
          "index": 5,
          "word": ",",
          "originalText": ",",
          "characterOffsetBegin": 23,
          "characterOffsetEnd": 24,
          "pos": "$,",
          "before": "",
          "after": " "
        },
        {
          "index": 6,
          "word": "das",
          "originalText": "das",
          "characterOffsetBegin": 25,
          "characterOffsetEnd": 28,
          "pos": "ART",
          "before": " ",
          "after": " "
        },
        {
          "index": 7,
          "word": "Kind",
          "originalText": "Kind",
          "characterOffsetBegin": 29,
          "characterOffsetEnd": 33,
          "pos": "NN",
          "before": " ",
          "after": ""
        },
        {
          "index": 8,
          "word": ",",
          "originalText": ",",
          "characterOffsetBegin": 33,
          "characterOffsetEnd": 34,
          "pos": "$,",
          "before": "",
          "after": " "
        },
        {
          "index": 9,
          "word": "das",
          "originalText": "das",
          "characterOffsetBegin": 35,
          "characterOffsetEnd": 38,
          "pos": "ART",
          "before": " ",
          "after": " "
        },
        {
          "index": 10,
          "word": "Metall",
          "originalText": "Metall",
          "characterOffsetBegin": 39,
          "characterOffsetEnd": 45,
          "pos": "NN",
          "before": " ",
          "after": " "
        },
        {
          "index": 11,
          "word": "mit",
          "originalText": "mit",
          "characterOffsetBegin": 46,
          "characterOffsetEnd": 49,
          "pos": "APPR",
          "before": " ",
          "after": " "
        },
        {
          "index": 12,
          "word": "seinem",
          "originalText": "seinem",
          "characterOffsetBegin": 50,
          "characterOffsetEnd": 56,
          "pos": "PPOSAT",
          "before": " ",
          "after": " "
        },
        {
          "index": 13,
          "word": "Körper",
          "originalText": "Körper",
          "characterOffsetBegin": 57,
          "characterOffsetEnd": 63,
          "pos": "NN",
          "before": " ",
          "after": " "
        },
        {
          "index": 14,
          "word": "anzieht",
          "originalText": "anzieht",
          "characterOffsetBegin": 64,
          "characterOffsetEnd": 71,
          "pos": "VVFIN",
          "before": " ",
          "after": ""
        }
      ]
    }
  ]
}