{
  "sentences": [
    {
      "index": 0,
      "basicDependencies": [
        {
          "dep": "ROOT",
          "governor": 0,
          "governorGloss": "ROOT",
          "dependent": 4,
          "dependentGloss": "verhaftet"
        },
        {
          "dep": "amod",
          "governor": 2,
          "governorGloss": "Frau",
          "dependent": 1,
          "dependentGloss": "Ältere"
        },
        {
          "dep": "nsubjpass",
          "governor": 4,
          "governorGloss": "verhaftet",
          "dependent": 2,
          "dependentGloss": "Frau"
        },
        {
          "dep": "auxpass",
          "governor": 4,
          "governorGloss": "verhaftet",
          "dependent": 3,
          "dependentGloss": "wurde"
        },
        {
          "dep": "punct",
          "governor": 4,
          "governorGloss": "verhaftet",
          "dependent": 5,
          "dependentGloss": ","
        },
        {
          "dep": "mark",
          "governor": 12,
          "governorGloss": "entführen",
          "dependent": 6,
          "dependentGloss": "um"
        },
        {
          "dep": "det",
          "governor": 8,
          "governorGloss": "Katzen",
          "dependent": 7,
          "dependentGloss": "die"
        },
        {
          "dep": "dobj",
          "governor": 12,
          "governorGloss": "entführen",
          "dependent": 8,
          "dependentGloss": "Katzen"
        },
        {
          "dep": "det",
          "governor": 10,
          "governorGloss": "Nachbarn",
          "dependent": 9,
          "dependentGloss": "des"
        },
        {
          "dep": "det",
          "governor": 8,
          "governorGloss": "Katzen",
          "dependent": 10,
          "dependentGloss": "Nachbarn"
        },
        {
          "dep": "aux",
          "governor": 12,
          "governorGloss": "entführen",
          "dependent": 11,
          "dependentGloss": "zu"
        },
        {
          "dep": "advcl",
          "governor": 4,
          "governorGloss": "verhaftet",
          "dependent": 12,
          "dependentGloss": "entführen"
        },
        {
          "dep": "cc",
          "governor": 12,
          "governorGloss": "entführen",
          "dependent": 13,
          "dependentGloss": "und"
        },
        {
          "dep": "xcomp",
          "governor": 16,
          "governorGloss": "machen",
          "dependent": 14,
          "dependentGloss": "Pelzmäntel"
        },
        {
          "dep": "aux",
          "governor": 16,
          "governorGloss": "machen",
          "dependent": 15,
          "dependentGloss": "zu"
        },
        {
          "dep": "conj",
          "governor": 12,
          "governorGloss": "entführen",
          "dependent": 16,
          "dependentGloss": "machen"
        }
      ],
      "enhancedDependencies": [
        {
          "dep": "ROOT",
          "governor": 0,
          "governorGloss": "ROOT",
          "dependent": 4,
          "dependentGloss": "verhaftet"
        },
        {
          "dep": "amod",
          "governor": 2,
          "governorGloss": "Frau",
          "dependent": 1,
          "dependentGloss": "Ältere"
        },
        {
          "dep": "nsubjpass",
          "governor": 4,
          "governorGloss": "verhaftet",
          "dependent": 2,
          "dependentGloss": "Frau"
        },
        {
          "dep": "auxpass",
          "governor": 4,
          "governorGloss": "verhaftet",
          "dependent": 3,
          "dependentGloss": "wurde"
        },
        {
          "dep": "punct",
          "governor": 4,
          "governorGloss": "verhaftet",
          "dependent": 5,
          "dependentGloss": ","
        },
        {
          "dep": "mark",
          "governor": 12,
          "governorGloss": "entführen",
          "dependent": 6,
          "dependentGloss": "um"
        },
        {
          "dep": "det",
          "governor": 8,
          "governorGloss": "Katzen",
          "dependent": 7,
          "dependentGloss": "die"
        },
        {
          "dep": "dobj",
          "governor": 12,
          "governorGloss": "entführen",
          "dependent": 8,
          "dependentGloss": "Katzen"
        },
        {
          "dep": "det",
          "governor": 10,
          "governorGloss": "Nachbarn",
          "dependent": 9,
          "dependentGloss": "des"
        },
        {
          "dep": "det",
          "governor": 8,
          "governorGloss": "Katzen",
          "dependent": 10,
          "dependentGloss": "Nachbarn"
        },
        {
          "dep": "aux",
          "governor": 12,
          "governorGloss": "entführen",
          "dependent": 11,
          "dependentGloss": "zu"
        },
        {
          "dep": "advcl",
          "governor": 4,
          "governorGloss": "verhaftet",
          "dependent": 12,
          "dependentGloss": "entführen"
        },
        {
          "dep": "cc",
          "governor": 12,
          "governorGloss": "entführen",
          "dependent": 13,
          "dependentGloss": "und"
        },
        {
          "dep": "xcomp",
          "governor": 16,
          "governorGloss": "machen",
          "dependent": 14,
          "dependentGloss": "Pelzmäntel"
        },
        {
          "dep": "aux",
          "governor": 16,
          "governorGloss": "machen",
          "dependent": 15,
          "dependentGloss": "zu"
        },
        {
          "dep": "advcl",
          "governor": 4,
          "governorGloss": "verhaftet",
          "dependent": 16,
          "dependentGloss": "machen"
        },
        {
          "dep": "conj:und",
          "governor": 12,
          "governorGloss": "entführen",
          "dependent": 16,
          "dependentGloss": "machen"
        }
      ],
      "enhancedPlusPlusDependencies": [
        {
          "dep": "ROOT",
          "governor": 0,
          "governorGloss": "ROOT",
          "dependent": 4,
          "dependentGloss": "verhaftet"
        },
        {
          "dep": "amod",
          "governor": 2,
          "governorGloss": "Frau",
          "dependent": 1,
          "dependentGloss": "Ältere"
        },
        {
          "dep": "nsubjpass",
          "governor": 4,
          "governorGloss": "verhaftet",
          "dependent": 2,
          "dependentGloss": "Frau"
        },
        {
          "dep": "auxpass",
          "governor": 4,
          "governorGloss": "verhaftet",
          "dependent": 3,
          "dependentGloss": "wurde"
        },
        {
          "dep": "punct",
          "governor": 4,
          "governorGloss": "verhaftet",
          "dependent": 5,
          "dependentGloss": ","
        },
        {
          "dep": "mark",
          "governor": 12,
          "governorGloss": "entführen",
          "dependent": 6,
          "dependentGloss": "um"
        },
        {
          "dep": "det",
          "governor": 8,
          "governorGloss": "Katzen",
          "dependent": 7,
          "dependentGloss": "die"
        },
        {
          "dep": "dobj",
          "governor": 12,
          "governorGloss": "entführen",
          "dependent": 8,
          "dependentGloss": "Katzen"
        },
        {
          "dep": "det",
          "governor": 10,
          "governorGloss": "Nachbarn",
          "dependent": 9,
          "dependentGloss": "des"
        },
        {
          "dep": "det",
          "governor": 8,
          "governorGloss": "Katzen",
          "dependent": 10,
          "dependentGloss": "Nachbarn"
        },
        {
          "dep": "aux",
          "governor": 12,
          "governorGloss": "entführen",
          "dependent": 11,
          "dependentGloss": "zu"
        },
        {
          "dep": "advcl",
          "governor": 4,
          "governorGloss": "verhaftet",
          "dependent": 12,
          "dependentGloss": "entführen"
        },
        {
          "dep": "cc",
          "governor": 12,
          "governorGloss": "entführen",
          "dependent": 13,
          "dependentGloss": "und"
        },
        {
          "dep": "xcomp",
          "governor": 16,
          "governorGloss": "machen",
          "dependent": 14,
          "dependentGloss": "Pelzmäntel"
        },
        {
          "dep": "aux",
          "governor": 16,
          "governorGloss": "machen",
          "dependent": 15,
          "dependentGloss": "zu"
        },
        {
          "dep": "advcl",
          "governor": 4,
          "governorGloss": "verhaftet",
          "dependent": 16,
          "dependentGloss": "machen"
        },
        {
          "dep": "conj:und",
          "governor": 12,
          "governorGloss": "entführen",
          "dependent": 16,
          "dependentGloss": "machen"
        }
      ],
      "tokens": [
        {
          "index": 1,
          "word": "Ältere",
          "originalText": "Ältere",
          "characterOffsetBegin": 0,
          "characterOffsetEnd": 6,
          "pos": "ADJA",
          "before": "",
          "after": " "
        },
        {
          "index": 2,
          "word": "Frau",
          "originalText": "Frau",
          "characterOffsetBegin": 7,
          "characterOffsetEnd": 11,
          "pos": "NN",
          "before": " ",
          "after": " "
        },
        {
          "index": 3,
          "word": "wurde",
          "originalText": "wurde",
          "characterOffsetBegin": 12,
          "characterOffsetEnd": 17,
          "pos": "VAFIN",
          "before": " ",
          "after": " "
        },
        {
          "index": 4,
          "word": "verhaftet",
          "originalText": "verhaftet",
          "characterOffsetBegin": 18,
          "characterOffsetEnd": 27,
          "pos": "VVPP",
          "before": " ",
          "after": ""
        },
        {
          "index": 5,
          "word": ",",
          "originalText": ",",
          "characterOffsetBegin": 27,
          "characterOffsetEnd": 28,
          "pos": "$,",
          "before": "",
          "after": " "
        },
        {
          "index": 6,
          "word": "um",
          "originalText": "um",
          "characterOffsetBegin": 29,
          "characterOffsetEnd": 31,
          "pos": "KOUI",
          "before": " ",
          "after": " "
        },
        {
          "index": 7,
          "word": "die",
          "originalText": "die",
          "characterOffsetBegin": 32,
          "characterOffsetEnd": 35,
          "pos": "ART",
          "before": " ",
          "after": " "
        },
        {
          "index": 8,
          "word": "Katzen",
          "originalText": "Katzen",
          "characterOffsetBegin": 36,
          "characterOffsetEnd": 42,
          "pos": "NN",
          "before": " ",
          "after": " "
        },
        {
          "index": 9,
          "word": "des",
          "originalText": "des",
          "characterOffsetBegin": 43,
          "characterOffsetEnd": 46,
          "pos": "ART",
          "before": " ",
          "after": " "
        },
        {
          "index": 10,
          "word": "Nachbarn",
          "originalText": "Nachbarn",
          "characterOffsetBegin": 47,
          "characterOffsetEnd": 55,
          "pos": "NN",
          "before": " ",
          "after": " "
        },
        {
          "index": 11,
          "word": "zu",
          "originalText": "zu",
          "characterOffsetBegin": 56,
          "characterOffsetEnd": 58,
          "pos": "PTKVZ",
          "before": " ",
          "after": " "
        },
        {
          "index": 12,
          "word": "entführen",
          "originalText": "entführen",
          "characterOffsetBegin": 59,
          "characterOffsetEnd": 68,
          "pos": "VVFIN",
          "before": " ",
          "after": " "
        },
        {
          "index": 13,
          "word": "und",
          "originalText": "und",
          "characterOffsetBegin": 69,
          "characterOffsetEnd": 72,
          "pos": "KON",
          "before": " ",
          "after": " "
        },
        {
          "index": 14,
          "word": "Pelzmäntel",
          "originalText": "Pelzmäntel",
          "characterOffsetBegin": 73,
          "characterOffsetEnd": 83,
          "pos": "NN",
          "before": " ",
          "after": " "
        },
        {
          "index": 15,
          "word": "zu",
          "originalText": "zu",
          "characterOffsetBegin": 84,
          "characterOffsetEnd": 86,
          "pos": "PTKZU",
          "before": " ",
          "after": " "
        },
        {
          "index": 16,
          "word": "machen",
          "originalText": "machen",
          "characterOffsetBegin": 87,
          "characterOffsetEnd": 93,
          "pos": "VVINF",
          "before": " ",
          "after": ""
        }
      ]
    }
  ]
}