{
  "sentences": [
    {
      "index": 0,
      "basicDependencies": [
        {
          "dep": "ROOT",
          "governor": 0,
          "governorGloss": "ROOT",
          "dependent": 3,
          "dependentGloss": "Wels"
        },
        {
          "dep": "nummod",
          "governor": 2,
          "governorGloss": "Pfund",
          "dependent": 1,
          "dependentGloss": "280"
        },
        {
          "dep": "nsubj",
          "governor": 3,
          "governorGloss": "Wels",
          "dependent": 2,
          "dependentGloss": "Pfund"
        },
        {
          "dep": "punct",
          "governor": 3,
          "governorGloss": "Wels",
          "dependent": 4,
          "dependentGloss": ":"
        },
        {
          "dep": "nsubj",
          "governor": 6,
          "governorGloss": "macht",
          "dependent": 5,
          "dependentGloss": "Fischer"
        },
        {
          "dep": "parataxis",
          "governor": 3,
          "governorGloss": "Wels",
          "dependent": 6,
          "dependentGloss": "macht"
        },
        {
          "dep": "amod",
          "governor": 8,
          "governorGloss": "Fang",
          "dependent": 7,
          "dependentGloss": "riesigen"
        },
        {
          "dep": "dobj",
          "governor": 6,
          "governorGloss": "macht",
          "dependent": 8,
          "dependentGloss": "Fang"
        },
        {
          "dep": "case",
          "governor": 10,
          "governorGloss": "Italien",
          "dependent": 9,
          "dependentGloss": "in"
        },
        {
          "dep": "nmod",
          "governor": 6,
          "governorGloss": "macht",
          "dependent": 10,
          "dependentGloss": "Italien"
        },
        {
          "dep": "punct",
          "governor": 6,
          "governorGloss": "macht",
          "dependent": 11,
          "dependentGloss": ","
        },
        {
          "dep": "nsubj",
          "governor": 15,
          "governorGloss": "setzen",
          "dependent": 12,
          "dependentGloss": "Wels"
        },
        {
          "dep": "aux",
          "governor": 15,
          "governorGloss": "setzen",
          "dependent": 13,
          "dependentGloss": "konnte"
        },
        {
          "dep": "dobj",
          "governor": 15,
          "governorGloss": "setzen",
          "dependent": 14,
          "dependentGloss": "Rekord"
        },
        {
          "dep": "ccomp",
          "governor": 6,
          "governorGloss": "macht",
          "dependent": 15,
          "dependentGloss": "setzen"
        }
      ],
      "enhancedDependencies": [
        {
          "dep": "ROOT",
          "governor": 0,
          "governorGloss": "ROOT",
          "dependent": 3,
          "dependentGloss": "Wels"
        },
        {
          "dep": "nummod",
          "governor": 2,
          "governorGloss": "Pfund",
          "dependent": 1,
          "dependentGloss": "280"
        },
        {
          "dep": "nsubj",
          "governor": 3,
          "governorGloss": "Wels",
          "dependent": 2,
          "dependentGloss": "Pfund"
        },
        {
          "dep": "punct",
          "governor": 3,
          "governorGloss": "Wels",
          "dependent": 4,
          "dependentGloss": ":"
        },
        {
          "dep": "nsubj",
          "governor": 6,
          "governorGloss": "macht",
          "dependent": 5,
          "dependentGloss": "Fischer"
        },
        {
          "dep": "parataxis",
          "governor": 3,
          "governorGloss": "Wels",
          "dependent": 6,
          "dependentGloss": "macht"
        },
        {
          "dep": "amod",
          "governor": 8,
          "governorGloss": "Fang",
          "dependent": 7,
          "dependentGloss": "riesigen"
        },
        {
          "dep": "dobj",
          "governor": 6,
          "governorGloss": "macht",
          "dependent": 8,
          "dependentGloss": "Fang"
        },
        {
          "dep": "case",
          "governor": 10,
          "governorGloss": "Italien",
          "dependent": 9,
          "dependentGloss": "in"
        },
        {
          "dep": "nmod",
          "governor": 6,
          "governorGloss": "macht",
          "dependent": 10,
          "dependentGloss": "Italien"
        },
        {
          "dep": "punct",
          "governor": 6,
          "governorGloss": "macht",
          "dependent": 11,
          "dependentGloss": ","
        },
        {
          "dep": "nsubj",
          "governor": 15,
          "governorGloss": "setzen",
          "dependent": 12,
          "dependentGloss": "Wels"
        },
        {
          "dep": "aux",
          "governor": 15,
          "governorGloss": "setzen",
          "dependent": 13,
          "dependentGloss": "konnte"
        },
        {
          "dep": "dobj",
          "governor": 15,
          "governorGloss": "setzen",
          "dependent": 14,
          "dependentGloss": "Rekord"
        },
        {
          "dep": "ccomp",
          "governor": 6,
          "governorGloss": "macht",
          "dependent": 15,
          "dependentGloss": "setzen"
        }
      ],
      "enhancedPlusPlusDependencies": [
        {
          "dep": "ROOT",
          "governor": 0,
          "governorGloss": "ROOT",
          "dependent": 3,
          "dependentGloss": "Wels"
        },
        {
          "dep": "nummod",
          "governor": 2,
          "governorGloss": "Pfund",
          "dependent": 1,
          "dependentGloss": "280"
        },
        {
          "dep": "nsubj",
          "governor": 3,
          "governorGloss": "Wels",
          "dependent": 2,
          "dependentGloss": "Pfund"
        },
        {
          "dep": "punct",
          "governor": 3,
          "governorGloss": "Wels",
          "dependent": 4,
          "dependentGloss": ":"
        },
        {
          "dep": "nsubj",
          "governor": 6,
          "governorGloss": "macht",
          "dependent": 5,
          "dependentGloss": "Fischer"
        },
        {
          "dep": "parataxis",
          "governor": 3,
          "governorGloss": "Wels",
          "dependent": 6,
          "dependentGloss": "macht"
        },
        {
          "dep": "amod",
          "governor": 8,
          "governorGloss": "Fang",
          "dependent": 7,
          "dependentGloss": "riesigen"
        },
        {
          "dep": "dobj",
          "governor": 6,
          "governorGloss": "macht",
          "dependent": 8,
          "dependentGloss": "Fang"
        },
        {
          "dep": "case",
          "governor": 10,
          "governorGloss": "Italien",
          "dependent": 9,
          "dependentGloss": "in"
        },
        {
          "dep": "nmod",
          "governor": 6,
          "governorGloss": "macht",
          "dependent": 10,
          "dependentGloss": "Italien"
        },
        {
          "dep": "punct",
          "governor": 6,
          "governorGloss": "macht",
          "dependent": 11,
          "dependentGloss": ","
        },
        {
          "dep": "nsubj",
          "governor": 15,
          "governorGloss": "setzen",
          "dependent": 12,
          "dependentGloss": "Wels"
        },
        {
          "dep": "aux",
          "governor": 15,
          "governorGloss": "setzen",
          "dependent": 13,
          "dependentGloss": "konnte"
        },
        {
          "dep": "dobj",
          "governor": 15,
          "governorGloss": "setzen",
          "dependent": 14,
          "dependentGloss": "Rekord"
        },
        {
          "dep": "ccomp",
          "governor": 6,
          "governorGloss": "macht",
          "dependent": 15,
          "dependentGloss": "setzen"
        }
      ],
      "tokens": [
        {
          "index": 1,
          "word": "280",
          "originalText": "280",
          "characterOffsetBegin": 0,
          "characterOffsetEnd": 3,
          "pos": "CARD",
          "before": "",
          "after": " "
        },
        {
          "index": 2,
          "word": "Pfund",
          "originalText": "Pfund",
          "characterOffsetBegin": 4,
          "characterOffsetEnd": 9,
          "pos": "NN",
          "before": " ",
          "after": " "
        },
        {
          "index": 3,
          "word": "Wels",
          "originalText": "Wels",
          "characterOffsetBegin": 10,
          "characterOffsetEnd": 14,
          "pos": "NE",
          "before": " ",
          "after": ""
        },
        {
          "index": 4,
          "word": ":",
          "originalText": ":",
          "characterOffsetBegin": 14,
          "characterOffsetEnd": 15,
          "pos": "$.",
          "before": "",
          "after": " "
        },
        {
          "index": 5,
          "word": "Fischer",
          "originalText": "Fischer",
          "characterOffsetBegin": 16,
          "characterOffsetEnd": 23,
          "pos": "NE",
          "before": " ",
          "after": " "
        },
        {
          "index": 6,
          "word": "macht",
          "originalText": "macht",
          "characterOffsetBegin": 24,
          "characterOffsetEnd": 29,
          "pos": "VVFIN",
          "before": " ",
          "after": " "
        },
        {
          "index": 7,
          "word": "riesigen",
          "originalText": "riesigen",
          "characterOffsetBegin": 30,
          "characterOffsetEnd": 38,
          "pos": "ADJA",
          "before": " ",
          "after": " "
        },
        {
          "index": 8,
          "word": "Fang",
          "originalText": "Fang",
          "characterOffsetBegin": 39,
          "characterOffsetEnd": 43,
          "pos": "NN",
          "before": " ",
          "after": " "
        },
        {
          "index": 9,
          "word": "in",
          "originalText": "in",
          "characterOffsetBegin": 44,
          "characterOffsetEnd": 46,
          "pos": "APPR",
          "before": " ",
          "after": " "
        },
        {
          "index": 10,
          "word": "Italien",
          "originalText": "Italien",
          "characterOffsetBegin": 47,
          "characterOffsetEnd": 54,
          "pos": "NE",
          "before": " ",
          "after": ""
        },
        {
          "index": 11,
          "word": ",",
          "originalText": ",",
          "characterOffsetBegin": 54,
          "characterOffsetEnd": 55,
          "pos": "$,",
          "before": "",
          "after": " "
        },
        {
          "index": 12,
          "word": "Wels",
          "originalText": "Wels",
          "characterOffsetBegin": 56,
          "characterOffsetEnd": 60,
          "pos": "NE",
          "before": " ",
          "after": " "
        },
        {
          "index": 13,
          "word": "konnte",
          "originalText": "konnte",
          "characterOffsetBegin": 61,
          "characterOffsetEnd": 67,
          "pos": "VMFIN",
          "before": " ",
          "after": " "
        },
        {
          "index": 14,
          "word": "Rekord",
          "originalText": "Rekord",
          "characterOffsetBegin": 68,
          "characterOffsetEnd": 74,
          "pos": "NN",
          "before": " ",
          "after": " "
        },
        {
          "index": 15,
          "word": "setzen",
          "originalText": "setzen",
          "characterOffsetBegin": 75,
          "characterOffsetEnd": 81,
          "pos": "VVINF",
          "before": " ",
          "after": ""
        }
      ]
    }
  ]
}