{
  "sentences": [
    {
      "index": 0,
      "basicDependencies": [
        {
          "dep": "ROOT",
          "governor": 0,
          "governorGloss": "ROOT",
          "dependent": 2,
          "dependentGloss": "beweisen"
        },
        {
          "dep": "nsubj",
          "governor": 2,
          "governorGloss": "beweisen",
          "dependent": 1,
          "dependentGloss": "DNA-Tests"
        },
        {
          "dep": "punct",
          "governor": 2,
          "governorGloss": "beweisen",
          "dependent": 3,
          "dependentGloss": ","
        },
        {
          "dep": "mark",
          "governor": 12,
          "governorGloss": "hält",
          "dependent": 4,
          "dependentGloss": "dass"
        },
        {
          "dep": "det",
          "governor": 6,
          "governorGloss": "Libanon",
          "dependent": 5,
          "dependentGloss": "der"
        },
        {
          "dep": "nsubj",
          "governor": 12,
          "governorGloss": "hält",
          "dependent": 6,
          "dependentGloss": "Libanon"
        },
        {
          "dep": "advmod",
          "governor": 12,
          "governorGloss": "hält",
          "dependent": 7,
          "dependentGloss": "ISIS-Chef"
        },
        {
          "dep": "amod",
          "governor": 9,
          "governorGloss": "Ex-Frau",
          "dependent": 8,
          "dependentGloss": "al-Baghdadis"
        },
        {
          "dep": "dobj",
          "governor": 12,
          "governorGloss": "hält",
          "dependent": 9,
          "dependentGloss": "Ex-Frau"
        },
        {
          "dep": "cc",
          "governor": 9,
          "governorGloss": "Ex-Frau",
          "dependent": 10,
          "dependentGloss": "und"
        },
        {
          "dep": "conj",
          "governor": 9,
          "governorGloss": "Ex-Frau",
          "dependent": 11,
          "dependentGloss": "Tochter"
        },
        {
          "dep": "ccomp",
          "governor": 2,
          "governorGloss": "beweisen",
          "dependent": 12,
          "dependentGloss": "hält"
        },
        {
          "dep": "punct",
          "governor": 12,
          "governorGloss": "hält",
          "dependent": 13,
          "dependentGloss": ","
        },
        {
          "dep": "mark",
          "governor": 19,
          "governorGloss": "gefangen",
          "dependent": 14,
          "dependentGloss": "nachdem"
        },
        {
          "dep": "nsubjpass",
          "governor": 19,
          "governorGloss": "gefangen",
          "dependent": 15,
          "dependentGloss": "sie"
        },
        {
          "dep": "case",
          "governor": 18,
          "governorGloss": "Pässen",
          "dependent": 16,
          "dependentGloss": "mit"
        },
        {
          "dep": "amod",
          "governor": 18,
          "governorGloss": "Pässen",
          "dependent": 17,
          "dependentGloss": "gefälschten"
        },
        {
          "dep": "nmod",
          "governor": 19,
          "governorGloss": "gefangen",
          "dependent": 18,
          "dependentGloss": "Pässen"
        },
        {
          "dep": "advcl",
          "governor": 12,
          "governorGloss": "hält",
          "dependent": 19,
          "dependentGloss": "gefangen"
        },
        {
          "dep": "auxpass",
          "governor": 19,
          "governorGloss": "gefangen",
          "dependent": 20,
          "dependentGloss": "wurden"
        }
      ],
      "enhancedDependencies": [
        {
          "dep": "ROOT",
          "governor": 0,
          "governorGloss": "ROOT",
          "dependent": 2,
          "dependentGloss": "beweisen"
        },
        {
          "dep": "nsubj",
          "governor": 2,
          "governorGloss": "beweisen",
          "dependent": 1,
          "dependentGloss": "DNA-Tests"
        },
        {
          "dep": "punct",
          "governor": 2,
          "governorGloss": "beweisen",
          "dependent": 3,
          "dependentGloss": ","
        },
        {
          "dep": "mark",
          "governor": 12,
          "governorGloss": "hält",
          "dependent": 4,
          "dependentGloss": "dass"
        },
        {
          "dep": "det",
          "governor": 6,
          "governorGloss": "Libanon",
          "dependent": 5,
          "dependentGloss": "der"
        },
        {
          "dep": "nsubj",
          "governor": 12,
          "governorGloss": "hält",
          "dependent": 6,
          "dependentGloss": "Libanon"
        },
        {
          "dep": "advmod",
          "governor": 12,
          "governorGloss": "hält",
          "dependent": 7,
          "dependentGloss": "ISIS-Chef"
        },
        {
          "dep": "amod",
          "governor": 9,
          "governorGloss": "Ex-Frau",
          "dependent": 8,
          "dependentGloss": "al-Baghdadis"
        },
        {
          "dep": "dobj",
          "governor": 12,
          "governorGloss": "hält",
          "dependent": 9,
          "dependentGloss": "Ex-Frau"
        },
        {
          "dep": "cc",
          "governor": 9,
          "governorGloss": "Ex-Frau",
          "dependent": 10,
          "dependentGloss": "und"
        },
        {
          "dep": "conj:und",
          "governor": 9,
          "governorGloss": "Ex-Frau",
          "dependent": 11,
          "dependentGloss": "Tochter"
        },
        {
          "dep": "dobj",
          "governor": 12,
          "governorGloss": "hält",
          "dependent": 11,
          "dependentGloss": "Tochter"
        },
        {
          "dep": "ccomp",
          "governor": 2,
          "governorGloss": "beweisen",
          "dependent": 12,
          "dependentGloss": "hält"
        },
        {
          "dep": "punct",
          "governor": 12,
          "governorGloss": "hält",
          "dependent": 13,
          "dependentGloss": ","
        },
        {
          "dep": "mark",
          "governor": 19,
          "governorGloss": "gefangen",
          "dependent": 14,
          "dependentGloss": "nachdem"
        },
        {
          "dep": "nsubjpass",
          "governor": 19,
          "governorGloss": "gefangen",
          "dependent": 15,
          "dependentGloss": "sie"
        },
        {
          "dep": "case",
          "governor": 18,
          "governorGloss": "Pässen",
          "dependent": 16,
          "dependentGloss": "mit"
        },
        {
          "dep": "amod",
          "governor": 18,
          "governorGloss": "Pässen",
          "dependent": 17,
          "dependentGloss": "gefälschten"
        },
        {
          "dep": "nmod",
          "governor": 19,
          "governorGloss": "gefangen",
          "dependent": 18,
          "dependentGloss": "Pässen"
        },
        {
          "dep": "advcl",
          "governor": 12,
          "governorGloss": "hält",
          "dependent": 19,
          "dependentGloss": "gefangen"
        },
        {
          "dep": "auxpass",
          "governor": 19,
          "governorGloss": "gefangen",
          "dependent": 20,
          "dependentGloss": "wurden"
        }
      ],
      "enhancedPlusPlusDependencies": [
        {
          "dep": "ROOT",
          "governor": 0,
          "governorGloss": "ROOT",
          "dependent": 2,
          "dependentGloss": "beweisen"
        },
        {
          "dep": "nsubj",
          "governor": 2,
          "governorGloss": "beweisen",
          "dependent": 1,
          "dependentGloss": "DNA-Tests"
        },
        {
          "dep": "punct",
          "governor": 2,
          "governorGloss": "beweisen",
          "dependent": 3,
          "dependentGloss": ","
        },
        {
          "dep": "mark",
          "governor": 12,
          "governorGloss": "hält",
          "dependent": 4,
          "dependentGloss": "dass"
        },
        {
          "dep": "det",
          "governor": 6,
          "governorGloss": "Libanon",
          "dependent": 5,
          "dependentGloss": "der"
        },
        {
          "dep": "nsubj",
          "governor": 12,
          "governorGloss": "hält",
          "dependent": 6,
          "dependentGloss": "Libanon"
        },
        {
          "dep": "advmod",
          "governor": 12,
          "governorGloss": "hält",
          "dependent": 7,
          "dependentGloss": "ISIS-Chef"
        },
        {
          "dep": "amod",
          "governor": 9,
          "governorGloss": "Ex-Frau",
          "dependent": 8,
          "dependentGloss": "al-Baghdadis"
        },
        {
          "dep": "dobj",
          "governor": 12,
          "governorGloss": "hält",
          "dependent": 9,
          "dependentGloss": "Ex-Frau"
        },
        {
          "dep": "cc",
          "governor": 9,
          "governorGloss": "Ex-Frau",
          "dependent": 10,
          "dependentGloss": "und"
        },
        {
          "dep": "conj:und",
          "governor": 9,
          "governorGloss": "Ex-Frau",
          "dependent": 11,
          "dependentGloss": "Tochter"
        },
        {
          "dep": "dobj",
          "governor": 12,
          "governorGloss": "hält",
          "dependent": 11,
          "dependentGloss": "Tochter"
        },
        {
          "dep": "ccomp",
          "governor": 2,
          "governorGloss": "beweisen",
          "dependent": 12,
          "dependentGloss": "hält"
        },
        {
          "dep": "punct",
          "governor": 12,
          "governorGloss": "hält",
          "dependent": 13,
          "dependentGloss": ","
        },
        {
          "dep": "mark",
          "governor": 19,
          "governorGloss": "gefangen",
          "dependent": 14,
          "dependentGloss": "nachdem"
        },
        {
          "dep": "nsubjpass",
          "governor": 19,
          "governorGloss": "gefangen",
          "dependent": 15,
          "dependentGloss": "sie"
        },
        {
          "dep": "case",
          "governor": 18,
          "governorGloss": "Pässen",
          "dependent": 16,
          "dependentGloss": "mit"
        },
        {
          "dep": "amod",
          "governor": 18,
          "governorGloss": "Pässen",
          "dependent": 17,
          "dependentGloss": "gefälschten"
        },
        {
          "dep": "nmod",
          "governor": 19,
          "governorGloss": "gefangen",
          "dependent": 18,
          "dependentGloss": "Pässen"
        },
        {
          "dep": "advcl",
          "governor": 12,
          "governorGloss": "hält",
          "dependent": 19,
          "dependentGloss": "gefangen"
        },
        {
          "dep": "auxpass",
          "governor": 19,
          "governorGloss": "gefangen",
          "dependent": 20,
          "dependentGloss": "wurden"
        }
      ],
      "tokens": [
        {
          "index": 1,
          "word": "DNA-Tests",
          "originalText": "DNA-Tests",
          "characterOffsetBegin": 0,
          "characterOffsetEnd": 9,
          "pos": "NN",
          "before": "",
          "after": " "
        },
        {
          "index": 2,
          "word": "beweisen",
          "originalText": "beweisen",
          "characterOffsetBegin": 10,
          "characterOffsetEnd": 18,
          "pos": "VVFIN",
          "before": " ",
          "after": ""
        },
        {
          "index": 3,
          "word": ",",
          "originalText": ",",
          "characterOffsetBegin": 18,
          "characterOffsetEnd": 19,
          "pos": "$,",
          "before": "",
          "after": " "
        },
        {
          "index": 4,
          "word": "dass",
          "originalText": "dass",
          "characterOffsetBegin": 20,
          "characterOffsetEnd": 24,
          "pos": "KOUS",
          "before": " ",
          "after": " "
        },
        {
          "index": 5,
          "word": "der",
          "originalText": "der",
          "characterOffsetBegin": 25,
          "characterOffsetEnd": 28,
          "pos": "ART",
          "before": " ",
          "after": " "
        },
        {
          "index": 6,
          "word": "Libanon",
          "originalText": "Libanon",
          "characterOffsetBegin": 29,
          "characterOffsetEnd": 36,
          "pos": "NE",
          "before": " ",
          "after": " "
        },
        {
          "index": 7,
          "word": "ISIS-Chef",
          "originalText": "ISIS-Chef",
          "characterOffsetBegin": 37,
          "characterOffsetEnd": 46,
          "pos": "NN",
          "before": " ",
          "after": " "
        },
        {
          "index": 8,
          "word": "al-Baghdadis",
          "originalText": "al-Baghdadis",
          "characterOffsetBegin": 47,
          "characterOffsetEnd": 59,
          "pos": "NE",
          "before": " ",
          "after": " "
        },
        {
          "index": 9,
          "word": "Ex-Frau",
          "originalText": "Ex-Frau",
          "characterOffsetBegin": 60,
          "characterOffsetEnd": 67,
          "pos": "NE",
          "before": " ",
          "after": " "
        },
        {
          "index": 10,
          "word": "und",
          "originalText": "und",
          "characterOffsetBegin": 68,
          "characterOffsetEnd": 71,
          "pos": "KON",
          "before": " ",
          "after": " "
        },
        {
          "index": 11,
          "word": "Tochter",
          "originalText": "Tochter",
          "characterOffsetBegin": 72,
          "characterOffsetEnd": 79,
          "pos": "NN",
          "before": " ",
          "after": " "
        },
        {
          "index": 12,
          "word": "hält",
          "originalText": "hält",
          "characterOffsetBegin": 80,
          "characterOffsetEnd": 84,
          "pos": "VVFIN",
          "before": " ",
          "after": ""
        },
        {
          "index": 13,
          "word": ",",
          "originalText": ",",
          "characterOffsetBegin": 84,
          "characterOffsetEnd": 85,
          "pos": "$,",
          "before": "",
          "after": " "
        },
        {
          "index": 14,
          "word": "nachdem",
          "originalText": "nachdem",
          "characterOffsetBegin": 86,
          "characterOffsetEnd": 93,
          "pos": "KOUS",
          "before": " ",
          "after": " "
        },
        {
          "index": 15,
          "word": "sie",
          "originalText": "sie",
          "characterOffsetBegin": 94,
          "characterOffsetEnd": 97,
          "pos": "PPER",
          "before": " ",
          "after": " "
        },
        {
          "index": 16,
          "word": "mit",
          "originalText": "mit",
          "characterOffsetBegin": 98,
          "characterOffsetEnd": 101,
          "pos": "APPR",
          "before": " ",
          "after": " "
        },
        {
          "index": 17,
          "word": "gefälschten",
          "originalText": "gefälschten",
          "characterOffsetBegin": 102,
          "characterOffsetEnd": 113,
          "pos": "ADJA",
          "before": " ",
          "after": " "
        },
        {
          "index": 18,
          "word": "Pässen",
          "originalText": "Pässen",
          "characterOffsetBegin": 114,
          "characterOffsetEnd": 120,
          "pos": "NN",
          "before": " ",
          "after": " "
        },
        {
          "index": 19,
          "word": "gefangen",
          "originalText": "gefangen",
          "characterOffsetBegin": 121,
          "characterOffsetEnd": 129,
          "pos": "VVPP",
          "before": " ",
          "after": " "
        },
        {
          "index": 20,
          "word": "wurden",
          "originalText": "wurden",
          "characterOffsetBegin": 130,
          "characterOffsetEnd": 136,
          "pos": "VAFIN",
          "before": " ",
          "after": ""
        }
      ]
    }
  ]
}