{
  "sentences": [
    {
      "index": 0,
      "basicDependencies": [
        {
          "dep": "ROOT",
          "governor": 0,
          "governorGloss": "ROOT",
          "dependent": 7,
          "dependentGloss": "Geschrieben"
        },
        {
          "dep": "amod",
          "governor": 2,
          "governorGloss": "Enthauptung",
          "dependent": 1,
          "dependentGloss": "ISIS"
        },
        {
          "dep": "nsubj",
          "governor": 7,
          "governorGloss": "Geschrieben",
          "dependent": 2,
          "dependentGloss": "Enthauptung"
        },
        {
          "dep": "det",
          "governor": 4,
          "governorGloss": "US-Journalisten",
          "dependent": 3,
          "dependentGloss": "des"
        },
        {
          "dep": "det",
          "governor": 2,
          "governorGloss": "Enthauptung",
          "dependent": 4,
          "dependentGloss": "US-Journalisten"
        },
        {
          "dep": "name",
          "governor": 6,
          "governorGloss": "Foley",
          "dependent": 5,
          "dependentGloss": "James"
        },
        {
          "dep": "appos",
          "governor": 4,
          "governorGloss": "US-Journalisten",
          "dependent": 6,
          "dependentGloss": "Foley"
        },
        {
          "dep": "case",
          "governor": 9,
          "governorGloss": "YouTube",
          "dependent": 8,
          "dependentGloss": "auf"
        },
        {
          "dep": "nmod",
          "governor": 7,
          "governorGloss": "Geschrieben",
          "dependent": 9,
          "dependentGloss": "YouTube"
        }
      ],
      "enhancedDependencies": [
        {
          "dep": "ROOT",
          "governor": 0,
          "governorGloss": "ROOT",
          "dependent": 7,
          "dependentGloss": "Geschrieben"
        },
        {
          "dep": "amod",
          "governor": 2,
          "governorGloss": "Enthauptung",
          "dependent": 1,
          "dependentGloss": "ISIS"
        },
        {
          "dep": "nsubj",
          "governor": 7,
          "governorGloss": "Geschrieben",
          "dependent": 2,
          "dependentGloss": "Enthauptung"
        },
        {
          "dep": "det",
          "governor": 4,
          "governorGloss": "US-Journalisten",
          "dependent": 3,
          "dependentGloss": "des"
        },
        {
          "dep": "det",
          "governor": 2,
          "governorGloss": "Enthauptung",
          "dependent": 4,
          "dependentGloss": "US-Journalisten"
        },
        {
          "dep": "name",
          "governor": 6,
          "governorGloss": "Foley",
          "dependent": 5,
          "dependentGloss": "James"
        },
        {
          "dep": "appos",
          "governor": 4,
          "governorGloss": "US-Journalisten",
          "dependent": 6,
          "dependentGloss": "Foley"
        },
        {
          "dep": "case",
          "governor": 9,
          "governorGloss": "YouTube",
          "dependent": 8,
          "dependentGloss": "auf"
        },
        {
          "dep": "nmod",
          "governor": 7,
          "governorGloss": "Geschrieben",
          "dependent": 9,
          "dependentGloss": "YouTube"
        }
      ],
      "enhancedPlusPlusDependencies": [
        {
          "dep": "ROOT",
          "governor": 0,
          "governorGloss": "ROOT",
          "dependent": 7,
          "dependentGloss": "Geschrieben"
        },
        {
          "dep": "amod",
          "governor": 2,
          "governorGloss": "Enthauptung",
          "dependent": 1,
          "dependentGloss": "ISIS"
        },
        {
          "dep": "nsubj",
          "governor": 7,
          "governorGloss": "Geschrieben",
          "dependent": 2,
          "dependentGloss": "Enthauptung"
        },
        {
          "dep": "det",
          "governor": 4,
          "governorGloss": "US-Journalisten",
          "dependent": 3,
          "dependentGloss": "des"
        },
        {
          "dep": "det",
          "governor": 2,
          "governorGloss": "Enthauptung",
          "dependent": 4,
          "dependentGloss": "US-Journalisten"
        },
        {
          "dep": "name",
          "governor": 6,
          "governorGloss": "Foley",
          "dependent": 5,
          "dependentGloss": "James"
        },
        {
          "dep": "appos",
          "governor": 4,
          "governorGloss": "US-Journalisten",
          "dependent": 6,
          "dependentGloss": "Foley"
        },
        {
          "dep": "case",
          "governor": 9,
          "governorGloss": "YouTube",
          "dependent": 8,
          "dependentGloss": "auf"
        },
        {
          "dep": "nmod",
          "governor": 7,
          "governorGloss": "Geschrieben",
          "dependent": 9,
          "dependentGloss": "YouTube"
        }
      ],
      "tokens": [
        {
          "index": 1,
          "word": "ISIS",
          "originalText": "ISIS",
          "characterOffsetBegin": 0,
          "characterOffsetEnd": 4,
          "pos": "NE",
          "before": "",
          "after": " "
        },
        {
          "index": 2,
          "word": "Enthauptung",
          "originalText": "Enthauptung",
          "characterOffsetBegin": 5,
          "characterOffsetEnd": 16,
          "pos": "NN",
          "before": " ",
          "after": " "
        },
        {
          "index": 3,
          "word": "des",
          "originalText": "des",
          "characterOffsetBegin": 17,
          "characterOffsetEnd": 20,
          "pos": "ART",
          "before": " ",
          "after": " "
        },
        {
          "index": 4,
          "word": "US-Journalisten",
          "originalText": "US-Journalisten",
          "characterOffsetBegin": 21,
          "characterOffsetEnd": 36,
          "pos": "NN",
          "before": " ",
          "after": " "
        },
        {
          "index": 5,
          "word": "James",
          "originalText": "James",
          "characterOffsetBegin": 37,
          "characterOffsetEnd": 42,
          "pos": "NE",
          "before": " ",
          "after": " "
        },
        {
          "index": 6,
          "word": "Foley",
          "originalText": "Foley",
          "characterOffsetBegin": 43,
          "characterOffsetEnd": 48,
          "pos": "NE",
          "before": " ",
          "after": " "
        },
        {
          "index": 7,
          "word": "Geschrieben",
          "originalText": "Geschrieben",
          "characterOffsetBegin": 49,
          "characterOffsetEnd": 60,
          "pos": "NN",
          "before": " ",
          "after": " "
        },
        {
          "index": 8,
          "word": "auf",
          "originalText": "auf",
          "characterOffsetBegin": 61,
          "characterOffsetEnd": 64,
          "pos": "APPR",
          "before": " ",
          "after": " "
        },
        {
          "index": 9,
          "word": "YouTube",
          "originalText": "YouTube",
          "characterOffsetBegin": 65,
          "characterOffsetEnd": 72,
          "pos": "NN",
          "before": " ",
          "after": ""
        }
      ]
    }
  ]
}