{
  "sentences": [
    {
      "index": 0,
      "basicDependencies": [
        {
          "dep": "ROOT",
          "governor": 0,
          "governorGloss": "ROOT",
          "dependent": 1,
          "dependentGloss": "US-Gesetzgeber"
        },
        {
          "dep": "punct",
          "governor": 1,
          "governorGloss": "US-Gesetzgeber",
          "dependent": 2,
          "dependentGloss": ":"
        },
        {
          "dep": "nummod",
          "governor": 4,
          "governorGloss": "ISIS-Kämpfer",
          "dependent": 3,
          "dependentGloss": "Zehn"
        },
        {
          "dep": "nsubjpass",
          "governor": 6,
          "governorGloss": "verstanden",
          "dependent": 4,
          "dependentGloss": "ISIS-Kämpfer"
        },
        {
          "dep": "auxpass",
          "governor": 6,
          "governorGloss": "verstanden",
          "dependent": 5,
          "dependentGloss": "wurden"
        },
        {
          "dep": "parataxis",
          "governor": 1,
          "governorGloss": "US-Gesetzgeber",
          "dependent": 6,
          "dependentGloss": "verstanden"
        },
        {
          "dep": "punct",
          "governor": 6,
          "governorGloss": "verstanden",
          "dependent": 7,
          "dependentGloss": ","
        },
        {
          "dep": "case",
          "governor": 11,
          "governorGloss": "Grenze",
          "dependent": 8,
          "dependentGloss": "über"
        },
        {
          "dep": "det",
          "governor": 11,
          "governorGloss": "Grenze",
          "dependent": 9,
          "dependentGloss": "die"
        },
        {
          "dep": "amod",
          "governor": 11,
          "governorGloss": "Grenze",
          "dependent": 10,
          "dependentGloss": "südliche"
        },
        {
          "dep": "nmod",
          "governor": 13,
          "governorGloss": "kommen",
          "dependent": 11,
          "dependentGloss": "Grenze"
        },
        {
          "dep": "aux",
          "governor": 13,
          "governorGloss": "kommen",
          "dependent": 12,
          "dependentGloss": "zu"
        },
        {
          "dep": "xcomp",
          "governor": 6,
          "governorGloss": "verstanden",
          "dependent": 13,
          "dependentGloss": "kommen"
        },
        {
          "dep": "amod",
          "governor": 15,
          "governorGloss": "Video",
          "dependent": 14,
          "dependentGloss": "-LRB-"
        },
        {
          "dep": "nsubj",
          "governor": 16,
          "governorGloss": "-RRB-",
          "dependent": 15,
          "dependentGloss": "Video"
        },
        {
          "dep": "xcomp",
          "governor": 13,
          "governorGloss": "kommen",
          "dependent": 16,
          "dependentGloss": "-RRB-"
        }
      ],
      "enhancedDependencies": [
        {
          "dep": "ROOT",
          "governor": 0,
          "governorGloss": "ROOT",
          "dependent": 1,
          "dependentGloss": "US-Gesetzgeber"
        },
        {
          "dep": "punct",
          "governor": 1,
          "governorGloss": "US-Gesetzgeber",
          "dependent": 2,
          "dependentGloss": ":"
        },
        {
          "dep": "nummod",
          "governor": 4,
          "governorGloss": "ISIS-Kämpfer",
          "dependent": 3,
          "dependentGloss": "Zehn"
        },
        {
          "dep": "nsubjpass",
          "governor": 6,
          "governorGloss": "verstanden",
          "dependent": 4,
          "dependentGloss": "ISIS-Kämpfer"
        },
        {
          "dep": "auxpass",
          "governor": 6,
          "governorGloss": "verstanden",
          "dependent": 5,
          "dependentGloss": "wurden"
        },
        {
          "dep": "parataxis",
          "governor": 1,
          "governorGloss": "US-Gesetzgeber",
          "dependent": 6,
          "dependentGloss": "verstanden"
        },
        {
          "dep": "punct",
          "governor": 6,
          "governorGloss": "verstanden",
          "dependent": 7,
          "dependentGloss": ","
        },
        {
          "dep": "case",
          "governor": 11,
          "governorGloss": "Grenze",
          "dependent": 8,
          "dependentGloss": "über"
        },
        {
          "dep": "det",
          "governor": 11,
          "governorGloss": "Grenze",
          "dependent": 9,
          "dependentGloss": "die"
        },
        {
          "dep": "amod",
          "governor": 11,
          "governorGloss": "Grenze",
          "dependent": 10,
          "dependentGloss": "südliche"
        },
        {
          "dep": "nmod",
          "governor": 13,
          "governorGloss": "kommen",
          "dependent": 11,
          "dependentGloss": "Grenze"
        },
        {
          "dep": "aux",
          "governor": 13,
          "governorGloss": "kommen",
          "dependent": 12,
          "dependentGloss": "zu"
        },
        {
          "dep": "xcomp",
          "governor": 6,
          "governorGloss": "verstanden",
          "dependent": 13,
          "dependentGloss": "kommen"
        },
        {
          "dep": "amod",
          "governor": 15,
          "governorGloss": "Video",
          "dependent": 14,
          "dependentGloss": "-LRB-"
        },
        {
          "dep": "nsubj",
          "governor": 16,
          "governorGloss": "-RRB-",
          "dependent": 15,
          "dependentGloss": "Video"
        },
        {
          "dep": "xcomp",
          "governor": 13,
          "governorGloss": "kommen",
          "dependent": 16,
          "dependentGloss": "-RRB-"
        }
      ],
      "enhancedPlusPlusDependencies": [
        {
          "dep": "ROOT",
          "governor": 0,
          "governorGloss": "ROOT",
          "dependent": 1,
          "dependentGloss": "US-Gesetzgeber"
        },
        {
          "dep": "punct",
          "governor": 1,
          "governorGloss": "US-Gesetzgeber",
          "dependent": 2,
          "dependentGloss": ":"
        },
        {
          "dep": "nummod",
          "governor": 4,
          "governorGloss": "ISIS-Kämpfer",
          "dependent": 3,
          "dependentGloss": "Zehn"
        },
        {
          "dep": "nsubjpass",
          "governor": 6,
          "governorGloss": "verstanden",
          "dependent": 4,
          "dependentGloss": "ISIS-Kämpfer"
        },
        {
          "dep": "auxpass",
          "governor": 6,
          "governorGloss": "verstanden",
          "dependent": 5,
          "dependentGloss": "wurden"
        },
        {
          "dep": "parataxis",
          "governor": 1,
          "governorGloss": "US-Gesetzgeber",
          "dependent": 6,
          "dependentGloss": "verstanden"
        },
        {
          "dep": "punct",
          "governor": 6,
          "governorGloss": "verstanden",
          "dependent": 7,
          "dependentGloss": ","
        },
        {
          "dep": "case",
          "governor": 11,
          "governorGloss": "Grenze",
          "dependent": 8,
          "dependentGloss": "über"
        },
        {
          "dep": "det",
          "governor": 11,
          "governorGloss": "Grenze",
          "dependent": 9,
          "dependentGloss": "die"
        },
        {
          "dep": "amod",
          "governor": 11,
          "governorGloss": "Grenze",
          "dependent": 10,
          "dependentGloss": "südliche"
        },
        {
          "dep": "nmod",
          "governor": 13,
          "governorGloss": "kommen",
          "dependent": 11,
          "dependentGloss": "Grenze"
        },
        {
          "dep": "aux",
          "governor": 13,
          "governorGloss": "kommen",
          "dependent": 12,
          "dependentGloss": "zu"
        },
        {
          "dep": "xcomp",
          "governor": 6,
          "governorGloss": "verstanden",
          "dependent": 13,
          "dependentGloss": "kommen"
        },
        {
          "dep": "amod",
          "governor": 15,
          "governorGloss": "Video",
          "dependent": 14,
          "dependentGloss": "-LRB-"
        },
        {
          "dep": "nsubj",
          "governor": 16,
          "governorGloss": "-RRB-",
          "dependent": 15,
          "dependentGloss": "Video"
        },
        {
          "dep": "xcomp",
          "governor": 13,
          "governorGloss": "kommen",
          "dependent": 16,
          "dependentGloss": "-RRB-"
        }
      ],
      "tokens": [
        {
          "index": 1,
          "word": "US-Gesetzgeber",
          "originalText": "US-Gesetzgeber",
          "characterOffsetBegin": 0,
          "characterOffsetEnd": 14,
          "pos": "NN",
          "before": "",
          "after": ""
        },
        {
          "index": 2,
          "word": ":",
          "originalText": ":",
          "characterOffsetBegin": 14,
          "characterOffsetEnd": 15,
          "pos": "$.",
          "before": "",
          "after": " "
        },
        {
          "index": 3,
          "word": "Zehn",
          "originalText": "Zehn",
          "characterOffsetBegin": 16,
          "characterOffsetEnd": 20,
          "pos": "CARD",
          "before": " ",
          "after": " "
        },
        {
          "index": 4,
          "word": "ISIS-Kämpfer",
          "originalText": "ISIS-Kämpfer",
          "characterOffsetBegin": 21,
          "characterOffsetEnd": 33,
          "pos": "NN",
          "before": " ",
          "after": " "
        },
        {
          "index": 5,
          "word": "wurden",
          "originalText": "wurden",
          "characterOffsetBegin": 34,
          "characterOffsetEnd": 40,
          "pos": "VAFIN",
          "before": " ",
          "after": " "
        },
        {
          "index": 6,
          "word": "verstanden",
          "originalText": "verstanden",
          "characterOffsetBegin": 41,
          "characterOffsetEnd": 51,
          "pos": "VVPP",
          "before": " ",
          "after": ""
        },
        {
          "index": 7,
          "word": ",",
          "originalText": ",",
          "characterOffsetBegin": 51,
          "characterOffsetEnd": 52,
          "pos": "$,",
          "before": "",
          "after": " "
        },
        {
          "index": 8,
          "word": "über",
          "originalText": "über",
          "characterOffsetBegin": 53,
          "characterOffsetEnd": 57,
          "pos": "APPR",
          "before": " ",
          "after": " "
        },
        {
          "index": 9,
          "word": "die",
          "originalText": "die",
          "characterOffsetBegin": 58,
          "characterOffsetEnd": 61,
          "pos": "ART",
          "before": " ",
          "after": " "
        },
        {
          "index": 10,
          "word": "südliche",
          "originalText": "südliche",
          "characterOffsetBegin": 62,
          "characterOffsetEnd": 70,
          "pos": "ADJA",
          "before": " ",
          "after": " "
        },
        {
          "index": 11,
          "word": "Grenze",
          "originalText": "Grenze",
          "characterOffsetBegin": 71,
          "characterOffsetEnd": 77,
          "pos": "NN",
          "before": " ",
          "after": " "
        },
        {
          "index": 12,
          "word": "zu",
          "originalText": "zu",
          "characterOffsetBegin": 78,
          "characterOffsetEnd": 80,
          "pos": "PTKZU",
          "before": " ",
          "after": " "
        },
        {
          "index": 13,
          "word": "kommen",
          "originalText": "kommen",
          "characterOffsetBegin": 81,
          "characterOffsetEnd": 87,
          "pos": "VVINF",
          "before": " ",
          "after": " "
        },
        {
          "index": 14,
          "word": "-LRB-",
          "originalText": "(",
          "characterOffsetBegin": 88,
          "characterOffsetEnd": 89,
          "pos": "TRUNC",
          "before": " ",
          "after": ""
        },
        {
          "index": 15,
          "word": "Video",
          "originalText": "Video",
          "characterOffsetBegin": 89,
          "characterOffsetEnd": 94,
          "pos": "NN",
          "before": "",
          "after": ""
        },
        {
          "index": 16,
          "word": "-RRB-",
          "originalText": ")",
          "characterOffsetBegin": 94,
          "characterOffsetEnd": 95,
          "pos": "TRUNC",
          "before": "",
          "after": ""
        }
      ]
    }
  ]
}