{
  "sentences": [
    {
      "index": 0,
      "basicDependencies": [
        {
          "dep": "ROOT",
          "governor": 0,
          "governorGloss": "ROOT",
          "dependent": 1,
          "dependentGloss": "Nicaragua-Meteorit"
        },
        {
          "dep": "punct",
          "governor": 1,
          "governorGloss": "Nicaragua-Meteorit",
          "dependent": 2,
          "dependentGloss": ":"
        },
        {
          "dep": "dobj",
          "governor": 4,
          "governorGloss": "versuchen",
          "dependent": 3,
          "dependentGloss": "Experten"
        },
        {
          "dep": "parataxis",
          "governor": 1,
          "governorGloss": "Nicaragua-Meteorit",
          "dependent": 4,
          "dependentGloss": "versuchen"
        },
        {
          "dep": "aux",
          "governor": 6,
          "governorGloss": "verstehen",
          "dependent": 5,
          "dependentGloss": "zu"
        },
        {
          "dep": "xcomp",
          "governor": 4,
          "governorGloss": "versuchen",
          "dependent": 6,
          "dependentGloss": "verstehen"
        },
        {
          "dep": "punct",
          "governor": 4,
          "governorGloss": "versuchen",
          "dependent": 7,
          "dependentGloss": ","
        },
        {
          "dep": "mark",
          "governor": 14,
          "governorGloss": "fiel",
          "dependent": 8,
          "dependentGloss": "ob"
        },
        {
          "dep": "amod",
          "governor": 10,
          "governorGloss": "Meteorit",
          "dependent": 9,
          "dependentGloss": "geheimnisvoller"
        },
        {
          "dep": "nsubj",
          "governor": 14,
          "governorGloss": "fiel",
          "dependent": 10,
          "dependentGloss": "Meteorit"
        },
        {
          "dep": "case",
          "governor": 13,
          "governorGloss": "Pitbull-Asteroiden",
          "dependent": 11,
          "dependentGloss": "aus"
        },
        {
          "dep": "det",
          "governor": 13,
          "governorGloss": "Pitbull-Asteroiden",
          "dependent": 12,
          "dependentGloss": "dem"
        },
        {
          "dep": "nmod",
          "governor": 14,
          "governorGloss": "fiel",
          "dependent": 13,
          "dependentGloss": "Pitbull-Asteroiden"
        },
        {
          "dep": "advcl",
          "governor": 4,
          "governorGloss": "versuchen",
          "dependent": 14,
          "dependentGloss": "fiel"
        }
      ],
      "enhancedDependencies": [
        {
          "dep": "ROOT",
          "governor": 0,
          "governorGloss": "ROOT",
          "dependent": 1,
          "dependentGloss": "Nicaragua-Meteorit"
        },
        {
          "dep": "punct",
          "governor": 1,
          "governorGloss": "Nicaragua-Meteorit",
          "dependent": 2,
          "dependentGloss": ":"
        },
        {
          "dep": "dobj",
          "governor": 4,
          "governorGloss": "versuchen",
          "dependent": 3,
          "dependentGloss": "Experten"
        },
        {
          "dep": "parataxis",
          "governor": 1,
          "governorGloss": "Nicaragua-Meteorit",
          "dependent": 4,
          "dependentGloss": "versuchen"
        },
        {
          "dep": "aux",
          "governor": 6,
          "governorGloss": "verstehen",
          "dependent": 5,
          "dependentGloss": "zu"
        },
        {
          "dep": "xcomp",
          "governor": 4,
          "governorGloss": "versuchen",
          "dependent": 6,
          "dependentGloss": "verstehen"
        },
        {
          "dep": "punct",
          "governor": 4,
          "governorGloss": "versuchen",
          "dependent": 7,
          "dependentGloss": ","
        },
        {
          "dep": "mark",
          "governor": 14,
          "governorGloss": "fiel",
          "dependent": 8,
          "dependentGloss": "ob"
        },
        {
          "dep": "amod",
          "governor": 10,
          "governorGloss": "Meteorit",
          "dependent": 9,
          "dependentGloss": "geheimnisvoller"
        },
        {
          "dep": "nsubj",
          "governor": 14,
          "governorGloss": "fiel",
          "dependent": 10,
          "dependentGloss": "Meteorit"
        },
        {
          "dep": "case",
          "governor": 13,
          "governorGloss": "Pitbull-Asteroiden",
          "dependent": 11,
          "dependentGloss": "aus"
        },
        {
          "dep": "det",
          "governor": 13,
          "governorGloss": "Pitbull-Asteroiden",
          "dependent": 12,
          "dependentGloss": "dem"
        },
        {
          "dep": "nmod",
          "governor": 14,
          "governorGloss": "fiel",
          "dependent": 13,
          "dependentGloss": "Pitbull-Asteroiden"
        },
        {
          "dep": "advcl",
          "governor": 4,
          "governorGloss": "versuchen",
          "dependent": 14,
          "dependentGloss": "fiel"
        }
      ],
      "enhancedPlusPlusDependencies": [
        {
          "dep": "ROOT",
          "governor": 0,
          "governorGloss": "ROOT",
          "dependent": 1,
          "dependentGloss": "Nicaragua-Meteorit"
        },
        {
          "dep": "punct",
          "governor": 1,
          "governorGloss": "Nicaragua-Meteorit",
          "dependent": 2,
          "dependentGloss": ":"
        },
        {
          "dep": "dobj",
          "governor": 4,
          "governorGloss": "versuchen",
          "dependent": 3,
          "dependentGloss": "Experten"
        },
        {
          "dep": "parataxis",
          "governor": 1,
          "governorGloss": "Nicaragua-Meteorit",
          "dependent": 4,
          "dependentGloss": "versuchen"
        },
        {
          "dep": "aux",
          "governor": 6,
          "governorGloss": "verstehen",
          "dependent": 5,
          "dependentGloss": "zu"
        },
        {
          "dep": "xcomp",
          "governor": 4,
          "governorGloss": "versuchen",
          "dependent": 6,
          "dependentGloss": "verstehen"
        },
        {
          "dep": "punct",
          "governor": 4,
          "governorGloss": "versuchen",
          "dependent": 7,
          "dependentGloss": ","
        },
        {
          "dep": "mark",
          "governor": 14,
          "governorGloss": "fiel",
          "dependent": 8,
          "dependentGloss": "ob"
        },
        {
          "dep": "amod",
          "governor": 10,
          "governorGloss": "Meteorit",
          "dependent": 9,
          "dependentGloss": "geheimnisvoller"
        },
        {
          "dep": "nsubj",
          "governor": 14,
          "governorGloss": "fiel",
          "dependent": 10,
          "dependentGloss": "Meteorit"
        },
        {
          "dep": "case",
          "governor": 13,
          "governorGloss": "Pitbull-Asteroiden",
          "dependent": 11,
          "dependentGloss": "aus"
        },
        {
          "dep": "det",
          "governor": 13,
          "governorGloss": "Pitbull-Asteroiden",
          "dependent": 12,
          "dependentGloss": "dem"
        },
        {
          "dep": "nmod",
          "governor": 14,
          "governorGloss": "fiel",
          "dependent": 13,
          "dependentGloss": "Pitbull-Asteroiden"
        },
        {
          "dep": "advcl",
          "governor": 4,
          "governorGloss": "versuchen",
          "dependent": 14,
          "dependentGloss": "fiel"
        }
      ],
      "tokens": [
        {
          "index": 1,
          "word": "Nicaragua-Meteorit",
          "originalText": "Nicaragua-Meteorit",
          "characterOffsetBegin": 0,
          "characterOffsetEnd": 18,
          "pos": "NN",
          "before": "",
          "after": ""
        },
        {
          "index": 2,
          "word": ":",
          "originalText": ":",
          "characterOffsetBegin": 18,
          "characterOffsetEnd": 19,
          "pos": "$.",
          "before": "",
          "after": " "
        },
        {
          "index": 3,
          "word": "Experten",
          "originalText": "Experten",
          "characterOffsetBegin": 20,
          "characterOffsetEnd": 28,
          "pos": "NN",
          "before": " ",
          "after": " "
        },
        {
          "index": 4,
          "word": "versuchen",
          "originalText": "versuchen",
          "characterOffsetBegin": 29,
          "characterOffsetEnd": 38,
          "pos": "VVINF",
          "before": " ",
          "after": " "
        },
        {
          "index": 5,
          "word": "zu",
          "originalText": "zu",
          "characterOffsetBegin": 39,
          "characterOffsetEnd": 41,
          "pos": "PTKZU",
          "before": " ",
          "after": " "
        },
        {
          "index": 6,
          "word": "verstehen",
          "originalText": "verstehen",
          "characterOffsetBegin": 42,
          "characterOffsetEnd": 51,
          "pos": "VVINF",
          "before": " ",
          "after": ""
        },
        {
          "index": 7,
          "word": ",",
          "originalText": ",",
          "characterOffsetBegin": 51,
          "characterOffsetEnd": 52,
          "pos": "$,",
          "before": "",
          "after": " "
        },
        {
          "index": 8,
          "word": "ob",
          "originalText": "ob",
          "characterOffsetBegin": 53,
          "characterOffsetEnd": 55,
          "pos": "KOUS",
          "before": " ",
          "after": " "
        },
        {
          "index": 9,
          "word": "geheimnisvoller",
          "originalText": "geheimnisvoller",
          "characterOffsetBegin": 56,
          "characterOffsetEnd": 71,
          "pos": "ADJA",
          "before": " ",
          "after": " "
        },
        {
          "index": 10,
          "word": "Meteorit",
          "originalText": "Meteorit",
          "characterOffsetBegin": 72,
          "characterOffsetEnd": 80,
          "pos": "NN",
          "before": " ",
          "after": " "
        },
        {
          "index": 11,
          "word": "aus",
          "originalText": "aus",
          "characterOffsetBegin": 81,
          "characterOffsetEnd": 84,
          "pos": "APPR",
          "before": " ",
          "after": " "
        },
        {
          "index": 12,
          "word": "dem",
          "originalText": "dem",
          "characterOffsetBegin": 85,
          "characterOffsetEnd": 88,
          "pos": "ART",
          "before": " ",
          "after": " "
        },
        {
          "index": 13,
          "word": "Pitbull-Asteroiden",
          "originalText": "Pitbull-Asteroiden",
          "characterOffsetBegin": 89,
          "characterOffsetEnd": 107,
          "pos": "NN",
          "before": " ",
          "after": " "
        },
        {
          "index": 14,
          "word": "fiel",
          "originalText": "fiel",
          "characterOffsetBegin": 108,
          "characterOffsetEnd": 112,
          "pos": "VVFIN",
          "before": " ",
          "after": ""
        }
      ]
    }
  ]
}