{
  "sentences": [
    {
      "index": 0,
      "basicDependencies": [
        {
          "dep": "ROOT",
          "governor": 0,
          "governorGloss": "ROOT",
          "dependent": 1,
          "dependentGloss": "``"
        },
        {
          "dep": "name",
          "governor": 3,
          "governorGloss": "John",
          "dependent": 2,
          "dependentGloss": "Jihadi"
        },
        {
          "dep": "nsubj",
          "governor": 1,
          "governorGloss": "``",
          "dependent": 3,
          "dependentGloss": "John"
        },
        {
          "dep": "punct",
          "governor": 3,
          "governorGloss": "John",
          "dependent": 4,
          "dependentGloss": "``"
        },
        {
          "dep": "punct",
          "governor": 6,
          "governorGloss": "genannt",
          "dependent": 5,
          "dependentGloss": ","
        },
        {
          "dep": "root",
          "governor": 4,
          "governorGloss": "``",
          "dependent": 6,
          "dependentGloss": "genannt"
        },
        {
          "dep": "name",
          "governor": 8,
          "governorGloss": "Emwazi",
          "dependent": 7,
          "dependentGloss": "Mohammed"
        },
        {
          "dep": "appos",
          "governor": 6,
          "governorGloss": "genannt",
          "dependent": 8,
          "dependentGloss": "Emwazi"
        },
        {
          "dep": "case",
          "governor": 10,
          "governorGloss": "London",
          "dependent": 9,
          "dependentGloss": "aus"
        },
        {
          "dep": "nmod",
          "governor": 8,
          "governorGloss": "Emwazi",
          "dependent": 10,
          "dependentGloss": "London"
        }
      ],
      "enhancedDependencies": [
        {
          "dep": "ROOT",
          "governor": 0,
          "governorGloss": "ROOT",
          "dependent": 1,
          "dependentGloss": "``"
        },
        {
          "dep": "name",
          "governor": 3,
          "governorGloss": "John",
          "dependent": 2,
          "dependentGloss": "Jihadi"
        },
        {
          "dep": "nsubj",
          "governor": 1,
          "governorGloss": "``",
          "dependent": 3,
          "dependentGloss": "John"
        },
        {
          "dep": "punct",
          "governor": 3,
          "governorGloss": "John",
          "dependent": 4,
          "dependentGloss": "``"
        },
        {
          "dep": "punct",
          "governor": 6,
          "governorGloss": "genannt",
          "dependent": 5,
          "dependentGloss": ","
        },
        {
          "dep": "root",
          "governor": 4,
          "governorGloss": "``",
          "dependent": 6,
          "dependentGloss": "genannt"
        },
        {
          "dep": "name",
          "governor": 8,
          "governorGloss": "Emwazi",
          "dependent": 7,
          "dependentGloss": "Mohammed"
        },
        {
          "dep": "appos",
          "governor": 6,
          "governorGloss": "genannt",
          "dependent": 8,
          "dependentGloss": "Emwazi"
        },
        {
          "dep": "case",
          "governor": 10,
          "governorGloss": "London",
          "dependent": 9,
          "dependentGloss": "aus"
        },
        {
          "dep": "nmod",
          "governor": 8,
          "governorGloss": "Emwazi",
          "dependent": 10,
          "dependentGloss": "London"
        }
      ],
      "enhancedPlusPlusDependencies": [
        {
          "dep": "ROOT",
          "governor": 0,
          "governorGloss": "ROOT",
          "dependent": 1,
          "dependentGloss": "``"
        },
        {
          "dep": "name",
          "governor": 3,
          "governorGloss": "John",
          "dependent": 2,
          "dependentGloss": "Jihadi"
        },
        {
          "dep": "nsubj",
          "governor": 1,
          "governorGloss": "``",
          "dependent": 3,
          "dependentGloss": "John"
        },
        {
          "dep": "punct",
          "governor": 3,
          "governorGloss": "John",
          "dependent": 4,
          "dependentGloss": "``"
        },
        {
          "dep": "punct",
          "governor": 6,
          "governorGloss": "genannt",
          "dependent": 5,
          "dependentGloss": ","
        },
        {
          "dep": "root",
          "governor": 4,
          "governorGloss": "``",
          "dependent": 6,
          "dependentGloss": "genannt"
        },
        {
          "dep": "name",
          "governor": 8,
          "governorGloss": "Emwazi",
          "dependent": 7,
          "dependentGloss": "Mohammed"
        },
        {
          "dep": "appos",
          "governor": 6,
          "governorGloss": "genannt",
          "dependent": 8,
          "dependentGloss": "Emwazi"
        },
        {
          "dep": "case",
          "governor": 10,
          "governorGloss": "London",
          "dependent": 9,
          "dependentGloss": "aus"
        },
        {
          "dep": "nmod",
          "governor": 8,
          "governorGloss": "Emwazi",
          "dependent": 10,
          "dependentGloss": "London"
        }
      ],
      "tokens": [
        {
          "index": 1,
          "word": "``",
          "originalText": "“",
          "characterOffsetBegin": 0,
          "characterOffsetEnd": 1,
          "pos": "CARD",
          "before": "",
          "after": ""
        },
        {
          "index": 2,
          "word": "Jihadi",
          "originalText": "Jihadi",
          "characterOffsetBegin": 1,
          "characterOffsetEnd": 7,
          "pos": "NN",
          "before": "",
          "after": " "
        },
        {
          "index": 3,
          "word": "John",
          "originalText": "John",
          "characterOffsetBegin": 8,
          "characterOffsetEnd": 12,
          "pos": "NE",
          "before": " ",
          "after": ""
        },
        {
          "index": 4,
          "word": "``",
          "originalText": "“",
          "characterOffsetBegin": 12,
          "characterOffsetEnd": 13,
          "pos": "NE",
          "before": "",
          "after": ""
        },
        {
          "index": 5,
          "word": ",",
          "originalText": ",",
          "characterOffsetBegin": 13,
          "characterOffsetEnd": 14,
          "pos": "$,",
          "before": "",
          "after": " "
        },
        {
          "index": 6,
          "word": "genannt",
          "originalText": "genannt",
          "characterOffsetBegin": 15,
          "characterOffsetEnd": 22,
          "pos": "VVPP",
          "before": " ",
          "after": " "
        },
        {
          "index": 7,
          "word": "Mohammed",
          "originalText": "Mohammed",
          "characterOffsetBegin": 23,
          "characterOffsetEnd": 31,
          "pos": "NE",
          "before": " ",
          "after": " "
        },
        {
          "index": 8,
          "word": "Emwazi",
          "originalText": "Emwazi",
          "characterOffsetBegin": 32,
          "characterOffsetEnd": 38,
          "pos": "NE",
          "before": " ",
          "after": " "
        },
        {
          "index": 9,
          "word": "aus",
          "originalText": "aus",
          "characterOffsetBegin": 39,
          "characterOffsetEnd": 42,
          "pos": "APPR",
          "before": " ",
          "after": " "
        },
        {
          "index": 10,
          "word": "London",
          "originalText": "London",
          "characterOffsetBegin": 43,
          "characterOffsetEnd": 49,
          "pos": "NE",
          "before": " ",
          "after": ""
        }
      ]
    }
  ]
}