{
  "sentences": [
    {
      "index": 0,
      "basicDependencies": [
        {
          "dep": "ROOT",
          "governor": 0,
          "governorGloss": "ROOT",
          "dependent": 2,
          "dependentGloss": "Anspruch"
        },
        {
          "dep": "amod",
          "governor": 2,
          "governorGloss": "Anspruch",
          "dependent": 1,
          "dependentGloss": "Insider"
        },
        {
          "dep": "nsubj",
          "governor": 2,
          "governorGloss": "Anspruch",
          "dependent": 3,
          "dependentGloss": "Stahl"
        },
        {
          "dep": "nummod",
          "governor": 5,
          "governorGloss": "Uhr",
          "dependent": 4,
          "dependentGloss": "Apfel"
        },
        {
          "dep": "nmod",
          "governor": 7,
          "governorGloss": "starten",
          "dependent": 5,
          "dependentGloss": "Uhr"
        },
        {
          "dep": "case",
          "governor": 7,
          "governorGloss": "starten",
          "dependent": 6,
          "dependentGloss": "zu"
        },
        {
          "dep": "nmod",
          "governor": 3,
          "governorGloss": "Stahl",
          "dependent": 7,
          "dependentGloss": "starten"
        },
        {
          "dep": "case",
          "governor": 9,
          "governorGloss": "$",
          "dependent": 8,
          "dependentGloss": "bei"
        },
        {
          "dep": "nmod",
          "governor": 2,
          "governorGloss": "Anspruch",
          "dependent": 9,
          "dependentGloss": "$"
        },
        {
          "dep": "appos",
          "governor": 9,
          "governorGloss": "$",
          "dependent": 10,
          "dependentGloss": "500"
        },
        {
          "dep": "punct",
          "governor": 2,
          "governorGloss": "Anspruch",
          "dependent": 11,
          "dependentGloss": ","
        },
        {
          "dep": "nsubjpass",
          "governor": 15,
          "governorGloss": "4.000",
          "dependent": 12,
          "dependentGloss": "Gold"
        },
        {
          "dep": "case",
          "governor": 14,
          "governorGloss": "$",
          "dependent": 13,
          "dependentGloss": "bei"
        },
        {
          "dep": "nmod",
          "governor": 12,
          "governorGloss": "Gold",
          "dependent": 14,
          "dependentGloss": "$"
        },
        {
          "dep": "conj",
          "governor": 2,
          "governorGloss": "Anspruch",
          "dependent": 15,
          "dependentGloss": "4.000"
        }
      ],
      "enhancedDependencies": [
        {
          "dep": "ROOT",
          "governor": 0,
          "governorGloss": "ROOT",
          "dependent": 2,
          "dependentGloss": "Anspruch"
        },
        {
          "dep": "amod",
          "governor": 2,
          "governorGloss": "Anspruch",
          "dependent": 1,
          "dependentGloss": "Insider"
        },
        {
          "dep": "nsubj",
          "governor": 2,
          "governorGloss": "Anspruch",
          "dependent": 3,
          "dependentGloss": "Stahl"
        },
        {
          "dep": "nummod",
          "governor": 5,
          "governorGloss": "Uhr",
          "dependent": 4,
          "dependentGloss": "Apfel"
        },
        {
          "dep": "nmod",
          "governor": 7,
          "governorGloss": "starten",
          "dependent": 5,
          "dependentGloss": "Uhr"
        },
        {
          "dep": "case",
          "governor": 7,
          "governorGloss": "starten",
          "dependent": 6,
          "dependentGloss": "zu"
        },
        {
          "dep": "nmod",
          "governor": 3,
          "governorGloss": "Stahl",
          "dependent": 7,
          "dependentGloss": "starten"
        },
        {
          "dep": "case",
          "governor": 9,
          "governorGloss": "$",
          "dependent": 8,
          "dependentGloss": "bei"
        },
        {
          "dep": "nmod",
          "governor": 2,
          "governorGloss": "Anspruch",
          "dependent": 9,
          "dependentGloss": "$"
        },
        {
          "dep": "appos",
          "governor": 9,
          "governorGloss": "$",
          "dependent": 10,
          "dependentGloss": "500"
        },
        {
          "dep": "punct",
          "governor": 2,
          "governorGloss": "Anspruch",
          "dependent": 11,
          "dependentGloss": ","
        },
        {
          "dep": "nsubjpass",
          "governor": 15,
          "governorGloss": "4.000",
          "dependent": 12,
          "dependentGloss": "Gold"
        },
        {
          "dep": "case",
          "governor": 14,
          "governorGloss": "$",
          "dependent": 13,
          "dependentGloss": "bei"
        },
        {
          "dep": "nmod",
          "governor": 12,
          "governorGloss": "Gold",
          "dependent": 14,
          "dependentGloss": "$"
        },
        {
          "dep": "conj",
          "governor": 2,
          "governorGloss": "Anspruch",
          "dependent": 15,
          "dependentGloss": "4.000"
        }
      ],
      "enhancedPlusPlusDependencies": [
        {
          "dep": "ROOT",
          "governor": 0,
          "governorGloss": "ROOT",
          "dependent": 2,
          "dependentGloss": "Anspruch"
        },
        {
          "dep": "amod",
          "governor": 2,
          "governorGloss": "Anspruch",
          "dependent": 1,
          "dependentGloss": "Insider"
        },
        {
          "dep": "nsubj",
          "governor": 2,
          "governorGloss": "Anspruch",
          "dependent": 3,
          "dependentGloss": "Stahl"
        },
        {
          "dep": "nummod",
          "governor": 5,
          "governorGloss": "Uhr",
          "dependent": 4,
          "dependentGloss": "Apfel"
        },
        {
          "dep": "nmod",
          "governor": 7,
          "governorGloss": "starten",
          "dependent": 5,
          "dependentGloss": "Uhr"
        },
        {
          "dep": "case",
          "governor": 7,
          "governorGloss": "starten",
          "dependent": 6,
          "dependentGloss": "zu"
        },
        {
          "dep": "nmod",
          "governor": 3,
          "governorGloss": "Stahl",
          "dependent": 7,
          "dependentGloss": "starten"
        },
        {
          "dep": "case",
          "governor": 9,
          "governorGloss": "$",
          "dependent": 8,
          "dependentGloss": "bei"
        },
        {
          "dep": "nmod",
          "governor": 2,
          "governorGloss": "Anspruch",
          "dependent": 9,
          "dependentGloss": "$"
        },
        {
          "dep": "appos",
          "governor": 9,
          "governorGloss": "$",
          "dependent": 10,
          "dependentGloss": "500"
        },
        {
          "dep": "punct",
          "governor": 2,
          "governorGloss": "Anspruch",
          "dependent": 11,
          "dependentGloss": ","
        },
        {
          "dep": "nsubjpass",
          "governor": 15,
          "governorGloss": "4.000",
          "dependent": 12,
          "dependentGloss": "Gold"
        },
        {
          "dep": "case",
          "governor": 14,
          "governorGloss": "$",
          "dependent": 13,
          "dependentGloss": "bei"
        },
        {
          "dep": "nmod",
          "governor": 12,
          "governorGloss": "Gold",
          "dependent": 14,
          "dependentGloss": "$"
        },
        {
          "dep": "conj",
          "governor": 2,
          "governorGloss": "Anspruch",
          "dependent": 15,
          "dependentGloss": "4.000"
        }
      ],
      "tokens": [
        {
          "index": 1,
          "word": "Insider",
          "originalText": "Insider",
          "characterOffsetBegin": 0,
          "characterOffsetEnd": 7,
          "pos": "NN",
          "before": "",
          "after": " "
        },
        {
          "index": 2,
          "word": "Anspruch",
          "originalText": "Anspruch",
          "characterOffsetBegin": 8,
          "characterOffsetEnd": 16,
          "pos": "NN",
          "before": " ",
          "after": " "
        },
        {
          "index": 3,
          "word": "Stahl",
          "originalText": "Stahl",
          "characterOffsetBegin": 17,
          "characterOffsetEnd": 22,
          "pos": "NN",
          "before": " ",
          "after": " "
        },
        {
          "index": 4,
          "word": "Apfel",
          "originalText": "Apfel",
          "characterOffsetBegin": 23,
          "characterOffsetEnd": 28,
          "pos": "NN",
          "before": " ",
          "after": " "
        },
        {
          "index": 5,
          "word": "Uhr",
          "originalText": "Uhr",
          "characterOffsetBegin": 29,
          "characterOffsetEnd": 32,
          "pos": "NN",
          "before": " ",
          "after": " "
        },
        {
          "index": 6,
          "word": "zu",
          "originalText": "zu",
          "characterOffsetBegin": 33,
          "characterOffsetEnd": 35,
          "pos": "PTKZU",
          "before": " ",
          "after": " "
        },
        {
          "index": 7,
          "word": "starten",
          "originalText": "starten",
          "characterOffsetBegin": 36,
          "characterOffsetEnd": 43,
          "pos": "VVINF",
          "before": " ",
          "after": " "
        },
        {
          "index": 8,
          "word": "bei",
          "originalText": "bei",
          "characterOffsetBegin": 44,
          "characterOffsetEnd": 47,
          "pos": "APPR",
          "before": " ",
          "after": " "
        },
        {
          "index": 9,
          "word": "$",
          "originalText": "$",
          "characterOffsetBegin": 48,
          "characterOffsetEnd": 49,
          "pos": "CARD",
          "before": " ",
          "after": " "
        },
        {
          "index": 10,
          "word": "500",
          "originalText": "500",
          "characterOffsetBegin": 50,
          "characterOffsetEnd": 53,
          "pos": "CARD",
          "before": " ",
          "after": ""
        },
        {
          "index": 11,
          "word": ",",
          "originalText": ",",
          "characterOffsetBegin": 53,
          "characterOffsetEnd": 54,
          "pos": "$,",
          "before": "",
          "after": " "
        },
        {
          "index": 12,
          "word": "Gold",
          "originalText": "Gold",
          "characterOffsetBegin": 55,
          "characterOffsetEnd": 59,
          "pos": "NN",
          "before": " ",
          "after": " "
        },
        {
          "index": 13,
          "word": "bei",
          "originalText": "bei",
          "characterOffsetBegin": 60,
          "characterOffsetEnd": 63,
          "pos": "APPR",
          "before": " ",
          "after": " "
        },
        {
          "index": 14,
          "word": "$",
          "originalText": "$",
          "characterOffsetBegin": 64,
          "characterOffsetEnd": 65,
          "pos": "CARD",
          "before": " ",
          "after": " "
        },
        {
          "index": 15,
          "word": "4.000",
          "originalText": "4.000",
          "characterOffsetBegin": 66,
          "characterOffsetEnd": 71,
          "pos": "CARD",
          "before": " ",
          "after": ""
        }
      ]
    }
  ]
}