{
  "sentences": [
    {
      "index": 0,
      "basicDependencies": [
        {
          "dep": "ROOT",
          "governor": 0,
          "governorGloss": "ROOT",
          "dependent": 8,
          "dependentGloss": "zeigt"
        },
        {
          "dep": "name",
          "governor": 2,
          "governorGloss": "Phelps",
          "dependent": 1,
          "dependentGloss": "Michael"
        },
        {
          "dep": "dobj",
          "governor": 8,
          "governorGloss": "zeigt",
          "dependent": 2,
          "dependentGloss": "Phelps"
        },
        {
          "dep": "aux",
          "governor": 8,
          "governorGloss": "zeigt",
          "dependent": 3,
          "dependentGloss": "`"
        },
        {
          "dep": "name",
          "governor": 5,
          "governorGloss": "Taylor",
          "dependent": 4,
          "dependentGloss": "Freundin"
        },
        {
          "dep": "nsubj",
          "governor": 8,
          "governorGloss": "zeigt",
          "dependent": 5,
          "dependentGloss": "Taylor"
        },
        {
          "dep": "name",
          "governor": 7,
          "governorGloss": "Chandler",
          "dependent": 6,
          "dependentGloss": "Lianne"
        },
        {
          "dep": "appos",
          "governor": 5,
          "governorGloss": "Taylor",
          "dependent": 7,
          "dependentGloss": "Chandler"
        },
        {
          "dep": "punct",
          "governor": 8,
          "governorGloss": "zeigt",
          "dependent": 9,
          "dependentGloss": ","
        },
        {
          "dep": "mark",
          "governor": 15,
          "governorGloss": "ist",
          "dependent": 10,
          "dependentGloss": "dass"
        },
        {
          "dep": "nsubj",
          "governor": 15,
          "governorGloss": "ist",
          "dependent": 11,
          "dependentGloss": "sie"
        },
        {
          "dep": "case",
          "governor": 14,
          "governorGloss": "aufgewachsen",
          "dependent": 12,
          "dependentGloss": "als"
        },
        {
          "dep": "amod",
          "governor": 14,
          "governorGloss": "aufgewachsen",
          "dependent": 13,
          "dependentGloss": "Junge"
        },
        {
          "dep": "nmod",
          "governor": 15,
          "governorGloss": "ist",
          "dependent": 14,
          "dependentGloss": "aufgewachsen"
        },
        {
          "dep": "ccomp",
          "governor": 8,
          "governorGloss": "zeigt",
          "dependent": 15,
          "dependentGloss": "ist"
        }
      ],
      "enhancedDependencies": [
        {
          "dep": "ROOT",
          "governor": 0,
          "governorGloss": "ROOT",
          "dependent": 8,
          "dependentGloss": "zeigt"
        },
        {
          "dep": "name",
          "governor": 2,
          "governorGloss": "Phelps",
          "dependent": 1,
          "dependentGloss": "Michael"
        },
        {
          "dep": "dobj",
          "governor": 8,
          "governorGloss": "zeigt",
          "dependent": 2,
          "dependentGloss": "Phelps"
        },
        {
          "dep": "aux",
          "governor": 8,
          "governorGloss": "zeigt",
          "dependent": 3,
          "dependentGloss": "`"
        },
        {
          "dep": "name",
          "governor": 5,
          "governorGloss": "Taylor",
          "dependent": 4,
          "dependentGloss": "Freundin"
        },
        {
          "dep": "nsubj",
          "governor": 8,
          "governorGloss": "zeigt",
          "dependent": 5,
          "dependentGloss": "Taylor"
        },
        {
          "dep": "name",
          "governor": 7,
          "governorGloss": "Chandler",
          "dependent": 6,
          "dependentGloss": "Lianne"
        },
        {
          "dep": "appos",
          "governor": 5,
          "governorGloss": "Taylor",
          "dependent": 7,
          "dependentGloss": "Chandler"
        },
        {
          "dep": "punct",
          "governor": 8,
          "governorGloss": "zeigt",
          "dependent": 9,
          "dependentGloss": ","
        },
        {
          "dep": "mark",
          "governor": 15,
          "governorGloss": "ist",
          "dependent": 10,
          "dependentGloss": "dass"
        },
        {
          "dep": "nsubj",
          "governor": 15,
          "governorGloss": "ist",
          "dependent": 11,
          "dependentGloss": "sie"
        },
        {
          "dep": "case",
          "governor": 14,
          "governorGloss": "aufgewachsen",
          "dependent": 12,
          "dependentGloss": "als"
        },
        {
          "dep": "amod",
          "governor": 14,
          "governorGloss": "aufgewachsen",
          "dependent": 13,
          "dependentGloss": "Junge"
        },
        {
          "dep": "nmod",
          "governor": 15,
          "governorGloss": "ist",
          "dependent": 14,
          "dependentGloss": "aufgewachsen"
        },
        {
          "dep": "ccomp",
          "governor": 8,
          "governorGloss": "zeigt",
          "dependent": 15,
          "dependentGloss": "ist"
        }
      ],
      "enhancedPlusPlusDependencies": [
        {
          "dep": "ROOT",
          "governor": 0,
          "governorGloss": "ROOT",
          "dependent": 8,
          "dependentGloss": "zeigt"
        },
        {
          "dep": "name",
          "governor": 2,
          "governorGloss": "Phelps",
          "dependent": 1,
          "dependentGloss": "Michael"
        },
        {
          "dep": "dobj",
          "governor": 8,
          "governorGloss": "zeigt",
          "dependent": 2,
          "dependentGloss": "Phelps"
        },
        {
          "dep": "aux",
          "governor": 8,
          "governorGloss": "zeigt",
          "dependent": 3,
          "dependentGloss": "`"
        },
        {
          "dep": "name",
          "governor": 5,
          "governorGloss": "Taylor",
          "dependent": 4,
          "dependentGloss": "Freundin"
        },
        {
          "dep": "nsubj",
          "governor": 8,
          "governorGloss": "zeigt",
          "dependent": 5,
          "dependentGloss": "Taylor"
        },
        {
          "dep": "name",
          "governor": 7,
          "governorGloss": "Chandler",
          "dependent": 6,
          "dependentGloss": "Lianne"
        },
        {
          "dep": "appos",
          "governor": 5,
          "governorGloss": "Taylor",
          "dependent": 7,
          "dependentGloss": "Chandler"
        },
        {
          "dep": "punct",
          "governor": 8,
          "governorGloss": "zeigt",
          "dependent": 9,
          "dependentGloss": ","
        },
        {
          "dep": "mark",
          "governor": 15,
          "governorGloss": "ist",
          "dependent": 10,
          "dependentGloss": "dass"
        },
        {
          "dep": "nsubj",
          "governor": 15,
          "governorGloss": "ist",
          "dependent": 11,
          "dependentGloss": "sie"
        },
        {
          "dep": "case",
          "governor": 14,
          "governorGloss": "aufgewachsen",
          "dependent": 12,
          "dependentGloss": "als"
        },
        {
          "dep": "amod",
          "governor": 14,
          "governorGloss": "aufgewachsen",
          "dependent": 13,
          "dependentGloss": "Junge"
        },
        {
          "dep": "nmod",
          "governor": 15,
          "governorGloss": "ist",
          "dependent": 14,
          "dependentGloss": "aufgewachsen"
        },
        {
          "dep": "ccomp",
          "governor": 8,
          "governorGloss": "zeigt",
          "dependent": 15,
          "dependentGloss": "ist"
        }
      ],
      "tokens": [
        {
          "index": 1,
          "word": "Michael",
          "originalText": "Michael",
          "characterOffsetBegin": 0,
          "characterOffsetEnd": 7,
          "pos": "NE",
          "before": "",
          "after": " "
        },
        {
          "index": 2,
          "word": "Phelps",
          "originalText": "Phelps",
          "characterOffsetBegin": 8,
          "characterOffsetEnd": 14,
          "pos": "NE",
          "before": " ",
          "after": " "
        },
        {
          "index": 3,
          "word": "`",
          "originalText": "'",
          "characterOffsetBegin": 15,
          "characterOffsetEnd": 16,
          "pos": "CARD",
          "before": " ",
          "after": ""
        },
        {
          "index": 4,
          "word": "Freundin",
          "originalText": "Freundin",
          "characterOffsetBegin": 16,
          "characterOffsetEnd": 24,
          "pos": "NN",
          "before": "",
          "after": " "
        },
        {
          "index": 5,
          "word": "Taylor",
          "originalText": "Taylor",
          "characterOffsetBegin": 25,
          "characterOffsetEnd": 31,
          "pos": "NE",
          "before": " ",
          "after": " "
        },
        {
          "index": 6,
          "word": "Lianne",
          "originalText": "Lianne",
          "characterOffsetBegin": 32,
          "characterOffsetEnd": 38,
          "pos": "NE",
          "before": " ",
          "after": " "
        },
        {
          "index": 7,
          "word": "Chandler",
          "originalText": "Chandler",
          "characterOffsetBegin": 39,
          "characterOffsetEnd": 47,
          "pos": "NE",
          "before": " ",
          "after": " "
        },
        {
          "index": 8,
          "word": "zeigt",
          "originalText": "zeigt",
          "characterOffsetBegin": 48,
          "characterOffsetEnd": 53,
          "pos": "VVFIN",
          "before": " ",
          "after": ""
        },
        {
          "index": 9,
          "word": ",",
          "originalText": ",",
          "characterOffsetBegin": 53,
          "characterOffsetEnd": 54,
          "pos": "$,",
          "before": "",
          "after": " "
        },
        {
          "index": 10,
          "word": "dass",
          "originalText": "dass",
          "characterOffsetBegin": 55,
          "characterOffsetEnd": 59,
          "pos": "KOUS",
          "before": " ",
          "after": " "
        },
        {
          "index": 11,
          "word": "sie",
          "originalText": "sie",
          "characterOffsetBegin": 60,
          "characterOffsetEnd": 63,
          "pos": "PPER",
          "before": " ",
          "after": " "
        },
        {
          "index": 12,
          "word": "als",
          "originalText": "als",
          "characterOffsetBegin": 64,
          "characterOffsetEnd": 67,
          "pos": "APPR",
          "before": " ",
          "after": " "
        },
        {
          "index": 13,
          "word": "Junge",
          "originalText": "Junge",
          "characterOffsetBegin": 68,
          "characterOffsetEnd": 73,
          "pos": "ADJA",
          "before": " ",
          "after": " "
        },
        {
          "index": 14,
          "word": "aufgewachsen",
          "originalText": "aufgewachsen",
          "characterOffsetBegin": 74,
          "characterOffsetEnd": 86,
          "pos": "VVPP",
          "before": " ",
          "after": " "
        },
        {
          "index": 15,
          "word": "ist",
          "originalText": "ist",
          "characterOffsetBegin": 87,
          "characterOffsetEnd": 90,
          "pos": "VAFIN",
          "before": " ",
          "after": ""
        }
      ]
    }
  ]
}