{
  "sentences": [
    {
      "index": 0,
      "basicDependencies": [
        {
          "dep": "ROOT",
          "governor": 0,
          "governorGloss": "ROOT",
          "dependent": 4,
          "dependentGloss": "zeigt"
        },
        {
          "dep": "amod",
          "governor": 3,
          "governorGloss": "Video",
          "dependent": 1,
          "dependentGloss": "Neue"
        },
        {
          "dep": "amod",
          "governor": 3,
          "governorGloss": "Video",
          "dependent": 2,
          "dependentGloss": "ISIS"
        },
        {
          "dep": "nsubj",
          "governor": 4,
          "governorGloss": "zeigt",
          "dependent": 3,
          "dependentGloss": "Video"
        },
        {
          "dep": "dobj",
          "governor": 4,
          "governorGloss": "zeigt",
          "dependent": 5,
          "dependentGloss": "Militanten"
        },
        {
          "dep": "punct",
          "governor": 5,
          "governorGloss": "Militanten",
          "dependent": 6,
          "dependentGloss": ","
        },
        {
          "dep": "det",
          "governor": 8,
          "governorGloss": "Waffen",
          "dependent": 7,
          "dependentGloss": "die"
        },
        {
          "dep": "appos",
          "governor": 5,
          "governorGloss": "Militanten",
          "dependent": 8,
          "dependentGloss": "Waffen"
        },
        {
          "dep": "appos",
          "governor": 8,
          "governorGloss": "Waffen",
          "dependent": 9,
          "dependentGloss": "ausfechten"
        },
        {
          "dep": "punct",
          "governor": 8,
          "governorGloss": "Waffen",
          "dependent": 10,
          "dependentGloss": ","
        },
        {
          "dep": "conj",
          "governor": 8,
          "governorGloss": "Waffen",
          "dependent": 11,
          "dependentGloss": "die"
        },
        {
          "dep": "case",
          "governor": 13,
          "governorGloss": "US",
          "dependent": 12,
          "dependentGloss": "von"
        },
        {
          "dep": "nmod",
          "governor": 11,
          "governorGloss": "die",
          "dependent": 13,
          "dependentGloss": "US"
        },
        {
          "dep": "case",
          "governor": 16,
          "governorGloss": "Nähe",
          "dependent": 14,
          "dependentGloss": "in"
        },
        {
          "dep": "det",
          "governor": 16,
          "governorGloss": "Nähe",
          "dependent": 15,
          "dependentGloss": "der"
        },
        {
          "dep": "nmod",
          "governor": 13,
          "governorGloss": "US",
          "dependent": 16,
          "dependentGloss": "Nähe"
        },
        {
          "dep": "case",
          "governor": 18,
          "governorGloss": "Kobani",
          "dependent": 17,
          "dependentGloss": "von"
        },
        {
          "dep": "nmod",
          "governor": 16,
          "governorGloss": "Nähe",
          "dependent": 18,
          "dependentGloss": "Kobani"
        }
      ],
      "enhancedDependencies": [
        {
          "dep": "ROOT",
          "governor": 0,
          "governorGloss": "ROOT",
          "dependent": 4,
          "dependentGloss": "zeigt"
        },
        {
          "dep": "amod",
          "governor": 3,
          "governorGloss": "Video",
          "dependent": 1,
          "dependentGloss": "Neue"
        },
        {
          "dep": "amod",
          "governor": 3,
          "governorGloss": "Video",
          "dependent": 2,
          "dependentGloss": "ISIS"
        },
        {
          "dep": "nsubj",
          "governor": 4,
          "governorGloss": "zeigt",
          "dependent": 3,
          "dependentGloss": "Video"
        },
        {
          "dep": "dobj",
          "governor": 4,
          "governorGloss": "zeigt",
          "dependent": 5,
          "dependentGloss": "Militanten"
        },
        {
          "dep": "punct",
          "governor": 5,
          "governorGloss": "Militanten",
          "dependent": 6,
          "dependentGloss": ","
        },
        {
          "dep": "det",
          "governor": 8,
          "governorGloss": "Waffen",
          "dependent": 7,
          "dependentGloss": "die"
        },
        {
          "dep": "appos",
          "governor": 5,
          "governorGloss": "Militanten",
          "dependent": 8,
          "dependentGloss": "Waffen"
        },
        {
          "dep": "appos",
          "governor": 8,
          "governorGloss": "Waffen",
          "dependent": 9,
          "dependentGloss": "ausfechten"
        },
        {
          "dep": "punct",
          "governor": 8,
          "governorGloss": "Waffen",
          "dependent": 10,
          "dependentGloss": ","
        },
        {
          "dep": "conj",
          "governor": 8,
          "governorGloss": "Waffen",
          "dependent": 11,
          "dependentGloss": "die"
        },
        {
          "dep": "case",
          "governor": 13,
          "governorGloss": "US",
          "dependent": 12,
          "dependentGloss": "von"
        },
        {
          "dep": "nmod",
          "governor": 11,
          "governorGloss": "die",
          "dependent": 13,
          "dependentGloss": "US"
        },
        {
          "dep": "case",
          "governor": 16,
          "governorGloss": "Nähe",
          "dependent": 14,
          "dependentGloss": "in"
        },
        {
          "dep": "det",
          "governor": 16,
          "governorGloss": "Nähe",
          "dependent": 15,
          "dependentGloss": "der"
        },
        {
          "dep": "nmod",
          "governor": 13,
          "governorGloss": "US",
          "dependent": 16,
          "dependentGloss": "Nähe"
        },
        {
          "dep": "case",
          "governor": 18,
          "governorGloss": "Kobani",
          "dependent": 17,
          "dependentGloss": "von"
        },
        {
          "dep": "nmod",
          "governor": 16,
          "governorGloss": "Nähe",
          "dependent": 18,
          "dependentGloss": "Kobani"
        }
      ],
      "enhancedPlusPlusDependencies": [
        {
          "dep": "ROOT",
          "governor": 0,
          "governorGloss": "ROOT",
          "dependent": 4,
          "dependentGloss": "zeigt"
        },
        {
          "dep": "amod",
          "governor": 3,
          "governorGloss": "Video",
          "dependent": 1,
          "dependentGloss": "Neue"
        },
        {
          "dep": "amod",
          "governor": 3,
          "governorGloss": "Video",
          "dependent": 2,
          "dependentGloss": "ISIS"
        },
        {
          "dep": "nsubj",
          "governor": 4,
          "governorGloss": "zeigt",
          "dependent": 3,
          "dependentGloss": "Video"
        },
        {
          "dep": "dobj",
          "governor": 4,
          "governorGloss": "zeigt",
          "dependent": 5,
          "dependentGloss": "Militanten"
        },
        {
          "dep": "punct",
          "governor": 5,
          "governorGloss": "Militanten",
          "dependent": 6,
          "dependentGloss": ","
        },
        {
          "dep": "det",
          "governor": 8,
          "governorGloss": "Waffen",
          "dependent": 7,
          "dependentGloss": "die"
        },
        {
          "dep": "appos",
          "governor": 5,
          "governorGloss": "Militanten",
          "dependent": 8,
          "dependentGloss": "Waffen"
        },
        {
          "dep": "appos",
          "governor": 8,
          "governorGloss": "Waffen",
          "dependent": 9,
          "dependentGloss": "ausfechten"
        },
        {
          "dep": "punct",
          "governor": 8,
          "governorGloss": "Waffen",
          "dependent": 10,
          "dependentGloss": ","
        },
        {
          "dep": "conj",
          "governor": 8,
          "governorGloss": "Waffen",
          "dependent": 11,
          "dependentGloss": "die"
        },
        {
          "dep": "case",
          "governor": 13,
          "governorGloss": "US",
          "dependent": 12,
          "dependentGloss": "von"
        },
        {
          "dep": "nmod",
          "governor": 11,
          "governorGloss": "die",
          "dependent": 13,
          "dependentGloss": "US"
        },
        {
          "dep": "case",
          "governor": 16,
          "governorGloss": "Nähe",
          "dependent": 14,
          "dependentGloss": "in"
        },
        {
          "dep": "det",
          "governor": 16,
          "governorGloss": "Nähe",
          "dependent": 15,
          "dependentGloss": "der"
        },
        {
          "dep": "nmod",
          "governor": 13,
          "governorGloss": "US",
          "dependent": 16,
          "dependentGloss": "Nähe"
        },
        {
          "dep": "case",
          "governor": 18,
          "governorGloss": "Kobani",
          "dependent": 17,
          "dependentGloss": "von"
        },
        {
          "dep": "nmod",
          "governor": 16,
          "governorGloss": "Nähe",
          "dependent": 18,
          "dependentGloss": "Kobani"
        }
      ],
      "tokens": [
        {
          "index": 1,
          "word": "Neue",
          "originalText": "Neue",
          "characterOffsetBegin": 0,
          "characterOffsetEnd": 4,
          "pos": "ADJA",
          "before": "",
          "after": " "
        },
        {
          "index": 2,
          "word": "ISIS",
          "originalText": "ISIS",
          "characterOffsetBegin": 5,
          "characterOffsetEnd": 9,
          "pos": "NE",
          "before": " ",
          "after": " "
        },
        {
          "index": 3,
          "word": "Video",
          "originalText": "Video",
          "characterOffsetBegin": 10,
          "characterOffsetEnd": 15,
          "pos": "NN",
          "before": " ",
          "after": " "
        },
        {
          "index": 4,
          "word": "zeigt",
          "originalText": "zeigt",
          "characterOffsetBegin": 16,
          "characterOffsetEnd": 21,
          "pos": "VVFIN",
          "before": " ",
          "after": " "
        },
        {
          "index": 5,
          "word": "Militanten",
          "originalText": "Militanten",
          "characterOffsetBegin": 22,
          "characterOffsetEnd": 32,
          "pos": "NN",
          "before": " ",
          "after": ""
        },
        {
          "index": 6,
          "word": ",",
          "originalText": ",",
          "characterOffsetBegin": 32,
          "characterOffsetEnd": 33,
          "pos": "$,",
          "before": "",
          "after": " "
        },
        {
          "index": 7,
          "word": "die",
          "originalText": "die",
          "characterOffsetBegin": 34,
          "characterOffsetEnd": 37,
          "pos": "ART",
          "before": " ",
          "after": " "
        },
        {
          "index": 8,
          "word": "Waffen",
          "originalText": "Waffen",
          "characterOffsetBegin": 38,
          "characterOffsetEnd": 44,
          "pos": "NN",
          "before": " ",
          "after": " "
        },
        {
          "index": 9,
          "word": "ausfechten",
          "originalText": "ausfechten",
          "characterOffsetBegin": 45,
          "characterOffsetEnd": 55,
          "pos": "VVFIN",
          "before": " ",
          "after": ""
        },
        {
          "index": 10,
          "word": ",",
          "originalText": ",",
          "characterOffsetBegin": 55,
          "characterOffsetEnd": 56,
          "pos": "$,",
          "before": "",
          "after": " "
        },
        {
          "index": 11,
          "word": "die",
          "originalText": "die",
          "characterOffsetBegin": 57,
          "characterOffsetEnd": 60,
          "pos": "PRELS",
          "before": " ",
          "after": " "
        },
        {
          "index": 12,
          "word": "von",
          "originalText": "von",
          "characterOffsetBegin": 61,
          "characterOffsetEnd": 64,
          "pos": "APPR",
          "before": " ",
          "after": " "
        },
        {
          "index": 13,
          "word": "US",
          "originalText": "US",
          "characterOffsetBegin": 65,
          "characterOffsetEnd": 67,
          "pos": "NN",
          "before": " ",
          "after": " "
        },
        {
          "index": 14,
          "word": "in",
          "originalText": "in",
          "characterOffsetBegin": 68,
          "characterOffsetEnd": 70,
          "pos": "APPR",
          "before": " ",
          "after": " "
        },
        {
          "index": 15,
          "word": "der",
          "originalText": "der",
          "characterOffsetBegin": 71,
          "characterOffsetEnd": 74,
          "pos": "ART",
          "before": " ",
          "after": " "
        },
        {
          "index": 16,
          "word": "Nähe",
          "originalText": "Nähe",
          "characterOffsetBegin": 75,
          "characterOffsetEnd": 79,
          "pos": "NN",
          "before": " ",
          "after": " "
        },
        {
          "index": 17,
          "word": "von",
          "originalText": "von",
          "characterOffsetBegin": 80,
          "characterOffsetEnd": 83,
          "pos": "APPR",
          "before": " ",
          "after": " "
        },
        {
          "index": 18,
          "word": "Kobani",
          "originalText": "Kobani",
          "characterOffsetBegin": 84,
          "characterOffsetEnd": 90,
          "pos": "NE",
          "before": " ",
          "after": ""
        }
      ]
    }
  ]
}