{
  "sentences": [
    {
      "index": 0,
      "basicDependencies": [
        {
          "dep": "ROOT",
          "governor": 0,
          "governorGloss": "ROOT",
          "dependent": 11,
          "dependentGloss": "kosten"
        },
        {
          "dep": "det",
          "governor": 4,
          "governorGloss": "Edition",
          "dependent": 1,
          "dependentGloss": "Gold"
        },
        {
          "dep": "name",
          "governor": 4,
          "governorGloss": "Edition",
          "dependent": 2,
          "dependentGloss": "Apple"
        },
        {
          "dep": "name",
          "governor": 4,
          "governorGloss": "Edition",
          "dependent": 3,
          "dependentGloss": "Watch"
        },
        {
          "dep": "nsubj",
          "governor": 11,
          "governorGloss": "kosten",
          "dependent": 4,
          "dependentGloss": "Edition"
        },
        {
          "dep": "aux",
          "governor": 11,
          "governorGloss": "kosten",
          "dependent": 5,
          "dependentGloss": "könnte"
        },
        {
          "dep": "advmod",
          "governor": 7,
          "governorGloss": "viel",
          "dependent": 6,
          "dependentGloss": "so"
        },
        {
          "dep": "dobj",
          "governor": 11,
          "governorGloss": "kosten",
          "dependent": 7,
          "dependentGloss": "viel"
        },
        {
          "dep": "case",
          "governor": 10,
          "governorGloss": "1.200",
          "dependent": 8,
          "dependentGloss": "wie"
        },
        {
          "dep": "name",
          "governor": 10,
          "governorGloss": "1.200",
          "dependent": 9,
          "dependentGloss": "$"
        },
        {
          "dep": "nmod",
          "governor": 7,
          "governorGloss": "viel",
          "dependent": 10,
          "dependentGloss": "1.200"
        }
      ],
      "enhancedDependencies": [
        {
          "dep": "ROOT",
          "governor": 0,
          "governorGloss": "ROOT",
          "dependent": 11,
          "dependentGloss": "kosten"
        },
        {
          "dep": "det",
          "governor": 4,
          "governorGloss": "Edition",
          "dependent": 1,
          "dependentGloss": "Gold"
        },
        {
          "dep": "name",
          "governor": 4,
          "governorGloss": "Edition",
          "dependent": 2,
          "dependentGloss": "Apple"
        },
        {
          "dep": "name",
          "governor": 4,
          "governorGloss": "Edition",
          "dependent": 3,
          "dependentGloss": "Watch"
        },
        {
          "dep": "nsubj",
          "governor": 11,
          "governorGloss": "kosten",
          "dependent": 4,
          "dependentGloss": "Edition"
        },
        {
          "dep": "aux",
          "governor": 11,
          "governorGloss": "kosten",
          "dependent": 5,
          "dependentGloss": "könnte"
        },
        {
          "dep": "advmod",
          "governor": 7,
          "governorGloss": "viel",
          "dependent": 6,
          "dependentGloss": "so"
        },
        {
          "dep": "dobj",
          "governor": 11,
          "governorGloss": "kosten",
          "dependent": 7,
          "dependentGloss": "viel"
        },
        {
          "dep": "case",
          "governor": 10,
          "governorGloss": "1.200",
          "dependent": 8,
          "dependentGloss": "wie"
        },
        {
          "dep": "name",
          "governor": 10,
          "governorGloss": "1.200",
          "dependent": 9,
          "dependentGloss": "$"
        },
        {
          "dep": "nmod",
          "governor": 7,
          "governorGloss": "viel",
          "dependent": 10,
          "dependentGloss": "1.200"
        }
      ],
      "enhancedPlusPlusDependencies": [
        {
          "dep": "ROOT",
          "governor": 0,
          "governorGloss": "ROOT",
          "dependent": 11,
          "dependentGloss": "kosten"
        },
        {
          "dep": "det",
          "governor": 4,
          "governorGloss": "Edition",
          "dependent": 1,
          "dependentGloss": "Gold"
        },
        {
          "dep": "name",
          "governor": 4,
          "governorGloss": "Edition",
          "dependent": 2,
          "dependentGloss": "Apple"
        },
        {
          "dep": "name",
          "governor": 4,
          "governorGloss": "Edition",
          "dependent": 3,
          "dependentGloss": "Watch"
        },
        {
          "dep": "nsubj",
          "governor": 11,
          "governorGloss": "kosten",
          "dependent": 4,
          "dependentGloss": "Edition"
        },
        {
          "dep": "aux",
          "governor": 11,
          "governorGloss": "kosten",
          "dependent": 5,
          "dependentGloss": "könnte"
        },
        {
          "dep": "advmod",
          "governor": 7,
          "governorGloss": "viel",
          "dependent": 6,
          "dependentGloss": "so"
        },
        {
          "dep": "dobj",
          "governor": 11,
          "governorGloss": "kosten",
          "dependent": 7,
          "dependentGloss": "viel"
        },
        {
          "dep": "case",
          "governor": 10,
          "governorGloss": "1.200",
          "dependent": 8,
          "dependentGloss": "wie"
        },
        {
          "dep": "name",
          "governor": 10,
          "governorGloss": "1.200",
          "dependent": 9,
          "dependentGloss": "$"
        },
        {
          "dep": "nmod",
          "governor": 7,
          "governorGloss": "viel",
          "dependent": 10,
          "dependentGloss": "1.200"
        }
      ],
      "tokens": [
        {
          "index": 1,
          "word": "Gold",
          "originalText": "Gold",
          "characterOffsetBegin": 0,
          "characterOffsetEnd": 4,
          "pos": "NN",
          "before": "",
          "after": " "
        },
        {
          "index": 2,
          "word": "Apple",
          "originalText": "Apple",
          "characterOffsetBegin": 5,
          "characterOffsetEnd": 10,
          "pos": "NE",
          "before": " ",
          "after": " "
        },
        {
          "index": 3,
          "word": "Watch",
          "originalText": "Watch",
          "characterOffsetBegin": 11,
          "characterOffsetEnd": 16,
          "pos": "NE",
          "before": " ",
          "after": " "
        },
        {
          "index": 4,
          "word": "Edition",
          "originalText": "Edition",
          "characterOffsetBegin": 17,
          "characterOffsetEnd": 24,
          "pos": "NN",
          "before": " ",
          "after": " "
        },
        {
          "index": 5,
          "word": "könnte",
          "originalText": "könnte",
          "characterOffsetBegin": 25,
          "characterOffsetEnd": 31,
          "pos": "VMFIN",
          "before": " ",
          "after": " "
        },
        {
          "index": 6,
          "word": "so",
          "originalText": "so",
          "characterOffsetBegin": 32,
          "characterOffsetEnd": 34,
          "pos": "ADV",
          "before": " ",
          "after": " "
        },
        {
          "index": 7,
          "word": "viel",
          "originalText": "viel",
          "characterOffsetBegin": 35,
          "characterOffsetEnd": 39,
          "pos": "PIS",
          "before": " ",
          "after": " "
        },
        {
          "index": 8,
          "word": "wie",
          "originalText": "wie",
          "characterOffsetBegin": 40,
          "characterOffsetEnd": 43,
          "pos": "KOKOM",
          "before": " ",
          "after": " "
        },
        {
          "index": 9,
          "word": "$",
          "originalText": "$",
          "characterOffsetBegin": 44,
          "characterOffsetEnd": 45,
          "pos": "CARD",
          "before": " ",
          "after": " "
        },
        {
          "index": 10,
          "word": "1.200",
          "originalText": "1.200",
          "characterOffsetBegin": 46,
          "characterOffsetEnd": 51,
          "pos": "CARD",
          "before": " ",
          "after": " "
        },
        {
          "index": 11,
          "word": "kosten",
          "originalText": "kosten",
          "characterOffsetBegin": 52,
          "characterOffsetEnd": 58,
          "pos": "VVINF",
          "before": " ",
          "after": ""
        }
      ]
    }
  ]
}