{
  "sentences": [
    {
      "index": 0,
      "basicDependencies": [
        {
          "dep": "ROOT",
          "governor": 0,
          "governorGloss": "ROOT",
          "dependent": 2,
          "dependentGloss": "schlendert"
        },
        {
          "dep": "nsubj",
          "governor": 2,
          "governorGloss": "schlendert",
          "dependent": 1,
          "dependentGloss": "Bigfoot"
        },
        {
          "dep": "case",
          "governor": 8,
          "governorGloss": "zumindest",
          "dependent": 3,
          "dependentGloss": "durch"
        },
        {
          "dep": "det",
          "governor": 8,
          "governorGloss": "zumindest",
          "dependent": 4,
          "dependentGloss": "einen"
        },
        {
          "dep": "amod",
          "governor": 8,
          "governorGloss": "zumindest",
          "dependent": 5,
          "dependentGloss": "russischen"
        },
        {
          "dep": "name",
          "governor": 8,
          "governorGloss": "zumindest",
          "dependent": 6,
          "dependentGloss": "Wald"
        },
        {
          "dep": "punct",
          "governor": 8,
          "governorGloss": "zumindest",
          "dependent": 7,
          "dependentGloss": "-"
        },
        {
          "dep": "nmod",
          "governor": 2,
          "governorGloss": "schlendert",
          "dependent": 8,
          "dependentGloss": "zumindest"
        },
        {
          "dep": "nsubj",
          "governor": 12,
          "governorGloss": "Anspruch",
          "dependent": 9,
          "dependentGloss": "das"
        },
        {
          "dep": "cop",
          "governor": 12,
          "governorGloss": "Anspruch",
          "dependent": 10,
          "dependentGloss": "ist"
        },
        {
          "dep": "det",
          "governor": 12,
          "governorGloss": "Anspruch",
          "dependent": 11,
          "dependentGloss": "der"
        },
        {
          "dep": "parataxis",
          "governor": 8,
          "governorGloss": "zumindest",
          "dependent": 12,
          "dependentGloss": "Anspruch"
        },
        {
          "dep": "amod",
          "governor": 14,
          "governorGloss": "VIDEO",
          "dependent": 13,
          "dependentGloss": "-LSB-"
        },
        {
          "dep": "det",
          "governor": 12,
          "governorGloss": "Anspruch",
          "dependent": 14,
          "dependentGloss": "VIDEO"
        },
        {
          "dep": "appos",
          "governor": 12,
          "governorGloss": "Anspruch",
          "dependent": 15,
          "dependentGloss": "-RSB-"
        }
      ],
      "enhancedDependencies": [
        {
          "dep": "ROOT",
          "governor": 0,
          "governorGloss": "ROOT",
          "dependent": 2,
          "dependentGloss": "schlendert"
        },
        {
          "dep": "nsubj",
          "governor": 2,
          "governorGloss": "schlendert",
          "dependent": 1,
          "dependentGloss": "Bigfoot"
        },
        {
          "dep": "case",
          "governor": 8,
          "governorGloss": "zumindest",
          "dependent": 3,
          "dependentGloss": "durch"
        },
        {
          "dep": "det",
          "governor": 8,
          "governorGloss": "zumindest",
          "dependent": 4,
          "dependentGloss": "einen"
        },
        {
          "dep": "amod",
          "governor": 8,
          "governorGloss": "zumindest",
          "dependent": 5,
          "dependentGloss": "russischen"
        },
        {
          "dep": "name",
          "governor": 8,
          "governorGloss": "zumindest",
          "dependent": 6,
          "dependentGloss": "Wald"
        },
        {
          "dep": "punct",
          "governor": 8,
          "governorGloss": "zumindest",
          "dependent": 7,
          "dependentGloss": "-"
        },
        {
          "dep": "nmod",
          "governor": 2,
          "governorGloss": "schlendert",
          "dependent": 8,
          "dependentGloss": "zumindest"
        },
        {
          "dep": "nsubj",
          "governor": 12,
          "governorGloss": "Anspruch",
          "dependent": 9,
          "dependentGloss": "das"
        },
        {
          "dep": "cop",
          "governor": 12,
          "governorGloss": "Anspruch",
          "dependent": 10,
          "dependentGloss": "ist"
        },
        {
          "dep": "det",
          "governor": 12,
          "governorGloss": "Anspruch",
          "dependent": 11,
          "dependentGloss": "der"
        },
        {
          "dep": "parataxis",
          "governor": 8,
          "governorGloss": "zumindest",
          "dependent": 12,
          "dependentGloss": "Anspruch"
        },
        {
          "dep": "amod",
          "governor": 14,
          "governorGloss": "VIDEO",
          "dependent": 13,
          "dependentGloss": "-LSB-"
        },
        {
          "dep": "det",
          "governor": 12,
          "governorGloss": "Anspruch",
          "dependent": 14,
          "dependentGloss": "VIDEO"
        },
        {
          "dep": "appos",
          "governor": 12,
          "governorGloss": "Anspruch",
          "dependent": 15,
          "dependentGloss": "-RSB-"
        }
      ],
      "enhancedPlusPlusDependencies": [
        {
          "dep": "ROOT",
          "governor": 0,
          "governorGloss": "ROOT",
          "dependent": 2,
          "dependentGloss": "schlendert"
        },
        {
          "dep": "nsubj",
          "governor": 2,
          "governorGloss": "schlendert",
          "dependent": 1,
          "dependentGloss": "Bigfoot"
        },
        {
          "dep": "case",
          "governor": 8,
          "governorGloss": "zumindest",
          "dependent": 3,
          "dependentGloss": "durch"
        },
        {
          "dep": "det",
          "governor": 8,
          "governorGloss": "zumindest",
          "dependent": 4,
          "dependentGloss": "einen"
        },
        {
          "dep": "amod",
          "governor": 8,
          "governorGloss": "zumindest",
          "dependent": 5,
          "dependentGloss": "russischen"
        },
        {
          "dep": "name",
          "governor": 8,
          "governorGloss": "zumindest",
          "dependent": 6,
          "dependentGloss": "Wald"
        },
        {
          "dep": "punct",
          "governor": 8,
          "governorGloss": "zumindest",
          "dependent": 7,
          "dependentGloss": "-"
        },
        {
          "dep": "nmod",
          "governor": 2,
          "governorGloss": "schlendert",
          "dependent": 8,
          "dependentGloss": "zumindest"
        },
        {
          "dep": "nsubj",
          "governor": 12,
          "governorGloss": "Anspruch",
          "dependent": 9,
          "dependentGloss": "das"
        },
        {
          "dep": "cop",
          "governor": 12,
          "governorGloss": "Anspruch",
          "dependent": 10,
          "dependentGloss": "ist"
        },
        {
          "dep": "det",
          "governor": 12,
          "governorGloss": "Anspruch",
          "dependent": 11,
          "dependentGloss": "der"
        },
        {
          "dep": "parataxis",
          "governor": 8,
          "governorGloss": "zumindest",
          "dependent": 12,
          "dependentGloss": "Anspruch"
        },
        {
          "dep": "amod",
          "governor": 14,
          "governorGloss": "VIDEO",
          "dependent": 13,
          "dependentGloss": "-LSB-"
        },
        {
          "dep": "det",
          "governor": 12,
          "governorGloss": "Anspruch",
          "dependent": 14,
          "dependentGloss": "VIDEO"
        },
        {
          "dep": "appos",
          "governor": 12,
          "governorGloss": "Anspruch",
          "dependent": 15,
          "dependentGloss": "-RSB-"
        }
      ],
      "tokens": [
        {
          "index": 1,
          "word": "Bigfoot",
          "originalText": "Bigfoot",
          "characterOffsetBegin": 0,
          "characterOffsetEnd": 7,
          "pos": "NE",
          "before": "",
          "after": " "
        },
        {
          "index": 2,
          "word": "schlendert",
          "originalText": "schlendert",
          "characterOffsetBegin": 8,
          "characterOffsetEnd": 18,
          "pos": "VVFIN",
          "before": " ",
          "after": " "
        },
        {
          "index": 3,
          "word": "durch",
          "originalText": "durch",
          "characterOffsetBegin": 19,
          "characterOffsetEnd": 24,
          "pos": "APPR",
          "before": " ",
          "after": " "
        },
        {
          "index": 4,
          "word": "einen",
          "originalText": "einen",
          "characterOffsetBegin": 25,
          "characterOffsetEnd": 30,
          "pos": "ART",
          "before": " ",
          "after": " "
        },
        {
          "index": 5,
          "word": "russischen",
          "originalText": "russischen",
          "characterOffsetBegin": 31,
          "characterOffsetEnd": 41,
          "pos": "ADJA",
          "before": " ",
          "after": " "
        },
        {
          "index": 6,
          "word": "Wald",
          "originalText": "Wald",
          "characterOffsetBegin": 42,
          "characterOffsetEnd": 46,
          "pos": "NN",
          "before": " ",
          "after": " "
        },
        {
          "index": 7,
          "word": "-",
          "originalText": "-",
          "characterOffsetBegin": 47,
          "characterOffsetEnd": 48,
          "pos": "$[",
          "before": " ",
          "after": " "
        },
        {
          "index": 8,
          "word": "zumindest",
          "originalText": "zumindest",
          "characterOffsetBegin": 49,
          "characterOffsetEnd": 58,
          "pos": "ADV",
          "before": " ",
          "after": " "
        },
        {
          "index": 9,
          "word": "das",
          "originalText": "das",
          "characterOffsetBegin": 59,
          "characterOffsetEnd": 62,
          "pos": "PDS",
          "before": " ",
          "after": " "
        },
        {
          "index": 10,
          "word": "ist",
          "originalText": "ist",
          "characterOffsetBegin": 63,
          "characterOffsetEnd": 66,
          "pos": "VAFIN",
          "before": " ",
          "after": " "
        },
        {
          "index": 11,
          "word": "der",
          "originalText": "der",
          "characterOffsetBegin": 67,
          "characterOffsetEnd": 70,
          "pos": "ART",
          "before": " ",
          "after": " "
        },
        {
          "index": 12,
          "word": "Anspruch",
          "originalText": "Anspruch",
          "characterOffsetBegin": 71,
          "characterOffsetEnd": 79,
          "pos": "NN",
          "before": " ",
          "after": " "
        },
        {
          "index": 13,
          "word": "-LSB-",
          "originalText": "[",
          "characterOffsetBegin": 80,
          "characterOffsetEnd": 81,
          "pos": "TRUNC",
          "before": " ",
          "after": ""
        },
        {
          "index": 14,
          "word": "VIDEO",
          "originalText": "VIDEO",
          "characterOffsetBegin": 81,
          "characterOffsetEnd": 86,
          "pos": "NN",
          "before": "",
          "after": ""
        },
        {
          "index": 15,
          "word": "-RSB-",
          "originalText": "]",
          "characterOffsetBegin": 86,
          "characterOffsetEnd": 87,
          "pos": "TRUNC",
          "before": "",
          "after": ""
        }
      ]
    }
  ]
}