{
  "sentences": [
    {
      "index": 0,
      "basicDependencies": [
        {
          "dep": "ROOT",
          "governor": 0,
          "governorGloss": "ROOT",
          "dependent": 11,
          "dependentGloss": "helfen"
        },
        {
          "dep": "name",
          "governor": 3,
          "governorGloss": "Bary",
          "dependent": 1,
          "dependentGloss": "Abdel-Majed"
        },
        {
          "dep": "name",
          "governor": 3,
          "governorGloss": "Bary",
          "dependent": 2,
          "dependentGloss": "Abdel"
        },
        {
          "dep": "nsubj",
          "governor": 11,
          "governorGloss": "helfen",
          "dependent": 3,
          "dependentGloss": "Bary"
        },
        {
          "dep": "case",
          "governor": 6,
          "governorGloss": "Enthauptung",
          "dependent": 4,
          "dependentGloss": "in"
        },
        {
          "dep": "amod",
          "governor": 6,
          "governorGloss": "Enthauptung",
          "dependent": 5,
          "dependentGloss": "Foley"
        },
        {
          "dep": "nmod",
          "governor": 3,
          "governorGloss": "Bary",
          "dependent": 6,
          "dependentGloss": "Enthauptung"
        },
        {
          "dep": "punct",
          "governor": 6,
          "governorGloss": "Enthauptung",
          "dependent": 7,
          "dependentGloss": ":"
        },
        {
          "dep": "name",
          "governor": 10,
          "governorGloss": "Songs",
          "dependent": 8,
          "dependentGloss": "London"
        },
        {
          "dep": "compound",
          "governor": 10,
          "governorGloss": "Songs",
          "dependent": 9,
          "dependentGloss": "Rapper"
        },
        {
          "dep": "appos",
          "governor": 6,
          "governorGloss": "Enthauptung",
          "dependent": 10,
          "dependentGloss": "Songs"
        },
        {
          "dep": "punct",
          "governor": 11,
          "governorGloss": "helfen",
          "dependent": 12,
          "dependentGloss": ","
        },
        {
          "dep": "dobj",
          "governor": 15,
          "governorGloss": "identifizieren",
          "dependent": 13,
          "dependentGloss": "ihn"
        },
        {
          "dep": "aux",
          "governor": 15,
          "governorGloss": "identifizieren",
          "dependent": 14,
          "dependentGloss": "zu"
        },
        {
          "dep": "xcomp",
          "governor": 11,
          "governorGloss": "helfen",
          "dependent": 15,
          "dependentGloss": "identifizieren"
        }
      ],
      "enhancedDependencies": [
        {
          "dep": "ROOT",
          "governor": 0,
          "governorGloss": "ROOT",
          "dependent": 11,
          "dependentGloss": "helfen"
        },
        {
          "dep": "name",
          "governor": 3,
          "governorGloss": "Bary",
          "dependent": 1,
          "dependentGloss": "Abdel-Majed"
        },
        {
          "dep": "name",
          "governor": 3,
          "governorGloss": "Bary",
          "dependent": 2,
          "dependentGloss": "Abdel"
        },
        {
          "dep": "nsubj",
          "governor": 11,
          "governorGloss": "helfen",
          "dependent": 3,
          "dependentGloss": "Bary"
        },
        {
          "dep": "case",
          "governor": 6,
          "governorGloss": "Enthauptung",
          "dependent": 4,
          "dependentGloss": "in"
        },
        {
          "dep": "amod",
          "governor": 6,
          "governorGloss": "Enthauptung",
          "dependent": 5,
          "dependentGloss": "Foley"
        },
        {
          "dep": "nmod",
          "governor": 3,
          "governorGloss": "Bary",
          "dependent": 6,
          "dependentGloss": "Enthauptung"
        },
        {
          "dep": "punct",
          "governor": 6,
          "governorGloss": "Enthauptung",
          "dependent": 7,
          "dependentGloss": ":"
        },
        {
          "dep": "name",
          "governor": 10,
          "governorGloss": "Songs",
          "dependent": 8,
          "dependentGloss": "London"
        },
        {
          "dep": "compound",
          "governor": 10,
          "governorGloss": "Songs",
          "dependent": 9,
          "dependentGloss": "Rapper"
        },
        {
          "dep": "appos",
          "governor": 6,
          "governorGloss": "Enthauptung",
          "dependent": 10,
          "dependentGloss": "Songs"
        },
        {
          "dep": "punct",
          "governor": 11,
          "governorGloss": "helfen",
          "dependent": 12,
          "dependentGloss": ","
        },
        {
          "dep": "dobj",
          "governor": 15,
          "governorGloss": "identifizieren",
          "dependent": 13,
          "dependentGloss": "ihn"
        },
        {
          "dep": "aux",
          "governor": 15,
          "governorGloss": "identifizieren",
          "dependent": 14,
          "dependentGloss": "zu"
        },
        {
          "dep": "xcomp",
          "governor": 11,
          "governorGloss": "helfen",
          "dependent": 15,
          "dependentGloss": "identifizieren"
        }
      ],
      "enhancedPlusPlusDependencies": [
        {
          "dep": "ROOT",
          "governor": 0,
          "governorGloss": "ROOT",
          "dependent": 11,
          "dependentGloss": "helfen"
        },
        {
          "dep": "name",
          "governor": 3,
          "governorGloss": "Bary",
          "dependent": 1,
          "dependentGloss": "Abdel-Majed"
        },
        {
          "dep": "name",
          "governor": 3,
          "governorGloss": "Bary",
          "dependent": 2,
          "dependentGloss": "Abdel"
        },
        {
          "dep": "nsubj",
          "governor": 11,
          "governorGloss": "helfen",
          "dependent": 3,
          "dependentGloss": "Bary"
        },
        {
          "dep": "case",
          "governor": 6,
          "governorGloss": "Enthauptung",
          "dependent": 4,
          "dependentGloss": "in"
        },
        {
          "dep": "amod",
          "governor": 6,
          "governorGloss": "Enthauptung",
          "dependent": 5,
          "dependentGloss": "Foley"
        },
        {
          "dep": "nmod",
          "governor": 3,
          "governorGloss": "Bary",
          "dependent": 6,
          "dependentGloss": "Enthauptung"
        },
        {
          "dep": "punct",
          "governor": 6,
          "governorGloss": "Enthauptung",
          "dependent": 7,
          "dependentGloss": ":"
        },
        {
          "dep": "name",
          "governor": 10,
          "governorGloss": "Songs",
          "dependent": 8,
          "dependentGloss": "London"
        },
        {
          "dep": "compound",
          "governor": 10,
          "governorGloss": "Songs",
          "dependent": 9,
          "dependentGloss": "Rapper"
        },
        {
          "dep": "appos",
          "governor": 6,
          "governorGloss": "Enthauptung",
          "dependent": 10,
          "dependentGloss": "Songs"
        },
        {
          "dep": "punct",
          "governor": 11,
          "governorGloss": "helfen",
          "dependent": 12,
          "dependentGloss": ","
        },
        {
          "dep": "dobj",
          "governor": 15,
          "governorGloss": "identifizieren",
          "dependent": 13,
          "dependentGloss": "ihn"
        },
        {
          "dep": "aux",
          "governor": 15,
          "governorGloss": "identifizieren",
          "dependent": 14,
          "dependentGloss": "zu"
        },
        {
          "dep": "xcomp",
          "governor": 11,
          "governorGloss": "helfen",
          "dependent": 15,
          "dependentGloss": "identifizieren"
        }
      ],
      "tokens": [
        {
          "index": 1,
          "word": "Abdel-Majed",
          "originalText": "Abdel-Majed",
          "characterOffsetBegin": 0,
          "characterOffsetEnd": 11,
          "pos": "NN",
          "before": "",
          "after": " "
        },
        {
          "index": 2,
          "word": "Abdel",
          "originalText": "Abdel",
          "characterOffsetBegin": 12,
          "characterOffsetEnd": 17,
          "pos": "NE",
          "before": " ",
          "after": " "
        },
        {
          "index": 3,
          "word": "Bary",
          "originalText": "Bary",
          "characterOffsetBegin": 18,
          "characterOffsetEnd": 22,
          "pos": "NE",
          "before": " ",
          "after": " "
        },
        {
          "index": 4,
          "word": "in",
          "originalText": "in",
          "characterOffsetBegin": 23,
          "characterOffsetEnd": 25,
          "pos": "APPR",
          "before": " ",
          "after": " "
        },
        {
          "index": 5,
          "word": "Foley",
          "originalText": "Foley",
          "characterOffsetBegin": 26,
          "characterOffsetEnd": 31,
          "pos": "NE",
          "before": " ",
          "after": " "
        },
        {
          "index": 6,
          "word": "Enthauptung",
          "originalText": "Enthauptung",
          "characterOffsetBegin": 32,
          "characterOffsetEnd": 43,
          "pos": "NN",
          "before": " ",
          "after": ""
        },
        {
          "index": 7,
          "word": ":",
          "originalText": ":",
          "characterOffsetBegin": 43,
          "characterOffsetEnd": 44,
          "pos": "$.",
          "before": "",
          "after": " "
        },
        {
          "index": 8,
          "word": "London",
          "originalText": "London",
          "characterOffsetBegin": 45,
          "characterOffsetEnd": 51,
          "pos": "NE",
          "before": " ",
          "after": " "
        },
        {
          "index": 9,
          "word": "Rapper",
          "originalText": "Rapper",
          "characterOffsetBegin": 52,
          "characterOffsetEnd": 58,
          "pos": "NN",
          "before": " ",
          "after": " "
        },
        {
          "index": 10,
          "word": "Songs",
          "originalText": "Songs",
          "characterOffsetBegin": 59,
          "characterOffsetEnd": 64,
          "pos": "NN",
          "before": " ",
          "after": " "
        },
        {
          "index": 11,
          "word": "helfen",
          "originalText": "helfen",
          "characterOffsetBegin": 65,
          "characterOffsetEnd": 71,
          "pos": "VVINF",
          "before": " ",
          "after": ""
        },
        {
          "index": 12,
          "word": ",",
          "originalText": ",",
          "characterOffsetBegin": 71,
          "characterOffsetEnd": 72,
          "pos": "$,",
          "before": "",
          "after": " "
        },
        {
          "index": 13,
          "word": "ihn",
          "originalText": "ihn",
          "characterOffsetBegin": 73,
          "characterOffsetEnd": 76,
          "pos": "PPER",
          "before": " ",
          "after": " "
        },
        {
          "index": 14,
          "word": "zu",
          "originalText": "zu",
          "characterOffsetBegin": 77,
          "characterOffsetEnd": 79,
          "pos": "PTKZU",
          "before": " ",
          "after": " "
        },
        {
          "index": 15,
          "word": "identifizieren",
          "originalText": "identifizieren",
          "characterOffsetBegin": 80,
          "characterOffsetEnd": 94,
          "pos": "VVINF",
          "before": " ",
          "after": ""
        }
      ]
    }
  ]
}