{
  "sentences": [
    {
      "index": 0,
      "basicDependencies": [
        {
          "dep": "ROOT",
          "governor": 0,
          "governorGloss": "ROOT",
          "dependent": 3,
          "dependentGloss": "gefangen"
        },
        {
          "dep": "amod",
          "governor": 2,
          "governorGloss": "20-Stein-Wels",
          "dependent": 1,
          "dependentGloss": "Enormer"
        },
        {
          "dep": "nsubj",
          "governor": 3,
          "governorGloss": "gefangen",
          "dependent": 2,
          "dependentGloss": "20-Stein-Wels"
        },
        {
          "dep": "case",
          "governor": 5,
          "governorGloss": "Angelrute",
          "dependent": 4,
          "dependentGloss": "mit"
        },
        {
          "dep": "nmod",
          "governor": 3,
          "governorGloss": "gefangen",
          "dependent": 5,
          "dependentGloss": "Angelrute"
        },
        {
          "dep": "case",
          "governor": 7,
          "governorGloss": "Italien",
          "dependent": 6,
          "dependentGloss": "in"
        },
        {
          "dep": "nmod",
          "governor": 3,
          "governorGloss": "gefangen",
          "dependent": 7,
          "dependentGloss": "Italien"
        },
        {
          "dep": "case",
          "governor": 10,
          "governorGloss": "Bootsschlacht",
          "dependent": 8,
          "dependentGloss": "nach"
        },
        {
          "dep": "amod",
          "governor": 10,
          "governorGloss": "Bootsschlacht",
          "dependent": 9,
          "dependentGloss": "40-minütiger"
        },
        {
          "dep": "nmod",
          "governor": 3,
          "governorGloss": "gefangen",
          "dependent": 10,
          "dependentGloss": "Bootsschlacht"
        }
      ],
      "enhancedDependencies": [
        {
          "dep": "ROOT",
          "governor": 0,
          "governorGloss": "ROOT",
          "dependent": 3,
          "dependentGloss": "gefangen"
        },
        {
          "dep": "amod",
          "governor": 2,
          "governorGloss": "20-Stein-Wels",
          "dependent": 1,
          "dependentGloss": "Enormer"
        },
        {
          "dep": "nsubj",
          "governor": 3,
          "governorGloss": "gefangen",
          "dependent": 2,
          "dependentGloss": "20-Stein-Wels"
        },
        {
          "dep": "case",
          "governor": 5,
          "governorGloss": "Angelrute",
          "dependent": 4,
          "dependentGloss": "mit"
        },
        {
          "dep": "nmod",
          "governor": 3,
          "governorGloss": "gefangen",
          "dependent": 5,
          "dependentGloss": "Angelrute"
        },
        {
          "dep": "case",
          "governor": 7,
          "governorGloss": "Italien",
          "dependent": 6,
          "dependentGloss": "in"
        },
        {
          "dep": "nmod",
          "governor": 3,
          "governorGloss": "gefangen",
          "dependent": 7,
          "dependentGloss": "Italien"
        },
        {
          "dep": "case",
          "governor": 10,
          "governorGloss": "Bootsschlacht",
          "dependent": 8,
          "dependentGloss": "nach"
        },
        {
          "dep": "amod",
          "governor": 10,
          "governorGloss": "Bootsschlacht",
          "dependent": 9,
          "dependentGloss": "40-minütiger"
        },
        {
          "dep": "nmod",
          "governor": 3,
          "governorGloss": "gefangen",
          "dependent": 10,
          "dependentGloss": "Bootsschlacht"
        }
      ],
      "enhancedPlusPlusDependencies": [
        {
          "dep": "ROOT",
          "governor": 0,
          "governorGloss": "ROOT",
          "dependent": 3,
          "dependentGloss": "gefangen"
        },
        {
          "dep": "amod",
          "governor": 2,
          "governorGloss": "20-Stein-Wels",
          "dependent": 1,
          "dependentGloss": "Enormer"
        },
        {
          "dep": "nsubj",
          "governor": 3,
          "governorGloss": "gefangen",
          "dependent": 2,
          "dependentGloss": "20-Stein-Wels"
        },
        {
          "dep": "case",
          "governor": 5,
          "governorGloss": "Angelrute",
          "dependent": 4,
          "dependentGloss": "mit"
        },
        {
          "dep": "nmod",
          "governor": 3,
          "governorGloss": "gefangen",
          "dependent": 5,
          "dependentGloss": "Angelrute"
        },
        {
          "dep": "case",
          "governor": 7,
          "governorGloss": "Italien",
          "dependent": 6,
          "dependentGloss": "in"
        },
        {
          "dep": "nmod",
          "governor": 3,
          "governorGloss": "gefangen",
          "dependent": 7,
          "dependentGloss": "Italien"
        },
        {
          "dep": "case",
          "governor": 10,
          "governorGloss": "Bootsschlacht",
          "dependent": 8,
          "dependentGloss": "nach"
        },
        {
          "dep": "amod",
          "governor": 10,
          "governorGloss": "Bootsschlacht",
          "dependent": 9,
          "dependentGloss": "40-minütiger"
        },
        {
          "dep": "nmod",
          "governor": 3,
          "governorGloss": "gefangen",
          "dependent": 10,
          "dependentGloss": "Bootsschlacht"
        }
      ],
      "tokens": [
        {
          "index": 1,
          "word": "Enormer",
          "originalText": "Enormer",
          "characterOffsetBegin": 0,
          "characterOffsetEnd": 7,
          "pos": "ADJA",
          "before": "",
          "after": " "
        },
        {
          "index": 2,
          "word": "20-Stein-Wels",
          "originalText": "20-Stein-Wels",
          "characterOffsetBegin": 8,
          "characterOffsetEnd": 21,
          "pos": "NN",
          "before": " ",
          "after": " "
        },
        {
          "index": 3,
          "word": "gefangen",
          "originalText": "gefangen",
          "characterOffsetBegin": 22,
          "characterOffsetEnd": 30,
          "pos": "VVPP",
          "before": " ",
          "after": " "
        },
        {
          "index": 4,
          "word": "mit",
          "originalText": "mit",
          "characterOffsetBegin": 31,
          "characterOffsetEnd": 34,
          "pos": "APPR",
          "before": " ",
          "after": " "
        },
        {
          "index": 5,
          "word": "Angelrute",
          "originalText": "Angelrute",
          "characterOffsetBegin": 35,
          "characterOffsetEnd": 44,
          "pos": "NN",
          "before": " ",
          "after": " "
        },
        {
          "index": 6,
          "word": "in",
          "originalText": "in",
          "characterOffsetBegin": 45,
          "characterOffsetEnd": 47,
          "pos": "APPR",
          "before": " ",
          "after": " "
        },
        {
          "index": 7,
          "word": "Italien",
          "originalText": "Italien",
          "characterOffsetBegin": 48,
          "characterOffsetEnd": 55,
          "pos": "NE",
          "before": " ",
          "after": " "
        },
        {
          "index": 8,
          "word": "nach",
          "originalText": "nach",
          "characterOffsetBegin": 56,
          "characterOffsetEnd": 60,
          "pos": "APPR",
          "before": " ",
          "after": " "
        },
        {
          "index": 9,
          "word": "40-minütiger",
          "originalText": "40-minütiger",
          "characterOffsetBegin": 61,
          "characterOffsetEnd": 73,
          "pos": "ADJA",
          "before": " ",
          "after": " "
        },
        {
          "index": 10,
          "word": "Bootsschlacht",
          "originalText": "Bootsschlacht",
          "characterOffsetBegin": 74,
          "characterOffsetEnd": 87,
          "pos": "NN",
          "before": " ",
          "after": ""
        }
      ]
    }
  ]
}