{
  "sentences": [
    {
      "index": 0,
      "basicDependencies": [
        {
          "dep": "ROOT",
          "governor": 0,
          "governorGloss": "ROOT",
          "dependent": 7,
          "dependentGloss": "Store"
        },
        {
          "dep": "name",
          "governor": 7,
          "governorGloss": "Store",
          "dependent": 1,
          "dependentGloss": "Crank-Boosting"
        },
        {
          "dep": "name",
          "governor": 7,
          "governorGloss": "Store",
          "dependent": 2,
          "dependentGloss": "Behind"
        },
        {
          "dep": "amod",
          "governor": 4,
          "governorGloss": "Apps",
          "dependent": 3,
          "dependentGloss": "Top"
        },
        {
          "dep": "name",
          "governor": 7,
          "governorGloss": "Store",
          "dependent": 4,
          "dependentGloss": "Apps"
        },
        {
          "dep": "name",
          "governor": 7,
          "governorGloss": "Store",
          "dependent": 5,
          "dependentGloss": "im"
        },
        {
          "dep": "name",
          "governor": 7,
          "governorGloss": "Store",
          "dependent": 6,
          "dependentGloss": "App"
        }
      ],
      "enhancedDependencies": [
        {
          "dep": "ROOT",
          "governor": 0,
          "governorGloss": "ROOT",
          "dependent": 7,
          "dependentGloss": "Store"
        },
        {
          "dep": "name",
          "governor": 7,
          "governorGloss": "Store",
          "dependent": 1,
          "dependentGloss": "Crank-Boosting"
        },
        {
          "dep": "name",
          "governor": 7,
          "governorGloss": "Store",
          "dependent": 2,
          "dependentGloss": "Behind"
        },
        {
          "dep": "amod",
          "governor": 4,
          "governorGloss": "Apps",
          "dependent": 3,
          "dependentGloss": "Top"
        },
        {
          "dep": "name",
          "governor": 7,
          "governorGloss": "Store",
          "dependent": 4,
          "dependentGloss": "Apps"
        },
        {
          "dep": "name",
          "governor": 7,
          "governorGloss": "Store",
          "dependent": 5,
          "dependentGloss": "im"
        },
        {
          "dep": "name",
          "governor": 7,
          "governorGloss": "Store",
          "dependent": 6,
          "dependentGloss": "App"
        }
      ],
      "enhancedPlusPlusDependencies": [
        {
          "dep": "ROOT",
          "governor": 0,
          "governorGloss": "ROOT",
          "dependent": 7,
          "dependentGloss": "Store"
        },
        {
          "dep": "name",
          "governor": 7,
          "governorGloss": "Store",
          "dependent": 1,
          "dependentGloss": "Crank-Boosting"
        },
        {
          "dep": "name",
          "governor": 7,
          "governorGloss": "Store",
          "dependent": 2,
          "dependentGloss": "Behind"
        },
        {
          "dep": "amod",
          "governor": 4,
          "governorGloss": "Apps",
          "dependent": 3,
          "dependentGloss": "Top"
        },
        {
          "dep": "name",
          "governor": 7,
          "governorGloss": "Store",
          "dependent": 4,
          "dependentGloss": "Apps"
        },
        {
          "dep": "name",
          "governor": 7,
          "governorGloss": "Store",
          "dependent": 5,
          "dependentGloss": "im"
        },
        {
          "dep": "name",
          "governor": 7,
          "governorGloss": "Store",
          "dependent": 6,
          "dependentGloss": "App"
        }
      ],
      "tokens": [
        {
          "index": 1,
          "word": "Crank-Boosting",
          "originalText": "Crank-Boosting",
          "characterOffsetBegin": 0,
          "characterOffsetEnd": 14,
          "pos": "NE",
          "before": "",
          "after": " "
        },
        {
          "index": 2,
          "word": "Behind",
          "originalText": "Behind",
          "characterOffsetBegin": 15,
          "characterOffsetEnd": 21,
          "pos": "NE",
          "before": " ",
          "after": " "
        },
        {
          "index": 3,
          "word": "Top",
          "originalText": "Top",
          "characterOffsetBegin": 22,
          "characterOffsetEnd": 25,
          "pos": "NE",
          "before": " ",
          "after": " "
        },
        {
          "index": 4,
          "word": "Apps",
          "originalText": "Apps",
          "characterOffsetBegin": 26,
          "characterOffsetEnd": 30,
          "pos": "NE",
          "before": " ",
          "after": " "
        },
        {
          "index": 5,
          "word": "im",
          "originalText": "im",
          "characterOffsetBegin": 31,
          "characterOffsetEnd": 33,
          "pos": "APPRART",
          "before": " ",
          "after": " "
        },
        {
          "index": 6,
          "word": "App",
          "originalText": "App",
          "characterOffsetBegin": 34,
          "characterOffsetEnd": 37,
          "pos": "NE",
          "before": " ",
          "after": " "
        },
        {
          "index": 7,
          "word": "Store",
          "originalText": "Store",
          "characterOffsetBegin": 38,
          "characterOffsetEnd": 43,
          "pos": "NE",
          "before": " ",
          "after": ""
        }
      ]
    }
  ]
}