{
  "sentences": [
    {
      "index": 0,
      "basicDependencies": [
        {
          "dep": "ROOT",
          "governor": 0,
          "governorGloss": "ROOT",
          "dependent": 3,
          "dependentGloss": "gefunden"
        },
        {
          "dep": "name",
          "governor": 2,
          "governorGloss": "Rose",
          "dependent": 1,
          "dependentGloss": "Axl"
        },
        {
          "dep": "nsubj",
          "governor": 3,
          "governorGloss": "gefunden",
          "dependent": 2,
          "dependentGloss": "Rose"
        },
        {
          "dep": "dobj",
          "governor": 3,
          "governorGloss": "gefunden",
          "dependent": 4,
          "dependentGloss": "Dead"
        },
        {
          "dep": "case",
          "governor": 6,
          "governorGloss": "Sh",
          "dependent": 5,
          "dependentGloss": "of"
        },
        {
          "dep": "nmod",
          "governor": 4,
          "governorGloss": "Dead",
          "dependent": 6,
          "dependentGloss": "Sh"
        },
        {
          "dep": "advmod",
          "governor": 8,
          "governorGloss": "tty",
          "dependent": 7,
          "dependentGloss": "*"
        },
        {
          "dep": "amod",
          "governor": 10,
          "governorGloss": "Website",
          "dependent": 8,
          "dependentGloss": "tty"
        },
        {
          "dep": "amod",
          "governor": 10,
          "governorGloss": "Website",
          "dependent": 9,
          "dependentGloss": "Hoax"
        },
        {
          "dep": "det",
          "governor": 6,
          "governorGloss": "Sh",
          "dependent": 10,
          "dependentGloss": "Website"
        },
        {
          "dep": "case",
          "governor": 12,
          "governorGloss": "Alter",
          "dependent": 11,
          "dependentGloss": "bei"
        },
        {
          "dep": "nmod",
          "governor": 10,
          "governorGloss": "Website",
          "dependent": 12,
          "dependentGloss": "Alter"
        },
        {
          "dep": "appos",
          "governor": 12,
          "governorGloss": "Alter",
          "dependent": 13,
          "dependentGloss": "52"
        }
      ],
      "enhancedDependencies": [
        {
          "dep": "ROOT",
          "governor": 0,
          "governorGloss": "ROOT",
          "dependent": 3,
          "dependentGloss": "gefunden"
        },
        {
          "dep": "name",
          "governor": 2,
          "governorGloss": "Rose",
          "dependent": 1,
          "dependentGloss": "Axl"
        },
        {
          "dep": "nsubj",
          "governor": 3,
          "governorGloss": "gefunden",
          "dependent": 2,
          "dependentGloss": "Rose"
        },
        {
          "dep": "dobj",
          "governor": 3,
          "governorGloss": "gefunden",
          "dependent": 4,
          "dependentGloss": "Dead"
        },
        {
          "dep": "case",
          "governor": 6,
          "governorGloss": "Sh",
          "dependent": 5,
          "dependentGloss": "of"
        },
        {
          "dep": "nmod",
          "governor": 4,
          "governorGloss": "Dead",
          "dependent": 6,
          "dependentGloss": "Sh"
        },
        {
          "dep": "advmod",
          "governor": 8,
          "governorGloss": "tty",
          "dependent": 7,
          "dependentGloss": "*"
        },
        {
          "dep": "amod",
          "governor": 10,
          "governorGloss": "Website",
          "dependent": 8,
          "dependentGloss": "tty"
        },
        {
          "dep": "amod",
          "governor": 10,
          "governorGloss": "Website",
          "dependent": 9,
          "dependentGloss": "Hoax"
        },
        {
          "dep": "det",
          "governor": 6,
          "governorGloss": "Sh",
          "dependent": 10,
          "dependentGloss": "Website"
        },
        {
          "dep": "case",
          "governor": 12,
          "governorGloss": "Alter",
          "dependent": 11,
          "dependentGloss": "bei"
        },
        {
          "dep": "nmod",
          "governor": 10,
          "governorGloss": "Website",
          "dependent": 12,
          "dependentGloss": "Alter"
        },
        {
          "dep": "appos",
          "governor": 12,
          "governorGloss": "Alter",
          "dependent": 13,
          "dependentGloss": "52"
        }
      ],
      "enhancedPlusPlusDependencies": [
        {
          "dep": "ROOT",
          "governor": 0,
          "governorGloss": "ROOT",
          "dependent": 3,
          "dependentGloss": "gefunden"
        },
        {
          "dep": "name",
          "governor": 2,
          "governorGloss": "Rose",
          "dependent": 1,
          "dependentGloss": "Axl"
        },
        {
          "dep": "nsubj",
          "governor": 3,
          "governorGloss": "gefunden",
          "dependent": 2,
          "dependentGloss": "Rose"
        },
        {
          "dep": "dobj",
          "governor": 3,
          "governorGloss": "gefunden",
          "dependent": 4,
          "dependentGloss": "Dead"
        },
        {
          "dep": "case",
          "governor": 6,
          "governorGloss": "Sh",
          "dependent": 5,
          "dependentGloss": "of"
        },
        {
          "dep": "nmod",
          "governor": 4,
          "governorGloss": "Dead",
          "dependent": 6,
          "dependentGloss": "Sh"
        },
        {
          "dep": "advmod",
          "governor": 8,
          "governorGloss": "tty",
          "dependent": 7,
          "dependentGloss": "*"
        },
        {
          "dep": "amod",
          "governor": 10,
          "governorGloss": "Website",
          "dependent": 8,
          "dependentGloss": "tty"
        },
        {
          "dep": "amod",
          "governor": 10,
          "governorGloss": "Website",
          "dependent": 9,
          "dependentGloss": "Hoax"
        },
        {
          "dep": "det",
          "governor": 6,
          "governorGloss": "Sh",
          "dependent": 10,
          "dependentGloss": "Website"
        },
        {
          "dep": "case",
          "governor": 12,
          "governorGloss": "Alter",
          "dependent": 11,
          "dependentGloss": "bei"
        },
        {
          "dep": "nmod",
          "governor": 10,
          "governorGloss": "Website",
          "dependent": 12,
          "dependentGloss": "Alter"
        },
        {
          "dep": "appos",
          "governor": 12,
          "governorGloss": "Alter",
          "dependent": 13,
          "dependentGloss": "52"
        }
      ],
      "tokens": [
        {
          "index": 1,
          "word": "Axl",
          "originalText": "Axl",
          "characterOffsetBegin": 0,
          "characterOffsetEnd": 3,
          "pos": "NE",
          "before": "",
          "after": " "
        },
        {
          "index": 2,
          "word": "Rose",
          "originalText": "Rose",
          "characterOffsetBegin": 4,
          "characterOffsetEnd": 8,
          "pos": "NE",
          "before": " ",
          "after": " "
        },
        {
          "index": 3,
          "word": "gefunden",
          "originalText": "gefunden",
          "characterOffsetBegin": 9,
          "characterOffsetEnd": 17,
          "pos": "VVPP",
          "before": " ",
          "after": " "
        },
        {
          "index": 4,
          "word": "Dead",
          "originalText": "Dead",
          "characterOffsetBegin": 18,
          "characterOffsetEnd": 22,
          "pos": "FM",
          "before": " ",
          "after": " "
        },
        {
          "index": 5,
          "word": "of",
          "originalText": "of",
          "characterOffsetBegin": 23,
          "characterOffsetEnd": 25,
          "pos": "FM",
          "before": " ",
          "after": " "
        },
        {
          "index": 6,
          "word": "Sh",
          "originalText": "Sh",
          "characterOffsetBegin": 26,
          "characterOffsetEnd": 28,
          "pos": "NE",
          "before": " ",
          "after": " "
        },
        {
          "index": 7,
          "word": "*",
          "originalText": "*",
          "characterOffsetBegin": 29,
          "characterOffsetEnd": 30,
          "pos": "XY",
          "before": " ",
          "after": " "
        },
        {
          "index": 8,
          "word": "tty",
          "originalText": "tty",
          "characterOffsetBegin": 31,
          "characterOffsetEnd": 34,
          "pos": "XY",
          "before": " ",
          "after": " "
        },
        {
          "index": 9,
          "word": "Hoax",
          "originalText": "Hoax",
          "characterOffsetBegin": 35,
          "characterOffsetEnd": 39,
          "pos": "NE",
          "before": " ",
          "after": " "
        },
        {
          "index": 10,
          "word": "Website",
          "originalText": "Website",
          "characterOffsetBegin": 40,
          "characterOffsetEnd": 47,
          "pos": "NN",
          "before": " ",
          "after": " "
        },
        {
          "index": 11,
          "word": "bei",
          "originalText": "bei",
          "characterOffsetBegin": 48,
          "characterOffsetEnd": 51,
          "pos": "APPR",
          "before": " ",
          "after": " "
        },
        {
          "index": 12,
          "word": "Alter",
          "originalText": "Alter",
          "characterOffsetBegin": 52,
          "characterOffsetEnd": 57,
          "pos": "NN",
          "before": " ",
          "after": " "
        },
        {
          "index": 13,
          "word": "52",
          "originalText": "52",
          "characterOffsetBegin": 58,
          "characterOffsetEnd": 60,
          "pos": "CARD",
          "before": " ",
          "after": ""
        }
      ]
    }
  ]
}