{
  "sentences": [
    {
      "index": 0,
      "basicDependencies": [
        {
          "dep": "ROOT",
          "governor": 0,
          "governorGloss": "ROOT",
          "dependent": 10,
          "dependentGloss": "macht"
        },
        {
          "dep": "nsubj",
          "governor": 10,
          "governorGloss": "macht",
          "dependent": 1,
          "dependentGloss": "Brief"
        },
        {
          "dep": "case",
          "governor": 3,
          "governorGloss": "Lego",
          "dependent": 2,
          "dependentGloss": "von"
        },
        {
          "dep": "nmod",
          "governor": 1,
          "governorGloss": "Brief",
          "dependent": 3,
          "dependentGloss": "Lego"
        },
        {
          "dep": "case",
          "governor": 5,
          "governorGloss": "Eltern",
          "dependent": 4,
          "dependentGloss": "an"
        },
        {
          "dep": "nmod",
          "governor": 1,
          "governorGloss": "Brief",
          "dependent": 5,
          "dependentGloss": "Eltern"
        },
        {
          "dep": "case",
          "governor": 9,
          "governorGloss": "Jahren",
          "dependent": 6,
          "dependentGloss": "in"
        },
        {
          "dep": "det",
          "governor": 9,
          "governorGloss": "Jahren",
          "dependent": 7,
          "dependentGloss": "den"
        },
        {
          "dep": "amod",
          "governor": 9,
          "governorGloss": "Jahren",
          "dependent": 8,
          "dependentGloss": "70er"
        },
        {
          "dep": "nmod",
          "governor": 1,
          "governorGloss": "Brief",
          "dependent": 9,
          "dependentGloss": "Jahren"
        },
        {
          "dep": "det",
          "governor": 13,
          "governorGloss": "Punkt",
          "dependent": 11,
          "dependentGloss": "einen"
        },
        {
          "dep": "amod",
          "governor": 13,
          "governorGloss": "Punkt",
          "dependent": 12,
          "dependentGloss": "wichtigen"
        },
        {
          "dep": "dobj",
          "governor": 10,
          "governorGloss": "macht",
          "dependent": 13,
          "dependentGloss": "Punkt"
        },
        {
          "dep": "case",
          "governor": 15,
          "governorGloss": "Geschlecht",
          "dependent": 14,
          "dependentGloss": "über"
        },
        {
          "dep": "nmod",
          "governor": 10,
          "governorGloss": "macht",
          "dependent": 15,
          "dependentGloss": "Geschlecht"
        }
      ],
      "enhancedDependencies": [
        {
          "dep": "ROOT",
          "governor": 0,
          "governorGloss": "ROOT",
          "dependent": 10,
          "dependentGloss": "macht"
        },
        {
          "dep": "nsubj",
          "governor": 10,
          "governorGloss": "macht",
          "dependent": 1,
          "dependentGloss": "Brief"
        },
        {
          "dep": "case",
          "governor": 3,
          "governorGloss": "Lego",
          "dependent": 2,
          "dependentGloss": "von"
        },
        {
          "dep": "nmod",
          "governor": 1,
          "governorGloss": "Brief",
          "dependent": 3,
          "dependentGloss": "Lego"
        },
        {
          "dep": "case",
          "governor": 5,
          "governorGloss": "Eltern",
          "dependent": 4,
          "dependentGloss": "an"
        },
        {
          "dep": "nmod",
          "governor": 1,
          "governorGloss": "Brief",
          "dependent": 5,
          "dependentGloss": "Eltern"
        },
        {
          "dep": "case",
          "governor": 9,
          "governorGloss": "Jahren",
          "dependent": 6,
          "dependentGloss": "in"
        },
        {
          "dep": "det",
          "governor": 9,
          "governorGloss": "Jahren",
          "dependent": 7,
          "dependentGloss": "den"
        },
        {
          "dep": "amod",
          "governor": 9,
          "governorGloss": "Jahren",
          "dependent": 8,
          "dependentGloss": "70er"
        },
        {
          "dep": "nmod",
          "governor": 1,
          "governorGloss": "Brief",
          "dependent": 9,
          "dependentGloss": "Jahren"
        },
        {
          "dep": "det",
          "governor": 13,
          "governorGloss": "Punkt",
          "dependent": 11,
          "dependentGloss": "einen"
        },
        {
          "dep": "amod",
          "governor": 13,
          "governorGloss": "Punkt",
          "dependent": 12,
          "dependentGloss": "wichtigen"
        },
        {
          "dep": "dobj",
          "governor": 10,
          "governorGloss": "macht",
          "dependent": 13,
          "dependentGloss": "Punkt"
        },
        {
          "dep": "case",
          "governor": 15,
          "governorGloss": "Geschlecht",
          "dependent": 14,
          "dependentGloss": "über"
        },
        {
          "dep": "nmod",
          "governor": 10,
          "governorGloss": "macht",
          "dependent": 15,
          "dependentGloss": "Geschlecht"
        }
      ],
      "enhancedPlusPlusDependencies": [
        {
          "dep": "ROOT",
          "governor": 0,
          "governorGloss": "ROOT",
          "dependent": 10,
          "dependentGloss": "macht"
        },
        {
          "dep": "nsubj",
          "governor": 10,
          "governorGloss": "macht",
          "dependent": 1,
          "dependentGloss": "Brief"
        },
        {
          "dep": "case",
          "governor": 3,
          "governorGloss": "Lego",
          "dependent": 2,
          "dependentGloss": "von"
        },
        {
          "dep": "nmod",
          "governor": 1,
          "governorGloss": "Brief",
          "dependent": 3,
          "dependentGloss": "Lego"
        },
        {
          "dep": "case",
          "governor": 5,
          "governorGloss": "Eltern",
          "dependent": 4,
          "dependentGloss": "an"
        },
        {
          "dep": "nmod",
          "governor": 1,
          "governorGloss": "Brief",
          "dependent": 5,
          "dependentGloss": "Eltern"
        },
        {
          "dep": "case",
          "governor": 9,
          "governorGloss": "Jahren",
          "dependent": 6,
          "dependentGloss": "in"
        },
        {
          "dep": "det",
          "governor": 9,
          "governorGloss": "Jahren",
          "dependent": 7,
          "dependentGloss": "den"
        },
        {
          "dep": "amod",
          "governor": 9,
          "governorGloss": "Jahren",
          "dependent": 8,
          "dependentGloss": "70er"
        },
        {
          "dep": "nmod",
          "governor": 1,
          "governorGloss": "Brief",
          "dependent": 9,
          "dependentGloss": "Jahren"
        },
        {
          "dep": "det",
          "governor": 13,
          "governorGloss": "Punkt",
          "dependent": 11,
          "dependentGloss": "einen"
        },
        {
          "dep": "amod",
          "governor": 13,
          "governorGloss": "Punkt",
          "dependent": 12,
          "dependentGloss": "wichtigen"
        },
        {
          "dep": "dobj",
          "governor": 10,
          "governorGloss": "macht",
          "dependent": 13,
          "dependentGloss": "Punkt"
        },
        {
          "dep": "case",
          "governor": 15,
          "governorGloss": "Geschlecht",
          "dependent": 14,
          "dependentGloss": "über"
        },
        {
          "dep": "nmod",
          "governor": 10,
          "governorGloss": "macht",
          "dependent": 15,
          "dependentGloss": "Geschlecht"
        }
      ],
      "tokens": [
        {
          "index": 1,
          "word": "Brief",
          "originalText": "Brief",
          "characterOffsetBegin": 0,
          "characterOffsetEnd": 5,
          "pos": "NN",
          "before": "",
          "after": " "
        },
        {
          "index": 2,
          "word": "von",
          "originalText": "von",
          "characterOffsetBegin": 6,
          "characterOffsetEnd": 9,
          "pos": "APPR",
          "before": " ",
          "after": " "
        },
        {
          "index": 3,
          "word": "Lego",
          "originalText": "Lego",
          "characterOffsetBegin": 10,
          "characterOffsetEnd": 14,
          "pos": "NN",
          "before": " ",
          "after": " "
        },
        {
          "index": 4,
          "word": "an",
          "originalText": "an",
          "characterOffsetBegin": 15,
          "characterOffsetEnd": 17,
          "pos": "APPR",
          "before": " ",
          "after": " "
        },
        {
          "index": 5,
          "word": "Eltern",
          "originalText": "Eltern",
          "characterOffsetBegin": 18,
          "characterOffsetEnd": 24,
          "pos": "NN",
          "before": " ",
          "after": " "
        },
        {
          "index": 6,
          "word": "in",
          "originalText": "in",
          "characterOffsetBegin": 25,
          "characterOffsetEnd": 27,
          "pos": "APPR",
          "before": " ",
          "after": " "
        },
        {
          "index": 7,
          "word": "den",
          "originalText": "den",
          "characterOffsetBegin": 28,
          "characterOffsetEnd": 31,
          "pos": "ART",
          "before": " ",
          "after": " "
        },
        {
          "index": 8,
          "word": "70er",
          "originalText": "70er",
          "characterOffsetBegin": 32,
          "characterOffsetEnd": 36,
          "pos": "ADJA",
          "before": " ",
          "after": " "
        },
        {
          "index": 9,
          "word": "Jahren",
          "originalText": "Jahren",
          "characterOffsetBegin": 37,
          "characterOffsetEnd": 43,
          "pos": "NN",
          "before": " ",
          "after": " "
        },
        {
          "index": 10,
          "word": "macht",
          "originalText": "macht",
          "characterOffsetBegin": 44,
          "characterOffsetEnd": 49,
          "pos": "VVFIN",
          "before": " ",
          "after": " "
        },
        {
          "index": 11,
          "word": "einen",
          "originalText": "einen",
          "characterOffsetBegin": 50,
          "characterOffsetEnd": 55,
          "pos": "ART",
          "before": " ",
          "after": " "
        },
        {
          "index": 12,
          "word": "wichtigen",
          "originalText": "wichtigen",
          "characterOffsetBegin": 56,
          "characterOffsetEnd": 65,
          "pos": "ADJA",
          "before": " ",
          "after": " "
        },
        {
          "index": 13,
          "word": "Punkt",
          "originalText": "Punkt",
          "characterOffsetBegin": 66,
          "characterOffsetEnd": 71,
          "pos": "NN",
          "before": " ",
          "after": " "
        },
        {
          "index": 14,
          "word": "über",
          "originalText": "über",
          "characterOffsetBegin": 72,
          "characterOffsetEnd": 76,
          "pos": "APPR",
          "before": " ",
          "after": " "
        },
        {
          "index": 15,
          "word": "Geschlecht",
          "originalText": "Geschlecht",
          "characterOffsetBegin": 77,
          "characterOffsetEnd": 87,
          "pos": "NN",
          "before": " ",
          "after": ""
        }
      ]
    }
  ]
}