{
  "sentences": [
    {
      "index": 0,
      "basicDependencies": [
        {
          "dep": "ROOT",
          "governor": 0,
          "governorGloss": "ROOT",
          "dependent": 3,
          "dependentGloss": "sucht"
        },
        {
          "dep": "case",
          "governor": 2,
          "governorGloss": "Moskau",
          "dependent": 1,
          "dependentGloss": "In"
        },
        {
          "dep": "nmod",
          "governor": 3,
          "governorGloss": "sucht",
          "dependent": 2,
          "dependentGloss": "Moskau"
        },
        {
          "dep": "det",
          "governor": 5,
          "governorGloss": "Polizei",
          "dependent": 4,
          "dependentGloss": "die"
        },
        {
          "dep": "nsubj",
          "governor": 3,
          "governorGloss": "sucht",
          "dependent": 5,
          "dependentGloss": "Polizei"
        },
        {
          "dep": "case",
          "governor": 8,
          "governorGloss": "Verbrecher",
          "dependent": 6,
          "dependentGloss": "nach"
        },
        {
          "dep": "det",
          "governor": 8,
          "governorGloss": "Verbrecher",
          "dependent": 7,
          "dependentGloss": "einem"
        },
        {
          "dep": "nmod",
          "governor": 3,
          "governorGloss": "sucht",
          "dependent": 8,
          "dependentGloss": "Verbrecher"
        },
        {
          "dep": "punct",
          "governor": 3,
          "governorGloss": "sucht",
          "dependent": 9,
          "dependentGloss": ","
        },
        {
          "dep": "conj",
          "governor": 3,
          "governorGloss": "sucht",
          "dependent": 10,
          "dependentGloss": "schneide"
        },
        {
          "dep": "det",
          "governor": 13,
          "governorGloss": "Genitalien",
          "dependent": 11,
          "dependentGloss": "die"
        },
        {
          "dep": "amod",
          "governor": 13,
          "governorGloss": "Genitalien",
          "dependent": 12,
          "dependentGloss": "männlichen"
        },
        {
          "dep": "dobj",
          "governor": 10,
          "governorGloss": "schneide",
          "dependent": 13,
          "dependentGloss": "Genitalien"
        }
      ],
      "enhancedDependencies": [
        {
          "dep": "ROOT",
          "governor": 0,
          "governorGloss": "ROOT",
          "dependent": 3,
          "dependentGloss": "sucht"
        },
        {
          "dep": "case",
          "governor": 2,
          "governorGloss": "Moskau",
          "dependent": 1,
          "dependentGloss": "In"
        },
        {
          "dep": "nmod",
          "governor": 3,
          "governorGloss": "sucht",
          "dependent": 2,
          "dependentGloss": "Moskau"
        },
        {
          "dep": "det",
          "governor": 5,
          "governorGloss": "Polizei",
          "dependent": 4,
          "dependentGloss": "die"
        },
        {
          "dep": "nsubj",
          "governor": 3,
          "governorGloss": "sucht",
          "dependent": 5,
          "dependentGloss": "Polizei"
        },
        {
          "dep": "case",
          "governor": 8,
          "governorGloss": "Verbrecher",
          "dependent": 6,
          "dependentGloss": "nach"
        },
        {
          "dep": "det",
          "governor": 8,
          "governorGloss": "Verbrecher",
          "dependent": 7,
          "dependentGloss": "einem"
        },
        {
          "dep": "nmod",
          "governor": 3,
          "governorGloss": "sucht",
          "dependent": 8,
          "dependentGloss": "Verbrecher"
        },
        {
          "dep": "punct",
          "governor": 3,
          "governorGloss": "sucht",
          "dependent": 9,
          "dependentGloss": ","
        },
        {
          "dep": "conj",
          "governor": 3,
          "governorGloss": "sucht",
          "dependent": 10,
          "dependentGloss": "schneide"
        },
        {
          "dep": "det",
          "governor": 13,
          "governorGloss": "Genitalien",
          "dependent": 11,
          "dependentGloss": "die"
        },
        {
          "dep": "amod",
          "governor": 13,
          "governorGloss": "Genitalien",
          "dependent": 12,
          "dependentGloss": "männlichen"
        },
        {
          "dep": "dobj",
          "governor": 10,
          "governorGloss": "schneide",
          "dependent": 13,
          "dependentGloss": "Genitalien"
        }
      ],
      "enhancedPlusPlusDependencies": [
        {
          "dep": "ROOT",
          "governor": 0,
          "governorGloss": "ROOT",
          "dependent": 3,
          "dependentGloss": "sucht"
        },
        {
          "dep": "case",
          "governor": 2,
          "governorGloss": "Moskau",
          "dependent": 1,
          "dependentGloss": "In"
        },
        {
          "dep": "nmod",
          "governor": 3,
          "governorGloss": "sucht",
          "dependent": 2,
          "dependentGloss": "Moskau"
        },
        {
          "dep": "det",
          "governor": 5,
          "governorGloss": "Polizei",
          "dependent": 4,
          "dependentGloss": "die"
        },
        {
          "dep": "nsubj",
          "governor": 3,
          "governorGloss": "sucht",
          "dependent": 5,
          "dependentGloss": "Polizei"
        },
        {
          "dep": "case",
          "governor": 8,
          "governorGloss": "Verbrecher",
          "dependent": 6,
          "dependentGloss": "nach"
        },
        {
          "dep": "det",
          "governor": 8,
          "governorGloss": "Verbrecher",
          "dependent": 7,
          "dependentGloss": "einem"
        },
        {
          "dep": "nmod",
          "governor": 3,
          "governorGloss": "sucht",
          "dependent": 8,
          "dependentGloss": "Verbrecher"
        },
        {
          "dep": "punct",
          "governor": 3,
          "governorGloss": "sucht",
          "dependent": 9,
          "dependentGloss": ","
        },
        {
          "dep": "conj",
          "governor": 3,
          "governorGloss": "sucht",
          "dependent": 10,
          "dependentGloss": "schneide"
        },
        {
          "dep": "det",
          "governor": 13,
          "governorGloss": "Genitalien",
          "dependent": 11,
          "dependentGloss": "die"
        },
        {
          "dep": "amod",
          "governor": 13,
          "governorGloss": "Genitalien",
          "dependent": 12,
          "dependentGloss": "männlichen"
        },
        {
          "dep": "dobj",
          "governor": 10,
          "governorGloss": "schneide",
          "dependent": 13,
          "dependentGloss": "Genitalien"
        }
      ],
      "tokens": [
        {
          "index": 1,
          "word": "In",
          "originalText": "In",
          "characterOffsetBegin": 0,
          "characterOffsetEnd": 2,
          "pos": "APPR",
          "before": "",
          "after": " "
        },
        {
          "index": 2,
          "word": "Moskau",
          "originalText": "Moskau",
          "characterOffsetBegin": 3,
          "characterOffsetEnd": 9,
          "pos": "NE",
          "before": " ",
          "after": " "
        },
        {
          "index": 3,
          "word": "sucht",
          "originalText": "sucht",
          "characterOffsetBegin": 10,
          "characterOffsetEnd": 15,
          "pos": "VVFIN",
          "before": " ",
          "after": " "
        },
        {
          "index": 4,
          "word": "die",
          "originalText": "die",
          "characterOffsetBegin": 16,
          "characterOffsetEnd": 19,
          "pos": "ART",
          "before": " ",
          "after": " "
        },
        {
          "index": 5,
          "word": "Polizei",
          "originalText": "Polizei",
          "characterOffsetBegin": 20,
          "characterOffsetEnd": 27,
          "pos": "NN",
          "before": " ",
          "after": " "
        },
        {
          "index": 6,
          "word": "nach",
          "originalText": "nach",
          "characterOffsetBegin": 28,
          "characterOffsetEnd": 32,
          "pos": "APPR",
          "before": " ",
          "after": " "
        },
        {
          "index": 7,
          "word": "einem",
          "originalText": "einem",
          "characterOffsetBegin": 33,
          "characterOffsetEnd": 38,
          "pos": "ART",
          "before": " ",
          "after": " "
        },
        {
          "index": 8,
          "word": "Verbrecher",
          "originalText": "Verbrecher",
          "characterOffsetBegin": 39,
          "characterOffsetEnd": 49,
          "pos": "NN",
          "before": " ",
          "after": ""
        },
        {
          "index": 9,
          "word": ",",
          "originalText": ",",
          "characterOffsetBegin": 49,
          "characterOffsetEnd": 50,
          "pos": "$,",
          "before": "",
          "after": " "
        },
        {
          "index": 10,
          "word": "schneide",
          "originalText": "schneide",
          "characterOffsetBegin": 51,
          "characterOffsetEnd": 59,
          "pos": "VVFIN",
          "before": " ",
          "after": " "
        },
        {
          "index": 11,
          "word": "die",
          "originalText": "die",
          "characterOffsetBegin": 60,
          "characterOffsetEnd": 63,
          "pos": "ART",
          "before": " ",
          "after": " "
        },
        {
          "index": 12,
          "word": "männlichen",
          "originalText": "männlichen",
          "characterOffsetBegin": 64,
          "characterOffsetEnd": 74,
          "pos": "ADJA",
          "before": " ",
          "after": " "
        },
        {
          "index": 13,
          "word": "Genitalien",
          "originalText": "Genitalien",
          "characterOffsetBegin": 75,
          "characterOffsetEnd": 85,
          "pos": "NN",
          "before": " ",
          "after": ""
        }
      ]
    }
  ]
}