{
  "sentences": [
    {
      "index": 0,
      "basicDependencies": [
        {
          "dep": "ROOT",
          "governor": 0,
          "governorGloss": "ROOT",
          "dependent": 6,
          "dependentGloss": "übernommen"
        },
        {
          "dep": "aux",
          "governor": 6,
          "governorGloss": "übernommen",
          "dependent": 1,
          "dependentGloss": "Hat"
        },
        {
          "dep": "det",
          "governor": 5,
          "governorGloss": "Nordkorea",
          "dependent": 2,
          "dependentGloss": "Kim"
        },
        {
          "dep": "case",
          "governor": 2,
          "governorGloss": "Kim",
          "dependent": 3,
          "dependentGloss": "'s"
        },
        {
          "dep": "name",
          "governor": 5,
          "governorGloss": "Nordkorea",
          "dependent": 4,
          "dependentGloss": "SISTER"
        },
        {
          "dep": "dobj",
          "governor": 6,
          "governorGloss": "übernommen",
          "dependent": 5,
          "dependentGloss": "Nordkorea"
        },
        {
          "dep": "punct",
          "governor": 6,
          "governorGloss": "übernommen",
          "dependent": 7,
          "dependentGloss": "?"
        }
      ],
      "enhancedDependencies": [
        {
          "dep": "ROOT",
          "governor": 0,
          "governorGloss": "ROOT",
          "dependent": 6,
          "dependentGloss": "übernommen"
        },
        {
          "dep": "aux",
          "governor": 6,
          "governorGloss": "übernommen",
          "dependent": 1,
          "dependentGloss": "Hat"
        },
        {
          "dep": "det",
          "governor": 5,
          "governorGloss": "Nordkorea",
          "dependent": 2,
          "dependentGloss": "Kim"
        },
        {
          "dep": "case",
          "governor": 2,
          "governorGloss": "Kim",
          "dependent": 3,
          "dependentGloss": "'s"
        },
        {
          "dep": "name",
          "governor": 5,
          "governorGloss": "Nordkorea",
          "dependent": 4,
          "dependentGloss": "SISTER"
        },
        {
          "dep": "dobj",
          "governor": 6,
          "governorGloss": "übernommen",
          "dependent": 5,
          "dependentGloss": "Nordkorea"
        },
        {
          "dep": "punct",
          "governor": 6,
          "governorGloss": "übernommen",
          "dependent": 7,
          "dependentGloss": "?"
        }
      ],
      "enhancedPlusPlusDependencies": [
        {
          "dep": "ROOT",
          "governor": 0,
          "governorGloss": "ROOT",
          "dependent": 6,
          "dependentGloss": "übernommen"
        },
        {
          "dep": "aux",
          "governor": 6,
          "governorGloss": "übernommen",
          "dependent": 1,
          "dependentGloss": "Hat"
        },
        {
          "dep": "det",
          "governor": 5,
          "governorGloss": "Nordkorea",
          "dependent": 2,
          "dependentGloss": "Kim"
        },
        {
          "dep": "case",
          "governor": 2,
          "governorGloss": "Kim",
          "dependent": 3,
          "dependentGloss": "'s"
        },
        {
          "dep": "name",
          "governor": 5,
          "governorGloss": "Nordkorea",
          "dependent": 4,
          "dependentGloss": "SISTER"
        },
        {
          "dep": "dobj",
          "governor": 6,
          "governorGloss": "übernommen",
          "dependent": 5,
          "dependentGloss": "Nordkorea"
        },
        {
          "dep": "punct",
          "governor": 6,
          "governorGloss": "übernommen",
          "dependent": 7,
          "dependentGloss": "?"
        }
      ],
      "tokens": [
        {
          "index": 1,
          "word": "Hat",
          "originalText": "Hat",
          "characterOffsetBegin": 0,
          "characterOffsetEnd": 3,
          "pos": "VAFIN",
          "before": "",
          "after": " "
        },
        {
          "index": 2,
          "word": "Kim",
          "originalText": "Kim",
          "characterOffsetBegin": 4,
          "characterOffsetEnd": 7,
          "pos": "NE",
          "before": " ",
          "after": ""
        },
        {
          "index": 3,
          "word": "'s",
          "originalText": "'s",
          "characterOffsetBegin": 7,
          "characterOffsetEnd": 9,
          "pos": "PPER",
          "before": "",
          "after": " "
        },
        {
          "index": 4,
          "word": "SISTER",
          "originalText": "SISTER",
          "characterOffsetBegin": 10,
          "characterOffsetEnd": 16,
          "pos": "NE",
          "before": " ",
          "after": " "
        },
        {
          "index": 5,
          "word": "Nordkorea",
          "originalText": "Nordkorea",
          "characterOffsetBegin": 17,
          "characterOffsetEnd": 26,
          "pos": "NE",
          "before": " ",
          "after": " "
        },
        {
          "index": 6,
          "word": "übernommen",
          "originalText": "übernommen",
          "characterOffsetBegin": 27,
          "characterOffsetEnd": 37,
          "pos": "VVPP",
          "before": " ",
          "after": ""
        },
        {
          "index": 7,
          "word": "?",
          "originalText": "?",
          "characterOffsetBegin": 37,
          "characterOffsetEnd": 38,
          "pos": "$.",
          "before": "",
          "after": " "
        }
      ]
    },
    {
      "index": 1,
      "basicDependencies": [
        {
          "dep": "ROOT",
          "governor": 0,
          "governorGloss": "ROOT",
          "dependent": 3,
          "dependentGloss": "zeigt"
        },
        {
          "dep": "det",
          "governor": 2,
          "governorGloss": "Diktator",
          "dependent": 1,
          "dependentGloss": "Der"
        },
        {
          "dep": "nsubj",
          "governor": 3,
          "governorGloss": "zeigt",
          "dependent": 2,
          "dependentGloss": "Diktator"
        },
        {
          "dep": "dobj",
          "governor": 3,
          "governorGloss": "zeigt",
          "dependent": 4,
          "dependentGloss": "sich"
        },
        {
          "dep": "neg",
          "governor": 3,
          "governorGloss": "zeigt",
          "dependent": 5,
          "dependentGloss": "nicht"
        },
        {
          "dep": "case",
          "governor": 10,
          "governorGloss": "Ereignis",
          "dependent": 6,
          "dependentGloss": "für"
        },
        {
          "dep": "det",
          "governor": 10,
          "governorGloss": "Ereignis",
          "dependent": 7,
          "dependentGloss": "das"
        },
        {
          "dep": "amod",
          "governor": 10,
          "governorGloss": "Ereignis",
          "dependent": 8,
          "dependentGloss": "kommunistische"
        },
        {
          "dep": "amod",
          "governor": 10,
          "governorGloss": "Ereignis",
          "dependent": 9,
          "dependentGloss": "kommunistische"
        },
        {
          "dep": "nmod",
          "governor": 3,
          "governorGloss": "zeigt",
          "dependent": 10,
          "dependentGloss": "Ereignis"
        },
        {
          "dep": "dobj",
          "governor": 3,
          "governorGloss": "zeigt",
          "dependent": 11,
          "dependentGloss": "-LRB-"
        },
        {
          "dep": "advmod",
          "governor": 3,
          "governorGloss": "zeigt",
          "dependent": 12,
          "dependentGloss": "aber"
        },
        {
          "dep": "expl",
          "governor": 14,
          "governorGloss": "gibt",
          "dependent": 13,
          "dependentGloss": "es"
        },
        {
          "dep": "conj",
          "governor": 3,
          "governorGloss": "zeigt",
          "dependent": 14,
          "dependentGloss": "gibt"
        },
        {
          "dep": "det",
          "governor": 17,
          "governorGloss": "Blumenkorb",
          "dependent": 15,
          "dependentGloss": "einen"
        },
        {
          "dep": "amod",
          "governor": 17,
          "governorGloss": "Blumenkorb",
          "dependent": 16,
          "dependentGloss": "schönen"
        },
        {
          "dep": "dobj",
          "governor": 19,
          "governorGloss": "-RRB-",
          "dependent": 17,
          "dependentGloss": "Blumenkorb"
        },
        {
          "dep": "advmod",
          "governor": 19,
          "governorGloss": "-RRB-",
          "dependent": 18,
          "dependentGloss": "stattdessen"
        },
        {
          "dep": "xcomp",
          "governor": 14,
          "governorGloss": "gibt",
          "dependent": 19,
          "dependentGloss": "-RRB-"
        }
      ],
      "enhancedDependencies": [
        {
          "dep": "ROOT",
          "governor": 0,
          "governorGloss": "ROOT",
          "dependent": 3,
          "dependentGloss": "zeigt"
        },
        {
          "dep": "det",
          "governor": 2,
          "governorGloss": "Diktator",
          "dependent": 1,
          "dependentGloss": "Der"
        },
        {
          "dep": "nsubj",
          "governor": 3,
          "governorGloss": "zeigt",
          "dependent": 2,
          "dependentGloss": "Diktator"
        },
        {
          "dep": "dobj",
          "governor": 3,
          "governorGloss": "zeigt",
          "dependent": 4,
          "dependentGloss": "sich"
        },
        {
          "dep": "neg",
          "governor": 3,
          "governorGloss": "zeigt",
          "dependent": 5,
          "dependentGloss": "nicht"
        },
        {
          "dep": "case",
          "governor": 10,
          "governorGloss": "Ereignis",
          "dependent": 6,
          "dependentGloss": "für"
        },
        {
          "dep": "det",
          "governor": 10,
          "governorGloss": "Ereignis",
          "dependent": 7,
          "dependentGloss": "das"
        },
        {
          "dep": "amod",
          "governor": 10,
          "governorGloss": "Ereignis",
          "dependent": 8,
          "dependentGloss": "kommunistische"
        },
        {
          "dep": "amod",
          "governor": 10,
          "governorGloss": "Ereignis",
          "dependent": 9,
          "dependentGloss": "kommunistische"
        },
        {
          "dep": "nmod",
          "governor": 3,
          "governorGloss": "zeigt",
          "dependent": 10,
          "dependentGloss": "Ereignis"
        },
        {
          "dep": "dobj",
          "governor": 3,
          "governorGloss": "zeigt",
          "dependent": 11,
          "dependentGloss": "-LRB-"
        },
        {
          "dep": "advmod",
          "governor": 3,
          "governorGloss": "zeigt",
          "dependent": 12,
          "dependentGloss": "aber"
        },
        {
          "dep": "expl",
          "governor": 14,
          "governorGloss": "gibt",
          "dependent": 13,
          "dependentGloss": "es"
        },
        {
          "dep": "conj",
          "governor": 3,
          "governorGloss": "zeigt",
          "dependent": 14,
          "dependentGloss": "gibt"
        },
        {
          "dep": "det",
          "governor": 17,
          "governorGloss": "Blumenkorb",
          "dependent": 15,
          "dependentGloss": "einen"
        },
        {
          "dep": "amod",
          "governor": 17,
          "governorGloss": "Blumenkorb",
          "dependent": 16,
          "dependentGloss": "schönen"
        },
        {
          "dep": "dobj",
          "governor": 19,
          "governorGloss": "-RRB-",
          "dependent": 17,
          "dependentGloss": "Blumenkorb"
        },
        {
          "dep": "advmod",
          "governor": 19,
          "governorGloss": "-RRB-",
          "dependent": 18,
          "dependentGloss": "stattdessen"
        },
        {
          "dep": "xcomp",
          "governor": 14,
          "governorGloss": "gibt",
          "dependent": 19,
          "dependentGloss": "-RRB-"
        }
      ],
      "enhancedPlusPlusDependencies": [
        {
          "dep": "ROOT",
          "governor": 0,
          "governorGloss": "ROOT",
          "dependent": 3,
          "dependentGloss": "zeigt"
        },
        {
          "dep": "det",
          "governor": 2,
          "governorGloss": "Diktator",
          "dependent": 1,
          "dependentGloss": "Der"
        },
        {
          "dep": "nsubj",
          "governor": 3,
          "governorGloss": "zeigt",
          "dependent": 2,
          "dependentGloss": "Diktator"
        },
        {
          "dep": "dobj",
          "governor": 3,
          "governorGloss": "zeigt",
          "dependent": 4,
          "dependentGloss": "sich"
        },
        {
          "dep": "neg",
          "governor": 3,
          "governorGloss": "zeigt",
          "dependent": 5,
          "dependentGloss": "nicht"
        },
        {
          "dep": "case",
          "governor": 10,
          "governorGloss": "Ereignis",
          "dependent": 6,
          "dependentGloss": "für"
        },
        {
          "dep": "det",
          "governor": 10,
          "governorGloss": "Ereignis",
          "dependent": 7,
          "dependentGloss": "das"
        },
        {
          "dep": "amod",
          "governor": 10,
          "governorGloss": "Ereignis",
          "dependent": 8,
          "dependentGloss": "kommunistische"
        },
        {
          "dep": "amod",
          "governor": 10,
          "governorGloss": "Ereignis",
          "dependent": 9,
          "dependentGloss": "kommunistische"
        },
        {
          "dep": "nmod",
          "governor": 3,
          "governorGloss": "zeigt",
          "dependent": 10,
          "dependentGloss": "Ereignis"
        },
        {
          "dep": "dobj",
          "governor": 3,
          "governorGloss": "zeigt",
          "dependent": 11,
          "dependentGloss": "-LRB-"
        },
        {
          "dep": "advmod",
          "governor": 3,
          "governorGloss": "zeigt",
          "dependent": 12,
          "dependentGloss": "aber"
        },
        {
          "dep": "expl",
          "governor": 14,
          "governorGloss": "gibt",
          "dependent": 13,
          "dependentGloss": "es"
        },
        {
          "dep": "conj",
          "governor": 3,
          "governorGloss": "zeigt",
          "dependent": 14,
          "dependentGloss": "gibt"
        },
        {
          "dep": "det",
          "governor": 17,
          "governorGloss": "Blumenkorb",
          "dependent": 15,
          "dependentGloss": "einen"
        },
        {
          "dep": "amod",
          "governor": 17,
          "governorGloss": "Blumenkorb",
          "dependent": 16,
          "dependentGloss": "schönen"
        },
        {
          "dep": "dobj",
          "governor": 19,
          "governorGloss": "-RRB-",
          "dependent": 17,
          "dependentGloss": "Blumenkorb"
        },
        {
          "dep": "advmod",
          "governor": 19,
          "governorGloss": "-RRB-",
          "dependent": 18,
          "dependentGloss": "stattdessen"
        },
        {
          "dep": "xcomp",
          "governor": 14,
          "governorGloss": "gibt",
          "dependent": 19,
          "dependentGloss": "-RRB-"
        }
      ],
      "tokens": [
        {
          "index": 1,
          "word": "Der",
          "originalText": "Der",
          "characterOffsetBegin": 39,
          "characterOffsetEnd": 42,
          "pos": "ART",
          "before": " ",
          "after": " "
        },
        {
          "index": 2,
          "word": "Diktator",
          "originalText": "Diktator",
          "characterOffsetBegin": 43,
          "characterOffsetEnd": 51,
          "pos": "NN",
          "before": " ",
          "after": " "
        },
        {
          "index": 3,
          "word": "zeigt",
          "originalText": "zeigt",
          "characterOffsetBegin": 52,
          "characterOffsetEnd": 57,
          "pos": "VVFIN",
          "before": " ",
          "after": " "
        },
        {
          "index": 4,
          "word": "sich",
          "originalText": "sich",
          "characterOffsetBegin": 58,
          "characterOffsetEnd": 62,
          "pos": "PRF",
          "before": " ",
          "after": " "
        },
        {
          "index": 5,
          "word": "nicht",
          "originalText": "nicht",
          "characterOffsetBegin": 63,
          "characterOffsetEnd": 68,
          "pos": "PTKNEG",
          "before": " ",
          "after": " "
        },
        {
          "index": 6,
          "word": "für",
          "originalText": "für",
          "characterOffsetBegin": 69,
          "characterOffsetEnd": 72,
          "pos": "APPR",
          "before": " ",
          "after": " "
        },
        {
          "index": 7,
          "word": "das",
          "originalText": "das",
          "characterOffsetBegin": 73,
          "characterOffsetEnd": 76,
          "pos": "ART",
          "before": " ",
          "after": " "
        },
        {
          "index": 8,
          "word": "kommunistische",
          "originalText": "kommunistische",
          "characterOffsetBegin": 77,
          "characterOffsetEnd": 91,
          "pos": "ADJA",
          "before": " ",
          "after": " "
        },
        {
          "index": 9,
          "word": "kommunistische",
          "originalText": "kommunistische",
          "characterOffsetBegin": 92,
          "characterOffsetEnd": 106,
          "pos": "ADJA",
          "before": " ",
          "after": " "
        },
        {
          "index": 10,
          "word": "Ereignis",
          "originalText": "Ereignis",
          "characterOffsetBegin": 107,
          "characterOffsetEnd": 115,
          "pos": "NN",
          "before": " ",
          "after": " "
        },
        {
          "index": 11,
          "word": "-LRB-",
          "originalText": "(",
          "characterOffsetBegin": 116,
          "characterOffsetEnd": 117,
          "pos": "TRUNC",
          "before": " ",
          "after": ""
        },
        {
          "index": 12,
          "word": "aber",
          "originalText": "aber",
          "characterOffsetBegin": 117,
          "characterOffsetEnd": 121,
          "pos": "KON",
          "before": "",
          "after": " "
        },
        {
          "index": 13,
          "word": "es",
          "originalText": "es",
          "characterOffsetBegin": 122,
          "characterOffsetEnd": 124,
          "pos": "PPER",
          "before": " ",
          "after": " "
        },
        {
          "index": 14,
          "word": "gibt",
          "originalText": "gibt",
          "characterOffsetBegin": 125,
          "characterOffsetEnd": 129,
          "pos": "VVFIN",
          "before": " ",
          "after": " "
        },
        {
          "index": 15,
          "word": "einen",
          "originalText": "einen",
          "characterOffsetBegin": 130,
          "characterOffsetEnd": 135,
          "pos": "ART",
          "before": " ",
          "after": " "
        },
        {
          "index": 16,
          "word": "schönen",
          "originalText": "schönen",
          "characterOffsetBegin": 136,
          "characterOffsetEnd": 143,
          "pos": "ADJA",
          "before": " ",
          "after": " "
        },
        {
          "index": 17,
          "word": "Blumenkorb",
          "originalText": "Blumenkorb",
          "characterOffsetBegin": 144,
          "characterOffsetEnd": 154,
          "pos": "NN",
          "before": " ",
          "after": " "
        },
        {
          "index": 18,
          "word": "stattdessen",
          "originalText": "stattdessen",
          "characterOffsetBegin": 155,
          "characterOffsetEnd": 166,
          "pos": "PROAV",
          "before": " ",
          "after": ""
        },
        {
          "index": 19,
          "word": "-RRB-",
          "originalText": ")",
          "characterOffsetBegin": 166,
          "characterOffsetEnd": 167,
          "pos": "TRUNC",
          "before": "",
          "after": ""
        }
      ]
    }
  ]
}