{
  "sentences": [
    {
      "index": 0,
      "basicDependencies": [
        {
          "dep": "ROOT",
          "governor": 0,
          "governorGloss": "ROOT",
          "dependent": 1,
          "dependentGloss": "BERICHT"
        },
        {
          "dep": "punct",
          "governor": 1,
          "governorGloss": "BERICHT",
          "dependent": 2,
          "dependentGloss": ":"
        },
        {
          "dep": "name",
          "governor": 4,
          "governorGloss": "STOLEN",
          "dependent": 3,
          "dependentGloss": "JETLINER"
        },
        {
          "dep": "appos",
          "governor": 1,
          "governorGloss": "BERICHT",
          "dependent": 4,
          "dependentGloss": "STOLEN"
        },
        {
          "dep": "appos",
          "governor": 4,
          "governorGloss": "STOLEN",
          "dependent": 5,
          "dependentGloss": "VON"
        },
        {
          "dep": "name",
          "governor": 7,
          "governorGloss": "KÖNNEN",
          "dependent": 6,
          "dependentGloss": "LIBYA"
        },
        {
          "dep": "appos",
          "governor": 5,
          "governorGloss": "VON",
          "dependent": 7,
          "dependentGloss": "KÖNNEN"
        },
        {
          "dep": "appos",
          "governor": 7,
          "governorGloss": "KÖNNEN",
          "dependent": 8,
          "dependentGloss": "NACH"
        },
        {
          "dep": "appos",
          "governor": 8,
          "governorGloss": "NACH",
          "dependent": 9,
          "dependentGloss": "ANHANG"
        },
        {
          "dep": "name",
          "governor": 11,
          "governorGloss": "AM",
          "dependent": 10,
          "dependentGloss": "U.S."
        },
        {
          "dep": "appos",
          "governor": 9,
          "governorGloss": "ANHANG",
          "dependent": 11,
          "dependentGloss": "AM"
        },
        {
          "dep": "amod",
          "governor": 13,
          "governorGloss": "VERWENDET",
          "dependent": 12,
          "dependentGloss": "9/11"
        },
        {
          "dep": "appos",
          "governor": 11,
          "governorGloss": "AM",
          "dependent": 13,
          "dependentGloss": "VERWENDET"
        },
        {
          "dep": "dep",
          "governor": 1,
          "governorGloss": "BERICHT",
          "dependent": 14,
          "dependentGloss": "WERDEN"
        }
      ],
      "enhancedDependencies": [
        {
          "dep": "ROOT",
          "governor": 0,
          "governorGloss": "ROOT",
          "dependent": 1,
          "dependentGloss": "BERICHT"
        },
        {
          "dep": "punct",
          "governor": 1,
          "governorGloss": "BERICHT",
          "dependent": 2,
          "dependentGloss": ":"
        },
        {
          "dep": "name",
          "governor": 4,
          "governorGloss": "STOLEN",
          "dependent": 3,
          "dependentGloss": "JETLINER"
        },
        {
          "dep": "appos",
          "governor": 1,
          "governorGloss": "BERICHT",
          "dependent": 4,
          "dependentGloss": "STOLEN"
        },
        {
          "dep": "appos",
          "governor": 4,
          "governorGloss": "STOLEN",
          "dependent": 5,
          "dependentGloss": "VON"
        },
        {
          "dep": "name",
          "governor": 7,
          "governorGloss": "KÖNNEN",
          "dependent": 6,
          "dependentGloss": "LIBYA"
        },
        {
          "dep": "appos",
          "governor": 5,
          "governorGloss": "VON",
          "dependent": 7,
          "dependentGloss": "KÖNNEN"
        },
        {
          "dep": "appos",
          "governor": 7,
          "governorGloss": "KÖNNEN",
          "dependent": 8,
          "dependentGloss": "NACH"
        },
        {
          "dep": "appos",
          "governor": 8,
          "governorGloss": "NACH",
          "dependent": 9,
          "dependentGloss": "ANHANG"
        },
        {
          "dep": "name",
          "governor": 11,
          "governorGloss": "AM",
          "dependent": 10,
          "dependentGloss": "U.S."
        },
        {
          "dep": "appos",
          "governor": 9,
          "governorGloss": "ANHANG",
          "dependent": 11,
          "dependentGloss": "AM"
        },
        {
          "dep": "amod",
          "governor": 13,
          "governorGloss": "VERWENDET",
          "dependent": 12,
          "dependentGloss": "9/11"
        },
        {
          "dep": "appos",
          "governor": 11,
          "governorGloss": "AM",
          "dependent": 13,
          "dependentGloss": "VERWENDET"
        },
        {
          "dep": "dep",
          "governor": 1,
          "governorGloss": "BERICHT",
          "dependent": 14,
          "dependentGloss": "WERDEN"
        }
      ],
      "enhancedPlusPlusDependencies": [
        {
          "dep": "ROOT",
          "governor": 0,
          "governorGloss": "ROOT",
          "dependent": 1,
          "dependentGloss": "BERICHT"
        },
        {
          "dep": "punct",
          "governor": 1,
          "governorGloss": "BERICHT",
          "dependent": 2,
          "dependentGloss": ":"
        },
        {
          "dep": "name",
          "governor": 4,
          "governorGloss": "STOLEN",
          "dependent": 3,
          "dependentGloss": "JETLINER"
        },
        {
          "dep": "appos",
          "governor": 1,
          "governorGloss": "BERICHT",
          "dependent": 4,
          "dependentGloss": "STOLEN"
        },
        {
          "dep": "appos",
          "governor": 4,
          "governorGloss": "STOLEN",
          "dependent": 5,
          "dependentGloss": "VON"
        },
        {
          "dep": "name",
          "governor": 7,
          "governorGloss": "KÖNNEN",
          "dependent": 6,
          "dependentGloss": "LIBYA"
        },
        {
          "dep": "appos",
          "governor": 5,
          "governorGloss": "VON",
          "dependent": 7,
          "dependentGloss": "KÖNNEN"
        },
        {
          "dep": "appos",
          "governor": 7,
          "governorGloss": "KÖNNEN",
          "dependent": 8,
          "dependentGloss": "NACH"
        },
        {
          "dep": "appos",
          "governor": 8,
          "governorGloss": "NACH",
          "dependent": 9,
          "dependentGloss": "ANHANG"
        },
        {
          "dep": "name",
          "governor": 11,
          "governorGloss": "AM",
          "dependent": 10,
          "dependentGloss": "U.S."
        },
        {
          "dep": "appos",
          "governor": 9,
          "governorGloss": "ANHANG",
          "dependent": 11,
          "dependentGloss": "AM"
        },
        {
          "dep": "amod",
          "governor": 13,
          "governorGloss": "VERWENDET",
          "dependent": 12,
          "dependentGloss": "9/11"
        },
        {
          "dep": "appos",
          "governor": 11,
          "governorGloss": "AM",
          "dependent": 13,
          "dependentGloss": "VERWENDET"
        },
        {
          "dep": "dep",
          "governor": 1,
          "governorGloss": "BERICHT",
          "dependent": 14,
          "dependentGloss": "WERDEN"
        }
      ],
      "tokens": [
        {
          "index": 1,
          "word": "BERICHT",
          "originalText": "BERICHT",
          "characterOffsetBegin": 0,
          "characterOffsetEnd": 7,
          "pos": "NN",
          "before": "",
          "after": ""
        },
        {
          "index": 2,
          "word": ":",
          "originalText": ":",
          "characterOffsetBegin": 7,
          "characterOffsetEnd": 8,
          "pos": "$.",
          "before": "",
          "after": " "
        },
        {
          "index": 3,
          "word": "JETLINER",
          "originalText": "JETLINER",
          "characterOffsetBegin": 9,
          "characterOffsetEnd": 17,
          "pos": "NE",
          "before": " ",
          "after": " "
        },
        {
          "index": 4,
          "word": "STOLEN",
          "originalText": "STOLEN",
          "characterOffsetBegin": 18,
          "characterOffsetEnd": 24,
          "pos": "NE",
          "before": " ",
          "after": " "
        },
        {
          "index": 5,
          "word": "VON",
          "originalText": "VON",
          "characterOffsetBegin": 25,
          "characterOffsetEnd": 28,
          "pos": "APPR",
          "before": " ",
          "after": " "
        },
        {
          "index": 6,
          "word": "LIBYA",
          "originalText": "LIBYA",
          "characterOffsetBegin": 29,
          "characterOffsetEnd": 34,
          "pos": "NE",
          "before": " ",
          "after": " "
        },
        {
          "index": 7,
          "word": "KÖNNEN",
          "originalText": "KÖNNEN",
          "characterOffsetBegin": 35,
          "characterOffsetEnd": 41,
          "pos": "NE",
          "before": " ",
          "after": " "
        },
        {
          "index": 8,
          "word": "NACH",
          "originalText": "NACH",
          "characterOffsetBegin": 42,
          "characterOffsetEnd": 46,
          "pos": "NE",
          "before": " ",
          "after": " "
        },
        {
          "index": 9,
          "word": "ANHANG",
          "originalText": "ANHANG",
          "characterOffsetBegin": 47,
          "characterOffsetEnd": 53,
          "pos": "NE",
          "before": " ",
          "after": " "
        },
        {
          "index": 10,
          "word": "U.S.",
          "originalText": "U.S.",
          "characterOffsetBegin": 54,
          "characterOffsetEnd": 58,
          "pos": "NE",
          "before": " ",
          "after": " "
        },
        {
          "index": 11,
          "word": "AM",
          "originalText": "AM",
          "characterOffsetBegin": 59,
          "characterOffsetEnd": 61,
          "pos": "NE",
          "before": " ",
          "after": " "
        },
        {
          "index": 12,
          "word": "9/11",
          "originalText": "9/11",
          "characterOffsetBegin": 62,
          "characterOffsetEnd": 66,
          "pos": "CARD",
          "before": " ",
          "after": " "
        },
        {
          "index": 13,
          "word": "VERWENDET",
          "originalText": "VERWENDET",
          "characterOffsetBegin": 67,
          "characterOffsetEnd": 76,
          "pos": "NN",
          "before": " ",
          "after": " "
        },
        {
          "index": 14,
          "word": "WERDEN",
          "originalText": "WERDEN",
          "characterOffsetBegin": 77,
          "characterOffsetEnd": 83,
          "pos": "NN",
          "before": " ",
          "after": ""
        }
      ]
    }
  ]
}