{
  "sentences": [
    {
      "index": 0,
      "basicDependencies": [
        {
          "dep": "ROOT",
          "governor": 0,
          "governorGloss": "ROOT",
          "dependent": 2,
          "dependentGloss": "gibt"
        },
        {
          "dep": "nsubj",
          "governor": 2,
          "governorGloss": "gibt",
          "dependent": 1,
          "dependentGloss": "Saudi-Kleriker"
        },
        {
          "dep": "dobj",
          "governor": 2,
          "governorGloss": "gibt",
          "dependent": 3,
          "dependentGloss": "Fatwa"
        },
        {
          "dep": "case",
          "governor": 5,
          "governorGloss": "Schneemänner",
          "dependent": 4,
          "dependentGloss": "auf"
        },
        {
          "dep": "nmod",
          "governor": 2,
          "governorGloss": "gibt",
          "dependent": 5,
          "dependentGloss": "Schneemänner"
        }
      ],
      "enhancedDependencies": [
        {
          "dep": "ROOT",
          "governor": 0,
          "governorGloss": "ROOT",
          "dependent": 2,
          "dependentGloss": "gibt"
        },
        {
          "dep": "nsubj",
          "governor": 2,
          "governorGloss": "gibt",
          "dependent": 1,
          "dependentGloss": "Saudi-Kleriker"
        },
        {
          "dep": "dobj",
          "governor": 2,
          "governorGloss": "gibt",
          "dependent": 3,
          "dependentGloss": "Fatwa"
        },
        {
          "dep": "case",
          "governor": 5,
          "governorGloss": "Schneemänner",
          "dependent": 4,
          "dependentGloss": "auf"
        },
        {
          "dep": "nmod",
          "governor": 2,
          "governorGloss": "gibt",
          "dependent": 5,
          "dependentGloss": "Schneemänner"
        }
      ],
      "enhancedPlusPlusDependencies": [
        {
          "dep": "ROOT",
          "governor": 0,
          "governorGloss": "ROOT",
          "dependent": 2,
          "dependentGloss": "gibt"
        },
        {
          "dep": "nsubj",
          "governor": 2,
          "governorGloss": "gibt",
          "dependent": 1,
          "dependentGloss": "Saudi-Kleriker"
        },
        {
          "dep": "dobj",
          "governor": 2,
          "governorGloss": "gibt",
          "dependent": 3,
          "dependentGloss": "Fatwa"
        },
        {
          "dep": "case",
          "governor": 5,
          "governorGloss": "Schneemänner",
          "dependent": 4,
          "dependentGloss": "auf"
        },
        {
          "dep": "nmod",
          "governor": 2,
          "governorGloss": "gibt",
          "dependent": 5,
          "dependentGloss": "Schneemänner"
        }
      ],
      "tokens": [
        {
          "index": 1,
          "word": "Saudi-Kleriker",
          "originalText": "Saudi-Kleriker",
          "characterOffsetBegin": 0,
          "characterOffsetEnd": 14,
          "pos": "NN",
          "before": "",
          "after": " "
        },
        {
          "index": 2,
          "word": "gibt",
          "originalText": "gibt",
          "characterOffsetBegin": 15,
          "characterOffsetEnd": 19,
          "pos": "VVFIN",
          "before": " ",
          "after": " "
        },
        {
          "index": 3,
          "word": "Fatwa",
          "originalText": "Fatwa",
          "characterOffsetBegin": 20,
          "characterOffsetEnd": 25,
          "pos": "NE",
          "before": " ",
          "after": " "
        },
        {
          "index": 4,
          "word": "auf",
          "originalText": "auf",
          "characterOffsetBegin": 26,
          "characterOffsetEnd": 29,
          "pos": "APPR",
          "before": " ",
          "after": " "
        },
        {
          "index": 5,
          "word": "Schneemänner",
          "originalText": "Schneemänner",
          "characterOffsetBegin": 30,
          "characterOffsetEnd": 42,
          "pos": "NN",
          "before": " ",
          "after": ""
        }
      ]
    }
  ]
}