{
  "sentences": [
    {
      "index": 0,
      "basicDependencies": [
        {
          "dep": "ROOT",
          "governor": 0,
          "governorGloss": "ROOT",
          "dependent": 4,
          "dependentGloss": "vermisst"
        },
        {
          "dep": "dep",
          "governor": 4,
          "governorGloss": "vermisst",
          "dependent": 1,
          "dependentGloss": "N"
        },
        {
          "dep": "amod",
          "governor": 4,
          "governorGloss": "vermisst",
          "dependent": 2,
          "dependentGloss": "koreanischer"
        },
        {
          "dep": "amod",
          "governor": 4,
          "governorGloss": "vermisst",
          "dependent": 3,
          "dependentGloss": "Führer"
        },
        {
          "dep": "amod",
          "governor": 6,
          "governorGloss": "Ritual",
          "dependent": 5,
          "dependentGloss": "jährliches"
        },
        {
          "dep": "nsubj",
          "governor": 4,
          "governorGloss": "vermisst",
          "dependent": 6,
          "dependentGloss": "Ritual"
        },
        {
          "dep": "punct",
          "governor": 6,
          "governorGloss": "Ritual",
          "dependent": 7,
          "dependentGloss": ";"
        },
        {
          "dep": "appos",
          "governor": 6,
          "governorGloss": "Ritual",
          "dependent": 8,
          "dependentGloss": "Schwester"
        },
        {
          "dep": "punct",
          "governor": 10,
          "governorGloss": "übernimmt",
          "dependent": 9,
          "dependentGloss": "``"
        },
        {
          "dep": "root",
          "governor": 8,
          "governorGloss": "Schwester",
          "dependent": 10,
          "dependentGloss": "übernimmt"
        },
        {
          "dep": "punct",
          "governor": 10,
          "governorGloss": "übernimmt",
          "dependent": 11,
          "dependentGloss": "``"
        }
      ],
      "enhancedDependencies": [
        {
          "dep": "ROOT",
          "governor": 0,
          "governorGloss": "ROOT",
          "dependent": 4,
          "dependentGloss": "vermisst"
        },
        {
          "dep": "dep",
          "governor": 4,
          "governorGloss": "vermisst",
          "dependent": 1,
          "dependentGloss": "N"
        },
        {
          "dep": "amod",
          "governor": 4,
          "governorGloss": "vermisst",
          "dependent": 2,
          "dependentGloss": "koreanischer"
        },
        {
          "dep": "amod",
          "governor": 4,
          "governorGloss": "vermisst",
          "dependent": 3,
          "dependentGloss": "Führer"
        },
        {
          "dep": "amod",
          "governor": 6,
          "governorGloss": "Ritual",
          "dependent": 5,
          "dependentGloss": "jährliches"
        },
        {
          "dep": "nsubj",
          "governor": 4,
          "governorGloss": "vermisst",
          "dependent": 6,
          "dependentGloss": "Ritual"
        },
        {
          "dep": "punct",
          "governor": 6,
          "governorGloss": "Ritual",
          "dependent": 7,
          "dependentGloss": ";"
        },
        {
          "dep": "appos",
          "governor": 6,
          "governorGloss": "Ritual",
          "dependent": 8,
          "dependentGloss": "Schwester"
        },
        {
          "dep": "punct",
          "governor": 10,
          "governorGloss": "übernimmt",
          "dependent": 9,
          "dependentGloss": "``"
        },
        {
          "dep": "root",
          "governor": 8,
          "governorGloss": "Schwester",
          "dependent": 10,
          "dependentGloss": "übernimmt"
        },
        {
          "dep": "punct",
          "governor": 10,
          "governorGloss": "übernimmt",
          "dependent": 11,
          "dependentGloss": "``"
        }
      ],
      "enhancedPlusPlusDependencies": [
        {
          "dep": "ROOT",
          "governor": 0,
          "governorGloss": "ROOT",
          "dependent": 4,
          "dependentGloss": "vermisst"
        },
        {
          "dep": "dep",
          "governor": 4,
          "governorGloss": "vermisst",
          "dependent": 1,
          "dependentGloss": "N"
        },
        {
          "dep": "amod",
          "governor": 4,
          "governorGloss": "vermisst",
          "dependent": 2,
          "dependentGloss": "koreanischer"
        },
        {
          "dep": "amod",
          "governor": 4,
          "governorGloss": "vermisst",
          "dependent": 3,
          "dependentGloss": "Führer"
        },
        {
          "dep": "amod",
          "governor": 6,
          "governorGloss": "Ritual",
          "dependent": 5,
          "dependentGloss": "jährliches"
        },
        {
          "dep": "nsubj",
          "governor": 4,
          "governorGloss": "vermisst",
          "dependent": 6,
          "dependentGloss": "Ritual"
        },
        {
          "dep": "punct",
          "governor": 6,
          "governorGloss": "Ritual",
          "dependent": 7,
          "dependentGloss": ";"
        },
        {
          "dep": "appos",
          "governor": 6,
          "governorGloss": "Ritual",
          "dependent": 8,
          "dependentGloss": "Schwester"
        },
        {
          "dep": "punct",
          "governor": 10,
          "governorGloss": "übernimmt",
          "dependent": 9,
          "dependentGloss": "``"
        },
        {
          "dep": "root",
          "governor": 8,
          "governorGloss": "Schwester",
          "dependent": 10,
          "dependentGloss": "übernimmt"
        },
        {
          "dep": "punct",
          "governor": 10,
          "governorGloss": "übernimmt",
          "dependent": 11,
          "dependentGloss": "``"
        }
      ],
      "tokens": [
        {
          "index": 1,
          "word": "N",
          "originalText": "N",
          "characterOffsetBegin": 0,
          "characterOffsetEnd": 1,
          "pos": "NN",
          "before": "",
          "after": " "
        },
        {
          "index": 2,
          "word": "koreanischer",
          "originalText": "koreanischer",
          "characterOffsetBegin": 2,
          "characterOffsetEnd": 14,
          "pos": "ADJA",
          "before": " ",
          "after": " "
        },
        {
          "index": 3,
          "word": "Führer",
          "originalText": "Führer",
          "characterOffsetBegin": 15,
          "characterOffsetEnd": 21,
          "pos": "NN",
          "before": " ",
          "after": " "
        },
        {
          "index": 4,
          "word": "vermisst",
          "originalText": "vermisst",
          "characterOffsetBegin": 22,
          "characterOffsetEnd": 30,
          "pos": "VVFIN",
          "before": " ",
          "after": " "
        },
        {
          "index": 5,
          "word": "jährliches",
          "originalText": "jährliches",
          "characterOffsetBegin": 31,
          "characterOffsetEnd": 41,
          "pos": "ADJA",
          "before": " ",
          "after": " "
        },
        {
          "index": 6,
          "word": "Ritual",
          "originalText": "Ritual",
          "characterOffsetBegin": 42,
          "characterOffsetEnd": 48,
          "pos": "NN",
          "before": " ",
          "after": ""
        },
        {
          "index": 7,
          "word": ";",
          "originalText": ";",
          "characterOffsetBegin": 48,
          "characterOffsetEnd": 49,
          "pos": "$.",
          "before": "",
          "after": " "
        },
        {
          "index": 8,
          "word": "Schwester",
          "originalText": "Schwester",
          "characterOffsetBegin": 50,
          "characterOffsetEnd": 59,
          "pos": "NN",
          "before": " ",
          "after": " "
        },
        {
          "index": 9,
          "word": "``",
          "originalText": "“",
          "characterOffsetBegin": 60,
          "characterOffsetEnd": 61,
          "pos": "CARD",
          "before": " ",
          "after": ""
        },
        {
          "index": 10,
          "word": "übernimmt",
          "originalText": "übernimmt",
          "characterOffsetBegin": 61,
          "characterOffsetEnd": 70,
          "pos": "VVFIN",
          "before": "",
          "after": ""
        },
        {
          "index": 11,
          "word": "``",
          "originalText": "“",
          "characterOffsetBegin": 70,
          "characterOffsetEnd": 71,
          "pos": "XY",
          "before": "",
          "after": ""
        }
      ]
    }
  ]
}