{
  "sentences": [
    {
      "index": 0,
      "basicDependencies": [
        {
          "dep": "ROOT",
          "governor": 0,
          "governorGloss": "ROOT",
          "dependent": 6,
          "dependentGloss": "Macklemore"
        },
        {
          "dep": "dobj",
          "governor": 6,
          "governorGloss": "Macklemore",
          "dependent": 1,
          "dependentGloss": "Leute"
        },
        {
          "dep": "case",
          "governor": 4,
          "governorGloss": "Denken",
          "dependent": 2,
          "dependentGloss": "auf"
        },
        {
          "dep": "amod",
          "governor": 4,
          "governorGloss": "Denken",
          "dependent": 3,
          "dependentGloss": "Twitter"
        },
        {
          "dep": "nmod",
          "governor": 1,
          "governorGloss": "Leute",
          "dependent": 4,
          "dependentGloss": "Denken"
        },
        {
          "dep": "nsubj",
          "governor": 6,
          "governorGloss": "Macklemore",
          "dependent": 5,
          "dependentGloss": "Sie"
        },
        {
          "dep": "aux",
          "governor": 6,
          "governorGloss": "Macklemore",
          "dependent": 7,
          "dependentGloss": "hat"
        },
        {
          "dep": "dobj",
          "governor": 10,
          "governorGloss": "angeschlossen",
          "dependent": 8,
          "dependentGloss": "sich"
        },
        {
          "dep": "nmod",
          "governor": 10,
          "governorGloss": "angeschlossen",
          "dependent": 9,
          "dependentGloss": "ISIS"
        },
        {
          "dep": "xcomp",
          "governor": 6,
          "governorGloss": "Macklemore",
          "dependent": 10,
          "dependentGloss": "angeschlossen"
        }
      ],
      "enhancedDependencies": [
        {
          "dep": "ROOT",
          "governor": 0,
          "governorGloss": "ROOT",
          "dependent": 6,
          "dependentGloss": "Macklemore"
        },
        {
          "dep": "dobj",
          "governor": 6,
          "governorGloss": "Macklemore",
          "dependent": 1,
          "dependentGloss": "Leute"
        },
        {
          "dep": "case",
          "governor": 4,
          "governorGloss": "Denken",
          "dependent": 2,
          "dependentGloss": "auf"
        },
        {
          "dep": "amod",
          "governor": 4,
          "governorGloss": "Denken",
          "dependent": 3,
          "dependentGloss": "Twitter"
        },
        {
          "dep": "nmod",
          "governor": 1,
          "governorGloss": "Leute",
          "dependent": 4,
          "dependentGloss": "Denken"
        },
        {
          "dep": "nsubj",
          "governor": 6,
          "governorGloss": "Macklemore",
          "dependent": 5,
          "dependentGloss": "Sie"
        },
        {
          "dep": "aux",
          "governor": 6,
          "governorGloss": "Macklemore",
          "dependent": 7,
          "dependentGloss": "hat"
        },
        {
          "dep": "dobj",
          "governor": 10,
          "governorGloss": "angeschlossen",
          "dependent": 8,
          "dependentGloss": "sich"
        },
        {
          "dep": "nmod",
          "governor": 10,
          "governorGloss": "angeschlossen",
          "dependent": 9,
          "dependentGloss": "ISIS"
        },
        {
          "dep": "xcomp",
          "governor": 6,
          "governorGloss": "Macklemore",
          "dependent": 10,
          "dependentGloss": "angeschlossen"
        }
      ],
      "enhancedPlusPlusDependencies": [
        {
          "dep": "ROOT",
          "governor": 0,
          "governorGloss": "ROOT",
          "dependent": 6,
          "dependentGloss": "Macklemore"
        },
        {
          "dep": "dobj",
          "governor": 6,
          "governorGloss": "Macklemore",
          "dependent": 1,
          "dependentGloss": "Leute"
        },
        {
          "dep": "case",
          "governor": 4,
          "governorGloss": "Denken",
          "dependent": 2,
          "dependentGloss": "auf"
        },
        {
          "dep": "amod",
          "governor": 4,
          "governorGloss": "Denken",
          "dependent": 3,
          "dependentGloss": "Twitter"
        },
        {
          "dep": "nmod",
          "governor": 1,
          "governorGloss": "Leute",
          "dependent": 4,
          "dependentGloss": "Denken"
        },
        {
          "dep": "nsubj",
          "governor": 6,
          "governorGloss": "Macklemore",
          "dependent": 5,
          "dependentGloss": "Sie"
        },
        {
          "dep": "aux",
          "governor": 6,
          "governorGloss": "Macklemore",
          "dependent": 7,
          "dependentGloss": "hat"
        },
        {
          "dep": "dobj",
          "governor": 10,
          "governorGloss": "angeschlossen",
          "dependent": 8,
          "dependentGloss": "sich"
        },
        {
          "dep": "nmod",
          "governor": 10,
          "governorGloss": "angeschlossen",
          "dependent": 9,
          "dependentGloss": "ISIS"
        },
        {
          "dep": "xcomp",
          "governor": 6,
          "governorGloss": "Macklemore",
          "dependent": 10,
          "dependentGloss": "angeschlossen"
        }
      ],
      "tokens": [
        {
          "index": 1,
          "word": "Leute",
          "originalText": "Leute",
          "characterOffsetBegin": 0,
          "characterOffsetEnd": 5,
          "pos": "NN",
          "before": "",
          "after": " "
        },
        {
          "index": 2,
          "word": "auf",
          "originalText": "auf",
          "characterOffsetBegin": 6,
          "characterOffsetEnd": 9,
          "pos": "APPR",
          "before": " ",
          "after": " "
        },
        {
          "index": 3,
          "word": "Twitter",
          "originalText": "Twitter",
          "characterOffsetBegin": 10,
          "characterOffsetEnd": 17,
          "pos": "ADJA",
          "before": " ",
          "after": " "
        },
        {
          "index": 4,
          "word": "Denken",
          "originalText": "Denken",
          "characterOffsetBegin": 18,
          "characterOffsetEnd": 24,
          "pos": "NN",
          "before": " ",
          "after": " "
        },
        {
          "index": 5,
          "word": "Sie",
          "originalText": "Sie",
          "characterOffsetBegin": 25,
          "characterOffsetEnd": 28,
          "pos": "PPER",
          "before": " ",
          "after": " "
        },
        {
          "index": 6,
          "word": "Macklemore",
          "originalText": "Macklemore",
          "characterOffsetBegin": 29,
          "characterOffsetEnd": 39,
          "pos": "NN",
          "before": " ",
          "after": " "
        },
        {
          "index": 7,
          "word": "hat",
          "originalText": "hat",
          "characterOffsetBegin": 40,
          "characterOffsetEnd": 43,
          "pos": "VAFIN",
          "before": " ",
          "after": " "
        },
        {
          "index": 8,
          "word": "sich",
          "originalText": "sich",
          "characterOffsetBegin": 44,
          "characterOffsetEnd": 48,
          "pos": "PRF",
          "before": " ",
          "after": " "
        },
        {
          "index": 9,
          "word": "ISIS",
          "originalText": "ISIS",
          "characterOffsetBegin": 49,
          "characterOffsetEnd": 53,
          "pos": "NE",
          "before": " ",
          "after": " "
        },
        {
          "index": 10,
          "word": "angeschlossen",
          "originalText": "angeschlossen",
          "characterOffsetBegin": 54,
          "characterOffsetEnd": 67,
          "pos": "VVPP",
          "before": " ",
          "after": ""
        }
      ]
    }
  ]
}