{
  "sentences": [
    {
      "index": 0,
      "basicDependencies": [
        {
          "dep": "ROOT",
          "governor": 0,
          "governorGloss": "ROOT",
          "dependent": 3,
          "dependentGloss": "Schuss"
        },
        {
          "dep": "name",
          "governor": 2,
          "governorGloss": "Canseco",
          "dependent": 1,
          "dependentGloss": "Jose"
        },
        {
          "dep": "nsubj",
          "governor": 3,
          "governorGloss": "Schuss",
          "dependent": 2,
          "dependentGloss": "Canseco"
        },
        {
          "dep": "case",
          "governor": 6,
          "governorGloss": "Hand",
          "dependent": 4,
          "dependentGloss": "in"
        },
        {
          "dep": "det",
          "governor": 6,
          "governorGloss": "Hand",
          "dependent": 5,
          "dependentGloss": "der"
        },
        {
          "dep": "nmod",
          "governor": 3,
          "governorGloss": "Schuss",
          "dependent": 6,
          "dependentGloss": "Hand"
        },
        {
          "dep": "amod",
          "governor": 8,
          "governorGloss": "versehentlichen",
          "dependent": 7,
          "dependentGloss": "beim"
        },
        {
          "dep": "dobj",
          "governor": 3,
          "governorGloss": "Schuss",
          "dependent": 8,
          "dependentGloss": "versehentlichen"
        },
        {
          "dep": "appos",
          "governor": 8,
          "governorGloss": "versehentlichen",
          "dependent": 9,
          "dependentGloss": "Schießen"
        },
        {
          "dep": "case",
          "governor": 11,
          "governorGloss": "Vegas",
          "dependent": 10,
          "dependentGloss": "auf"
        },
        {
          "dep": "nmod",
          "governor": 9,
          "governorGloss": "Schießen",
          "dependent": 11,
          "dependentGloss": "Vegas"
        },
        {
          "dep": "dep",
          "governor": 3,
          "governorGloss": "Schuss",
          "dependent": 12,
          "dependentGloss": "Home"
        }
      ],
      "enhancedDependencies": [
        {
          "dep": "ROOT",
          "governor": 0,
          "governorGloss": "ROOT",
          "dependent": 3,
          "dependentGloss": "Schuss"
        },
        {
          "dep": "name",
          "governor": 2,
          "governorGloss": "Canseco",
          "dependent": 1,
          "dependentGloss": "Jose"
        },
        {
          "dep": "nsubj",
          "governor": 3,
          "governorGloss": "Schuss",
          "dependent": 2,
          "dependentGloss": "Canseco"
        },
        {
          "dep": "case",
          "governor": 6,
          "governorGloss": "Hand",
          "dependent": 4,
          "dependentGloss": "in"
        },
        {
          "dep": "det",
          "governor": 6,
          "governorGloss": "Hand",
          "dependent": 5,
          "dependentGloss": "der"
        },
        {
          "dep": "nmod",
          "governor": 3,
          "governorGloss": "Schuss",
          "dependent": 6,
          "dependentGloss": "Hand"
        },
        {
          "dep": "amod",
          "governor": 8,
          "governorGloss": "versehentlichen",
          "dependent": 7,
          "dependentGloss": "beim"
        },
        {
          "dep": "dobj",
          "governor": 3,
          "governorGloss": "Schuss",
          "dependent": 8,
          "dependentGloss": "versehentlichen"
        },
        {
          "dep": "appos",
          "governor": 8,
          "governorGloss": "versehentlichen",
          "dependent": 9,
          "dependentGloss": "Schießen"
        },
        {
          "dep": "case",
          "governor": 11,
          "governorGloss": "Vegas",
          "dependent": 10,
          "dependentGloss": "auf"
        },
        {
          "dep": "nmod",
          "governor": 9,
          "governorGloss": "Schießen",
          "dependent": 11,
          "dependentGloss": "Vegas"
        },
        {
          "dep": "dep",
          "governor": 3,
          "governorGloss": "Schuss",
          "dependent": 12,
          "dependentGloss": "Home"
        }
      ],
      "enhancedPlusPlusDependencies": [
        {
          "dep": "ROOT",
          "governor": 0,
          "governorGloss": "ROOT",
          "dependent": 3,
          "dependentGloss": "Schuss"
        },
        {
          "dep": "name",
          "governor": 2,
          "governorGloss": "Canseco",
          "dependent": 1,
          "dependentGloss": "Jose"
        },
        {
          "dep": "nsubj",
          "governor": 3,
          "governorGloss": "Schuss",
          "dependent": 2,
          "dependentGloss": "Canseco"
        },
        {
          "dep": "case",
          "governor": 6,
          "governorGloss": "Hand",
          "dependent": 4,
          "dependentGloss": "in"
        },
        {
          "dep": "det",
          "governor": 6,
          "governorGloss": "Hand",
          "dependent": 5,
          "dependentGloss": "der"
        },
        {
          "dep": "nmod",
          "governor": 3,
          "governorGloss": "Schuss",
          "dependent": 6,
          "dependentGloss": "Hand"
        },
        {
          "dep": "amod",
          "governor": 8,
          "governorGloss": "versehentlichen",
          "dependent": 7,
          "dependentGloss": "beim"
        },
        {
          "dep": "dobj",
          "governor": 3,
          "governorGloss": "Schuss",
          "dependent": 8,
          "dependentGloss": "versehentlichen"
        },
        {
          "dep": "appos",
          "governor": 8,
          "governorGloss": "versehentlichen",
          "dependent": 9,
          "dependentGloss": "Schießen"
        },
        {
          "dep": "case",
          "governor": 11,
          "governorGloss": "Vegas",
          "dependent": 10,
          "dependentGloss": "auf"
        },
        {
          "dep": "nmod",
          "governor": 9,
          "governorGloss": "Schießen",
          "dependent": 11,
          "dependentGloss": "Vegas"
        },
        {
          "dep": "dep",
          "governor": 3,
          "governorGloss": "Schuss",
          "dependent": 12,
          "dependentGloss": "Home"
        }
      ],
      "tokens": [
        {
          "index": 1,
          "word": "Jose",
          "originalText": "Jose",
          "characterOffsetBegin": 0,
          "characterOffsetEnd": 4,
          "pos": "NE",
          "before": "",
          "after": " "
        },
        {
          "index": 2,
          "word": "Canseco",
          "originalText": "Canseco",
          "characterOffsetBegin": 5,
          "characterOffsetEnd": 12,
          "pos": "NE",
          "before": " ",
          "after": " "
        },
        {
          "index": 3,
          "word": "Schuss",
          "originalText": "Schuss",
          "characterOffsetBegin": 13,
          "characterOffsetEnd": 19,
          "pos": "NE",
          "before": " ",
          "after": " "
        },
        {
          "index": 4,
          "word": "in",
          "originalText": "in",
          "characterOffsetBegin": 20,
          "characterOffsetEnd": 22,
          "pos": "APPR",
          "before": " ",
          "after": " "
        },
        {
          "index": 5,
          "word": "der",
          "originalText": "der",
          "characterOffsetBegin": 23,
          "characterOffsetEnd": 26,
          "pos": "ART",
          "before": " ",
          "after": " "
        },
        {
          "index": 6,
          "word": "Hand",
          "originalText": "Hand",
          "characterOffsetBegin": 27,
          "characterOffsetEnd": 31,
          "pos": "NN",
          "before": " ",
          "after": " "
        },
        {
          "index": 7,
          "word": "beim",
          "originalText": "beim",
          "characterOffsetBegin": 32,
          "characterOffsetEnd": 36,
          "pos": "APPRART",
          "before": " ",
          "after": " "
        },
        {
          "index": 8,
          "word": "versehentlichen",
          "originalText": "versehentlichen",
          "characterOffsetBegin": 37,
          "characterOffsetEnd": 52,
          "pos": "ADJA",
          "before": " ",
          "after": " "
        },
        {
          "index": 9,
          "word": "Schießen",
          "originalText": "Schießen",
          "characterOffsetBegin": 53,
          "characterOffsetEnd": 61,
          "pos": "VVINF",
          "before": " ",
          "after": " "
        },
        {
          "index": 10,
          "word": "auf",
          "originalText": "auf",
          "characterOffsetBegin": 62,
          "characterOffsetEnd": 65,
          "pos": "APPR",
          "before": " ",
          "after": " "
        },
        {
          "index": 11,
          "word": "Vegas",
          "originalText": "Vegas",
          "characterOffsetBegin": 66,
          "characterOffsetEnd": 71,
          "pos": "NE",
          "before": " ",
          "after": " "
        },
        {
          "index": 12,
          "word": "Home",
          "originalText": "Home",
          "characterOffsetBegin": 72,
          "characterOffsetEnd": 76,
          "pos": "NE",
          "before": " ",
          "after": ""
        }
      ]
    }
  ]
}