{
  "sentences": [
    {
      "index": 0,
      "basicDependencies": [
        {
          "dep": "ROOT",
          "governor": 0,
          "governorGloss": "ROOT",
          "dependent": 2,
          "dependentGloss": "Jinny"
        },
        {
          "dep": "name",
          "governor": 2,
          "governorGloss": "Jinny",
          "dependent": 1,
          "dependentGloss": "L."
        },
        {
          "dep": "punct",
          "governor": 2,
          "governorGloss": "Jinny",
          "dependent": 3,
          "dependentGloss": "?"
        }
      ],
      "enhancedDependencies": [
        {
          "dep": "ROOT",
          "governor": 0,
          "governorGloss": "ROOT",
          "dependent": 2,
          "dependentGloss": "Jinny"
        },
        {
          "dep": "name",
          "governor": 2,
          "governorGloss": "Jinny",
          "dependent": 1,
          "dependentGloss": "L."
        },
        {
          "dep": "punct",
          "governor": 2,
          "governorGloss": "Jinny",
          "dependent": 3,
          "dependentGloss": "?"
        }
      ],
      "enhancedPlusPlusDependencies": [
        {
          "dep": "ROOT",
          "governor": 0,
          "governorGloss": "ROOT",
          "dependent": 2,
          "dependentGloss": "Jinny"
        },
        {
          "dep": "name",
          "governor": 2,
          "governorGloss": "Jinny",
          "dependent": 1,
          "dependentGloss": "L."
        },
        {
          "dep": "punct",
          "governor": 2,
          "governorGloss": "Jinny",
          "dependent": 3,
          "dependentGloss": "?"
        }
      ],
      "tokens": [
        {
          "index": 1,
          "word": "L.",
          "originalText": "L.",
          "characterOffsetBegin": 0,
          "characterOffsetEnd": 2,
          "pos": "NE",
          "before": "",
          "after": " "
        },
        {
          "index": 2,
          "word": "Jinny",
          "originalText": "Jinny",
          "characterOffsetBegin": 3,
          "characterOffsetEnd": 8,
          "pos": "NE",
          "before": " ",
          "after": ""
        },
        {
          "index": 3,
          "word": "?",
          "originalText": "?",
          "characterOffsetBegin": 8,
          "characterOffsetEnd": 9,
          "pos": "$.",
          "before": "",
          "after": " "
        }
      ]
    },
    {
      "index": 1,
      "basicDependencies": [
        {
          "dep": "ROOT",
          "governor": 0,
          "governorGloss": "ROOT",
          "dependent": 14,
          "dependentGloss": "Berichte"
        },
        {
          "dep": "name",
          "governor": 3,
          "governorGloss": "Bary",
          "dependent": 1,
          "dependentGloss": "Abdel-Majed"
        },
        {
          "dep": "name",
          "governor": 3,
          "governorGloss": "Bary",
          "dependent": 2,
          "dependentGloss": "Abdel"
        },
        {
          "dep": "nsubj",
          "governor": 14,
          "governorGloss": "Berichte",
          "dependent": 3,
          "dependentGloss": "Bary"
        },
        {
          "dep": "punct",
          "governor": 3,
          "governorGloss": "Bary",
          "dependent": 4,
          "dependentGloss": ","
        },
        {
          "dep": "name",
          "governor": 6,
          "governorGloss": "Rapper",
          "dependent": 5,
          "dependentGloss": "UK"
        },
        {
          "dep": "appos",
          "governor": 3,
          "governorGloss": "Bary",
          "dependent": 6,
          "dependentGloss": "Rapper"
        },
        {
          "dep": "punct",
          "governor": 3,
          "governorGloss": "Bary",
          "dependent": 7,
          "dependentGloss": ","
        },
        {
          "dep": "advmod",
          "governor": 12,
          "governorGloss": "Killing",
          "dependent": 8,
          "dependentGloss": "Verdacht"
        },
        {
          "dep": "case",
          "governor": 11,
          "governorGloss": "Foley",
          "dependent": 9,
          "dependentGloss": "auf"
        },
        {
          "dep": "name",
          "governor": 11,
          "governorGloss": "Foley",
          "dependent": 10,
          "dependentGloss": "James"
        },
        {
          "dep": "nmod",
          "governor": 12,
          "governorGloss": "Killing",
          "dependent": 11,
          "dependentGloss": "Foley"
        },
        {
          "dep": "acl",
          "governor": 3,
          "governorGloss": "Bary",
          "dependent": 12,
          "dependentGloss": "Killing"
        },
        {
          "dep": "punct",
          "governor": 12,
          "governorGloss": "Killing",
          "dependent": 13,
          "dependentGloss": ":"
        }
      ],
      "enhancedDependencies": [
        {
          "dep": "ROOT",
          "governor": 0,
          "governorGloss": "ROOT",
          "dependent": 14,
          "dependentGloss": "Berichte"
        },
        {
          "dep": "name",
          "governor": 3,
          "governorGloss": "Bary",
          "dependent": 1,
          "dependentGloss": "Abdel-Majed"
        },
        {
          "dep": "name",
          "governor": 3,
          "governorGloss": "Bary",
          "dependent": 2,
          "dependentGloss": "Abdel"
        },
        {
          "dep": "nsubj",
          "governor": 14,
          "governorGloss": "Berichte",
          "dependent": 3,
          "dependentGloss": "Bary"
        },
        {
          "dep": "punct",
          "governor": 3,
          "governorGloss": "Bary",
          "dependent": 4,
          "dependentGloss": ","
        },
        {
          "dep": "name",
          "governor": 6,
          "governorGloss": "Rapper",
          "dependent": 5,
          "dependentGloss": "UK"
        },
        {
          "dep": "appos",
          "governor": 3,
          "governorGloss": "Bary",
          "dependent": 6,
          "dependentGloss": "Rapper"
        },
        {
          "dep": "punct",
          "governor": 3,
          "governorGloss": "Bary",
          "dependent": 7,
          "dependentGloss": ","
        },
        {
          "dep": "advmod",
          "governor": 12,
          "governorGloss": "Killing",
          "dependent": 8,
          "dependentGloss": "Verdacht"
        },
        {
          "dep": "case",
          "governor": 11,
          "governorGloss": "Foley",
          "dependent": 9,
          "dependentGloss": "auf"
        },
        {
          "dep": "name",
          "governor": 11,
          "governorGloss": "Foley",
          "dependent": 10,
          "dependentGloss": "James"
        },
        {
          "dep": "nmod",
          "governor": 12,
          "governorGloss": "Killing",
          "dependent": 11,
          "dependentGloss": "Foley"
        },
        {
          "dep": "acl",
          "governor": 3,
          "governorGloss": "Bary",
          "dependent": 12,
          "dependentGloss": "Killing"
        },
        {
          "dep": "punct",
          "governor": 12,
          "governorGloss": "Killing",
          "dependent": 13,
          "dependentGloss": ":"
        }
      ],
      "enhancedPlusPlusDependencies": [
        {
          "dep": "ROOT",
          "governor": 0,
          "governorGloss": "ROOT",
          "dependent": 14,
          "dependentGloss": "Berichte"
        },
        {
          "dep": "name",
          "governor": 3,
          "governorGloss": "Bary",
          "dependent": 1,
          "dependentGloss": "Abdel-Majed"
        },
        {
          "dep": "name",
          "governor": 3,
          "governorGloss": "Bary",
          "dependent": 2,
          "dependentGloss": "Abdel"
        },
        {
          "dep": "nsubj",
          "governor": 14,
          "governorGloss": "Berichte",
          "dependent": 3,
          "dependentGloss": "Bary"
        },
        {
          "dep": "punct",
          "governor": 3,
          "governorGloss": "Bary",
          "dependent": 4,
          "dependentGloss": ","
        },
        {
          "dep": "name",
          "governor": 6,
          "governorGloss": "Rapper",
          "dependent": 5,
          "dependentGloss": "UK"
        },
        {
          "dep": "appos",
          "governor": 3,
          "governorGloss": "Bary",
          "dependent": 6,
          "dependentGloss": "Rapper"
        },
        {
          "dep": "punct",
          "governor": 3,
          "governorGloss": "Bary",
          "dependent": 7,
          "dependentGloss": ","
        },
        {
          "dep": "advmod",
          "governor": 12,
          "governorGloss": "Killing",
          "dependent": 8,
          "dependentGloss": "Verdacht"
        },
        {
          "dep": "case",
          "governor": 11,
          "governorGloss": "Foley",
          "dependent": 9,
          "dependentGloss": "auf"
        },
        {
          "dep": "name",
          "governor": 11,
          "governorGloss": "Foley",
          "dependent": 10,
          "dependentGloss": "James"
        },
        {
          "dep": "nmod",
          "governor": 12,
          "governorGloss": "Killing",
          "dependent": 11,
          "dependentGloss": "Foley"
        },
        {
          "dep": "acl",
          "governor": 3,
          "governorGloss": "Bary",
          "dependent": 12,
          "dependentGloss": "Killing"
        },
        {
          "dep": "punct",
          "governor": 12,
          "governorGloss": "Killing",
          "dependent": 13,
          "dependentGloss": ":"
        }
      ],
      "tokens": [
        {
          "index": 1,
          "word": "Abdel-Majed",
          "originalText": "Abdel-Majed",
          "characterOffsetBegin": 10,
          "characterOffsetEnd": 21,
          "pos": "NN",
          "before": " ",
          "after": " "
        },
        {
          "index": 2,
          "word": "Abdel",
          "originalText": "Abdel",
          "characterOffsetBegin": 22,
          "characterOffsetEnd": 27,
          "pos": "NE",
          "before": " ",
          "after": " "
        },
        {
          "index": 3,
          "word": "Bary",
          "originalText": "Bary",
          "characterOffsetBegin": 28,
          "characterOffsetEnd": 32,
          "pos": "NE",
          "before": " ",
          "after": ""
        },
        {
          "index": 4,
          "word": ",",
          "originalText": ",",
          "characterOffsetBegin": 32,
          "characterOffsetEnd": 33,
          "pos": "$,",
          "before": "",
          "after": " "
        },
        {
          "index": 5,
          "word": "UK",
          "originalText": "UK",
          "characterOffsetBegin": 34,
          "characterOffsetEnd": 36,
          "pos": "NE",
          "before": " ",
          "after": " "
        },
        {
          "index": 6,
          "word": "Rapper",
          "originalText": "Rapper",
          "characterOffsetBegin": 37,
          "characterOffsetEnd": 43,
          "pos": "NE",
          "before": " ",
          "after": ""
        },
        {
          "index": 7,
          "word": ",",
          "originalText": ",",
          "characterOffsetBegin": 43,
          "characterOffsetEnd": 44,
          "pos": "$,",
          "before": "",
          "after": " "
        },
        {
          "index": 8,
          "word": "Verdacht",
          "originalText": "Verdacht",
          "characterOffsetBegin": 45,
          "characterOffsetEnd": 53,
          "pos": "NN",
          "before": " ",
          "after": " "
        },
        {
          "index": 9,
          "word": "auf",
          "originalText": "auf",
          "characterOffsetBegin": 54,
          "characterOffsetEnd": 57,
          "pos": "APPR",
          "before": " ",
          "after": " "
        },
        {
          "index": 10,
          "word": "James",
          "originalText": "James",
          "characterOffsetBegin": 58,
          "characterOffsetEnd": 63,
          "pos": "NE",
          "before": " ",
          "after": " "
        },
        {
          "index": 11,
          "word": "Foley",
          "originalText": "Foley",
          "characterOffsetBegin": 64,
          "characterOffsetEnd": 69,
          "pos": "NE",
          "before": " ",
          "after": " "
        },
        {
          "index": 12,
          "word": "Killing",
          "originalText": "Killing",
          "characterOffsetBegin": 70,
          "characterOffsetEnd": 77,
          "pos": "NE",
          "before": " ",
          "after": ""
        },
        {
          "index": 13,
          "word": ":",
          "originalText": ":",
          "characterOffsetBegin": 77,
          "characterOffsetEnd": 78,
          "pos": "$.",
          "before": "",
          "after": " "
        },
        {
          "index": 14,
          "word": "Berichte",
          "originalText": "Berichte",
          "characterOffsetBegin": 79,
          "characterOffsetEnd": 87,
          "pos": "NN",
          "before": " ",
          "after": ""
        }
      ]
    }
  ]
}