{
  "sentences": [
    {
      "index": 0,
      "basicDependencies": [
        {
          "dep": "ROOT",
          "governor": 0,
          "governorGloss": "ROOT",
          "dependent": 2,
          "dependentGloss": "schneiden"
        },
        {
          "dep": "nsubj",
          "governor": 2,
          "governorGloss": "schneiden",
          "dependent": 1,
          "dependentGloss": "Vigilantes"
        },
        {
          "dep": "amod",
          "governor": 4,
          "governorGloss": "Vergewaltiger",
          "dependent": 3,
          "dependentGloss": "angeblichen"
        },
        {
          "dep": "dobj",
          "governor": 2,
          "governorGloss": "schneiden",
          "dependent": 4,
          "dependentGloss": "Vergewaltiger"
        },
        {
          "dep": "advmod",
          "governor": 2,
          "governorGloss": "schneiden",
          "dependent": 5,
          "dependentGloss": "Penis"
        },
        {
          "dep": "mark",
          "governor": 2,
          "governorGloss": "schneiden",
          "dependent": 6,
          "dependentGloss": "ab"
        }
      ],
      "enhancedDependencies": [
        {
          "dep": "ROOT",
          "governor": 0,
          "governorGloss": "ROOT",
          "dependent": 2,
          "dependentGloss": "schneiden"
        },
        {
          "dep": "nsubj",
          "governor": 2,
          "governorGloss": "schneiden",
          "dependent": 1,
          "dependentGloss": "Vigilantes"
        },
        {
          "dep": "amod",
          "governor": 4,
          "governorGloss": "Vergewaltiger",
          "dependent": 3,
          "dependentGloss": "angeblichen"
        },
        {
          "dep": "dobj",
          "governor": 2,
          "governorGloss": "schneiden",
          "dependent": 4,
          "dependentGloss": "Vergewaltiger"
        },
        {
          "dep": "advmod",
          "governor": 2,
          "governorGloss": "schneiden",
          "dependent": 5,
          "dependentGloss": "Penis"
        },
        {
          "dep": "mark",
          "governor": 2,
          "governorGloss": "schneiden",
          "dependent": 6,
          "dependentGloss": "ab"
        }
      ],
      "enhancedPlusPlusDependencies": [
        {
          "dep": "ROOT",
          "governor": 0,
          "governorGloss": "ROOT",
          "dependent": 2,
          "dependentGloss": "schneiden"
        },
        {
          "dep": "nsubj",
          "governor": 2,
          "governorGloss": "schneiden",
          "dependent": 1,
          "dependentGloss": "Vigilantes"
        },
        {
          "dep": "amod",
          "governor": 4,
          "governorGloss": "Vergewaltiger",
          "dependent": 3,
          "dependentGloss": "angeblichen"
        },
        {
          "dep": "dobj",
          "governor": 2,
          "governorGloss": "schneiden",
          "dependent": 4,
          "dependentGloss": "Vergewaltiger"
        },
        {
          "dep": "advmod",
          "governor": 2,
          "governorGloss": "schneiden",
          "dependent": 5,
          "dependentGloss": "Penis"
        },
        {
          "dep": "mark",
          "governor": 2,
          "governorGloss": "schneiden",
          "dependent": 6,
          "dependentGloss": "ab"
        }
      ],
      "tokens": [
        {
          "index": 1,
          "word": "Vigilantes",
          "originalText": "Vigilantes",
          "characterOffsetBegin": 0,
          "characterOffsetEnd": 10,
          "pos": "NN",
          "before": "",
          "after": " "
        },
        {
          "index": 2,
          "word": "schneiden",
          "originalText": "schneiden",
          "characterOffsetBegin": 11,
          "characterOffsetEnd": 20,
          "pos": "VVFIN",
          "before": " ",
          "after": " "
        },
        {
          "index": 3,
          "word": "angeblichen",
          "originalText": "angeblichen",
          "characterOffsetBegin": 21,
          "characterOffsetEnd": 32,
          "pos": "ADJA",
          "before": " ",
          "after": " "
        },
        {
          "index": 4,
          "word": "Vergewaltiger",
          "originalText": "Vergewaltiger",
          "characterOffsetBegin": 33,
          "characterOffsetEnd": 46,
          "pos": "NN",
          "before": " ",
          "after": " "
        },
        {
          "index": 5,
          "word": "Penis",
          "originalText": "Penis",
          "characterOffsetBegin": 47,
          "characterOffsetEnd": 52,
          "pos": "NN",
          "before": " ",
          "after": " "
        },
        {
          "index": 6,
          "word": "ab",
          "originalText": "ab",
          "characterOffsetBegin": 53,
          "characterOffsetEnd": 55,
          "pos": "PTKVZ",
          "before": " ",
          "after": ""
        }
      ]
    }
  ]
}