{
  "sentences": [
    {
      "index": 0,
      "basicDependencies": [
        {
          "dep": "ROOT",
          "governor": 0,
          "governorGloss": "ROOT",
          "dependent": 4,
          "dependentGloss": "puzzles"
        },
        {
          "dep": "dep",
          "governor": 4,
          "governorGloss": "puzzles",
          "dependent": 1,
          "dependentGloss": "Meteoritenschlag"
        },
        {
          "dep": "case",
          "governor": 3,
          "governorGloss": "Nicaragua",
          "dependent": 2,
          "dependentGloss": "in"
        },
        {
          "dep": "nmod",
          "governor": 1,
          "governorGloss": "Meteoritenschlag",
          "dependent": 3,
          "dependentGloss": "Nicaragua"
        },
        {
          "dep": "nsubj",
          "governor": 4,
          "governorGloss": "puzzles",
          "dependent": 5,
          "dependentGloss": "Experten"
        }
      ],
      "enhancedDependencies": [
        {
          "dep": "ROOT",
          "governor": 0,
          "governorGloss": "ROOT",
          "dependent": 4,
          "dependentGloss": "puzzles"
        },
        {
          "dep": "dep",
          "governor": 4,
          "governorGloss": "puzzles",
          "dependent": 1,
          "dependentGloss": "Meteoritenschlag"
        },
        {
          "dep": "case",
          "governor": 3,
          "governorGloss": "Nicaragua",
          "dependent": 2,
          "dependentGloss": "in"
        },
        {
          "dep": "nmod",
          "governor": 1,
          "governorGloss": "Meteoritenschlag",
          "dependent": 3,
          "dependentGloss": "Nicaragua"
        },
        {
          "dep": "nsubj",
          "governor": 4,
          "governorGloss": "puzzles",
          "dependent": 5,
          "dependentGloss": "Experten"
        }
      ],
      "enhancedPlusPlusDependencies": [
        {
          "dep": "ROOT",
          "governor": 0,
          "governorGloss": "ROOT",
          "dependent": 4,
          "dependentGloss": "puzzles"
        },
        {
          "dep": "dep",
          "governor": 4,
          "governorGloss": "puzzles",
          "dependent": 1,
          "dependentGloss": "Meteoritenschlag"
        },
        {
          "dep": "case",
          "governor": 3,
          "governorGloss": "Nicaragua",
          "dependent": 2,
          "dependentGloss": "in"
        },
        {
          "dep": "nmod",
          "governor": 1,
          "governorGloss": "Meteoritenschlag",
          "dependent": 3,
          "dependentGloss": "Nicaragua"
        },
        {
          "dep": "nsubj",
          "governor": 4,
          "governorGloss": "puzzles",
          "dependent": 5,
          "dependentGloss": "Experten"
        }
      ],
      "tokens": [
        {
          "index": 1,
          "word": "Meteoritenschlag",
          "originalText": "Meteoritenschlag",
          "characterOffsetBegin": 0,
          "characterOffsetEnd": 16,
          "pos": "NN",
          "before": "",
          "after": " "
        },
        {
          "index": 2,
          "word": "in",
          "originalText": "in",
          "characterOffsetBegin": 17,
          "characterOffsetEnd": 19,
          "pos": "APPR",
          "before": " ",
          "after": " "
        },
        {
          "index": 3,
          "word": "Nicaragua",
          "originalText": "Nicaragua",
          "characterOffsetBegin": 20,
          "characterOffsetEnd": 29,
          "pos": "NE",
          "before": " ",
          "after": " "
        },
        {
          "index": 4,
          "word": "puzzles",
          "originalText": "puzzles",
          "characterOffsetBegin": 30,
          "characterOffsetEnd": 37,
          "pos": "ADJA",
          "before": " ",
          "after": " "
        },
        {
          "index": 5,
          "word": "Experten",
          "originalText": "Experten",
          "characterOffsetBegin": 38,
          "characterOffsetEnd": 46,
          "pos": "NN",
          "before": " ",
          "after": ""
        }
      ]
    }
  ]
}