{
  "sentences": [
    {
      "index": 0,
      "basicDependencies": [
        {
          "dep": "ROOT",
          "governor": 0,
          "governorGloss": "ROOT",
          "dependent": 1,
          "dependentGloss": "Video"
        },
        {
          "dep": "punct",
          "governor": 1,
          "governorGloss": "Video",
          "dependent": 2,
          "dependentGloss": ":"
        },
        {
          "dep": "name",
          "governor": 4,
          "governorGloss": "gerettet",
          "dependent": 3,
          "dependentGloss": "Marine"
        },
        {
          "dep": "appos",
          "governor": 1,
          "governorGloss": "Video",
          "dependent": 4,
          "dependentGloss": "gerettet"
        },
        {
          "dep": "case",
          "governor": 6,
          "governorGloss": "Helm",
          "dependent": 5,
          "dependentGloss": "durch"
        },
        {
          "dep": "nmod",
          "governor": 4,
          "governorGloss": "gerettet",
          "dependent": 6,
          "dependentGloss": "Helm"
        },
        {
          "dep": "case",
          "governor": 8,
          "governorGloss": "Taliban",
          "dependent": 7,
          "dependentGloss": "nach"
        },
        {
          "dep": "nmod",
          "governor": 6,
          "governorGloss": "Helm",
          "dependent": 8,
          "dependentGloss": "Taliban"
        },
        {
          "dep": "dep",
          "governor": 1,
          "governorGloss": "Video",
          "dependent": 9,
          "dependentGloss": "Scharfschützenangriff"
        }
      ],
      "enhancedDependencies": [
        {
          "dep": "ROOT",
          "governor": 0,
          "governorGloss": "ROOT",
          "dependent": 1,
          "dependentGloss": "Video"
        },
        {
          "dep": "punct",
          "governor": 1,
          "governorGloss": "Video",
          "dependent": 2,
          "dependentGloss": ":"
        },
        {
          "dep": "name",
          "governor": 4,
          "governorGloss": "gerettet",
          "dependent": 3,
          "dependentGloss": "Marine"
        },
        {
          "dep": "appos",
          "governor": 1,
          "governorGloss": "Video",
          "dependent": 4,
          "dependentGloss": "gerettet"
        },
        {
          "dep": "case",
          "governor": 6,
          "governorGloss": "Helm",
          "dependent": 5,
          "dependentGloss": "durch"
        },
        {
          "dep": "nmod",
          "governor": 4,
          "governorGloss": "gerettet",
          "dependent": 6,
          "dependentGloss": "Helm"
        },
        {
          "dep": "case",
          "governor": 8,
          "governorGloss": "Taliban",
          "dependent": 7,
          "dependentGloss": "nach"
        },
        {
          "dep": "nmod",
          "governor": 6,
          "governorGloss": "Helm",
          "dependent": 8,
          "dependentGloss": "Taliban"
        },
        {
          "dep": "dep",
          "governor": 1,
          "governorGloss": "Video",
          "dependent": 9,
          "dependentGloss": "Scharfschützenangriff"
        }
      ],
      "enhancedPlusPlusDependencies": [
        {
          "dep": "ROOT",
          "governor": 0,
          "governorGloss": "ROOT",
          "dependent": 1,
          "dependentGloss": "Video"
        },
        {
          "dep": "punct",
          "governor": 1,
          "governorGloss": "Video",
          "dependent": 2,
          "dependentGloss": ":"
        },
        {
          "dep": "name",
          "governor": 4,
          "governorGloss": "gerettet",
          "dependent": 3,
          "dependentGloss": "Marine"
        },
        {
          "dep": "appos",
          "governor": 1,
          "governorGloss": "Video",
          "dependent": 4,
          "dependentGloss": "gerettet"
        },
        {
          "dep": "case",
          "governor": 6,
          "governorGloss": "Helm",
          "dependent": 5,
          "dependentGloss": "durch"
        },
        {
          "dep": "nmod",
          "governor": 4,
          "governorGloss": "gerettet",
          "dependent": 6,
          "dependentGloss": "Helm"
        },
        {
          "dep": "case",
          "governor": 8,
          "governorGloss": "Taliban",
          "dependent": 7,
          "dependentGloss": "nach"
        },
        {
          "dep": "nmod",
          "governor": 6,
          "governorGloss": "Helm",
          "dependent": 8,
          "dependentGloss": "Taliban"
        },
        {
          "dep": "dep",
          "governor": 1,
          "governorGloss": "Video",
          "dependent": 9,
          "dependentGloss": "Scharfschützenangriff"
        }
      ],
      "tokens": [
        {
          "index": 1,
          "word": "Video",
          "originalText": "Video",
          "characterOffsetBegin": 0,
          "characterOffsetEnd": 5,
          "pos": "NN",
          "before": "",
          "after": ""
        },
        {
          "index": 2,
          "word": ":",
          "originalText": ":",
          "characterOffsetBegin": 5,
          "characterOffsetEnd": 6,
          "pos": "$.",
          "before": "",
          "after": " "
        },
        {
          "index": 3,
          "word": "Marine",
          "originalText": "Marine",
          "characterOffsetBegin": 7,
          "characterOffsetEnd": 13,
          "pos": "NE",
          "before": " ",
          "after": " "
        },
        {
          "index": 4,
          "word": "gerettet",
          "originalText": "gerettet",
          "characterOffsetBegin": 14,
          "characterOffsetEnd": 22,
          "pos": "VVPP",
          "before": " ",
          "after": " "
        },
        {
          "index": 5,
          "word": "durch",
          "originalText": "durch",
          "characterOffsetBegin": 23,
          "characterOffsetEnd": 28,
          "pos": "APPR",
          "before": " ",
          "after": " "
        },
        {
          "index": 6,
          "word": "Helm",
          "originalText": "Helm",
          "characterOffsetBegin": 29,
          "characterOffsetEnd": 33,
          "pos": "NN",
          "before": " ",
          "after": " "
        },
        {
          "index": 7,
          "word": "nach",
          "originalText": "nach",
          "characterOffsetBegin": 34,
          "characterOffsetEnd": 38,
          "pos": "APPR",
          "before": " ",
          "after": " "
        },
        {
          "index": 8,
          "word": "Taliban",
          "originalText": "Taliban",
          "characterOffsetBegin": 39,
          "characterOffsetEnd": 46,
          "pos": "NN",
          "before": " ",
          "after": " "
        },
        {
          "index": 9,
          "word": "Scharfschützenangriff",
          "originalText": "Scharfschützenangriff",
          "characterOffsetBegin": 47,
          "characterOffsetEnd": 68,
          "pos": "NN",
          "before": " ",
          "after": ""
        }
      ]
    }
  ]
}