{
  "sentences": [
    {
      "index": 0,
      "basicDependencies": [
        {
          "dep": "ROOT",
          "governor": 0,
          "governorGloss": "ROOT",
          "dependent": 2,
          "dependentGloss": "trägt"
        },
        {
          "dep": "nsubj",
          "governor": 2,
          "governorGloss": "trägt",
          "dependent": 1,
          "dependentGloss": "Passagier"
        },
        {
          "dep": "det",
          "governor": 5,
          "governorGloss": "Anzug",
          "dependent": 3,
          "dependentGloss": "einen"
        },
        {
          "dep": "amod",
          "governor": 5,
          "governorGloss": "Anzug",
          "dependent": 4,
          "dependentGloss": "Hazmat"
        },
        {
          "dep": "dobj",
          "governor": 2,
          "governorGloss": "trägt",
          "dependent": 5,
          "dependentGloss": "Anzug"
        },
        {
          "dep": "name",
          "governor": 7,
          "governorGloss": "Flughafen",
          "dependent": 6,
          "dependentGloss": "zum"
        },
        {
          "dep": "appos",
          "governor": 5,
          "governorGloss": "Anzug",
          "dependent": 7,
          "dependentGloss": "Flughafen"
        },
        {
          "dep": "advmod",
          "governor": 2,
          "governorGloss": "trägt",
          "dependent": 8,
          "dependentGloss": "Dulles"
        }
      ],
      "enhancedDependencies": [
        {
          "dep": "ROOT",
          "governor": 0,
          "governorGloss": "ROOT",
          "dependent": 2,
          "dependentGloss": "trägt"
        },
        {
          "dep": "nsubj",
          "governor": 2,
          "governorGloss": "trägt",
          "dependent": 1,
          "dependentGloss": "Passagier"
        },
        {
          "dep": "det",
          "governor": 5,
          "governorGloss": "Anzug",
          "dependent": 3,
          "dependentGloss": "einen"
        },
        {
          "dep": "amod",
          "governor": 5,
          "governorGloss": "Anzug",
          "dependent": 4,
          "dependentGloss": "Hazmat"
        },
        {
          "dep": "dobj",
          "governor": 2,
          "governorGloss": "trägt",
          "dependent": 5,
          "dependentGloss": "Anzug"
        },
        {
          "dep": "name",
          "governor": 7,
          "governorGloss": "Flughafen",
          "dependent": 6,
          "dependentGloss": "zum"
        },
        {
          "dep": "appos",
          "governor": 5,
          "governorGloss": "Anzug",
          "dependent": 7,
          "dependentGloss": "Flughafen"
        },
        {
          "dep": "advmod",
          "governor": 2,
          "governorGloss": "trägt",
          "dependent": 8,
          "dependentGloss": "Dulles"
        }
      ],
      "enhancedPlusPlusDependencies": [
        {
          "dep": "ROOT",
          "governor": 0,
          "governorGloss": "ROOT",
          "dependent": 2,
          "dependentGloss": "trägt"
        },
        {
          "dep": "nsubj",
          "governor": 2,
          "governorGloss": "trägt",
          "dependent": 1,
          "dependentGloss": "Passagier"
        },
        {
          "dep": "det",
          "governor": 5,
          "governorGloss": "Anzug",
          "dependent": 3,
          "dependentGloss": "einen"
        },
        {
          "dep": "amod",
          "governor": 5,
          "governorGloss": "Anzug",
          "dependent": 4,
          "dependentGloss": "Hazmat"
        },
        {
          "dep": "dobj",
          "governor": 2,
          "governorGloss": "trägt",
          "dependent": 5,
          "dependentGloss": "Anzug"
        },
        {
          "dep": "name",
          "governor": 7,
          "governorGloss": "Flughafen",
          "dependent": 6,
          "dependentGloss": "zum"
        },
        {
          "dep": "appos",
          "governor": 5,
          "governorGloss": "Anzug",
          "dependent": 7,
          "dependentGloss": "Flughafen"
        },
        {
          "dep": "advmod",
          "governor": 2,
          "governorGloss": "trägt",
          "dependent": 8,
          "dependentGloss": "Dulles"
        }
      ],
      "tokens": [
        {
          "index": 1,
          "word": "Passagier",
          "originalText": "Passagier",
          "characterOffsetBegin": 0,
          "characterOffsetEnd": 9,
          "pos": "NN",
          "before": "",
          "after": " "
        },
        {
          "index": 2,
          "word": "trägt",
          "originalText": "trägt",
          "characterOffsetBegin": 10,
          "characterOffsetEnd": 15,
          "pos": "VVFIN",
          "before": " ",
          "after": " "
        },
        {
          "index": 3,
          "word": "einen",
          "originalText": "einen",
          "characterOffsetBegin": 16,
          "characterOffsetEnd": 21,
          "pos": "ART",
          "before": " ",
          "after": " "
        },
        {
          "index": 4,
          "word": "Hazmat",
          "originalText": "Hazmat",
          "characterOffsetBegin": 22,
          "characterOffsetEnd": 28,
          "pos": "NN",
          "before": " ",
          "after": " "
        },
        {
          "index": 5,
          "word": "Anzug",
          "originalText": "Anzug",
          "characterOffsetBegin": 29,
          "characterOffsetEnd": 34,
          "pos": "NN",
          "before": " ",
          "after": " "
        },
        {
          "index": 6,
          "word": "zum",
          "originalText": "zum",
          "characterOffsetBegin": 35,
          "characterOffsetEnd": 38,
          "pos": "APPRART",
          "before": " ",
          "after": " "
        },
        {
          "index": 7,
          "word": "Flughafen",
          "originalText": "Flughafen",
          "characterOffsetBegin": 39,
          "characterOffsetEnd": 48,
          "pos": "NN",
          "before": " ",
          "after": " "
        },
        {
          "index": 8,
          "word": "Dulles",
          "originalText": "Dulles",
          "characterOffsetBegin": 49,
          "characterOffsetEnd": 55,
          "pos": "NE",
          "before": " ",
          "after": ""
        }
      ]
    }
  ]
}