{
  "sentences": [
    {
      "index": 0,
      "basicDependencies": [
        {
          "dep": "ROOT",
          "governor": 0,
          "governorGloss": "ROOT",
          "dependent": 1,
          "dependentGloss": "Macaulay"
        },
        {
          "dep": "nsubj",
          "governor": 1,
          "governorGloss": "Macaulay",
          "dependent": 2,
          "dependentGloss": "Culkin"
        },
        {
          "dep": "amod",
          "governor": 4,
          "governorGloss": "hoax",
          "dependent": 3,
          "dependentGloss": "dead"
        },
        {
          "dep": "appos",
          "governor": 2,
          "governorGloss": "Culkin",
          "dependent": 4,
          "dependentGloss": "hoax"
        },
        {
          "dep": "punct",
          "governor": 4,
          "governorGloss": "hoax",
          "dependent": 5,
          "dependentGloss": ":"
        },
        {
          "dep": "amod",
          "governor": 7,
          "governorGloss": "Todesbericht",
          "dependent": 6,
          "dependentGloss": "Fake"
        },
        {
          "dep": "nsubj",
          "governor": 8,
          "governorGloss": "verbreitet",
          "dependent": 7,
          "dependentGloss": "Todesbericht"
        },
        {
          "dep": "parataxis",
          "governor": 4,
          "governorGloss": "hoax",
          "dependent": 8,
          "dependentGloss": "verbreitet"
        },
        {
          "dep": "dobj",
          "governor": 8,
          "governorGloss": "verbreitet",
          "dependent": 9,
          "dependentGloss": "sich"
        },
        {
          "dep": "case",
          "governor": 12,
          "governorGloss": "Netzwerken",
          "dependent": 10,
          "dependentGloss": "auf"
        },
        {
          "dep": "amod",
          "governor": 12,
          "governorGloss": "Netzwerken",
          "dependent": 11,
          "dependentGloss": "sozialen"
        },
        {
          "dep": "nmod",
          "governor": 8,
          "governorGloss": "verbreitet",
          "dependent": 12,
          "dependentGloss": "Netzwerken"
        }
      ],
      "enhancedDependencies": [
        {
          "dep": "ROOT",
          "governor": 0,
          "governorGloss": "ROOT",
          "dependent": 1,
          "dependentGloss": "Macaulay"
        },
        {
          "dep": "nsubj",
          "governor": 1,
          "governorGloss": "Macaulay",
          "dependent": 2,
          "dependentGloss": "Culkin"
        },
        {
          "dep": "amod",
          "governor": 4,
          "governorGloss": "hoax",
          "dependent": 3,
          "dependentGloss": "dead"
        },
        {
          "dep": "appos",
          "governor": 2,
          "governorGloss": "Culkin",
          "dependent": 4,
          "dependentGloss": "hoax"
        },
        {
          "dep": "punct",
          "governor": 4,
          "governorGloss": "hoax",
          "dependent": 5,
          "dependentGloss": ":"
        },
        {
          "dep": "amod",
          "governor": 7,
          "governorGloss": "Todesbericht",
          "dependent": 6,
          "dependentGloss": "Fake"
        },
        {
          "dep": "nsubj",
          "governor": 8,
          "governorGloss": "verbreitet",
          "dependent": 7,
          "dependentGloss": "Todesbericht"
        },
        {
          "dep": "parataxis",
          "governor": 4,
          "governorGloss": "hoax",
          "dependent": 8,
          "dependentGloss": "verbreitet"
        },
        {
          "dep": "dobj",
          "governor": 8,
          "governorGloss": "verbreitet",
          "dependent": 9,
          "dependentGloss": "sich"
        },
        {
          "dep": "case",
          "governor": 12,
          "governorGloss": "Netzwerken",
          "dependent": 10,
          "dependentGloss": "auf"
        },
        {
          "dep": "amod",
          "governor": 12,
          "governorGloss": "Netzwerken",
          "dependent": 11,
          "dependentGloss": "sozialen"
        },
        {
          "dep": "nmod",
          "governor": 8,
          "governorGloss": "verbreitet",
          "dependent": 12,
          "dependentGloss": "Netzwerken"
        }
      ],
      "enhancedPlusPlusDependencies": [
        {
          "dep": "ROOT",
          "governor": 0,
          "governorGloss": "ROOT",
          "dependent": 1,
          "dependentGloss": "Macaulay"
        },
        {
          "dep": "nsubj",
          "governor": 1,
          "governorGloss": "Macaulay",
          "dependent": 2,
          "dependentGloss": "Culkin"
        },
        {
          "dep": "amod",
          "governor": 4,
          "governorGloss": "hoax",
          "dependent": 3,
          "dependentGloss": "dead"
        },
        {
          "dep": "appos",
          "governor": 2,
          "governorGloss": "Culkin",
          "dependent": 4,
          "dependentGloss": "hoax"
        },
        {
          "dep": "punct",
          "governor": 4,
          "governorGloss": "hoax",
          "dependent": 5,
          "dependentGloss": ":"
        },
        {
          "dep": "amod",
          "governor": 7,
          "governorGloss": "Todesbericht",
          "dependent": 6,
          "dependentGloss": "Fake"
        },
        {
          "dep": "nsubj",
          "governor": 8,
          "governorGloss": "verbreitet",
          "dependent": 7,
          "dependentGloss": "Todesbericht"
        },
        {
          "dep": "parataxis",
          "governor": 4,
          "governorGloss": "hoax",
          "dependent": 8,
          "dependentGloss": "verbreitet"
        },
        {
          "dep": "dobj",
          "governor": 8,
          "governorGloss": "verbreitet",
          "dependent": 9,
          "dependentGloss": "sich"
        },
        {
          "dep": "case",
          "governor": 12,
          "governorGloss": "Netzwerken",
          "dependent": 10,
          "dependentGloss": "auf"
        },
        {
          "dep": "amod",
          "governor": 12,
          "governorGloss": "Netzwerken",
          "dependent": 11,
          "dependentGloss": "sozialen"
        },
        {
          "dep": "nmod",
          "governor": 8,
          "governorGloss": "verbreitet",
          "dependent": 12,
          "dependentGloss": "Netzwerken"
        }
      ],
      "tokens": [
        {
          "index": 1,
          "word": "Macaulay",
          "originalText": "Macaulay",
          "characterOffsetBegin": 0,
          "characterOffsetEnd": 8,
          "pos": "NE",
          "before": "",
          "after": " "
        },
        {
          "index": 2,
          "word": "Culkin",
          "originalText": "Culkin",
          "characterOffsetBegin": 9,
          "characterOffsetEnd": 15,
          "pos": "NE",
          "before": " ",
          "after": " "
        },
        {
          "index": 3,
          "word": "dead",
          "originalText": "dead",
          "characterOffsetBegin": 16,
          "characterOffsetEnd": 20,
          "pos": "FM",
          "before": " ",
          "after": " "
        },
        {
          "index": 4,
          "word": "hoax",
          "originalText": "hoax",
          "characterOffsetBegin": 21,
          "characterOffsetEnd": 25,
          "pos": "FM",
          "before": " ",
          "after": ""
        },
        {
          "index": 5,
          "word": ":",
          "originalText": ":",
          "characterOffsetBegin": 25,
          "characterOffsetEnd": 26,
          "pos": "$.",
          "before": "",
          "after": " "
        },
        {
          "index": 6,
          "word": "Fake",
          "originalText": "Fake",
          "characterOffsetBegin": 27,
          "characterOffsetEnd": 31,
          "pos": "NN",
          "before": " ",
          "after": " "
        },
        {
          "index": 7,
          "word": "Todesbericht",
          "originalText": "Todesbericht",
          "characterOffsetBegin": 32,
          "characterOffsetEnd": 44,
          "pos": "NN",
          "before": " ",
          "after": " "
        },
        {
          "index": 8,
          "word": "verbreitet",
          "originalText": "verbreitet",
          "characterOffsetBegin": 45,
          "characterOffsetEnd": 55,
          "pos": "VVFIN",
          "before": " ",
          "after": " "
        },
        {
          "index": 9,
          "word": "sich",
          "originalText": "sich",
          "characterOffsetBegin": 56,
          "characterOffsetEnd": 60,
          "pos": "PRF",
          "before": " ",
          "after": " "
        },
        {
          "index": 10,
          "word": "auf",
          "originalText": "auf",
          "characterOffsetBegin": 61,
          "characterOffsetEnd": 64,
          "pos": "APPR",
          "before": " ",
          "after": " "
        },
        {
          "index": 11,
          "word": "sozialen",
          "originalText": "sozialen",
          "characterOffsetBegin": 65,
          "characterOffsetEnd": 73,
          "pos": "ADJA",
          "before": " ",
          "after": " "
        },
        {
          "index": 12,
          "word": "Netzwerken",
          "originalText": "Netzwerken",
          "characterOffsetBegin": 74,
          "characterOffsetEnd": 84,
          "pos": "NN",
          "before": " ",
          "after": ""
        }
      ]
    }
  ]
}