{
  "sentences": [
    {
      "index": 0,
      "basicDependencies": [
        {
          "dep": "ROOT",
          "governor": 0,
          "governorGloss": "ROOT",
          "dependent": 2,
          "dependentGloss": "führt"
        },
        {
          "dep": "nsubj",
          "governor": 2,
          "governorGloss": "führt",
          "dependent": 1,
          "dependentGloss": "Eggnog-Tucker-Wettbewerb"
        },
        {
          "dep": "amod",
          "governor": 4,
          "governorGloss": "Krankenhausaufenthalt",
          "dependent": 3,
          "dependentGloss": "zum"
        },
        {
          "dep": "dobj",
          "governor": 2,
          "governorGloss": "führt",
          "dependent": 4,
          "dependentGloss": "Krankenhausaufenthalt"
        }
      ],
      "enhancedDependencies": [
        {
          "dep": "ROOT",
          "governor": 0,
          "governorGloss": "ROOT",
          "dependent": 2,
          "dependentGloss": "führt"
        },
        {
          "dep": "nsubj",
          "governor": 2,
          "governorGloss": "führt",
          "dependent": 1,
          "dependentGloss": "Eggnog-Tucker-Wettbewerb"
        },
        {
          "dep": "amod",
          "governor": 4,
          "governorGloss": "Krankenhausaufenthalt",
          "dependent": 3,
          "dependentGloss": "zum"
        },
        {
          "dep": "dobj",
          "governor": 2,
          "governorGloss": "führt",
          "dependent": 4,
          "dependentGloss": "Krankenhausaufenthalt"
        }
      ],
      "enhancedPlusPlusDependencies": [
        {
          "dep": "ROOT",
          "governor": 0,
          "governorGloss": "ROOT",
          "dependent": 2,
          "dependentGloss": "führt"
        },
        {
          "dep": "nsubj",
          "governor": 2,
          "governorGloss": "führt",
          "dependent": 1,
          "dependentGloss": "Eggnog-Tucker-Wettbewerb"
        },
        {
          "dep": "amod",
          "governor": 4,
          "governorGloss": "Krankenhausaufenthalt",
          "dependent": 3,
          "dependentGloss": "zum"
        },
        {
          "dep": "dobj",
          "governor": 2,
          "governorGloss": "führt",
          "dependent": 4,
          "dependentGloss": "Krankenhausaufenthalt"
        }
      ],
      "tokens": [
        {
          "index": 1,
          "word": "Eggnog-Tucker-Wettbewerb",
          "originalText": "Eggnog-Tucker-Wettbewerb",
          "characterOffsetBegin": 0,
          "characterOffsetEnd": 24,
          "pos": "NN",
          "before": "",
          "after": " "
        },
        {
          "index": 2,
          "word": "führt",
          "originalText": "führt",
          "characterOffsetBegin": 25,
          "characterOffsetEnd": 30,
          "pos": "VVFIN",
          "before": " ",
          "after": " "
        },
        {
          "index": 3,
          "word": "zum",
          "originalText": "zum",
          "characterOffsetBegin": 31,
          "characterOffsetEnd": 34,
          "pos": "APPRART",
          "before": " ",
          "after": " "
        },
        {
          "index": 4,
          "word": "Krankenhausaufenthalt",
          "originalText": "Krankenhausaufenthalt",
          "characterOffsetBegin": 35,
          "characterOffsetEnd": 56,
          "pos": "NN",
          "before": " ",
          "after": ""
        }
      ]
    }
  ]
}