{
  "sentences": [
    {
      "index": 0,
      "basicDependencies": [
        {
          "dep": "ROOT",
          "governor": 0,
          "governorGloss": "ROOT",
          "dependent": 14,
          "dependentGloss": "bevölkert"
        },
        {
          "dep": "nsubjpass",
          "governor": 14,
          "governorGloss": "bevölkert",
          "dependent": 1,
          "dependentGloss": "Nein"
        },
        {
          "dep": "punct",
          "governor": 1,
          "governorGloss": "Nein",
          "dependent": 2,
          "dependentGloss": ","
        },
        {
          "dep": "name",
          "governor": 4,
          "governorGloss": "Putin",
          "dependent": 3,
          "dependentGloss": "Wladimir"
        },
        {
          "dep": "appos",
          "governor": 1,
          "governorGloss": "Nein",
          "dependent": 4,
          "dependentGloss": "Putin"
        },
        {
          "dep": "auxpass",
          "governor": 14,
          "governorGloss": "bevölkert",
          "dependent": 5,
          "dependentGloss": "wurde"
        },
        {
          "dep": "case",
          "governor": 9,
          "governorGloss": "Weltkriegsrede",
          "dependent": 6,
          "dependentGloss": "bei"
        },
        {
          "dep": "det",
          "governor": 9,
          "governorGloss": "Weltkriegsrede",
          "dependent": 7,
          "dependentGloss": "einem"
        },
        {
          "dep": "amod",
          "governor": 9,
          "governorGloss": "Weltkriegsrede",
          "dependent": 8,
          "dependentGloss": "Ersten"
        },
        {
          "dep": "nmod",
          "governor": 14,
          "governorGloss": "bevölkert",
          "dependent": 9,
          "dependentGloss": "Weltkriegsrede"
        },
        {
          "dep": "neg",
          "governor": 14,
          "governorGloss": "bevölkert",
          "dependent": 10,
          "dependentGloss": "nicht"
        },
        {
          "dep": "case",
          "governor": 13,
          "governorGloss": "Vogel",
          "dependent": 11,
          "dependentGloss": "von"
        },
        {
          "dep": "det",
          "governor": 13,
          "governorGloss": "Vogel",
          "dependent": 12,
          "dependentGloss": "einem"
        },
        {
          "dep": "nmod",
          "governor": 14,
          "governorGloss": "bevölkert",
          "dependent": 13,
          "dependentGloss": "Vogel"
        }
      ],
      "enhancedDependencies": [
        {
          "dep": "ROOT",
          "governor": 0,
          "governorGloss": "ROOT",
          "dependent": 14,
          "dependentGloss": "bevölkert"
        },
        {
          "dep": "nsubjpass",
          "governor": 14,
          "governorGloss": "bevölkert",
          "dependent": 1,
          "dependentGloss": "Nein"
        },
        {
          "dep": "punct",
          "governor": 1,
          "governorGloss": "Nein",
          "dependent": 2,
          "dependentGloss": ","
        },
        {
          "dep": "name",
          "governor": 4,
          "governorGloss": "Putin",
          "dependent": 3,
          "dependentGloss": "Wladimir"
        },
        {
          "dep": "appos",
          "governor": 1,
          "governorGloss": "Nein",
          "dependent": 4,
          "dependentGloss": "Putin"
        },
        {
          "dep": "auxpass",
          "governor": 14,
          "governorGloss": "bevölkert",
          "dependent": 5,
          "dependentGloss": "wurde"
        },
        {
          "dep": "case",
          "governor": 9,
          "governorGloss": "Weltkriegsrede",
          "dependent": 6,
          "dependentGloss": "bei"
        },
        {
          "dep": "det",
          "governor": 9,
          "governorGloss": "Weltkriegsrede",
          "dependent": 7,
          "dependentGloss": "einem"
        },
        {
          "dep": "amod",
          "governor": 9,
          "governorGloss": "Weltkriegsrede",
          "dependent": 8,
          "dependentGloss": "Ersten"
        },
        {
          "dep": "nmod",
          "governor": 14,
          "governorGloss": "bevölkert",
          "dependent": 9,
          "dependentGloss": "Weltkriegsrede"
        },
        {
          "dep": "neg",
          "governor": 14,
          "governorGloss": "bevölkert",
          "dependent": 10,
          "dependentGloss": "nicht"
        },
        {
          "dep": "case",
          "governor": 13,
          "governorGloss": "Vogel",
          "dependent": 11,
          "dependentGloss": "von"
        },
        {
          "dep": "det",
          "governor": 13,
          "governorGloss": "Vogel",
          "dependent": 12,
          "dependentGloss": "einem"
        },
        {
          "dep": "nmod",
          "governor": 14,
          "governorGloss": "bevölkert",
          "dependent": 13,
          "dependentGloss": "Vogel"
        }
      ],
      "enhancedPlusPlusDependencies": [
        {
          "dep": "ROOT",
          "governor": 0,
          "governorGloss": "ROOT",
          "dependent": 14,
          "dependentGloss": "bevölkert"
        },
        {
          "dep": "nsubjpass",
          "governor": 14,
          "governorGloss": "bevölkert",
          "dependent": 1,
          "dependentGloss": "Nein"
        },
        {
          "dep": "punct",
          "governor": 1,
          "governorGloss": "Nein",
          "dependent": 2,
          "dependentGloss": ","
        },
        {
          "dep": "name",
          "governor": 4,
          "governorGloss": "Putin",
          "dependent": 3,
          "dependentGloss": "Wladimir"
        },
        {
          "dep": "appos",
          "governor": 1,
          "governorGloss": "Nein",
          "dependent": 4,
          "dependentGloss": "Putin"
        },
        {
          "dep": "auxpass",
          "governor": 14,
          "governorGloss": "bevölkert",
          "dependent": 5,
          "dependentGloss": "wurde"
        },
        {
          "dep": "case",
          "governor": 9,
          "governorGloss": "Weltkriegsrede",
          "dependent": 6,
          "dependentGloss": "bei"
        },
        {
          "dep": "det",
          "governor": 9,
          "governorGloss": "Weltkriegsrede",
          "dependent": 7,
          "dependentGloss": "einem"
        },
        {
          "dep": "amod",
          "governor": 9,
          "governorGloss": "Weltkriegsrede",
          "dependent": 8,
          "dependentGloss": "Ersten"
        },
        {
          "dep": "nmod",
          "governor": 14,
          "governorGloss": "bevölkert",
          "dependent": 9,
          "dependentGloss": "Weltkriegsrede"
        },
        {
          "dep": "neg",
          "governor": 14,
          "governorGloss": "bevölkert",
          "dependent": 10,
          "dependentGloss": "nicht"
        },
        {
          "dep": "case",
          "governor": 13,
          "governorGloss": "Vogel",
          "dependent": 11,
          "dependentGloss": "von"
        },
        {
          "dep": "det",
          "governor": 13,
          "governorGloss": "Vogel",
          "dependent": 12,
          "dependentGloss": "einem"
        },
        {
          "dep": "nmod",
          "governor": 14,
          "governorGloss": "bevölkert",
          "dependent": 13,
          "dependentGloss": "Vogel"
        }
      ],
      "tokens": [
        {
          "index": 1,
          "word": "Nein",
          "originalText": "Nein",
          "characterOffsetBegin": 0,
          "characterOffsetEnd": 4,
          "pos": "PTKANT",
          "before": "",
          "after": ""
        },
        {
          "index": 2,
          "word": ",",
          "originalText": ",",
          "characterOffsetBegin": 4,
          "characterOffsetEnd": 5,
          "pos": "$,",
          "before": "",
          "after": " "
        },
        {
          "index": 3,
          "word": "Wladimir",
          "originalText": "Wladimir",
          "characterOffsetBegin": 6,
          "characterOffsetEnd": 14,
          "pos": "NE",
          "before": " ",
          "after": " "
        },
        {
          "index": 4,
          "word": "Putin",
          "originalText": "Putin",
          "characterOffsetBegin": 15,
          "characterOffsetEnd": 20,
          "pos": "NE",
          "before": " ",
          "after": " "
        },
        {
          "index": 5,
          "word": "wurde",
          "originalText": "wurde",
          "characterOffsetBegin": 21,
          "characterOffsetEnd": 26,
          "pos": "VAFIN",
          "before": " ",
          "after": " "
        },
        {
          "index": 6,
          "word": "bei",
          "originalText": "bei",
          "characterOffsetBegin": 27,
          "characterOffsetEnd": 30,
          "pos": "APPR",
          "before": " ",
          "after": " "
        },
        {
          "index": 7,
          "word": "einem",
          "originalText": "einem",
          "characterOffsetBegin": 31,
          "characterOffsetEnd": 36,
          "pos": "ART",
          "before": " ",
          "after": " "
        },
        {
          "index": 8,
          "word": "Ersten",
          "originalText": "Ersten",
          "characterOffsetBegin": 37,
          "characterOffsetEnd": 43,
          "pos": "ADJA",
          "before": " ",
          "after": " "
        },
        {
          "index": 9,
          "word": "Weltkriegsrede",
          "originalText": "Weltkriegsrede",
          "characterOffsetBegin": 44,
          "characterOffsetEnd": 58,
          "pos": "NN",
          "before": " ",
          "after": " "
        },
        {
          "index": 10,
          "word": "nicht",
          "originalText": "nicht",
          "characterOffsetBegin": 59,
          "characterOffsetEnd": 64,
          "pos": "PTKNEG",
          "before": " ",
          "after": " "
        },
        {
          "index": 11,
          "word": "von",
          "originalText": "von",
          "characterOffsetBegin": 65,
          "characterOffsetEnd": 68,
          "pos": "APPR",
          "before": " ",
          "after": " "
        },
        {
          "index": 12,
          "word": "einem",
          "originalText": "einem",
          "characterOffsetBegin": 69,
          "characterOffsetEnd": 74,
          "pos": "ART",
          "before": " ",
          "after": " "
        },
        {
          "index": 13,
          "word": "Vogel",
          "originalText": "Vogel",
          "characterOffsetBegin": 75,
          "characterOffsetEnd": 80,
          "pos": "NN",
          "before": " ",
          "after": " "
        },
        {
          "index": 14,
          "word": "bevölkert",
          "originalText": "bevölkert",
          "characterOffsetBegin": 81,
          "characterOffsetEnd": 90,
          "pos": "VVPP",
          "before": " ",
          "after": ""
        }
      ]
    }
  ]
}