{
  "sentences": [
    {
      "index": 0,
      "basicDependencies": [
        {
          "dep": "ROOT",
          "governor": 0,
          "governorGloss": "ROOT",
          "dependent": 2,
          "dependentGloss": "trägt"
        },
        {
          "dep": "nsubj",
          "governor": 2,
          "governorGloss": "trägt",
          "dependent": 1,
          "dependentGloss": "Passagier"
        },
        {
          "dep": "det",
          "governor": 5,
          "governorGloss": "zum",
          "dependent": 3,
          "dependentGloss": "einen"
        },
        {
          "dep": "amod",
          "governor": 5,
          "governorGloss": "zum",
          "dependent": 4,
          "dependentGloss": "Hazmat-Anzug"
        },
        {
          "dep": "dobj",
          "governor": 2,
          "governorGloss": "trägt",
          "dependent": 5,
          "dependentGloss": "zum"
        },
        {
          "dep": "name",
          "governor": 7,
          "governorGloss": "Dulles",
          "dependent": 6,
          "dependentGloss": "Flughafen"
        },
        {
          "dep": "appos",
          "governor": 5,
          "governorGloss": "zum",
          "dependent": 7,
          "dependentGloss": "Dulles"
        },
        {
          "dep": "amod",
          "governor": 9,
          "governorGloss": "FOTO",
          "dependent": 8,
          "dependentGloss": "-LSB-"
        },
        {
          "dep": "dobj",
          "governor": 10,
          "governorGloss": "-RSB-",
          "dependent": 9,
          "dependentGloss": "FOTO"
        },
        {
          "dep": "xcomp",
          "governor": 2,
          "governorGloss": "trägt",
          "dependent": 10,
          "dependentGloss": "-RSB-"
        }
      ],
      "enhancedDependencies": [
        {
          "dep": "ROOT",
          "governor": 0,
          "governorGloss": "ROOT",
          "dependent": 2,
          "dependentGloss": "trägt"
        },
        {
          "dep": "nsubj",
          "governor": 2,
          "governorGloss": "trägt",
          "dependent": 1,
          "dependentGloss": "Passagier"
        },
        {
          "dep": "det",
          "governor": 5,
          "governorGloss": "zum",
          "dependent": 3,
          "dependentGloss": "einen"
        },
        {
          "dep": "amod",
          "governor": 5,
          "governorGloss": "zum",
          "dependent": 4,
          "dependentGloss": "Hazmat-Anzug"
        },
        {
          "dep": "dobj",
          "governor": 2,
          "governorGloss": "trägt",
          "dependent": 5,
          "dependentGloss": "zum"
        },
        {
          "dep": "name",
          "governor": 7,
          "governorGloss": "Dulles",
          "dependent": 6,
          "dependentGloss": "Flughafen"
        },
        {
          "dep": "appos",
          "governor": 5,
          "governorGloss": "zum",
          "dependent": 7,
          "dependentGloss": "Dulles"
        },
        {
          "dep": "amod",
          "governor": 9,
          "governorGloss": "FOTO",
          "dependent": 8,
          "dependentGloss": "-LSB-"
        },
        {
          "dep": "dobj",
          "governor": 10,
          "governorGloss": "-RSB-",
          "dependent": 9,
          "dependentGloss": "FOTO"
        },
        {
          "dep": "xcomp",
          "governor": 2,
          "governorGloss": "trägt",
          "dependent": 10,
          "dependentGloss": "-RSB-"
        }
      ],
      "enhancedPlusPlusDependencies": [
        {
          "dep": "ROOT",
          "governor": 0,
          "governorGloss": "ROOT",
          "dependent": 2,
          "dependentGloss": "trägt"
        },
        {
          "dep": "nsubj",
          "governor": 2,
          "governorGloss": "trägt",
          "dependent": 1,
          "dependentGloss": "Passagier"
        },
        {
          "dep": "det",
          "governor": 5,
          "governorGloss": "zum",
          "dependent": 3,
          "dependentGloss": "einen"
        },
        {
          "dep": "amod",
          "governor": 5,
          "governorGloss": "zum",
          "dependent": 4,
          "dependentGloss": "Hazmat-Anzug"
        },
        {
          "dep": "dobj",
          "governor": 2,
          "governorGloss": "trägt",
          "dependent": 5,
          "dependentGloss": "zum"
        },
        {
          "dep": "name",
          "governor": 7,
          "governorGloss": "Dulles",
          "dependent": 6,
          "dependentGloss": "Flughafen"
        },
        {
          "dep": "appos",
          "governor": 5,
          "governorGloss": "zum",
          "dependent": 7,
          "dependentGloss": "Dulles"
        },
        {
          "dep": "amod",
          "governor": 9,
          "governorGloss": "FOTO",
          "dependent": 8,
          "dependentGloss": "-LSB-"
        },
        {
          "dep": "dobj",
          "governor": 10,
          "governorGloss": "-RSB-",
          "dependent": 9,
          "dependentGloss": "FOTO"
        },
        {
          "dep": "xcomp",
          "governor": 2,
          "governorGloss": "trägt",
          "dependent": 10,
          "dependentGloss": "-RSB-"
        }
      ],
      "tokens": [
        {
          "index": 1,
          "word": "Passagier",
          "originalText": "Passagier",
          "characterOffsetBegin": 0,
          "characterOffsetEnd": 9,
          "pos": "NN",
          "before": "",
          "after": " "
        },
        {
          "index": 2,
          "word": "trägt",
          "originalText": "trägt",
          "characterOffsetBegin": 10,
          "characterOffsetEnd": 15,
          "pos": "VVFIN",
          "before": " ",
          "after": " "
        },
        {
          "index": 3,
          "word": "einen",
          "originalText": "einen",
          "characterOffsetBegin": 16,
          "characterOffsetEnd": 21,
          "pos": "ART",
          "before": " ",
          "after": " "
        },
        {
          "index": 4,
          "word": "Hazmat-Anzug",
          "originalText": "Hazmat-Anzug",
          "characterOffsetBegin": 22,
          "characterOffsetEnd": 34,
          "pos": "NN",
          "before": " ",
          "after": " "
        },
        {
          "index": 5,
          "word": "zum",
          "originalText": "zum",
          "characterOffsetBegin": 35,
          "characterOffsetEnd": 38,
          "pos": "APPRART",
          "before": " ",
          "after": " "
        },
        {
          "index": 6,
          "word": "Flughafen",
          "originalText": "Flughafen",
          "characterOffsetBegin": 39,
          "characterOffsetEnd": 48,
          "pos": "NN",
          "before": " ",
          "after": " "
        },
        {
          "index": 7,
          "word": "Dulles",
          "originalText": "Dulles",
          "characterOffsetBegin": 49,
          "characterOffsetEnd": 55,
          "pos": "NE",
          "before": " ",
          "after": " "
        },
        {
          "index": 8,
          "word": "-LSB-",
          "originalText": "[",
          "characterOffsetBegin": 56,
          "characterOffsetEnd": 57,
          "pos": "TRUNC",
          "before": " ",
          "after": ""
        },
        {
          "index": 9,
          "word": "FOTO",
          "originalText": "FOTO",
          "characterOffsetBegin": 57,
          "characterOffsetEnd": 61,
          "pos": "NN",
          "before": "",
          "after": ""
        },
        {
          "index": 10,
          "word": "-RSB-",
          "originalText": "]",
          "characterOffsetBegin": 61,
          "characterOffsetEnd": 62,
          "pos": "TRUNC",
          "before": "",
          "after": ""
        }
      ]
    }
  ]
}