{
  "sentences": [
    {
      "index": 0,
      "basicDependencies": [
        {
          "dep": "ROOT",
          "governor": 0,
          "governorGloss": "ROOT",
          "dependent": 4,
          "dependentGloss": "lancement"
        },
        {
          "dep": "neg",
          "governor": 4,
          "governorGloss": "lancement",
          "dependent": 1,
          "dependentGloss": "Nicht"
        },
        {
          "dep": "punct",
          "governor": 4,
          "governorGloss": "lancement",
          "dependent": 2,
          "dependentGloss": ","
        },
        {
          "dep": "det",
          "governor": 4,
          "governorGloss": "lancement",
          "dependent": 3,
          "dependentGloss": "le"
        },
        {
          "dep": "case",
          "governor": 9,
          "governorGloss": "Wars",
          "dependent": 5,
          "dependentGloss": "du"
        },
        {
          "dep": "name",
          "governor": 9,
          "governorGloss": "Wars",
          "dependent": 6,
          "dependentGloss": "nouveau"
        },
        {
          "dep": "punct",
          "governor": 9,
          "governorGloss": "Wars",
          "dependent": 7,
          "dependentGloss": "``"
        },
        {
          "dep": "name",
          "governor": 9,
          "governorGloss": "Wars",
          "dependent": 8,
          "dependentGloss": "Star"
        },
        {
          "dep": "nmod",
          "governor": 4,
          "governorGloss": "lancement",
          "dependent": 9,
          "dependentGloss": "Wars"
        },
        {
          "dep": "punct",
          "governor": 9,
          "governorGloss": "Wars",
          "dependent": 10,
          "dependentGloss": "''"
        },
        {
          "dep": "name",
          "governor": 14,
          "governorGloss": "devancé",
          "dependent": 11,
          "dependentGloss": "ne"
        },
        {
          "dep": "name",
          "governor": 14,
          "governorGloss": "devancé",
          "dependent": 12,
          "dependentGloss": "sera"
        },
        {
          "dep": "name",
          "governor": 14,
          "governorGloss": "devancé",
          "dependent": 13,
          "dependentGloss": "pas"
        },
        {
          "dep": "appos",
          "governor": 9,
          "governorGloss": "Wars",
          "dependent": 14,
          "dependentGloss": "devancé"
        },
        {
          "dep": "advmod",
          "governor": 17,
          "governorGloss": "été",
          "dependent": 15,
          "dependentGloss": "à"
        },
        {
          "dep": "nmod",
          "governor": 17,
          "governorGloss": "été",
          "dependent": 16,
          "dependentGloss": "cet"
        },
        {
          "dep": "punct",
          "governor": 9,
          "governorGloss": "Wars",
          "dependent": 17,
          "dependentGloss": "été"
        }
      ],
      "enhancedDependencies": [
        {
          "dep": "ROOT",
          "governor": 0,
          "governorGloss": "ROOT",
          "dependent": 4,
          "dependentGloss": "lancement"
        },
        {
          "dep": "neg",
          "governor": 4,
          "governorGloss": "lancement",
          "dependent": 1,
          "dependentGloss": "Nicht"
        },
        {
          "dep": "punct",
          "governor": 4,
          "governorGloss": "lancement",
          "dependent": 2,
          "dependentGloss": ","
        },
        {
          "dep": "det",
          "governor": 4,
          "governorGloss": "lancement",
          "dependent": 3,
          "dependentGloss": "le"
        },
        {
          "dep": "case",
          "governor": 9,
          "governorGloss": "Wars",
          "dependent": 5,
          "dependentGloss": "du"
        },
        {
          "dep": "name",
          "governor": 9,
          "governorGloss": "Wars",
          "dependent": 6,
          "dependentGloss": "nouveau"
        },
        {
          "dep": "punct",
          "governor": 9,
          "governorGloss": "Wars",
          "dependent": 7,
          "dependentGloss": "``"
        },
        {
          "dep": "name",
          "governor": 9,
          "governorGloss": "Wars",
          "dependent": 8,
          "dependentGloss": "Star"
        },
        {
          "dep": "nmod",
          "governor": 4,
          "governorGloss": "lancement",
          "dependent": 9,
          "dependentGloss": "Wars"
        },
        {
          "dep": "punct",
          "governor": 9,
          "governorGloss": "Wars",
          "dependent": 10,
          "dependentGloss": "''"
        },
        {
          "dep": "name",
          "governor": 14,
          "governorGloss": "devancé",
          "dependent": 11,
          "dependentGloss": "ne"
        },
        {
          "dep": "name",
          "governor": 14,
          "governorGloss": "devancé",
          "dependent": 12,
          "dependentGloss": "sera"
        },
        {
          "dep": "name",
          "governor": 14,
          "governorGloss": "devancé",
          "dependent": 13,
          "dependentGloss": "pas"
        },
        {
          "dep": "appos",
          "governor": 9,
          "governorGloss": "Wars",
          "dependent": 14,
          "dependentGloss": "devancé"
        },
        {
          "dep": "advmod",
          "governor": 17,
          "governorGloss": "été",
          "dependent": 15,
          "dependentGloss": "à"
        },
        {
          "dep": "nmod",
          "governor": 17,
          "governorGloss": "été",
          "dependent": 16,
          "dependentGloss": "cet"
        },
        {
          "dep": "punct",
          "governor": 9,
          "governorGloss": "Wars",
          "dependent": 17,
          "dependentGloss": "été"
        }
      ],
      "enhancedPlusPlusDependencies": [
        {
          "dep": "ROOT",
          "governor": 0,
          "governorGloss": "ROOT",
          "dependent": 4,
          "dependentGloss": "lancement"
        },
        {
          "dep": "neg",
          "governor": 4,
          "governorGloss": "lancement",
          "dependent": 1,
          "dependentGloss": "Nicht"
        },
        {
          "dep": "punct",
          "governor": 4,
          "governorGloss": "lancement",
          "dependent": 2,
          "dependentGloss": ","
        },
        {
          "dep": "det",
          "governor": 4,
          "governorGloss": "lancement",
          "dependent": 3,
          "dependentGloss": "le"
        },
        {
          "dep": "case",
          "governor": 9,
          "governorGloss": "Wars",
          "dependent": 5,
          "dependentGloss": "du"
        },
        {
          "dep": "name",
          "governor": 9,
          "governorGloss": "Wars",
          "dependent": 6,
          "dependentGloss": "nouveau"
        },
        {
          "dep": "punct",
          "governor": 9,
          "governorGloss": "Wars",
          "dependent": 7,
          "dependentGloss": "``"
        },
        {
          "dep": "name",
          "governor": 9,
          "governorGloss": "Wars",
          "dependent": 8,
          "dependentGloss": "Star"
        },
        {
          "dep": "nmod",
          "governor": 4,
          "governorGloss": "lancement",
          "dependent": 9,
          "dependentGloss": "Wars"
        },
        {
          "dep": "punct",
          "governor": 9,
          "governorGloss": "Wars",
          "dependent": 10,
          "dependentGloss": "''"
        },
        {
          "dep": "name",
          "governor": 14,
          "governorGloss": "devancé",
          "dependent": 11,
          "dependentGloss": "ne"
        },
        {
          "dep": "name",
          "governor": 14,
          "governorGloss": "devancé",
          "dependent": 12,
          "dependentGloss": "sera"
        },
        {
          "dep": "name",
          "governor": 14,
          "governorGloss": "devancé",
          "dependent": 13,
          "dependentGloss": "pas"
        },
        {
          "dep": "appos",
          "governor": 9,
          "governorGloss": "Wars",
          "dependent": 14,
          "dependentGloss": "devancé"
        },
        {
          "dep": "advmod",
          "governor": 17,
          "governorGloss": "été",
          "dependent": 15,
          "dependentGloss": "à"
        },
        {
          "dep": "nmod",
          "governor": 17,
          "governorGloss": "été",
          "dependent": 16,
          "dependentGloss": "cet"
        },
        {
          "dep": "punct",
          "governor": 9,
          "governorGloss": "Wars",
          "dependent": 17,
          "dependentGloss": "été"
        }
      ],
      "tokens": [
        {
          "index": 1,
          "word": "Nicht",
          "originalText": "Nicht",
          "characterOffsetBegin": 0,
          "characterOffsetEnd": 5,
          "pos": "PTKNEG",
          "before": "",
          "after": ""
        },
        {
          "index": 2,
          "word": ",",
          "originalText": ",",
          "characterOffsetBegin": 5,
          "characterOffsetEnd": 6,
          "pos": "$,",
          "before": "",
          "after": " "
        },
        {
          "index": 3,
          "word": "le",
          "originalText": "le",
          "characterOffsetBegin": 7,
          "characterOffsetEnd": 9,
          "pos": "KON",
          "before": " ",
          "after": " "
        },
        {
          "index": 4,
          "word": "lancement",
          "originalText": "lancement",
          "characterOffsetBegin": 10,
          "characterOffsetEnd": 19,
          "pos": "VVFIN",
          "before": " ",
          "after": " "
        },
        {
          "index": 5,
          "word": "du",
          "originalText": "du",
          "characterOffsetBegin": 20,
          "characterOffsetEnd": 22,
          "pos": "PPER",
          "before": " ",
          "after": " "
        },
        {
          "index": 6,
          "word": "nouveau",
          "originalText": "nouveau",
          "characterOffsetBegin": 23,
          "characterOffsetEnd": 30,
          "pos": "ADV",
          "before": " ",
          "after": " "
        },
        {
          "index": 7,
          "word": "``",
          "originalText": "«",
          "characterOffsetBegin": 31,
          "characterOffsetEnd": 32,
          "pos": "CARD",
          "before": " ",
          "after": ""
        },
        {
          "index": 8,
          "word": "Star",
          "originalText": "Star",
          "characterOffsetBegin": 32,
          "characterOffsetEnd": 36,
          "pos": "NN",
          "before": "",
          "after": " "
        },
        {
          "index": 9,
          "word": "Wars",
          "originalText": "Wars",
          "characterOffsetBegin": 37,
          "characterOffsetEnd": 41,
          "pos": "NN",
          "before": " ",
          "after": ""
        },
        {
          "index": 10,
          "word": "''",
          "originalText": "»",
          "characterOffsetBegin": 41,
          "characterOffsetEnd": 42,
          "pos": "CARD",
          "before": "",
          "after": " "
        },
        {
          "index": 11,
          "word": "ne",
          "originalText": "ne",
          "characterOffsetBegin": 43,
          "characterOffsetEnd": 45,
          "pos": "FM",
          "before": " ",
          "after": " "
        },
        {
          "index": 12,
          "word": "sera",
          "originalText": "sera",
          "characterOffsetBegin": 46,
          "characterOffsetEnd": 50,
          "pos": "FM",
          "before": " ",
          "after": " "
        },
        {
          "index": 13,
          "word": "pas",
          "originalText": "pas",
          "characterOffsetBegin": 51,
          "characterOffsetEnd": 54,
          "pos": "FM",
          "before": " ",
          "after": " "
        },
        {
          "index": 14,
          "word": "devancé",
          "originalText": "devancé",
          "characterOffsetBegin": 55,
          "characterOffsetEnd": 62,
          "pos": "FM",
          "before": " ",
          "after": " "
        },
        {
          "index": 15,
          "word": "à",
          "originalText": "à",
          "characterOffsetBegin": 63,
          "characterOffsetEnd": 64,
          "pos": "FM",
          "before": " ",
          "after": " "
        },
        {
          "index": 16,
          "word": "cet",
          "originalText": "cet",
          "characterOffsetBegin": 65,
          "characterOffsetEnd": 68,
          "pos": "FM",
          "before": " ",
          "after": " "
        },
        {
          "index": 17,
          "word": "été",
          "originalText": "été",
          "characterOffsetBegin": 69,
          "characterOffsetEnd": 72,
          "pos": "FM",
          "before": " ",
          "after": ""
        }
      ]
    }
  ]
}