{
  "sentences": [
    {
      "index": 0,
      "basicDependencies": [
        {
          "dep": "ROOT",
          "governor": 0,
          "governorGloss": "ROOT",
          "dependent": 2,
          "dependentGloss": "ISIS-Kämpfer"
        },
        {
          "dep": "nsubj",
          "governor": 2,
          "governorGloss": "ISIS-Kämpfer",
          "dependent": 1,
          "dependentGloss": "US-Sondierungsansprüche"
        },
        {
          "dep": "amod",
          "governor": 4,
          "governorGloss": "Waffen",
          "dependent": 3,
          "dependentGloss": "beschlagnahmte"
        },
        {
          "dep": "dobj",
          "governor": 2,
          "governorGloss": "ISIS-Kämpfer",
          "dependent": 4,
          "dependentGloss": "Waffen"
        },
        {
          "dep": "case",
          "governor": 6,
          "governorGloss": "Kurden",
          "dependent": 5,
          "dependentGloss": "für"
        },
        {
          "dep": "nmod",
          "governor": 2,
          "governorGloss": "ISIS-Kämpfer",
          "dependent": 6,
          "dependentGloss": "Kurden"
        }
      ],
      "enhancedDependencies": [
        {
          "dep": "ROOT",
          "governor": 0,
          "governorGloss": "ROOT",
          "dependent": 2,
          "dependentGloss": "ISIS-Kämpfer"
        },
        {
          "dep": "nsubj",
          "governor": 2,
          "governorGloss": "ISIS-Kämpfer",
          "dependent": 1,
          "dependentGloss": "US-Sondierungsansprüche"
        },
        {
          "dep": "amod",
          "governor": 4,
          "governorGloss": "Waffen",
          "dependent": 3,
          "dependentGloss": "beschlagnahmte"
        },
        {
          "dep": "dobj",
          "governor": 2,
          "governorGloss": "ISIS-Kämpfer",
          "dependent": 4,
          "dependentGloss": "Waffen"
        },
        {
          "dep": "case",
          "governor": 6,
          "governorGloss": "Kurden",
          "dependent": 5,
          "dependentGloss": "für"
        },
        {
          "dep": "nmod",
          "governor": 2,
          "governorGloss": "ISIS-Kämpfer",
          "dependent": 6,
          "dependentGloss": "Kurden"
        }
      ],
      "enhancedPlusPlusDependencies": [
        {
          "dep": "ROOT",
          "governor": 0,
          "governorGloss": "ROOT",
          "dependent": 2,
          "dependentGloss": "ISIS-Kämpfer"
        },
        {
          "dep": "nsubj",
          "governor": 2,
          "governorGloss": "ISIS-Kämpfer",
          "dependent": 1,
          "dependentGloss": "US-Sondierungsansprüche"
        },
        {
          "dep": "amod",
          "governor": 4,
          "governorGloss": "Waffen",
          "dependent": 3,
          "dependentGloss": "beschlagnahmte"
        },
        {
          "dep": "dobj",
          "governor": 2,
          "governorGloss": "ISIS-Kämpfer",
          "dependent": 4,
          "dependentGloss": "Waffen"
        },
        {
          "dep": "case",
          "governor": 6,
          "governorGloss": "Kurden",
          "dependent": 5,
          "dependentGloss": "für"
        },
        {
          "dep": "nmod",
          "governor": 2,
          "governorGloss": "ISIS-Kämpfer",
          "dependent": 6,
          "dependentGloss": "Kurden"
        }
      ],
      "tokens": [
        {
          "index": 1,
          "word": "US-Sondierungsansprüche",
          "originalText": "US-Sondierungsansprüche",
          "characterOffsetBegin": 0,
          "characterOffsetEnd": 23,
          "pos": "NN",
          "before": "",
          "after": " "
        },
        {
          "index": 2,
          "word": "ISIS-Kämpfer",
          "originalText": "ISIS-Kämpfer",
          "characterOffsetBegin": 24,
          "characterOffsetEnd": 36,
          "pos": "NN",
          "before": " ",
          "after": " "
        },
        {
          "index": 3,
          "word": "beschlagnahmte",
          "originalText": "beschlagnahmte",
          "characterOffsetBegin": 37,
          "characterOffsetEnd": 51,
          "pos": "VVFIN",
          "before": " ",
          "after": " "
        },
        {
          "index": 4,
          "word": "Waffen",
          "originalText": "Waffen",
          "characterOffsetBegin": 52,
          "characterOffsetEnd": 58,
          "pos": "NN",
          "before": " ",
          "after": " "
        },
        {
          "index": 5,
          "word": "für",
          "originalText": "für",
          "characterOffsetBegin": 59,
          "characterOffsetEnd": 62,
          "pos": "APPR",
          "before": " ",
          "after": " "
        },
        {
          "index": 6,
          "word": "Kurden",
          "originalText": "Kurden",
          "characterOffsetBegin": 63,
          "characterOffsetEnd": 69,
          "pos": "NN",
          "before": " ",
          "after": ""
        }
      ]
    }
  ]
}