{
  "sentences": [
    {
      "index": 0,
      "basicDependencies": [
        {
          "dep": "ROOT",
          "governor": 0,
          "governorGloss": "ROOT",
          "dependent": 2,
          "dependentGloss": "Eisbär"
        },
        {
          "dep": "advmod",
          "governor": 2,
          "governorGloss": "Eisbär",
          "dependent": 1,
          "dependentGloss": "Mechanischer"
        },
        {
          "dep": "dep",
          "governor": 2,
          "governorGloss": "Eisbär",
          "dependent": 3,
          "dependentGloss": "`"
        },
        {
          "dep": "root",
          "governor": 3,
          "governorGloss": "`",
          "dependent": 4,
          "dependentGloss": "bedroht"
        },
        {
          "dep": "case",
          "governor": 8,
          "governorGloss": "Singen",
          "dependent": 5,
          "dependentGloss": "mit"
        },
        {
          "dep": "amod",
          "governor": 8,
          "governorGloss": "Singen",
          "dependent": 6,
          "dependentGloss": "ASBO"
        },
        {
          "dep": "amod",
          "governor": 8,
          "governorGloss": "Singen",
          "dependent": 7,
          "dependentGloss": "zum"
        },
        {
          "dep": "nmod",
          "governor": 4,
          "governorGloss": "bedroht",
          "dependent": 8,
          "dependentGloss": "Singen"
        },
        {
          "dep": "case",
          "governor": 10,
          "governorGloss": "Weihnachtsliedern",
          "dependent": 9,
          "dependentGloss": "von"
        },
        {
          "dep": "nmod",
          "governor": 8,
          "governorGloss": "Singen",
          "dependent": 10,
          "dependentGloss": "Weihnachtsliedern"
        },
        {
          "dep": "punct",
          "governor": 4,
          "governorGloss": "bedroht",
          "dependent": 11,
          "dependentGloss": "'"
        }
      ],
      "enhancedDependencies": [
        {
          "dep": "ROOT",
          "governor": 0,
          "governorGloss": "ROOT",
          "dependent": 2,
          "dependentGloss": "Eisbär"
        },
        {
          "dep": "advmod",
          "governor": 2,
          "governorGloss": "Eisbär",
          "dependent": 1,
          "dependentGloss": "Mechanischer"
        },
        {
          "dep": "dep",
          "governor": 2,
          "governorGloss": "Eisbär",
          "dependent": 3,
          "dependentGloss": "`"
        },
        {
          "dep": "root",
          "governor": 3,
          "governorGloss": "`",
          "dependent": 4,
          "dependentGloss": "bedroht"
        },
        {
          "dep": "case",
          "governor": 8,
          "governorGloss": "Singen",
          "dependent": 5,
          "dependentGloss": "mit"
        },
        {
          "dep": "amod",
          "governor": 8,
          "governorGloss": "Singen",
          "dependent": 6,
          "dependentGloss": "ASBO"
        },
        {
          "dep": "amod",
          "governor": 8,
          "governorGloss": "Singen",
          "dependent": 7,
          "dependentGloss": "zum"
        },
        {
          "dep": "nmod",
          "governor": 4,
          "governorGloss": "bedroht",
          "dependent": 8,
          "dependentGloss": "Singen"
        },
        {
          "dep": "case",
          "governor": 10,
          "governorGloss": "Weihnachtsliedern",
          "dependent": 9,
          "dependentGloss": "von"
        },
        {
          "dep": "nmod",
          "governor": 8,
          "governorGloss": "Singen",
          "dependent": 10,
          "dependentGloss": "Weihnachtsliedern"
        },
        {
          "dep": "punct",
          "governor": 4,
          "governorGloss": "bedroht",
          "dependent": 11,
          "dependentGloss": "'"
        }
      ],
      "enhancedPlusPlusDependencies": [
        {
          "dep": "ROOT",
          "governor": 0,
          "governorGloss": "ROOT",
          "dependent": 2,
          "dependentGloss": "Eisbär"
        },
        {
          "dep": "advmod",
          "governor": 2,
          "governorGloss": "Eisbär",
          "dependent": 1,
          "dependentGloss": "Mechanischer"
        },
        {
          "dep": "dep",
          "governor": 2,
          "governorGloss": "Eisbär",
          "dependent": 3,
          "dependentGloss": "`"
        },
        {
          "dep": "root",
          "governor": 3,
          "governorGloss": "`",
          "dependent": 4,
          "dependentGloss": "bedroht"
        },
        {
          "dep": "case",
          "governor": 8,
          "governorGloss": "Singen",
          "dependent": 5,
          "dependentGloss": "mit"
        },
        {
          "dep": "amod",
          "governor": 8,
          "governorGloss": "Singen",
          "dependent": 6,
          "dependentGloss": "ASBO"
        },
        {
          "dep": "amod",
          "governor": 8,
          "governorGloss": "Singen",
          "dependent": 7,
          "dependentGloss": "zum"
        },
        {
          "dep": "nmod",
          "governor": 4,
          "governorGloss": "bedroht",
          "dependent": 8,
          "dependentGloss": "Singen"
        },
        {
          "dep": "case",
          "governor": 10,
          "governorGloss": "Weihnachtsliedern",
          "dependent": 9,
          "dependentGloss": "von"
        },
        {
          "dep": "nmod",
          "governor": 8,
          "governorGloss": "Singen",
          "dependent": 10,
          "dependentGloss": "Weihnachtsliedern"
        },
        {
          "dep": "punct",
          "governor": 4,
          "governorGloss": "bedroht",
          "dependent": 11,
          "dependentGloss": "'"
        }
      ],
      "tokens": [
        {
          "index": 1,
          "word": "Mechanischer",
          "originalText": "Mechanischer",
          "characterOffsetBegin": 0,
          "characterOffsetEnd": 12,
          "pos": "ADJA",
          "before": "",
          "after": " "
        },
        {
          "index": 2,
          "word": "Eisbär",
          "originalText": "Eisbär",
          "characterOffsetBegin": 13,
          "characterOffsetEnd": 19,
          "pos": "NN",
          "before": " ",
          "after": " "
        },
        {
          "index": 3,
          "word": "`",
          "originalText": "'",
          "characterOffsetBegin": 20,
          "characterOffsetEnd": 21,
          "pos": "CARD",
          "before": " ",
          "after": ""
        },
        {
          "index": 4,
          "word": "bedroht",
          "originalText": "bedroht",
          "characterOffsetBegin": 21,
          "characterOffsetEnd": 28,
          "pos": "VVPP",
          "before": "",
          "after": " "
        },
        {
          "index": 5,
          "word": "mit",
          "originalText": "mit",
          "characterOffsetBegin": 29,
          "characterOffsetEnd": 32,
          "pos": "APPR",
          "before": " ",
          "after": " "
        },
        {
          "index": 6,
          "word": "ASBO",
          "originalText": "ASBO",
          "characterOffsetBegin": 33,
          "characterOffsetEnd": 37,
          "pos": "NN",
          "before": " ",
          "after": " "
        },
        {
          "index": 7,
          "word": "zum",
          "originalText": "zum",
          "characterOffsetBegin": 38,
          "characterOffsetEnd": 41,
          "pos": "APPRART",
          "before": " ",
          "after": " "
        },
        {
          "index": 8,
          "word": "Singen",
          "originalText": "Singen",
          "characterOffsetBegin": 42,
          "characterOffsetEnd": 48,
          "pos": "NN",
          "before": " ",
          "after": " "
        },
        {
          "index": 9,
          "word": "von",
          "originalText": "von",
          "characterOffsetBegin": 49,
          "characterOffsetEnd": 52,
          "pos": "APPR",
          "before": " ",
          "after": " "
        },
        {
          "index": 10,
          "word": "Weihnachtsliedern",
          "originalText": "Weihnachtsliedern",
          "characterOffsetBegin": 53,
          "characterOffsetEnd": 70,
          "pos": "NN",
          "before": " ",
          "after": ""
        },
        {
          "index": 11,
          "word": "'",
          "originalText": "'",
          "characterOffsetBegin": 70,
          "characterOffsetEnd": 71,
          "pos": "$[",
          "before": "",
          "after": ""
        }
      ]
    }
  ]
}