{
  "sentences": [
    {
      "index": 0,
      "basicDependencies": [
        {
          "dep": "ROOT",
          "governor": 0,
          "governorGloss": "ROOT",
          "dependent": 9,
          "dependentGloss": "Un"
        },
        {
          "dep": "aux",
          "governor": 9,
          "governorGloss": "Un",
          "dependent": 1,
          "dependentGloss": "Hat"
        },
        {
          "dep": "name",
          "governor": 3,
          "governorGloss": "Yo-Jong",
          "dependent": 2,
          "dependentGloss": "Kim"
        },
        {
          "dep": "iobj",
          "governor": 9,
          "governorGloss": "Un",
          "dependent": 3,
          "dependentGloss": "Yo-Jong"
        },
        {
          "dep": "det",
          "governor": 5,
          "governorGloss": "Rolle",
          "dependent": 4,
          "dependentGloss": "die"
        },
        {
          "dep": "nsubj",
          "governor": 9,
          "governorGloss": "Un",
          "dependent": 5,
          "dependentGloss": "Rolle"
        },
        {
          "dep": "case",
          "governor": 8,
          "governorGloss": "Jong",
          "dependent": 6,
          "dependentGloss": "von"
        },
        {
          "dep": "name",
          "governor": 8,
          "governorGloss": "Jong",
          "dependent": 7,
          "dependentGloss": "Kim"
        },
        {
          "dep": "nmod",
          "governor": 5,
          "governorGloss": "Rolle",
          "dependent": 8,
          "dependentGloss": "Jong"
        },
        {
          "dep": "punct",
          "governor": 9,
          "governorGloss": "Un",
          "dependent": 10,
          "dependentGloss": "?"
        }
      ],
      "enhancedDependencies": [
        {
          "dep": "ROOT",
          "governor": 0,
          "governorGloss": "ROOT",
          "dependent": 9,
          "dependentGloss": "Un"
        },
        {
          "dep": "aux",
          "governor": 9,
          "governorGloss": "Un",
          "dependent": 1,
          "dependentGloss": "Hat"
        },
        {
          "dep": "name",
          "governor": 3,
          "governorGloss": "Yo-Jong",
          "dependent": 2,
          "dependentGloss": "Kim"
        },
        {
          "dep": "iobj",
          "governor": 9,
          "governorGloss": "Un",
          "dependent": 3,
          "dependentGloss": "Yo-Jong"
        },
        {
          "dep": "det",
          "governor": 5,
          "governorGloss": "Rolle",
          "dependent": 4,
          "dependentGloss": "die"
        },
        {
          "dep": "nsubj",
          "governor": 9,
          "governorGloss": "Un",
          "dependent": 5,
          "dependentGloss": "Rolle"
        },
        {
          "dep": "case",
          "governor": 8,
          "governorGloss": "Jong",
          "dependent": 6,
          "dependentGloss": "von"
        },
        {
          "dep": "name",
          "governor": 8,
          "governorGloss": "Jong",
          "dependent": 7,
          "dependentGloss": "Kim"
        },
        {
          "dep": "nmod",
          "governor": 5,
          "governorGloss": "Rolle",
          "dependent": 8,
          "dependentGloss": "Jong"
        },
        {
          "dep": "punct",
          "governor": 9,
          "governorGloss": "Un",
          "dependent": 10,
          "dependentGloss": "?"
        }
      ],
      "enhancedPlusPlusDependencies": [
        {
          "dep": "ROOT",
          "governor": 0,
          "governorGloss": "ROOT",
          "dependent": 9,
          "dependentGloss": "Un"
        },
        {
          "dep": "aux",
          "governor": 9,
          "governorGloss": "Un",
          "dependent": 1,
          "dependentGloss": "Hat"
        },
        {
          "dep": "name",
          "governor": 3,
          "governorGloss": "Yo-Jong",
          "dependent": 2,
          "dependentGloss": "Kim"
        },
        {
          "dep": "iobj",
          "governor": 9,
          "governorGloss": "Un",
          "dependent": 3,
          "dependentGloss": "Yo-Jong"
        },
        {
          "dep": "det",
          "governor": 5,
          "governorGloss": "Rolle",
          "dependent": 4,
          "dependentGloss": "die"
        },
        {
          "dep": "nsubj",
          "governor": 9,
          "governorGloss": "Un",
          "dependent": 5,
          "dependentGloss": "Rolle"
        },
        {
          "dep": "case",
          "governor": 8,
          "governorGloss": "Jong",
          "dependent": 6,
          "dependentGloss": "von"
        },
        {
          "dep": "name",
          "governor": 8,
          "governorGloss": "Jong",
          "dependent": 7,
          "dependentGloss": "Kim"
        },
        {
          "dep": "nmod",
          "governor": 5,
          "governorGloss": "Rolle",
          "dependent": 8,
          "dependentGloss": "Jong"
        },
        {
          "dep": "punct",
          "governor": 9,
          "governorGloss": "Un",
          "dependent": 10,
          "dependentGloss": "?"
        }
      ],
      "tokens": [
        {
          "index": 1,
          "word": "Hat",
          "originalText": "Hat",
          "characterOffsetBegin": 0,
          "characterOffsetEnd": 3,
          "pos": "VAFIN",
          "before": "",
          "after": " "
        },
        {
          "index": 2,
          "word": "Kim",
          "originalText": "Kim",
          "characterOffsetBegin": 4,
          "characterOffsetEnd": 7,
          "pos": "NE",
          "before": " ",
          "after": " "
        },
        {
          "index": 3,
          "word": "Yo-Jong",
          "originalText": "Yo-Jong",
          "characterOffsetBegin": 8,
          "characterOffsetEnd": 15,
          "pos": "NE",
          "before": " ",
          "after": " "
        },
        {
          "index": 4,
          "word": "die",
          "originalText": "die",
          "characterOffsetBegin": 16,
          "characterOffsetEnd": 19,
          "pos": "ART",
          "before": " ",
          "after": " "
        },
        {
          "index": 5,
          "word": "Rolle",
          "originalText": "Rolle",
          "characterOffsetBegin": 20,
          "characterOffsetEnd": 25,
          "pos": "NN",
          "before": " ",
          "after": " "
        },
        {
          "index": 6,
          "word": "von",
          "originalText": "von",
          "characterOffsetBegin": 26,
          "characterOffsetEnd": 29,
          "pos": "APPR",
          "before": " ",
          "after": " "
        },
        {
          "index": 7,
          "word": "Kim",
          "originalText": "Kim",
          "characterOffsetBegin": 30,
          "characterOffsetEnd": 33,
          "pos": "NE",
          "before": " ",
          "after": " "
        },
        {
          "index": 8,
          "word": "Jong",
          "originalText": "Jong",
          "characterOffsetBegin": 34,
          "characterOffsetEnd": 38,
          "pos": "NE",
          "before": " ",
          "after": " "
        },
        {
          "index": 9,
          "word": "Un",
          "originalText": "Un",
          "characterOffsetBegin": 39,
          "characterOffsetEnd": 41,
          "pos": "NE",
          "before": " ",
          "after": ""
        },
        {
          "index": 10,
          "word": "?",
          "originalText": "?",
          "characterOffsetBegin": 41,
          "characterOffsetEnd": 42,
          "pos": "$.",
          "before": "",
          "after": " "
        }
      ]
    },
    {
      "index": 1,
      "basicDependencies": [
        {
          "dep": "ROOT",
          "governor": 0,
          "governorGloss": "ROOT",
          "dependent": 4,
          "dependentGloss": "Gerüchte"
        },
        {
          "dep": "advmod",
          "governor": 4,
          "governorGloss": "Gerüchte",
          "dependent": 1,
          "dependentGloss": "Nordkorea"
        },
        {
          "dep": "amod",
          "governor": 3,
          "governorGloss": "Gesundheit",
          "dependent": 2,
          "dependentGloss": "Ill"
        },
        {
          "dep": "nsubj",
          "governor": 4,
          "governorGloss": "Gerüchte",
          "dependent": 3,
          "dependentGloss": "Gesundheit"
        },
        {
          "dep": "cop",
          "governor": 4,
          "governorGloss": "Gerüchte",
          "dependent": 5,
          "dependentGloss": "sind"
        },
        {
          "dep": "punct",
          "governor": 7,
          "governorGloss": "gefertigt",
          "dependent": 6,
          "dependentGloss": "``"
        },
        {
          "dep": "nsubj",
          "governor": 4,
          "governorGloss": "Gerüchte",
          "dependent": 7,
          "dependentGloss": "gefertigt"
        },
        {
          "dep": "punct",
          "governor": 7,
          "governorGloss": "gefertigt",
          "dependent": 8,
          "dependentGloss": "``"
        }
      ],
      "enhancedDependencies": [
        {
          "dep": "ROOT",
          "governor": 0,
          "governorGloss": "ROOT",
          "dependent": 4,
          "dependentGloss": "Gerüchte"
        },
        {
          "dep": "advmod",
          "governor": 4,
          "governorGloss": "Gerüchte",
          "dependent": 1,
          "dependentGloss": "Nordkorea"
        },
        {
          "dep": "amod",
          "governor": 3,
          "governorGloss": "Gesundheit",
          "dependent": 2,
          "dependentGloss": "Ill"
        },
        {
          "dep": "nsubj",
          "governor": 4,
          "governorGloss": "Gerüchte",
          "dependent": 3,
          "dependentGloss": "Gesundheit"
        },
        {
          "dep": "cop",
          "governor": 4,
          "governorGloss": "Gerüchte",
          "dependent": 5,
          "dependentGloss": "sind"
        },
        {
          "dep": "punct",
          "governor": 7,
          "governorGloss": "gefertigt",
          "dependent": 6,
          "dependentGloss": "``"
        },
        {
          "dep": "nsubj",
          "governor": 4,
          "governorGloss": "Gerüchte",
          "dependent": 7,
          "dependentGloss": "gefertigt"
        },
        {
          "dep": "punct",
          "governor": 7,
          "governorGloss": "gefertigt",
          "dependent": 8,
          "dependentGloss": "``"
        }
      ],
      "enhancedPlusPlusDependencies": [
        {
          "dep": "ROOT",
          "governor": 0,
          "governorGloss": "ROOT",
          "dependent": 4,
          "dependentGloss": "Gerüchte"
        },
        {
          "dep": "advmod",
          "governor": 4,
          "governorGloss": "Gerüchte",
          "dependent": 1,
          "dependentGloss": "Nordkorea"
        },
        {
          "dep": "amod",
          "governor": 3,
          "governorGloss": "Gesundheit",
          "dependent": 2,
          "dependentGloss": "Ill"
        },
        {
          "dep": "nsubj",
          "governor": 4,
          "governorGloss": "Gerüchte",
          "dependent": 3,
          "dependentGloss": "Gesundheit"
        },
        {
          "dep": "cop",
          "governor": 4,
          "governorGloss": "Gerüchte",
          "dependent": 5,
          "dependentGloss": "sind"
        },
        {
          "dep": "punct",
          "governor": 7,
          "governorGloss": "gefertigt",
          "dependent": 6,
          "dependentGloss": "``"
        },
        {
          "dep": "nsubj",
          "governor": 4,
          "governorGloss": "Gerüchte",
          "dependent": 7,
          "dependentGloss": "gefertigt"
        },
        {
          "dep": "punct",
          "governor": 7,
          "governorGloss": "gefertigt",
          "dependent": 8,
          "dependentGloss": "``"
        }
      ],
      "tokens": [
        {
          "index": 1,
          "word": "Nordkorea",
          "originalText": "Nordkorea",
          "characterOffsetBegin": 43,
          "characterOffsetEnd": 52,
          "pos": "NE",
          "before": " ",
          "after": " "
        },
        {
          "index": 2,
          "word": "Ill",
          "originalText": "Ill",
          "characterOffsetBegin": 53,
          "characterOffsetEnd": 56,
          "pos": "NE",
          "before": " ",
          "after": " "
        },
        {
          "index": 3,
          "word": "Gesundheit",
          "originalText": "Gesundheit",
          "characterOffsetBegin": 57,
          "characterOffsetEnd": 67,
          "pos": "NN",
          "before": " ",
          "after": " "
        },
        {
          "index": 4,
          "word": "Gerüchte",
          "originalText": "Gerüchte",
          "characterOffsetBegin": 68,
          "characterOffsetEnd": 76,
          "pos": "NN",
          "before": " ",
          "after": " "
        },
        {
          "index": 5,
          "word": "sind",
          "originalText": "sind",
          "characterOffsetBegin": 77,
          "characterOffsetEnd": 81,
          "pos": "VAFIN",
          "before": " ",
          "after": " "
        },
        {
          "index": 6,
          "word": "``",
          "originalText": "“",
          "characterOffsetBegin": 82,
          "characterOffsetEnd": 83,
          "pos": "ADJD",
          "before": " ",
          "after": ""
        },
        {
          "index": 7,
          "word": "gefertigt",
          "originalText": "gefertigt",
          "characterOffsetBegin": 83,
          "characterOffsetEnd": 92,
          "pos": "VVPP",
          "before": "",
          "after": ""
        },
        {
          "index": 8,
          "word": "``",
          "originalText": "“",
          "characterOffsetBegin": 92,
          "characterOffsetEnd": 93,
          "pos": "XY",
          "before": "",
          "after": ""
        }
      ]
    }
  ]
}