{
  "sentences": [
    {
      "index": 0,
      "basicDependencies": [
        {
          "dep": "ROOT",
          "governor": 0,
          "governorGloss": "ROOT",
          "dependent": 24,
          "dependentGloss": "getötet"
        },
        {
          "dep": "amod",
          "governor": 2,
          "governorGloss": "NEWS",
          "dependent": 1,
          "dependentGloss": "BREAKING"
        },
        {
          "dep": "nsubjpass",
          "governor": 24,
          "governorGloss": "getötet",
          "dependent": 2,
          "dependentGloss": "NEWS"
        },
        {
          "dep": "punct",
          "governor": 2,
          "governorGloss": "NEWS",
          "dependent": 3,
          "dependentGloss": ":"
        },
        {
          "dep": "amod",
          "governor": 6,
          "governorGloss": "Hilfsarbeiterin",
          "dependent": 4,
          "dependentGloss": "Weibliche"
        },
        {
          "dep": "amod",
          "governor": 6,
          "governorGloss": "Hilfsarbeiterin",
          "dependent": 5,
          "dependentGloss": "amerikanische"
        },
        {
          "dep": "appos",
          "governor": 2,
          "governorGloss": "NEWS",
          "dependent": 6,
          "dependentGloss": "Hilfsarbeiterin"
        },
        {
          "dep": "punct",
          "governor": 6,
          "governorGloss": "Hilfsarbeiterin",
          "dependent": 7,
          "dependentGloss": ","
        },
        {
          "dep": "conj",
          "governor": 6,
          "governorGloss": "Hilfsarbeiterin",
          "dependent": 8,
          "dependentGloss": "26"
        },
        {
          "dep": "punct",
          "governor": 6,
          "governorGloss": "Hilfsarbeiterin",
          "dependent": 9,
          "dependentGloss": ","
        },
        {
          "dep": "nsubjpass",
          "governor": 16,
          "governorGloss": "gelobt",
          "dependent": 10,
          "dependentGloss": "die"
        },
        {
          "dep": "case",
          "governor": 13,
          "governorGloss": "Monaten",
          "dependent": 11,
          "dependentGloss": "seit"
        },
        {
          "dep": "nummod",
          "governor": 13,
          "governorGloss": "Monaten",
          "dependent": 12,
          "dependentGloss": "18"
        },
        {
          "dep": "nmod",
          "governor": 16,
          "governorGloss": "gelobt",
          "dependent": 13,
          "dependentGloss": "Monaten"
        },
        {
          "dep": "case",
          "governor": 15,
          "governorGloss": "ISIS",
          "dependent": 14,
          "dependentGloss": "von"
        },
        {
          "dep": "nmod",
          "governor": 16,
          "governorGloss": "gelobt",
          "dependent": 15,
          "dependentGloss": "ISIS"
        },
        {
          "dep": "acl",
          "governor": 6,
          "governorGloss": "Hilfsarbeiterin",
          "dependent": 16,
          "dependentGloss": "gelobt"
        },
        {
          "dep": "auxpass",
          "governor": 16,
          "governorGloss": "gelobt",
          "dependent": 17,
          "dependentGloss": "wurde"
        },
        {
          "dep": "punct",
          "governor": 6,
          "governorGloss": "Hilfsarbeiterin",
          "dependent": 18,
          "dependentGloss": ","
        },
        {
          "dep": "auxpass",
          "governor": 24,
          "governorGloss": "getötet",
          "dependent": 19,
          "dependentGloss": "wurde"
        },
        {
          "dep": "advmod",
          "governor": 24,
          "governorGloss": "getötet",
          "dependent": 20,
          "dependentGloss": "im"
        },
        {
          "dep": "advmod",
          "governor": 24,
          "governorGloss": "getötet",
          "dependent": 21,
          "dependentGloss": "jordanischen"
        },
        {
          "dep": "nsubjpass",
          "governor": 24,
          "governorGloss": "getötet",
          "dependent": 22,
          "dependentGloss": "Luftangriff"
        },
        {
          "dep": "punct",
          "governor": 24,
          "governorGloss": "getötet",
          "dependent": 23,
          "dependentGloss": "``"
        },
        {
          "dep": "punct",
          "governor": 24,
          "governorGloss": "getötet",
          "dependent": 25,
          "dependentGloss": "``"
        }
      ],
      "enhancedDependencies": [
        {
          "dep": "ROOT",
          "governor": 0,
          "governorGloss": "ROOT",
          "dependent": 24,
          "dependentGloss": "getötet"
        },
        {
          "dep": "amod",
          "governor": 2,
          "governorGloss": "NEWS",
          "dependent": 1,
          "dependentGloss": "BREAKING"
        },
        {
          "dep": "nsubjpass",
          "governor": 24,
          "governorGloss": "getötet",
          "dependent": 2,
          "dependentGloss": "NEWS"
        },
        {
          "dep": "punct",
          "governor": 2,
          "governorGloss": "NEWS",
          "dependent": 3,
          "dependentGloss": ":"
        },
        {
          "dep": "amod",
          "governor": 6,
          "governorGloss": "Hilfsarbeiterin",
          "dependent": 4,
          "dependentGloss": "Weibliche"
        },
        {
          "dep": "amod",
          "governor": 6,
          "governorGloss": "Hilfsarbeiterin",
          "dependent": 5,
          "dependentGloss": "amerikanische"
        },
        {
          "dep": "appos",
          "governor": 2,
          "governorGloss": "NEWS",
          "dependent": 6,
          "dependentGloss": "Hilfsarbeiterin"
        },
        {
          "dep": "punct",
          "governor": 6,
          "governorGloss": "Hilfsarbeiterin",
          "dependent": 7,
          "dependentGloss": ","
        },
        {
          "dep": "conj",
          "governor": 6,
          "governorGloss": "Hilfsarbeiterin",
          "dependent": 8,
          "dependentGloss": "26"
        },
        {
          "dep": "punct",
          "governor": 6,
          "governorGloss": "Hilfsarbeiterin",
          "dependent": 9,
          "dependentGloss": ","
        },
        {
          "dep": "nsubjpass",
          "governor": 16,
          "governorGloss": "gelobt",
          "dependent": 10,
          "dependentGloss": "die"
        },
        {
          "dep": "case",
          "governor": 13,
          "governorGloss": "Monaten",
          "dependent": 11,
          "dependentGloss": "seit"
        },
        {
          "dep": "nummod",
          "governor": 13,
          "governorGloss": "Monaten",
          "dependent": 12,
          "dependentGloss": "18"
        },
        {
          "dep": "nmod",
          "governor": 16,
          "governorGloss": "gelobt",
          "dependent": 13,
          "dependentGloss": "Monaten"
        },
        {
          "dep": "case",
          "governor": 15,
          "governorGloss": "ISIS",
          "dependent": 14,
          "dependentGloss": "von"
        },
        {
          "dep": "nmod",
          "governor": 16,
          "governorGloss": "gelobt",
          "dependent": 15,
          "dependentGloss": "ISIS"
        },
        {
          "dep": "acl",
          "governor": 6,
          "governorGloss": "Hilfsarbeiterin",
          "dependent": 16,
          "dependentGloss": "gelobt"
        },
        {
          "dep": "auxpass",
          "governor": 16,
          "governorGloss": "gelobt",
          "dependent": 17,
          "dependentGloss": "wurde"
        },
        {
          "dep": "punct",
          "governor": 6,
          "governorGloss": "Hilfsarbeiterin",
          "dependent": 18,
          "dependentGloss": ","
        },
        {
          "dep": "auxpass",
          "governor": 24,
          "governorGloss": "getötet",
          "dependent": 19,
          "dependentGloss": "wurde"
        },
        {
          "dep": "advmod",
          "governor": 24,
          "governorGloss": "getötet",
          "dependent": 20,
          "dependentGloss": "im"
        },
        {
          "dep": "advmod",
          "governor": 24,
          "governorGloss": "getötet",
          "dependent": 21,
          "dependentGloss": "jordanischen"
        },
        {
          "dep": "nsubjpass",
          "governor": 24,
          "governorGloss": "getötet",
          "dependent": 22,
          "dependentGloss": "Luftangriff"
        },
        {
          "dep": "punct",
          "governor": 24,
          "governorGloss": "getötet",
          "dependent": 23,
          "dependentGloss": "``"
        },
        {
          "dep": "punct",
          "governor": 24,
          "governorGloss": "getötet",
          "dependent": 25,
          "dependentGloss": "``"
        }
      ],
      "enhancedPlusPlusDependencies": [
        {
          "dep": "ROOT",
          "governor": 0,
          "governorGloss": "ROOT",
          "dependent": 24,
          "dependentGloss": "getötet"
        },
        {
          "dep": "amod",
          "governor": 2,
          "governorGloss": "NEWS",
          "dependent": 1,
          "dependentGloss": "BREAKING"
        },
        {
          "dep": "nsubjpass",
          "governor": 24,
          "governorGloss": "getötet",
          "dependent": 2,
          "dependentGloss": "NEWS"
        },
        {
          "dep": "punct",
          "governor": 2,
          "governorGloss": "NEWS",
          "dependent": 3,
          "dependentGloss": ":"
        },
        {
          "dep": "amod",
          "governor": 6,
          "governorGloss": "Hilfsarbeiterin",
          "dependent": 4,
          "dependentGloss": "Weibliche"
        },
        {
          "dep": "amod",
          "governor": 6,
          "governorGloss": "Hilfsarbeiterin",
          "dependent": 5,
          "dependentGloss": "amerikanische"
        },
        {
          "dep": "appos",
          "governor": 2,
          "governorGloss": "NEWS",
          "dependent": 6,
          "dependentGloss": "Hilfsarbeiterin"
        },
        {
          "dep": "punct",
          "governor": 6,
          "governorGloss": "Hilfsarbeiterin",
          "dependent": 7,
          "dependentGloss": ","
        },
        {
          "dep": "conj",
          "governor": 6,
          "governorGloss": "Hilfsarbeiterin",
          "dependent": 8,
          "dependentGloss": "26"
        },
        {
          "dep": "punct",
          "governor": 6,
          "governorGloss": "Hilfsarbeiterin",
          "dependent": 9,
          "dependentGloss": ","
        },
        {
          "dep": "nsubjpass",
          "governor": 16,
          "governorGloss": "gelobt",
          "dependent": 10,
          "dependentGloss": "die"
        },
        {
          "dep": "case",
          "governor": 13,
          "governorGloss": "Monaten",
          "dependent": 11,
          "dependentGloss": "seit"
        },
        {
          "dep": "nummod",
          "governor": 13,
          "governorGloss": "Monaten",
          "dependent": 12,
          "dependentGloss": "18"
        },
        {
          "dep": "nmod",
          "governor": 16,
          "governorGloss": "gelobt",
          "dependent": 13,
          "dependentGloss": "Monaten"
        },
        {
          "dep": "case",
          "governor": 15,
          "governorGloss": "ISIS",
          "dependent": 14,
          "dependentGloss": "von"
        },
        {
          "dep": "nmod",
          "governor": 16,
          "governorGloss": "gelobt",
          "dependent": 15,
          "dependentGloss": "ISIS"
        },
        {
          "dep": "acl",
          "governor": 6,
          "governorGloss": "Hilfsarbeiterin",
          "dependent": 16,
          "dependentGloss": "gelobt"
        },
        {
          "dep": "auxpass",
          "governor": 16,
          "governorGloss": "gelobt",
          "dependent": 17,
          "dependentGloss": "wurde"
        },
        {
          "dep": "punct",
          "governor": 6,
          "governorGloss": "Hilfsarbeiterin",
          "dependent": 18,
          "dependentGloss": ","
        },
        {
          "dep": "auxpass",
          "governor": 24,
          "governorGloss": "getötet",
          "dependent": 19,
          "dependentGloss": "wurde"
        },
        {
          "dep": "advmod",
          "governor": 24,
          "governorGloss": "getötet",
          "dependent": 20,
          "dependentGloss": "im"
        },
        {
          "dep": "advmod",
          "governor": 24,
          "governorGloss": "getötet",
          "dependent": 21,
          "dependentGloss": "jordanischen"
        },
        {
          "dep": "nsubjpass",
          "governor": 24,
          "governorGloss": "getötet",
          "dependent": 22,
          "dependentGloss": "Luftangriff"
        },
        {
          "dep": "punct",
          "governor": 24,
          "governorGloss": "getötet",
          "dependent": 23,
          "dependentGloss": "``"
        },
        {
          "dep": "punct",
          "governor": 24,
          "governorGloss": "getötet",
          "dependent": 25,
          "dependentGloss": "``"
        }
      ],
      "tokens": [
        {
          "index": 1,
          "word": "BREAKING",
          "originalText": "BREAKING",
          "characterOffsetBegin": 0,
          "characterOffsetEnd": 8,
          "pos": "NE",
          "before": "",
          "after": " "
        },
        {
          "index": 2,
          "word": "NEWS",
          "originalText": "NEWS",
          "characterOffsetBegin": 9,
          "characterOffsetEnd": 13,
          "pos": "NE",
          "before": " ",
          "after": ""
        },
        {
          "index": 3,
          "word": ":",
          "originalText": ":",
          "characterOffsetBegin": 13,
          "characterOffsetEnd": 14,
          "pos": "$.",
          "before": "",
          "after": " "
        },
        {
          "index": 4,
          "word": "Weibliche",
          "originalText": "Weibliche",
          "characterOffsetBegin": 15,
          "characterOffsetEnd": 24,
          "pos": "ADJA",
          "before": " ",
          "after": " "
        },
        {
          "index": 5,
          "word": "amerikanische",
          "originalText": "amerikanische",
          "characterOffsetBegin": 25,
          "characterOffsetEnd": 38,
          "pos": "ADJA",
          "before": " ",
          "after": " "
        },
        {
          "index": 6,
          "word": "Hilfsarbeiterin",
          "originalText": "Hilfsarbeiterin",
          "characterOffsetBegin": 39,
          "characterOffsetEnd": 54,
          "pos": "NN",
          "before": " ",
          "after": ""
        },
        {
          "index": 7,
          "word": ",",
          "originalText": ",",
          "characterOffsetBegin": 54,
          "characterOffsetEnd": 55,
          "pos": "$,",
          "before": "",
          "after": " "
        },
        {
          "index": 8,
          "word": "26",
          "originalText": "26",
          "characterOffsetBegin": 56,
          "characterOffsetEnd": 58,
          "pos": "CARD",
          "before": " ",
          "after": ""
        },
        {
          "index": 9,
          "word": ",",
          "originalText": ",",
          "characterOffsetBegin": 58,
          "characterOffsetEnd": 59,
          "pos": "$,",
          "before": "",
          "after": " "
        },
        {
          "index": 10,
          "word": "die",
          "originalText": "die",
          "characterOffsetBegin": 60,
          "characterOffsetEnd": 63,
          "pos": "PRELS",
          "before": " ",
          "after": " "
        },
        {
          "index": 11,
          "word": "seit",
          "originalText": "seit",
          "characterOffsetBegin": 64,
          "characterOffsetEnd": 68,
          "pos": "APPR",
          "before": " ",
          "after": " "
        },
        {
          "index": 12,
          "word": "18",
          "originalText": "18",
          "characterOffsetBegin": 69,
          "characterOffsetEnd": 71,
          "pos": "CARD",
          "before": " ",
          "after": " "
        },
        {
          "index": 13,
          "word": "Monaten",
          "originalText": "Monaten",
          "characterOffsetBegin": 72,
          "characterOffsetEnd": 79,
          "pos": "NN",
          "before": " ",
          "after": " "
        },
        {
          "index": 14,
          "word": "von",
          "originalText": "von",
          "characterOffsetBegin": 80,
          "characterOffsetEnd": 83,
          "pos": "APPR",
          "before": " ",
          "after": " "
        },
        {
          "index": 15,
          "word": "ISIS",
          "originalText": "ISIS",
          "characterOffsetBegin": 84,
          "characterOffsetEnd": 88,
          "pos": "NE",
          "before": " ",
          "after": " "
        },
        {
          "index": 16,
          "word": "gelobt",
          "originalText": "gelobt",
          "characterOffsetBegin": 89,
          "characterOffsetEnd": 95,
          "pos": "VVPP",
          "before": " ",
          "after": " "
        },
        {
          "index": 17,
          "word": "wurde",
          "originalText": "wurde",
          "characterOffsetBegin": 96,
          "characterOffsetEnd": 101,
          "pos": "VAFIN",
          "before": " ",
          "after": ""
        },
        {
          "index": 18,
          "word": ",",
          "originalText": ",",
          "characterOffsetBegin": 101,
          "characterOffsetEnd": 102,
          "pos": "$,",
          "before": "",
          "after": " "
        },
        {
          "index": 19,
          "word": "wurde",
          "originalText": "wurde",
          "characterOffsetBegin": 103,
          "characterOffsetEnd": 108,
          "pos": "VAFIN",
          "before": " ",
          "after": " "
        },
        {
          "index": 20,
          "word": "im",
          "originalText": "im",
          "characterOffsetBegin": 109,
          "characterOffsetEnd": 111,
          "pos": "APPRART",
          "before": " ",
          "after": " "
        },
        {
          "index": 21,
          "word": "jordanischen",
          "originalText": "jordanischen",
          "characterOffsetBegin": 112,
          "characterOffsetEnd": 124,
          "pos": "ADJA",
          "before": " ",
          "after": " "
        },
        {
          "index": 22,
          "word": "Luftangriff",
          "originalText": "Luftangriff",
          "characterOffsetBegin": 125,
          "characterOffsetEnd": 136,
          "pos": "NN",
          "before": " ",
          "after": " "
        },
        {
          "index": 23,
          "word": "``",
          "originalText": "“",
          "characterOffsetBegin": 137,
          "characterOffsetEnd": 138,
          "pos": "CARD",
          "before": " ",
          "after": ""
        },
        {
          "index": 24,
          "word": "getötet",
          "originalText": "getötet",
          "characterOffsetBegin": 138,
          "characterOffsetEnd": 145,
          "pos": "VVPP",
          "before": "",
          "after": ""
        },
        {
          "index": 25,
          "word": "``",
          "originalText": "“",
          "characterOffsetBegin": 145,
          "characterOffsetEnd": 146,
          "pos": "XY",
          "before": "",
          "after": ""
        }
      ]
    }
  ]
}