{
  "sentences": [
    {
      "index": 0,
      "basicDependencies": [
        {
          "dep": "ROOT",
          "governor": 0,
          "governorGloss": "ROOT",
          "dependent": 8,
          "dependentGloss": "Homophobe"
        },
        {
          "dep": "aux",
          "governor": 8,
          "governorGloss": "Homophobe",
          "dependent": 1,
          "dependentGloss": "Hat"
        },
        {
          "dep": "name",
          "governor": 3,
          "governorGloss": "Rudd",
          "dependent": 2,
          "dependentGloss": "Paul"
        },
        {
          "dep": "det",
          "governor": 4,
          "governorGloss": "Hilfe",
          "dependent": 3,
          "dependentGloss": "Rudd"
        },
        {
          "dep": "nsubj",
          "governor": 8,
          "governorGloss": "Homophobe",
          "dependent": 4,
          "dependentGloss": "Hilfe"
        },
        {
          "dep": "dobj",
          "governor": 8,
          "governorGloss": "Homophobe",
          "dependent": 5,
          "dependentGloss": "nehmen"
        },
        {
          "dep": "name",
          "governor": 7,
          "governorGloss": "Airport",
          "dependent": 6,
          "dependentGloss": "Dallas"
        },
        {
          "dep": "appos",
          "governor": 5,
          "governorGloss": "nehmen",
          "dependent": 7,
          "dependentGloss": "Airport"
        },
        {
          "dep": "punct",
          "governor": 8,
          "governorGloss": "Homophobe",
          "dependent": 9,
          "dependentGloss": "?"
        }
      ],
      "enhancedDependencies": [
        {
          "dep": "ROOT",
          "governor": 0,
          "governorGloss": "ROOT",
          "dependent": 8,
          "dependentGloss": "Homophobe"
        },
        {
          "dep": "aux",
          "governor": 8,
          "governorGloss": "Homophobe",
          "dependent": 1,
          "dependentGloss": "Hat"
        },
        {
          "dep": "name",
          "governor": 3,
          "governorGloss": "Rudd",
          "dependent": 2,
          "dependentGloss": "Paul"
        },
        {
          "dep": "det",
          "governor": 4,
          "governorGloss": "Hilfe",
          "dependent": 3,
          "dependentGloss": "Rudd"
        },
        {
          "dep": "nsubj",
          "governor": 8,
          "governorGloss": "Homophobe",
          "dependent": 4,
          "dependentGloss": "Hilfe"
        },
        {
          "dep": "dobj",
          "governor": 8,
          "governorGloss": "Homophobe",
          "dependent": 5,
          "dependentGloss": "nehmen"
        },
        {
          "dep": "name",
          "governor": 7,
          "governorGloss": "Airport",
          "dependent": 6,
          "dependentGloss": "Dallas"
        },
        {
          "dep": "appos",
          "governor": 5,
          "governorGloss": "nehmen",
          "dependent": 7,
          "dependentGloss": "Airport"
        },
        {
          "dep": "punct",
          "governor": 8,
          "governorGloss": "Homophobe",
          "dependent": 9,
          "dependentGloss": "?"
        }
      ],
      "enhancedPlusPlusDependencies": [
        {
          "dep": "ROOT",
          "governor": 0,
          "governorGloss": "ROOT",
          "dependent": 8,
          "dependentGloss": "Homophobe"
        },
        {
          "dep": "aux",
          "governor": 8,
          "governorGloss": "Homophobe",
          "dependent": 1,
          "dependentGloss": "Hat"
        },
        {
          "dep": "name",
          "governor": 3,
          "governorGloss": "Rudd",
          "dependent": 2,
          "dependentGloss": "Paul"
        },
        {
          "dep": "det",
          "governor": 4,
          "governorGloss": "Hilfe",
          "dependent": 3,
          "dependentGloss": "Rudd"
        },
        {
          "dep": "nsubj",
          "governor": 8,
          "governorGloss": "Homophobe",
          "dependent": 4,
          "dependentGloss": "Hilfe"
        },
        {
          "dep": "dobj",
          "governor": 8,
          "governorGloss": "Homophobe",
          "dependent": 5,
          "dependentGloss": "nehmen"
        },
        {
          "dep": "name",
          "governor": 7,
          "governorGloss": "Airport",
          "dependent": 6,
          "dependentGloss": "Dallas"
        },
        {
          "dep": "appos",
          "governor": 5,
          "governorGloss": "nehmen",
          "dependent": 7,
          "dependentGloss": "Airport"
        },
        {
          "dep": "punct",
          "governor": 8,
          "governorGloss": "Homophobe",
          "dependent": 9,
          "dependentGloss": "?"
        }
      ],
      "tokens": [
        {
          "index": 1,
          "word": "Hat",
          "originalText": "Hat",
          "characterOffsetBegin": 0,
          "characterOffsetEnd": 3,
          "pos": "VAFIN",
          "before": "",
          "after": " "
        },
        {
          "index": 2,
          "word": "Paul",
          "originalText": "Paul",
          "characterOffsetBegin": 4,
          "characterOffsetEnd": 8,
          "pos": "NE",
          "before": " ",
          "after": " "
        },
        {
          "index": 3,
          "word": "Rudd",
          "originalText": "Rudd",
          "characterOffsetBegin": 9,
          "characterOffsetEnd": 13,
          "pos": "NE",
          "before": " ",
          "after": " "
        },
        {
          "index": 4,
          "word": "Hilfe",
          "originalText": "Hilfe",
          "characterOffsetBegin": 14,
          "characterOffsetEnd": 19,
          "pos": "NN",
          "before": " ",
          "after": " "
        },
        {
          "index": 5,
          "word": "nehmen",
          "originalText": "nehmen",
          "characterOffsetBegin": 20,
          "characterOffsetEnd": 26,
          "pos": "VVFIN",
          "before": " ",
          "after": " "
        },
        {
          "index": 6,
          "word": "Dallas",
          "originalText": "Dallas",
          "characterOffsetBegin": 27,
          "characterOffsetEnd": 33,
          "pos": "NE",
          "before": " ",
          "after": " "
        },
        {
          "index": 7,
          "word": "Airport",
          "originalText": "Airport",
          "characterOffsetBegin": 34,
          "characterOffsetEnd": 41,
          "pos": "NE",
          "before": " ",
          "after": " "
        },
        {
          "index": 8,
          "word": "Homophobe",
          "originalText": "Homophobe",
          "characterOffsetBegin": 42,
          "characterOffsetEnd": 51,
          "pos": "NE",
          "before": " ",
          "after": ""
        },
        {
          "index": 9,
          "word": "?",
          "originalText": "?",
          "characterOffsetBegin": 51,
          "characterOffsetEnd": 52,
          "pos": "$.",
          "before": "",
          "after": ""
        }
      ]
    }
  ]
}