{
  "sentences": [
    {
      "index": 0,
      "basicDependencies": [
        {
          "dep": "ROOT",
          "governor": 0,
          "governorGloss": "ROOT",
          "dependent": 2,
          "dependentGloss": "Jetliner"
        },
        {
          "dep": "nummod",
          "governor": 2,
          "governorGloss": "Jetliner",
          "dependent": 1,
          "dependentGloss": "11"
        },
        {
          "dep": "punct",
          "governor": 4,
          "governorGloss": "fehlt",
          "dependent": 3,
          "dependentGloss": "`"
        },
        {
          "dep": "nsubj",
          "governor": 2,
          "governorGloss": "Jetliner",
          "dependent": 4,
          "dependentGloss": "fehlt"
        },
        {
          "dep": "punct",
          "governor": 4,
          "governorGloss": "fehlt",
          "dependent": 5,
          "dependentGloss": "'"
        },
        {
          "dep": "case",
          "governor": 8,
          "governorGloss": "Übernahme",
          "dependent": 6,
          "dependentGloss": "nach"
        },
        {
          "dep": "amod",
          "governor": 8,
          "governorGloss": "Übernahme",
          "dependent": 7,
          "dependentGloss": "islamistischer"
        },
        {
          "dep": "nmod",
          "governor": 4,
          "governorGloss": "fehlt",
          "dependent": 8,
          "dependentGloss": "Übernahme"
        },
        {
          "dep": "det",
          "governor": 10,
          "governorGloss": "Flughafens",
          "dependent": 9,
          "dependentGloss": "des"
        },
        {
          "dep": "det",
          "governor": 8,
          "governorGloss": "Übernahme",
          "dependent": 10,
          "dependentGloss": "Flughafens"
        }
      ],
      "enhancedDependencies": [
        {
          "dep": "ROOT",
          "governor": 0,
          "governorGloss": "ROOT",
          "dependent": 2,
          "dependentGloss": "Jetliner"
        },
        {
          "dep": "nummod",
          "governor": 2,
          "governorGloss": "Jetliner",
          "dependent": 1,
          "dependentGloss": "11"
        },
        {
          "dep": "punct",
          "governor": 4,
          "governorGloss": "fehlt",
          "dependent": 3,
          "dependentGloss": "`"
        },
        {
          "dep": "nsubj",
          "governor": 2,
          "governorGloss": "Jetliner",
          "dependent": 4,
          "dependentGloss": "fehlt"
        },
        {
          "dep": "punct",
          "governor": 4,
          "governorGloss": "fehlt",
          "dependent": 5,
          "dependentGloss": "'"
        },
        {
          "dep": "case",
          "governor": 8,
          "governorGloss": "Übernahme",
          "dependent": 6,
          "dependentGloss": "nach"
        },
        {
          "dep": "amod",
          "governor": 8,
          "governorGloss": "Übernahme",
          "dependent": 7,
          "dependentGloss": "islamistischer"
        },
        {
          "dep": "nmod",
          "governor": 4,
          "governorGloss": "fehlt",
          "dependent": 8,
          "dependentGloss": "Übernahme"
        },
        {
          "dep": "det",
          "governor": 10,
          "governorGloss": "Flughafens",
          "dependent": 9,
          "dependentGloss": "des"
        },
        {
          "dep": "det",
          "governor": 8,
          "governorGloss": "Übernahme",
          "dependent": 10,
          "dependentGloss": "Flughafens"
        }
      ],
      "enhancedPlusPlusDependencies": [
        {
          "dep": "ROOT",
          "governor": 0,
          "governorGloss": "ROOT",
          "dependent": 2,
          "dependentGloss": "Jetliner"
        },
        {
          "dep": "nummod",
          "governor": 2,
          "governorGloss": "Jetliner",
          "dependent": 1,
          "dependentGloss": "11"
        },
        {
          "dep": "punct",
          "governor": 4,
          "governorGloss": "fehlt",
          "dependent": 3,
          "dependentGloss": "`"
        },
        {
          "dep": "nsubj",
          "governor": 2,
          "governorGloss": "Jetliner",
          "dependent": 4,
          "dependentGloss": "fehlt"
        },
        {
          "dep": "punct",
          "governor": 4,
          "governorGloss": "fehlt",
          "dependent": 5,
          "dependentGloss": "'"
        },
        {
          "dep": "case",
          "governor": 8,
          "governorGloss": "Übernahme",
          "dependent": 6,
          "dependentGloss": "nach"
        },
        {
          "dep": "amod",
          "governor": 8,
          "governorGloss": "Übernahme",
          "dependent": 7,
          "dependentGloss": "islamistischer"
        },
        {
          "dep": "nmod",
          "governor": 4,
          "governorGloss": "fehlt",
          "dependent": 8,
          "dependentGloss": "Übernahme"
        },
        {
          "dep": "det",
          "governor": 10,
          "governorGloss": "Flughafens",
          "dependent": 9,
          "dependentGloss": "des"
        },
        {
          "dep": "det",
          "governor": 8,
          "governorGloss": "Übernahme",
          "dependent": 10,
          "dependentGloss": "Flughafens"
        }
      ],
      "tokens": [
        {
          "index": 1,
          "word": "11",
          "originalText": "11",
          "characterOffsetBegin": 0,
          "characterOffsetEnd": 2,
          "pos": "CARD",
          "before": "",
          "after": " "
        },
        {
          "index": 2,
          "word": "Jetliner",
          "originalText": "Jetliner",
          "characterOffsetBegin": 3,
          "characterOffsetEnd": 11,
          "pos": "NN",
          "before": " ",
          "after": " "
        },
        {
          "index": 3,
          "word": "`",
          "originalText": "'",
          "characterOffsetBegin": 12,
          "characterOffsetEnd": 13,
          "pos": "CARD",
          "before": " ",
          "after": ""
        },
        {
          "index": 4,
          "word": "fehlt",
          "originalText": "fehlt",
          "characterOffsetBegin": 13,
          "characterOffsetEnd": 18,
          "pos": "VVFIN",
          "before": "",
          "after": ""
        },
        {
          "index": 5,
          "word": "'",
          "originalText": "'",
          "characterOffsetBegin": 18,
          "characterOffsetEnd": 19,
          "pos": "$[",
          "before": "",
          "after": " "
        },
        {
          "index": 6,
          "word": "nach",
          "originalText": "nach",
          "characterOffsetBegin": 20,
          "characterOffsetEnd": 24,
          "pos": "APPR",
          "before": " ",
          "after": " "
        },
        {
          "index": 7,
          "word": "islamistischer",
          "originalText": "islamistischer",
          "characterOffsetBegin": 25,
          "characterOffsetEnd": 39,
          "pos": "ADJA",
          "before": " ",
          "after": " "
        },
        {
          "index": 8,
          "word": "Übernahme",
          "originalText": "Übernahme",
          "characterOffsetBegin": 40,
          "characterOffsetEnd": 49,
          "pos": "NN",
          "before": " ",
          "after": " "
        },
        {
          "index": 9,
          "word": "des",
          "originalText": "des",
          "characterOffsetBegin": 50,
          "characterOffsetEnd": 53,
          "pos": "ART",
          "before": " ",
          "after": " "
        },
        {
          "index": 10,
          "word": "Flughafens",
          "originalText": "Flughafens",
          "characterOffsetBegin": 54,
          "characterOffsetEnd": 64,
          "pos": "NN",
          "before": " ",
          "after": ""
        }
      ]
    }
  ]
}