{
  "sentences": [
    {
      "index": 0,
      "basicDependencies": [
        {
          "dep": "ROOT",
          "governor": 0,
          "governorGloss": "ROOT",
          "dependent": 1,
          "dependentGloss": "Nein"
        },
        {
          "dep": "punct",
          "governor": 1,
          "governorGloss": "Nein",
          "dependent": 2,
          "dependentGloss": ","
        },
        {
          "dep": "det",
          "governor": 4,
          "governorGloss": "Vogel",
          "dependent": 3,
          "dependentGloss": "ein"
        },
        {
          "dep": "nsubj",
          "governor": 10,
          "governorGloss": "geworfen",
          "dependent": 4,
          "dependentGloss": "Vogel"
        },
        {
          "dep": "aux",
          "governor": 10,
          "governorGloss": "geworfen",
          "dependent": 5,
          "dependentGloss": "hat"
        },
        {
          "dep": "neg",
          "governor": 9,
          "governorGloss": "Putin",
          "dependent": 6,
          "dependentGloss": "nicht"
        },
        {
          "dep": "case",
          "governor": 9,
          "governorGloss": "Putin",
          "dependent": 7,
          "dependentGloss": "auf"
        },
        {
          "dep": "name",
          "governor": 9,
          "governorGloss": "Putin",
          "dependent": 8,
          "dependentGloss": "Wladimir"
        },
        {
          "dep": "nmod",
          "governor": 10,
          "governorGloss": "geworfen",
          "dependent": 9,
          "dependentGloss": "Putin"
        },
        {
          "dep": "conj",
          "governor": 1,
          "governorGloss": "Nein",
          "dependent": 10,
          "dependentGloss": "geworfen"
        }
      ],
      "enhancedDependencies": [
        {
          "dep": "ROOT",
          "governor": 0,
          "governorGloss": "ROOT",
          "dependent": 1,
          "dependentGloss": "Nein"
        },
        {
          "dep": "punct",
          "governor": 1,
          "governorGloss": "Nein",
          "dependent": 2,
          "dependentGloss": ","
        },
        {
          "dep": "det",
          "governor": 4,
          "governorGloss": "Vogel",
          "dependent": 3,
          "dependentGloss": "ein"
        },
        {
          "dep": "nsubj",
          "governor": 10,
          "governorGloss": "geworfen",
          "dependent": 4,
          "dependentGloss": "Vogel"
        },
        {
          "dep": "aux",
          "governor": 10,
          "governorGloss": "geworfen",
          "dependent": 5,
          "dependentGloss": "hat"
        },
        {
          "dep": "neg",
          "governor": 9,
          "governorGloss": "Putin",
          "dependent": 6,
          "dependentGloss": "nicht"
        },
        {
          "dep": "case",
          "governor": 9,
          "governorGloss": "Putin",
          "dependent": 7,
          "dependentGloss": "auf"
        },
        {
          "dep": "name",
          "governor": 9,
          "governorGloss": "Putin",
          "dependent": 8,
          "dependentGloss": "Wladimir"
        },
        {
          "dep": "nmod",
          "governor": 10,
          "governorGloss": "geworfen",
          "dependent": 9,
          "dependentGloss": "Putin"
        },
        {
          "dep": "conj",
          "governor": 1,
          "governorGloss": "Nein",
          "dependent": 10,
          "dependentGloss": "geworfen"
        }
      ],
      "enhancedPlusPlusDependencies": [
        {
          "dep": "ROOT",
          "governor": 0,
          "governorGloss": "ROOT",
          "dependent": 1,
          "dependentGloss": "Nein"
        },
        {
          "dep": "punct",
          "governor": 1,
          "governorGloss": "Nein",
          "dependent": 2,
          "dependentGloss": ","
        },
        {
          "dep": "det",
          "governor": 4,
          "governorGloss": "Vogel",
          "dependent": 3,
          "dependentGloss": "ein"
        },
        {
          "dep": "nsubj",
          "governor": 10,
          "governorGloss": "geworfen",
          "dependent": 4,
          "dependentGloss": "Vogel"
        },
        {
          "dep": "aux",
          "governor": 10,
          "governorGloss": "geworfen",
          "dependent": 5,
          "dependentGloss": "hat"
        },
        {
          "dep": "neg",
          "governor": 9,
          "governorGloss": "Putin",
          "dependent": 6,
          "dependentGloss": "nicht"
        },
        {
          "dep": "case",
          "governor": 9,
          "governorGloss": "Putin",
          "dependent": 7,
          "dependentGloss": "auf"
        },
        {
          "dep": "name",
          "governor": 9,
          "governorGloss": "Putin",
          "dependent": 8,
          "dependentGloss": "Wladimir"
        },
        {
          "dep": "nmod",
          "governor": 10,
          "governorGloss": "geworfen",
          "dependent": 9,
          "dependentGloss": "Putin"
        },
        {
          "dep": "conj",
          "governor": 1,
          "governorGloss": "Nein",
          "dependent": 10,
          "dependentGloss": "geworfen"
        }
      ],
      "tokens": [
        {
          "index": 1,
          "word": "Nein",
          "originalText": "Nein",
          "characterOffsetBegin": 0,
          "characterOffsetEnd": 4,
          "pos": "PTKANT",
          "before": "",
          "after": ""
        },
        {
          "index": 2,
          "word": ",",
          "originalText": ",",
          "characterOffsetBegin": 4,
          "characterOffsetEnd": 5,
          "pos": "$,",
          "before": "",
          "after": " "
        },
        {
          "index": 3,
          "word": "ein",
          "originalText": "ein",
          "characterOffsetBegin": 6,
          "characterOffsetEnd": 9,
          "pos": "ART",
          "before": " ",
          "after": " "
        },
        {
          "index": 4,
          "word": "Vogel",
          "originalText": "Vogel",
          "characterOffsetBegin": 10,
          "characterOffsetEnd": 15,
          "pos": "NN",
          "before": " ",
          "after": " "
        },
        {
          "index": 5,
          "word": "hat",
          "originalText": "hat",
          "characterOffsetBegin": 16,
          "characterOffsetEnd": 19,
          "pos": "VAFIN",
          "before": " ",
          "after": " "
        },
        {
          "index": 6,
          "word": "nicht",
          "originalText": "nicht",
          "characterOffsetBegin": 20,
          "characterOffsetEnd": 25,
          "pos": "PTKNEG",
          "before": " ",
          "after": " "
        },
        {
          "index": 7,
          "word": "auf",
          "originalText": "auf",
          "characterOffsetBegin": 26,
          "characterOffsetEnd": 29,
          "pos": "APPR",
          "before": " ",
          "after": " "
        },
        {
          "index": 8,
          "word": "Wladimir",
          "originalText": "Wladimir",
          "characterOffsetBegin": 30,
          "characterOffsetEnd": 38,
          "pos": "NE",
          "before": " ",
          "after": " "
        },
        {
          "index": 9,
          "word": "Putin",
          "originalText": "Putin",
          "characterOffsetBegin": 39,
          "characterOffsetEnd": 44,
          "pos": "NE",
          "before": " ",
          "after": " "
        },
        {
          "index": 10,
          "word": "geworfen",
          "originalText": "geworfen",
          "characterOffsetBegin": 45,
          "characterOffsetEnd": 53,
          "pos": "VVPP",
          "before": " ",
          "after": ""
        }
      ]
    }
  ]
}