{
  "sentences": [
    {
      "index": 0,
      "basicDependencies": [
        {
          "dep": "ROOT",
          "governor": 0,
          "governorGloss": "ROOT",
          "dependent": 2,
          "dependentGloss": "Jong-Un"
        },
        {
          "dep": "name",
          "governor": 2,
          "governorGloss": "Jong-Un",
          "dependent": 1,
          "dependentGloss": "Kim"
        },
        {
          "dep": "punct",
          "governor": 2,
          "governorGloss": "Jong-Un",
          "dependent": 3,
          "dependentGloss": "`"
        },
        {
          "dep": "amod",
          "governor": 5,
          "governorGloss": "Krankenhaus",
          "dependent": 4,
          "dependentGloss": "im"
        },
        {
          "dep": "dobj",
          "governor": 3,
          "governorGloss": "`",
          "dependent": 5,
          "dependentGloss": "Krankenhaus"
        },
        {
          "dep": "case",
          "governor": 8,
          "governorGloss": "gebrochenen",
          "dependent": 6,
          "dependentGloss": "mit"
        },
        {
          "dep": "nummod",
          "governor": 8,
          "governorGloss": "gebrochenen",
          "dependent": 7,
          "dependentGloss": "zwei"
        },
        {
          "dep": "nmod",
          "governor": 5,
          "governorGloss": "Krankenhaus",
          "dependent": 8,
          "dependentGloss": "gebrochenen"
        },
        {
          "dep": "appos",
          "governor": 8,
          "governorGloss": "gebrochenen",
          "dependent": 9,
          "dependentGloss": "Knöcheln"
        },
        {
          "dep": "case",
          "governor": 9,
          "governorGloss": "Knöcheln",
          "dependent": 10,
          "dependentGloss": "'"
        },
        {
          "dep": "case",
          "governor": 13,
          "governorGloss": "Ballonfahren",
          "dependent": 11,
          "dependentGloss": "nach"
        },
        {
          "dep": "det",
          "governor": 13,
          "governorGloss": "Ballonfahren",
          "dependent": 12,
          "dependentGloss": "dem"
        },
        {
          "dep": "nmod",
          "governor": 9,
          "governorGloss": "Knöcheln",
          "dependent": 13,
          "dependentGloss": "Ballonfahren"
        },
        {
          "dep": "case",
          "governor": 17,
          "governorGloss": "Stein",
          "dependent": 14,
          "dependentGloss": "auf"
        },
        {
          "dep": "advmod",
          "governor": 16,
          "governorGloss": "20",
          "dependent": 15,
          "dependentGloss": "rund"
        },
        {
          "dep": "nummod",
          "governor": 17,
          "governorGloss": "Stein",
          "dependent": 16,
          "dependentGloss": "20"
        },
        {
          "dep": "nmod",
          "governor": 13,
          "governorGloss": "Ballonfahren",
          "dependent": 17,
          "dependentGloss": "Stein"
        },
        {
          "dep": "cc",
          "governor": 9,
          "governorGloss": "Knöcheln",
          "dependent": 18,
          "dependentGloss": "und"
        },
        {
          "dep": "conj",
          "governor": 9,
          "governorGloss": "Knöcheln",
          "dependent": 19,
          "dependentGloss": "gehen"
        },
        {
          "dep": "case",
          "governor": 23,
          "governorGloss": "treffen",
          "dependent": 20,
          "dependentGloss": "auf"
        },
        {
          "dep": "amod",
          "governor": 23,
          "governorGloss": "treffen",
          "dependent": 21,
          "dependentGloss": "zahlreiche"
        },
        {
          "dep": "punct",
          "governor": 23,
          "governorGloss": "treffen",
          "dependent": 22,
          "dependentGloss": "`"
        },
        {
          "dep": "nmod",
          "governor": 19,
          "governorGloss": "gehen",
          "dependent": 23,
          "dependentGloss": "treffen"
        },
        {
          "dep": "det",
          "governor": 25,
          "governorGloss": "Leute",
          "dependent": 24,
          "dependentGloss": "die"
        },
        {
          "dep": "dobj",
          "governor": 19,
          "governorGloss": "gehen",
          "dependent": 25,
          "dependentGloss": "Leute"
        },
        {
          "dep": "punct",
          "governor": 25,
          "governorGloss": "Leute",
          "dependent": 26,
          "dependentGloss": "'"
        },
        {
          "dep": "appos",
          "governor": 25,
          "governorGloss": "Leute",
          "dependent": 27,
          "dependentGloss": "Walkabout"
        },
        {
          "dep": "name",
          "governor": 29,
          "governorGloss": "Stunts",
          "dependent": 28,
          "dependentGloss": "PR"
        },
        {
          "dep": "appos",
          "governor": 27,
          "governorGloss": "Walkabout",
          "dependent": 29,
          "dependentGloss": "Stunts"
        }
      ],
      "enhancedDependencies": [
        {
          "dep": "ROOT",
          "governor": 0,
          "governorGloss": "ROOT",
          "dependent": 2,
          "dependentGloss": "Jong-Un"
        },
        {
          "dep": "name",
          "governor": 2,
          "governorGloss": "Jong-Un",
          "dependent": 1,
          "dependentGloss": "Kim"
        },
        {
          "dep": "punct",
          "governor": 2,
          "governorGloss": "Jong-Un",
          "dependent": 3,
          "dependentGloss": "`"
        },
        {
          "dep": "amod",
          "governor": 5,
          "governorGloss": "Krankenhaus",
          "dependent": 4,
          "dependentGloss": "im"
        },
        {
          "dep": "dobj",
          "governor": 3,
          "governorGloss": "`",
          "dependent": 5,
          "dependentGloss": "Krankenhaus"
        },
        {
          "dep": "case",
          "governor": 8,
          "governorGloss": "gebrochenen",
          "dependent": 6,
          "dependentGloss": "mit"
        },
        {
          "dep": "nummod",
          "governor": 8,
          "governorGloss": "gebrochenen",
          "dependent": 7,
          "dependentGloss": "zwei"
        },
        {
          "dep": "nmod",
          "governor": 5,
          "governorGloss": "Krankenhaus",
          "dependent": 8,
          "dependentGloss": "gebrochenen"
        },
        {
          "dep": "appos",
          "governor": 8,
          "governorGloss": "gebrochenen",
          "dependent": 9,
          "dependentGloss": "Knöcheln"
        },
        {
          "dep": "case",
          "governor": 9,
          "governorGloss": "Knöcheln",
          "dependent": 10,
          "dependentGloss": "'"
        },
        {
          "dep": "case",
          "governor": 13,
          "governorGloss": "Ballonfahren",
          "dependent": 11,
          "dependentGloss": "nach"
        },
        {
          "dep": "det",
          "governor": 13,
          "governorGloss": "Ballonfahren",
          "dependent": 12,
          "dependentGloss": "dem"
        },
        {
          "dep": "nmod",
          "governor": 9,
          "governorGloss": "Knöcheln",
          "dependent": 13,
          "dependentGloss": "Ballonfahren"
        },
        {
          "dep": "case",
          "governor": 17,
          "governorGloss": "Stein",
          "dependent": 14,
          "dependentGloss": "auf"
        },
        {
          "dep": "advmod",
          "governor": 16,
          "governorGloss": "20",
          "dependent": 15,
          "dependentGloss": "rund"
        },
        {
          "dep": "nummod",
          "governor": 17,
          "governorGloss": "Stein",
          "dependent": 16,
          "dependentGloss": "20"
        },
        {
          "dep": "nmod",
          "governor": 13,
          "governorGloss": "Ballonfahren",
          "dependent": 17,
          "dependentGloss": "Stein"
        },
        {
          "dep": "cc",
          "governor": 9,
          "governorGloss": "Knöcheln",
          "dependent": 18,
          "dependentGloss": "und"
        },
        {
          "dep": "appos",
          "governor": 8,
          "governorGloss": "gebrochenen",
          "dependent": 19,
          "dependentGloss": "gehen"
        },
        {
          "dep": "conj:und",
          "governor": 9,
          "governorGloss": "Knöcheln",
          "dependent": 19,
          "dependentGloss": "gehen"
        },
        {
          "dep": "case",
          "governor": 23,
          "governorGloss": "treffen",
          "dependent": 20,
          "dependentGloss": "auf"
        },
        {
          "dep": "amod",
          "governor": 23,
          "governorGloss": "treffen",
          "dependent": 21,
          "dependentGloss": "zahlreiche"
        },
        {
          "dep": "punct",
          "governor": 23,
          "governorGloss": "treffen",
          "dependent": 22,
          "dependentGloss": "`"
        },
        {
          "dep": "nmod",
          "governor": 19,
          "governorGloss": "gehen",
          "dependent": 23,
          "dependentGloss": "treffen"
        },
        {
          "dep": "det",
          "governor": 25,
          "governorGloss": "Leute",
          "dependent": 24,
          "dependentGloss": "die"
        },
        {
          "dep": "dobj",
          "governor": 19,
          "governorGloss": "gehen",
          "dependent": 25,
          "dependentGloss": "Leute"
        },
        {
          "dep": "punct",
          "governor": 25,
          "governorGloss": "Leute",
          "dependent": 26,
          "dependentGloss": "'"
        },
        {
          "dep": "appos",
          "governor": 25,
          "governorGloss": "Leute",
          "dependent": 27,
          "dependentGloss": "Walkabout"
        },
        {
          "dep": "name",
          "governor": 29,
          "governorGloss": "Stunts",
          "dependent": 28,
          "dependentGloss": "PR"
        },
        {
          "dep": "appos",
          "governor": 27,
          "governorGloss": "Walkabout",
          "dependent": 29,
          "dependentGloss": "Stunts"
        }
      ],
      "enhancedPlusPlusDependencies": [
        {
          "dep": "ROOT",
          "governor": 0,
          "governorGloss": "ROOT",
          "dependent": 2,
          "dependentGloss": "Jong-Un"
        },
        {
          "dep": "name",
          "governor": 2,
          "governorGloss": "Jong-Un",
          "dependent": 1,
          "dependentGloss": "Kim"
        },
        {
          "dep": "punct",
          "governor": 2,
          "governorGloss": "Jong-Un",
          "dependent": 3,
          "dependentGloss": "`"
        },
        {
          "dep": "amod",
          "governor": 5,
          "governorGloss": "Krankenhaus",
          "dependent": 4,
          "dependentGloss": "im"
        },
        {
          "dep": "dobj",
          "governor": 3,
          "governorGloss": "`",
          "dependent": 5,
          "dependentGloss": "Krankenhaus"
        },
        {
          "dep": "case",
          "governor": 8,
          "governorGloss": "gebrochenen",
          "dependent": 6,
          "dependentGloss": "mit"
        },
        {
          "dep": "nummod",
          "governor": 8,
          "governorGloss": "gebrochenen",
          "dependent": 7,
          "dependentGloss": "zwei"
        },
        {
          "dep": "nmod",
          "governor": 5,
          "governorGloss": "Krankenhaus",
          "dependent": 8,
          "dependentGloss": "gebrochenen"
        },
        {
          "dep": "appos",
          "governor": 8,
          "governorGloss": "gebrochenen",
          "dependent": 9,
          "dependentGloss": "Knöcheln"
        },
        {
          "dep": "case",
          "governor": 9,
          "governorGloss": "Knöcheln",
          "dependent": 10,
          "dependentGloss": "'"
        },
        {
          "dep": "case",
          "governor": 13,
          "governorGloss": "Ballonfahren",
          "dependent": 11,
          "dependentGloss": "nach"
        },
        {
          "dep": "det",
          "governor": 13,
          "governorGloss": "Ballonfahren",
          "dependent": 12,
          "dependentGloss": "dem"
        },
        {
          "dep": "nmod",
          "governor": 9,
          "governorGloss": "Knöcheln",
          "dependent": 13,
          "dependentGloss": "Ballonfahren"
        },
        {
          "dep": "case",
          "governor": 17,
          "governorGloss": "Stein",
          "dependent": 14,
          "dependentGloss": "auf"
        },
        {
          "dep": "advmod",
          "governor": 16,
          "governorGloss": "20",
          "dependent": 15,
          "dependentGloss": "rund"
        },
        {
          "dep": "nummod",
          "governor": 17,
          "governorGloss": "Stein",
          "dependent": 16,
          "dependentGloss": "20"
        },
        {
          "dep": "nmod",
          "governor": 13,
          "governorGloss": "Ballonfahren",
          "dependent": 17,
          "dependentGloss": "Stein"
        },
        {
          "dep": "cc",
          "governor": 9,
          "governorGloss": "Knöcheln",
          "dependent": 18,
          "dependentGloss": "und"
        },
        {
          "dep": "appos",
          "governor": 8,
          "governorGloss": "gebrochenen",
          "dependent": 19,
          "dependentGloss": "gehen"
        },
        {
          "dep": "conj:und",
          "governor": 9,
          "governorGloss": "Knöcheln",
          "dependent": 19,
          "dependentGloss": "gehen"
        },
        {
          "dep": "case",
          "governor": 23,
          "governorGloss": "treffen",
          "dependent": 20,
          "dependentGloss": "auf"
        },
        {
          "dep": "amod",
          "governor": 23,
          "governorGloss": "treffen",
          "dependent": 21,
          "dependentGloss": "zahlreiche"
        },
        {
          "dep": "punct",
          "governor": 23,
          "governorGloss": "treffen",
          "dependent": 22,
          "dependentGloss": "`"
        },
        {
          "dep": "nmod",
          "governor": 19,
          "governorGloss": "gehen",
          "dependent": 23,
          "dependentGloss": "treffen"
        },
        {
          "dep": "det",
          "governor": 25,
          "governorGloss": "Leute",
          "dependent": 24,
          "dependentGloss": "die"
        },
        {
          "dep": "dobj",
          "governor": 19,
          "governorGloss": "gehen",
          "dependent": 25,
          "dependentGloss": "Leute"
        },
        {
          "dep": "punct",
          "governor": 25,
          "governorGloss": "Leute",
          "dependent": 26,
          "dependentGloss": "'"
        },
        {
          "dep": "appos",
          "governor": 25,
          "governorGloss": "Leute",
          "dependent": 27,
          "dependentGloss": "Walkabout"
        },
        {
          "dep": "name",
          "governor": 29,
          "governorGloss": "Stunts",
          "dependent": 28,
          "dependentGloss": "PR"
        },
        {
          "dep": "appos",
          "governor": 27,
          "governorGloss": "Walkabout",
          "dependent": 29,
          "dependentGloss": "Stunts"
        }
      ],
      "tokens": [
        {
          "index": 1,
          "word": "Kim",
          "originalText": "Kim",
          "characterOffsetBegin": 0,
          "characterOffsetEnd": 3,
          "pos": "NE",
          "before": "",
          "after": " "
        },
        {
          "index": 2,
          "word": "Jong-Un",
          "originalText": "Jong-Un",
          "characterOffsetBegin": 4,
          "characterOffsetEnd": 11,
          "pos": "NE",
          "before": " ",
          "after": " "
        },
        {
          "index": 3,
          "word": "`",
          "originalText": "'",
          "characterOffsetBegin": 12,
          "characterOffsetEnd": 13,
          "pos": "VVFIN",
          "before": " ",
          "after": ""
        },
        {
          "index": 4,
          "word": "im",
          "originalText": "im",
          "characterOffsetBegin": 13,
          "characterOffsetEnd": 15,
          "pos": "APPRART",
          "before": "",
          "after": " "
        },
        {
          "index": 5,
          "word": "Krankenhaus",
          "originalText": "Krankenhaus",
          "characterOffsetBegin": 16,
          "characterOffsetEnd": 27,
          "pos": "NN",
          "before": " ",
          "after": " "
        },
        {
          "index": 6,
          "word": "mit",
          "originalText": "mit",
          "characterOffsetBegin": 28,
          "characterOffsetEnd": 31,
          "pos": "APPR",
          "before": " ",
          "after": " "
        },
        {
          "index": 7,
          "word": "zwei",
          "originalText": "zwei",
          "characterOffsetBegin": 32,
          "characterOffsetEnd": 36,
          "pos": "CARD",
          "before": " ",
          "after": " "
        },
        {
          "index": 8,
          "word": "gebrochenen",
          "originalText": "gebrochenen",
          "characterOffsetBegin": 37,
          "characterOffsetEnd": 48,
          "pos": "ADJA",
          "before": " ",
          "after": " "
        },
        {
          "index": 9,
          "word": "Knöcheln",
          "originalText": "Knöcheln",
          "characterOffsetBegin": 49,
          "characterOffsetEnd": 57,
          "pos": "NN",
          "before": " ",
          "after": ""
        },
        {
          "index": 10,
          "word": "'",
          "originalText": "'",
          "characterOffsetBegin": 57,
          "characterOffsetEnd": 58,
          "pos": "$[",
          "before": "",
          "after": " "
        },
        {
          "index": 11,
          "word": "nach",
          "originalText": "nach",
          "characterOffsetBegin": 59,
          "characterOffsetEnd": 63,
          "pos": "APPR",
          "before": " ",
          "after": " "
        },
        {
          "index": 12,
          "word": "dem",
          "originalText": "dem",
          "characterOffsetBegin": 64,
          "characterOffsetEnd": 67,
          "pos": "ART",
          "before": " ",
          "after": " "
        },
        {
          "index": 13,
          "word": "Ballonfahren",
          "originalText": "Ballonfahren",
          "characterOffsetBegin": 68,
          "characterOffsetEnd": 80,
          "pos": "NN",
          "before": " ",
          "after": " "
        },
        {
          "index": 14,
          "word": "auf",
          "originalText": "auf",
          "characterOffsetBegin": 81,
          "characterOffsetEnd": 84,
          "pos": "APPR",
          "before": " ",
          "after": " "
        },
        {
          "index": 15,
          "word": "rund",
          "originalText": "rund",
          "characterOffsetBegin": 85,
          "characterOffsetEnd": 89,
          "pos": "ADV",
          "before": " ",
          "after": " "
        },
        {
          "index": 16,
          "word": "20",
          "originalText": "20",
          "characterOffsetBegin": 90,
          "characterOffsetEnd": 92,
          "pos": "CARD",
          "before": " ",
          "after": " "
        },
        {
          "index": 17,
          "word": "Stein",
          "originalText": "Stein",
          "characterOffsetBegin": 93,
          "characterOffsetEnd": 98,
          "pos": "NN",
          "before": " ",
          "after": " "
        },
        {
          "index": 18,
          "word": "und",
          "originalText": "und",
          "characterOffsetBegin": 99,
          "characterOffsetEnd": 102,
          "pos": "KON",
          "before": " ",
          "after": " "
        },
        {
          "index": 19,
          "word": "gehen",
          "originalText": "gehen",
          "characterOffsetBegin": 103,
          "characterOffsetEnd": 108,
          "pos": "VVFIN",
          "before": " ",
          "after": " "
        },
        {
          "index": 20,
          "word": "auf",
          "originalText": "auf",
          "characterOffsetBegin": 109,
          "characterOffsetEnd": 112,
          "pos": "APPR",
          "before": " ",
          "after": " "
        },
        {
          "index": 21,
          "word": "zahlreiche",
          "originalText": "zahlreiche",
          "characterOffsetBegin": 113,
          "characterOffsetEnd": 123,
          "pos": "ADJA",
          "before": " ",
          "after": " "
        },
        {
          "index": 22,
          "word": "`",
          "originalText": "'",
          "characterOffsetBegin": 124,
          "characterOffsetEnd": 125,
          "pos": "NN",
          "before": " ",
          "after": ""
        },
        {
          "index": 23,
          "word": "treffen",
          "originalText": "treffen",
          "characterOffsetBegin": 125,
          "characterOffsetEnd": 132,
          "pos": "VVFIN",
          "before": "",
          "after": " "
        },
        {
          "index": 24,
          "word": "die",
          "originalText": "die",
          "characterOffsetBegin": 133,
          "characterOffsetEnd": 136,
          "pos": "ART",
          "before": " ",
          "after": " "
        },
        {
          "index": 25,
          "word": "Leute",
          "originalText": "Leute",
          "characterOffsetBegin": 137,
          "characterOffsetEnd": 142,
          "pos": "NN",
          "before": " ",
          "after": ""
        },
        {
          "index": 26,
          "word": "'",
          "originalText": "'",
          "characterOffsetBegin": 142,
          "characterOffsetEnd": 143,
          "pos": "$[",
          "before": "",
          "after": " "
        },
        {
          "index": 27,
          "word": "Walkabout",
          "originalText": "Walkabout",
          "characterOffsetBegin": 144,
          "characterOffsetEnd": 153,
          "pos": "NE",
          "before": " ",
          "after": " "
        },
        {
          "index": 28,
          "word": "PR",
          "originalText": "PR",
          "characterOffsetBegin": 154,
          "characterOffsetEnd": 156,
          "pos": "NE",
          "before": " ",
          "after": " "
        },
        {
          "index": 29,
          "word": "Stunts",
          "originalText": "Stunts",
          "characterOffsetBegin": 157,
          "characterOffsetEnd": 163,
          "pos": "NN",
          "before": " ",
          "after": ""
        }
      ]
    }
  ]
}