{
  "sentences": [
    {
      "index": 0,
      "basicDependencies": [
        {
          "dep": "ROOT",
          "governor": 0,
          "governorGloss": "ROOT",
          "dependent": 2,
          "dependentGloss": "machte"
        },
        {
          "dep": "advmod",
          "governor": 2,
          "governorGloss": "machte",
          "dependent": 1,
          "dependentGloss": "Zaun-Pullover"
        },
        {
          "dep": "nsubj",
          "governor": 2,
          "governorGloss": "machte",
          "dependent": 3,
          "dependentGloss": "es"
        },
        {
          "dep": "advmod",
          "governor": 2,
          "governorGloss": "machte",
          "dependent": 4,
          "dependentGloss": "tiefer"
        },
        {
          "dep": "case",
          "governor": 8,
          "governorGloss": "Haus",
          "dependent": 5,
          "dependentGloss": "in"
        },
        {
          "dep": "det",
          "governor": 8,
          "governorGloss": "Haus",
          "dependent": 6,
          "dependentGloss": "das"
        },
        {
          "dep": "amod",
          "governor": 8,
          "governorGloss": "Haus",
          "dependent": 7,
          "dependentGloss": "Weiße"
        },
        {
          "dep": "nmod",
          "governor": 2,
          "governorGloss": "machte",
          "dependent": 8,
          "dependentGloss": "Haus"
        },
        {
          "dep": "case",
          "governor": 10,
          "governorGloss": "Geheimdienst-Ansprüche",
          "dependent": 9,
          "dependentGloss": "als"
        },
        {
          "dep": "nmod",
          "governor": 2,
          "governorGloss": "machte",
          "dependent": 10,
          "dependentGloss": "Geheimdienst-Ansprüche"
        }
      ],
      "enhancedDependencies": [
        {
          "dep": "ROOT",
          "governor": 0,
          "governorGloss": "ROOT",
          "dependent": 2,
          "dependentGloss": "machte"
        },
        {
          "dep": "advmod",
          "governor": 2,
          "governorGloss": "machte",
          "dependent": 1,
          "dependentGloss": "Zaun-Pullover"
        },
        {
          "dep": "nsubj",
          "governor": 2,
          "governorGloss": "machte",
          "dependent": 3,
          "dependentGloss": "es"
        },
        {
          "dep": "advmod",
          "governor": 2,
          "governorGloss": "machte",
          "dependent": 4,
          "dependentGloss": "tiefer"
        },
        {
          "dep": "case",
          "governor": 8,
          "governorGloss": "Haus",
          "dependent": 5,
          "dependentGloss": "in"
        },
        {
          "dep": "det",
          "governor": 8,
          "governorGloss": "Haus",
          "dependent": 6,
          "dependentGloss": "das"
        },
        {
          "dep": "amod",
          "governor": 8,
          "governorGloss": "Haus",
          "dependent": 7,
          "dependentGloss": "Weiße"
        },
        {
          "dep": "nmod",
          "governor": 2,
          "governorGloss": "machte",
          "dependent": 8,
          "dependentGloss": "Haus"
        },
        {
          "dep": "case",
          "governor": 10,
          "governorGloss": "Geheimdienst-Ansprüche",
          "dependent": 9,
          "dependentGloss": "als"
        },
        {
          "dep": "nmod",
          "governor": 2,
          "governorGloss": "machte",
          "dependent": 10,
          "dependentGloss": "Geheimdienst-Ansprüche"
        }
      ],
      "enhancedPlusPlusDependencies": [
        {
          "dep": "ROOT",
          "governor": 0,
          "governorGloss": "ROOT",
          "dependent": 2,
          "dependentGloss": "machte"
        },
        {
          "dep": "advmod",
          "governor": 2,
          "governorGloss": "machte",
          "dependent": 1,
          "dependentGloss": "Zaun-Pullover"
        },
        {
          "dep": "nsubj",
          "governor": 2,
          "governorGloss": "machte",
          "dependent": 3,
          "dependentGloss": "es"
        },
        {
          "dep": "advmod",
          "governor": 2,
          "governorGloss": "machte",
          "dependent": 4,
          "dependentGloss": "tiefer"
        },
        {
          "dep": "case",
          "governor": 8,
          "governorGloss": "Haus",
          "dependent": 5,
          "dependentGloss": "in"
        },
        {
          "dep": "det",
          "governor": 8,
          "governorGloss": "Haus",
          "dependent": 6,
          "dependentGloss": "das"
        },
        {
          "dep": "amod",
          "governor": 8,
          "governorGloss": "Haus",
          "dependent": 7,
          "dependentGloss": "Weiße"
        },
        {
          "dep": "nmod",
          "governor": 2,
          "governorGloss": "machte",
          "dependent": 8,
          "dependentGloss": "Haus"
        },
        {
          "dep": "case",
          "governor": 10,
          "governorGloss": "Geheimdienst-Ansprüche",
          "dependent": 9,
          "dependentGloss": "als"
        },
        {
          "dep": "nmod",
          "governor": 2,
          "governorGloss": "machte",
          "dependent": 10,
          "dependentGloss": "Geheimdienst-Ansprüche"
        }
      ],
      "tokens": [
        {
          "index": 1,
          "word": "Zaun-Pullover",
          "originalText": "Zaun-Pullover",
          "characterOffsetBegin": 0,
          "characterOffsetEnd": 13,
          "pos": "NN",
          "before": "",
          "after": " "
        },
        {
          "index": 2,
          "word": "machte",
          "originalText": "machte",
          "characterOffsetBegin": 14,
          "characterOffsetEnd": 20,
          "pos": "VVFIN",
          "before": " ",
          "after": " "
        },
        {
          "index": 3,
          "word": "es",
          "originalText": "es",
          "characterOffsetBegin": 21,
          "characterOffsetEnd": 23,
          "pos": "PPER",
          "before": " ",
          "after": " "
        },
        {
          "index": 4,
          "word": "tiefer",
          "originalText": "tiefer",
          "characterOffsetBegin": 24,
          "characterOffsetEnd": 30,
          "pos": "ADJD",
          "before": " ",
          "after": " "
        },
        {
          "index": 5,
          "word": "in",
          "originalText": "in",
          "characterOffsetBegin": 31,
          "characterOffsetEnd": 33,
          "pos": "APPR",
          "before": " ",
          "after": " "
        },
        {
          "index": 6,
          "word": "das",
          "originalText": "das",
          "characterOffsetBegin": 34,
          "characterOffsetEnd": 37,
          "pos": "ART",
          "before": " ",
          "after": " "
        },
        {
          "index": 7,
          "word": "Weiße",
          "originalText": "Weiße",
          "characterOffsetBegin": 38,
          "characterOffsetEnd": 43,
          "pos": "ADJA",
          "before": " ",
          "after": " "
        },
        {
          "index": 8,
          "word": "Haus",
          "originalText": "Haus",
          "characterOffsetBegin": 44,
          "characterOffsetEnd": 48,
          "pos": "NN",
          "before": " ",
          "after": " "
        },
        {
          "index": 9,
          "word": "als",
          "originalText": "als",
          "characterOffsetBegin": 49,
          "characterOffsetEnd": 52,
          "pos": "APPR",
          "before": " ",
          "after": " "
        },
        {
          "index": 10,
          "word": "Geheimdienst-Ansprüche",
          "originalText": "Geheimdienst-Ansprüche",
          "characterOffsetBegin": 53,
          "characterOffsetEnd": 75,
          "pos": "NN",
          "before": " ",
          "after": ""
        }
      ]
    }
  ]
}