{
  "sentences": [
    {
      "index": 0,
      "basicDependencies": [
        {
          "dep": "ROOT",
          "governor": 0,
          "governorGloss": "ROOT",
          "dependent": 16,
          "dependentGloss": "traf"
        },
        {
          "dep": "nmod",
          "governor": 16,
          "governorGloss": "traf",
          "dependent": 1,
          "dependentGloss": "Nein"
        },
        {
          "dep": "punct",
          "governor": 1,
          "governorGloss": "Nein",
          "dependent": 2,
          "dependentGloss": ","
        },
        {
          "dep": "conj",
          "governor": 1,
          "governorGloss": "Nein",
          "dependent": 3,
          "dependentGloss": "Saudi-TV"
        },
        {
          "dep": "aux",
          "governor": 16,
          "governorGloss": "traf",
          "dependent": 4,
          "dependentGloss": "hat"
        },
        {
          "dep": "nsubj",
          "governor": 16,
          "governorGloss": "traf",
          "dependent": 5,
          "dependentGloss": "mich"
        },
        {
          "dep": "neg",
          "governor": 7,
          "governorGloss": "verständigt",
          "dependent": 6,
          "dependentGloss": "nicht"
        },
        {
          "dep": "advmod",
          "governor": 16,
          "governorGloss": "traf",
          "dependent": 7,
          "dependentGloss": "verständigt"
        },
        {
          "dep": "amod",
          "governor": 10,
          "governorGloss": "Gesicht",
          "dependent": 8,
          "dependentGloss": "Michelle"
        },
        {
          "dep": "amod",
          "governor": 10,
          "governorGloss": "Gesicht",
          "dependent": 9,
          "dependentGloss": "Obamas"
        },
        {
          "dep": "dobj",
          "governor": 16,
          "governorGloss": "traf",
          "dependent": 10,
          "dependentGloss": "Gesicht"
        },
        {
          "dep": "mark",
          "governor": 16,
          "governorGloss": "traf",
          "dependent": 11,
          "dependentGloss": "Als"
        },
        {
          "dep": "det",
          "governor": 13,
          "governorGloss": "Präsident",
          "dependent": 12,
          "dependentGloss": "der"
        },
        {
          "dep": "nsubj",
          "governor": 16,
          "governorGloss": "traf",
          "dependent": 13,
          "dependentGloss": "Präsident"
        },
        {
          "dep": "name",
          "governor": 15,
          "governorGloss": "Salman",
          "dependent": 14,
          "dependentGloss": "König"
        },
        {
          "dep": "appos",
          "governor": 13,
          "governorGloss": "Präsident",
          "dependent": 15,
          "dependentGloss": "Salman"
        }
      ],
      "enhancedDependencies": [
        {
          "dep": "ROOT",
          "governor": 0,
          "governorGloss": "ROOT",
          "dependent": 16,
          "dependentGloss": "traf"
        },
        {
          "dep": "nmod",
          "governor": 16,
          "governorGloss": "traf",
          "dependent": 1,
          "dependentGloss": "Nein"
        },
        {
          "dep": "punct",
          "governor": 1,
          "governorGloss": "Nein",
          "dependent": 2,
          "dependentGloss": ","
        },
        {
          "dep": "conj",
          "governor": 1,
          "governorGloss": "Nein",
          "dependent": 3,
          "dependentGloss": "Saudi-TV"
        },
        {
          "dep": "aux",
          "governor": 16,
          "governorGloss": "traf",
          "dependent": 4,
          "dependentGloss": "hat"
        },
        {
          "dep": "nsubj",
          "governor": 16,
          "governorGloss": "traf",
          "dependent": 5,
          "dependentGloss": "mich"
        },
        {
          "dep": "neg",
          "governor": 7,
          "governorGloss": "verständigt",
          "dependent": 6,
          "dependentGloss": "nicht"
        },
        {
          "dep": "advmod",
          "governor": 16,
          "governorGloss": "traf",
          "dependent": 7,
          "dependentGloss": "verständigt"
        },
        {
          "dep": "amod",
          "governor": 10,
          "governorGloss": "Gesicht",
          "dependent": 8,
          "dependentGloss": "Michelle"
        },
        {
          "dep": "amod",
          "governor": 10,
          "governorGloss": "Gesicht",
          "dependent": 9,
          "dependentGloss": "Obamas"
        },
        {
          "dep": "dobj",
          "governor": 16,
          "governorGloss": "traf",
          "dependent": 10,
          "dependentGloss": "Gesicht"
        },
        {
          "dep": "mark",
          "governor": 16,
          "governorGloss": "traf",
          "dependent": 11,
          "dependentGloss": "Als"
        },
        {
          "dep": "det",
          "governor": 13,
          "governorGloss": "Präsident",
          "dependent": 12,
          "dependentGloss": "der"
        },
        {
          "dep": "nsubj",
          "governor": 16,
          "governorGloss": "traf",
          "dependent": 13,
          "dependentGloss": "Präsident"
        },
        {
          "dep": "name",
          "governor": 15,
          "governorGloss": "Salman",
          "dependent": 14,
          "dependentGloss": "König"
        },
        {
          "dep": "appos",
          "governor": 13,
          "governorGloss": "Präsident",
          "dependent": 15,
          "dependentGloss": "Salman"
        }
      ],
      "enhancedPlusPlusDependencies": [
        {
          "dep": "ROOT",
          "governor": 0,
          "governorGloss": "ROOT",
          "dependent": 16,
          "dependentGloss": "traf"
        },
        {
          "dep": "nmod",
          "governor": 16,
          "governorGloss": "traf",
          "dependent": 1,
          "dependentGloss": "Nein"
        },
        {
          "dep": "punct",
          "governor": 1,
          "governorGloss": "Nein",
          "dependent": 2,
          "dependentGloss": ","
        },
        {
          "dep": "conj",
          "governor": 1,
          "governorGloss": "Nein",
          "dependent": 3,
          "dependentGloss": "Saudi-TV"
        },
        {
          "dep": "aux",
          "governor": 16,
          "governorGloss": "traf",
          "dependent": 4,
          "dependentGloss": "hat"
        },
        {
          "dep": "nsubj",
          "governor": 16,
          "governorGloss": "traf",
          "dependent": 5,
          "dependentGloss": "mich"
        },
        {
          "dep": "neg",
          "governor": 7,
          "governorGloss": "verständigt",
          "dependent": 6,
          "dependentGloss": "nicht"
        },
        {
          "dep": "advmod",
          "governor": 16,
          "governorGloss": "traf",
          "dependent": 7,
          "dependentGloss": "verständigt"
        },
        {
          "dep": "amod",
          "governor": 10,
          "governorGloss": "Gesicht",
          "dependent": 8,
          "dependentGloss": "Michelle"
        },
        {
          "dep": "amod",
          "governor": 10,
          "governorGloss": "Gesicht",
          "dependent": 9,
          "dependentGloss": "Obamas"
        },
        {
          "dep": "dobj",
          "governor": 16,
          "governorGloss": "traf",
          "dependent": 10,
          "dependentGloss": "Gesicht"
        },
        {
          "dep": "mark",
          "governor": 16,
          "governorGloss": "traf",
          "dependent": 11,
          "dependentGloss": "Als"
        },
        {
          "dep": "det",
          "governor": 13,
          "governorGloss": "Präsident",
          "dependent": 12,
          "dependentGloss": "der"
        },
        {
          "dep": "nsubj",
          "governor": 16,
          "governorGloss": "traf",
          "dependent": 13,
          "dependentGloss": "Präsident"
        },
        {
          "dep": "name",
          "governor": 15,
          "governorGloss": "Salman",
          "dependent": 14,
          "dependentGloss": "König"
        },
        {
          "dep": "appos",
          "governor": 13,
          "governorGloss": "Präsident",
          "dependent": 15,
          "dependentGloss": "Salman"
        }
      ],
      "tokens": [
        {
          "index": 1,
          "word": "Nein",
          "originalText": "Nein",
          "characterOffsetBegin": 0,
          "characterOffsetEnd": 4,
          "pos": "PTKANT",
          "before": "",
          "after": ""
        },
        {
          "index": 2,
          "word": ",",
          "originalText": ",",
          "characterOffsetBegin": 4,
          "characterOffsetEnd": 5,
          "pos": "$,",
          "before": "",
          "after": " "
        },
        {
          "index": 3,
          "word": "Saudi-TV",
          "originalText": "Saudi-TV",
          "characterOffsetBegin": 6,
          "characterOffsetEnd": 14,
          "pos": "NE",
          "before": " ",
          "after": " "
        },
        {
          "index": 4,
          "word": "hat",
          "originalText": "hat",
          "characterOffsetBegin": 15,
          "characterOffsetEnd": 18,
          "pos": "VAFIN",
          "before": " ",
          "after": " "
        },
        {
          "index": 5,
          "word": "mich",
          "originalText": "mich",
          "characterOffsetBegin": 19,
          "characterOffsetEnd": 23,
          "pos": "PPER",
          "before": " ",
          "after": " "
        },
        {
          "index": 6,
          "word": "nicht",
          "originalText": "nicht",
          "characterOffsetBegin": 24,
          "characterOffsetEnd": 29,
          "pos": "PTKNEG",
          "before": " ",
          "after": " "
        },
        {
          "index": 7,
          "word": "verständigt",
          "originalText": "verständigt",
          "characterOffsetBegin": 30,
          "characterOffsetEnd": 41,
          "pos": "VVPP",
          "before": " ",
          "after": " "
        },
        {
          "index": 8,
          "word": "Michelle",
          "originalText": "Michelle",
          "characterOffsetBegin": 42,
          "characterOffsetEnd": 50,
          "pos": "NE",
          "before": " ",
          "after": " "
        },
        {
          "index": 9,
          "word": "Obamas",
          "originalText": "Obamas",
          "characterOffsetBegin": 51,
          "characterOffsetEnd": 57,
          "pos": "NE",
          "before": " ",
          "after": " "
        },
        {
          "index": 10,
          "word": "Gesicht",
          "originalText": "Gesicht",
          "characterOffsetBegin": 58,
          "characterOffsetEnd": 65,
          "pos": "NN",
          "before": " ",
          "after": " "
        },
        {
          "index": 11,
          "word": "Als",
          "originalText": "Als",
          "characterOffsetBegin": 66,
          "characterOffsetEnd": 69,
          "pos": "APPR",
          "before": " ",
          "after": " "
        },
        {
          "index": 12,
          "word": "der",
          "originalText": "der",
          "characterOffsetBegin": 70,
          "characterOffsetEnd": 73,
          "pos": "ART",
          "before": " ",
          "after": " "
        },
        {
          "index": 13,
          "word": "Präsident",
          "originalText": "Präsident",
          "characterOffsetBegin": 74,
          "characterOffsetEnd": 83,
          "pos": "NN",
          "before": " ",
          "after": " "
        },
        {
          "index": 14,
          "word": "König",
          "originalText": "König",
          "characterOffsetBegin": 84,
          "characterOffsetEnd": 89,
          "pos": "NE",
          "before": " ",
          "after": " "
        },
        {
          "index": 15,
          "word": "Salman",
          "originalText": "Salman",
          "characterOffsetBegin": 90,
          "characterOffsetEnd": 96,
          "pos": "NE",
          "before": " ",
          "after": " "
        },
        {
          "index": 16,
          "word": "traf",
          "originalText": "traf",
          "characterOffsetBegin": 97,
          "characterOffsetEnd": 101,
          "pos": "VVFIN",
          "before": " ",
          "after": ""
        }
      ]
    }
  ]
}