{
  "sentences": [
    {
      "index": 0,
      "basicDependencies": [
        {
          "dep": "ROOT",
          "governor": 0,
          "governorGloss": "ROOT",
          "dependent": 2,
          "dependentGloss": "Sex-Angreifer"
        },
        {
          "dep": "punct",
          "governor": 2,
          "governorGloss": "Sex-Angreifer",
          "dependent": 1,
          "dependentGloss": "``"
        },
        {
          "dep": "punct",
          "governor": 4,
          "governorGloss": "hat",
          "dependent": 3,
          "dependentGloss": "``"
        },
        {
          "dep": "acl",
          "governor": 2,
          "governorGloss": "Sex-Angreifer",
          "dependent": 4,
          "dependentGloss": "hat"
        },
        {
          "dep": "amod",
          "governor": 6,
          "governorGloss": "abgeschnitten",
          "dependent": 5,
          "dependentGloss": "Penis"
        },
        {
          "dep": "dobj",
          "governor": 4,
          "governorGloss": "hat",
          "dependent": 6,
          "dependentGloss": "abgeschnitten"
        },
        {
          "dep": "case",
          "governor": 9,
          "governorGloss": "Spalter",
          "dependent": 7,
          "dependentGloss": "mit"
        },
        {
          "dep": "det",
          "governor": 9,
          "governorGloss": "Spalter",
          "dependent": 8,
          "dependentGloss": "einem"
        },
        {
          "dep": "nmod",
          "governor": 6,
          "governorGloss": "abgeschnitten",
          "dependent": 9,
          "dependentGloss": "Spalter"
        },
        {
          "dep": "case",
          "governor": 11,
          "governorGloss": "Indien",
          "dependent": 10,
          "dependentGloss": "in"
        },
        {
          "dep": "nmod",
          "governor": 9,
          "governorGloss": "Spalter",
          "dependent": 11,
          "dependentGloss": "Indien"
        }
      ],
      "enhancedDependencies": [
        {
          "dep": "ROOT",
          "governor": 0,
          "governorGloss": "ROOT",
          "dependent": 2,
          "dependentGloss": "Sex-Angreifer"
        },
        {
          "dep": "punct",
          "governor": 2,
          "governorGloss": "Sex-Angreifer",
          "dependent": 1,
          "dependentGloss": "``"
        },
        {
          "dep": "punct",
          "governor": 4,
          "governorGloss": "hat",
          "dependent": 3,
          "dependentGloss": "``"
        },
        {
          "dep": "acl",
          "governor": 2,
          "governorGloss": "Sex-Angreifer",
          "dependent": 4,
          "dependentGloss": "hat"
        },
        {
          "dep": "amod",
          "governor": 6,
          "governorGloss": "abgeschnitten",
          "dependent": 5,
          "dependentGloss": "Penis"
        },
        {
          "dep": "dobj",
          "governor": 4,
          "governorGloss": "hat",
          "dependent": 6,
          "dependentGloss": "abgeschnitten"
        },
        {
          "dep": "case",
          "governor": 9,
          "governorGloss": "Spalter",
          "dependent": 7,
          "dependentGloss": "mit"
        },
        {
          "dep": "det",
          "governor": 9,
          "governorGloss": "Spalter",
          "dependent": 8,
          "dependentGloss": "einem"
        },
        {
          "dep": "nmod",
          "governor": 6,
          "governorGloss": "abgeschnitten",
          "dependent": 9,
          "dependentGloss": "Spalter"
        },
        {
          "dep": "case",
          "governor": 11,
          "governorGloss": "Indien",
          "dependent": 10,
          "dependentGloss": "in"
        },
        {
          "dep": "nmod",
          "governor": 9,
          "governorGloss": "Spalter",
          "dependent": 11,
          "dependentGloss": "Indien"
        }
      ],
      "enhancedPlusPlusDependencies": [
        {
          "dep": "ROOT",
          "governor": 0,
          "governorGloss": "ROOT",
          "dependent": 2,
          "dependentGloss": "Sex-Angreifer"
        },
        {
          "dep": "punct",
          "governor": 2,
          "governorGloss": "Sex-Angreifer",
          "dependent": 1,
          "dependentGloss": "``"
        },
        {
          "dep": "punct",
          "governor": 4,
          "governorGloss": "hat",
          "dependent": 3,
          "dependentGloss": "``"
        },
        {
          "dep": "acl",
          "governor": 2,
          "governorGloss": "Sex-Angreifer",
          "dependent": 4,
          "dependentGloss": "hat"
        },
        {
          "dep": "amod",
          "governor": 6,
          "governorGloss": "abgeschnitten",
          "dependent": 5,
          "dependentGloss": "Penis"
        },
        {
          "dep": "dobj",
          "governor": 4,
          "governorGloss": "hat",
          "dependent": 6,
          "dependentGloss": "abgeschnitten"
        },
        {
          "dep": "case",
          "governor": 9,
          "governorGloss": "Spalter",
          "dependent": 7,
          "dependentGloss": "mit"
        },
        {
          "dep": "det",
          "governor": 9,
          "governorGloss": "Spalter",
          "dependent": 8,
          "dependentGloss": "einem"
        },
        {
          "dep": "nmod",
          "governor": 6,
          "governorGloss": "abgeschnitten",
          "dependent": 9,
          "dependentGloss": "Spalter"
        },
        {
          "dep": "case",
          "governor": 11,
          "governorGloss": "Indien",
          "dependent": 10,
          "dependentGloss": "in"
        },
        {
          "dep": "nmod",
          "governor": 9,
          "governorGloss": "Spalter",
          "dependent": 11,
          "dependentGloss": "Indien"
        }
      ],
      "tokens": [
        {
          "index": 1,
          "word": "``",
          "originalText": "“",
          "characterOffsetBegin": 0,
          "characterOffsetEnd": 1,
          "pos": "XY",
          "before": "",
          "after": ""
        },
        {
          "index": 2,
          "word": "Sex-Angreifer",
          "originalText": "Sex-Angreifer",
          "characterOffsetBegin": 1,
          "characterOffsetEnd": 14,
          "pos": "NN",
          "before": "",
          "after": ""
        },
        {
          "index": 3,
          "word": "``",
          "originalText": "“",
          "characterOffsetBegin": 14,
          "characterOffsetEnd": 15,
          "pos": "CARD",
          "before": "",
          "after": " "
        },
        {
          "index": 4,
          "word": "hat",
          "originalText": "hat",
          "characterOffsetBegin": 16,
          "characterOffsetEnd": 19,
          "pos": "VAFIN",
          "before": " ",
          "after": " "
        },
        {
          "index": 5,
          "word": "Penis",
          "originalText": "Penis",
          "characterOffsetBegin": 20,
          "characterOffsetEnd": 25,
          "pos": "NN",
          "before": " ",
          "after": " "
        },
        {
          "index": 6,
          "word": "abgeschnitten",
          "originalText": "abgeschnitten",
          "characterOffsetBegin": 26,
          "characterOffsetEnd": 39,
          "pos": "VVPP",
          "before": " ",
          "after": " "
        },
        {
          "index": 7,
          "word": "mit",
          "originalText": "mit",
          "characterOffsetBegin": 40,
          "characterOffsetEnd": 43,
          "pos": "APPR",
          "before": " ",
          "after": " "
        },
        {
          "index": 8,
          "word": "einem",
          "originalText": "einem",
          "characterOffsetBegin": 44,
          "characterOffsetEnd": 49,
          "pos": "ART",
          "before": " ",
          "after": " "
        },
        {
          "index": 9,
          "word": "Spalter",
          "originalText": "Spalter",
          "characterOffsetBegin": 50,
          "characterOffsetEnd": 57,
          "pos": "NN",
          "before": " ",
          "after": " "
        },
        {
          "index": 10,
          "word": "in",
          "originalText": "in",
          "characterOffsetBegin": 58,
          "characterOffsetEnd": 60,
          "pos": "APPR",
          "before": " ",
          "after": " "
        },
        {
          "index": 11,
          "word": "Indien",
          "originalText": "Indien",
          "characterOffsetBegin": 61,
          "characterOffsetEnd": 67,
          "pos": "NE",
          "before": " ",
          "after": ""
        }
      ]
    }
  ]
}