{
  "sentences": [
    {
      "index": 0,
      "basicDependencies": [
        {
          "dep": "ROOT",
          "governor": 0,
          "governorGloss": "ROOT",
          "dependent": 2,
          "dependentGloss": "gemunkelt"
        },
        {
          "dep": "advmod",
          "governor": 2,
          "governorGloss": "gemunkelt",
          "dependent": 1,
          "dependentGloss": "Apfel-Uhr-Gold-Edition"
        },
        {
          "dep": "punct",
          "governor": 2,
          "governorGloss": "gemunkelt",
          "dependent": 3,
          "dependentGloss": ","
        },
        {
          "dep": "mark",
          "governor": 10,
          "governorGloss": "werden",
          "dependent": 4,
          "dependentGloss": "um"
        },
        {
          "dep": "case",
          "governor": 6,
          "governorGloss": "$",
          "dependent": 5,
          "dependentGloss": "bei"
        },
        {
          "dep": "nmod",
          "governor": 7,
          "governorGloss": "1200",
          "dependent": 6,
          "dependentGloss": "$"
        },
        {
          "dep": "amod",
          "governor": 8,
          "governorGloss": "festgesetzt",
          "dependent": 7,
          "dependentGloss": "1200"
        },
        {
          "dep": "acl",
          "governor": 10,
          "governorGloss": "werden",
          "dependent": 8,
          "dependentGloss": "festgesetzt"
        },
        {
          "dep": "aux",
          "governor": 10,
          "governorGloss": "werden",
          "dependent": 9,
          "dependentGloss": "zu"
        },
        {
          "dep": "advcl",
          "governor": 2,
          "governorGloss": "gemunkelt",
          "dependent": 10,
          "dependentGloss": "werden"
        },
        {
          "dep": "punct",
          "governor": 12,
          "governorGloss": "Wirst",
          "dependent": 11,
          "dependentGloss": ":"
        },
        {
          "dep": "parataxis",
          "governor": 10,
          "governorGloss": "werden",
          "dependent": 12,
          "dependentGloss": "Wirst"
        },
        {
          "dep": "case",
          "governor": 14,
          "governorGloss": "kaufen",
          "dependent": 13,
          "dependentGloss": "du"
        },
        {
          "dep": "nmod",
          "governor": 12,
          "governorGloss": "Wirst",
          "dependent": 14,
          "dependentGloss": "kaufen"
        },
        {
          "dep": "punct",
          "governor": 12,
          "governorGloss": "Wirst",
          "dependent": 15,
          "dependentGloss": "?"
        }
      ],
      "enhancedDependencies": [
        {
          "dep": "ROOT",
          "governor": 0,
          "governorGloss": "ROOT",
          "dependent": 2,
          "dependentGloss": "gemunkelt"
        },
        {
          "dep": "advmod",
          "governor": 2,
          "governorGloss": "gemunkelt",
          "dependent": 1,
          "dependentGloss": "Apfel-Uhr-Gold-Edition"
        },
        {
          "dep": "punct",
          "governor": 2,
          "governorGloss": "gemunkelt",
          "dependent": 3,
          "dependentGloss": ","
        },
        {
          "dep": "mark",
          "governor": 10,
          "governorGloss": "werden",
          "dependent": 4,
          "dependentGloss": "um"
        },
        {
          "dep": "case",
          "governor": 6,
          "governorGloss": "$",
          "dependent": 5,
          "dependentGloss": "bei"
        },
        {
          "dep": "nmod",
          "governor": 7,
          "governorGloss": "1200",
          "dependent": 6,
          "dependentGloss": "$"
        },
        {
          "dep": "amod",
          "governor": 8,
          "governorGloss": "festgesetzt",
          "dependent": 7,
          "dependentGloss": "1200"
        },
        {
          "dep": "acl",
          "governor": 10,
          "governorGloss": "werden",
          "dependent": 8,
          "dependentGloss": "festgesetzt"
        },
        {
          "dep": "aux",
          "governor": 10,
          "governorGloss": "werden",
          "dependent": 9,
          "dependentGloss": "zu"
        },
        {
          "dep": "advcl",
          "governor": 2,
          "governorGloss": "gemunkelt",
          "dependent": 10,
          "dependentGloss": "werden"
        },
        {
          "dep": "punct",
          "governor": 12,
          "governorGloss": "Wirst",
          "dependent": 11,
          "dependentGloss": ":"
        },
        {
          "dep": "parataxis",
          "governor": 10,
          "governorGloss": "werden",
          "dependent": 12,
          "dependentGloss": "Wirst"
        },
        {
          "dep": "case",
          "governor": 14,
          "governorGloss": "kaufen",
          "dependent": 13,
          "dependentGloss": "du"
        },
        {
          "dep": "nmod",
          "governor": 12,
          "governorGloss": "Wirst",
          "dependent": 14,
          "dependentGloss": "kaufen"
        },
        {
          "dep": "punct",
          "governor": 12,
          "governorGloss": "Wirst",
          "dependent": 15,
          "dependentGloss": "?"
        }
      ],
      "enhancedPlusPlusDependencies": [
        {
          "dep": "ROOT",
          "governor": 0,
          "governorGloss": "ROOT",
          "dependent": 2,
          "dependentGloss": "gemunkelt"
        },
        {
          "dep": "advmod",
          "governor": 2,
          "governorGloss": "gemunkelt",
          "dependent": 1,
          "dependentGloss": "Apfel-Uhr-Gold-Edition"
        },
        {
          "dep": "punct",
          "governor": 2,
          "governorGloss": "gemunkelt",
          "dependent": 3,
          "dependentGloss": ","
        },
        {
          "dep": "mark",
          "governor": 10,
          "governorGloss": "werden",
          "dependent": 4,
          "dependentGloss": "um"
        },
        {
          "dep": "case",
          "governor": 6,
          "governorGloss": "$",
          "dependent": 5,
          "dependentGloss": "bei"
        },
        {
          "dep": "nmod",
          "governor": 7,
          "governorGloss": "1200",
          "dependent": 6,
          "dependentGloss": "$"
        },
        {
          "dep": "amod",
          "governor": 8,
          "governorGloss": "festgesetzt",
          "dependent": 7,
          "dependentGloss": "1200"
        },
        {
          "dep": "acl",
          "governor": 10,
          "governorGloss": "werden",
          "dependent": 8,
          "dependentGloss": "festgesetzt"
        },
        {
          "dep": "aux",
          "governor": 10,
          "governorGloss": "werden",
          "dependent": 9,
          "dependentGloss": "zu"
        },
        {
          "dep": "advcl",
          "governor": 2,
          "governorGloss": "gemunkelt",
          "dependent": 10,
          "dependentGloss": "werden"
        },
        {
          "dep": "punct",
          "governor": 12,
          "governorGloss": "Wirst",
          "dependent": 11,
          "dependentGloss": ":"
        },
        {
          "dep": "parataxis",
          "governor": 10,
          "governorGloss": "werden",
          "dependent": 12,
          "dependentGloss": "Wirst"
        },
        {
          "dep": "case",
          "governor": 14,
          "governorGloss": "kaufen",
          "dependent": 13,
          "dependentGloss": "du"
        },
        {
          "dep": "nmod",
          "governor": 12,
          "governorGloss": "Wirst",
          "dependent": 14,
          "dependentGloss": "kaufen"
        },
        {
          "dep": "punct",
          "governor": 12,
          "governorGloss": "Wirst",
          "dependent": 15,
          "dependentGloss": "?"
        }
      ],
      "tokens": [
        {
          "index": 1,
          "word": "Apfel-Uhr-Gold-Edition",
          "originalText": "Apfel-Uhr-Gold-Edition",
          "characterOffsetBegin": 0,
          "characterOffsetEnd": 22,
          "pos": "NN",
          "before": "",
          "after": " "
        },
        {
          "index": 2,
          "word": "gemunkelt",
          "originalText": "gemunkelt",
          "characterOffsetBegin": 23,
          "characterOffsetEnd": 32,
          "pos": "VVPP",
          "before": " ",
          "after": ""
        },
        {
          "index": 3,
          "word": ",",
          "originalText": ",",
          "characterOffsetBegin": 32,
          "characterOffsetEnd": 33,
          "pos": "$,",
          "before": "",
          "after": " "
        },
        {
          "index": 4,
          "word": "um",
          "originalText": "um",
          "characterOffsetBegin": 34,
          "characterOffsetEnd": 36,
          "pos": "KOUI",
          "before": " ",
          "after": " "
        },
        {
          "index": 5,
          "word": "bei",
          "originalText": "bei",
          "characterOffsetBegin": 37,
          "characterOffsetEnd": 40,
          "pos": "APPR",
          "before": " ",
          "after": " "
        },
        {
          "index": 6,
          "word": "$",
          "originalText": "$",
          "characterOffsetBegin": 41,
          "characterOffsetEnd": 42,
          "pos": "XY",
          "before": " ",
          "after": " "
        },
        {
          "index": 7,
          "word": "1200",
          "originalText": "1200",
          "characterOffsetBegin": 43,
          "characterOffsetEnd": 47,
          "pos": "CARD",
          "before": " ",
          "after": " "
        },
        {
          "index": 8,
          "word": "festgesetzt",
          "originalText": "festgesetzt",
          "characterOffsetBegin": 48,
          "characterOffsetEnd": 59,
          "pos": "VVPP",
          "before": " ",
          "after": " "
        },
        {
          "index": 9,
          "word": "zu",
          "originalText": "zu",
          "characterOffsetBegin": 60,
          "characterOffsetEnd": 62,
          "pos": "PTKZU",
          "before": " ",
          "after": " "
        },
        {
          "index": 10,
          "word": "werden",
          "originalText": "werden",
          "characterOffsetBegin": 63,
          "characterOffsetEnd": 69,
          "pos": "VAINF",
          "before": " ",
          "after": ""
        },
        {
          "index": 11,
          "word": ":",
          "originalText": ":",
          "characterOffsetBegin": 69,
          "characterOffsetEnd": 70,
          "pos": "$.",
          "before": "",
          "after": " "
        },
        {
          "index": 12,
          "word": "Wirst",
          "originalText": "Wirst",
          "characterOffsetBegin": 71,
          "characterOffsetEnd": 76,
          "pos": "NN",
          "before": " ",
          "after": " "
        },
        {
          "index": 13,
          "word": "du",
          "originalText": "du",
          "characterOffsetBegin": 77,
          "characterOffsetEnd": 79,
          "pos": "PPER",
          "before": " ",
          "after": " "
        },
        {
          "index": 14,
          "word": "kaufen",
          "originalText": "kaufen",
          "characterOffsetBegin": 80,
          "characterOffsetEnd": 86,
          "pos": "VVINF",
          "before": " ",
          "after": ""
        },
        {
          "index": 15,
          "word": "?",
          "originalText": "?",
          "characterOffsetBegin": 86,
          "characterOffsetEnd": 87,
          "pos": "$.",
          "before": "",
          "after": ""
        }
      ]
    }
  ]
}