{
  "sentences": [
    {
      "index": 0,
      "basicDependencies": [
        {
          "dep": "ROOT",
          "governor": 0,
          "governorGloss": "ROOT",
          "dependent": 1,
          "dependentGloss": "Jihadi"
        },
        {
          "dep": "appos",
          "governor": 1,
          "governorGloss": "Jihadi",
          "dependent": 2,
          "dependentGloss": "John"
        },
        {
          "dep": "appos",
          "governor": 2,
          "governorGloss": "John",
          "dependent": 3,
          "dependentGloss": "`"
        },
        {
          "dep": "case",
          "governor": 6,
          "governorGloss": "Mann",
          "dependent": 4,
          "dependentGloss": "als"
        },
        {
          "dep": "amod",
          "governor": 6,
          "governorGloss": "Mann",
          "dependent": 5,
          "dependentGloss": "britischer"
        },
        {
          "dep": "root",
          "governor": 3,
          "governorGloss": "`",
          "dependent": 6,
          "dependentGloss": "Mann"
        },
        {
          "dep": "case",
          "governor": 9,
          "governorGloss": "London",
          "dependent": 7,
          "dependentGloss": "aus"
        },
        {
          "dep": "name",
          "governor": 9,
          "governorGloss": "London",
          "dependent": 8,
          "dependentGloss": "West"
        },
        {
          "dep": "nmod",
          "governor": 6,
          "governorGloss": "Mann",
          "dependent": 9,
          "dependentGloss": "London"
        },
        {
          "dep": "punct",
          "governor": 6,
          "governorGloss": "Mann",
          "dependent": 10,
          "dependentGloss": "'"
        }
      ],
      "enhancedDependencies": [
        {
          "dep": "ROOT",
          "governor": 0,
          "governorGloss": "ROOT",
          "dependent": 1,
          "dependentGloss": "Jihadi"
        },
        {
          "dep": "appos",
          "governor": 1,
          "governorGloss": "Jihadi",
          "dependent": 2,
          "dependentGloss": "John"
        },
        {
          "dep": "appos",
          "governor": 2,
          "governorGloss": "John",
          "dependent": 3,
          "dependentGloss": "`"
        },
        {
          "dep": "case",
          "governor": 6,
          "governorGloss": "Mann",
          "dependent": 4,
          "dependentGloss": "als"
        },
        {
          "dep": "amod",
          "governor": 6,
          "governorGloss": "Mann",
          "dependent": 5,
          "dependentGloss": "britischer"
        },
        {
          "dep": "root",
          "governor": 3,
          "governorGloss": "`",
          "dependent": 6,
          "dependentGloss": "Mann"
        },
        {
          "dep": "case",
          "governor": 9,
          "governorGloss": "London",
          "dependent": 7,
          "dependentGloss": "aus"
        },
        {
          "dep": "name",
          "governor": 9,
          "governorGloss": "London",
          "dependent": 8,
          "dependentGloss": "West"
        },
        {
          "dep": "nmod",
          "governor": 6,
          "governorGloss": "Mann",
          "dependent": 9,
          "dependentGloss": "London"
        },
        {
          "dep": "punct",
          "governor": 6,
          "governorGloss": "Mann",
          "dependent": 10,
          "dependentGloss": "'"
        }
      ],
      "enhancedPlusPlusDependencies": [
        {
          "dep": "ROOT",
          "governor": 0,
          "governorGloss": "ROOT",
          "dependent": 1,
          "dependentGloss": "Jihadi"
        },
        {
          "dep": "appos",
          "governor": 1,
          "governorGloss": "Jihadi",
          "dependent": 2,
          "dependentGloss": "John"
        },
        {
          "dep": "appos",
          "governor": 2,
          "governorGloss": "John",
          "dependent": 3,
          "dependentGloss": "`"
        },
        {
          "dep": "case",
          "governor": 6,
          "governorGloss": "Mann",
          "dependent": 4,
          "dependentGloss": "als"
        },
        {
          "dep": "amod",
          "governor": 6,
          "governorGloss": "Mann",
          "dependent": 5,
          "dependentGloss": "britischer"
        },
        {
          "dep": "root",
          "governor": 3,
          "governorGloss": "`",
          "dependent": 6,
          "dependentGloss": "Mann"
        },
        {
          "dep": "case",
          "governor": 9,
          "governorGloss": "London",
          "dependent": 7,
          "dependentGloss": "aus"
        },
        {
          "dep": "name",
          "governor": 9,
          "governorGloss": "London",
          "dependent": 8,
          "dependentGloss": "West"
        },
        {
          "dep": "nmod",
          "governor": 6,
          "governorGloss": "Mann",
          "dependent": 9,
          "dependentGloss": "London"
        },
        {
          "dep": "punct",
          "governor": 6,
          "governorGloss": "Mann",
          "dependent": 10,
          "dependentGloss": "'"
        }
      ],
      "tokens": [
        {
          "index": 1,
          "word": "Jihadi",
          "originalText": "Jihadi",
          "characterOffsetBegin": 0,
          "characterOffsetEnd": 6,
          "pos": "NE",
          "before": "",
          "after": " "
        },
        {
          "index": 2,
          "word": "John",
          "originalText": "John",
          "characterOffsetBegin": 7,
          "characterOffsetEnd": 11,
          "pos": "NE",
          "before": " ",
          "after": " "
        },
        {
          "index": 3,
          "word": "`",
          "originalText": "'",
          "characterOffsetBegin": 12,
          "characterOffsetEnd": 13,
          "pos": "CARD",
          "before": " ",
          "after": ""
        },
        {
          "index": 4,
          "word": "als",
          "originalText": "als",
          "characterOffsetBegin": 13,
          "characterOffsetEnd": 16,
          "pos": "APPR",
          "before": "",
          "after": " "
        },
        {
          "index": 5,
          "word": "britischer",
          "originalText": "britischer",
          "characterOffsetBegin": 17,
          "characterOffsetEnd": 27,
          "pos": "ADJA",
          "before": " ",
          "after": " "
        },
        {
          "index": 6,
          "word": "Mann",
          "originalText": "Mann",
          "characterOffsetBegin": 28,
          "characterOffsetEnd": 32,
          "pos": "NN",
          "before": " ",
          "after": " "
        },
        {
          "index": 7,
          "word": "aus",
          "originalText": "aus",
          "characterOffsetBegin": 33,
          "characterOffsetEnd": 36,
          "pos": "APPR",
          "before": " ",
          "after": " "
        },
        {
          "index": 8,
          "word": "West",
          "originalText": "West",
          "characterOffsetBegin": 37,
          "characterOffsetEnd": 41,
          "pos": "NN",
          "before": " ",
          "after": " "
        },
        {
          "index": 9,
          "word": "London",
          "originalText": "London",
          "characterOffsetBegin": 42,
          "characterOffsetEnd": 48,
          "pos": "NE",
          "before": " ",
          "after": ""
        },
        {
          "index": 10,
          "word": "'",
          "originalText": "'",
          "characterOffsetBegin": 48,
          "characterOffsetEnd": 49,
          "pos": "$[",
          "before": "",
          "after": ""
        }
      ]
    }
  ]
}