{
  "sentences": [
    {
      "index": 0,
      "basicDependencies": [
        {
          "dep": "ROOT",
          "governor": 0,
          "governorGloss": "ROOT",
          "dependent": 8,
          "dependentGloss": "fehlt"
        },
        {
          "dep": "appos",
          "governor": 8,
          "governorGloss": "fehlt",
          "dependent": 1,
          "dependentGloss": "Bericht"
        },
        {
          "dep": "punct",
          "governor": 8,
          "governorGloss": "fehlt",
          "dependent": 2,
          "dependentGloss": ":"
        },
        {
          "dep": "advmod",
          "governor": 5,
          "governorGloss": "Dutzend",
          "dependent": 3,
          "dependentGloss": "Fast"
        },
        {
          "dep": "det",
          "governor": 5,
          "governorGloss": "Dutzend",
          "dependent": 4,
          "dependentGloss": "ein"
        },
        {
          "dep": "nsubj",
          "governor": 8,
          "governorGloss": "fehlt",
          "dependent": 5,
          "dependentGloss": "Dutzend"
        },
        {
          "dep": "amod",
          "governor": 7,
          "governorGloss": "Flugzeug",
          "dependent": 6,
          "dependentGloss": "kommerzielles"
        },
        {
          "dep": "det",
          "governor": 5,
          "governorGloss": "Dutzend",
          "dependent": 7,
          "dependentGloss": "Flugzeug"
        },
        {
          "dep": "case",
          "governor": 11,
          "governorGloss": "Jubiläum",
          "dependent": 9,
          "dependentGloss": "vor"
        },
        {
          "dep": "amod",
          "governor": 11,
          "governorGloss": "Jubiläum",
          "dependent": 10,
          "dependentGloss": "9/11"
        },
        {
          "dep": "nmod",
          "governor": 8,
          "governorGloss": "fehlt",
          "dependent": 11,
          "dependentGloss": "Jubiläum"
        },
        {
          "dep": "case",
          "governor": 15,
          "governorGloss": "libyschen",
          "dependent": 12,
          "dependentGloss": "nach"
        },
        {
          "dep": "advmod",
          "governor": 14,
          "governorGloss": "überholen",
          "dependent": 13,
          "dependentGloss": "Islamisten"
        },
        {
          "dep": "amod",
          "governor": 15,
          "governorGloss": "libyschen",
          "dependent": 14,
          "dependentGloss": "überholen"
        },
        {
          "dep": "nmod",
          "governor": 8,
          "governorGloss": "fehlt",
          "dependent": 15,
          "dependentGloss": "libyschen"
        },
        {
          "dep": "mark",
          "governor": 8,
          "governorGloss": "fehlt",
          "dependent": 16,
          "dependentGloss": "Flughafen"
        }
      ],
      "enhancedDependencies": [
        {
          "dep": "ROOT",
          "governor": 0,
          "governorGloss": "ROOT",
          "dependent": 8,
          "dependentGloss": "fehlt"
        },
        {
          "dep": "appos",
          "governor": 8,
          "governorGloss": "fehlt",
          "dependent": 1,
          "dependentGloss": "Bericht"
        },
        {
          "dep": "punct",
          "governor": 8,
          "governorGloss": "fehlt",
          "dependent": 2,
          "dependentGloss": ":"
        },
        {
          "dep": "advmod",
          "governor": 5,
          "governorGloss": "Dutzend",
          "dependent": 3,
          "dependentGloss": "Fast"
        },
        {
          "dep": "det",
          "governor": 5,
          "governorGloss": "Dutzend",
          "dependent": 4,
          "dependentGloss": "ein"
        },
        {
          "dep": "nsubj",
          "governor": 8,
          "governorGloss": "fehlt",
          "dependent": 5,
          "dependentGloss": "Dutzend"
        },
        {
          "dep": "amod",
          "governor": 7,
          "governorGloss": "Flugzeug",
          "dependent": 6,
          "dependentGloss": "kommerzielles"
        },
        {
          "dep": "det",
          "governor": 5,
          "governorGloss": "Dutzend",
          "dependent": 7,
          "dependentGloss": "Flugzeug"
        },
        {
          "dep": "case",
          "governor": 11,
          "governorGloss": "Jubiläum",
          "dependent": 9,
          "dependentGloss": "vor"
        },
        {
          "dep": "amod",
          "governor": 11,
          "governorGloss": "Jubiläum",
          "dependent": 10,
          "dependentGloss": "9/11"
        },
        {
          "dep": "nmod",
          "governor": 8,
          "governorGloss": "fehlt",
          "dependent": 11,
          "dependentGloss": "Jubiläum"
        },
        {
          "dep": "case",
          "governor": 15,
          "governorGloss": "libyschen",
          "dependent": 12,
          "dependentGloss": "nach"
        },
        {
          "dep": "advmod",
          "governor": 14,
          "governorGloss": "überholen",
          "dependent": 13,
          "dependentGloss": "Islamisten"
        },
        {
          "dep": "amod",
          "governor": 15,
          "governorGloss": "libyschen",
          "dependent": 14,
          "dependentGloss": "überholen"
        },
        {
          "dep": "nmod",
          "governor": 8,
          "governorGloss": "fehlt",
          "dependent": 15,
          "dependentGloss": "libyschen"
        },
        {
          "dep": "mark",
          "governor": 8,
          "governorGloss": "fehlt",
          "dependent": 16,
          "dependentGloss": "Flughafen"
        }
      ],
      "enhancedPlusPlusDependencies": [
        {
          "dep": "ROOT",
          "governor": 0,
          "governorGloss": "ROOT",
          "dependent": 8,
          "dependentGloss": "fehlt"
        },
        {
          "dep": "appos",
          "governor": 8,
          "governorGloss": "fehlt",
          "dependent": 1,
          "dependentGloss": "Bericht"
        },
        {
          "dep": "punct",
          "governor": 8,
          "governorGloss": "fehlt",
          "dependent": 2,
          "dependentGloss": ":"
        },
        {
          "dep": "advmod",
          "governor": 5,
          "governorGloss": "Dutzend",
          "dependent": 3,
          "dependentGloss": "Fast"
        },
        {
          "dep": "det",
          "governor": 5,
          "governorGloss": "Dutzend",
          "dependent": 4,
          "dependentGloss": "ein"
        },
        {
          "dep": "nsubj",
          "governor": 8,
          "governorGloss": "fehlt",
          "dependent": 5,
          "dependentGloss": "Dutzend"
        },
        {
          "dep": "amod",
          "governor": 7,
          "governorGloss": "Flugzeug",
          "dependent": 6,
          "dependentGloss": "kommerzielles"
        },
        {
          "dep": "det",
          "governor": 5,
          "governorGloss": "Dutzend",
          "dependent": 7,
          "dependentGloss": "Flugzeug"
        },
        {
          "dep": "case",
          "governor": 11,
          "governorGloss": "Jubiläum",
          "dependent": 9,
          "dependentGloss": "vor"
        },
        {
          "dep": "amod",
          "governor": 11,
          "governorGloss": "Jubiläum",
          "dependent": 10,
          "dependentGloss": "9/11"
        },
        {
          "dep": "nmod",
          "governor": 8,
          "governorGloss": "fehlt",
          "dependent": 11,
          "dependentGloss": "Jubiläum"
        },
        {
          "dep": "case",
          "governor": 15,
          "governorGloss": "libyschen",
          "dependent": 12,
          "dependentGloss": "nach"
        },
        {
          "dep": "advmod",
          "governor": 14,
          "governorGloss": "überholen",
          "dependent": 13,
          "dependentGloss": "Islamisten"
        },
        {
          "dep": "amod",
          "governor": 15,
          "governorGloss": "libyschen",
          "dependent": 14,
          "dependentGloss": "überholen"
        },
        {
          "dep": "nmod",
          "governor": 8,
          "governorGloss": "fehlt",
          "dependent": 15,
          "dependentGloss": "libyschen"
        },
        {
          "dep": "mark",
          "governor": 8,
          "governorGloss": "fehlt",
          "dependent": 16,
          "dependentGloss": "Flughafen"
        }
      ],
      "tokens": [
        {
          "index": 1,
          "word": "Bericht",
          "originalText": "Bericht",
          "characterOffsetBegin": 0,
          "characterOffsetEnd": 7,
          "pos": "NN",
          "before": "",
          "after": ""
        },
        {
          "index": 2,
          "word": ":",
          "originalText": ":",
          "characterOffsetBegin": 7,
          "characterOffsetEnd": 8,
          "pos": "$.",
          "before": "",
          "after": " "
        },
        {
          "index": 3,
          "word": "Fast",
          "originalText": "Fast",
          "characterOffsetBegin": 9,
          "characterOffsetEnd": 13,
          "pos": "ADV",
          "before": " ",
          "after": " "
        },
        {
          "index": 4,
          "word": "ein",
          "originalText": "ein",
          "characterOffsetBegin": 14,
          "characterOffsetEnd": 17,
          "pos": "ART",
          "before": " ",
          "after": " "
        },
        {
          "index": 5,
          "word": "Dutzend",
          "originalText": "Dutzend",
          "characterOffsetBegin": 18,
          "characterOffsetEnd": 25,
          "pos": "NN",
          "before": " ",
          "after": " "
        },
        {
          "index": 6,
          "word": "kommerzielles",
          "originalText": "kommerzielles",
          "characterOffsetBegin": 26,
          "characterOffsetEnd": 39,
          "pos": "ADJA",
          "before": " ",
          "after": " "
        },
        {
          "index": 7,
          "word": "Flugzeug",
          "originalText": "Flugzeug",
          "characterOffsetBegin": 40,
          "characterOffsetEnd": 48,
          "pos": "NN",
          "before": " ",
          "after": " "
        },
        {
          "index": 8,
          "word": "fehlt",
          "originalText": "fehlt",
          "characterOffsetBegin": 49,
          "characterOffsetEnd": 54,
          "pos": "VVFIN",
          "before": " ",
          "after": " "
        },
        {
          "index": 9,
          "word": "vor",
          "originalText": "vor",
          "characterOffsetBegin": 55,
          "characterOffsetEnd": 58,
          "pos": "APPR",
          "before": " ",
          "after": " "
        },
        {
          "index": 10,
          "word": "9/11",
          "originalText": "9/11",
          "characterOffsetBegin": 59,
          "characterOffsetEnd": 63,
          "pos": "CARD",
          "before": " ",
          "after": " "
        },
        {
          "index": 11,
          "word": "Jubiläum",
          "originalText": "Jubiläum",
          "characterOffsetBegin": 64,
          "characterOffsetEnd": 72,
          "pos": "NN",
          "before": " ",
          "after": " "
        },
        {
          "index": 12,
          "word": "nach",
          "originalText": "nach",
          "characterOffsetBegin": 73,
          "characterOffsetEnd": 77,
          "pos": "APPR",
          "before": " ",
          "after": " "
        },
        {
          "index": 13,
          "word": "Islamisten",
          "originalText": "Islamisten",
          "characterOffsetBegin": 78,
          "characterOffsetEnd": 88,
          "pos": "NN",
          "before": " ",
          "after": " "
        },
        {
          "index": 14,
          "word": "überholen",
          "originalText": "überholen",
          "characterOffsetBegin": 89,
          "characterOffsetEnd": 98,
          "pos": "VVINF",
          "before": " ",
          "after": " "
        },
        {
          "index": 15,
          "word": "libyschen",
          "originalText": "libyschen",
          "characterOffsetBegin": 99,
          "characterOffsetEnd": 108,
          "pos": "ADJA",
          "before": " ",
          "after": " "
        },
        {
          "index": 16,
          "word": "Flughafen",
          "originalText": "Flughafen",
          "characterOffsetBegin": 109,
          "characterOffsetEnd": 118,
          "pos": "NN",
          "before": " ",
          "after": ""
        }
      ]
    }
  ]
}