{
  "sentences": [
    {
      "index": 0,
      "basicDependencies": [
        {
          "dep": "ROOT",
          "governor": 0,
          "governorGloss": "ROOT",
          "dependent": 3,
          "dependentGloss": "verlangt"
        },
        {
          "dep": "name",
          "governor": 2,
          "governorGloss": "Williams",
          "dependent": 1,
          "dependentGloss": "Brian"
        },
        {
          "dep": "nsubj",
          "governor": 3,
          "governorGloss": "verlangt",
          "dependent": 2,
          "dependentGloss": "Williams"
        },
        {
          "dep": "dobj",
          "governor": 3,
          "governorGloss": "verlangt",
          "dependent": 4,
          "dependentGloss": "Entschuldigung"
        },
        {
          "dep": "case",
          "governor": 7,
          "governorGloss": "Medien",
          "dependent": 5,
          "dependentGloss": "aus"
        },
        {
          "dep": "amod",
          "governor": 7,
          "governorGloss": "Medien",
          "dependent": 6,
          "dependentGloss": "sozialen"
        },
        {
          "dep": "nmod",
          "governor": 4,
          "governorGloss": "Entschuldigung",
          "dependent": 7,
          "dependentGloss": "Medien"
        },
        {
          "dep": "case",
          "governor": 10,
          "governorGloss": "Urinierungsberichte",
          "dependent": 8,
          "dependentGloss": "über"
        },
        {
          "dep": "amod",
          "governor": 10,
          "governorGloss": "Urinierungsberichte",
          "dependent": 9,
          "dependentGloss": "fehlerhafte"
        },
        {
          "dep": "nmod",
          "governor": 3,
          "governorGloss": "verlangt",
          "dependent": 10,
          "dependentGloss": "Urinierungsberichte"
        },
        {
          "dep": "amod",
          "governor": 12,
          "governorGloss": "Video",
          "dependent": 11,
          "dependentGloss": "-LRB-"
        },
        {
          "dep": "det",
          "governor": 10,
          "governorGloss": "Urinierungsberichte",
          "dependent": 12,
          "dependentGloss": "Video"
        },
        {
          "dep": "appos",
          "governor": 12,
          "governorGloss": "Video",
          "dependent": 13,
          "dependentGloss": "-RRB-"
        }
      ],
      "enhancedDependencies": [
        {
          "dep": "ROOT",
          "governor": 0,
          "governorGloss": "ROOT",
          "dependent": 3,
          "dependentGloss": "verlangt"
        },
        {
          "dep": "name",
          "governor": 2,
          "governorGloss": "Williams",
          "dependent": 1,
          "dependentGloss": "Brian"
        },
        {
          "dep": "nsubj",
          "governor": 3,
          "governorGloss": "verlangt",
          "dependent": 2,
          "dependentGloss": "Williams"
        },
        {
          "dep": "dobj",
          "governor": 3,
          "governorGloss": "verlangt",
          "dependent": 4,
          "dependentGloss": "Entschuldigung"
        },
        {
          "dep": "case",
          "governor": 7,
          "governorGloss": "Medien",
          "dependent": 5,
          "dependentGloss": "aus"
        },
        {
          "dep": "amod",
          "governor": 7,
          "governorGloss": "Medien",
          "dependent": 6,
          "dependentGloss": "sozialen"
        },
        {
          "dep": "nmod",
          "governor": 4,
          "governorGloss": "Entschuldigung",
          "dependent": 7,
          "dependentGloss": "Medien"
        },
        {
          "dep": "case",
          "governor": 10,
          "governorGloss": "Urinierungsberichte",
          "dependent": 8,
          "dependentGloss": "über"
        },
        {
          "dep": "amod",
          "governor": 10,
          "governorGloss": "Urinierungsberichte",
          "dependent": 9,
          "dependentGloss": "fehlerhafte"
        },
        {
          "dep": "nmod",
          "governor": 3,
          "governorGloss": "verlangt",
          "dependent": 10,
          "dependentGloss": "Urinierungsberichte"
        },
        {
          "dep": "amod",
          "governor": 12,
          "governorGloss": "Video",
          "dependent": 11,
          "dependentGloss": "-LRB-"
        },
        {
          "dep": "det",
          "governor": 10,
          "governorGloss": "Urinierungsberichte",
          "dependent": 12,
          "dependentGloss": "Video"
        },
        {
          "dep": "appos",
          "governor": 12,
          "governorGloss": "Video",
          "dependent": 13,
          "dependentGloss": "-RRB-"
        }
      ],
      "enhancedPlusPlusDependencies": [
        {
          "dep": "ROOT",
          "governor": 0,
          "governorGloss": "ROOT",
          "dependent": 3,
          "dependentGloss": "verlangt"
        },
        {
          "dep": "name",
          "governor": 2,
          "governorGloss": "Williams",
          "dependent": 1,
          "dependentGloss": "Brian"
        },
        {
          "dep": "nsubj",
          "governor": 3,
          "governorGloss": "verlangt",
          "dependent": 2,
          "dependentGloss": "Williams"
        },
        {
          "dep": "dobj",
          "governor": 3,
          "governorGloss": "verlangt",
          "dependent": 4,
          "dependentGloss": "Entschuldigung"
        },
        {
          "dep": "case",
          "governor": 7,
          "governorGloss": "Medien",
          "dependent": 5,
          "dependentGloss": "aus"
        },
        {
          "dep": "amod",
          "governor": 7,
          "governorGloss": "Medien",
          "dependent": 6,
          "dependentGloss": "sozialen"
        },
        {
          "dep": "nmod",
          "governor": 4,
          "governorGloss": "Entschuldigung",
          "dependent": 7,
          "dependentGloss": "Medien"
        },
        {
          "dep": "case",
          "governor": 10,
          "governorGloss": "Urinierungsberichte",
          "dependent": 8,
          "dependentGloss": "über"
        },
        {
          "dep": "amod",
          "governor": 10,
          "governorGloss": "Urinierungsberichte",
          "dependent": 9,
          "dependentGloss": "fehlerhafte"
        },
        {
          "dep": "nmod",
          "governor": 3,
          "governorGloss": "verlangt",
          "dependent": 10,
          "dependentGloss": "Urinierungsberichte"
        },
        {
          "dep": "amod",
          "governor": 12,
          "governorGloss": "Video",
          "dependent": 11,
          "dependentGloss": "-LRB-"
        },
        {
          "dep": "det",
          "governor": 10,
          "governorGloss": "Urinierungsberichte",
          "dependent": 12,
          "dependentGloss": "Video"
        },
        {
          "dep": "appos",
          "governor": 12,
          "governorGloss": "Video",
          "dependent": 13,
          "dependentGloss": "-RRB-"
        }
      ],
      "tokens": [
        {
          "index": 1,
          "word": "Brian",
          "originalText": "Brian",
          "characterOffsetBegin": 0,
          "characterOffsetEnd": 5,
          "pos": "NE",
          "before": "",
          "after": " "
        },
        {
          "index": 2,
          "word": "Williams",
          "originalText": "Williams",
          "characterOffsetBegin": 6,
          "characterOffsetEnd": 14,
          "pos": "NE",
          "before": " ",
          "after": " "
        },
        {
          "index": 3,
          "word": "verlangt",
          "originalText": "verlangt",
          "characterOffsetBegin": 15,
          "characterOffsetEnd": 23,
          "pos": "VVFIN",
          "before": " ",
          "after": " "
        },
        {
          "index": 4,
          "word": "Entschuldigung",
          "originalText": "Entschuldigung",
          "characterOffsetBegin": 24,
          "characterOffsetEnd": 38,
          "pos": "NN",
          "before": " ",
          "after": " "
        },
        {
          "index": 5,
          "word": "aus",
          "originalText": "aus",
          "characterOffsetBegin": 39,
          "characterOffsetEnd": 42,
          "pos": "APPR",
          "before": " ",
          "after": " "
        },
        {
          "index": 6,
          "word": "sozialen",
          "originalText": "sozialen",
          "characterOffsetBegin": 43,
          "characterOffsetEnd": 51,
          "pos": "ADJA",
          "before": " ",
          "after": " "
        },
        {
          "index": 7,
          "word": "Medien",
          "originalText": "Medien",
          "characterOffsetBegin": 52,
          "characterOffsetEnd": 58,
          "pos": "NN",
          "before": " ",
          "after": " "
        },
        {
          "index": 8,
          "word": "über",
          "originalText": "über",
          "characterOffsetBegin": 59,
          "characterOffsetEnd": 63,
          "pos": "APPR",
          "before": " ",
          "after": " "
        },
        {
          "index": 9,
          "word": "fehlerhafte",
          "originalText": "fehlerhafte",
          "characterOffsetBegin": 64,
          "characterOffsetEnd": 75,
          "pos": "ADJA",
          "before": " ",
          "after": " "
        },
        {
          "index": 10,
          "word": "Urinierungsberichte",
          "originalText": "Urinierungsberichte",
          "characterOffsetBegin": 76,
          "characterOffsetEnd": 95,
          "pos": "NN",
          "before": " ",
          "after": " "
        },
        {
          "index": 11,
          "word": "-LRB-",
          "originalText": "(",
          "characterOffsetBegin": 96,
          "characterOffsetEnd": 97,
          "pos": "TRUNC",
          "before": " ",
          "after": ""
        },
        {
          "index": 12,
          "word": "Video",
          "originalText": "Video",
          "characterOffsetBegin": 97,
          "characterOffsetEnd": 102,
          "pos": "NN",
          "before": "",
          "after": ""
        },
        {
          "index": 13,
          "word": "-RRB-",
          "originalText": ")",
          "characterOffsetBegin": 102,
          "characterOffsetEnd": 103,
          "pos": "TRUNC",
          "before": "",
          "after": ""
        }
      ]
    }
  ]
}