{
  "sentences": [
    {
      "index": 0,
      "basicDependencies": [
        {
          "dep": "ROOT",
          "governor": 0,
          "governorGloss": "ROOT",
          "dependent": 1,
          "dependentGloss": "Heimatschutz"
        },
        {
          "dep": "punct",
          "governor": 1,
          "governorGloss": "Heimatschutz",
          "dependent": 2,
          "dependentGloss": ":"
        },
        {
          "dep": "neg",
          "governor": 4,
          "governorGloss": "ISIL-Kämpfer",
          "dependent": 3,
          "dependentGloss": "Keine"
        },
        {
          "dep": "appos",
          "governor": 1,
          "governorGloss": "Heimatschutz",
          "dependent": 4,
          "dependentGloss": "ISIL-Kämpfer"
        },
        {
          "dep": "case",
          "governor": 7,
          "governorGloss": "U.S.-Grenze",
          "dependent": 5,
          "dependentGloss": "an"
        },
        {
          "dep": "det",
          "governor": 7,
          "governorGloss": "U.S.-Grenze",
          "dependent": 6,
          "dependentGloss": "der"
        },
        {
          "dep": "nmod",
          "governor": 4,
          "governorGloss": "ISIL-Kämpfer",
          "dependent": 7,
          "dependentGloss": "U.S.-Grenze"
        }
      ],
      "enhancedDependencies": [
        {
          "dep": "ROOT",
          "governor": 0,
          "governorGloss": "ROOT",
          "dependent": 1,
          "dependentGloss": "Heimatschutz"
        },
        {
          "dep": "punct",
          "governor": 1,
          "governorGloss": "Heimatschutz",
          "dependent": 2,
          "dependentGloss": ":"
        },
        {
          "dep": "neg",
          "governor": 4,
          "governorGloss": "ISIL-Kämpfer",
          "dependent": 3,
          "dependentGloss": "Keine"
        },
        {
          "dep": "appos",
          "governor": 1,
          "governorGloss": "Heimatschutz",
          "dependent": 4,
          "dependentGloss": "ISIL-Kämpfer"
        },
        {
          "dep": "case",
          "governor": 7,
          "governorGloss": "U.S.-Grenze",
          "dependent": 5,
          "dependentGloss": "an"
        },
        {
          "dep": "det",
          "governor": 7,
          "governorGloss": "U.S.-Grenze",
          "dependent": 6,
          "dependentGloss": "der"
        },
        {
          "dep": "nmod",
          "governor": 4,
          "governorGloss": "ISIL-Kämpfer",
          "dependent": 7,
          "dependentGloss": "U.S.-Grenze"
        }
      ],
      "enhancedPlusPlusDependencies": [
        {
          "dep": "ROOT",
          "governor": 0,
          "governorGloss": "ROOT",
          "dependent": 1,
          "dependentGloss": "Heimatschutz"
        },
        {
          "dep": "punct",
          "governor": 1,
          "governorGloss": "Heimatschutz",
          "dependent": 2,
          "dependentGloss": ":"
        },
        {
          "dep": "neg",
          "governor": 4,
          "governorGloss": "ISIL-Kämpfer",
          "dependent": 3,
          "dependentGloss": "Keine"
        },
        {
          "dep": "appos",
          "governor": 1,
          "governorGloss": "Heimatschutz",
          "dependent": 4,
          "dependentGloss": "ISIL-Kämpfer"
        },
        {
          "dep": "case",
          "governor": 7,
          "governorGloss": "U.S.-Grenze",
          "dependent": 5,
          "dependentGloss": "an"
        },
        {
          "dep": "det",
          "governor": 7,
          "governorGloss": "U.S.-Grenze",
          "dependent": 6,
          "dependentGloss": "der"
        },
        {
          "dep": "nmod",
          "governor": 4,
          "governorGloss": "ISIL-Kämpfer",
          "dependent": 7,
          "dependentGloss": "U.S.-Grenze"
        }
      ],
      "tokens": [
        {
          "index": 1,
          "word": "Heimatschutz",
          "originalText": "Heimatschutz",
          "characterOffsetBegin": 0,
          "characterOffsetEnd": 12,
          "pos": "NN",
          "before": "",
          "after": ""
        },
        {
          "index": 2,
          "word": ":",
          "originalText": ":",
          "characterOffsetBegin": 12,
          "characterOffsetEnd": 13,
          "pos": "$.",
          "before": "",
          "after": " "
        },
        {
          "index": 3,
          "word": "Keine",
          "originalText": "Keine",
          "characterOffsetBegin": 14,
          "characterOffsetEnd": 19,
          "pos": "PIAT",
          "before": " ",
          "after": " "
        },
        {
          "index": 4,
          "word": "ISIL-Kämpfer",
          "originalText": "ISIL-Kämpfer",
          "characterOffsetBegin": 20,
          "characterOffsetEnd": 32,
          "pos": "NN",
          "before": " ",
          "after": " "
        },
        {
          "index": 5,
          "word": "an",
          "originalText": "an",
          "characterOffsetBegin": 33,
          "characterOffsetEnd": 35,
          "pos": "APPR",
          "before": " ",
          "after": " "
        },
        {
          "index": 6,
          "word": "der",
          "originalText": "der",
          "characterOffsetBegin": 36,
          "characterOffsetEnd": 39,
          "pos": "ART",
          "before": " ",
          "after": " "
        },
        {
          "index": 7,
          "word": "U.S.-Grenze",
          "originalText": "U.S.-Grenze",
          "characterOffsetBegin": 40,
          "characterOffsetEnd": 51,
          "pos": "NN",
          "before": " ",
          "after": ""
        }
      ]
    }
  ]
}