{
  "sentences": [
    {
      "index": 0,
      "basicDependencies": [
        {
          "dep": "ROOT",
          "governor": 0,
          "governorGloss": "ROOT",
          "dependent": 9,
          "dependentGloss": "berichtet"
        },
        {
          "dep": "aux",
          "governor": 9,
          "governorGloss": "berichtet",
          "dependent": 1,
          "dependentGloss": "``"
        },
        {
          "dep": "det",
          "governor": 3,
          "governorGloss": "Cub",
          "dependent": 2,
          "dependentGloss": "Das"
        },
        {
          "dep": "dobj",
          "governor": 9,
          "governorGloss": "berichtet",
          "dependent": 3,
          "dependentGloss": "Cub"
        },
        {
          "dep": "case",
          "governor": 5,
          "governorGloss": "Baghdadi",
          "dependent": 4,
          "dependentGloss": "von"
        },
        {
          "dep": "nmod",
          "governor": 3,
          "governorGloss": "Cub",
          "dependent": 5,
          "dependentGloss": "Baghdadi"
        },
        {
          "dep": "punct",
          "governor": 8,
          "governorGloss": "ISIS",
          "dependent": 6,
          "dependentGloss": "``"
        },
        {
          "dep": "punct",
          "governor": 8,
          "governorGloss": "ISIS",
          "dependent": 7,
          "dependentGloss": ":"
        },
        {
          "dep": "nsubj",
          "governor": 9,
          "governorGloss": "berichtet",
          "dependent": 8,
          "dependentGloss": "ISIS"
        },
        {
          "dep": "punct",
          "governor": 9,
          "governorGloss": "berichtet",
          "dependent": 10,
          "dependentGloss": ","
        },
        {
          "dep": "mark",
          "governor": 20,
          "governorGloss": "gekommen",
          "dependent": 11,
          "dependentGloss": "dass"
        },
        {
          "dep": "nmod:poss",
          "governor": 14,
          "governorGloss": "Dschihadist",
          "dependent": 12,
          "dependentGloss": "sein"
        },
        {
          "dep": "amod",
          "governor": 14,
          "governorGloss": "Dschihadist",
          "dependent": 13,
          "dependentGloss": "jüngster"
        },
        {
          "dep": "dobj",
          "governor": 20,
          "governorGloss": "gekommen",
          "dependent": 14,
          "dependentGloss": "Dschihadist"
        },
        {
          "dep": "amod",
          "governor": 16,
          "governorGloss": "Kampf",
          "dependent": 15,
          "dependentGloss": "im"
        },
        {
          "dep": "nsubj",
          "governor": 20,
          "governorGloss": "gekommen",
          "dependent": 16,
          "dependentGloss": "Kampf"
        },
        {
          "dep": "case",
          "governor": 19,
          "governorGloss": "Kampf",
          "dependent": 17,
          "dependentGloss": "in"
        },
        {
          "dep": "det",
          "governor": 19,
          "governorGloss": "Kampf",
          "dependent": 18,
          "dependentGloss": "den"
        },
        {
          "dep": "nmod",
          "governor": 20,
          "governorGloss": "gekommen",
          "dependent": 19,
          "dependentGloss": "Kampf"
        },
        {
          "dep": "ccomp",
          "governor": 9,
          "governorGloss": "berichtet",
          "dependent": 20,
          "dependentGloss": "gekommen"
        },
        {
          "dep": "aux",
          "governor": 20,
          "governorGloss": "gekommen",
          "dependent": 21,
          "dependentGloss": "ist"
        }
      ],
      "enhancedDependencies": [
        {
          "dep": "ROOT",
          "governor": 0,
          "governorGloss": "ROOT",
          "dependent": 9,
          "dependentGloss": "berichtet"
        },
        {
          "dep": "aux",
          "governor": 9,
          "governorGloss": "berichtet",
          "dependent": 1,
          "dependentGloss": "``"
        },
        {
          "dep": "det",
          "governor": 3,
          "governorGloss": "Cub",
          "dependent": 2,
          "dependentGloss": "Das"
        },
        {
          "dep": "dobj",
          "governor": 9,
          "governorGloss": "berichtet",
          "dependent": 3,
          "dependentGloss": "Cub"
        },
        {
          "dep": "case",
          "governor": 5,
          "governorGloss": "Baghdadi",
          "dependent": 4,
          "dependentGloss": "von"
        },
        {
          "dep": "nmod",
          "governor": 3,
          "governorGloss": "Cub",
          "dependent": 5,
          "dependentGloss": "Baghdadi"
        },
        {
          "dep": "punct",
          "governor": 8,
          "governorGloss": "ISIS",
          "dependent": 6,
          "dependentGloss": "``"
        },
        {
          "dep": "punct",
          "governor": 8,
          "governorGloss": "ISIS",
          "dependent": 7,
          "dependentGloss": ":"
        },
        {
          "dep": "nsubj",
          "governor": 9,
          "governorGloss": "berichtet",
          "dependent": 8,
          "dependentGloss": "ISIS"
        },
        {
          "dep": "punct",
          "governor": 9,
          "governorGloss": "berichtet",
          "dependent": 10,
          "dependentGloss": ","
        },
        {
          "dep": "mark",
          "governor": 20,
          "governorGloss": "gekommen",
          "dependent": 11,
          "dependentGloss": "dass"
        },
        {
          "dep": "nmod:poss",
          "governor": 14,
          "governorGloss": "Dschihadist",
          "dependent": 12,
          "dependentGloss": "sein"
        },
        {
          "dep": "amod",
          "governor": 14,
          "governorGloss": "Dschihadist",
          "dependent": 13,
          "dependentGloss": "jüngster"
        },
        {
          "dep": "dobj",
          "governor": 20,
          "governorGloss": "gekommen",
          "dependent": 14,
          "dependentGloss": "Dschihadist"
        },
        {
          "dep": "amod",
          "governor": 16,
          "governorGloss": "Kampf",
          "dependent": 15,
          "dependentGloss": "im"
        },
        {
          "dep": "nsubj",
          "governor": 20,
          "governorGloss": "gekommen",
          "dependent": 16,
          "dependentGloss": "Kampf"
        },
        {
          "dep": "case",
          "governor": 19,
          "governorGloss": "Kampf",
          "dependent": 17,
          "dependentGloss": "in"
        },
        {
          "dep": "det",
          "governor": 19,
          "governorGloss": "Kampf",
          "dependent": 18,
          "dependentGloss": "den"
        },
        {
          "dep": "nmod",
          "governor": 20,
          "governorGloss": "gekommen",
          "dependent": 19,
          "dependentGloss": "Kampf"
        },
        {
          "dep": "ccomp",
          "governor": 9,
          "governorGloss": "berichtet",
          "dependent": 20,
          "dependentGloss": "gekommen"
        },
        {
          "dep": "aux",
          "governor": 20,
          "governorGloss": "gekommen",
          "dependent": 21,
          "dependentGloss": "ist"
        }
      ],
      "enhancedPlusPlusDependencies": [
        {
          "dep": "ROOT",
          "governor": 0,
          "governorGloss": "ROOT",
          "dependent": 9,
          "dependentGloss": "berichtet"
        },
        {
          "dep": "aux",
          "governor": 9,
          "governorGloss": "berichtet",
          "dependent": 1,
          "dependentGloss": "``"
        },
        {
          "dep": "det",
          "governor": 3,
          "governorGloss": "Cub",
          "dependent": 2,
          "dependentGloss": "Das"
        },
        {
          "dep": "dobj",
          "governor": 9,
          "governorGloss": "berichtet",
          "dependent": 3,
          "dependentGloss": "Cub"
        },
        {
          "dep": "case",
          "governor": 5,
          "governorGloss": "Baghdadi",
          "dependent": 4,
          "dependentGloss": "von"
        },
        {
          "dep": "nmod",
          "governor": 3,
          "governorGloss": "Cub",
          "dependent": 5,
          "dependentGloss": "Baghdadi"
        },
        {
          "dep": "punct",
          "governor": 8,
          "governorGloss": "ISIS",
          "dependent": 6,
          "dependentGloss": "``"
        },
        {
          "dep": "punct",
          "governor": 8,
          "governorGloss": "ISIS",
          "dependent": 7,
          "dependentGloss": ":"
        },
        {
          "dep": "nsubj",
          "governor": 9,
          "governorGloss": "berichtet",
          "dependent": 8,
          "dependentGloss": "ISIS"
        },
        {
          "dep": "punct",
          "governor": 9,
          "governorGloss": "berichtet",
          "dependent": 10,
          "dependentGloss": ","
        },
        {
          "dep": "mark",
          "governor": 20,
          "governorGloss": "gekommen",
          "dependent": 11,
          "dependentGloss": "dass"
        },
        {
          "dep": "nmod:poss",
          "governor": 14,
          "governorGloss": "Dschihadist",
          "dependent": 12,
          "dependentGloss": "sein"
        },
        {
          "dep": "amod",
          "governor": 14,
          "governorGloss": "Dschihadist",
          "dependent": 13,
          "dependentGloss": "jüngster"
        },
        {
          "dep": "dobj",
          "governor": 20,
          "governorGloss": "gekommen",
          "dependent": 14,
          "dependentGloss": "Dschihadist"
        },
        {
          "dep": "amod",
          "governor": 16,
          "governorGloss": "Kampf",
          "dependent": 15,
          "dependentGloss": "im"
        },
        {
          "dep": "nsubj",
          "governor": 20,
          "governorGloss": "gekommen",
          "dependent": 16,
          "dependentGloss": "Kampf"
        },
        {
          "dep": "case",
          "governor": 19,
          "governorGloss": "Kampf",
          "dependent": 17,
          "dependentGloss": "in"
        },
        {
          "dep": "det",
          "governor": 19,
          "governorGloss": "Kampf",
          "dependent": 18,
          "dependentGloss": "den"
        },
        {
          "dep": "nmod",
          "governor": 20,
          "governorGloss": "gekommen",
          "dependent": 19,
          "dependentGloss": "Kampf"
        },
        {
          "dep": "ccomp",
          "governor": 9,
          "governorGloss": "berichtet",
          "dependent": 20,
          "dependentGloss": "gekommen"
        },
        {
          "dep": "aux",
          "governor": 20,
          "governorGloss": "gekommen",
          "dependent": 21,
          "dependentGloss": "ist"
        }
      ],
      "tokens": [
        {
          "index": 1,
          "word": "``",
          "originalText": "“",
          "characterOffsetBegin": 0,
          "characterOffsetEnd": 1,
          "pos": "XY",
          "before": "",
          "after": ""
        },
        {
          "index": 2,
          "word": "Das",
          "originalText": "Das",
          "characterOffsetBegin": 1,
          "characterOffsetEnd": 4,
          "pos": "ART",
          "before": "",
          "after": " "
        },
        {
          "index": 3,
          "word": "Cub",
          "originalText": "Cub",
          "characterOffsetBegin": 5,
          "characterOffsetEnd": 8,
          "pos": "NN",
          "before": " ",
          "after": " "
        },
        {
          "index": 4,
          "word": "von",
          "originalText": "von",
          "characterOffsetBegin": 9,
          "characterOffsetEnd": 12,
          "pos": "APPR",
          "before": " ",
          "after": " "
        },
        {
          "index": 5,
          "word": "Baghdadi",
          "originalText": "Baghdadi",
          "characterOffsetBegin": 13,
          "characterOffsetEnd": 21,
          "pos": "NE",
          "before": " ",
          "after": ""
        },
        {
          "index": 6,
          "word": "``",
          "originalText": "“",
          "characterOffsetBegin": 21,
          "characterOffsetEnd": 22,
          "pos": "CARD",
          "before": "",
          "after": ""
        },
        {
          "index": 7,
          "word": ":",
          "originalText": ":",
          "characterOffsetBegin": 22,
          "characterOffsetEnd": 23,
          "pos": "$.",
          "before": "",
          "after": " "
        },
        {
          "index": 8,
          "word": "ISIS",
          "originalText": "ISIS",
          "characterOffsetBegin": 24,
          "characterOffsetEnd": 28,
          "pos": "NE",
          "before": " ",
          "after": " "
        },
        {
          "index": 9,
          "word": "berichtet",
          "originalText": "berichtet",
          "characterOffsetBegin": 29,
          "characterOffsetEnd": 38,
          "pos": "VVFIN",
          "before": " ",
          "after": ""
        },
        {
          "index": 10,
          "word": ",",
          "originalText": ",",
          "characterOffsetBegin": 38,
          "characterOffsetEnd": 39,
          "pos": "$,",
          "before": "",
          "after": " "
        },
        {
          "index": 11,
          "word": "dass",
          "originalText": "dass",
          "characterOffsetBegin": 40,
          "characterOffsetEnd": 44,
          "pos": "KOUS",
          "before": " ",
          "after": " "
        },
        {
          "index": 12,
          "word": "sein",
          "originalText": "sein",
          "characterOffsetBegin": 45,
          "characterOffsetEnd": 49,
          "pos": "PPOSAT",
          "before": " ",
          "after": " "
        },
        {
          "index": 13,
          "word": "jüngster",
          "originalText": "jüngster",
          "characterOffsetBegin": 50,
          "characterOffsetEnd": 58,
          "pos": "ADJA",
          "before": " ",
          "after": " "
        },
        {
          "index": 14,
          "word": "Dschihadist",
          "originalText": "Dschihadist",
          "characterOffsetBegin": 59,
          "characterOffsetEnd": 70,
          "pos": "NN",
          "before": " ",
          "after": " "
        },
        {
          "index": 15,
          "word": "im",
          "originalText": "im",
          "characterOffsetBegin": 71,
          "characterOffsetEnd": 73,
          "pos": "APPRART",
          "before": " ",
          "after": " "
        },
        {
          "index": 16,
          "word": "Kampf",
          "originalText": "Kampf",
          "characterOffsetBegin": 74,
          "characterOffsetEnd": 79,
          "pos": "NN",
          "before": " ",
          "after": " "
        },
        {
          "index": 17,
          "word": "in",
          "originalText": "in",
          "characterOffsetBegin": 80,
          "characterOffsetEnd": 82,
          "pos": "APPR",
          "before": " ",
          "after": " "
        },
        {
          "index": 18,
          "word": "den",
          "originalText": "den",
          "characterOffsetBegin": 83,
          "characterOffsetEnd": 86,
          "pos": "ART",
          "before": " ",
          "after": " "
        },
        {
          "index": 19,
          "word": "Kampf",
          "originalText": "Kampf",
          "characterOffsetBegin": 87,
          "characterOffsetEnd": 92,
          "pos": "NN",
          "before": " ",
          "after": " "
        },
        {
          "index": 20,
          "word": "gekommen",
          "originalText": "gekommen",
          "characterOffsetBegin": 93,
          "characterOffsetEnd": 101,
          "pos": "VVPP",
          "before": " ",
          "after": " "
        },
        {
          "index": 21,
          "word": "ist",
          "originalText": "ist",
          "characterOffsetBegin": 102,
          "characterOffsetEnd": 105,
          "pos": "VAFIN",
          "before": " ",
          "after": ""
        }
      ]
    }
  ]
}