{
  "sentences": [
    {
      "index": 0,
      "basicDependencies": [
        {
          "dep": "ROOT",
          "governor": 0,
          "governorGloss": "ROOT",
          "dependent": 10,
          "dependentGloss": "sparen"
        },
        {
          "dep": "nsubj",
          "governor": 10,
          "governorGloss": "sparen",
          "dependent": 1,
          "dependentGloss": "Apple"
        },
        {
          "dep": "aux",
          "governor": 10,
          "governorGloss": "sparen",
          "dependent": 2,
          "dependentGloss": "ist"
        },
        {
          "dep": "amod",
          "governor": 4,
          "governorGloss": "Features",
          "dependent": 3,
          "dependentGloss": "Begrenzung"
        },
        {
          "dep": "dobj",
          "governor": 10,
          "governorGloss": "sparen",
          "dependent": 4,
          "dependentGloss": "Features"
        },
        {
          "dep": "case",
          "governor": 8,
          "governorGloss": "Watch",
          "dependent": 5,
          "dependentGloss": "auf"
        },
        {
          "dep": "det",
          "governor": 8,
          "governorGloss": "Watch",
          "dependent": 6,
          "dependentGloss": "der"
        },
        {
          "dep": "name",
          "governor": 8,
          "governorGloss": "Watch",
          "dependent": 7,
          "dependentGloss": "Apple"
        },
        {
          "dep": "nmod",
          "governor": 10,
          "governorGloss": "sparen",
          "dependent": 8,
          "dependentGloss": "Watch"
        },
        {
          "dep": "aux",
          "governor": 10,
          "governorGloss": "sparen",
          "dependent": 9,
          "dependentGloss": "zu"
        },
        {
          "dep": "det",
          "governor": 10,
          "governorGloss": "sparen",
          "dependent": 11,
          "dependentGloss": "Akkulaufzeit"
        },
        {
          "dep": "punct",
          "governor": 10,
          "governorGloss": "sparen",
          "dependent": 12,
          "dependentGloss": ","
        },
        {
          "dep": "case",
          "governor": 14,
          "governorGloss": "Entwicklern",
          "dependent": 13,
          "dependentGloss": "nach"
        },
        {
          "dep": "nmod",
          "governor": 10,
          "governorGloss": "sparen",
          "dependent": 14,
          "dependentGloss": "Entwicklern"
        }
      ],
      "enhancedDependencies": [
        {
          "dep": "ROOT",
          "governor": 0,
          "governorGloss": "ROOT",
          "dependent": 10,
          "dependentGloss": "sparen"
        },
        {
          "dep": "nsubj",
          "governor": 10,
          "governorGloss": "sparen",
          "dependent": 1,
          "dependentGloss": "Apple"
        },
        {
          "dep": "aux",
          "governor": 10,
          "governorGloss": "sparen",
          "dependent": 2,
          "dependentGloss": "ist"
        },
        {
          "dep": "amod",
          "governor": 4,
          "governorGloss": "Features",
          "dependent": 3,
          "dependentGloss": "Begrenzung"
        },
        {
          "dep": "dobj",
          "governor": 10,
          "governorGloss": "sparen",
          "dependent": 4,
          "dependentGloss": "Features"
        },
        {
          "dep": "case",
          "governor": 8,
          "governorGloss": "Watch",
          "dependent": 5,
          "dependentGloss": "auf"
        },
        {
          "dep": "det",
          "governor": 8,
          "governorGloss": "Watch",
          "dependent": 6,
          "dependentGloss": "der"
        },
        {
          "dep": "name",
          "governor": 8,
          "governorGloss": "Watch",
          "dependent": 7,
          "dependentGloss": "Apple"
        },
        {
          "dep": "nmod",
          "governor": 10,
          "governorGloss": "sparen",
          "dependent": 8,
          "dependentGloss": "Watch"
        },
        {
          "dep": "aux",
          "governor": 10,
          "governorGloss": "sparen",
          "dependent": 9,
          "dependentGloss": "zu"
        },
        {
          "dep": "det",
          "governor": 10,
          "governorGloss": "sparen",
          "dependent": 11,
          "dependentGloss": "Akkulaufzeit"
        },
        {
          "dep": "punct",
          "governor": 10,
          "governorGloss": "sparen",
          "dependent": 12,
          "dependentGloss": ","
        },
        {
          "dep": "case",
          "governor": 14,
          "governorGloss": "Entwicklern",
          "dependent": 13,
          "dependentGloss": "nach"
        },
        {
          "dep": "nmod",
          "governor": 10,
          "governorGloss": "sparen",
          "dependent": 14,
          "dependentGloss": "Entwicklern"
        }
      ],
      "enhancedPlusPlusDependencies": [
        {
          "dep": "ROOT",
          "governor": 0,
          "governorGloss": "ROOT",
          "dependent": 10,
          "dependentGloss": "sparen"
        },
        {
          "dep": "nsubj",
          "governor": 10,
          "governorGloss": "sparen",
          "dependent": 1,
          "dependentGloss": "Apple"
        },
        {
          "dep": "aux",
          "governor": 10,
          "governorGloss": "sparen",
          "dependent": 2,
          "dependentGloss": "ist"
        },
        {
          "dep": "amod",
          "governor": 4,
          "governorGloss": "Features",
          "dependent": 3,
          "dependentGloss": "Begrenzung"
        },
        {
          "dep": "dobj",
          "governor": 10,
          "governorGloss": "sparen",
          "dependent": 4,
          "dependentGloss": "Features"
        },
        {
          "dep": "case",
          "governor": 8,
          "governorGloss": "Watch",
          "dependent": 5,
          "dependentGloss": "auf"
        },
        {
          "dep": "det",
          "governor": 8,
          "governorGloss": "Watch",
          "dependent": 6,
          "dependentGloss": "der"
        },
        {
          "dep": "name",
          "governor": 8,
          "governorGloss": "Watch",
          "dependent": 7,
          "dependentGloss": "Apple"
        },
        {
          "dep": "nmod",
          "governor": 10,
          "governorGloss": "sparen",
          "dependent": 8,
          "dependentGloss": "Watch"
        },
        {
          "dep": "aux",
          "governor": 10,
          "governorGloss": "sparen",
          "dependent": 9,
          "dependentGloss": "zu"
        },
        {
          "dep": "det",
          "governor": 10,
          "governorGloss": "sparen",
          "dependent": 11,
          "dependentGloss": "Akkulaufzeit"
        },
        {
          "dep": "punct",
          "governor": 10,
          "governorGloss": "sparen",
          "dependent": 12,
          "dependentGloss": ","
        },
        {
          "dep": "case",
          "governor": 14,
          "governorGloss": "Entwicklern",
          "dependent": 13,
          "dependentGloss": "nach"
        },
        {
          "dep": "nmod",
          "governor": 10,
          "governorGloss": "sparen",
          "dependent": 14,
          "dependentGloss": "Entwicklern"
        }
      ],
      "tokens": [
        {
          "index": 1,
          "word": "Apple",
          "originalText": "Apple",
          "characterOffsetBegin": 0,
          "characterOffsetEnd": 5,
          "pos": "NE",
          "before": "",
          "after": " "
        },
        {
          "index": 2,
          "word": "ist",
          "originalText": "ist",
          "characterOffsetBegin": 6,
          "characterOffsetEnd": 9,
          "pos": "VAFIN",
          "before": " ",
          "after": " "
        },
        {
          "index": 3,
          "word": "Begrenzung",
          "originalText": "Begrenzung",
          "characterOffsetBegin": 10,
          "characterOffsetEnd": 20,
          "pos": "NN",
          "before": " ",
          "after": " "
        },
        {
          "index": 4,
          "word": "Features",
          "originalText": "Features",
          "characterOffsetBegin": 21,
          "characterOffsetEnd": 29,
          "pos": "NN",
          "before": " ",
          "after": " "
        },
        {
          "index": 5,
          "word": "auf",
          "originalText": "auf",
          "characterOffsetBegin": 30,
          "characterOffsetEnd": 33,
          "pos": "APPR",
          "before": " ",
          "after": " "
        },
        {
          "index": 6,
          "word": "der",
          "originalText": "der",
          "characterOffsetBegin": 34,
          "characterOffsetEnd": 37,
          "pos": "ART",
          "before": " ",
          "after": " "
        },
        {
          "index": 7,
          "word": "Apple",
          "originalText": "Apple",
          "characterOffsetBegin": 38,
          "characterOffsetEnd": 43,
          "pos": "NE",
          "before": " ",
          "after": " "
        },
        {
          "index": 8,
          "word": "Watch",
          "originalText": "Watch",
          "characterOffsetBegin": 44,
          "characterOffsetEnd": 49,
          "pos": "NE",
          "before": " ",
          "after": " "
        },
        {
          "index": 9,
          "word": "zu",
          "originalText": "zu",
          "characterOffsetBegin": 50,
          "characterOffsetEnd": 52,
          "pos": "PTKZU",
          "before": " ",
          "after": " "
        },
        {
          "index": 10,
          "word": "sparen",
          "originalText": "sparen",
          "characterOffsetBegin": 53,
          "characterOffsetEnd": 59,
          "pos": "VVINF",
          "before": " ",
          "after": " "
        },
        {
          "index": 11,
          "word": "Akkulaufzeit",
          "originalText": "Akkulaufzeit",
          "characterOffsetBegin": 60,
          "characterOffsetEnd": 72,
          "pos": "NN",
          "before": " ",
          "after": ""
        },
        {
          "index": 12,
          "word": ",",
          "originalText": ",",
          "characterOffsetBegin": 72,
          "characterOffsetEnd": 73,
          "pos": "$,",
          "before": "",
          "after": " "
        },
        {
          "index": 13,
          "word": "nach",
          "originalText": "nach",
          "characterOffsetBegin": 74,
          "characterOffsetEnd": 78,
          "pos": "APPR",
          "before": " ",
          "after": " "
        },
        {
          "index": 14,
          "word": "Entwicklern",
          "originalText": "Entwicklern",
          "characterOffsetBegin": 79,
          "characterOffsetEnd": 90,
          "pos": "NN",
          "before": " ",
          "after": ""
        }
      ]
    }
  ]
}