{
  "sentences": [
    {
      "index": 0,
      "basicDependencies": [
        {
          "dep": "ROOT",
          "governor": 0,
          "governorGloss": "ROOT",
          "dependent": 3,
          "dependentGloss": "beschuldigt"
        },
        {
          "dep": "amod",
          "governor": 2,
          "governorGloss": "Staat",
          "dependent": 1,
          "dependentGloss": "Islamischen"
        },
        {
          "dep": "nsubj",
          "governor": 3,
          "governorGloss": "beschuldigt",
          "dependent": 2,
          "dependentGloss": "Staat"
        },
        {
          "dep": "punct",
          "governor": 3,
          "governorGloss": "beschuldigt",
          "dependent": 4,
          "dependentGloss": ","
        },
        {
          "dep": "conj",
          "governor": 3,
          "governorGloss": "beschuldigt",
          "dependent": 5,
          "dependentGloss": "Chlorgas"
        },
        {
          "dep": "case",
          "governor": 8,
          "governorGloss": "Soldaten",
          "dependent": 6,
          "dependentGloss": "auf"
        },
        {
          "dep": "amod",
          "governor": 8,
          "governorGloss": "Soldaten",
          "dependent": 7,
          "dependentGloss": "irakischen"
        },
        {
          "dep": "nmod",
          "governor": 10,
          "governorGloss": "verwenden",
          "dependent": 8,
          "dependentGloss": "Soldaten"
        },
        {
          "dep": "aux",
          "governor": 10,
          "governorGloss": "verwenden",
          "dependent": 9,
          "dependentGloss": "zu"
        },
        {
          "dep": "acl",
          "governor": 5,
          "governorGloss": "Chlorgas",
          "dependent": 10,
          "dependentGloss": "verwenden"
        }
      ],
      "enhancedDependencies": [
        {
          "dep": "ROOT",
          "governor": 0,
          "governorGloss": "ROOT",
          "dependent": 3,
          "dependentGloss": "beschuldigt"
        },
        {
          "dep": "amod",
          "governor": 2,
          "governorGloss": "Staat",
          "dependent": 1,
          "dependentGloss": "Islamischen"
        },
        {
          "dep": "nsubj",
          "governor": 3,
          "governorGloss": "beschuldigt",
          "dependent": 2,
          "dependentGloss": "Staat"
        },
        {
          "dep": "punct",
          "governor": 3,
          "governorGloss": "beschuldigt",
          "dependent": 4,
          "dependentGloss": ","
        },
        {
          "dep": "conj",
          "governor": 3,
          "governorGloss": "beschuldigt",
          "dependent": 5,
          "dependentGloss": "Chlorgas"
        },
        {
          "dep": "case",
          "governor": 8,
          "governorGloss": "Soldaten",
          "dependent": 6,
          "dependentGloss": "auf"
        },
        {
          "dep": "amod",
          "governor": 8,
          "governorGloss": "Soldaten",
          "dependent": 7,
          "dependentGloss": "irakischen"
        },
        {
          "dep": "nmod",
          "governor": 10,
          "governorGloss": "verwenden",
          "dependent": 8,
          "dependentGloss": "Soldaten"
        },
        {
          "dep": "aux",
          "governor": 10,
          "governorGloss": "verwenden",
          "dependent": 9,
          "dependentGloss": "zu"
        },
        {
          "dep": "acl",
          "governor": 5,
          "governorGloss": "Chlorgas",
          "dependent": 10,
          "dependentGloss": "verwenden"
        }
      ],
      "enhancedPlusPlusDependencies": [
        {
          "dep": "ROOT",
          "governor": 0,
          "governorGloss": "ROOT",
          "dependent": 3,
          "dependentGloss": "beschuldigt"
        },
        {
          "dep": "amod",
          "governor": 2,
          "governorGloss": "Staat",
          "dependent": 1,
          "dependentGloss": "Islamischen"
        },
        {
          "dep": "nsubj",
          "governor": 3,
          "governorGloss": "beschuldigt",
          "dependent": 2,
          "dependentGloss": "Staat"
        },
        {
          "dep": "punct",
          "governor": 3,
          "governorGloss": "beschuldigt",
          "dependent": 4,
          "dependentGloss": ","
        },
        {
          "dep": "conj",
          "governor": 3,
          "governorGloss": "beschuldigt",
          "dependent": 5,
          "dependentGloss": "Chlorgas"
        },
        {
          "dep": "case",
          "governor": 8,
          "governorGloss": "Soldaten",
          "dependent": 6,
          "dependentGloss": "auf"
        },
        {
          "dep": "amod",
          "governor": 8,
          "governorGloss": "Soldaten",
          "dependent": 7,
          "dependentGloss": "irakischen"
        },
        {
          "dep": "nmod",
          "governor": 10,
          "governorGloss": "verwenden",
          "dependent": 8,
          "dependentGloss": "Soldaten"
        },
        {
          "dep": "aux",
          "governor": 10,
          "governorGloss": "verwenden",
          "dependent": 9,
          "dependentGloss": "zu"
        },
        {
          "dep": "acl",
          "governor": 5,
          "governorGloss": "Chlorgas",
          "dependent": 10,
          "dependentGloss": "verwenden"
        }
      ],
      "tokens": [
        {
          "index": 1,
          "word": "Islamischen",
          "originalText": "Islamischen",
          "characterOffsetBegin": 0,
          "characterOffsetEnd": 11,
          "pos": "ADJA",
          "before": "",
          "after": " "
        },
        {
          "index": 2,
          "word": "Staat",
          "originalText": "Staat",
          "characterOffsetBegin": 12,
          "characterOffsetEnd": 17,
          "pos": "NN",
          "before": " ",
          "after": " "
        },
        {
          "index": 3,
          "word": "beschuldigt",
          "originalText": "beschuldigt",
          "characterOffsetBegin": 18,
          "characterOffsetEnd": 29,
          "pos": "VVPP",
          "before": " ",
          "after": ""
        },
        {
          "index": 4,
          "word": ",",
          "originalText": ",",
          "characterOffsetBegin": 29,
          "characterOffsetEnd": 30,
          "pos": "$,",
          "before": "",
          "after": " "
        },
        {
          "index": 5,
          "word": "Chlorgas",
          "originalText": "Chlorgas",
          "characterOffsetBegin": 31,
          "characterOffsetEnd": 39,
          "pos": "NN",
          "before": " ",
          "after": " "
        },
        {
          "index": 6,
          "word": "auf",
          "originalText": "auf",
          "characterOffsetBegin": 40,
          "characterOffsetEnd": 43,
          "pos": "APPR",
          "before": " ",
          "after": " "
        },
        {
          "index": 7,
          "word": "irakischen",
          "originalText": "irakischen",
          "characterOffsetBegin": 44,
          "characterOffsetEnd": 54,
          "pos": "ADJA",
          "before": " ",
          "after": " "
        },
        {
          "index": 8,
          "word": "Soldaten",
          "originalText": "Soldaten",
          "characterOffsetBegin": 55,
          "characterOffsetEnd": 63,
          "pos": "NN",
          "before": " ",
          "after": " "
        },
        {
          "index": 9,
          "word": "zu",
          "originalText": "zu",
          "characterOffsetBegin": 64,
          "characterOffsetEnd": 66,
          "pos": "PTKZU",
          "before": " ",
          "after": " "
        },
        {
          "index": 10,
          "word": "verwenden",
          "originalText": "verwenden",
          "characterOffsetBegin": 67,
          "characterOffsetEnd": 76,
          "pos": "VVINF",
          "before": " ",
          "after": ""
        }
      ]
    }
  ]
}