{
  "sentences": [
    {
      "index": 0,
      "basicDependencies": [
        {
          "dep": "ROOT",
          "governor": 0,
          "governorGloss": "ROOT",
          "dependent": 3,
          "dependentGloss": "LKW"
        },
        {
          "dep": "name",
          "governor": 2,
          "governorGloss": "Klempner",
          "dependent": 1,
          "dependentGloss": "Texas"
        },
        {
          "dep": "nsubj",
          "governor": 3,
          "governorGloss": "LKW",
          "dependent": 2,
          "dependentGloss": "Klempner"
        },
        {
          "dep": "case",
          "governor": 5,
          "governorGloss": "Syrien",
          "dependent": 4,
          "dependentGloss": "in"
        },
        {
          "dep": "nmod",
          "governor": 3,
          "governorGloss": "LKW",
          "dependent": 5,
          "dependentGloss": "Syrien"
        },
        {
          "dep": "mark",
          "governor": 3,
          "governorGloss": "LKW",
          "dependent": 6,
          "dependentGloss": "entdeckt"
        },
        {
          "dep": "punct",
          "governor": 3,
          "governorGloss": "LKW",
          "dependent": 7,
          "dependentGloss": ":"
        },
        {
          "dep": "punct",
          "governor": 16,
          "governorGloss": "tun",
          "dependent": 8,
          "dependentGloss": "``"
        },
        {
          "dep": "nsubj",
          "governor": 16,
          "governorGloss": "tun",
          "dependent": 9,
          "dependentGloss": "Wir"
        },
        {
          "dep": "aux",
          "governor": 16,
          "governorGloss": "tun",
          "dependent": 10,
          "dependentGloss": "haben"
        },
        {
          "dep": "advmod",
          "governor": 16,
          "governorGloss": "tun",
          "dependent": 11,
          "dependentGloss": "überhaupt"
        },
        {
          "dep": "dobj",
          "governor": 16,
          "governorGloss": "tun",
          "dependent": 12,
          "dependentGloss": "nichts"
        },
        {
          "dep": "case",
          "governor": 14,
          "governorGloss": "Terror",
          "dependent": 13,
          "dependentGloss": "mit"
        },
        {
          "dep": "nmod",
          "governor": 16,
          "governorGloss": "tun",
          "dependent": 14,
          "dependentGloss": "Terror"
        },
        {
          "dep": "aux",
          "governor": 16,
          "governorGloss": "tun",
          "dependent": 15,
          "dependentGloss": "zu"
        },
        {
          "dep": "ccomp",
          "governor": 3,
          "governorGloss": "LKW",
          "dependent": 16,
          "dependentGloss": "tun"
        },
        {
          "dep": "punct",
          "governor": 16,
          "governorGloss": "tun",
          "dependent": 17,
          "dependentGloss": "``"
        }
      ],
      "enhancedDependencies": [
        {
          "dep": "ROOT",
          "governor": 0,
          "governorGloss": "ROOT",
          "dependent": 3,
          "dependentGloss": "LKW"
        },
        {
          "dep": "name",
          "governor": 2,
          "governorGloss": "Klempner",
          "dependent": 1,
          "dependentGloss": "Texas"
        },
        {
          "dep": "nsubj",
          "governor": 3,
          "governorGloss": "LKW",
          "dependent": 2,
          "dependentGloss": "Klempner"
        },
        {
          "dep": "case",
          "governor": 5,
          "governorGloss": "Syrien",
          "dependent": 4,
          "dependentGloss": "in"
        },
        {
          "dep": "nmod",
          "governor": 3,
          "governorGloss": "LKW",
          "dependent": 5,
          "dependentGloss": "Syrien"
        },
        {
          "dep": "mark",
          "governor": 3,
          "governorGloss": "LKW",
          "dependent": 6,
          "dependentGloss": "entdeckt"
        },
        {
          "dep": "punct",
          "governor": 3,
          "governorGloss": "LKW",
          "dependent": 7,
          "dependentGloss": ":"
        },
        {
          "dep": "punct",
          "governor": 16,
          "governorGloss": "tun",
          "dependent": 8,
          "dependentGloss": "``"
        },
        {
          "dep": "nsubj",
          "governor": 16,
          "governorGloss": "tun",
          "dependent": 9,
          "dependentGloss": "Wir"
        },
        {
          "dep": "aux",
          "governor": 16,
          "governorGloss": "tun",
          "dependent": 10,
          "dependentGloss": "haben"
        },
        {
          "dep": "advmod",
          "governor": 16,
          "governorGloss": "tun",
          "dependent": 11,
          "dependentGloss": "überhaupt"
        },
        {
          "dep": "dobj",
          "governor": 16,
          "governorGloss": "tun",
          "dependent": 12,
          "dependentGloss": "nichts"
        },
        {
          "dep": "case",
          "governor": 14,
          "governorGloss": "Terror",
          "dependent": 13,
          "dependentGloss": "mit"
        },
        {
          "dep": "nmod",
          "governor": 16,
          "governorGloss": "tun",
          "dependent": 14,
          "dependentGloss": "Terror"
        },
        {
          "dep": "aux",
          "governor": 16,
          "governorGloss": "tun",
          "dependent": 15,
          "dependentGloss": "zu"
        },
        {
          "dep": "ccomp",
          "governor": 3,
          "governorGloss": "LKW",
          "dependent": 16,
          "dependentGloss": "tun"
        },
        {
          "dep": "punct",
          "governor": 16,
          "governorGloss": "tun",
          "dependent": 17,
          "dependentGloss": "``"
        }
      ],
      "enhancedPlusPlusDependencies": [
        {
          "dep": "ROOT",
          "governor": 0,
          "governorGloss": "ROOT",
          "dependent": 3,
          "dependentGloss": "LKW"
        },
        {
          "dep": "name",
          "governor": 2,
          "governorGloss": "Klempner",
          "dependent": 1,
          "dependentGloss": "Texas"
        },
        {
          "dep": "nsubj",
          "governor": 3,
          "governorGloss": "LKW",
          "dependent": 2,
          "dependentGloss": "Klempner"
        },
        {
          "dep": "case",
          "governor": 5,
          "governorGloss": "Syrien",
          "dependent": 4,
          "dependentGloss": "in"
        },
        {
          "dep": "nmod",
          "governor": 3,
          "governorGloss": "LKW",
          "dependent": 5,
          "dependentGloss": "Syrien"
        },
        {
          "dep": "mark",
          "governor": 3,
          "governorGloss": "LKW",
          "dependent": 6,
          "dependentGloss": "entdeckt"
        },
        {
          "dep": "punct",
          "governor": 3,
          "governorGloss": "LKW",
          "dependent": 7,
          "dependentGloss": ":"
        },
        {
          "dep": "punct",
          "governor": 16,
          "governorGloss": "tun",
          "dependent": 8,
          "dependentGloss": "``"
        },
        {
          "dep": "nsubj",
          "governor": 16,
          "governorGloss": "tun",
          "dependent": 9,
          "dependentGloss": "Wir"
        },
        {
          "dep": "aux",
          "governor": 16,
          "governorGloss": "tun",
          "dependent": 10,
          "dependentGloss": "haben"
        },
        {
          "dep": "advmod",
          "governor": 16,
          "governorGloss": "tun",
          "dependent": 11,
          "dependentGloss": "überhaupt"
        },
        {
          "dep": "dobj",
          "governor": 16,
          "governorGloss": "tun",
          "dependent": 12,
          "dependentGloss": "nichts"
        },
        {
          "dep": "case",
          "governor": 14,
          "governorGloss": "Terror",
          "dependent": 13,
          "dependentGloss": "mit"
        },
        {
          "dep": "nmod",
          "governor": 16,
          "governorGloss": "tun",
          "dependent": 14,
          "dependentGloss": "Terror"
        },
        {
          "dep": "aux",
          "governor": 16,
          "governorGloss": "tun",
          "dependent": 15,
          "dependentGloss": "zu"
        },
        {
          "dep": "ccomp",
          "governor": 3,
          "governorGloss": "LKW",
          "dependent": 16,
          "dependentGloss": "tun"
        },
        {
          "dep": "punct",
          "governor": 16,
          "governorGloss": "tun",
          "dependent": 17,
          "dependentGloss": "``"
        }
      ],
      "tokens": [
        {
          "index": 1,
          "word": "Texas",
          "originalText": "Texas",
          "characterOffsetBegin": 0,
          "characterOffsetEnd": 5,
          "pos": "NE",
          "before": "",
          "after": " "
        },
        {
          "index": 2,
          "word": "Klempner",
          "originalText": "Klempner",
          "characterOffsetBegin": 6,
          "characterOffsetEnd": 14,
          "pos": "NN",
          "before": " ",
          "after": " "
        },
        {
          "index": 3,
          "word": "LKW",
          "originalText": "LKW",
          "characterOffsetBegin": 15,
          "characterOffsetEnd": 18,
          "pos": "NE",
          "before": " ",
          "after": " "
        },
        {
          "index": 4,
          "word": "in",
          "originalText": "in",
          "characterOffsetBegin": 19,
          "characterOffsetEnd": 21,
          "pos": "APPR",
          "before": " ",
          "after": " "
        },
        {
          "index": 5,
          "word": "Syrien",
          "originalText": "Syrien",
          "characterOffsetBegin": 22,
          "characterOffsetEnd": 28,
          "pos": "NE",
          "before": " ",
          "after": " "
        },
        {
          "index": 6,
          "word": "entdeckt",
          "originalText": "entdeckt",
          "characterOffsetBegin": 29,
          "characterOffsetEnd": 37,
          "pos": "VVPP",
          "before": " ",
          "after": ""
        },
        {
          "index": 7,
          "word": ":",
          "originalText": ":",
          "characterOffsetBegin": 37,
          "characterOffsetEnd": 38,
          "pos": "$.",
          "before": "",
          "after": " "
        },
        {
          "index": 8,
          "word": "``",
          "originalText": "“",
          "characterOffsetBegin": 39,
          "characterOffsetEnd": 40,
          "pos": "CARD",
          "before": " ",
          "after": ""
        },
        {
          "index": 9,
          "word": "Wir",
          "originalText": "Wir",
          "characterOffsetBegin": 40,
          "characterOffsetEnd": 43,
          "pos": "PPER",
          "before": "",
          "after": " "
        },
        {
          "index": 10,
          "word": "haben",
          "originalText": "haben",
          "characterOffsetBegin": 44,
          "characterOffsetEnd": 49,
          "pos": "VAFIN",
          "before": " ",
          "after": " "
        },
        {
          "index": 11,
          "word": "überhaupt",
          "originalText": "überhaupt",
          "characterOffsetBegin": 50,
          "characterOffsetEnd": 59,
          "pos": "ADV",
          "before": " ",
          "after": " "
        },
        {
          "index": 12,
          "word": "nichts",
          "originalText": "nichts",
          "characterOffsetBegin": 60,
          "characterOffsetEnd": 66,
          "pos": "PIS",
          "before": " ",
          "after": " "
        },
        {
          "index": 13,
          "word": "mit",
          "originalText": "mit",
          "characterOffsetBegin": 67,
          "characterOffsetEnd": 70,
          "pos": "APPR",
          "before": " ",
          "after": " "
        },
        {
          "index": 14,
          "word": "Terror",
          "originalText": "Terror",
          "characterOffsetBegin": 71,
          "characterOffsetEnd": 77,
          "pos": "NN",
          "before": " ",
          "after": " "
        },
        {
          "index": 15,
          "word": "zu",
          "originalText": "zu",
          "characterOffsetBegin": 78,
          "characterOffsetEnd": 80,
          "pos": "PTKZU",
          "before": " ",
          "after": " "
        },
        {
          "index": 16,
          "word": "tun",
          "originalText": "tun",
          "characterOffsetBegin": 81,
          "characterOffsetEnd": 84,
          "pos": "VVINF",
          "before": " ",
          "after": ""
        },
        {
          "index": 17,
          "word": "``",
          "originalText": "“",
          "characterOffsetBegin": 84,
          "characterOffsetEnd": 85,
          "pos": "XY",
          "before": "",
          "after": ""
        }
      ]
    }
  ]
}