{
  "sentences": [
    {
      "index": 0,
      "basicDependencies": [
        {
          "dep": "ROOT",
          "governor": 0,
          "governorGloss": "ROOT",
          "dependent": 1,
          "dependentGloss": "Bericht"
        },
        {
          "dep": "punct",
          "governor": 1,
          "governorGloss": "Bericht",
          "dependent": 2,
          "dependentGloss": ":"
        },
        {
          "dep": "name",
          "governor": 4,
          "governorGloss": "Bale",
          "dependent": 3,
          "dependentGloss": "Christian"
        },
        {
          "dep": "appos",
          "governor": 1,
          "governorGloss": "Bericht",
          "dependent": 4,
          "dependentGloss": "Bale"
        },
        {
          "dep": "advmod",
          "governor": 6,
          "governorGloss": "Bailed",
          "dependent": 5,
          "dependentGloss": "Just"
        },
        {
          "dep": "appos",
          "governor": 4,
          "governorGloss": "Bale",
          "dependent": 6,
          "dependentGloss": "Bailed"
        },
        {
          "dep": "case",
          "governor": 10,
          "governorGloss": "Jobs",
          "dependent": 7,
          "dependentGloss": "auf"
        },
        {
          "dep": "det",
          "governor": 10,
          "governorGloss": "Jobs",
          "dependent": 8,
          "dependentGloss": "der"
        },
        {
          "dep": "name",
          "governor": 10,
          "governorGloss": "Jobs",
          "dependent": 9,
          "dependentGloss": "Steve"
        },
        {
          "dep": "nmod",
          "governor": 6,
          "governorGloss": "Bailed",
          "dependent": 10,
          "dependentGloss": "Jobs"
        },
        {
          "dep": "appos",
          "governor": 10,
          "governorGloss": "Jobs",
          "dependent": 11,
          "dependentGloss": "Film"
        }
      ],
      "enhancedDependencies": [
        {
          "dep": "ROOT",
          "governor": 0,
          "governorGloss": "ROOT",
          "dependent": 1,
          "dependentGloss": "Bericht"
        },
        {
          "dep": "punct",
          "governor": 1,
          "governorGloss": "Bericht",
          "dependent": 2,
          "dependentGloss": ":"
        },
        {
          "dep": "name",
          "governor": 4,
          "governorGloss": "Bale",
          "dependent": 3,
          "dependentGloss": "Christian"
        },
        {
          "dep": "appos",
          "governor": 1,
          "governorGloss": "Bericht",
          "dependent": 4,
          "dependentGloss": "Bale"
        },
        {
          "dep": "advmod",
          "governor": 6,
          "governorGloss": "Bailed",
          "dependent": 5,
          "dependentGloss": "Just"
        },
        {
          "dep": "appos",
          "governor": 4,
          "governorGloss": "Bale",
          "dependent": 6,
          "dependentGloss": "Bailed"
        },
        {
          "dep": "case",
          "governor": 10,
          "governorGloss": "Jobs",
          "dependent": 7,
          "dependentGloss": "auf"
        },
        {
          "dep": "det",
          "governor": 10,
          "governorGloss": "Jobs",
          "dependent": 8,
          "dependentGloss": "der"
        },
        {
          "dep": "name",
          "governor": 10,
          "governorGloss": "Jobs",
          "dependent": 9,
          "dependentGloss": "Steve"
        },
        {
          "dep": "nmod",
          "governor": 6,
          "governorGloss": "Bailed",
          "dependent": 10,
          "dependentGloss": "Jobs"
        },
        {
          "dep": "appos",
          "governor": 10,
          "governorGloss": "Jobs",
          "dependent": 11,
          "dependentGloss": "Film"
        }
      ],
      "enhancedPlusPlusDependencies": [
        {
          "dep": "ROOT",
          "governor": 0,
          "governorGloss": "ROOT",
          "dependent": 1,
          "dependentGloss": "Bericht"
        },
        {
          "dep": "punct",
          "governor": 1,
          "governorGloss": "Bericht",
          "dependent": 2,
          "dependentGloss": ":"
        },
        {
          "dep": "name",
          "governor": 4,
          "governorGloss": "Bale",
          "dependent": 3,
          "dependentGloss": "Christian"
        },
        {
          "dep": "appos",
          "governor": 1,
          "governorGloss": "Bericht",
          "dependent": 4,
          "dependentGloss": "Bale"
        },
        {
          "dep": "advmod",
          "governor": 6,
          "governorGloss": "Bailed",
          "dependent": 5,
          "dependentGloss": "Just"
        },
        {
          "dep": "appos",
          "governor": 4,
          "governorGloss": "Bale",
          "dependent": 6,
          "dependentGloss": "Bailed"
        },
        {
          "dep": "case",
          "governor": 10,
          "governorGloss": "Jobs",
          "dependent": 7,
          "dependentGloss": "auf"
        },
        {
          "dep": "det",
          "governor": 10,
          "governorGloss": "Jobs",
          "dependent": 8,
          "dependentGloss": "der"
        },
        {
          "dep": "name",
          "governor": 10,
          "governorGloss": "Jobs",
          "dependent": 9,
          "dependentGloss": "Steve"
        },
        {
          "dep": "nmod",
          "governor": 6,
          "governorGloss": "Bailed",
          "dependent": 10,
          "dependentGloss": "Jobs"
        },
        {
          "dep": "appos",
          "governor": 10,
          "governorGloss": "Jobs",
          "dependent": 11,
          "dependentGloss": "Film"
        }
      ],
      "tokens": [
        {
          "index": 1,
          "word": "Bericht",
          "originalText": "Bericht",
          "characterOffsetBegin": 0,
          "characterOffsetEnd": 7,
          "pos": "NN",
          "before": "",
          "after": ""
        },
        {
          "index": 2,
          "word": ":",
          "originalText": ":",
          "characterOffsetBegin": 7,
          "characterOffsetEnd": 8,
          "pos": "$.",
          "before": "",
          "after": " "
        },
        {
          "index": 3,
          "word": "Christian",
          "originalText": "Christian",
          "characterOffsetBegin": 9,
          "characterOffsetEnd": 18,
          "pos": "NE",
          "before": " ",
          "after": " "
        },
        {
          "index": 4,
          "word": "Bale",
          "originalText": "Bale",
          "characterOffsetBegin": 19,
          "characterOffsetEnd": 23,
          "pos": "NE",
          "before": " ",
          "after": " "
        },
        {
          "index": 5,
          "word": "Just",
          "originalText": "Just",
          "characterOffsetBegin": 24,
          "characterOffsetEnd": 28,
          "pos": "NE",
          "before": " ",
          "after": " "
        },
        {
          "index": 6,
          "word": "Bailed",
          "originalText": "Bailed",
          "characterOffsetBegin": 29,
          "characterOffsetEnd": 35,
          "pos": "NE",
          "before": " ",
          "after": " "
        },
        {
          "index": 7,
          "word": "auf",
          "originalText": "auf",
          "characterOffsetBegin": 36,
          "characterOffsetEnd": 39,
          "pos": "APPR",
          "before": " ",
          "after": " "
        },
        {
          "index": 8,
          "word": "der",
          "originalText": "der",
          "characterOffsetBegin": 40,
          "characterOffsetEnd": 43,
          "pos": "ART",
          "before": " ",
          "after": " "
        },
        {
          "index": 9,
          "word": "Steve",
          "originalText": "Steve",
          "characterOffsetBegin": 44,
          "characterOffsetEnd": 49,
          "pos": "NE",
          "before": " ",
          "after": " "
        },
        {
          "index": 10,
          "word": "Jobs",
          "originalText": "Jobs",
          "characterOffsetBegin": 50,
          "characterOffsetEnd": 54,
          "pos": "NN",
          "before": " ",
          "after": " "
        },
        {
          "index": 11,
          "word": "Film",
          "originalText": "Film",
          "characterOffsetBegin": 55,
          "characterOffsetEnd": 59,
          "pos": "NN",
          "before": " ",
          "after": ""
        }
      ]
    }
  ]
}