{
  "sentences": [
    {
      "index": 0,
      "basicDependencies": [
        {
          "dep": "ROOT",
          "governor": 0,
          "governorGloss": "ROOT",
          "dependent": 3,
          "dependentGloss": "Dead"
        },
        {
          "dep": "name",
          "governor": 3,
          "governorGloss": "Dead",
          "dependent": 1,
          "dependentGloss": "Macaulay"
        },
        {
          "dep": "name",
          "governor": 3,
          "governorGloss": "Dead",
          "dependent": 2,
          "dependentGloss": "Culkin"
        },
        {
          "dep": "punct",
          "governor": 3,
          "governorGloss": "Dead",
          "dependent": 4,
          "dependentGloss": "?"
        }
      ],
      "enhancedDependencies": [
        {
          "dep": "ROOT",
          "governor": 0,
          "governorGloss": "ROOT",
          "dependent": 3,
          "dependentGloss": "Dead"
        },
        {
          "dep": "name",
          "governor": 3,
          "governorGloss": "Dead",
          "dependent": 1,
          "dependentGloss": "Macaulay"
        },
        {
          "dep": "name",
          "governor": 3,
          "governorGloss": "Dead",
          "dependent": 2,
          "dependentGloss": "Culkin"
        },
        {
          "dep": "punct",
          "governor": 3,
          "governorGloss": "Dead",
          "dependent": 4,
          "dependentGloss": "?"
        }
      ],
      "enhancedPlusPlusDependencies": [
        {
          "dep": "ROOT",
          "governor": 0,
          "governorGloss": "ROOT",
          "dependent": 3,
          "dependentGloss": "Dead"
        },
        {
          "dep": "name",
          "governor": 3,
          "governorGloss": "Dead",
          "dependent": 1,
          "dependentGloss": "Macaulay"
        },
        {
          "dep": "name",
          "governor": 3,
          "governorGloss": "Dead",
          "dependent": 2,
          "dependentGloss": "Culkin"
        },
        {
          "dep": "punct",
          "governor": 3,
          "governorGloss": "Dead",
          "dependent": 4,
          "dependentGloss": "?"
        }
      ],
      "tokens": [
        {
          "index": 1,
          "word": "Macaulay",
          "originalText": "Macaulay",
          "characterOffsetBegin": 0,
          "characterOffsetEnd": 8,
          "pos": "NE",
          "before": "",
          "after": " "
        },
        {
          "index": 2,
          "word": "Culkin",
          "originalText": "Culkin",
          "characterOffsetBegin": 9,
          "characterOffsetEnd": 15,
          "pos": "NE",
          "before": " ",
          "after": " "
        },
        {
          "index": 3,
          "word": "Dead",
          "originalText": "Dead",
          "characterOffsetBegin": 16,
          "characterOffsetEnd": 20,
          "pos": "NE",
          "before": " ",
          "after": ""
        },
        {
          "index": 4,
          "word": "?",
          "originalText": "?",
          "characterOffsetBegin": 20,
          "characterOffsetEnd": 21,
          "pos": "$.",
          "before": "",
          "after": " "
        }
      ]
    },
    {
      "index": 1,
      "basicDependencies": [
        {
          "dep": "ROOT",
          "governor": 0,
          "governorGloss": "ROOT",
          "dependent": 2,
          "dependentGloss": "Freak"
        },
        {
          "dep": "nsubj",
          "governor": 2,
          "governorGloss": "Freak",
          "dependent": 1,
          "dependentGloss": "Fans"
        },
        {
          "dep": "advmod",
          "governor": 2,
          "governorGloss": "Freak",
          "dependent": 3,
          "dependentGloss": "Out"
        },
        {
          "dep": "case",
          "governor": 5,
          "governorGloss": "Todesritter",
          "dependent": 4,
          "dependentGloss": "über"
        },
        {
          "dep": "nmod",
          "governor": 2,
          "governorGloss": "Freak",
          "dependent": 5,
          "dependentGloss": "Todesritter"
        }
      ],
      "enhancedDependencies": [
        {
          "dep": "ROOT",
          "governor": 0,
          "governorGloss": "ROOT",
          "dependent": 2,
          "dependentGloss": "Freak"
        },
        {
          "dep": "nsubj",
          "governor": 2,
          "governorGloss": "Freak",
          "dependent": 1,
          "dependentGloss": "Fans"
        },
        {
          "dep": "advmod",
          "governor": 2,
          "governorGloss": "Freak",
          "dependent": 3,
          "dependentGloss": "Out"
        },
        {
          "dep": "case",
          "governor": 5,
          "governorGloss": "Todesritter",
          "dependent": 4,
          "dependentGloss": "über"
        },
        {
          "dep": "nmod",
          "governor": 2,
          "governorGloss": "Freak",
          "dependent": 5,
          "dependentGloss": "Todesritter"
        }
      ],
      "enhancedPlusPlusDependencies": [
        {
          "dep": "ROOT",
          "governor": 0,
          "governorGloss": "ROOT",
          "dependent": 2,
          "dependentGloss": "Freak"
        },
        {
          "dep": "nsubj",
          "governor": 2,
          "governorGloss": "Freak",
          "dependent": 1,
          "dependentGloss": "Fans"
        },
        {
          "dep": "advmod",
          "governor": 2,
          "governorGloss": "Freak",
          "dependent": 3,
          "dependentGloss": "Out"
        },
        {
          "dep": "case",
          "governor": 5,
          "governorGloss": "Todesritter",
          "dependent": 4,
          "dependentGloss": "über"
        },
        {
          "dep": "nmod",
          "governor": 2,
          "governorGloss": "Freak",
          "dependent": 5,
          "dependentGloss": "Todesritter"
        }
      ],
      "tokens": [
        {
          "index": 1,
          "word": "Fans",
          "originalText": "Fans",
          "characterOffsetBegin": 22,
          "characterOffsetEnd": 26,
          "pos": "NN",
          "before": " ",
          "after": " "
        },
        {
          "index": 2,
          "word": "Freak",
          "originalText": "Freak",
          "characterOffsetBegin": 27,
          "characterOffsetEnd": 32,
          "pos": "NE",
          "before": " ",
          "after": " "
        },
        {
          "index": 3,
          "word": "Out",
          "originalText": "Out",
          "characterOffsetBegin": 33,
          "characterOffsetEnd": 36,
          "pos": "NE",
          "before": " ",
          "after": " "
        },
        {
          "index": 4,
          "word": "über",
          "originalText": "über",
          "characterOffsetBegin": 37,
          "characterOffsetEnd": 41,
          "pos": "APPR",
          "before": " ",
          "after": " "
        },
        {
          "index": 5,
          "word": "Todesritter",
          "originalText": "Todesritter",
          "characterOffsetBegin": 42,
          "characterOffsetEnd": 53,
          "pos": "NN",
          "before": " ",
          "after": ""
        }
      ]
    }
  ]
}