{
  "sentences": [
    {
      "index": 0,
      "basicDependencies": [
        {
          "dep": "ROOT",
          "governor": 0,
          "governorGloss": "ROOT",
          "dependent": 6,
          "dependentGloss": "getötet"
        },
        {
          "dep": "case",
          "governor": 3,
          "governorGloss": "Sergeant-at-Arms",
          "dependent": 1,
          "dependentGloss": "Wie"
        },
        {
          "dep": "amod",
          "governor": 3,
          "governorGloss": "Sergeant-at-Arms",
          "dependent": 2,
          "dependentGloss": "kanadische"
        },
        {
          "dep": "nmod",
          "governor": 6,
          "governorGloss": "getötet",
          "dependent": 3,
          "dependentGloss": "Sergeant-at-Arms"
        },
        {
          "dep": "name",
          "governor": 5,
          "governorGloss": "Vickers",
          "dependent": 4,
          "dependentGloss": "Kevin"
        },
        {
          "dep": "appos",
          "governor": 3,
          "governorGloss": "Sergeant-at-Arms",
          "dependent": 5,
          "dependentGloss": "Vickers"
        },
        {
          "dep": "nsubj",
          "governor": 6,
          "governorGloss": "getötet",
          "dependent": 7,
          "dependentGloss": "Shooter"
        },
        {
          "dep": "amod",
          "governor": 9,
          "governorGloss": "Parlament",
          "dependent": 8,
          "dependentGloss": "im"
        },
        {
          "dep": "dobj",
          "governor": 6,
          "governorGloss": "getötet",
          "dependent": 9,
          "dependentGloss": "Parlament"
        }
      ],
      "enhancedDependencies": [
        {
          "dep": "ROOT",
          "governor": 0,
          "governorGloss": "ROOT",
          "dependent": 6,
          "dependentGloss": "getötet"
        },
        {
          "dep": "case",
          "governor": 3,
          "governorGloss": "Sergeant-at-Arms",
          "dependent": 1,
          "dependentGloss": "Wie"
        },
        {
          "dep": "amod",
          "governor": 3,
          "governorGloss": "Sergeant-at-Arms",
          "dependent": 2,
          "dependentGloss": "kanadische"
        },
        {
          "dep": "nmod",
          "governor": 6,
          "governorGloss": "getötet",
          "dependent": 3,
          "dependentGloss": "Sergeant-at-Arms"
        },
        {
          "dep": "name",
          "governor": 5,
          "governorGloss": "Vickers",
          "dependent": 4,
          "dependentGloss": "Kevin"
        },
        {
          "dep": "appos",
          "governor": 3,
          "governorGloss": "Sergeant-at-Arms",
          "dependent": 5,
          "dependentGloss": "Vickers"
        },
        {
          "dep": "nsubj",
          "governor": 6,
          "governorGloss": "getötet",
          "dependent": 7,
          "dependentGloss": "Shooter"
        },
        {
          "dep": "amod",
          "governor": 9,
          "governorGloss": "Parlament",
          "dependent": 8,
          "dependentGloss": "im"
        },
        {
          "dep": "dobj",
          "governor": 6,
          "governorGloss": "getötet",
          "dependent": 9,
          "dependentGloss": "Parlament"
        }
      ],
      "enhancedPlusPlusDependencies": [
        {
          "dep": "ROOT",
          "governor": 0,
          "governorGloss": "ROOT",
          "dependent": 6,
          "dependentGloss": "getötet"
        },
        {
          "dep": "case",
          "governor": 3,
          "governorGloss": "Sergeant-at-Arms",
          "dependent": 1,
          "dependentGloss": "Wie"
        },
        {
          "dep": "amod",
          "governor": 3,
          "governorGloss": "Sergeant-at-Arms",
          "dependent": 2,
          "dependentGloss": "kanadische"
        },
        {
          "dep": "nmod",
          "governor": 6,
          "governorGloss": "getötet",
          "dependent": 3,
          "dependentGloss": "Sergeant-at-Arms"
        },
        {
          "dep": "name",
          "governor": 5,
          "governorGloss": "Vickers",
          "dependent": 4,
          "dependentGloss": "Kevin"
        },
        {
          "dep": "appos",
          "governor": 3,
          "governorGloss": "Sergeant-at-Arms",
          "dependent": 5,
          "dependentGloss": "Vickers"
        },
        {
          "dep": "nsubj",
          "governor": 6,
          "governorGloss": "getötet",
          "dependent": 7,
          "dependentGloss": "Shooter"
        },
        {
          "dep": "amod",
          "governor": 9,
          "governorGloss": "Parlament",
          "dependent": 8,
          "dependentGloss": "im"
        },
        {
          "dep": "dobj",
          "governor": 6,
          "governorGloss": "getötet",
          "dependent": 9,
          "dependentGloss": "Parlament"
        }
      ],
      "tokens": [
        {
          "index": 1,
          "word": "Wie",
          "originalText": "Wie",
          "characterOffsetBegin": 0,
          "characterOffsetEnd": 3,
          "pos": "PWAV",
          "before": "",
          "after": " "
        },
        {
          "index": 2,
          "word": "kanadische",
          "originalText": "kanadische",
          "characterOffsetBegin": 4,
          "characterOffsetEnd": 14,
          "pos": "ADJA",
          "before": " ",
          "after": " "
        },
        {
          "index": 3,
          "word": "Sergeant-at-Arms",
          "originalText": "Sergeant-at-Arms",
          "characterOffsetBegin": 15,
          "characterOffsetEnd": 31,
          "pos": "NN",
          "before": " ",
          "after": " "
        },
        {
          "index": 4,
          "word": "Kevin",
          "originalText": "Kevin",
          "characterOffsetBegin": 32,
          "characterOffsetEnd": 37,
          "pos": "NE",
          "before": " ",
          "after": " "
        },
        {
          "index": 5,
          "word": "Vickers",
          "originalText": "Vickers",
          "characterOffsetBegin": 38,
          "characterOffsetEnd": 45,
          "pos": "NE",
          "before": " ",
          "after": " "
        },
        {
          "index": 6,
          "word": "getötet",
          "originalText": "getötet",
          "characterOffsetBegin": 46,
          "characterOffsetEnd": 53,
          "pos": "VVPP",
          "before": " ",
          "after": " "
        },
        {
          "index": 7,
          "word": "Shooter",
          "originalText": "Shooter",
          "characterOffsetBegin": 54,
          "characterOffsetEnd": 61,
          "pos": "NE",
          "before": " ",
          "after": " "
        },
        {
          "index": 8,
          "word": "im",
          "originalText": "im",
          "characterOffsetBegin": 62,
          "characterOffsetEnd": 64,
          "pos": "APPRART",
          "before": " ",
          "after": " "
        },
        {
          "index": 9,
          "word": "Parlament",
          "originalText": "Parlament",
          "characterOffsetBegin": 65,
          "characterOffsetEnd": 74,
          "pos": "NN",
          "before": " ",
          "after": ""
        }
      ]
    }
  ]
}