{
  "sentences": [
    {
      "index": 0,
      "basicDependencies": [
        {
          "dep": "ROOT",
          "governor": 0,
          "governorGloss": "ROOT",
          "dependent": 8,
          "dependentGloss": "gemacht"
        },
        {
          "dep": "nsubj",
          "governor": 8,
          "governorGloss": "gemacht",
          "dependent": 1,
          "dependentGloss": "Siehe"
        },
        {
          "dep": "det",
          "governor": 3,
          "governorGloss": "Krater",
          "dependent": 2,
          "dependentGloss": "den"
        },
        {
          "dep": "dobj",
          "governor": 1,
          "governorGloss": "Siehe",
          "dependent": 3,
          "dependentGloss": "Krater"
        },
        {
          "dep": "det",
          "governor": 5,
          "governorGloss": "Meteorit",
          "dependent": 4,
          "dependentGloss": "ein"
        },
        {
          "dep": "det",
          "governor": 3,
          "governorGloss": "Krater",
          "dependent": 5,
          "dependentGloss": "Meteorit"
        },
        {
          "dep": "case",
          "governor": 7,
          "governorGloss": "Nicaragua",
          "dependent": 6,
          "dependentGloss": "in"
        },
        {
          "dep": "nmod",
          "governor": 5,
          "governorGloss": "Meteorit",
          "dependent": 7,
          "dependentGloss": "Nicaragua"
        }
      ],
      "enhancedDependencies": [
        {
          "dep": "ROOT",
          "governor": 0,
          "governorGloss": "ROOT",
          "dependent": 8,
          "dependentGloss": "gemacht"
        },
        {
          "dep": "nsubj",
          "governor": 8,
          "governorGloss": "gemacht",
          "dependent": 1,
          "dependentGloss": "Siehe"
        },
        {
          "dep": "det",
          "governor": 3,
          "governorGloss": "Krater",
          "dependent": 2,
          "dependentGloss": "den"
        },
        {
          "dep": "dobj",
          "governor": 1,
          "governorGloss": "Siehe",
          "dependent": 3,
          "dependentGloss": "Krater"
        },
        {
          "dep": "det",
          "governor": 5,
          "governorGloss": "Meteorit",
          "dependent": 4,
          "dependentGloss": "ein"
        },
        {
          "dep": "det",
          "governor": 3,
          "governorGloss": "Krater",
          "dependent": 5,
          "dependentGloss": "Meteorit"
        },
        {
          "dep": "case",
          "governor": 7,
          "governorGloss": "Nicaragua",
          "dependent": 6,
          "dependentGloss": "in"
        },
        {
          "dep": "nmod",
          "governor": 5,
          "governorGloss": "Meteorit",
          "dependent": 7,
          "dependentGloss": "Nicaragua"
        }
      ],
      "enhancedPlusPlusDependencies": [
        {
          "dep": "ROOT",
          "governor": 0,
          "governorGloss": "ROOT",
          "dependent": 8,
          "dependentGloss": "gemacht"
        },
        {
          "dep": "nsubj",
          "governor": 8,
          "governorGloss": "gemacht",
          "dependent": 1,
          "dependentGloss": "Siehe"
        },
        {
          "dep": "det",
          "governor": 3,
          "governorGloss": "Krater",
          "dependent": 2,
          "dependentGloss": "den"
        },
        {
          "dep": "dobj",
          "governor": 1,
          "governorGloss": "Siehe",
          "dependent": 3,
          "dependentGloss": "Krater"
        },
        {
          "dep": "det",
          "governor": 5,
          "governorGloss": "Meteorit",
          "dependent": 4,
          "dependentGloss": "ein"
        },
        {
          "dep": "det",
          "governor": 3,
          "governorGloss": "Krater",
          "dependent": 5,
          "dependentGloss": "Meteorit"
        },
        {
          "dep": "case",
          "governor": 7,
          "governorGloss": "Nicaragua",
          "dependent": 6,
          "dependentGloss": "in"
        },
        {
          "dep": "nmod",
          "governor": 5,
          "governorGloss": "Meteorit",
          "dependent": 7,
          "dependentGloss": "Nicaragua"
        }
      ],
      "tokens": [
        {
          "index": 1,
          "word": "Siehe",
          "originalText": "Siehe",
          "characterOffsetBegin": 0,
          "characterOffsetEnd": 5,
          "pos": "VVIMP",
          "before": "",
          "after": " "
        },
        {
          "index": 2,
          "word": "den",
          "originalText": "den",
          "characterOffsetBegin": 6,
          "characterOffsetEnd": 9,
          "pos": "ART",
          "before": " ",
          "after": " "
        },
        {
          "index": 3,
          "word": "Krater",
          "originalText": "Krater",
          "characterOffsetBegin": 10,
          "characterOffsetEnd": 16,
          "pos": "NN",
          "before": " ",
          "after": " "
        },
        {
          "index": 4,
          "word": "ein",
          "originalText": "ein",
          "characterOffsetBegin": 17,
          "characterOffsetEnd": 20,
          "pos": "ART",
          "before": " ",
          "after": " "
        },
        {
          "index": 5,
          "word": "Meteorit",
          "originalText": "Meteorit",
          "characterOffsetBegin": 21,
          "characterOffsetEnd": 29,
          "pos": "NN",
          "before": " ",
          "after": " "
        },
        {
          "index": 6,
          "word": "in",
          "originalText": "in",
          "characterOffsetBegin": 30,
          "characterOffsetEnd": 32,
          "pos": "APPR",
          "before": " ",
          "after": " "
        },
        {
          "index": 7,
          "word": "Nicaragua",
          "originalText": "Nicaragua",
          "characterOffsetBegin": 33,
          "characterOffsetEnd": 42,
          "pos": "NE",
          "before": " ",
          "after": " "
        },
        {
          "index": 8,
          "word": "gemacht",
          "originalText": "gemacht",
          "characterOffsetBegin": 43,
          "characterOffsetEnd": 50,
          "pos": "VVPP",
          "before": " ",
          "after": ""
        }
      ]
    }
  ]
}