{
  "sentences": [
    {
      "index": 0,
      "basicDependencies": [
        {
          "dep": "ROOT",
          "governor": 0,
          "governorGloss": "ROOT",
          "dependent": 5,
          "dependentGloss": "2015"
        },
        {
          "dep": "punct",
          "governor": 5,
          "governorGloss": "2015",
          "dependent": 1,
          "dependentGloss": "``"
        },
        {
          "dep": "name",
          "governor": 5,
          "governorGloss": "2015",
          "dependent": 2,
          "dependentGloss": "Willie"
        },
        {
          "dep": "name",
          "governor": 5,
          "governorGloss": "2015",
          "dependent": 3,
          "dependentGloss": "Nelson"
        },
        {
          "dep": "name",
          "governor": 5,
          "governorGloss": "2015",
          "dependent": 4,
          "dependentGloss": "tot"
        },
        {
          "dep": "punct",
          "governor": 5,
          "governorGloss": "2015",
          "dependent": 6,
          "dependentGloss": "``"
        },
        {
          "dep": "punct",
          "governor": 5,
          "governorGloss": "2015",
          "dependent": 7,
          "dependentGloss": ":"
        },
        {
          "dep": "advmod",
          "governor": 9,
          "governorGloss": "getötet",
          "dependent": 8,
          "dependentGloss": "Gitarrist"
        },
        {
          "dep": "amod",
          "governor": 13,
          "governorGloss": "Hoax",
          "dependent": 9,
          "dependentGloss": "getötet"
        },
        {
          "dep": "case",
          "governor": 12,
          "governorGloss": "Tod",
          "dependent": 10,
          "dependentGloss": "durch"
        },
        {
          "dep": "name",
          "governor": 12,
          "governorGloss": "Tod",
          "dependent": 11,
          "dependentGloss": "Internet"
        },
        {
          "dep": "nmod",
          "governor": 9,
          "governorGloss": "getötet",
          "dependent": 12,
          "dependentGloss": "Tod"
        },
        {
          "dep": "dep",
          "governor": 5,
          "governorGloss": "2015",
          "dependent": 13,
          "dependentGloss": "Hoax"
        }
      ],
      "enhancedDependencies": [
        {
          "dep": "ROOT",
          "governor": 0,
          "governorGloss": "ROOT",
          "dependent": 5,
          "dependentGloss": "2015"
        },
        {
          "dep": "punct",
          "governor": 5,
          "governorGloss": "2015",
          "dependent": 1,
          "dependentGloss": "``"
        },
        {
          "dep": "name",
          "governor": 5,
          "governorGloss": "2015",
          "dependent": 2,
          "dependentGloss": "Willie"
        },
        {
          "dep": "name",
          "governor": 5,
          "governorGloss": "2015",
          "dependent": 3,
          "dependentGloss": "Nelson"
        },
        {
          "dep": "name",
          "governor": 5,
          "governorGloss": "2015",
          "dependent": 4,
          "dependentGloss": "tot"
        },
        {
          "dep": "punct",
          "governor": 5,
          "governorGloss": "2015",
          "dependent": 6,
          "dependentGloss": "``"
        },
        {
          "dep": "punct",
          "governor": 5,
          "governorGloss": "2015",
          "dependent": 7,
          "dependentGloss": ":"
        },
        {
          "dep": "advmod",
          "governor": 9,
          "governorGloss": "getötet",
          "dependent": 8,
          "dependentGloss": "Gitarrist"
        },
        {
          "dep": "amod",
          "governor": 13,
          "governorGloss": "Hoax",
          "dependent": 9,
          "dependentGloss": "getötet"
        },
        {
          "dep": "case",
          "governor": 12,
          "governorGloss": "Tod",
          "dependent": 10,
          "dependentGloss": "durch"
        },
        {
          "dep": "name",
          "governor": 12,
          "governorGloss": "Tod",
          "dependent": 11,
          "dependentGloss": "Internet"
        },
        {
          "dep": "nmod",
          "governor": 9,
          "governorGloss": "getötet",
          "dependent": 12,
          "dependentGloss": "Tod"
        },
        {
          "dep": "dep",
          "governor": 5,
          "governorGloss": "2015",
          "dependent": 13,
          "dependentGloss": "Hoax"
        }
      ],
      "enhancedPlusPlusDependencies": [
        {
          "dep": "ROOT",
          "governor": 0,
          "governorGloss": "ROOT",
          "dependent": 5,
          "dependentGloss": "2015"
        },
        {
          "dep": "punct",
          "governor": 5,
          "governorGloss": "2015",
          "dependent": 1,
          "dependentGloss": "``"
        },
        {
          "dep": "name",
          "governor": 5,
          "governorGloss": "2015",
          "dependent": 2,
          "dependentGloss": "Willie"
        },
        {
          "dep": "name",
          "governor": 5,
          "governorGloss": "2015",
          "dependent": 3,
          "dependentGloss": "Nelson"
        },
        {
          "dep": "name",
          "governor": 5,
          "governorGloss": "2015",
          "dependent": 4,
          "dependentGloss": "tot"
        },
        {
          "dep": "punct",
          "governor": 5,
          "governorGloss": "2015",
          "dependent": 6,
          "dependentGloss": "``"
        },
        {
          "dep": "punct",
          "governor": 5,
          "governorGloss": "2015",
          "dependent": 7,
          "dependentGloss": ":"
        },
        {
          "dep": "advmod",
          "governor": 9,
          "governorGloss": "getötet",
          "dependent": 8,
          "dependentGloss": "Gitarrist"
        },
        {
          "dep": "amod",
          "governor": 13,
          "governorGloss": "Hoax",
          "dependent": 9,
          "dependentGloss": "getötet"
        },
        {
          "dep": "case",
          "governor": 12,
          "governorGloss": "Tod",
          "dependent": 10,
          "dependentGloss": "durch"
        },
        {
          "dep": "name",
          "governor": 12,
          "governorGloss": "Tod",
          "dependent": 11,
          "dependentGloss": "Internet"
        },
        {
          "dep": "nmod",
          "governor": 9,
          "governorGloss": "getötet",
          "dependent": 12,
          "dependentGloss": "Tod"
        },
        {
          "dep": "dep",
          "governor": 5,
          "governorGloss": "2015",
          "dependent": 13,
          "dependentGloss": "Hoax"
        }
      ],
      "tokens": [
        {
          "index": 1,
          "word": "``",
          "originalText": "“",
          "characterOffsetBegin": 0,
          "characterOffsetEnd": 1,
          "pos": "CARD",
          "before": "",
          "after": ""
        },
        {
          "index": 2,
          "word": "Willie",
          "originalText": "Willie",
          "characterOffsetBegin": 1,
          "characterOffsetEnd": 7,
          "pos": "NE",
          "before": "",
          "after": " "
        },
        {
          "index": 3,
          "word": "Nelson",
          "originalText": "Nelson",
          "characterOffsetBegin": 8,
          "characterOffsetEnd": 14,
          "pos": "NE",
          "before": " ",
          "after": " "
        },
        {
          "index": 4,
          "word": "tot",
          "originalText": "tot",
          "characterOffsetBegin": 15,
          "characterOffsetEnd": 18,
          "pos": "ADJD",
          "before": " ",
          "after": " "
        },
        {
          "index": 5,
          "word": "2015",
          "originalText": "2015",
          "characterOffsetBegin": 19,
          "characterOffsetEnd": 23,
          "pos": "CARD",
          "before": " ",
          "after": ""
        },
        {
          "index": 6,
          "word": "``",
          "originalText": "“",
          "characterOffsetBegin": 23,
          "characterOffsetEnd": 24,
          "pos": "CARD",
          "before": "",
          "after": ""
        },
        {
          "index": 7,
          "word": ":",
          "originalText": ":",
          "characterOffsetBegin": 24,
          "characterOffsetEnd": 25,
          "pos": "$.",
          "before": "",
          "after": " "
        },
        {
          "index": 8,
          "word": "Gitarrist",
          "originalText": "Gitarrist",
          "characterOffsetBegin": 26,
          "characterOffsetEnd": 35,
          "pos": "NN",
          "before": " ",
          "after": " "
        },
        {
          "index": 9,
          "word": "getötet",
          "originalText": "getötet",
          "characterOffsetBegin": 36,
          "characterOffsetEnd": 43,
          "pos": "VVPP",
          "before": " ",
          "after": " "
        },
        {
          "index": 10,
          "word": "durch",
          "originalText": "durch",
          "characterOffsetBegin": 44,
          "characterOffsetEnd": 49,
          "pos": "APPR",
          "before": " ",
          "after": " "
        },
        {
          "index": 11,
          "word": "Internet",
          "originalText": "Internet",
          "characterOffsetBegin": 50,
          "characterOffsetEnd": 58,
          "pos": "NN",
          "before": " ",
          "after": " "
        },
        {
          "index": 12,
          "word": "Tod",
          "originalText": "Tod",
          "characterOffsetBegin": 59,
          "characterOffsetEnd": 62,
          "pos": "NN",
          "before": " ",
          "after": " "
        },
        {
          "index": 13,
          "word": "Hoax",
          "originalText": "Hoax",
          "characterOffsetBegin": 63,
          "characterOffsetEnd": 67,
          "pos": "NE",
          "before": " ",
          "after": ""
        }
      ]
    }
  ]
}