{
  "sentences": [
    {
      "index": 0,
      "basicDependencies": [
        {
          "dep": "ROOT",
          "governor": 0,
          "governorGloss": "ROOT",
          "dependent": 3,
          "dependentGloss": "Chandler"
        },
        {
          "dep": "name",
          "governor": 3,
          "governorGloss": "Chandler",
          "dependent": 1,
          "dependentGloss": "Taylor"
        },
        {
          "dep": "name",
          "governor": 3,
          "governorGloss": "Chandler",
          "dependent": 2,
          "dependentGloss": "Lianne"
        },
        {
          "dep": "punct",
          "governor": 3,
          "governorGloss": "Chandler",
          "dependent": 4,
          "dependentGloss": ":"
        },
        {
          "dep": "appos",
          "governor": 3,
          "governorGloss": "Chandler",
          "dependent": 5,
          "dependentGloss": "Alles"
        },
        {
          "dep": "punct",
          "governor": 7,
          "governorGloss": "was",
          "dependent": 6,
          "dependentGloss": ","
        },
        {
          "dep": "appos",
          "governor": 5,
          "governorGloss": "Alles",
          "dependent": 7,
          "dependentGloss": "was"
        },
        {
          "dep": "case",
          "governor": 7,
          "governorGloss": "was",
          "dependent": 8,
          "dependentGloss": "du"
        },
        {
          "dep": "case",
          "governor": 11,
          "governorGloss": "Phelps",
          "dependent": 9,
          "dependentGloss": "über"
        },
        {
          "dep": "name",
          "governor": 11,
          "governorGloss": "Phelps",
          "dependent": 10,
          "dependentGloss": "Michael"
        },
        {
          "dep": "nmod",
          "governor": 8,
          "governorGloss": "du",
          "dependent": 11,
          "dependentGloss": "Phelps"
        },
        {
          "dep": "appos",
          "governor": 11,
          "governorGloss": "Phelps",
          "dependent": 12,
          "dependentGloss": "`"
        },
        {
          "dep": "amod",
          "governor": 14,
          "governorGloss": "Freundin",
          "dependent": 13,
          "dependentGloss": "Intersex"
        },
        {
          "dep": "dobj",
          "governor": 15,
          "governorGloss": "wissen",
          "dependent": 14,
          "dependentGloss": "Freundin"
        },
        {
          "dep": "acl",
          "governor": 12,
          "governorGloss": "`",
          "dependent": 15,
          "dependentGloss": "wissen"
        },
        {
          "dep": "nsubj",
          "governor": 15,
          "governorGloss": "wissen",
          "dependent": 16,
          "dependentGloss": "musst"
        }
      ],
      "enhancedDependencies": [
        {
          "dep": "ROOT",
          "governor": 0,
          "governorGloss": "ROOT",
          "dependent": 3,
          "dependentGloss": "Chandler"
        },
        {
          "dep": "name",
          "governor": 3,
          "governorGloss": "Chandler",
          "dependent": 1,
          "dependentGloss": "Taylor"
        },
        {
          "dep": "name",
          "governor": 3,
          "governorGloss": "Chandler",
          "dependent": 2,
          "dependentGloss": "Lianne"
        },
        {
          "dep": "punct",
          "governor": 3,
          "governorGloss": "Chandler",
          "dependent": 4,
          "dependentGloss": ":"
        },
        {
          "dep": "appos",
          "governor": 3,
          "governorGloss": "Chandler",
          "dependent": 5,
          "dependentGloss": "Alles"
        },
        {
          "dep": "punct",
          "governor": 7,
          "governorGloss": "was",
          "dependent": 6,
          "dependentGloss": ","
        },
        {
          "dep": "appos",
          "governor": 5,
          "governorGloss": "Alles",
          "dependent": 7,
          "dependentGloss": "was"
        },
        {
          "dep": "case",
          "governor": 7,
          "governorGloss": "was",
          "dependent": 8,
          "dependentGloss": "du"
        },
        {
          "dep": "case",
          "governor": 11,
          "governorGloss": "Phelps",
          "dependent": 9,
          "dependentGloss": "über"
        },
        {
          "dep": "name",
          "governor": 11,
          "governorGloss": "Phelps",
          "dependent": 10,
          "dependentGloss": "Michael"
        },
        {
          "dep": "nmod",
          "governor": 8,
          "governorGloss": "du",
          "dependent": 11,
          "dependentGloss": "Phelps"
        },
        {
          "dep": "appos",
          "governor": 11,
          "governorGloss": "Phelps",
          "dependent": 12,
          "dependentGloss": "`"
        },
        {
          "dep": "amod",
          "governor": 14,
          "governorGloss": "Freundin",
          "dependent": 13,
          "dependentGloss": "Intersex"
        },
        {
          "dep": "dobj",
          "governor": 15,
          "governorGloss": "wissen",
          "dependent": 14,
          "dependentGloss": "Freundin"
        },
        {
          "dep": "acl",
          "governor": 12,
          "governorGloss": "`",
          "dependent": 15,
          "dependentGloss": "wissen"
        },
        {
          "dep": "nsubj",
          "governor": 15,
          "governorGloss": "wissen",
          "dependent": 16,
          "dependentGloss": "musst"
        }
      ],
      "enhancedPlusPlusDependencies": [
        {
          "dep": "ROOT",
          "governor": 0,
          "governorGloss": "ROOT",
          "dependent": 3,
          "dependentGloss": "Chandler"
        },
        {
          "dep": "name",
          "governor": 3,
          "governorGloss": "Chandler",
          "dependent": 1,
          "dependentGloss": "Taylor"
        },
        {
          "dep": "name",
          "governor": 3,
          "governorGloss": "Chandler",
          "dependent": 2,
          "dependentGloss": "Lianne"
        },
        {
          "dep": "punct",
          "governor": 3,
          "governorGloss": "Chandler",
          "dependent": 4,
          "dependentGloss": ":"
        },
        {
          "dep": "appos",
          "governor": 3,
          "governorGloss": "Chandler",
          "dependent": 5,
          "dependentGloss": "Alles"
        },
        {
          "dep": "punct",
          "governor": 7,
          "governorGloss": "was",
          "dependent": 6,
          "dependentGloss": ","
        },
        {
          "dep": "appos",
          "governor": 5,
          "governorGloss": "Alles",
          "dependent": 7,
          "dependentGloss": "was"
        },
        {
          "dep": "case",
          "governor": 7,
          "governorGloss": "was",
          "dependent": 8,
          "dependentGloss": "du"
        },
        {
          "dep": "case",
          "governor": 11,
          "governorGloss": "Phelps",
          "dependent": 9,
          "dependentGloss": "über"
        },
        {
          "dep": "name",
          "governor": 11,
          "governorGloss": "Phelps",
          "dependent": 10,
          "dependentGloss": "Michael"
        },
        {
          "dep": "nmod",
          "governor": 8,
          "governorGloss": "du",
          "dependent": 11,
          "dependentGloss": "Phelps"
        },
        {
          "dep": "appos",
          "governor": 11,
          "governorGloss": "Phelps",
          "dependent": 12,
          "dependentGloss": "`"
        },
        {
          "dep": "amod",
          "governor": 14,
          "governorGloss": "Freundin",
          "dependent": 13,
          "dependentGloss": "Intersex"
        },
        {
          "dep": "dobj",
          "governor": 15,
          "governorGloss": "wissen",
          "dependent": 14,
          "dependentGloss": "Freundin"
        },
        {
          "dep": "acl",
          "governor": 12,
          "governorGloss": "`",
          "dependent": 15,
          "dependentGloss": "wissen"
        },
        {
          "dep": "nsubj",
          "governor": 15,
          "governorGloss": "wissen",
          "dependent": 16,
          "dependentGloss": "musst"
        }
      ],
      "tokens": [
        {
          "index": 1,
          "word": "Taylor",
          "originalText": "Taylor",
          "characterOffsetBegin": 0,
          "characterOffsetEnd": 6,
          "pos": "NE",
          "before": "",
          "after": " "
        },
        {
          "index": 2,
          "word": "Lianne",
          "originalText": "Lianne",
          "characterOffsetBegin": 7,
          "characterOffsetEnd": 13,
          "pos": "NE",
          "before": " ",
          "after": " "
        },
        {
          "index": 3,
          "word": "Chandler",
          "originalText": "Chandler",
          "characterOffsetBegin": 14,
          "characterOffsetEnd": 22,
          "pos": "NE",
          "before": " ",
          "after": ""
        },
        {
          "index": 4,
          "word": ":",
          "originalText": ":",
          "characterOffsetBegin": 22,
          "characterOffsetEnd": 23,
          "pos": "$.",
          "before": "",
          "after": " "
        },
        {
          "index": 5,
          "word": "Alles",
          "originalText": "Alles",
          "characterOffsetBegin": 24,
          "characterOffsetEnd": 29,
          "pos": "PIS",
          "before": " ",
          "after": ""
        },
        {
          "index": 6,
          "word": ",",
          "originalText": ",",
          "characterOffsetBegin": 29,
          "characterOffsetEnd": 30,
          "pos": "$,",
          "before": "",
          "after": " "
        },
        {
          "index": 7,
          "word": "was",
          "originalText": "was",
          "characterOffsetBegin": 31,
          "characterOffsetEnd": 34,
          "pos": "PWS",
          "before": " ",
          "after": " "
        },
        {
          "index": 8,
          "word": "du",
          "originalText": "du",
          "characterOffsetBegin": 35,
          "characterOffsetEnd": 37,
          "pos": "PPER",
          "before": " ",
          "after": " "
        },
        {
          "index": 9,
          "word": "über",
          "originalText": "über",
          "characterOffsetBegin": 38,
          "characterOffsetEnd": 42,
          "pos": "APPR",
          "before": " ",
          "after": " "
        },
        {
          "index": 10,
          "word": "Michael",
          "originalText": "Michael",
          "characterOffsetBegin": 43,
          "characterOffsetEnd": 50,
          "pos": "NE",
          "before": " ",
          "after": " "
        },
        {
          "index": 11,
          "word": "Phelps",
          "originalText": "Phelps",
          "characterOffsetBegin": 51,
          "characterOffsetEnd": 57,
          "pos": "NE",
          "before": " ",
          "after": " "
        },
        {
          "index": 12,
          "word": "`",
          "originalText": "'",
          "characterOffsetBegin": 58,
          "characterOffsetEnd": 59,
          "pos": "CARD",
          "before": " ",
          "after": ""
        },
        {
          "index": 13,
          "word": "Intersex",
          "originalText": "Intersex",
          "characterOffsetBegin": 59,
          "characterOffsetEnd": 67,
          "pos": "NE",
          "before": "",
          "after": " "
        },
        {
          "index": 14,
          "word": "Freundin",
          "originalText": "Freundin",
          "characterOffsetBegin": 68,
          "characterOffsetEnd": 76,
          "pos": "NN",
          "before": " ",
          "after": " "
        },
        {
          "index": 15,
          "word": "wissen",
          "originalText": "wissen",
          "characterOffsetBegin": 77,
          "characterOffsetEnd": 83,
          "pos": "VVFIN",
          "before": " ",
          "after": " "
        },
        {
          "index": 16,
          "word": "musst",
          "originalText": "musst",
          "characterOffsetBegin": 84,
          "characterOffsetEnd": 89,
          "pos": "ADJD",
          "before": " ",
          "after": ""
        }
      ]
    }
  ]
}