{
  "sentences": [
    {
      "index": 0,
      "basicDependencies": [
        {
          "dep": "ROOT",
          "governor": 0,
          "governorGloss": "ROOT",
          "dependent": 2,
          "dependentGloss": "aufgegeben"
        },
        {
          "dep": "nsubj",
          "governor": 2,
          "governorGloss": "aufgegeben",
          "dependent": 1,
          "dependentGloss": "Hund"
        },
        {
          "dep": "case",
          "governor": 5,
          "governorGloss": "Bahnhof",
          "dependent": 3,
          "dependentGloss": "auf"
        },
        {
          "dep": "amod",
          "governor": 5,
          "governorGloss": "Bahnhof",
          "dependent": 4,
          "dependentGloss": "schottischen"
        },
        {
          "dep": "nmod",
          "governor": 2,
          "governorGloss": "aufgegeben",
          "dependent": 5,
          "dependentGloss": "Bahnhof"
        },
        {
          "dep": "case",
          "governor": 7,
          "governorGloss": "Koffer",
          "dependent": 6,
          "dependentGloss": "mit"
        },
        {
          "dep": "nmod",
          "governor": 5,
          "governorGloss": "Bahnhof",
          "dependent": 7,
          "dependentGloss": "Koffer"
        },
        {
          "dep": "case",
          "governor": 10,
          "governorGloss": "Lesen",
          "dependent": 8,
          "dependentGloss": "voller"
        },
        {
          "dep": "name",
          "governor": 10,
          "governorGloss": "Lesen",
          "dependent": 9,
          "dependentGloss": "Sachen"
        },
        {
          "dep": "nmod",
          "governor": 7,
          "governorGloss": "Koffer",
          "dependent": 10,
          "dependentGloss": "Lesen"
        },
        {
          "dep": "dobj",
          "governor": 2,
          "governorGloss": "aufgegeben",
          "dependent": 11,
          "dependentGloss": "Sie"
        },
        {
          "dep": "advmod",
          "governor": 11,
          "governorGloss": "Sie",
          "dependent": 12,
          "dependentGloss": "mehr"
        },
        {
          "dep": "punct",
          "governor": 12,
          "governorGloss": "mehr",
          "dependent": 13,
          "dependentGloss": ":"
        },
        {
          "dep": "amod",
          "governor": 15,
          "governorGloss": "Ixzz3O9Shc1IO",
          "dependent": 14,
          "dependentGloss": "http://www.ctvnews.ca/world/dog-abandoned-at-scottish-rail-station-with-suitcase-full-of-belongings-1.2175026#"
        },
        {
          "dep": "root",
          "governor": 12,
          "governorGloss": "mehr",
          "dependent": 15,
          "dependentGloss": "Ixzz3O9Shc1IO"
        }
      ],
      "enhancedDependencies": [
        {
          "dep": "ROOT",
          "governor": 0,
          "governorGloss": "ROOT",
          "dependent": 2,
          "dependentGloss": "aufgegeben"
        },
        {
          "dep": "nsubj",
          "governor": 2,
          "governorGloss": "aufgegeben",
          "dependent": 1,
          "dependentGloss": "Hund"
        },
        {
          "dep": "case",
          "governor": 5,
          "governorGloss": "Bahnhof",
          "dependent": 3,
          "dependentGloss": "auf"
        },
        {
          "dep": "amod",
          "governor": 5,
          "governorGloss": "Bahnhof",
          "dependent": 4,
          "dependentGloss": "schottischen"
        },
        {
          "dep": "nmod",
          "governor": 2,
          "governorGloss": "aufgegeben",
          "dependent": 5,
          "dependentGloss": "Bahnhof"
        },
        {
          "dep": "case",
          "governor": 7,
          "governorGloss": "Koffer",
          "dependent": 6,
          "dependentGloss": "mit"
        },
        {
          "dep": "nmod",
          "governor": 5,
          "governorGloss": "Bahnhof",
          "dependent": 7,
          "dependentGloss": "Koffer"
        },
        {
          "dep": "case",
          "governor": 10,
          "governorGloss": "Lesen",
          "dependent": 8,
          "dependentGloss": "voller"
        },
        {
          "dep": "name",
          "governor": 10,
          "governorGloss": "Lesen",
          "dependent": 9,
          "dependentGloss": "Sachen"
        },
        {
          "dep": "nmod",
          "governor": 7,
          "governorGloss": "Koffer",
          "dependent": 10,
          "dependentGloss": "Lesen"
        },
        {
          "dep": "dobj",
          "governor": 2,
          "governorGloss": "aufgegeben",
          "dependent": 11,
          "dependentGloss": "Sie"
        },
        {
          "dep": "advmod",
          "governor": 11,
          "governorGloss": "Sie",
          "dependent": 12,
          "dependentGloss": "mehr"
        },
        {
          "dep": "punct",
          "governor": 12,
          "governorGloss": "mehr",
          "dependent": 13,
          "dependentGloss": ":"
        },
        {
          "dep": "amod",
          "governor": 15,
          "governorGloss": "Ixzz3O9Shc1IO",
          "dependent": 14,
          "dependentGloss": "http://www.ctvnews.ca/world/dog-abandoned-at-scottish-rail-station-with-suitcase-full-of-belongings-1.2175026#"
        },
        {
          "dep": "root",
          "governor": 12,
          "governorGloss": "mehr",
          "dependent": 15,
          "dependentGloss": "Ixzz3O9Shc1IO"
        }
      ],
      "enhancedPlusPlusDependencies": [
        {
          "dep": "ROOT",
          "governor": 0,
          "governorGloss": "ROOT",
          "dependent": 2,
          "dependentGloss": "aufgegeben"
        },
        {
          "dep": "nsubj",
          "governor": 2,
          "governorGloss": "aufgegeben",
          "dependent": 1,
          "dependentGloss": "Hund"
        },
        {
          "dep": "case",
          "governor": 5,
          "governorGloss": "Bahnhof",
          "dependent": 3,
          "dependentGloss": "auf"
        },
        {
          "dep": "amod",
          "governor": 5,
          "governorGloss": "Bahnhof",
          "dependent": 4,
          "dependentGloss": "schottischen"
        },
        {
          "dep": "nmod",
          "governor": 2,
          "governorGloss": "aufgegeben",
          "dependent": 5,
          "dependentGloss": "Bahnhof"
        },
        {
          "dep": "case",
          "governor": 7,
          "governorGloss": "Koffer",
          "dependent": 6,
          "dependentGloss": "mit"
        },
        {
          "dep": "nmod",
          "governor": 5,
          "governorGloss": "Bahnhof",
          "dependent": 7,
          "dependentGloss": "Koffer"
        },
        {
          "dep": "case",
          "governor": 10,
          "governorGloss": "Lesen",
          "dependent": 8,
          "dependentGloss": "voller"
        },
        {
          "dep": "name",
          "governor": 10,
          "governorGloss": "Lesen",
          "dependent": 9,
          "dependentGloss": "Sachen"
        },
        {
          "dep": "nmod",
          "governor": 7,
          "governorGloss": "Koffer",
          "dependent": 10,
          "dependentGloss": "Lesen"
        },
        {
          "dep": "dobj",
          "governor": 2,
          "governorGloss": "aufgegeben",
          "dependent": 11,
          "dependentGloss": "Sie"
        },
        {
          "dep": "advmod",
          "governor": 11,
          "governorGloss": "Sie",
          "dependent": 12,
          "dependentGloss": "mehr"
        },
        {
          "dep": "punct",
          "governor": 12,
          "governorGloss": "mehr",
          "dependent": 13,
          "dependentGloss": ":"
        },
        {
          "dep": "amod",
          "governor": 15,
          "governorGloss": "Ixzz3O9Shc1IO",
          "dependent": 14,
          "dependentGloss": "http://www.ctvnews.ca/world/dog-abandoned-at-scottish-rail-station-with-suitcase-full-of-belongings-1.2175026#"
        },
        {
          "dep": "root",
          "governor": 12,
          "governorGloss": "mehr",
          "dependent": 15,
          "dependentGloss": "Ixzz3O9Shc1IO"
        }
      ],
      "tokens": [
        {
          "index": 1,
          "word": "Hund",
          "originalText": "Hund",
          "characterOffsetBegin": 0,
          "characterOffsetEnd": 4,
          "pos": "NN",
          "before": "",
          "after": " "
        },
        {
          "index": 2,
          "word": "aufgegeben",
          "originalText": "aufgegeben",
          "characterOffsetBegin": 5,
          "characterOffsetEnd": 15,
          "pos": "VVPP",
          "before": " ",
          "after": " "
        },
        {
          "index": 3,
          "word": "auf",
          "originalText": "auf",
          "characterOffsetBegin": 16,
          "characterOffsetEnd": 19,
          "pos": "APPR",
          "before": " ",
          "after": " "
        },
        {
          "index": 4,
          "word": "schottischen",
          "originalText": "schottischen",
          "characterOffsetBegin": 20,
          "characterOffsetEnd": 32,
          "pos": "ADJA",
          "before": " ",
          "after": " "
        },
        {
          "index": 5,
          "word": "Bahnhof",
          "originalText": "Bahnhof",
          "characterOffsetBegin": 33,
          "characterOffsetEnd": 40,
          "pos": "NN",
          "before": " ",
          "after": " "
        },
        {
          "index": 6,
          "word": "mit",
          "originalText": "mit",
          "characterOffsetBegin": 41,
          "characterOffsetEnd": 44,
          "pos": "APPR",
          "before": " ",
          "after": " "
        },
        {
          "index": 7,
          "word": "Koffer",
          "originalText": "Koffer",
          "characterOffsetBegin": 45,
          "characterOffsetEnd": 51,
          "pos": "NN",
          "before": " ",
          "after": " "
        },
        {
          "index": 8,
          "word": "voller",
          "originalText": "voller",
          "characterOffsetBegin": 52,
          "characterOffsetEnd": 58,
          "pos": "ADJA",
          "before": " ",
          "after": " "
        },
        {
          "index": 9,
          "word": "Sachen",
          "originalText": "Sachen",
          "characterOffsetBegin": 59,
          "characterOffsetEnd": 65,
          "pos": "NN",
          "before": " ",
          "after": " "
        },
        {
          "index": 10,
          "word": "Lesen",
          "originalText": "Lesen",
          "characterOffsetBegin": 66,
          "characterOffsetEnd": 71,
          "pos": "NN",
          "before": " ",
          "after": " "
        },
        {
          "index": 11,
          "word": "Sie",
          "originalText": "Sie",
          "characterOffsetBegin": 72,
          "characterOffsetEnd": 75,
          "pos": "PPER",
          "before": " ",
          "after": " "
        },
        {
          "index": 12,
          "word": "mehr",
          "originalText": "mehr",
          "characterOffsetBegin": 76,
          "characterOffsetEnd": 80,
          "pos": "PIAT",
          "before": " ",
          "after": ""
        },
        {
          "index": 13,
          "word": ":",
          "originalText": ":",
          "characterOffsetBegin": 80,
          "characterOffsetEnd": 81,
          "pos": "$.",
          "before": "",
          "after": " "
        },
        {
          "index": 14,
          "word": "http://www.ctvnews.ca/world/dog-abandoned-at-scottish-rail-station-with-suitcase-full-of-belongings-1.2175026#",
          "originalText": "http://www.ctvnews.ca/world/dog-abandoned-at-scottish-rail-station-with-suitcase-full-of-belongings-1.2175026#",
          "characterOffsetBegin": 82,
          "characterOffsetEnd": 192,
          "pos": "XY",
          "before": " ",
          "after": " "
        },
        {
          "index": 15,
          "word": "Ixzz3O9Shc1IO",
          "originalText": "Ixzz3O9Shc1IO",
          "characterOffsetBegin": 193,
          "characterOffsetEnd": 206,
          "pos": "XY",
          "before": " ",
          "after": ""
        }
      ]
    }
  ]
}