{
  "sentences": [
    {
      "index": 0,
      "basicDependencies": [
        {
          "dep": "ROOT",
          "governor": 0,
          "governorGloss": "ROOT",
          "dependent": 18,
          "dependentGloss": "sagt"
        },
        {
          "dep": "advmod",
          "governor": 15,
          "governorGloss": "gefälscht",
          "dependent": 1,
          "dependentGloss": "Viral"
        },
        {
          "dep": "nsubj",
          "governor": 15,
          "governorGloss": "gefälscht",
          "dependent": 2,
          "dependentGloss": "Video"
        },
        {
          "dep": "aux",
          "governor": 15,
          "governorGloss": "gefälscht",
          "dependent": 3,
          "dependentGloss": "Of"
        },
        {
          "dep": "advmod",
          "governor": 15,
          "governorGloss": "gefälscht",
          "dependent": 4,
          "dependentGloss": "Homeless"
        },
        {
          "dep": "dobj",
          "governor": 15,
          "governorGloss": "gefälscht",
          "dependent": 5,
          "dependentGloss": "Man"
        },
        {
          "dep": "aux",
          "governor": 15,
          "governorGloss": "gefälscht",
          "dependent": 6,
          "dependentGloss": "verbringen"
        },
        {
          "dep": "nsubj",
          "governor": 15,
          "governorGloss": "gefälscht",
          "dependent": 7,
          "dependentGloss": "$"
        },
        {
          "dep": "appos",
          "governor": 7,
          "governorGloss": "$",
          "dependent": 8,
          "dependentGloss": "100"
        },
        {
          "dep": "case",
          "governor": 10,
          "governorGloss": "Essen",
          "dependent": 9,
          "dependentGloss": "auf"
        },
        {
          "dep": "nmod",
          "governor": 15,
          "governorGloss": "gefälscht",
          "dependent": 10,
          "dependentGloss": "Essen"
        },
        {
          "dep": "case",
          "governor": 13,
          "governorGloss": "Obdachlose",
          "dependent": 11,
          "dependentGloss": "für"
        },
        {
          "dep": "amod",
          "governor": 13,
          "governorGloss": "Obdachlose",
          "dependent": 12,
          "dependentGloss": "andere"
        },
        {
          "dep": "nmod",
          "governor": 10,
          "governorGloss": "Essen",
          "dependent": 13,
          "dependentGloss": "Obdachlose"
        },
        {
          "dep": "cop",
          "governor": 15,
          "governorGloss": "gefälscht",
          "dependent": 14,
          "dependentGloss": "war"
        },
        {
          "dep": "advcl",
          "governor": 18,
          "governorGloss": "sagt",
          "dependent": 15,
          "dependentGloss": "gefälscht"
        },
        {
          "dep": "punct",
          "governor": 15,
          "governorGloss": "gefälscht",
          "dependent": 16,
          "dependentGloss": ","
        },
        {
          "dep": "amod",
          "governor": 18,
          "governorGloss": "sagt",
          "dependent": 17,
          "dependentGloss": "Zeuge"
        }
      ],
      "enhancedDependencies": [
        {
          "dep": "ROOT",
          "governor": 0,
          "governorGloss": "ROOT",
          "dependent": 18,
          "dependentGloss": "sagt"
        },
        {
          "dep": "advmod",
          "governor": 15,
          "governorGloss": "gefälscht",
          "dependent": 1,
          "dependentGloss": "Viral"
        },
        {
          "dep": "nsubj",
          "governor": 15,
          "governorGloss": "gefälscht",
          "dependent": 2,
          "dependentGloss": "Video"
        },
        {
          "dep": "aux",
          "governor": 15,
          "governorGloss": "gefälscht",
          "dependent": 3,
          "dependentGloss": "Of"
        },
        {
          "dep": "advmod",
          "governor": 15,
          "governorGloss": "gefälscht",
          "dependent": 4,
          "dependentGloss": "Homeless"
        },
        {
          "dep": "dobj",
          "governor": 15,
          "governorGloss": "gefälscht",
          "dependent": 5,
          "dependentGloss": "Man"
        },
        {
          "dep": "aux",
          "governor": 15,
          "governorGloss": "gefälscht",
          "dependent": 6,
          "dependentGloss": "verbringen"
        },
        {
          "dep": "nsubj",
          "governor": 15,
          "governorGloss": "gefälscht",
          "dependent": 7,
          "dependentGloss": "$"
        },
        {
          "dep": "appos",
          "governor": 7,
          "governorGloss": "$",
          "dependent": 8,
          "dependentGloss": "100"
        },
        {
          "dep": "case",
          "governor": 10,
          "governorGloss": "Essen",
          "dependent": 9,
          "dependentGloss": "auf"
        },
        {
          "dep": "nmod",
          "governor": 15,
          "governorGloss": "gefälscht",
          "dependent": 10,
          "dependentGloss": "Essen"
        },
        {
          "dep": "case",
          "governor": 13,
          "governorGloss": "Obdachlose",
          "dependent": 11,
          "dependentGloss": "für"
        },
        {
          "dep": "amod",
          "governor": 13,
          "governorGloss": "Obdachlose",
          "dependent": 12,
          "dependentGloss": "andere"
        },
        {
          "dep": "nmod",
          "governor": 10,
          "governorGloss": "Essen",
          "dependent": 13,
          "dependentGloss": "Obdachlose"
        },
        {
          "dep": "cop",
          "governor": 15,
          "governorGloss": "gefälscht",
          "dependent": 14,
          "dependentGloss": "war"
        },
        {
          "dep": "advcl",
          "governor": 18,
          "governorGloss": "sagt",
          "dependent": 15,
          "dependentGloss": "gefälscht"
        },
        {
          "dep": "punct",
          "governor": 15,
          "governorGloss": "gefälscht",
          "dependent": 16,
          "dependentGloss": ","
        },
        {
          "dep": "amod",
          "governor": 18,
          "governorGloss": "sagt",
          "dependent": 17,
          "dependentGloss": "Zeuge"
        }
      ],
      "enhancedPlusPlusDependencies": [
        {
          "dep": "ROOT",
          "governor": 0,
          "governorGloss": "ROOT",
          "dependent": 18,
          "dependentGloss": "sagt"
        },
        {
          "dep": "advmod",
          "governor": 15,
          "governorGloss": "gefälscht",
          "dependent": 1,
          "dependentGloss": "Viral"
        },
        {
          "dep": "nsubj",
          "governor": 15,
          "governorGloss": "gefälscht",
          "dependent": 2,
          "dependentGloss": "Video"
        },
        {
          "dep": "aux",
          "governor": 15,
          "governorGloss": "gefälscht",
          "dependent": 3,
          "dependentGloss": "Of"
        },
        {
          "dep": "advmod",
          "governor": 15,
          "governorGloss": "gefälscht",
          "dependent": 4,
          "dependentGloss": "Homeless"
        },
        {
          "dep": "dobj",
          "governor": 15,
          "governorGloss": "gefälscht",
          "dependent": 5,
          "dependentGloss": "Man"
        },
        {
          "dep": "aux",
          "governor": 15,
          "governorGloss": "gefälscht",
          "dependent": 6,
          "dependentGloss": "verbringen"
        },
        {
          "dep": "nsubj",
          "governor": 15,
          "governorGloss": "gefälscht",
          "dependent": 7,
          "dependentGloss": "$"
        },
        {
          "dep": "appos",
          "governor": 7,
          "governorGloss": "$",
          "dependent": 8,
          "dependentGloss": "100"
        },
        {
          "dep": "case",
          "governor": 10,
          "governorGloss": "Essen",
          "dependent": 9,
          "dependentGloss": "auf"
        },
        {
          "dep": "nmod",
          "governor": 15,
          "governorGloss": "gefälscht",
          "dependent": 10,
          "dependentGloss": "Essen"
        },
        {
          "dep": "case",
          "governor": 13,
          "governorGloss": "Obdachlose",
          "dependent": 11,
          "dependentGloss": "für"
        },
        {
          "dep": "amod",
          "governor": 13,
          "governorGloss": "Obdachlose",
          "dependent": 12,
          "dependentGloss": "andere"
        },
        {
          "dep": "nmod",
          "governor": 10,
          "governorGloss": "Essen",
          "dependent": 13,
          "dependentGloss": "Obdachlose"
        },
        {
          "dep": "cop",
          "governor": 15,
          "governorGloss": "gefälscht",
          "dependent": 14,
          "dependentGloss": "war"
        },
        {
          "dep": "advcl",
          "governor": 18,
          "governorGloss": "sagt",
          "dependent": 15,
          "dependentGloss": "gefälscht"
        },
        {
          "dep": "punct",
          "governor": 15,
          "governorGloss": "gefälscht",
          "dependent": 16,
          "dependentGloss": ","
        },
        {
          "dep": "amod",
          "governor": 18,
          "governorGloss": "sagt",
          "dependent": 17,
          "dependentGloss": "Zeuge"
        }
      ],
      "tokens": [
        {
          "index": 1,
          "word": "Viral",
          "originalText": "Viral",
          "characterOffsetBegin": 0,
          "characterOffsetEnd": 5,
          "pos": "NE",
          "before": "",
          "after": " "
        },
        {
          "index": 2,
          "word": "Video",
          "originalText": "Video",
          "characterOffsetBegin": 6,
          "characterOffsetEnd": 11,
          "pos": "NN",
          "before": " ",
          "after": " "
        },
        {
          "index": 3,
          "word": "Of",
          "originalText": "Of",
          "characterOffsetBegin": 12,
          "characterOffsetEnd": 14,
          "pos": "NE",
          "before": " ",
          "after": " "
        },
        {
          "index": 4,
          "word": "Homeless",
          "originalText": "Homeless",
          "characterOffsetBegin": 15,
          "characterOffsetEnd": 23,
          "pos": "NE",
          "before": " ",
          "after": " "
        },
        {
          "index": 5,
          "word": "Man",
          "originalText": "Man",
          "characterOffsetBegin": 24,
          "characterOffsetEnd": 27,
          "pos": "PIS",
          "before": " ",
          "after": " "
        },
        {
          "index": 6,
          "word": "verbringen",
          "originalText": "verbringen",
          "characterOffsetBegin": 28,
          "characterOffsetEnd": 38,
          "pos": "VVFIN",
          "before": " ",
          "after": " "
        },
        {
          "index": 7,
          "word": "$",
          "originalText": "$",
          "characterOffsetBegin": 39,
          "characterOffsetEnd": 40,
          "pos": "ADV",
          "before": " ",
          "after": " "
        },
        {
          "index": 8,
          "word": "100",
          "originalText": "100",
          "characterOffsetBegin": 41,
          "characterOffsetEnd": 44,
          "pos": "CARD",
          "before": " ",
          "after": " "
        },
        {
          "index": 9,
          "word": "auf",
          "originalText": "auf",
          "characterOffsetBegin": 45,
          "characterOffsetEnd": 48,
          "pos": "APPR",
          "before": " ",
          "after": " "
        },
        {
          "index": 10,
          "word": "Essen",
          "originalText": "Essen",
          "characterOffsetBegin": 49,
          "characterOffsetEnd": 54,
          "pos": "NN",
          "before": " ",
          "after": " "
        },
        {
          "index": 11,
          "word": "für",
          "originalText": "für",
          "characterOffsetBegin": 55,
          "characterOffsetEnd": 58,
          "pos": "APPR",
          "before": " ",
          "after": " "
        },
        {
          "index": 12,
          "word": "andere",
          "originalText": "andere",
          "characterOffsetBegin": 59,
          "characterOffsetEnd": 65,
          "pos": "ADJA",
          "before": " ",
          "after": " "
        },
        {
          "index": 13,
          "word": "Obdachlose",
          "originalText": "Obdachlose",
          "characterOffsetBegin": 66,
          "characterOffsetEnd": 76,
          "pos": "NN",
          "before": " ",
          "after": " "
        },
        {
          "index": 14,
          "word": "war",
          "originalText": "war",
          "characterOffsetBegin": 77,
          "characterOffsetEnd": 80,
          "pos": "VAFIN",
          "before": " ",
          "after": " "
        },
        {
          "index": 15,
          "word": "gefälscht",
          "originalText": "gefälscht",
          "characterOffsetBegin": 81,
          "characterOffsetEnd": 90,
          "pos": "VVPP",
          "before": " ",
          "after": ""
        },
        {
          "index": 16,
          "word": ",",
          "originalText": ",",
          "characterOffsetBegin": 90,
          "characterOffsetEnd": 91,
          "pos": "$,",
          "before": "",
          "after": " "
        },
        {
          "index": 17,
          "word": "Zeuge",
          "originalText": "Zeuge",
          "characterOffsetBegin": 92,
          "characterOffsetEnd": 97,
          "pos": "NN",
          "before": " ",
          "after": " "
        },
        {
          "index": 18,
          "word": "sagt",
          "originalText": "sagt",
          "characterOffsetBegin": 98,
          "characterOffsetEnd": 102,
          "pos": "VVFIN",
          "before": " ",
          "after": ""
        }
      ]
    }
  ]
}