{
  "sentences": [
    {
      "index": 0,
      "basicDependencies": [
        {
          "dep": "ROOT",
          "governor": 0,
          "governorGloss": "ROOT",
          "dependent": 1,
          "dependentGloss": "Jihadi"
        },
        {
          "dep": "name",
          "governor": 3,
          "governorGloss": "UNMASKED",
          "dependent": 2,
          "dependentGloss": "John"
        },
        {
          "dep": "appos",
          "governor": 1,
          "governorGloss": "Jihadi",
          "dependent": 3,
          "dependentGloss": "UNMASKED"
        },
        {
          "dep": "punct",
          "governor": 3,
          "governorGloss": "UNMASKED",
          "dependent": 4,
          "dependentGloss": ":"
        },
        {
          "dep": "amod",
          "governor": 6,
          "governorGloss": "Staatsmörder",
          "dependent": 5,
          "dependentGloss": "Islamischer"
        },
        {
          "dep": "appos",
          "governor": 3,
          "governorGloss": "UNMASKED",
          "dependent": 6,
          "dependentGloss": "Staatsmörder"
        },
        {
          "dep": "appos",
          "governor": 6,
          "governorGloss": "Staatsmörder",
          "dependent": 7,
          "dependentGloss": "NAMED"
        },
        {
          "dep": "case",
          "governor": 9,
          "governorGloss": "Westlondoner",
          "dependent": 8,
          "dependentGloss": "als"
        },
        {
          "dep": "nmod",
          "governor": 7,
          "governorGloss": "NAMED",
          "dependent": 9,
          "dependentGloss": "Westlondoner"
        },
        {
          "dep": "name",
          "governor": 11,
          "governorGloss": "Emwazi",
          "dependent": 10,
          "dependentGloss": "Mohammed"
        },
        {
          "dep": "appos",
          "governor": 9,
          "governorGloss": "Westlondoner",
          "dependent": 11,
          "dependentGloss": "Emwazi"
        }
      ],
      "enhancedDependencies": [
        {
          "dep": "ROOT",
          "governor": 0,
          "governorGloss": "ROOT",
          "dependent": 1,
          "dependentGloss": "Jihadi"
        },
        {
          "dep": "name",
          "governor": 3,
          "governorGloss": "UNMASKED",
          "dependent": 2,
          "dependentGloss": "John"
        },
        {
          "dep": "appos",
          "governor": 1,
          "governorGloss": "Jihadi",
          "dependent": 3,
          "dependentGloss": "UNMASKED"
        },
        {
          "dep": "punct",
          "governor": 3,
          "governorGloss": "UNMASKED",
          "dependent": 4,
          "dependentGloss": ":"
        },
        {
          "dep": "amod",
          "governor": 6,
          "governorGloss": "Staatsmörder",
          "dependent": 5,
          "dependentGloss": "Islamischer"
        },
        {
          "dep": "appos",
          "governor": 3,
          "governorGloss": "UNMASKED",
          "dependent": 6,
          "dependentGloss": "Staatsmörder"
        },
        {
          "dep": "appos",
          "governor": 6,
          "governorGloss": "Staatsmörder",
          "dependent": 7,
          "dependentGloss": "NAMED"
        },
        {
          "dep": "case",
          "governor": 9,
          "governorGloss": "Westlondoner",
          "dependent": 8,
          "dependentGloss": "als"
        },
        {
          "dep": "nmod",
          "governor": 7,
          "governorGloss": "NAMED",
          "dependent": 9,
          "dependentGloss": "Westlondoner"
        },
        {
          "dep": "name",
          "governor": 11,
          "governorGloss": "Emwazi",
          "dependent": 10,
          "dependentGloss": "Mohammed"
        },
        {
          "dep": "appos",
          "governor": 9,
          "governorGloss": "Westlondoner",
          "dependent": 11,
          "dependentGloss": "Emwazi"
        }
      ],
      "enhancedPlusPlusDependencies": [
        {
          "dep": "ROOT",
          "governor": 0,
          "governorGloss": "ROOT",
          "dependent": 1,
          "dependentGloss": "Jihadi"
        },
        {
          "dep": "name",
          "governor": 3,
          "governorGloss": "UNMASKED",
          "dependent": 2,
          "dependentGloss": "John"
        },
        {
          "dep": "appos",
          "governor": 1,
          "governorGloss": "Jihadi",
          "dependent": 3,
          "dependentGloss": "UNMASKED"
        },
        {
          "dep": "punct",
          "governor": 3,
          "governorGloss": "UNMASKED",
          "dependent": 4,
          "dependentGloss": ":"
        },
        {
          "dep": "amod",
          "governor": 6,
          "governorGloss": "Staatsmörder",
          "dependent": 5,
          "dependentGloss": "Islamischer"
        },
        {
          "dep": "appos",
          "governor": 3,
          "governorGloss": "UNMASKED",
          "dependent": 6,
          "dependentGloss": "Staatsmörder"
        },
        {
          "dep": "appos",
          "governor": 6,
          "governorGloss": "Staatsmörder",
          "dependent": 7,
          "dependentGloss": "NAMED"
        },
        {
          "dep": "case",
          "governor": 9,
          "governorGloss": "Westlondoner",
          "dependent": 8,
          "dependentGloss": "als"
        },
        {
          "dep": "nmod",
          "governor": 7,
          "governorGloss": "NAMED",
          "dependent": 9,
          "dependentGloss": "Westlondoner"
        },
        {
          "dep": "name",
          "governor": 11,
          "governorGloss": "Emwazi",
          "dependent": 10,
          "dependentGloss": "Mohammed"
        },
        {
          "dep": "appos",
          "governor": 9,
          "governorGloss": "Westlondoner",
          "dependent": 11,
          "dependentGloss": "Emwazi"
        }
      ],
      "tokens": [
        {
          "index": 1,
          "word": "Jihadi",
          "originalText": "Jihadi",
          "characterOffsetBegin": 0,
          "characterOffsetEnd": 6,
          "pos": "NE",
          "before": "",
          "after": " "
        },
        {
          "index": 2,
          "word": "John",
          "originalText": "John",
          "characterOffsetBegin": 7,
          "characterOffsetEnd": 11,
          "pos": "NE",
          "before": " ",
          "after": " "
        },
        {
          "index": 3,
          "word": "UNMASKED",
          "originalText": "UNMASKED",
          "characterOffsetBegin": 12,
          "characterOffsetEnd": 20,
          "pos": "NE",
          "before": " ",
          "after": ""
        },
        {
          "index": 4,
          "word": ":",
          "originalText": ":",
          "characterOffsetBegin": 20,
          "characterOffsetEnd": 21,
          "pos": "$.",
          "before": "",
          "after": " "
        },
        {
          "index": 5,
          "word": "Islamischer",
          "originalText": "Islamischer",
          "characterOffsetBegin": 22,
          "characterOffsetEnd": 33,
          "pos": "ADJA",
          "before": " ",
          "after": " "
        },
        {
          "index": 6,
          "word": "Staatsmörder",
          "originalText": "Staatsmörder",
          "characterOffsetBegin": 34,
          "characterOffsetEnd": 46,
          "pos": "NN",
          "before": " ",
          "after": " "
        },
        {
          "index": 7,
          "word": "NAMED",
          "originalText": "NAMED",
          "characterOffsetBegin": 47,
          "characterOffsetEnd": 52,
          "pos": "NE",
          "before": " ",
          "after": " "
        },
        {
          "index": 8,
          "word": "als",
          "originalText": "als",
          "characterOffsetBegin": 53,
          "characterOffsetEnd": 56,
          "pos": "APPR",
          "before": " ",
          "after": " "
        },
        {
          "index": 9,
          "word": "Westlondoner",
          "originalText": "Westlondoner",
          "characterOffsetBegin": 57,
          "characterOffsetEnd": 69,
          "pos": "NN",
          "before": " ",
          "after": " "
        },
        {
          "index": 10,
          "word": "Mohammed",
          "originalText": "Mohammed",
          "characterOffsetBegin": 70,
          "characterOffsetEnd": 78,
          "pos": "NE",
          "before": " ",
          "after": " "
        },
        {
          "index": 11,
          "word": "Emwazi",
          "originalText": "Emwazi",
          "characterOffsetBegin": 79,
          "characterOffsetEnd": 85,
          "pos": "NE",
          "before": " ",
          "after": ""
        }
      ]
    }
  ]
}