{
  "sentences": [
    {
      "index": 0,
      "basicDependencies": [
        {
          "dep": "ROOT",
          "governor": 0,
          "governorGloss": "ROOT",
          "dependent": 3,
          "dependentGloss": "Lego-Brief"
        },
        {
          "dep": "det",
          "governor": 2,
          "governorGloss": "kraftvolle",
          "dependent": 1,
          "dependentGloss": "Dieser"
        },
        {
          "dep": "nsubj",
          "governor": 3,
          "governorGloss": "Lego-Brief",
          "dependent": 2,
          "dependentGloss": "kraftvolle"
        },
        {
          "dep": "case",
          "governor": 6,
          "governorGloss": "Eltern",
          "dependent": 4,
          "dependentGloss": "an"
        },
        {
          "dep": "det",
          "governor": 6,
          "governorGloss": "Eltern",
          "dependent": 5,
          "dependentGloss": "die"
        },
        {
          "dep": "nmod",
          "governor": 3,
          "governorGloss": "Lego-Brief",
          "dependent": 6,
          "dependentGloss": "Eltern"
        },
        {
          "dep": "case",
          "governor": 10,
          "governorGloss": "Jahren",
          "dependent": 7,
          "dependentGloss": "aus"
        },
        {
          "dep": "det",
          "governor": 10,
          "governorGloss": "Jahren",
          "dependent": 8,
          "dependentGloss": "den"
        },
        {
          "dep": "amod",
          "governor": 10,
          "governorGloss": "Jahren",
          "dependent": 9,
          "dependentGloss": "1970er"
        },
        {
          "dep": "nmod",
          "governor": 6,
          "governorGloss": "Eltern",
          "dependent": 10,
          "dependentGloss": "Jahren"
        },
        {
          "dep": "punct",
          "governor": 3,
          "governorGloss": "Lego-Brief",
          "dependent": 11,
          "dependentGloss": "?"
        }
      ],
      "enhancedDependencies": [
        {
          "dep": "ROOT",
          "governor": 0,
          "governorGloss": "ROOT",
          "dependent": 3,
          "dependentGloss": "Lego-Brief"
        },
        {
          "dep": "det",
          "governor": 2,
          "governorGloss": "kraftvolle",
          "dependent": 1,
          "dependentGloss": "Dieser"
        },
        {
          "dep": "nsubj",
          "governor": 3,
          "governorGloss": "Lego-Brief",
          "dependent": 2,
          "dependentGloss": "kraftvolle"
        },
        {
          "dep": "case",
          "governor": 6,
          "governorGloss": "Eltern",
          "dependent": 4,
          "dependentGloss": "an"
        },
        {
          "dep": "det",
          "governor": 6,
          "governorGloss": "Eltern",
          "dependent": 5,
          "dependentGloss": "die"
        },
        {
          "dep": "nmod",
          "governor": 3,
          "governorGloss": "Lego-Brief",
          "dependent": 6,
          "dependentGloss": "Eltern"
        },
        {
          "dep": "case",
          "governor": 10,
          "governorGloss": "Jahren",
          "dependent": 7,
          "dependentGloss": "aus"
        },
        {
          "dep": "det",
          "governor": 10,
          "governorGloss": "Jahren",
          "dependent": 8,
          "dependentGloss": "den"
        },
        {
          "dep": "amod",
          "governor": 10,
          "governorGloss": "Jahren",
          "dependent": 9,
          "dependentGloss": "1970er"
        },
        {
          "dep": "nmod",
          "governor": 6,
          "governorGloss": "Eltern",
          "dependent": 10,
          "dependentGloss": "Jahren"
        },
        {
          "dep": "punct",
          "governor": 3,
          "governorGloss": "Lego-Brief",
          "dependent": 11,
          "dependentGloss": "?"
        }
      ],
      "enhancedPlusPlusDependencies": [
        {
          "dep": "ROOT",
          "governor": 0,
          "governorGloss": "ROOT",
          "dependent": 3,
          "dependentGloss": "Lego-Brief"
        },
        {
          "dep": "det",
          "governor": 2,
          "governorGloss": "kraftvolle",
          "dependent": 1,
          "dependentGloss": "Dieser"
        },
        {
          "dep": "nsubj",
          "governor": 3,
          "governorGloss": "Lego-Brief",
          "dependent": 2,
          "dependentGloss": "kraftvolle"
        },
        {
          "dep": "case",
          "governor": 6,
          "governorGloss": "Eltern",
          "dependent": 4,
          "dependentGloss": "an"
        },
        {
          "dep": "det",
          "governor": 6,
          "governorGloss": "Eltern",
          "dependent": 5,
          "dependentGloss": "die"
        },
        {
          "dep": "nmod",
          "governor": 3,
          "governorGloss": "Lego-Brief",
          "dependent": 6,
          "dependentGloss": "Eltern"
        },
        {
          "dep": "case",
          "governor": 10,
          "governorGloss": "Jahren",
          "dependent": 7,
          "dependentGloss": "aus"
        },
        {
          "dep": "det",
          "governor": 10,
          "governorGloss": "Jahren",
          "dependent": 8,
          "dependentGloss": "den"
        },
        {
          "dep": "amod",
          "governor": 10,
          "governorGloss": "Jahren",
          "dependent": 9,
          "dependentGloss": "1970er"
        },
        {
          "dep": "nmod",
          "governor": 6,
          "governorGloss": "Eltern",
          "dependent": 10,
          "dependentGloss": "Jahren"
        },
        {
          "dep": "punct",
          "governor": 3,
          "governorGloss": "Lego-Brief",
          "dependent": 11,
          "dependentGloss": "?"
        }
      ],
      "tokens": [
        {
          "index": 1,
          "word": "Dieser",
          "originalText": "Dieser",
          "characterOffsetBegin": 0,
          "characterOffsetEnd": 6,
          "pos": "PDAT",
          "before": "",
          "after": " "
        },
        {
          "index": 2,
          "word": "kraftvolle",
          "originalText": "kraftvolle",
          "characterOffsetBegin": 7,
          "characterOffsetEnd": 17,
          "pos": "ADJA",
          "before": " ",
          "after": " "
        },
        {
          "index": 3,
          "word": "Lego-Brief",
          "originalText": "Lego-Brief",
          "characterOffsetBegin": 18,
          "characterOffsetEnd": 28,
          "pos": "NN",
          "before": " ",
          "after": " "
        },
        {
          "index": 4,
          "word": "an",
          "originalText": "an",
          "characterOffsetBegin": 29,
          "characterOffsetEnd": 31,
          "pos": "APPR",
          "before": " ",
          "after": " "
        },
        {
          "index": 5,
          "word": "die",
          "originalText": "die",
          "characterOffsetBegin": 32,
          "characterOffsetEnd": 35,
          "pos": "ART",
          "before": " ",
          "after": " "
        },
        {
          "index": 6,
          "word": "Eltern",
          "originalText": "Eltern",
          "characterOffsetBegin": 36,
          "characterOffsetEnd": 42,
          "pos": "NN",
          "before": " ",
          "after": " "
        },
        {
          "index": 7,
          "word": "aus",
          "originalText": "aus",
          "characterOffsetBegin": 43,
          "characterOffsetEnd": 46,
          "pos": "APPR",
          "before": " ",
          "after": " "
        },
        {
          "index": 8,
          "word": "den",
          "originalText": "den",
          "characterOffsetBegin": 47,
          "characterOffsetEnd": 50,
          "pos": "ART",
          "before": " ",
          "after": " "
        },
        {
          "index": 9,
          "word": "1970er",
          "originalText": "1970er",
          "characterOffsetBegin": 51,
          "characterOffsetEnd": 57,
          "pos": "ADJA",
          "before": " ",
          "after": " "
        },
        {
          "index": 10,
          "word": "Jahren",
          "originalText": "Jahren",
          "characterOffsetBegin": 58,
          "characterOffsetEnd": 64,
          "pos": "NN",
          "before": " ",
          "after": ""
        },
        {
          "index": 11,
          "word": "?",
          "originalText": "?",
          "characterOffsetBegin": 64,
          "characterOffsetEnd": 65,
          "pos": "$.",
          "before": "",
          "after": " "
        }
      ]
    },
    {
      "index": 1,
      "basicDependencies": [
        {
          "dep": "ROOT",
          "governor": 0,
          "governorGloss": "ROOT",
          "dependent": 2,
          "dependentGloss": "ist"
        },
        {
          "dep": "nsubj",
          "governor": 2,
          "governorGloss": "ist",
          "dependent": 1,
          "dependentGloss": "Es"
        },
        {
          "dep": "advmod",
          "governor": 2,
          "governorGloss": "ist",
          "dependent": 3,
          "dependentGloss": "echt"
        }
      ],
      "enhancedDependencies": [
        {
          "dep": "ROOT",
          "governor": 0,
          "governorGloss": "ROOT",
          "dependent": 2,
          "dependentGloss": "ist"
        },
        {
          "dep": "nsubj",
          "governor": 2,
          "governorGloss": "ist",
          "dependent": 1,
          "dependentGloss": "Es"
        },
        {
          "dep": "advmod",
          "governor": 2,
          "governorGloss": "ist",
          "dependent": 3,
          "dependentGloss": "echt"
        }
      ],
      "enhancedPlusPlusDependencies": [
        {
          "dep": "ROOT",
          "governor": 0,
          "governorGloss": "ROOT",
          "dependent": 2,
          "dependentGloss": "ist"
        },
        {
          "dep": "nsubj",
          "governor": 2,
          "governorGloss": "ist",
          "dependent": 1,
          "dependentGloss": "Es"
        },
        {
          "dep": "advmod",
          "governor": 2,
          "governorGloss": "ist",
          "dependent": 3,
          "dependentGloss": "echt"
        }
      ],
      "tokens": [
        {
          "index": 1,
          "word": "Es",
          "originalText": "Es",
          "characterOffsetBegin": 66,
          "characterOffsetEnd": 68,
          "pos": "PPER",
          "before": " ",
          "after": " "
        },
        {
          "index": 2,
          "word": "ist",
          "originalText": "ist",
          "characterOffsetBegin": 69,
          "characterOffsetEnd": 72,
          "pos": "VAFIN",
          "before": " ",
          "after": " "
        },
        {
          "index": 3,
          "word": "echt",
          "originalText": "echt",
          "characterOffsetBegin": 73,
          "characterOffsetEnd": 77,
          "pos": "ADJD",
          "before": " ",
          "after": ""
        }
      ]
    }
  ]
}