{
  "sentences": [
    {
      "index": 0,
      "basicDependencies": [
        {
          "dep": "ROOT",
          "governor": 0,
          "governorGloss": "ROOT",
          "dependent": 2,
          "dependentGloss": "machte"
        },
        {
          "dep": "nsubj",
          "governor": 2,
          "governorGloss": "machte",
          "dependent": 1,
          "dependentGloss": "Teen"
        },
        {
          "dep": "nsubj",
          "governor": 7,
          "governorGloss": "Stocks",
          "dependent": 3,
          "dependentGloss": "$"
        },
        {
          "dep": "nummod",
          "governor": 5,
          "governorGloss": "Millionen",
          "dependent": 4,
          "dependentGloss": "72"
        },
        {
          "dep": "nummod",
          "governor": 6,
          "governorGloss": "Trading",
          "dependent": 5,
          "dependentGloss": "Millionen"
        },
        {
          "dep": "dobj",
          "governor": 7,
          "governorGloss": "Stocks",
          "dependent": 6,
          "dependentGloss": "Trading"
        },
        {
          "dep": "xcomp",
          "governor": 2,
          "governorGloss": "machte",
          "dependent": 7,
          "dependentGloss": "Stocks"
        },
        {
          "dep": "punct",
          "governor": 2,
          "governorGloss": "machte",
          "dependent": 8,
          "dependentGloss": ","
        },
        {
          "dep": "conj",
          "governor": 2,
          "governorGloss": "machte",
          "dependent": 9,
          "dependentGloss": "bestätigt"
        },
        {
          "dep": "amod",
          "governor": 11,
          "governorGloss": "Dominanz",
          "dependent": 10,
          "dependentGloss": "Teen"
        },
        {
          "dep": "dobj",
          "governor": 9,
          "governorGloss": "bestätigt",
          "dependent": 11,
          "dependentGloss": "Dominanz"
        },
        {
          "dep": "punct",
          "governor": 2,
          "governorGloss": "machte",
          "dependent": 12,
          "dependentGloss": "weltweit"
        }
      ],
      "enhancedDependencies": [
        {
          "dep": "ROOT",
          "governor": 0,
          "governorGloss": "ROOT",
          "dependent": 2,
          "dependentGloss": "machte"
        },
        {
          "dep": "nsubj",
          "governor": 2,
          "governorGloss": "machte",
          "dependent": 1,
          "dependentGloss": "Teen"
        },
        {
          "dep": "nsubj",
          "governor": 7,
          "governorGloss": "Stocks",
          "dependent": 3,
          "dependentGloss": "$"
        },
        {
          "dep": "nummod",
          "governor": 5,
          "governorGloss": "Millionen",
          "dependent": 4,
          "dependentGloss": "72"
        },
        {
          "dep": "nummod",
          "governor": 6,
          "governorGloss": "Trading",
          "dependent": 5,
          "dependentGloss": "Millionen"
        },
        {
          "dep": "dobj",
          "governor": 7,
          "governorGloss": "Stocks",
          "dependent": 6,
          "dependentGloss": "Trading"
        },
        {
          "dep": "xcomp",
          "governor": 2,
          "governorGloss": "machte",
          "dependent": 7,
          "dependentGloss": "Stocks"
        },
        {
          "dep": "punct",
          "governor": 2,
          "governorGloss": "machte",
          "dependent": 8,
          "dependentGloss": ","
        },
        {
          "dep": "conj",
          "governor": 2,
          "governorGloss": "machte",
          "dependent": 9,
          "dependentGloss": "bestätigt"
        },
        {
          "dep": "amod",
          "governor": 11,
          "governorGloss": "Dominanz",
          "dependent": 10,
          "dependentGloss": "Teen"
        },
        {
          "dep": "dobj",
          "governor": 9,
          "governorGloss": "bestätigt",
          "dependent": 11,
          "dependentGloss": "Dominanz"
        },
        {
          "dep": "punct",
          "governor": 2,
          "governorGloss": "machte",
          "dependent": 12,
          "dependentGloss": "weltweit"
        }
      ],
      "enhancedPlusPlusDependencies": [
        {
          "dep": "ROOT",
          "governor": 0,
          "governorGloss": "ROOT",
          "dependent": 2,
          "dependentGloss": "machte"
        },
        {
          "dep": "nsubj",
          "governor": 2,
          "governorGloss": "machte",
          "dependent": 1,
          "dependentGloss": "Teen"
        },
        {
          "dep": "nsubj",
          "governor": 7,
          "governorGloss": "Stocks",
          "dependent": 3,
          "dependentGloss": "$"
        },
        {
          "dep": "nummod",
          "governor": 5,
          "governorGloss": "Millionen",
          "dependent": 4,
          "dependentGloss": "72"
        },
        {
          "dep": "nummod",
          "governor": 6,
          "governorGloss": "Trading",
          "dependent": 5,
          "dependentGloss": "Millionen"
        },
        {
          "dep": "dobj",
          "governor": 7,
          "governorGloss": "Stocks",
          "dependent": 6,
          "dependentGloss": "Trading"
        },
        {
          "dep": "xcomp",
          "governor": 2,
          "governorGloss": "machte",
          "dependent": 7,
          "dependentGloss": "Stocks"
        },
        {
          "dep": "punct",
          "governor": 2,
          "governorGloss": "machte",
          "dependent": 8,
          "dependentGloss": ","
        },
        {
          "dep": "conj",
          "governor": 2,
          "governorGloss": "machte",
          "dependent": 9,
          "dependentGloss": "bestätigt"
        },
        {
          "dep": "amod",
          "governor": 11,
          "governorGloss": "Dominanz",
          "dependent": 10,
          "dependentGloss": "Teen"
        },
        {
          "dep": "dobj",
          "governor": 9,
          "governorGloss": "bestätigt",
          "dependent": 11,
          "dependentGloss": "Dominanz"
        },
        {
          "dep": "punct",
          "governor": 2,
          "governorGloss": "machte",
          "dependent": 12,
          "dependentGloss": "weltweit"
        }
      ],
      "tokens": [
        {
          "index": 1,
          "word": "Teen",
          "originalText": "Teen",
          "characterOffsetBegin": 0,
          "characterOffsetEnd": 4,
          "pos": "NE",
          "before": "",
          "after": " "
        },
        {
          "index": 2,
          "word": "machte",
          "originalText": "machte",
          "characterOffsetBegin": 5,
          "characterOffsetEnd": 11,
          "pos": "VVFIN",
          "before": " ",
          "after": " "
        },
        {
          "index": 3,
          "word": "$",
          "originalText": "$",
          "characterOffsetBegin": 12,
          "characterOffsetEnd": 13,
          "pos": "CARD",
          "before": " ",
          "after": " "
        },
        {
          "index": 4,
          "word": "72",
          "originalText": "72",
          "characterOffsetBegin": 14,
          "characterOffsetEnd": 16,
          "pos": "CARD",
          "before": " ",
          "after": " "
        },
        {
          "index": 5,
          "word": "Millionen",
          "originalText": "Millionen",
          "characterOffsetBegin": 17,
          "characterOffsetEnd": 26,
          "pos": "NN",
          "before": " ",
          "after": " "
        },
        {
          "index": 6,
          "word": "Trading",
          "originalText": "Trading",
          "characterOffsetBegin": 27,
          "characterOffsetEnd": 34,
          "pos": "NN",
          "before": " ",
          "after": " "
        },
        {
          "index": 7,
          "word": "Stocks",
          "originalText": "Stocks",
          "characterOffsetBegin": 35,
          "characterOffsetEnd": 41,
          "pos": "NE",
          "before": " ",
          "after": ""
        },
        {
          "index": 8,
          "word": ",",
          "originalText": ",",
          "characterOffsetBegin": 41,
          "characterOffsetEnd": 42,
          "pos": "$,",
          "before": "",
          "after": " "
        },
        {
          "index": 9,
          "word": "bestätigt",
          "originalText": "bestätigt",
          "characterOffsetBegin": 43,
          "characterOffsetEnd": 52,
          "pos": "VVFIN",
          "before": " ",
          "after": " "
        },
        {
          "index": 10,
          "word": "Teen",
          "originalText": "Teen",
          "characterOffsetBegin": 53,
          "characterOffsetEnd": 57,
          "pos": "NE",
          "before": " ",
          "after": " "
        },
        {
          "index": 11,
          "word": "Dominanz",
          "originalText": "Dominanz",
          "characterOffsetBegin": 58,
          "characterOffsetEnd": 66,
          "pos": "NE",
          "before": " ",
          "after": " "
        },
        {
          "index": 12,
          "word": "weltweit",
          "originalText": "weltweit",
          "characterOffsetBegin": 67,
          "characterOffsetEnd": 75,
          "pos": "ADJD",
          "before": " ",
          "after": ""
        }
      ]
    }
  ]
}