{
  "sentences": [
    {
      "index": 0,
      "basicDependencies": [
        {
          "dep": "ROOT",
          "governor": 0,
          "governorGloss": "ROOT",
          "dependent": 3,
          "dependentGloss": "Fatwa"
        },
        {
          "dep": "amod",
          "governor": 3,
          "governorGloss": "Fatwa",
          "dependent": 1,
          "dependentGloss": "Saudi-Arabien"
        },
        {
          "dep": "amod",
          "governor": 3,
          "governorGloss": "Fatwa",
          "dependent": 2,
          "dependentGloss": "`"
        },
        {
          "dep": "case",
          "governor": 5,
          "governorGloss": "Gebäude",
          "dependent": 4,
          "dependentGloss": "über"
        },
        {
          "dep": "nmod",
          "governor": 3,
          "governorGloss": "Fatwa",
          "dependent": 5,
          "dependentGloss": "Gebäude"
        },
        {
          "dep": "case",
          "governor": 5,
          "governorGloss": "Gebäude",
          "dependent": 6,
          "dependentGloss": "von"
        },
        {
          "dep": "nmod",
          "governor": 6,
          "governorGloss": "von",
          "dependent": 7,
          "dependentGloss": "Schneemänner"
        },
        {
          "dep": "case",
          "governor": 7,
          "governorGloss": "Schneemänner",
          "dependent": 8,
          "dependentGloss": "'"
        }
      ],
      "enhancedDependencies": [
        {
          "dep": "ROOT",
          "governor": 0,
          "governorGloss": "ROOT",
          "dependent": 3,
          "dependentGloss": "Fatwa"
        },
        {
          "dep": "amod",
          "governor": 3,
          "governorGloss": "Fatwa",
          "dependent": 1,
          "dependentGloss": "Saudi-Arabien"
        },
        {
          "dep": "amod",
          "governor": 3,
          "governorGloss": "Fatwa",
          "dependent": 2,
          "dependentGloss": "`"
        },
        {
          "dep": "case",
          "governor": 5,
          "governorGloss": "Gebäude",
          "dependent": 4,
          "dependentGloss": "über"
        },
        {
          "dep": "nmod",
          "governor": 3,
          "governorGloss": "Fatwa",
          "dependent": 5,
          "dependentGloss": "Gebäude"
        },
        {
          "dep": "case",
          "governor": 5,
          "governorGloss": "Gebäude",
          "dependent": 6,
          "dependentGloss": "von"
        },
        {
          "dep": "nmod",
          "governor": 6,
          "governorGloss": "von",
          "dependent": 7,
          "dependentGloss": "Schneemänner"
        },
        {
          "dep": "case",
          "governor": 7,
          "governorGloss": "Schneemänner",
          "dependent": 8,
          "dependentGloss": "'"
        }
      ],
      "enhancedPlusPlusDependencies": [
        {
          "dep": "ROOT",
          "governor": 0,
          "governorGloss": "ROOT",
          "dependent": 3,
          "dependentGloss": "Fatwa"
        },
        {
          "dep": "amod",
          "governor": 3,
          "governorGloss": "Fatwa",
          "dependent": 1,
          "dependentGloss": "Saudi-Arabien"
        },
        {
          "dep": "amod",
          "governor": 3,
          "governorGloss": "Fatwa",
          "dependent": 2,
          "dependentGloss": "`"
        },
        {
          "dep": "case",
          "governor": 5,
          "governorGloss": "Gebäude",
          "dependent": 4,
          "dependentGloss": "über"
        },
        {
          "dep": "nmod",
          "governor": 3,
          "governorGloss": "Fatwa",
          "dependent": 5,
          "dependentGloss": "Gebäude"
        },
        {
          "dep": "case",
          "governor": 5,
          "governorGloss": "Gebäude",
          "dependent": 6,
          "dependentGloss": "von"
        },
        {
          "dep": "nmod",
          "governor": 6,
          "governorGloss": "von",
          "dependent": 7,
          "dependentGloss": "Schneemänner"
        },
        {
          "dep": "case",
          "governor": 7,
          "governorGloss": "Schneemänner",
          "dependent": 8,
          "dependentGloss": "'"
        }
      ],
      "tokens": [
        {
          "index": 1,
          "word": "Saudi-Arabien",
          "originalText": "Saudi-Arabien",
          "characterOffsetBegin": 0,
          "characterOffsetEnd": 13,
          "pos": "NE",
          "before": "",
          "after": " "
        },
        {
          "index": 2,
          "word": "`",
          "originalText": "'",
          "characterOffsetBegin": 14,
          "characterOffsetEnd": 15,
          "pos": "VVFIN",
          "before": " ",
          "after": ""
        },
        {
          "index": 3,
          "word": "Fatwa",
          "originalText": "Fatwa",
          "characterOffsetBegin": 15,
          "characterOffsetEnd": 20,
          "pos": "NE",
          "before": "",
          "after": " "
        },
        {
          "index": 4,
          "word": "über",
          "originalText": "über",
          "characterOffsetBegin": 21,
          "characterOffsetEnd": 25,
          "pos": "APPR",
          "before": " ",
          "after": " "
        },
        {
          "index": 5,
          "word": "Gebäude",
          "originalText": "Gebäude",
          "characterOffsetBegin": 26,
          "characterOffsetEnd": 33,
          "pos": "NN",
          "before": " ",
          "after": " "
        },
        {
          "index": 6,
          "word": "von",
          "originalText": "von",
          "characterOffsetBegin": 34,
          "characterOffsetEnd": 37,
          "pos": "APPR",
          "before": " ",
          "after": " "
        },
        {
          "index": 7,
          "word": "Schneemänner",
          "originalText": "Schneemänner",
          "characterOffsetBegin": 38,
          "characterOffsetEnd": 50,
          "pos": "NN",
          "before": " ",
          "after": ""
        },
        {
          "index": 8,
          "word": "'",
          "originalText": "'",
          "characterOffsetBegin": 50,
          "characterOffsetEnd": 51,
          "pos": "$[",
          "before": "",
          "after": ""
        }
      ]
    }
  ]
}