{
  "sentences": [
    {
      "index": 0,
      "basicDependencies": [
        {
          "dep": "ROOT",
          "governor": 0,
          "governorGloss": "ROOT",
          "dependent": 5,
          "dependentGloss": "Banksy"
        },
        {
          "dep": "advmod",
          "governor": 2,
          "governorGloss": "einmal",
          "dependent": 1,
          "dependentGloss": "Wieder"
        },
        {
          "dep": "advmod",
          "governor": 5,
          "governorGloss": "Banksy",
          "dependent": 2,
          "dependentGloss": "einmal"
        },
        {
          "dep": "cop",
          "governor": 5,
          "governorGloss": "Banksy",
          "dependent": 3,
          "dependentGloss": "ist"
        },
        {
          "dep": "det",
          "governor": 5,
          "governorGloss": "Banksy",
          "dependent": 4,
          "dependentGloss": "die"
        },
        {
          "dep": "punct",
          "governor": 7,
          "governorGloss": "Arrest",
          "dependent": 6,
          "dependentGloss": "`"
        },
        {
          "dep": "appos",
          "governor": 5,
          "governorGloss": "Banksy",
          "dependent": 7,
          "dependentGloss": "Arrest"
        },
        {
          "dep": "case",
          "governor": 7,
          "governorGloss": "Arrest",
          "dependent": 8,
          "dependentGloss": "'"
        },
        {
          "dep": "det",
          "governor": 11,
          "governorGloss": "Hoax",
          "dependent": 9,
          "dependentGloss": "ein"
        },
        {
          "dep": "amod",
          "governor": 11,
          "governorGloss": "Hoax",
          "dependent": 10,
          "dependentGloss": "Riesiger"
        },
        {
          "dep": "dobj",
          "governor": 7,
          "governorGloss": "Arrest",
          "dependent": 11,
          "dependentGloss": "Hoax"
        },
        {
          "dep": "punct",
          "governor": 5,
          "governorGloss": "Banksy",
          "dependent": 12,
          "dependentGloss": "."
        }
      ],
      "enhancedDependencies": [
        {
          "dep": "ROOT",
          "governor": 0,
          "governorGloss": "ROOT",
          "dependent": 5,
          "dependentGloss": "Banksy"
        },
        {
          "dep": "advmod",
          "governor": 2,
          "governorGloss": "einmal",
          "dependent": 1,
          "dependentGloss": "Wieder"
        },
        {
          "dep": "advmod",
          "governor": 5,
          "governorGloss": "Banksy",
          "dependent": 2,
          "dependentGloss": "einmal"
        },
        {
          "dep": "cop",
          "governor": 5,
          "governorGloss": "Banksy",
          "dependent": 3,
          "dependentGloss": "ist"
        },
        {
          "dep": "det",
          "governor": 5,
          "governorGloss": "Banksy",
          "dependent": 4,
          "dependentGloss": "die"
        },
        {
          "dep": "punct",
          "governor": 7,
          "governorGloss": "Arrest",
          "dependent": 6,
          "dependentGloss": "`"
        },
        {
          "dep": "appos",
          "governor": 5,
          "governorGloss": "Banksy",
          "dependent": 7,
          "dependentGloss": "Arrest"
        },
        {
          "dep": "case",
          "governor": 7,
          "governorGloss": "Arrest",
          "dependent": 8,
          "dependentGloss": "'"
        },
        {
          "dep": "det",
          "governor": 11,
          "governorGloss": "Hoax",
          "dependent": 9,
          "dependentGloss": "ein"
        },
        {
          "dep": "amod",
          "governor": 11,
          "governorGloss": "Hoax",
          "dependent": 10,
          "dependentGloss": "Riesiger"
        },
        {
          "dep": "dobj",
          "governor": 7,
          "governorGloss": "Arrest",
          "dependent": 11,
          "dependentGloss": "Hoax"
        },
        {
          "dep": "punct",
          "governor": 5,
          "governorGloss": "Banksy",
          "dependent": 12,
          "dependentGloss": "."
        }
      ],
      "enhancedPlusPlusDependencies": [
        {
          "dep": "ROOT",
          "governor": 0,
          "governorGloss": "ROOT",
          "dependent": 5,
          "dependentGloss": "Banksy"
        },
        {
          "dep": "advmod",
          "governor": 2,
          "governorGloss": "einmal",
          "dependent": 1,
          "dependentGloss": "Wieder"
        },
        {
          "dep": "advmod",
          "governor": 5,
          "governorGloss": "Banksy",
          "dependent": 2,
          "dependentGloss": "einmal"
        },
        {
          "dep": "cop",
          "governor": 5,
          "governorGloss": "Banksy",
          "dependent": 3,
          "dependentGloss": "ist"
        },
        {
          "dep": "det",
          "governor": 5,
          "governorGloss": "Banksy",
          "dependent": 4,
          "dependentGloss": "die"
        },
        {
          "dep": "punct",
          "governor": 7,
          "governorGloss": "Arrest",
          "dependent": 6,
          "dependentGloss": "`"
        },
        {
          "dep": "appos",
          "governor": 5,
          "governorGloss": "Banksy",
          "dependent": 7,
          "dependentGloss": "Arrest"
        },
        {
          "dep": "case",
          "governor": 7,
          "governorGloss": "Arrest",
          "dependent": 8,
          "dependentGloss": "'"
        },
        {
          "dep": "det",
          "governor": 11,
          "governorGloss": "Hoax",
          "dependent": 9,
          "dependentGloss": "ein"
        },
        {
          "dep": "amod",
          "governor": 11,
          "governorGloss": "Hoax",
          "dependent": 10,
          "dependentGloss": "Riesiger"
        },
        {
          "dep": "dobj",
          "governor": 7,
          "governorGloss": "Arrest",
          "dependent": 11,
          "dependentGloss": "Hoax"
        },
        {
          "dep": "punct",
          "governor": 5,
          "governorGloss": "Banksy",
          "dependent": 12,
          "dependentGloss": "."
        }
      ],
      "tokens": [
        {
          "index": 1,
          "word": "Wieder",
          "originalText": "Wieder",
          "characterOffsetBegin": 0,
          "characterOffsetEnd": 6,
          "pos": "ADV",
          "before": "",
          "after": " "
        },
        {
          "index": 2,
          "word": "einmal",
          "originalText": "einmal",
          "characterOffsetBegin": 7,
          "characterOffsetEnd": 13,
          "pos": "ADV",
          "before": " ",
          "after": " "
        },
        {
          "index": 3,
          "word": "ist",
          "originalText": "ist",
          "characterOffsetBegin": 14,
          "characterOffsetEnd": 17,
          "pos": "VAFIN",
          "before": " ",
          "after": " "
        },
        {
          "index": 4,
          "word": "die",
          "originalText": "die",
          "characterOffsetBegin": 18,
          "characterOffsetEnd": 21,
          "pos": "ART",
          "before": " ",
          "after": " "
        },
        {
          "index": 5,
          "word": "Banksy",
          "originalText": "Banksy",
          "characterOffsetBegin": 22,
          "characterOffsetEnd": 28,
          "pos": "NE",
          "before": " ",
          "after": " "
        },
        {
          "index": 6,
          "word": "`",
          "originalText": "'",
          "characterOffsetBegin": 29,
          "characterOffsetEnd": 30,
          "pos": "CARD",
          "before": " ",
          "after": ""
        },
        {
          "index": 7,
          "word": "Arrest",
          "originalText": "Arrest",
          "characterOffsetBegin": 30,
          "characterOffsetEnd": 36,
          "pos": "NN",
          "before": "",
          "after": ""
        },
        {
          "index": 8,
          "word": "'",
          "originalText": "'",
          "characterOffsetBegin": 36,
          "characterOffsetEnd": 37,
          "pos": "$[",
          "before": "",
          "after": " "
        },
        {
          "index": 9,
          "word": "ein",
          "originalText": "ein",
          "characterOffsetBegin": 38,
          "characterOffsetEnd": 41,
          "pos": "ART",
          "before": " ",
          "after": " "
        },
        {
          "index": 10,
          "word": "Riesiger",
          "originalText": "Riesiger",
          "characterOffsetBegin": 42,
          "characterOffsetEnd": 50,
          "pos": "ADJA",
          "before": " ",
          "after": " "
        },
        {
          "index": 11,
          "word": "Hoax",
          "originalText": "Hoax",
          "characterOffsetBegin": 51,
          "characterOffsetEnd": 55,
          "pos": "NE",
          "before": " ",
          "after": ""
        },
        {
          "index": 12,
          "word": ".",
          "originalText": ".",
          "characterOffsetBegin": 55,
          "characterOffsetEnd": 56,
          "pos": "$.",
          "before": "",
          "after": " "
        }
      ]
    },
    {
      "index": 1,
      "basicDependencies": [
        {
          "dep": "ROOT",
          "governor": 0,
          "governorGloss": "ROOT",
          "dependent": 1,
          "dependentGloss": "Wiederholen"
        },
        {
          "dep": "punct",
          "governor": 1,
          "governorGloss": "Wiederholen",
          "dependent": 2,
          "dependentGloss": ":"
        },
        {
          "dep": "det",
          "governor": 4,
          "governorGloss": "Hoax",
          "dependent": 3,
          "dependentGloss": "Ein"
        },
        {
          "dep": "appos",
          "governor": 1,
          "governorGloss": "Wiederholen",
          "dependent": 4,
          "dependentGloss": "Hoax"
        },
        {
          "dep": "punct",
          "governor": 1,
          "governorGloss": "Wiederholen",
          "dependent": 5,
          "dependentGloss": "."
        }
      ],
      "enhancedDependencies": [
        {
          "dep": "ROOT",
          "governor": 0,
          "governorGloss": "ROOT",
          "dependent": 1,
          "dependentGloss": "Wiederholen"
        },
        {
          "dep": "punct",
          "governor": 1,
          "governorGloss": "Wiederholen",
          "dependent": 2,
          "dependentGloss": ":"
        },
        {
          "dep": "det",
          "governor": 4,
          "governorGloss": "Hoax",
          "dependent": 3,
          "dependentGloss": "Ein"
        },
        {
          "dep": "appos",
          "governor": 1,
          "governorGloss": "Wiederholen",
          "dependent": 4,
          "dependentGloss": "Hoax"
        },
        {
          "dep": "punct",
          "governor": 1,
          "governorGloss": "Wiederholen",
          "dependent": 5,
          "dependentGloss": "."
        }
      ],
      "enhancedPlusPlusDependencies": [
        {
          "dep": "ROOT",
          "governor": 0,
          "governorGloss": "ROOT",
          "dependent": 1,
          "dependentGloss": "Wiederholen"
        },
        {
          "dep": "punct",
          "governor": 1,
          "governorGloss": "Wiederholen",
          "dependent": 2,
          "dependentGloss": ":"
        },
        {
          "dep": "det",
          "governor": 4,
          "governorGloss": "Hoax",
          "dependent": 3,
          "dependentGloss": "Ein"
        },
        {
          "dep": "appos",
          "governor": 1,
          "governorGloss": "Wiederholen",
          "dependent": 4,
          "dependentGloss": "Hoax"
        },
        {
          "dep": "punct",
          "governor": 1,
          "governorGloss": "Wiederholen",
          "dependent": 5,
          "dependentGloss": "."
        }
      ],
      "tokens": [
        {
          "index": 1,
          "word": "Wiederholen",
          "originalText": "Wiederholen",
          "characterOffsetBegin": 57,
          "characterOffsetEnd": 68,
          "pos": "VVINF",
          "before": " ",
          "after": ""
        },
        {
          "index": 2,
          "word": ":",
          "originalText": ":",
          "characterOffsetBegin": 68,
          "characterOffsetEnd": 69,
          "pos": "$.",
          "before": "",
          "after": " "
        },
        {
          "index": 3,
          "word": "Ein",
          "originalText": "Ein",
          "characterOffsetBegin": 70,
          "characterOffsetEnd": 73,
          "pos": "ART",
          "before": " ",
          "after": " "
        },
        {
          "index": 4,
          "word": "Hoax",
          "originalText": "Hoax",
          "characterOffsetBegin": 74,
          "characterOffsetEnd": 78,
          "pos": "NE",
          "before": " ",
          "after": ""
        },
        {
          "index": 5,
          "word": ".",
          "originalText": ".",
          "characterOffsetBegin": 78,
          "characterOffsetEnd": 79,
          "pos": "$.",
          "before": "",
          "after": ""
        }
      ]
    }
  ]
}