{
  "sentences": [
    {
      "index": 0,
      "basicDependencies": [
        {
          "dep": "ROOT",
          "governor": 0,
          "governorGloss": "ROOT",
          "dependent": 6,
          "dependentGloss": "verkaufen"
        },
        {
          "dep": "nsubjpass",
          "governor": 6,
          "governorGloss": "verkaufen",
          "dependent": 1,
          "dependentGloss": "Sorry"
        },
        {
          "dep": "punct",
          "governor": 1,
          "governorGloss": "Sorry",
          "dependent": 2,
          "dependentGloss": ","
        },
        {
          "dep": "conj",
          "governor": 1,
          "governorGloss": "Sorry",
          "dependent": 3,
          "dependentGloss": "KFC"
        },
        {
          "dep": "auxpass",
          "governor": 6,
          "governorGloss": "verkaufen",
          "dependent": 4,
          "dependentGloss": "wird"
        },
        {
          "dep": "neg",
          "governor": 6,
          "governorGloss": "verkaufen",
          "dependent": 5,
          "dependentGloss": "nicht"
        },
        {
          "dep": "nsubj",
          "governor": 6,
          "governorGloss": "verkaufen",
          "dependent": 7,
          "dependentGloss": "Unkraut"
        },
        {
          "dep": "case",
          "governor": 10,
          "governorGloss": "Restaurants",
          "dependent": 8,
          "dependentGloss": "in"
        },
        {
          "dep": "name",
          "governor": 10,
          "governorGloss": "Restaurants",
          "dependent": 9,
          "dependentGloss": "Colorado"
        },
        {
          "dep": "nmod",
          "governor": 7,
          "governorGloss": "Unkraut",
          "dependent": 10,
          "dependentGloss": "Restaurants"
        }
      ],
      "enhancedDependencies": [
        {
          "dep": "ROOT",
          "governor": 0,
          "governorGloss": "ROOT",
          "dependent": 6,
          "dependentGloss": "verkaufen"
        },
        {
          "dep": "nsubjpass",
          "governor": 6,
          "governorGloss": "verkaufen",
          "dependent": 1,
          "dependentGloss": "Sorry"
        },
        {
          "dep": "punct",
          "governor": 1,
          "governorGloss": "Sorry",
          "dependent": 2,
          "dependentGloss": ","
        },
        {
          "dep": "conj",
          "governor": 1,
          "governorGloss": "Sorry",
          "dependent": 3,
          "dependentGloss": "KFC"
        },
        {
          "dep": "auxpass",
          "governor": 6,
          "governorGloss": "verkaufen",
          "dependent": 4,
          "dependentGloss": "wird"
        },
        {
          "dep": "neg",
          "governor": 6,
          "governorGloss": "verkaufen",
          "dependent": 5,
          "dependentGloss": "nicht"
        },
        {
          "dep": "nsubj",
          "governor": 6,
          "governorGloss": "verkaufen",
          "dependent": 7,
          "dependentGloss": "Unkraut"
        },
        {
          "dep": "case",
          "governor": 10,
          "governorGloss": "Restaurants",
          "dependent": 8,
          "dependentGloss": "in"
        },
        {
          "dep": "name",
          "governor": 10,
          "governorGloss": "Restaurants",
          "dependent": 9,
          "dependentGloss": "Colorado"
        },
        {
          "dep": "nmod",
          "governor": 7,
          "governorGloss": "Unkraut",
          "dependent": 10,
          "dependentGloss": "Restaurants"
        }
      ],
      "enhancedPlusPlusDependencies": [
        {
          "dep": "ROOT",
          "governor": 0,
          "governorGloss": "ROOT",
          "dependent": 6,
          "dependentGloss": "verkaufen"
        },
        {
          "dep": "nsubjpass",
          "governor": 6,
          "governorGloss": "verkaufen",
          "dependent": 1,
          "dependentGloss": "Sorry"
        },
        {
          "dep": "punct",
          "governor": 1,
          "governorGloss": "Sorry",
          "dependent": 2,
          "dependentGloss": ","
        },
        {
          "dep": "conj",
          "governor": 1,
          "governorGloss": "Sorry",
          "dependent": 3,
          "dependentGloss": "KFC"
        },
        {
          "dep": "auxpass",
          "governor": 6,
          "governorGloss": "verkaufen",
          "dependent": 4,
          "dependentGloss": "wird"
        },
        {
          "dep": "neg",
          "governor": 6,
          "governorGloss": "verkaufen",
          "dependent": 5,
          "dependentGloss": "nicht"
        },
        {
          "dep": "nsubj",
          "governor": 6,
          "governorGloss": "verkaufen",
          "dependent": 7,
          "dependentGloss": "Unkraut"
        },
        {
          "dep": "case",
          "governor": 10,
          "governorGloss": "Restaurants",
          "dependent": 8,
          "dependentGloss": "in"
        },
        {
          "dep": "name",
          "governor": 10,
          "governorGloss": "Restaurants",
          "dependent": 9,
          "dependentGloss": "Colorado"
        },
        {
          "dep": "nmod",
          "governor": 7,
          "governorGloss": "Unkraut",
          "dependent": 10,
          "dependentGloss": "Restaurants"
        }
      ],
      "tokens": [
        {
          "index": 1,
          "word": "Sorry",
          "originalText": "Sorry",
          "characterOffsetBegin": 0,
          "characterOffsetEnd": 5,
          "pos": "NE",
          "before": "",
          "after": ""
        },
        {
          "index": 2,
          "word": ",",
          "originalText": ",",
          "characterOffsetBegin": 5,
          "characterOffsetEnd": 6,
          "pos": "$,",
          "before": "",
          "after": " "
        },
        {
          "index": 3,
          "word": "KFC",
          "originalText": "KFC",
          "characterOffsetBegin": 7,
          "characterOffsetEnd": 10,
          "pos": "NE",
          "before": " ",
          "after": " "
        },
        {
          "index": 4,
          "word": "wird",
          "originalText": "wird",
          "characterOffsetBegin": 11,
          "characterOffsetEnd": 15,
          "pos": "VAFIN",
          "before": " ",
          "after": " "
        },
        {
          "index": 5,
          "word": "nicht",
          "originalText": "nicht",
          "characterOffsetBegin": 16,
          "characterOffsetEnd": 21,
          "pos": "PTKNEG",
          "before": " ",
          "after": " "
        },
        {
          "index": 6,
          "word": "verkaufen",
          "originalText": "verkaufen",
          "characterOffsetBegin": 22,
          "characterOffsetEnd": 31,
          "pos": "VVINF",
          "before": " ",
          "after": " "
        },
        {
          "index": 7,
          "word": "Unkraut",
          "originalText": "Unkraut",
          "characterOffsetBegin": 32,
          "characterOffsetEnd": 39,
          "pos": "APPR",
          "before": " ",
          "after": " "
        },
        {
          "index": 8,
          "word": "in",
          "originalText": "in",
          "characterOffsetBegin": 40,
          "characterOffsetEnd": 42,
          "pos": "APPR",
          "before": " ",
          "after": " "
        },
        {
          "index": 9,
          "word": "Colorado",
          "originalText": "Colorado",
          "characterOffsetBegin": 43,
          "characterOffsetEnd": 51,
          "pos": "NE",
          "before": " ",
          "after": " "
        },
        {
          "index": 10,
          "word": "Restaurants",
          "originalText": "Restaurants",
          "characterOffsetBegin": 52,
          "characterOffsetEnd": 63,
          "pos": "NN",
          "before": " ",
          "after": ""
        }
      ]
    }
  ]
}