{
  "sentences": [
    {
      "index": 0,
      "basicDependencies": [
        {
          "dep": "ROOT",
          "governor": 0,
          "governorGloss": "ROOT",
          "dependent": 2,
          "dependentGloss": "behauptet"
        },
        {
          "dep": "advmod",
          "governor": 2,
          "governorGloss": "behauptet",
          "dependent": 1,
          "dependentGloss": "ISIS"
        },
        {
          "dep": "nsubj",
          "governor": 2,
          "governorGloss": "behauptet",
          "dependent": 3,
          "dependentGloss": "es"
        },
        {
          "dep": "name",
          "governor": 6,
          "governorGloss": "Rosenberg",
          "dependent": 4,
          "dependentGloss": "Kidnapped"
        },
        {
          "dep": "name",
          "governor": 6,
          "governorGloss": "Rosenberg",
          "dependent": 5,
          "dependentGloss": "Gill"
        },
        {
          "dep": "dobj",
          "governor": 2,
          "governorGloss": "behauptet",
          "dependent": 6,
          "dependentGloss": "Rosenberg"
        },
        {
          "dep": "punct",
          "governor": 6,
          "governorGloss": "Rosenberg",
          "dependent": 7,
          "dependentGloss": ","
        },
        {
          "dep": "det",
          "governor": 11,
          "governorGloss": "Frau",
          "dependent": 8,
          "dependentGloss": "die"
        },
        {
          "dep": "amod",
          "governor": 11,
          "governorGloss": "Frau",
          "dependent": 9,
          "dependentGloss": "erste"
        },
        {
          "dep": "amod",
          "governor": 11,
          "governorGloss": "Frau",
          "dependent": 10,
          "dependentGloss": "westliche"
        },
        {
          "dep": "appos",
          "governor": 6,
          "governorGloss": "Rosenberg",
          "dependent": 11,
          "dependentGloss": "Frau"
        },
        {
          "dep": "punct",
          "governor": 11,
          "governorGloss": "Frau",
          "dependent": 12,
          "dependentGloss": ","
        },
        {
          "dep": "mark",
          "governor": 20,
          "governorGloss": "fallen",
          "dependent": 13,
          "dependentGloss": "um"
        },
        {
          "dep": "case",
          "governor": 16,
          "governorGloss": "Hände",
          "dependent": 14,
          "dependentGloss": "in"
        },
        {
          "dep": "det",
          "governor": 16,
          "governorGloss": "Hände",
          "dependent": 15,
          "dependentGloss": "die"
        },
        {
          "dep": "nmod",
          "governor": 20,
          "governorGloss": "fallen",
          "dependent": 16,
          "dependentGloss": "Hände"
        },
        {
          "dep": "det",
          "governor": 18,
          "governorGloss": "Gruppe",
          "dependent": 17,
          "dependentGloss": "der"
        },
        {
          "dep": "det",
          "governor": 16,
          "governorGloss": "Hände",
          "dependent": 18,
          "dependentGloss": "Gruppe"
        },
        {
          "dep": "aux",
          "governor": 20,
          "governorGloss": "fallen",
          "dependent": 19,
          "dependentGloss": "zu"
        },
        {
          "dep": "advcl",
          "governor": 11,
          "governorGloss": "Frau",
          "dependent": 20,
          "dependentGloss": "fallen"
        }
      ],
      "enhancedDependencies": [
        {
          "dep": "ROOT",
          "governor": 0,
          "governorGloss": "ROOT",
          "dependent": 2,
          "dependentGloss": "behauptet"
        },
        {
          "dep": "advmod",
          "governor": 2,
          "governorGloss": "behauptet",
          "dependent": 1,
          "dependentGloss": "ISIS"
        },
        {
          "dep": "nsubj",
          "governor": 2,
          "governorGloss": "behauptet",
          "dependent": 3,
          "dependentGloss": "es"
        },
        {
          "dep": "name",
          "governor": 6,
          "governorGloss": "Rosenberg",
          "dependent": 4,
          "dependentGloss": "Kidnapped"
        },
        {
          "dep": "name",
          "governor": 6,
          "governorGloss": "Rosenberg",
          "dependent": 5,
          "dependentGloss": "Gill"
        },
        {
          "dep": "dobj",
          "governor": 2,
          "governorGloss": "behauptet",
          "dependent": 6,
          "dependentGloss": "Rosenberg"
        },
        {
          "dep": "punct",
          "governor": 6,
          "governorGloss": "Rosenberg",
          "dependent": 7,
          "dependentGloss": ","
        },
        {
          "dep": "det",
          "governor": 11,
          "governorGloss": "Frau",
          "dependent": 8,
          "dependentGloss": "die"
        },
        {
          "dep": "amod",
          "governor": 11,
          "governorGloss": "Frau",
          "dependent": 9,
          "dependentGloss": "erste"
        },
        {
          "dep": "amod",
          "governor": 11,
          "governorGloss": "Frau",
          "dependent": 10,
          "dependentGloss": "westliche"
        },
        {
          "dep": "appos",
          "governor": 6,
          "governorGloss": "Rosenberg",
          "dependent": 11,
          "dependentGloss": "Frau"
        },
        {
          "dep": "punct",
          "governor": 11,
          "governorGloss": "Frau",
          "dependent": 12,
          "dependentGloss": ","
        },
        {
          "dep": "mark",
          "governor": 20,
          "governorGloss": "fallen",
          "dependent": 13,
          "dependentGloss": "um"
        },
        {
          "dep": "case",
          "governor": 16,
          "governorGloss": "Hände",
          "dependent": 14,
          "dependentGloss": "in"
        },
        {
          "dep": "det",
          "governor": 16,
          "governorGloss": "Hände",
          "dependent": 15,
          "dependentGloss": "die"
        },
        {
          "dep": "nmod",
          "governor": 20,
          "governorGloss": "fallen",
          "dependent": 16,
          "dependentGloss": "Hände"
        },
        {
          "dep": "det",
          "governor": 18,
          "governorGloss": "Gruppe",
          "dependent": 17,
          "dependentGloss": "der"
        },
        {
          "dep": "det",
          "governor": 16,
          "governorGloss": "Hände",
          "dependent": 18,
          "dependentGloss": "Gruppe"
        },
        {
          "dep": "aux",
          "governor": 20,
          "governorGloss": "fallen",
          "dependent": 19,
          "dependentGloss": "zu"
        },
        {
          "dep": "advcl",
          "governor": 11,
          "governorGloss": "Frau",
          "dependent": 20,
          "dependentGloss": "fallen"
        }
      ],
      "enhancedPlusPlusDependencies": [
        {
          "dep": "ROOT",
          "governor": 0,
          "governorGloss": "ROOT",
          "dependent": 2,
          "dependentGloss": "behauptet"
        },
        {
          "dep": "advmod",
          "governor": 2,
          "governorGloss": "behauptet",
          "dependent": 1,
          "dependentGloss": "ISIS"
        },
        {
          "dep": "nsubj",
          "governor": 2,
          "governorGloss": "behauptet",
          "dependent": 3,
          "dependentGloss": "es"
        },
        {
          "dep": "name",
          "governor": 6,
          "governorGloss": "Rosenberg",
          "dependent": 4,
          "dependentGloss": "Kidnapped"
        },
        {
          "dep": "name",
          "governor": 6,
          "governorGloss": "Rosenberg",
          "dependent": 5,
          "dependentGloss": "Gill"
        },
        {
          "dep": "dobj",
          "governor": 2,
          "governorGloss": "behauptet",
          "dependent": 6,
          "dependentGloss": "Rosenberg"
        },
        {
          "dep": "punct",
          "governor": 6,
          "governorGloss": "Rosenberg",
          "dependent": 7,
          "dependentGloss": ","
        },
        {
          "dep": "det",
          "governor": 11,
          "governorGloss": "Frau",
          "dependent": 8,
          "dependentGloss": "die"
        },
        {
          "dep": "amod",
          "governor": 11,
          "governorGloss": "Frau",
          "dependent": 9,
          "dependentGloss": "erste"
        },
        {
          "dep": "amod",
          "governor": 11,
          "governorGloss": "Frau",
          "dependent": 10,
          "dependentGloss": "westliche"
        },
        {
          "dep": "appos",
          "governor": 6,
          "governorGloss": "Rosenberg",
          "dependent": 11,
          "dependentGloss": "Frau"
        },
        {
          "dep": "punct",
          "governor": 11,
          "governorGloss": "Frau",
          "dependent": 12,
          "dependentGloss": ","
        },
        {
          "dep": "mark",
          "governor": 20,
          "governorGloss": "fallen",
          "dependent": 13,
          "dependentGloss": "um"
        },
        {
          "dep": "case",
          "governor": 16,
          "governorGloss": "Hände",
          "dependent": 14,
          "dependentGloss": "in"
        },
        {
          "dep": "det",
          "governor": 16,
          "governorGloss": "Hände",
          "dependent": 15,
          "dependentGloss": "die"
        },
        {
          "dep": "nmod",
          "governor": 20,
          "governorGloss": "fallen",
          "dependent": 16,
          "dependentGloss": "Hände"
        },
        {
          "dep": "det",
          "governor": 18,
          "governorGloss": "Gruppe",
          "dependent": 17,
          "dependentGloss": "der"
        },
        {
          "dep": "det",
          "governor": 16,
          "governorGloss": "Hände",
          "dependent": 18,
          "dependentGloss": "Gruppe"
        },
        {
          "dep": "aux",
          "governor": 20,
          "governorGloss": "fallen",
          "dependent": 19,
          "dependentGloss": "zu"
        },
        {
          "dep": "advcl",
          "governor": 11,
          "governorGloss": "Frau",
          "dependent": 20,
          "dependentGloss": "fallen"
        }
      ],
      "tokens": [
        {
          "index": 1,
          "word": "ISIS",
          "originalText": "ISIS",
          "characterOffsetBegin": 0,
          "characterOffsetEnd": 4,
          "pos": "NE",
          "before": "",
          "after": " "
        },
        {
          "index": 2,
          "word": "behauptet",
          "originalText": "behauptet",
          "characterOffsetBegin": 5,
          "characterOffsetEnd": 14,
          "pos": "VVFIN",
          "before": " ",
          "after": " "
        },
        {
          "index": 3,
          "word": "es",
          "originalText": "es",
          "characterOffsetBegin": 15,
          "characterOffsetEnd": 17,
          "pos": "PPER",
          "before": " ",
          "after": " "
        },
        {
          "index": 4,
          "word": "Kidnapped",
          "originalText": "Kidnapped",
          "characterOffsetBegin": 18,
          "characterOffsetEnd": 27,
          "pos": "NE",
          "before": " ",
          "after": " "
        },
        {
          "index": 5,
          "word": "Gill",
          "originalText": "Gill",
          "characterOffsetBegin": 28,
          "characterOffsetEnd": 32,
          "pos": "NE",
          "before": " ",
          "after": " "
        },
        {
          "index": 6,
          "word": "Rosenberg",
          "originalText": "Rosenberg",
          "characterOffsetBegin": 33,
          "characterOffsetEnd": 42,
          "pos": "NE",
          "before": " ",
          "after": ""
        },
        {
          "index": 7,
          "word": ",",
          "originalText": ",",
          "characterOffsetBegin": 42,
          "characterOffsetEnd": 43,
          "pos": "$,",
          "before": "",
          "after": " "
        },
        {
          "index": 8,
          "word": "die",
          "originalText": "die",
          "characterOffsetBegin": 44,
          "characterOffsetEnd": 47,
          "pos": "ART",
          "before": " ",
          "after": " "
        },
        {
          "index": 9,
          "word": "erste",
          "originalText": "erste",
          "characterOffsetBegin": 48,
          "characterOffsetEnd": 53,
          "pos": "ADJA",
          "before": " ",
          "after": " "
        },
        {
          "index": 10,
          "word": "westliche",
          "originalText": "westliche",
          "characterOffsetBegin": 54,
          "characterOffsetEnd": 63,
          "pos": "ADJA",
          "before": " ",
          "after": " "
        },
        {
          "index": 11,
          "word": "Frau",
          "originalText": "Frau",
          "characterOffsetBegin": 64,
          "characterOffsetEnd": 68,
          "pos": "NN",
          "before": " ",
          "after": ""
        },
        {
          "index": 12,
          "word": ",",
          "originalText": ",",
          "characterOffsetBegin": 68,
          "characterOffsetEnd": 69,
          "pos": "$,",
          "before": "",
          "after": " "
        },
        {
          "index": 13,
          "word": "um",
          "originalText": "um",
          "characterOffsetBegin": 70,
          "characterOffsetEnd": 72,
          "pos": "KOUI",
          "before": " ",
          "after": " "
        },
        {
          "index": 14,
          "word": "in",
          "originalText": "in",
          "characterOffsetBegin": 73,
          "characterOffsetEnd": 75,
          "pos": "APPR",
          "before": " ",
          "after": " "
        },
        {
          "index": 15,
          "word": "die",
          "originalText": "die",
          "characterOffsetBegin": 76,
          "characterOffsetEnd": 79,
          "pos": "ART",
          "before": " ",
          "after": " "
        },
        {
          "index": 16,
          "word": "Hände",
          "originalText": "Hände",
          "characterOffsetBegin": 80,
          "characterOffsetEnd": 85,
          "pos": "NN",
          "before": " ",
          "after": " "
        },
        {
          "index": 17,
          "word": "der",
          "originalText": "der",
          "characterOffsetBegin": 86,
          "characterOffsetEnd": 89,
          "pos": "ART",
          "before": " ",
          "after": " "
        },
        {
          "index": 18,
          "word": "Gruppe",
          "originalText": "Gruppe",
          "characterOffsetBegin": 90,
          "characterOffsetEnd": 96,
          "pos": "NN",
          "before": " ",
          "after": " "
        },
        {
          "index": 19,
          "word": "zu",
          "originalText": "zu",
          "characterOffsetBegin": 97,
          "characterOffsetEnd": 99,
          "pos": "PTKZU",
          "before": " ",
          "after": " "
        },
        {
          "index": 20,
          "word": "fallen",
          "originalText": "fallen",
          "characterOffsetBegin": 100,
          "characterOffsetEnd": 106,
          "pos": "VVINF",
          "before": " ",
          "after": ""
        }
      ]
    }
  ]
}