{
  "sentences": [
    {
      "index": 0,
      "basicDependencies": [
        {
          "dep": "ROOT",
          "governor": 0,
          "governorGloss": "ROOT",
          "dependent": 9,
          "dependentGloss": "Foley"
        },
        {
          "dep": "name",
          "governor": 2,
          "governorGloss": "Foley",
          "dependent": 1,
          "dependentGloss": "James"
        },
        {
          "dep": "nsubj",
          "governor": 9,
          "governorGloss": "Foley",
          "dependent": 2,
          "dependentGloss": "Foley"
        },
        {
          "dep": "punct",
          "governor": 2,
          "governorGloss": "Foley",
          "dependent": 3,
          "dependentGloss": ":"
        },
        {
          "dep": "name",
          "governor": 5,
          "governorGloss": "Journalist",
          "dependent": 4,
          "dependentGloss": "Amerikanischer"
        },
        {
          "dep": "appos",
          "governor": 2,
          "governorGloss": "Foley",
          "dependent": 5,
          "dependentGloss": "Journalist"
        },
        {
          "dep": "punct",
          "governor": 5,
          "governorGloss": "Journalist",
          "dependent": 6,
          "dependentGloss": ","
        },
        {
          "dep": "name",
          "governor": 8,
          "governorGloss": "Wright",
          "dependent": 7,
          "dependentGloss": "James"
        },
        {
          "dep": "appos",
          "governor": 5,
          "governorGloss": "Journalist",
          "dependent": 8,
          "dependentGloss": "Wright"
        },
        {
          "dep": "dobj",
          "governor": 9,
          "governorGloss": "Foley",
          "dependent": 10,
          "dependentGloss": "enthauptet"
        },
        {
          "dep": "case",
          "governor": 17,
          "governorGloss": "News",
          "dependent": 11,
          "dependentGloss": "in"
        },
        {
          "dep": "amod",
          "governor": 17,
          "governorGloss": "News",
          "dependent": 12,
          "dependentGloss": "neuem"
        },
        {
          "dep": "name",
          "governor": 17,
          "governorGloss": "News",
          "dependent": 13,
          "dependentGloss": "ISIS"
        },
        {
          "dep": "compound",
          "governor": 17,
          "governorGloss": "News",
          "dependent": 14,
          "dependentGloss": "Video"
        },
        {
          "dep": "amod",
          "governor": 17,
          "governorGloss": "News",
          "dependent": 15,
          "dependentGloss": "-LSB-"
        },
        {
          "dep": "amod",
          "governor": 17,
          "governorGloss": "News",
          "dependent": 16,
          "dependentGloss": "Breaking"
        },
        {
          "dep": "nmod",
          "governor": 10,
          "governorGloss": "enthauptet",
          "dependent": 17,
          "dependentGloss": "News"
        },
        {
          "dep": "punct",
          "governor": 9,
          "governorGloss": "Foley",
          "dependent": 18,
          "dependentGloss": "-RSB-"
        }
      ],
      "enhancedDependencies": [
        {
          "dep": "ROOT",
          "governor": 0,
          "governorGloss": "ROOT",
          "dependent": 9,
          "dependentGloss": "Foley"
        },
        {
          "dep": "name",
          "governor": 2,
          "governorGloss": "Foley",
          "dependent": 1,
          "dependentGloss": "James"
        },
        {
          "dep": "nsubj",
          "governor": 9,
          "governorGloss": "Foley",
          "dependent": 2,
          "dependentGloss": "Foley"
        },
        {
          "dep": "punct",
          "governor": 2,
          "governorGloss": "Foley",
          "dependent": 3,
          "dependentGloss": ":"
        },
        {
          "dep": "name",
          "governor": 5,
          "governorGloss": "Journalist",
          "dependent": 4,
          "dependentGloss": "Amerikanischer"
        },
        {
          "dep": "appos",
          "governor": 2,
          "governorGloss": "Foley",
          "dependent": 5,
          "dependentGloss": "Journalist"
        },
        {
          "dep": "punct",
          "governor": 5,
          "governorGloss": "Journalist",
          "dependent": 6,
          "dependentGloss": ","
        },
        {
          "dep": "name",
          "governor": 8,
          "governorGloss": "Wright",
          "dependent": 7,
          "dependentGloss": "James"
        },
        {
          "dep": "appos",
          "governor": 5,
          "governorGloss": "Journalist",
          "dependent": 8,
          "dependentGloss": "Wright"
        },
        {
          "dep": "dobj",
          "governor": 9,
          "governorGloss": "Foley",
          "dependent": 10,
          "dependentGloss": "enthauptet"
        },
        {
          "dep": "case",
          "governor": 17,
          "governorGloss": "News",
          "dependent": 11,
          "dependentGloss": "in"
        },
        {
          "dep": "amod",
          "governor": 17,
          "governorGloss": "News",
          "dependent": 12,
          "dependentGloss": "neuem"
        },
        {
          "dep": "name",
          "governor": 17,
          "governorGloss": "News",
          "dependent": 13,
          "dependentGloss": "ISIS"
        },
        {
          "dep": "compound",
          "governor": 17,
          "governorGloss": "News",
          "dependent": 14,
          "dependentGloss": "Video"
        },
        {
          "dep": "amod",
          "governor": 17,
          "governorGloss": "News",
          "dependent": 15,
          "dependentGloss": "-LSB-"
        },
        {
          "dep": "amod",
          "governor": 17,
          "governorGloss": "News",
          "dependent": 16,
          "dependentGloss": "Breaking"
        },
        {
          "dep": "nmod",
          "governor": 10,
          "governorGloss": "enthauptet",
          "dependent": 17,
          "dependentGloss": "News"
        },
        {
          "dep": "punct",
          "governor": 9,
          "governorGloss": "Foley",
          "dependent": 18,
          "dependentGloss": "-RSB-"
        }
      ],
      "enhancedPlusPlusDependencies": [
        {
          "dep": "ROOT",
          "governor": 0,
          "governorGloss": "ROOT",
          "dependent": 9,
          "dependentGloss": "Foley"
        },
        {
          "dep": "name",
          "governor": 2,
          "governorGloss": "Foley",
          "dependent": 1,
          "dependentGloss": "James"
        },
        {
          "dep": "nsubj",
          "governor": 9,
          "governorGloss": "Foley",
          "dependent": 2,
          "dependentGloss": "Foley"
        },
        {
          "dep": "punct",
          "governor": 2,
          "governorGloss": "Foley",
          "dependent": 3,
          "dependentGloss": ":"
        },
        {
          "dep": "name",
          "governor": 5,
          "governorGloss": "Journalist",
          "dependent": 4,
          "dependentGloss": "Amerikanischer"
        },
        {
          "dep": "appos",
          "governor": 2,
          "governorGloss": "Foley",
          "dependent": 5,
          "dependentGloss": "Journalist"
        },
        {
          "dep": "punct",
          "governor": 5,
          "governorGloss": "Journalist",
          "dependent": 6,
          "dependentGloss": ","
        },
        {
          "dep": "name",
          "governor": 8,
          "governorGloss": "Wright",
          "dependent": 7,
          "dependentGloss": "James"
        },
        {
          "dep": "appos",
          "governor": 5,
          "governorGloss": "Journalist",
          "dependent": 8,
          "dependentGloss": "Wright"
        },
        {
          "dep": "dobj",
          "governor": 9,
          "governorGloss": "Foley",
          "dependent": 10,
          "dependentGloss": "enthauptet"
        },
        {
          "dep": "case",
          "governor": 17,
          "governorGloss": "News",
          "dependent": 11,
          "dependentGloss": "in"
        },
        {
          "dep": "amod",
          "governor": 17,
          "governorGloss": "News",
          "dependent": 12,
          "dependentGloss": "neuem"
        },
        {
          "dep": "name",
          "governor": 17,
          "governorGloss": "News",
          "dependent": 13,
          "dependentGloss": "ISIS"
        },
        {
          "dep": "compound",
          "governor": 17,
          "governorGloss": "News",
          "dependent": 14,
          "dependentGloss": "Video"
        },
        {
          "dep": "amod",
          "governor": 17,
          "governorGloss": "News",
          "dependent": 15,
          "dependentGloss": "-LSB-"
        },
        {
          "dep": "amod",
          "governor": 17,
          "governorGloss": "News",
          "dependent": 16,
          "dependentGloss": "Breaking"
        },
        {
          "dep": "nmod",
          "governor": 10,
          "governorGloss": "enthauptet",
          "dependent": 17,
          "dependentGloss": "News"
        },
        {
          "dep": "punct",
          "governor": 9,
          "governorGloss": "Foley",
          "dependent": 18,
          "dependentGloss": "-RSB-"
        }
      ],
      "tokens": [
        {
          "index": 1,
          "word": "James",
          "originalText": "James",
          "characterOffsetBegin": 0,
          "characterOffsetEnd": 5,
          "pos": "NE",
          "before": "",
          "after": " "
        },
        {
          "index": 2,
          "word": "Foley",
          "originalText": "Foley",
          "characterOffsetBegin": 6,
          "characterOffsetEnd": 11,
          "pos": "NE",
          "before": " ",
          "after": ""
        },
        {
          "index": 3,
          "word": ":",
          "originalText": ":",
          "characterOffsetBegin": 11,
          "characterOffsetEnd": 12,
          "pos": "$.",
          "before": "",
          "after": " "
        },
        {
          "index": 4,
          "word": "Amerikanischer",
          "originalText": "Amerikanischer",
          "characterOffsetBegin": 13,
          "characterOffsetEnd": 27,
          "pos": "ADJA",
          "before": " ",
          "after": " "
        },
        {
          "index": 5,
          "word": "Journalist",
          "originalText": "Journalist",
          "characterOffsetBegin": 28,
          "characterOffsetEnd": 38,
          "pos": "NN",
          "before": " ",
          "after": ""
        },
        {
          "index": 6,
          "word": ",",
          "originalText": ",",
          "characterOffsetBegin": 38,
          "characterOffsetEnd": 39,
          "pos": "$,",
          "before": "",
          "after": " "
        },
        {
          "index": 7,
          "word": "James",
          "originalText": "James",
          "characterOffsetBegin": 40,
          "characterOffsetEnd": 45,
          "pos": "NE",
          "before": " ",
          "after": " "
        },
        {
          "index": 8,
          "word": "Wright",
          "originalText": "Wright",
          "characterOffsetBegin": 46,
          "characterOffsetEnd": 52,
          "pos": "NE",
          "before": " ",
          "after": " "
        },
        {
          "index": 9,
          "word": "Foley",
          "originalText": "Foley",
          "characterOffsetBegin": 53,
          "characterOffsetEnd": 58,
          "pos": "NE",
          "before": " ",
          "after": " "
        },
        {
          "index": 10,
          "word": "enthauptet",
          "originalText": "enthauptet",
          "characterOffsetBegin": 59,
          "characterOffsetEnd": 69,
          "pos": "VVPP",
          "before": " ",
          "after": " "
        },
        {
          "index": 11,
          "word": "in",
          "originalText": "in",
          "characterOffsetBegin": 70,
          "characterOffsetEnd": 72,
          "pos": "APPR",
          "before": " ",
          "after": " "
        },
        {
          "index": 12,
          "word": "neuem",
          "originalText": "neuem",
          "characterOffsetBegin": 73,
          "characterOffsetEnd": 78,
          "pos": "ADJA",
          "before": " ",
          "after": " "
        },
        {
          "index": 13,
          "word": "ISIS",
          "originalText": "ISIS",
          "characterOffsetBegin": 79,
          "characterOffsetEnd": 83,
          "pos": "NE",
          "before": " ",
          "after": " "
        },
        {
          "index": 14,
          "word": "Video",
          "originalText": "Video",
          "characterOffsetBegin": 84,
          "characterOffsetEnd": 89,
          "pos": "NN",
          "before": " ",
          "after": " "
        },
        {
          "index": 15,
          "word": "-LSB-",
          "originalText": "[",
          "characterOffsetBegin": 90,
          "characterOffsetEnd": 91,
          "pos": "TRUNC",
          "before": " ",
          "after": ""
        },
        {
          "index": 16,
          "word": "Breaking",
          "originalText": "Breaking",
          "characterOffsetBegin": 91,
          "characterOffsetEnd": 99,
          "pos": "FM",
          "before": "",
          "after": " "
        },
        {
          "index": 17,
          "word": "News",
          "originalText": "News",
          "characterOffsetBegin": 100,
          "characterOffsetEnd": 104,
          "pos": "FM",
          "before": " ",
          "after": ""
        },
        {
          "index": 18,
          "word": "-RSB-",
          "originalText": "]",
          "characterOffsetBegin": 104,
          "characterOffsetEnd": 105,
          "pos": "TRUNC",
          "before": "",
          "after": ""
        }
      ]
    }
  ]
}