{
  "sentences": [
    {
      "index": 0,
      "basicDependencies": [
        {
          "dep": "ROOT",
          "governor": 0,
          "governorGloss": "ROOT",
          "dependent": 2,
          "dependentGloss": "Fotos"
        },
        {
          "dep": "nsubj",
          "governor": 2,
          "governorGloss": "Fotos",
          "dependent": 1,
          "dependentGloss": "Surreale"
        },
        {
          "dep": "case",
          "governor": 6,
          "governorGloss": "Jaw-Dropping",
          "dependent": 3,
          "dependentGloss": "von"
        },
        {
          "dep": "det",
          "governor": 6,
          "governorGloss": "Jaw-Dropping",
          "dependent": 4,
          "dependentGloss": "Fisherman"
        },
        {
          "dep": "case",
          "governor": 4,
          "governorGloss": "Fisherman",
          "dependent": 5,
          "dependentGloss": "'s"
        },
        {
          "dep": "nmod",
          "governor": 7,
          "governorGloss": "Catch",
          "dependent": 6,
          "dependentGloss": "Jaw-Dropping"
        },
        {
          "dep": "acl",
          "governor": 11,
          "governorGloss": "Worte",
          "dependent": 7,
          "dependentGloss": "Catch"
        },
        {
          "dep": "cop",
          "governor": 7,
          "governorGloss": "Catch",
          "dependent": 8,
          "dependentGloss": "wird"
        },
        {
          "dep": "advmod",
          "governor": 7,
          "governorGloss": "Catch",
          "dependent": 9,
          "dependentGloss": "wahrscheinlich"
        },
        {
          "dep": "aux",
          "governor": 11,
          "governorGloss": "Worte",
          "dependent": 10,
          "dependentGloss": "haben"
        },
        {
          "dep": "dobj",
          "governor": 2,
          "governorGloss": "Fotos",
          "dependent": 11,
          "dependentGloss": "Worte"
        },
        {
          "dep": "punct",
          "governor": 2,
          "governorGloss": "Fotos",
          "dependent": 12,
          "dependentGloss": ","
        },
        {
          "dep": "mark",
          "governor": 15,
          "governorGloss": "real",
          "dependent": 13,
          "dependentGloss": "wenn"
        },
        {
          "dep": "nsubj",
          "governor": 15,
          "governorGloss": "real",
          "dependent": 14,
          "dependentGloss": "es"
        },
        {
          "dep": "advcl",
          "governor": 2,
          "governorGloss": "Fotos",
          "dependent": 15,
          "dependentGloss": "real"
        },
        {
          "dep": "cop",
          "governor": 15,
          "governorGloss": "real",
          "dependent": 16,
          "dependentGloss": "ist"
        }
      ],
      "enhancedDependencies": [
        {
          "dep": "ROOT",
          "governor": 0,
          "governorGloss": "ROOT",
          "dependent": 2,
          "dependentGloss": "Fotos"
        },
        {
          "dep": "nsubj",
          "governor": 2,
          "governorGloss": "Fotos",
          "dependent": 1,
          "dependentGloss": "Surreale"
        },
        {
          "dep": "case",
          "governor": 6,
          "governorGloss": "Jaw-Dropping",
          "dependent": 3,
          "dependentGloss": "von"
        },
        {
          "dep": "det",
          "governor": 6,
          "governorGloss": "Jaw-Dropping",
          "dependent": 4,
          "dependentGloss": "Fisherman"
        },
        {
          "dep": "case",
          "governor": 4,
          "governorGloss": "Fisherman",
          "dependent": 5,
          "dependentGloss": "'s"
        },
        {
          "dep": "nmod",
          "governor": 7,
          "governorGloss": "Catch",
          "dependent": 6,
          "dependentGloss": "Jaw-Dropping"
        },
        {
          "dep": "acl",
          "governor": 11,
          "governorGloss": "Worte",
          "dependent": 7,
          "dependentGloss": "Catch"
        },
        {
          "dep": "cop",
          "governor": 7,
          "governorGloss": "Catch",
          "dependent": 8,
          "dependentGloss": "wird"
        },
        {
          "dep": "advmod",
          "governor": 7,
          "governorGloss": "Catch",
          "dependent": 9,
          "dependentGloss": "wahrscheinlich"
        },
        {
          "dep": "aux",
          "governor": 11,
          "governorGloss": "Worte",
          "dependent": 10,
          "dependentGloss": "haben"
        },
        {
          "dep": "dobj",
          "governor": 2,
          "governorGloss": "Fotos",
          "dependent": 11,
          "dependentGloss": "Worte"
        },
        {
          "dep": "punct",
          "governor": 2,
          "governorGloss": "Fotos",
          "dependent": 12,
          "dependentGloss": ","
        },
        {
          "dep": "mark",
          "governor": 15,
          "governorGloss": "real",
          "dependent": 13,
          "dependentGloss": "wenn"
        },
        {
          "dep": "nsubj",
          "governor": 15,
          "governorGloss": "real",
          "dependent": 14,
          "dependentGloss": "es"
        },
        {
          "dep": "advcl",
          "governor": 2,
          "governorGloss": "Fotos",
          "dependent": 15,
          "dependentGloss": "real"
        },
        {
          "dep": "cop",
          "governor": 15,
          "governorGloss": "real",
          "dependent": 16,
          "dependentGloss": "ist"
        }
      ],
      "enhancedPlusPlusDependencies": [
        {
          "dep": "ROOT",
          "governor": 0,
          "governorGloss": "ROOT",
          "dependent": 2,
          "dependentGloss": "Fotos"
        },
        {
          "dep": "nsubj",
          "governor": 2,
          "governorGloss": "Fotos",
          "dependent": 1,
          "dependentGloss": "Surreale"
        },
        {
          "dep": "case",
          "governor": 6,
          "governorGloss": "Jaw-Dropping",
          "dependent": 3,
          "dependentGloss": "von"
        },
        {
          "dep": "det",
          "governor": 6,
          "governorGloss": "Jaw-Dropping",
          "dependent": 4,
          "dependentGloss": "Fisherman"
        },
        {
          "dep": "case",
          "governor": 4,
          "governorGloss": "Fisherman",
          "dependent": 5,
          "dependentGloss": "'s"
        },
        {
          "dep": "nmod",
          "governor": 7,
          "governorGloss": "Catch",
          "dependent": 6,
          "dependentGloss": "Jaw-Dropping"
        },
        {
          "dep": "acl",
          "governor": 11,
          "governorGloss": "Worte",
          "dependent": 7,
          "dependentGloss": "Catch"
        },
        {
          "dep": "cop",
          "governor": 7,
          "governorGloss": "Catch",
          "dependent": 8,
          "dependentGloss": "wird"
        },
        {
          "dep": "advmod",
          "governor": 7,
          "governorGloss": "Catch",
          "dependent": 9,
          "dependentGloss": "wahrscheinlich"
        },
        {
          "dep": "aux",
          "governor": 11,
          "governorGloss": "Worte",
          "dependent": 10,
          "dependentGloss": "haben"
        },
        {
          "dep": "dobj",
          "governor": 2,
          "governorGloss": "Fotos",
          "dependent": 11,
          "dependentGloss": "Worte"
        },
        {
          "dep": "punct",
          "governor": 2,
          "governorGloss": "Fotos",
          "dependent": 12,
          "dependentGloss": ","
        },
        {
          "dep": "mark",
          "governor": 15,
          "governorGloss": "real",
          "dependent": 13,
          "dependentGloss": "wenn"
        },
        {
          "dep": "nsubj",
          "governor": 15,
          "governorGloss": "real",
          "dependent": 14,
          "dependentGloss": "es"
        },
        {
          "dep": "advcl",
          "governor": 2,
          "governorGloss": "Fotos",
          "dependent": 15,
          "dependentGloss": "real"
        },
        {
          "dep": "cop",
          "governor": 15,
          "governorGloss": "real",
          "dependent": 16,
          "dependentGloss": "ist"
        }
      ],
      "tokens": [
        {
          "index": 1,
          "word": "Surreale",
          "originalText": "Surreale",
          "characterOffsetBegin": 0,
          "characterOffsetEnd": 8,
          "pos": "ADJA",
          "before": "",
          "after": " "
        },
        {
          "index": 2,
          "word": "Fotos",
          "originalText": "Fotos",
          "characterOffsetBegin": 9,
          "characterOffsetEnd": 14,
          "pos": "NN",
          "before": " ",
          "after": " "
        },
        {
          "index": 3,
          "word": "von",
          "originalText": "von",
          "characterOffsetBegin": 15,
          "characterOffsetEnd": 18,
          "pos": "APPR",
          "before": " ",
          "after": " "
        },
        {
          "index": 4,
          "word": "Fisherman",
          "originalText": "Fisherman",
          "characterOffsetBegin": 19,
          "characterOffsetEnd": 28,
          "pos": "NE",
          "before": " ",
          "after": ""
        },
        {
          "index": 5,
          "word": "'s",
          "originalText": "'s",
          "characterOffsetBegin": 28,
          "characterOffsetEnd": 30,
          "pos": "PPER",
          "before": "",
          "after": " "
        },
        {
          "index": 6,
          "word": "Jaw-Dropping",
          "originalText": "Jaw-Dropping",
          "characterOffsetBegin": 31,
          "characterOffsetEnd": 43,
          "pos": "NE",
          "before": " ",
          "after": " "
        },
        {
          "index": 7,
          "word": "Catch",
          "originalText": "Catch",
          "characterOffsetBegin": 44,
          "characterOffsetEnd": 49,
          "pos": "NE",
          "before": " ",
          "after": " "
        },
        {
          "index": 8,
          "word": "wird",
          "originalText": "wird",
          "characterOffsetBegin": 50,
          "characterOffsetEnd": 54,
          "pos": "VAFIN",
          "before": " ",
          "after": " "
        },
        {
          "index": 9,
          "word": "wahrscheinlich",
          "originalText": "wahrscheinlich",
          "characterOffsetBegin": 55,
          "characterOffsetEnd": 69,
          "pos": "ADJD",
          "before": " ",
          "after": " "
        },
        {
          "index": 10,
          "word": "haben",
          "originalText": "haben",
          "characterOffsetBegin": 70,
          "characterOffsetEnd": 75,
          "pos": "VAFIN",
          "before": " ",
          "after": " "
        },
        {
          "index": 11,
          "word": "Worte",
          "originalText": "Worte",
          "characterOffsetBegin": 76,
          "characterOffsetEnd": 81,
          "pos": "NN",
          "before": " ",
          "after": ""
        },
        {
          "index": 12,
          "word": ",",
          "originalText": ",",
          "characterOffsetBegin": 81,
          "characterOffsetEnd": 82,
          "pos": "$,",
          "before": "",
          "after": " "
        },
        {
          "index": 13,
          "word": "wenn",
          "originalText": "wenn",
          "characterOffsetBegin": 83,
          "characterOffsetEnd": 87,
          "pos": "KOUS",
          "before": " ",
          "after": " "
        },
        {
          "index": 14,
          "word": "es",
          "originalText": "es",
          "characterOffsetBegin": 88,
          "characterOffsetEnd": 90,
          "pos": "PPER",
          "before": " ",
          "after": " "
        },
        {
          "index": 15,
          "word": "real",
          "originalText": "real",
          "characterOffsetBegin": 91,
          "characterOffsetEnd": 95,
          "pos": "ADJD",
          "before": " ",
          "after": " "
        },
        {
          "index": 16,
          "word": "ist",
          "originalText": "ist",
          "characterOffsetBegin": 96,
          "characterOffsetEnd": 99,
          "pos": "VAFIN",
          "before": " ",
          "after": ""
        }
      ]
    }
  ]
}