{
  "sentences": [
    {
      "index": 0,
      "basicDependencies": [
        {
          "dep": "ROOT",
          "governor": 0,
          "governorGloss": "ROOT",
          "dependent": 4,
          "dependentGloss": "gibt"
        },
        {
          "dep": "appos",
          "governor": 4,
          "governorGloss": "gibt",
          "dependent": 1,
          "dependentGloss": "Nein"
        },
        {
          "dep": "punct",
          "governor": 4,
          "governorGloss": "gibt",
          "dependent": 2,
          "dependentGloss": ","
        },
        {
          "dep": "expl",
          "governor": 4,
          "governorGloss": "gibt",
          "dependent": 3,
          "dependentGloss": "es"
        },
        {
          "dep": "neg",
          "governor": 6,
          "governorGloss": "Ebola-Fälle",
          "dependent": 5,
          "dependentGloss": "keine"
        },
        {
          "dep": "nsubj",
          "governor": 4,
          "governorGloss": "gibt",
          "dependent": 6,
          "dependentGloss": "Ebola-Fälle"
        },
        {
          "dep": "amod",
          "governor": 8,
          "governorGloss": "Irak",
          "dependent": 7,
          "dependentGloss": "im"
        },
        {
          "dep": "appos",
          "governor": 6,
          "governorGloss": "Ebola-Fälle",
          "dependent": 8,
          "dependentGloss": "Irak"
        }
      ],
      "enhancedDependencies": [
        {
          "dep": "ROOT",
          "governor": 0,
          "governorGloss": "ROOT",
          "dependent": 4,
          "dependentGloss": "gibt"
        },
        {
          "dep": "appos",
          "governor": 4,
          "governorGloss": "gibt",
          "dependent": 1,
          "dependentGloss": "Nein"
        },
        {
          "dep": "punct",
          "governor": 4,
          "governorGloss": "gibt",
          "dependent": 2,
          "dependentGloss": ","
        },
        {
          "dep": "expl",
          "governor": 4,
          "governorGloss": "gibt",
          "dependent": 3,
          "dependentGloss": "es"
        },
        {
          "dep": "neg",
          "governor": 6,
          "governorGloss": "Ebola-Fälle",
          "dependent": 5,
          "dependentGloss": "keine"
        },
        {
          "dep": "nsubj",
          "governor": 4,
          "governorGloss": "gibt",
          "dependent": 6,
          "dependentGloss": "Ebola-Fälle"
        },
        {
          "dep": "amod",
          "governor": 8,
          "governorGloss": "Irak",
          "dependent": 7,
          "dependentGloss": "im"
        },
        {
          "dep": "appos",
          "governor": 6,
          "governorGloss": "Ebola-Fälle",
          "dependent": 8,
          "dependentGloss": "Irak"
        }
      ],
      "enhancedPlusPlusDependencies": [
        {
          "dep": "ROOT",
          "governor": 0,
          "governorGloss": "ROOT",
          "dependent": 4,
          "dependentGloss": "gibt"
        },
        {
          "dep": "appos",
          "governor": 4,
          "governorGloss": "gibt",
          "dependent": 1,
          "dependentGloss": "Nein"
        },
        {
          "dep": "punct",
          "governor": 4,
          "governorGloss": "gibt",
          "dependent": 2,
          "dependentGloss": ","
        },
        {
          "dep": "expl",
          "governor": 4,
          "governorGloss": "gibt",
          "dependent": 3,
          "dependentGloss": "es"
        },
        {
          "dep": "neg",
          "governor": 6,
          "governorGloss": "Ebola-Fälle",
          "dependent": 5,
          "dependentGloss": "keine"
        },
        {
          "dep": "nsubj",
          "governor": 4,
          "governorGloss": "gibt",
          "dependent": 6,
          "dependentGloss": "Ebola-Fälle"
        },
        {
          "dep": "amod",
          "governor": 8,
          "governorGloss": "Irak",
          "dependent": 7,
          "dependentGloss": "im"
        },
        {
          "dep": "appos",
          "governor": 6,
          "governorGloss": "Ebola-Fälle",
          "dependent": 8,
          "dependentGloss": "Irak"
        }
      ],
      "tokens": [
        {
          "index": 1,
          "word": "Nein",
          "originalText": "Nein",
          "characterOffsetBegin": 0,
          "characterOffsetEnd": 4,
          "pos": "PTKANT",
          "before": "",
          "after": ""
        },
        {
          "index": 2,
          "word": ",",
          "originalText": ",",
          "characterOffsetBegin": 4,
          "characterOffsetEnd": 5,
          "pos": "$,",
          "before": "",
          "after": " "
        },
        {
          "index": 3,
          "word": "es",
          "originalText": "es",
          "characterOffsetBegin": 6,
          "characterOffsetEnd": 8,
          "pos": "PPER",
          "before": " ",
          "after": " "
        },
        {
          "index": 4,
          "word": "gibt",
          "originalText": "gibt",
          "characterOffsetBegin": 9,
          "characterOffsetEnd": 13,
          "pos": "VVFIN",
          "before": " ",
          "after": " "
        },
        {
          "index": 5,
          "word": "keine",
          "originalText": "keine",
          "characterOffsetBegin": 14,
          "characterOffsetEnd": 19,
          "pos": "PIAT",
          "before": " ",
          "after": " "
        },
        {
          "index": 6,
          "word": "Ebola-Fälle",
          "originalText": "Ebola-Fälle",
          "characterOffsetBegin": 20,
          "characterOffsetEnd": 31,
          "pos": "NN",
          "before": " ",
          "after": " "
        },
        {
          "index": 7,
          "word": "im",
          "originalText": "im",
          "characterOffsetBegin": 32,
          "characterOffsetEnd": 34,
          "pos": "APPRART",
          "before": " ",
          "after": " "
        },
        {
          "index": 8,
          "word": "Irak",
          "originalText": "Irak",
          "characterOffsetBegin": 35,
          "characterOffsetEnd": 39,
          "pos": "NE",
          "before": " ",
          "after": ""
        }
      ]
    }
  ]
}