{
  "sentences": [
    {
      "index": 0,
      "basicDependencies": [
        {
          "dep": "ROOT",
          "governor": 0,
          "governorGloss": "ROOT",
          "dependent": 9,
          "dependentGloss": "freigeben"
        },
        {
          "dep": "nsubj",
          "governor": 2,
          "governorGloss": "behauptet",
          "dependent": 1,
          "dependentGloss": "Nigeria"
        },
        {
          "dep": "advcl",
          "governor": 9,
          "governorGloss": "freigeben",
          "dependent": 2,
          "dependentGloss": "behauptet"
        },
        {
          "dep": "amod",
          "governor": 4,
          "governorGloss": "Haram",
          "dependent": 3,
          "dependentGloss": "Boko"
        },
        {
          "dep": "dobj",
          "governor": 2,
          "governorGloss": "behauptet",
          "dependent": 4,
          "dependentGloss": "Haram"
        },
        {
          "dep": "auxpass",
          "governor": 9,
          "governorGloss": "freigeben",
          "dependent": 5,
          "dependentGloss": "wird"
        },
        {
          "dep": "det",
          "governor": 8,
          "governorGloss": "Schulmädchen",
          "dependent": 6,
          "dependentGloss": "die"
        },
        {
          "dep": "amod",
          "governor": 8,
          "governorGloss": "Schulmädchen",
          "dependent": 7,
          "dependentGloss": "entführten"
        },
        {
          "dep": "nsubjpass",
          "governor": 9,
          "governorGloss": "freigeben",
          "dependent": 8,
          "dependentGloss": "Schulmädchen"
        }
      ],
      "enhancedDependencies": [
        {
          "dep": "ROOT",
          "governor": 0,
          "governorGloss": "ROOT",
          "dependent": 9,
          "dependentGloss": "freigeben"
        },
        {
          "dep": "nsubj",
          "governor": 2,
          "governorGloss": "behauptet",
          "dependent": 1,
          "dependentGloss": "Nigeria"
        },
        {
          "dep": "advcl",
          "governor": 9,
          "governorGloss": "freigeben",
          "dependent": 2,
          "dependentGloss": "behauptet"
        },
        {
          "dep": "amod",
          "governor": 4,
          "governorGloss": "Haram",
          "dependent": 3,
          "dependentGloss": "Boko"
        },
        {
          "dep": "dobj",
          "governor": 2,
          "governorGloss": "behauptet",
          "dependent": 4,
          "dependentGloss": "Haram"
        },
        {
          "dep": "auxpass",
          "governor": 9,
          "governorGloss": "freigeben",
          "dependent": 5,
          "dependentGloss": "wird"
        },
        {
          "dep": "det",
          "governor": 8,
          "governorGloss": "Schulmädchen",
          "dependent": 6,
          "dependentGloss": "die"
        },
        {
          "dep": "amod",
          "governor": 8,
          "governorGloss": "Schulmädchen",
          "dependent": 7,
          "dependentGloss": "entführten"
        },
        {
          "dep": "nsubjpass",
          "governor": 9,
          "governorGloss": "freigeben",
          "dependent": 8,
          "dependentGloss": "Schulmädchen"
        }
      ],
      "enhancedPlusPlusDependencies": [
        {
          "dep": "ROOT",
          "governor": 0,
          "governorGloss": "ROOT",
          "dependent": 9,
          "dependentGloss": "freigeben"
        },
        {
          "dep": "nsubj",
          "governor": 2,
          "governorGloss": "behauptet",
          "dependent": 1,
          "dependentGloss": "Nigeria"
        },
        {
          "dep": "advcl",
          "governor": 9,
          "governorGloss": "freigeben",
          "dependent": 2,
          "dependentGloss": "behauptet"
        },
        {
          "dep": "amod",
          "governor": 4,
          "governorGloss": "Haram",
          "dependent": 3,
          "dependentGloss": "Boko"
        },
        {
          "dep": "dobj",
          "governor": 2,
          "governorGloss": "behauptet",
          "dependent": 4,
          "dependentGloss": "Haram"
        },
        {
          "dep": "auxpass",
          "governor": 9,
          "governorGloss": "freigeben",
          "dependent": 5,
          "dependentGloss": "wird"
        },
        {
          "dep": "det",
          "governor": 8,
          "governorGloss": "Schulmädchen",
          "dependent": 6,
          "dependentGloss": "die"
        },
        {
          "dep": "amod",
          "governor": 8,
          "governorGloss": "Schulmädchen",
          "dependent": 7,
          "dependentGloss": "entführten"
        },
        {
          "dep": "nsubjpass",
          "governor": 9,
          "governorGloss": "freigeben",
          "dependent": 8,
          "dependentGloss": "Schulmädchen"
        }
      ],
      "tokens": [
        {
          "index": 1,
          "word": "Nigeria",
          "originalText": "Nigeria",
          "characterOffsetBegin": 0,
          "characterOffsetEnd": 7,
          "pos": "NE",
          "before": "",
          "after": " "
        },
        {
          "index": 2,
          "word": "behauptet",
          "originalText": "behauptet",
          "characterOffsetBegin": 8,
          "characterOffsetEnd": 17,
          "pos": "VVFIN",
          "before": " ",
          "after": " "
        },
        {
          "index": 3,
          "word": "Boko",
          "originalText": "Boko",
          "characterOffsetBegin": 18,
          "characterOffsetEnd": 22,
          "pos": "NE",
          "before": " ",
          "after": " "
        },
        {
          "index": 4,
          "word": "Haram",
          "originalText": "Haram",
          "characterOffsetBegin": 23,
          "characterOffsetEnd": 28,
          "pos": "NE",
          "before": " ",
          "after": " "
        },
        {
          "index": 5,
          "word": "wird",
          "originalText": "wird",
          "characterOffsetBegin": 29,
          "characterOffsetEnd": 33,
          "pos": "VAFIN",
          "before": " ",
          "after": " "
        },
        {
          "index": 6,
          "word": "die",
          "originalText": "die",
          "characterOffsetBegin": 34,
          "characterOffsetEnd": 37,
          "pos": "ART",
          "before": " ",
          "after": " "
        },
        {
          "index": 7,
          "word": "entführten",
          "originalText": "entführten",
          "characterOffsetBegin": 38,
          "characterOffsetEnd": 48,
          "pos": "ADJA",
          "before": " ",
          "after": " "
        },
        {
          "index": 8,
          "word": "Schulmädchen",
          "originalText": "Schulmädchen",
          "characterOffsetBegin": 49,
          "characterOffsetEnd": 61,
          "pos": "NN",
          "before": " ",
          "after": " "
        },
        {
          "index": 9,
          "word": "freigeben",
          "originalText": "freigeben",
          "characterOffsetBegin": 62,
          "characterOffsetEnd": 71,
          "pos": "VVFIN",
          "before": " ",
          "after": ""
        }
      ]
    }
  ]
}