{
  "sentences": [
    {
      "index": 0,
      "basicDependencies": [
        {
          "dep": "ROOT",
          "governor": 0,
          "governorGloss": "ROOT",
          "dependent": 4,
          "dependentGloss": "Möglichkeit"
        },
        {
          "dep": "nsubj",
          "governor": 4,
          "governorGloss": "Möglichkeit",
          "dependent": 1,
          "dependentGloss": "Das"
        },
        {
          "dep": "cop",
          "governor": 4,
          "governorGloss": "Möglichkeit",
          "dependent": 2,
          "dependentGloss": "ist"
        },
        {
          "dep": "det",
          "governor": 4,
          "governorGloss": "Möglichkeit",
          "dependent": 3,
          "dependentGloss": "eine"
        },
        {
          "dep": "punct",
          "governor": 4,
          "governorGloss": "Möglichkeit",
          "dependent": 5,
          "dependentGloss": ","
        },
        {
          "dep": "expl",
          "governor": 8,
          "governorGloss": "reinigen",
          "dependent": 6,
          "dependentGloss": "es"
        },
        {
          "dep": "aux",
          "governor": 8,
          "governorGloss": "reinigen",
          "dependent": 7,
          "dependentGloss": "zu"
        },
        {
          "dep": "parataxis",
          "governor": 4,
          "governorGloss": "Möglichkeit",
          "dependent": 8,
          "dependentGloss": "reinigen"
        },
        {
          "dep": "punct",
          "governor": 8,
          "governorGloss": "reinigen",
          "dependent": 9,
          "dependentGloss": ":"
        },
        {
          "dep": "det",
          "governor": 11,
          "governorGloss": "Watch",
          "dependent": 10,
          "dependentGloss": "Apple"
        },
        {
          "dep": "dobj",
          "governor": 20,
          "governorGloss": "überleben",
          "dependent": 11,
          "dependentGloss": "Watch"
        },
        {
          "dep": "aux",
          "governor": 20,
          "governorGloss": "überleben",
          "dependent": 12,
          "dependentGloss": "wird"
        },
        {
          "dep": "iobj",
          "governor": 20,
          "governorGloss": "überleben",
          "dependent": 13,
          "dependentGloss": "Berichten"
        },
        {
          "dep": "advmod",
          "governor": 20,
          "governorGloss": "überleben",
          "dependent": 14,
          "dependentGloss": "zufolge"
        },
        {
          "dep": "det",
          "governor": 16,
          "governorGloss": "Reise",
          "dependent": 15,
          "dependentGloss": "eine"
        },
        {
          "dep": "dobj",
          "governor": 20,
          "governorGloss": "überleben",
          "dependent": 16,
          "dependentGloss": "Reise"
        },
        {
          "dep": "case",
          "governor": 19,
          "governorGloss": "Dusche",
          "dependent": 17,
          "dependentGloss": "durch"
        },
        {
          "dep": "det",
          "governor": 19,
          "governorGloss": "Dusche",
          "dependent": 18,
          "dependentGloss": "die"
        },
        {
          "dep": "nmod",
          "governor": 16,
          "governorGloss": "Reise",
          "dependent": 19,
          "dependentGloss": "Dusche"
        },
        {
          "dep": "parataxis",
          "governor": 8,
          "governorGloss": "reinigen",
          "dependent": 20,
          "dependentGloss": "überleben"
        }
      ],
      "enhancedDependencies": [
        {
          "dep": "ROOT",
          "governor": 0,
          "governorGloss": "ROOT",
          "dependent": 4,
          "dependentGloss": "Möglichkeit"
        },
        {
          "dep": "nsubj",
          "governor": 4,
          "governorGloss": "Möglichkeit",
          "dependent": 1,
          "dependentGloss": "Das"
        },
        {
          "dep": "cop",
          "governor": 4,
          "governorGloss": "Möglichkeit",
          "dependent": 2,
          "dependentGloss": "ist"
        },
        {
          "dep": "det",
          "governor": 4,
          "governorGloss": "Möglichkeit",
          "dependent": 3,
          "dependentGloss": "eine"
        },
        {
          "dep": "punct",
          "governor": 4,
          "governorGloss": "Möglichkeit",
          "dependent": 5,
          "dependentGloss": ","
        },
        {
          "dep": "expl",
          "governor": 8,
          "governorGloss": "reinigen",
          "dependent": 6,
          "dependentGloss": "es"
        },
        {
          "dep": "aux",
          "governor": 8,
          "governorGloss": "reinigen",
          "dependent": 7,
          "dependentGloss": "zu"
        },
        {
          "dep": "parataxis",
          "governor": 4,
          "governorGloss": "Möglichkeit",
          "dependent": 8,
          "dependentGloss": "reinigen"
        },
        {
          "dep": "punct",
          "governor": 8,
          "governorGloss": "reinigen",
          "dependent": 9,
          "dependentGloss": ":"
        },
        {
          "dep": "det",
          "governor": 11,
          "governorGloss": "Watch",
          "dependent": 10,
          "dependentGloss": "Apple"
        },
        {
          "dep": "dobj",
          "governor": 20,
          "governorGloss": "überleben",
          "dependent": 11,
          "dependentGloss": "Watch"
        },
        {
          "dep": "aux",
          "governor": 20,
          "governorGloss": "überleben",
          "dependent": 12,
          "dependentGloss": "wird"
        },
        {
          "dep": "iobj",
          "governor": 20,
          "governorGloss": "überleben",
          "dependent": 13,
          "dependentGloss": "Berichten"
        },
        {
          "dep": "advmod",
          "governor": 20,
          "governorGloss": "überleben",
          "dependent": 14,
          "dependentGloss": "zufolge"
        },
        {
          "dep": "det",
          "governor": 16,
          "governorGloss": "Reise",
          "dependent": 15,
          "dependentGloss": "eine"
        },
        {
          "dep": "dobj",
          "governor": 20,
          "governorGloss": "überleben",
          "dependent": 16,
          "dependentGloss": "Reise"
        },
        {
          "dep": "case",
          "governor": 19,
          "governorGloss": "Dusche",
          "dependent": 17,
          "dependentGloss": "durch"
        },
        {
          "dep": "det",
          "governor": 19,
          "governorGloss": "Dusche",
          "dependent": 18,
          "dependentGloss": "die"
        },
        {
          "dep": "nmod",
          "governor": 16,
          "governorGloss": "Reise",
          "dependent": 19,
          "dependentGloss": "Dusche"
        },
        {
          "dep": "parataxis",
          "governor": 8,
          "governorGloss": "reinigen",
          "dependent": 20,
          "dependentGloss": "überleben"
        }
      ],
      "enhancedPlusPlusDependencies": [
        {
          "dep": "ROOT",
          "governor": 0,
          "governorGloss": "ROOT",
          "dependent": 4,
          "dependentGloss": "Möglichkeit"
        },
        {
          "dep": "nsubj",
          "governor": 4,
          "governorGloss": "Möglichkeit",
          "dependent": 1,
          "dependentGloss": "Das"
        },
        {
          "dep": "cop",
          "governor": 4,
          "governorGloss": "Möglichkeit",
          "dependent": 2,
          "dependentGloss": "ist"
        },
        {
          "dep": "det",
          "governor": 4,
          "governorGloss": "Möglichkeit",
          "dependent": 3,
          "dependentGloss": "eine"
        },
        {
          "dep": "punct",
          "governor": 4,
          "governorGloss": "Möglichkeit",
          "dependent": 5,
          "dependentGloss": ","
        },
        {
          "dep": "expl",
          "governor": 8,
          "governorGloss": "reinigen",
          "dependent": 6,
          "dependentGloss": "es"
        },
        {
          "dep": "aux",
          "governor": 8,
          "governorGloss": "reinigen",
          "dependent": 7,
          "dependentGloss": "zu"
        },
        {
          "dep": "parataxis",
          "governor": 4,
          "governorGloss": "Möglichkeit",
          "dependent": 8,
          "dependentGloss": "reinigen"
        },
        {
          "dep": "punct",
          "governor": 8,
          "governorGloss": "reinigen",
          "dependent": 9,
          "dependentGloss": ":"
        },
        {
          "dep": "det",
          "governor": 11,
          "governorGloss": "Watch",
          "dependent": 10,
          "dependentGloss": "Apple"
        },
        {
          "dep": "dobj",
          "governor": 20,
          "governorGloss": "überleben",
          "dependent": 11,
          "dependentGloss": "Watch"
        },
        {
          "dep": "aux",
          "governor": 20,
          "governorGloss": "überleben",
          "dependent": 12,
          "dependentGloss": "wird"
        },
        {
          "dep": "iobj",
          "governor": 20,
          "governorGloss": "überleben",
          "dependent": 13,
          "dependentGloss": "Berichten"
        },
        {
          "dep": "advmod",
          "governor": 20,
          "governorGloss": "überleben",
          "dependent": 14,
          "dependentGloss": "zufolge"
        },
        {
          "dep": "det",
          "governor": 16,
          "governorGloss": "Reise",
          "dependent": 15,
          "dependentGloss": "eine"
        },
        {
          "dep": "dobj",
          "governor": 20,
          "governorGloss": "überleben",
          "dependent": 16,
          "dependentGloss": "Reise"
        },
        {
          "dep": "case",
          "governor": 19,
          "governorGloss": "Dusche",
          "dependent": 17,
          "dependentGloss": "durch"
        },
        {
          "dep": "det",
          "governor": 19,
          "governorGloss": "Dusche",
          "dependent": 18,
          "dependentGloss": "die"
        },
        {
          "dep": "nmod",
          "governor": 16,
          "governorGloss": "Reise",
          "dependent": 19,
          "dependentGloss": "Dusche"
        },
        {
          "dep": "parataxis",
          "governor": 8,
          "governorGloss": "reinigen",
          "dependent": 20,
          "dependentGloss": "überleben"
        }
      ],
      "tokens": [
        {
          "index": 1,
          "word": "Das",
          "originalText": "Das",
          "characterOffsetBegin": 0,
          "characterOffsetEnd": 3,
          "pos": "PDS",
          "before": "",
          "after": " "
        },
        {
          "index": 2,
          "word": "ist",
          "originalText": "ist",
          "characterOffsetBegin": 4,
          "characterOffsetEnd": 7,
          "pos": "VAFIN",
          "before": " ",
          "after": " "
        },
        {
          "index": 3,
          "word": "eine",
          "originalText": "eine",
          "characterOffsetBegin": 8,
          "characterOffsetEnd": 12,
          "pos": "ART",
          "before": " ",
          "after": " "
        },
        {
          "index": 4,
          "word": "Möglichkeit",
          "originalText": "Möglichkeit",
          "characterOffsetBegin": 13,
          "characterOffsetEnd": 24,
          "pos": "NN",
          "before": " ",
          "after": ""
        },
        {
          "index": 5,
          "word": ",",
          "originalText": ",",
          "characterOffsetBegin": 24,
          "characterOffsetEnd": 25,
          "pos": "$,",
          "before": "",
          "after": " "
        },
        {
          "index": 6,
          "word": "es",
          "originalText": "es",
          "characterOffsetBegin": 26,
          "characterOffsetEnd": 28,
          "pos": "PPER",
          "before": " ",
          "after": " "
        },
        {
          "index": 7,
          "word": "zu",
          "originalText": "zu",
          "characterOffsetBegin": 29,
          "characterOffsetEnd": 31,
          "pos": "PTKZU",
          "before": " ",
          "after": " "
        },
        {
          "index": 8,
          "word": "reinigen",
          "originalText": "reinigen",
          "characterOffsetBegin": 32,
          "characterOffsetEnd": 40,
          "pos": "VVINF",
          "before": " ",
          "after": ""
        },
        {
          "index": 9,
          "word": ":",
          "originalText": ":",
          "characterOffsetBegin": 40,
          "characterOffsetEnd": 41,
          "pos": "$.",
          "before": "",
          "after": " "
        },
        {
          "index": 10,
          "word": "Apple",
          "originalText": "Apple",
          "characterOffsetBegin": 42,
          "characterOffsetEnd": 47,
          "pos": "NE",
          "before": " ",
          "after": " "
        },
        {
          "index": 11,
          "word": "Watch",
          "originalText": "Watch",
          "characterOffsetBegin": 48,
          "characterOffsetEnd": 53,
          "pos": "NE",
          "before": " ",
          "after": " "
        },
        {
          "index": 12,
          "word": "wird",
          "originalText": "wird",
          "characterOffsetBegin": 54,
          "characterOffsetEnd": 58,
          "pos": "VAFIN",
          "before": " ",
          "after": " "
        },
        {
          "index": 13,
          "word": "Berichten",
          "originalText": "Berichten",
          "characterOffsetBegin": 59,
          "characterOffsetEnd": 68,
          "pos": "NN",
          "before": " ",
          "after": " "
        },
        {
          "index": 14,
          "word": "zufolge",
          "originalText": "zufolge",
          "characterOffsetBegin": 69,
          "characterOffsetEnd": 76,
          "pos": "APPO",
          "before": " ",
          "after": " "
        },
        {
          "index": 15,
          "word": "eine",
          "originalText": "eine",
          "characterOffsetBegin": 77,
          "characterOffsetEnd": 81,
          "pos": "ART",
          "before": " ",
          "after": " "
        },
        {
          "index": 16,
          "word": "Reise",
          "originalText": "Reise",
          "characterOffsetBegin": 82,
          "characterOffsetEnd": 87,
          "pos": "NN",
          "before": " ",
          "after": " "
        },
        {
          "index": 17,
          "word": "durch",
          "originalText": "durch",
          "characterOffsetBegin": 88,
          "characterOffsetEnd": 93,
          "pos": "APPR",
          "before": " ",
          "after": " "
        },
        {
          "index": 18,
          "word": "die",
          "originalText": "die",
          "characterOffsetBegin": 94,
          "characterOffsetEnd": 97,
          "pos": "ART",
          "before": " ",
          "after": " "
        },
        {
          "index": 19,
          "word": "Dusche",
          "originalText": "Dusche",
          "characterOffsetBegin": 98,
          "characterOffsetEnd": 104,
          "pos": "NN",
          "before": " ",
          "after": " "
        },
        {
          "index": 20,
          "word": "überleben",
          "originalText": "überleben",
          "characterOffsetBegin": 105,
          "characterOffsetEnd": 114,
          "pos": "VVINF",
          "before": " ",
          "after": ""
        }
      ]
    }
  ]
}