{
  "sentences": [
    {
      "index": 0,
      "basicDependencies": [
        {
          "dep": "ROOT",
          "governor": 0,
          "governorGloss": "ROOT",
          "dependent": 1,
          "dependentGloss": "Söhne"
        },
        {
          "dep": "det",
          "governor": 3,
          "governorGloss": "Anarchie-Films",
          "dependent": 2,
          "dependentGloss": "des"
        },
        {
          "dep": "det",
          "governor": 1,
          "governorGloss": "Söhne",
          "dependent": 3,
          "dependentGloss": "Anarchie-Films"
        },
        {
          "dep": "punct",
          "governor": 1,
          "governorGloss": "Söhne",
          "dependent": 4,
          "dependentGloss": "?"
        }
      ],
      "enhancedDependencies": [
        {
          "dep": "ROOT",
          "governor": 0,
          "governorGloss": "ROOT",
          "dependent": 1,
          "dependentGloss": "Söhne"
        },
        {
          "dep": "det",
          "governor": 3,
          "governorGloss": "Anarchie-Films",
          "dependent": 2,
          "dependentGloss": "des"
        },
        {
          "dep": "det",
          "governor": 1,
          "governorGloss": "Söhne",
          "dependent": 3,
          "dependentGloss": "Anarchie-Films"
        },
        {
          "dep": "punct",
          "governor": 1,
          "governorGloss": "Söhne",
          "dependent": 4,
          "dependentGloss": "?"
        }
      ],
      "enhancedPlusPlusDependencies": [
        {
          "dep": "ROOT",
          "governor": 0,
          "governorGloss": "ROOT",
          "dependent": 1,
          "dependentGloss": "Söhne"
        },
        {
          "dep": "det",
          "governor": 3,
          "governorGloss": "Anarchie-Films",
          "dependent": 2,
          "dependentGloss": "des"
        },
        {
          "dep": "det",
          "governor": 1,
          "governorGloss": "Söhne",
          "dependent": 3,
          "dependentGloss": "Anarchie-Films"
        },
        {
          "dep": "punct",
          "governor": 1,
          "governorGloss": "Söhne",
          "dependent": 4,
          "dependentGloss": "?"
        }
      ],
      "tokens": [
        {
          "index": 1,
          "word": "Söhne",
          "originalText": "Söhne",
          "characterOffsetBegin": 0,
          "characterOffsetEnd": 5,
          "pos": "NN",
          "before": "",
          "after": " "
        },
        {
          "index": 2,
          "word": "des",
          "originalText": "des",
          "characterOffsetBegin": 6,
          "characterOffsetEnd": 9,
          "pos": "ART",
          "before": " ",
          "after": " "
        },
        {
          "index": 3,
          "word": "Anarchie-Films",
          "originalText": "Anarchie-Films",
          "characterOffsetBegin": 10,
          "characterOffsetEnd": 24,
          "pos": "NN",
          "before": " ",
          "after": ""
        },
        {
          "index": 4,
          "word": "?",
          "originalText": "?",
          "characterOffsetBegin": 24,
          "characterOffsetEnd": 25,
          "pos": "$.",
          "before": "",
          "after": " "
        }
      ]
    },
    {
      "index": 1,
      "basicDependencies": [
        {
          "dep": "ROOT",
          "governor": 0,
          "governorGloss": "ROOT",
          "dependent": 14,
          "dependentGloss": "gefälscht"
        },
        {
          "dep": "nsubj",
          "governor": 5,
          "governorGloss": "kündigt",
          "dependent": 1,
          "dependentGloss": "Nein"
        },
        {
          "dep": "punct",
          "governor": 1,
          "governorGloss": "Nein",
          "dependent": 2,
          "dependentGloss": ","
        },
        {
          "dep": "name",
          "governor": 4,
          "governorGloss": "Sutter",
          "dependent": 3,
          "dependentGloss": "Kurt"
        },
        {
          "dep": "appos",
          "governor": 1,
          "governorGloss": "Nein",
          "dependent": 4,
          "dependentGloss": "Sutter"
        },
        {
          "dep": "csubj",
          "governor": 14,
          "governorGloss": "gefälscht",
          "dependent": 5,
          "dependentGloss": "kündigt"
        },
        {
          "dep": "name",
          "governor": 7,
          "governorGloss": "Hunnam",
          "dependent": 6,
          "dependentGloss": "Charlie"
        },
        {
          "dep": "dobj",
          "governor": 5,
          "governorGloss": "kündigt",
          "dependent": 7,
          "dependentGloss": "Hunnam"
        },
        {
          "dep": "punct",
          "governor": 7,
          "governorGloss": "Hunnam",
          "dependent": 8,
          "dependentGloss": ","
        },
        {
          "dep": "name",
          "governor": 10,
          "governorGloss": "Pitt",
          "dependent": 9,
          "dependentGloss": "Brad"
        },
        {
          "dep": "name",
          "governor": 12,
          "governorGloss": "Artikel",
          "dependent": 10,
          "dependentGloss": "Pitt"
        },
        {
          "dep": "compound",
          "governor": 12,
          "governorGloss": "Artikel",
          "dependent": 11,
          "dependentGloss": "Film"
        },
        {
          "dep": "conj",
          "governor": 7,
          "governorGloss": "Hunnam",
          "dependent": 12,
          "dependentGloss": "Artikel"
        },
        {
          "dep": "cop",
          "governor": 14,
          "governorGloss": "gefälscht",
          "dependent": 13,
          "dependentGloss": "ist"
        }
      ],
      "enhancedDependencies": [
        {
          "dep": "ROOT",
          "governor": 0,
          "governorGloss": "ROOT",
          "dependent": 14,
          "dependentGloss": "gefälscht"
        },
        {
          "dep": "nsubj",
          "governor": 5,
          "governorGloss": "kündigt",
          "dependent": 1,
          "dependentGloss": "Nein"
        },
        {
          "dep": "punct",
          "governor": 1,
          "governorGloss": "Nein",
          "dependent": 2,
          "dependentGloss": ","
        },
        {
          "dep": "name",
          "governor": 4,
          "governorGloss": "Sutter",
          "dependent": 3,
          "dependentGloss": "Kurt"
        },
        {
          "dep": "appos",
          "governor": 1,
          "governorGloss": "Nein",
          "dependent": 4,
          "dependentGloss": "Sutter"
        },
        {
          "dep": "csubj",
          "governor": 14,
          "governorGloss": "gefälscht",
          "dependent": 5,
          "dependentGloss": "kündigt"
        },
        {
          "dep": "name",
          "governor": 7,
          "governorGloss": "Hunnam",
          "dependent": 6,
          "dependentGloss": "Charlie"
        },
        {
          "dep": "dobj",
          "governor": 5,
          "governorGloss": "kündigt",
          "dependent": 7,
          "dependentGloss": "Hunnam"
        },
        {
          "dep": "punct",
          "governor": 7,
          "governorGloss": "Hunnam",
          "dependent": 8,
          "dependentGloss": ","
        },
        {
          "dep": "name",
          "governor": 10,
          "governorGloss": "Pitt",
          "dependent": 9,
          "dependentGloss": "Brad"
        },
        {
          "dep": "name",
          "governor": 12,
          "governorGloss": "Artikel",
          "dependent": 10,
          "dependentGloss": "Pitt"
        },
        {
          "dep": "compound",
          "governor": 12,
          "governorGloss": "Artikel",
          "dependent": 11,
          "dependentGloss": "Film"
        },
        {
          "dep": "conj",
          "governor": 7,
          "governorGloss": "Hunnam",
          "dependent": 12,
          "dependentGloss": "Artikel"
        },
        {
          "dep": "cop",
          "governor": 14,
          "governorGloss": "gefälscht",
          "dependent": 13,
          "dependentGloss": "ist"
        }
      ],
      "enhancedPlusPlusDependencies": [
        {
          "dep": "ROOT",
          "governor": 0,
          "governorGloss": "ROOT",
          "dependent": 14,
          "dependentGloss": "gefälscht"
        },
        {
          "dep": "nsubj",
          "governor": 5,
          "governorGloss": "kündigt",
          "dependent": 1,
          "dependentGloss": "Nein"
        },
        {
          "dep": "punct",
          "governor": 1,
          "governorGloss": "Nein",
          "dependent": 2,
          "dependentGloss": ","
        },
        {
          "dep": "name",
          "governor": 4,
          "governorGloss": "Sutter",
          "dependent": 3,
          "dependentGloss": "Kurt"
        },
        {
          "dep": "appos",
          "governor": 1,
          "governorGloss": "Nein",
          "dependent": 4,
          "dependentGloss": "Sutter"
        },
        {
          "dep": "csubj",
          "governor": 14,
          "governorGloss": "gefälscht",
          "dependent": 5,
          "dependentGloss": "kündigt"
        },
        {
          "dep": "name",
          "governor": 7,
          "governorGloss": "Hunnam",
          "dependent": 6,
          "dependentGloss": "Charlie"
        },
        {
          "dep": "dobj",
          "governor": 5,
          "governorGloss": "kündigt",
          "dependent": 7,
          "dependentGloss": "Hunnam"
        },
        {
          "dep": "punct",
          "governor": 7,
          "governorGloss": "Hunnam",
          "dependent": 8,
          "dependentGloss": ","
        },
        {
          "dep": "name",
          "governor": 10,
          "governorGloss": "Pitt",
          "dependent": 9,
          "dependentGloss": "Brad"
        },
        {
          "dep": "name",
          "governor": 12,
          "governorGloss": "Artikel",
          "dependent": 10,
          "dependentGloss": "Pitt"
        },
        {
          "dep": "compound",
          "governor": 12,
          "governorGloss": "Artikel",
          "dependent": 11,
          "dependentGloss": "Film"
        },
        {
          "dep": "conj",
          "governor": 7,
          "governorGloss": "Hunnam",
          "dependent": 12,
          "dependentGloss": "Artikel"
        },
        {
          "dep": "cop",
          "governor": 14,
          "governorGloss": "gefälscht",
          "dependent": 13,
          "dependentGloss": "ist"
        }
      ],
      "tokens": [
        {
          "index": 1,
          "word": "Nein",
          "originalText": "Nein",
          "characterOffsetBegin": 26,
          "characterOffsetEnd": 30,
          "pos": "PTKANT",
          "before": " ",
          "after": ""
        },
        {
          "index": 2,
          "word": ",",
          "originalText": ",",
          "characterOffsetBegin": 30,
          "characterOffsetEnd": 31,
          "pos": "$,",
          "before": "",
          "after": " "
        },
        {
          "index": 3,
          "word": "Kurt",
          "originalText": "Kurt",
          "characterOffsetBegin": 32,
          "characterOffsetEnd": 36,
          "pos": "NE",
          "before": " ",
          "after": " "
        },
        {
          "index": 4,
          "word": "Sutter",
          "originalText": "Sutter",
          "characterOffsetBegin": 37,
          "characterOffsetEnd": 43,
          "pos": "NE",
          "before": " ",
          "after": " "
        },
        {
          "index": 5,
          "word": "kündigt",
          "originalText": "kündigt",
          "characterOffsetBegin": 44,
          "characterOffsetEnd": 51,
          "pos": "VVFIN",
          "before": " ",
          "after": " "
        },
        {
          "index": 6,
          "word": "Charlie",
          "originalText": "Charlie",
          "characterOffsetBegin": 52,
          "characterOffsetEnd": 59,
          "pos": "NE",
          "before": " ",
          "after": " "
        },
        {
          "index": 7,
          "word": "Hunnam",
          "originalText": "Hunnam",
          "characterOffsetBegin": 60,
          "characterOffsetEnd": 66,
          "pos": "NE",
          "before": " ",
          "after": ""
        },
        {
          "index": 8,
          "word": ",",
          "originalText": ",",
          "characterOffsetBegin": 66,
          "characterOffsetEnd": 67,
          "pos": "$,",
          "before": "",
          "after": " "
        },
        {
          "index": 9,
          "word": "Brad",
          "originalText": "Brad",
          "characterOffsetBegin": 68,
          "characterOffsetEnd": 72,
          "pos": "NE",
          "before": " ",
          "after": " "
        },
        {
          "index": 10,
          "word": "Pitt",
          "originalText": "Pitt",
          "characterOffsetBegin": 73,
          "characterOffsetEnd": 77,
          "pos": "NE",
          "before": " ",
          "after": " "
        },
        {
          "index": 11,
          "word": "Film",
          "originalText": "Film",
          "characterOffsetBegin": 78,
          "characterOffsetEnd": 82,
          "pos": "NN",
          "before": " ",
          "after": " "
        },
        {
          "index": 12,
          "word": "Artikel",
          "originalText": "Artikel",
          "characterOffsetBegin": 83,
          "characterOffsetEnd": 90,
          "pos": "NN",
          "before": " ",
          "after": " "
        },
        {
          "index": 13,
          "word": "ist",
          "originalText": "ist",
          "characterOffsetBegin": 91,
          "characterOffsetEnd": 94,
          "pos": "VAFIN",
          "before": " ",
          "after": " "
        },
        {
          "index": 14,
          "word": "gefälscht",
          "originalText": "gefälscht",
          "characterOffsetBegin": 95,
          "characterOffsetEnd": 104,
          "pos": "VVPP",
          "before": " ",
          "after": ""
        }
      ]
    }
  ]
}