{
  "sentences": [
    {
      "index": 0,
      "basicDependencies": [
        {
          "dep": "ROOT",
          "governor": 0,
          "governorGloss": "ROOT",
          "dependent": 4,
          "dependentGloss": "Meteoriten"
        },
        {
          "dep": "nsubj",
          "governor": 4,
          "governorGloss": "Meteoriten",
          "dependent": 1,
          "dependentGloss": "Zweifel"
        },
        {
          "dep": "case",
          "governor": 3,
          "governorGloss": "Nicaragua",
          "dependent": 2,
          "dependentGloss": "über"
        },
        {
          "dep": "nmod",
          "governor": 1,
          "governorGloss": "Zweifel",
          "dependent": 3,
          "dependentGloss": "Nicaragua"
        },
        {
          "dep": "advmod",
          "governor": 4,
          "governorGloss": "Meteoriten",
          "dependent": 5,
          "dependentGloss": "behaupten"
        }
      ],
      "enhancedDependencies": [
        {
          "dep": "ROOT",
          "governor": 0,
          "governorGloss": "ROOT",
          "dependent": 4,
          "dependentGloss": "Meteoriten"
        },
        {
          "dep": "nsubj",
          "governor": 4,
          "governorGloss": "Meteoriten",
          "dependent": 1,
          "dependentGloss": "Zweifel"
        },
        {
          "dep": "case",
          "governor": 3,
          "governorGloss": "Nicaragua",
          "dependent": 2,
          "dependentGloss": "über"
        },
        {
          "dep": "nmod",
          "governor": 1,
          "governorGloss": "Zweifel",
          "dependent": 3,
          "dependentGloss": "Nicaragua"
        },
        {
          "dep": "advmod",
          "governor": 4,
          "governorGloss": "Meteoriten",
          "dependent": 5,
          "dependentGloss": "behaupten"
        }
      ],
      "enhancedPlusPlusDependencies": [
        {
          "dep": "ROOT",
          "governor": 0,
          "governorGloss": "ROOT",
          "dependent": 4,
          "dependentGloss": "Meteoriten"
        },
        {
          "dep": "nsubj",
          "governor": 4,
          "governorGloss": "Meteoriten",
          "dependent": 1,
          "dependentGloss": "Zweifel"
        },
        {
          "dep": "case",
          "governor": 3,
          "governorGloss": "Nicaragua",
          "dependent": 2,
          "dependentGloss": "über"
        },
        {
          "dep": "nmod",
          "governor": 1,
          "governorGloss": "Zweifel",
          "dependent": 3,
          "dependentGloss": "Nicaragua"
        },
        {
          "dep": "advmod",
          "governor": 4,
          "governorGloss": "Meteoriten",
          "dependent": 5,
          "dependentGloss": "behaupten"
        }
      ],
      "tokens": [
        {
          "index": 1,
          "word": "Zweifel",
          "originalText": "Zweifel",
          "characterOffsetBegin": 0,
          "characterOffsetEnd": 7,
          "pos": "NN",
          "before": "",
          "after": " "
        },
        {
          "index": 2,
          "word": "über",
          "originalText": "über",
          "characterOffsetBegin": 8,
          "characterOffsetEnd": 12,
          "pos": "APPR",
          "before": " ",
          "after": " "
        },
        {
          "index": 3,
          "word": "Nicaragua",
          "originalText": "Nicaragua",
          "characterOffsetBegin": 13,
          "characterOffsetEnd": 22,
          "pos": "NE",
          "before": " ",
          "after": " "
        },
        {
          "index": 4,
          "word": "Meteoriten",
          "originalText": "Meteoriten",
          "characterOffsetBegin": 23,
          "characterOffsetEnd": 33,
          "pos": "NN",
          "before": " ",
          "after": " "
        },
        {
          "index": 5,
          "word": "behaupten",
          "originalText": "behaupten",
          "characterOffsetBegin": 34,
          "characterOffsetEnd": 43,
          "pos": "VVINF",
          "before": " ",
          "after": ""
        }
      ]
    }
  ]
}