{
  "sentences": [
    {
      "index": 0,
      "basicDependencies": [
        {
          "dep": "ROOT",
          "governor": 0,
          "governorGloss": "ROOT",
          "dependent": 1,
          "dependentGloss": "Südkorea"
        },
        {
          "dep": "punct",
          "governor": 1,
          "governorGloss": "Südkorea",
          "dependent": 2,
          "dependentGloss": ":"
        },
        {
          "dep": "name",
          "governor": 4,
          "governorGloss": "Jong",
          "dependent": 3,
          "dependentGloss": "Kim"
        },
        {
          "dep": "appos",
          "governor": 1,
          "governorGloss": "Südkorea",
          "dependent": 4,
          "dependentGloss": "Jong"
        },
        {
          "dep": "nsubj",
          "governor": 7,
          "governorGloss": "Knöchelchirurgie",
          "dependent": 5,
          "dependentGloss": "Un"
        },
        {
          "dep": "aux",
          "governor": 7,
          "governorGloss": "Knöchelchirurgie",
          "dependent": 6,
          "dependentGloss": "hatte"
        },
        {
          "dep": "acl",
          "governor": 4,
          "governorGloss": "Jong",
          "dependent": 7,
          "dependentGloss": "Knöchelchirurgie"
        },
        {
          "dep": "punct",
          "governor": 7,
          "governorGloss": "Knöchelchirurgie",
          "dependent": 8,
          "dependentGloss": ","
        },
        {
          "dep": "mark",
          "governor": 12,
          "governorGloss": "entfernen",
          "dependent": 9,
          "dependentGloss": "um"
        },
        {
          "dep": "dobj",
          "governor": 12,
          "governorGloss": "entfernen",
          "dependent": 10,
          "dependentGloss": "Zyste"
        },
        {
          "dep": "aux",
          "governor": 12,
          "governorGloss": "entfernen",
          "dependent": 11,
          "dependentGloss": "zu"
        },
        {
          "dep": "advcl",
          "governor": 7,
          "governorGloss": "Knöchelchirurgie",
          "dependent": 12,
          "dependentGloss": "entfernen"
        }
      ],
      "enhancedDependencies": [
        {
          "dep": "ROOT",
          "governor": 0,
          "governorGloss": "ROOT",
          "dependent": 1,
          "dependentGloss": "Südkorea"
        },
        {
          "dep": "punct",
          "governor": 1,
          "governorGloss": "Südkorea",
          "dependent": 2,
          "dependentGloss": ":"
        },
        {
          "dep": "name",
          "governor": 4,
          "governorGloss": "Jong",
          "dependent": 3,
          "dependentGloss": "Kim"
        },
        {
          "dep": "appos",
          "governor": 1,
          "governorGloss": "Südkorea",
          "dependent": 4,
          "dependentGloss": "Jong"
        },
        {
          "dep": "nsubj",
          "governor": 7,
          "governorGloss": "Knöchelchirurgie",
          "dependent": 5,
          "dependentGloss": "Un"
        },
        {
          "dep": "aux",
          "governor": 7,
          "governorGloss": "Knöchelchirurgie",
          "dependent": 6,
          "dependentGloss": "hatte"
        },
        {
          "dep": "acl",
          "governor": 4,
          "governorGloss": "Jong",
          "dependent": 7,
          "dependentGloss": "Knöchelchirurgie"
        },
        {
          "dep": "punct",
          "governor": 7,
          "governorGloss": "Knöchelchirurgie",
          "dependent": 8,
          "dependentGloss": ","
        },
        {
          "dep": "mark",
          "governor": 12,
          "governorGloss": "entfernen",
          "dependent": 9,
          "dependentGloss": "um"
        },
        {
          "dep": "dobj",
          "governor": 12,
          "governorGloss": "entfernen",
          "dependent": 10,
          "dependentGloss": "Zyste"
        },
        {
          "dep": "aux",
          "governor": 12,
          "governorGloss": "entfernen",
          "dependent": 11,
          "dependentGloss": "zu"
        },
        {
          "dep": "advcl",
          "governor": 7,
          "governorGloss": "Knöchelchirurgie",
          "dependent": 12,
          "dependentGloss": "entfernen"
        }
      ],
      "enhancedPlusPlusDependencies": [
        {
          "dep": "ROOT",
          "governor": 0,
          "governorGloss": "ROOT",
          "dependent": 1,
          "dependentGloss": "Südkorea"
        },
        {
          "dep": "punct",
          "governor": 1,
          "governorGloss": "Südkorea",
          "dependent": 2,
          "dependentGloss": ":"
        },
        {
          "dep": "name",
          "governor": 4,
          "governorGloss": "Jong",
          "dependent": 3,
          "dependentGloss": "Kim"
        },
        {
          "dep": "appos",
          "governor": 1,
          "governorGloss": "Südkorea",
          "dependent": 4,
          "dependentGloss": "Jong"
        },
        {
          "dep": "nsubj",
          "governor": 7,
          "governorGloss": "Knöchelchirurgie",
          "dependent": 5,
          "dependentGloss": "Un"
        },
        {
          "dep": "aux",
          "governor": 7,
          "governorGloss": "Knöchelchirurgie",
          "dependent": 6,
          "dependentGloss": "hatte"
        },
        {
          "dep": "acl",
          "governor": 4,
          "governorGloss": "Jong",
          "dependent": 7,
          "dependentGloss": "Knöchelchirurgie"
        },
        {
          "dep": "punct",
          "governor": 7,
          "governorGloss": "Knöchelchirurgie",
          "dependent": 8,
          "dependentGloss": ","
        },
        {
          "dep": "mark",
          "governor": 12,
          "governorGloss": "entfernen",
          "dependent": 9,
          "dependentGloss": "um"
        },
        {
          "dep": "dobj",
          "governor": 12,
          "governorGloss": "entfernen",
          "dependent": 10,
          "dependentGloss": "Zyste"
        },
        {
          "dep": "aux",
          "governor": 12,
          "governorGloss": "entfernen",
          "dependent": 11,
          "dependentGloss": "zu"
        },
        {
          "dep": "advcl",
          "governor": 7,
          "governorGloss": "Knöchelchirurgie",
          "dependent": 12,
          "dependentGloss": "entfernen"
        }
      ],
      "tokens": [
        {
          "index": 1,
          "word": "Südkorea",
          "originalText": "Südkorea",
          "characterOffsetBegin": 0,
          "characterOffsetEnd": 8,
          "pos": "NE",
          "before": "",
          "after": ""
        },
        {
          "index": 2,
          "word": ":",
          "originalText": ":",
          "characterOffsetBegin": 8,
          "characterOffsetEnd": 9,
          "pos": "$.",
          "before": "",
          "after": " "
        },
        {
          "index": 3,
          "word": "Kim",
          "originalText": "Kim",
          "characterOffsetBegin": 10,
          "characterOffsetEnd": 13,
          "pos": "NE",
          "before": " ",
          "after": " "
        },
        {
          "index": 4,
          "word": "Jong",
          "originalText": "Jong",
          "characterOffsetBegin": 14,
          "characterOffsetEnd": 18,
          "pos": "NE",
          "before": " ",
          "after": " "
        },
        {
          "index": 5,
          "word": "Un",
          "originalText": "Un",
          "characterOffsetBegin": 19,
          "characterOffsetEnd": 21,
          "pos": "NE",
          "before": " ",
          "after": " "
        },
        {
          "index": 6,
          "word": "hatte",
          "originalText": "hatte",
          "characterOffsetBegin": 22,
          "characterOffsetEnd": 27,
          "pos": "VAFIN",
          "before": " ",
          "after": " "
        },
        {
          "index": 7,
          "word": "Knöchelchirurgie",
          "originalText": "Knöchelchirurgie",
          "characterOffsetBegin": 28,
          "characterOffsetEnd": 44,
          "pos": "NN",
          "before": " ",
          "after": ""
        },
        {
          "index": 8,
          "word": ",",
          "originalText": ",",
          "characterOffsetBegin": 44,
          "characterOffsetEnd": 45,
          "pos": "$,",
          "before": "",
          "after": " "
        },
        {
          "index": 9,
          "word": "um",
          "originalText": "um",
          "characterOffsetBegin": 46,
          "characterOffsetEnd": 48,
          "pos": "KOUI",
          "before": " ",
          "after": " "
        },
        {
          "index": 10,
          "word": "Zyste",
          "originalText": "Zyste",
          "characterOffsetBegin": 49,
          "characterOffsetEnd": 54,
          "pos": "NN",
          "before": " ",
          "after": " "
        },
        {
          "index": 11,
          "word": "zu",
          "originalText": "zu",
          "characterOffsetBegin": 55,
          "characterOffsetEnd": 57,
          "pos": "PTKZU",
          "before": " ",
          "after": " "
        },
        {
          "index": 12,
          "word": "entfernen",
          "originalText": "entfernen",
          "characterOffsetBegin": 58,
          "characterOffsetEnd": 67,
          "pos": "VVINF",
          "before": " ",
          "after": ""
        }
      ]
    }
  ]
}