{
  "sentences": [
    {
      "index": 0,
      "basicDependencies": [
        {
          "dep": "ROOT",
          "governor": 0,
          "governorGloss": "ROOT",
          "dependent": 1,
          "dependentGloss": "Tut"
        },
        {
          "dep": "iobj",
          "governor": 1,
          "governorGloss": "Tut",
          "dependent": 2,
          "dependentGloss": "mir"
        },
        {
          "dep": "dobj",
          "governor": 1,
          "governorGloss": "Tut",
          "dependent": 3,
          "dependentGloss": "leid"
        },
        {
          "dep": "punct",
          "governor": 1,
          "governorGloss": "Tut",
          "dependent": 4,
          "dependentGloss": ","
        },
        {
          "dep": "appos",
          "governor": 8,
          "governorGloss": "macht",
          "dependent": 5,
          "dependentGloss": "jeder"
        },
        {
          "dep": "punct",
          "governor": 8,
          "governorGloss": "macht",
          "dependent": 6,
          "dependentGloss": ":"
        },
        {
          "dep": "nsubj",
          "governor": 8,
          "governorGloss": "macht",
          "dependent": 7,
          "dependentGloss": "Durex"
        },
        {
          "dep": "conj",
          "governor": 1,
          "governorGloss": "Tut",
          "dependent": 8,
          "dependentGloss": "macht"
        },
        {
          "dep": "advmod",
          "governor": 8,
          "governorGloss": "macht",
          "dependent": 9,
          "dependentGloss": "leider"
        },
        {
          "dep": "neg",
          "governor": 11,
          "governorGloss": "Kürbisgewürzkondome",
          "dependent": 10,
          "dependentGloss": "keine"
        },
        {
          "dep": "dobj",
          "governor": 8,
          "governorGloss": "macht",
          "dependent": 11,
          "dependentGloss": "Kürbisgewürzkondome"
        }
      ],
      "enhancedDependencies": [
        {
          "dep": "ROOT",
          "governor": 0,
          "governorGloss": "ROOT",
          "dependent": 1,
          "dependentGloss": "Tut"
        },
        {
          "dep": "iobj",
          "governor": 1,
          "governorGloss": "Tut",
          "dependent": 2,
          "dependentGloss": "mir"
        },
        {
          "dep": "dobj",
          "governor": 1,
          "governorGloss": "Tut",
          "dependent": 3,
          "dependentGloss": "leid"
        },
        {
          "dep": "punct",
          "governor": 1,
          "governorGloss": "Tut",
          "dependent": 4,
          "dependentGloss": ","
        },
        {
          "dep": "appos",
          "governor": 8,
          "governorGloss": "macht",
          "dependent": 5,
          "dependentGloss": "jeder"
        },
        {
          "dep": "punct",
          "governor": 8,
          "governorGloss": "macht",
          "dependent": 6,
          "dependentGloss": ":"
        },
        {
          "dep": "nsubj",
          "governor": 8,
          "governorGloss": "macht",
          "dependent": 7,
          "dependentGloss": "Durex"
        },
        {
          "dep": "conj",
          "governor": 1,
          "governorGloss": "Tut",
          "dependent": 8,
          "dependentGloss": "macht"
        },
        {
          "dep": "advmod",
          "governor": 8,
          "governorGloss": "macht",
          "dependent": 9,
          "dependentGloss": "leider"
        },
        {
          "dep": "neg",
          "governor": 11,
          "governorGloss": "Kürbisgewürzkondome",
          "dependent": 10,
          "dependentGloss": "keine"
        },
        {
          "dep": "dobj",
          "governor": 8,
          "governorGloss": "macht",
          "dependent": 11,
          "dependentGloss": "Kürbisgewürzkondome"
        }
      ],
      "enhancedPlusPlusDependencies": [
        {
          "dep": "ROOT",
          "governor": 0,
          "governorGloss": "ROOT",
          "dependent": 1,
          "dependentGloss": "Tut"
        },
        {
          "dep": "iobj",
          "governor": 1,
          "governorGloss": "Tut",
          "dependent": 2,
          "dependentGloss": "mir"
        },
        {
          "dep": "dobj",
          "governor": 1,
          "governorGloss": "Tut",
          "dependent": 3,
          "dependentGloss": "leid"
        },
        {
          "dep": "punct",
          "governor": 1,
          "governorGloss": "Tut",
          "dependent": 4,
          "dependentGloss": ","
        },
        {
          "dep": "appos",
          "governor": 8,
          "governorGloss": "macht",
          "dependent": 5,
          "dependentGloss": "jeder"
        },
        {
          "dep": "punct",
          "governor": 8,
          "governorGloss": "macht",
          "dependent": 6,
          "dependentGloss": ":"
        },
        {
          "dep": "nsubj",
          "governor": 8,
          "governorGloss": "macht",
          "dependent": 7,
          "dependentGloss": "Durex"
        },
        {
          "dep": "conj",
          "governor": 1,
          "governorGloss": "Tut",
          "dependent": 8,
          "dependentGloss": "macht"
        },
        {
          "dep": "advmod",
          "governor": 8,
          "governorGloss": "macht",
          "dependent": 9,
          "dependentGloss": "leider"
        },
        {
          "dep": "neg",
          "governor": 11,
          "governorGloss": "Kürbisgewürzkondome",
          "dependent": 10,
          "dependentGloss": "keine"
        },
        {
          "dep": "dobj",
          "governor": 8,
          "governorGloss": "macht",
          "dependent": 11,
          "dependentGloss": "Kürbisgewürzkondome"
        }
      ],
      "tokens": [
        {
          "index": 1,
          "word": "Tut",
          "originalText": "Tut",
          "characterOffsetBegin": 0,
          "characterOffsetEnd": 3,
          "pos": "VVFIN",
          "before": "",
          "after": " "
        },
        {
          "index": 2,
          "word": "mir",
          "originalText": "mir",
          "characterOffsetBegin": 4,
          "characterOffsetEnd": 7,
          "pos": "PPER",
          "before": " ",
          "after": " "
        },
        {
          "index": 3,
          "word": "leid",
          "originalText": "leid",
          "characterOffsetBegin": 8,
          "characterOffsetEnd": 12,
          "pos": "ADV",
          "before": " ",
          "after": ""
        },
        {
          "index": 4,
          "word": ",",
          "originalText": ",",
          "characterOffsetBegin": 12,
          "characterOffsetEnd": 13,
          "pos": "$,",
          "before": "",
          "after": " "
        },
        {
          "index": 5,
          "word": "jeder",
          "originalText": "jeder",
          "characterOffsetBegin": 14,
          "characterOffsetEnd": 19,
          "pos": "PIS",
          "before": " ",
          "after": ""
        },
        {
          "index": 6,
          "word": ":",
          "originalText": ":",
          "characterOffsetBegin": 19,
          "characterOffsetEnd": 20,
          "pos": "$.",
          "before": "",
          "after": " "
        },
        {
          "index": 7,
          "word": "Durex",
          "originalText": "Durex",
          "characterOffsetBegin": 21,
          "characterOffsetEnd": 26,
          "pos": "NE",
          "before": " ",
          "after": " "
        },
        {
          "index": 8,
          "word": "macht",
          "originalText": "macht",
          "characterOffsetBegin": 27,
          "characterOffsetEnd": 32,
          "pos": "VVFIN",
          "before": " ",
          "after": " "
        },
        {
          "index": 9,
          "word": "leider",
          "originalText": "leider",
          "characterOffsetBegin": 33,
          "characterOffsetEnd": 39,
          "pos": "ADV",
          "before": " ",
          "after": " "
        },
        {
          "index": 10,
          "word": "keine",
          "originalText": "keine",
          "characterOffsetBegin": 40,
          "characterOffsetEnd": 45,
          "pos": "PIAT",
          "before": " ",
          "after": " "
        },
        {
          "index": 11,
          "word": "Kürbisgewürzkondome",
          "originalText": "Kürbisgewürzkondome",
          "characterOffsetBegin": 46,
          "characterOffsetEnd": 65,
          "pos": "NN",
          "before": " ",
          "after": ""
        }
      ]
    }
  ]
}