{
  "sentences": [
    {
      "index": 0,
      "basicDependencies": [
        {
          "dep": "ROOT",
          "governor": 0,
          "governorGloss": "ROOT",
          "dependent": 1,
          "dependentGloss": "Meet"
        },
        {
          "dep": "det",
          "governor": 5,
          "governorGloss": "Who",
          "dependent": 2,
          "dependentGloss": "The"
        },
        {
          "dep": "name",
          "governor": 5,
          "governorGloss": "Who",
          "dependent": 3,
          "dependentGloss": "College"
        },
        {
          "dep": "name",
          "governor": 5,
          "governorGloss": "Who",
          "dependent": 4,
          "dependentGloss": "Student"
        },
        {
          "dep": "nmod",
          "governor": 1,
          "governorGloss": "Meet",
          "dependent": 5,
          "dependentGloss": "Who"
        },
        {
          "dep": "punct",
          "governor": 14,
          "governorGloss": "Baby",
          "dependent": 6,
          "dependentGloss": "Claims"
        },
        {
          "dep": "nsubj",
          "governor": 14,
          "governorGloss": "Baby",
          "dependent": 7,
          "dependentGloss": "Sie"
        },
        {
          "dep": "cop",
          "governor": 14,
          "governorGloss": "Baby",
          "dependent": 8,
          "dependentGloss": "war"
        },
        {
          "dep": "det",
          "governor": 14,
          "governorGloss": "Baby",
          "dependent": 9,
          "dependentGloss": "die"
        },
        {
          "dep": "amod",
          "governor": 14,
          "governorGloss": "Baby",
          "dependent": 10,
          "dependentGloss": "`"
        },
        {
          "dep": "det",
          "governor": 13,
          "governorGloss": "Sun",
          "dependent": 11,
          "dependentGloss": "Teletubbies"
        },
        {
          "dep": "case",
          "governor": 11,
          "governorGloss": "Teletubbies",
          "dependent": 12,
          "dependentGloss": "'"
        },
        {
          "dep": "name",
          "governor": 14,
          "governorGloss": "Baby",
          "dependent": 13,
          "dependentGloss": "Sun"
        },
        {
          "dep": "acl",
          "governor": 5,
          "governorGloss": "Who",
          "dependent": 14,
          "dependentGloss": "Baby"
        }
      ],
      "enhancedDependencies": [
        {
          "dep": "ROOT",
          "governor": 0,
          "governorGloss": "ROOT",
          "dependent": 1,
          "dependentGloss": "Meet"
        },
        {
          "dep": "det",
          "governor": 5,
          "governorGloss": "Who",
          "dependent": 2,
          "dependentGloss": "The"
        },
        {
          "dep": "name",
          "governor": 5,
          "governorGloss": "Who",
          "dependent": 3,
          "dependentGloss": "College"
        },
        {
          "dep": "name",
          "governor": 5,
          "governorGloss": "Who",
          "dependent": 4,
          "dependentGloss": "Student"
        },
        {
          "dep": "nmod",
          "governor": 1,
          "governorGloss": "Meet",
          "dependent": 5,
          "dependentGloss": "Who"
        },
        {
          "dep": "punct",
          "governor": 14,
          "governorGloss": "Baby",
          "dependent": 6,
          "dependentGloss": "Claims"
        },
        {
          "dep": "nsubj",
          "governor": 14,
          "governorGloss": "Baby",
          "dependent": 7,
          "dependentGloss": "Sie"
        },
        {
          "dep": "cop",
          "governor": 14,
          "governorGloss": "Baby",
          "dependent": 8,
          "dependentGloss": "war"
        },
        {
          "dep": "det",
          "governor": 14,
          "governorGloss": "Baby",
          "dependent": 9,
          "dependentGloss": "die"
        },
        {
          "dep": "amod",
          "governor": 14,
          "governorGloss": "Baby",
          "dependent": 10,
          "dependentGloss": "`"
        },
        {
          "dep": "det",
          "governor": 13,
          "governorGloss": "Sun",
          "dependent": 11,
          "dependentGloss": "Teletubbies"
        },
        {
          "dep": "case",
          "governor": 11,
          "governorGloss": "Teletubbies",
          "dependent": 12,
          "dependentGloss": "'"
        },
        {
          "dep": "name",
          "governor": 14,
          "governorGloss": "Baby",
          "dependent": 13,
          "dependentGloss": "Sun"
        },
        {
          "dep": "acl",
          "governor": 5,
          "governorGloss": "Who",
          "dependent": 14,
          "dependentGloss": "Baby"
        }
      ],
      "enhancedPlusPlusDependencies": [
        {
          "dep": "ROOT",
          "governor": 0,
          "governorGloss": "ROOT",
          "dependent": 1,
          "dependentGloss": "Meet"
        },
        {
          "dep": "det",
          "governor": 5,
          "governorGloss": "Who",
          "dependent": 2,
          "dependentGloss": "The"
        },
        {
          "dep": "name",
          "governor": 5,
          "governorGloss": "Who",
          "dependent": 3,
          "dependentGloss": "College"
        },
        {
          "dep": "name",
          "governor": 5,
          "governorGloss": "Who",
          "dependent": 4,
          "dependentGloss": "Student"
        },
        {
          "dep": "nmod",
          "governor": 1,
          "governorGloss": "Meet",
          "dependent": 5,
          "dependentGloss": "Who"
        },
        {
          "dep": "punct",
          "governor": 14,
          "governorGloss": "Baby",
          "dependent": 6,
          "dependentGloss": "Claims"
        },
        {
          "dep": "nsubj",
          "governor": 14,
          "governorGloss": "Baby",
          "dependent": 7,
          "dependentGloss": "Sie"
        },
        {
          "dep": "cop",
          "governor": 14,
          "governorGloss": "Baby",
          "dependent": 8,
          "dependentGloss": "war"
        },
        {
          "dep": "det",
          "governor": 14,
          "governorGloss": "Baby",
          "dependent": 9,
          "dependentGloss": "die"
        },
        {
          "dep": "amod",
          "governor": 14,
          "governorGloss": "Baby",
          "dependent": 10,
          "dependentGloss": "`"
        },
        {
          "dep": "det",
          "governor": 13,
          "governorGloss": "Sun",
          "dependent": 11,
          "dependentGloss": "Teletubbies"
        },
        {
          "dep": "case",
          "governor": 11,
          "governorGloss": "Teletubbies",
          "dependent": 12,
          "dependentGloss": "'"
        },
        {
          "dep": "name",
          "governor": 14,
          "governorGloss": "Baby",
          "dependent": 13,
          "dependentGloss": "Sun"
        },
        {
          "dep": "acl",
          "governor": 5,
          "governorGloss": "Who",
          "dependent": 14,
          "dependentGloss": "Baby"
        }
      ],
      "tokens": [
        {
          "index": 1,
          "word": "Meet",
          "originalText": "Meet",
          "characterOffsetBegin": 0,
          "characterOffsetEnd": 4,
          "pos": "NE",
          "before": "",
          "after": " "
        },
        {
          "index": 2,
          "word": "The",
          "originalText": "The",
          "characterOffsetBegin": 5,
          "characterOffsetEnd": 8,
          "pos": "NE",
          "before": " ",
          "after": " "
        },
        {
          "index": 3,
          "word": "College",
          "originalText": "College",
          "characterOffsetBegin": 9,
          "characterOffsetEnd": 16,
          "pos": "NE",
          "before": " ",
          "after": " "
        },
        {
          "index": 4,
          "word": "Student",
          "originalText": "Student",
          "characterOffsetBegin": 17,
          "characterOffsetEnd": 24,
          "pos": "NN",
          "before": " ",
          "after": " "
        },
        {
          "index": 5,
          "word": "Who",
          "originalText": "Who",
          "characterOffsetBegin": 25,
          "characterOffsetEnd": 28,
          "pos": "FM",
          "before": " ",
          "after": " "
        },
        {
          "index": 6,
          "word": "Claims",
          "originalText": "Claims",
          "characterOffsetBegin": 29,
          "characterOffsetEnd": 35,
          "pos": "FM",
          "before": " ",
          "after": " "
        },
        {
          "index": 7,
          "word": "Sie",
          "originalText": "Sie",
          "characterOffsetBegin": 36,
          "characterOffsetEnd": 39,
          "pos": "PPER",
          "before": " ",
          "after": " "
        },
        {
          "index": 8,
          "word": "war",
          "originalText": "war",
          "characterOffsetBegin": 40,
          "characterOffsetEnd": 43,
          "pos": "VAFIN",
          "before": " ",
          "after": " "
        },
        {
          "index": 9,
          "word": "die",
          "originalText": "die",
          "characterOffsetBegin": 44,
          "characterOffsetEnd": 47,
          "pos": "ART",
          "before": " ",
          "after": " "
        },
        {
          "index": 10,
          "word": "`",
          "originalText": "'",
          "characterOffsetBegin": 48,
          "characterOffsetEnd": 49,
          "pos": "ADJA",
          "before": " ",
          "after": ""
        },
        {
          "index": 11,
          "word": "Teletubbies",
          "originalText": "Teletubbies",
          "characterOffsetBegin": 49,
          "characterOffsetEnd": 60,
          "pos": "NN",
          "before": "",
          "after": ""
        },
        {
          "index": 12,
          "word": "'",
          "originalText": "'",
          "characterOffsetBegin": 60,
          "characterOffsetEnd": 61,
          "pos": "$[",
          "before": "",
          "after": " "
        },
        {
          "index": 13,
          "word": "Sun",
          "originalText": "Sun",
          "characterOffsetBegin": 62,
          "characterOffsetEnd": 65,
          "pos": "NE",
          "before": " ",
          "after": " "
        },
        {
          "index": 14,
          "word": "Baby",
          "originalText": "Baby",
          "characterOffsetBegin": 66,
          "characterOffsetEnd": 70,
          "pos": "NE",
          "before": " ",
          "after": ""
        }
      ]
    }
  ]
}