{
  "sentences": [
    {
      "index": 0,
      "basicDependencies": [
        {
          "dep": "ROOT",
          "governor": 0,
          "governorGloss": "ROOT",
          "dependent": 1,
          "dependentGloss": "Mann"
        },
        {
          "dep": "punct",
          "governor": 1,
          "governorGloss": "Mann",
          "dependent": 2,
          "dependentGloss": ","
        },
        {
          "dep": "dobj",
          "governor": 9,
          "governorGloss": "schlägt",
          "dependent": 3,
          "dependentGloss": "der"
        },
        {
          "dep": "det",
          "governor": 5,
          "governorGloss": "Menschen",
          "dependent": 4,
          "dependentGloss": "die"
        },
        {
          "dep": "nsubj",
          "governor": 9,
          "governorGloss": "schlägt",
          "dependent": 5,
          "dependentGloss": "Menschen"
        },
        {
          "dep": "mark",
          "governor": 9,
          "governorGloss": "schlägt",
          "dependent": 6,
          "dependentGloss": "um"
        },
        {
          "dep": "det",
          "governor": 8,
          "governorGloss": "Kopf",
          "dependent": 7,
          "dependentGloss": "den"
        },
        {
          "dep": "dobj",
          "governor": 9,
          "governorGloss": "schlägt",
          "dependent": 8,
          "dependentGloss": "Kopf"
        },
        {
          "dep": "acl",
          "governor": 1,
          "governorGloss": "Mann",
          "dependent": 9,
          "dependentGloss": "schlägt"
        },
        {
          "dep": "punct",
          "governor": 9,
          "governorGloss": "schlägt",
          "dependent": 10,
          "dependentGloss": ","
        },
        {
          "dep": "mark",
          "governor": 15,
          "governorGloss": "gejagt",
          "dependent": 11,
          "dependentGloss": "um"
        },
        {
          "dep": "case",
          "governor": 14,
          "governorGloss": "Polizei",
          "dependent": 12,
          "dependentGloss": "von"
        },
        {
          "dep": "det",
          "governor": 14,
          "governorGloss": "Polizei",
          "dependent": 13,
          "dependentGloss": "der"
        },
        {
          "dep": "nmod",
          "governor": 15,
          "governorGloss": "gejagt",
          "dependent": 14,
          "dependentGloss": "Polizei"
        },
        {
          "dep": "advcl",
          "governor": 1,
          "governorGloss": "Mann",
          "dependent": 15,
          "dependentGloss": "gejagt"
        },
        {
          "dep": "aux",
          "governor": 15,
          "governorGloss": "gejagt",
          "dependent": 16,
          "dependentGloss": "zu"
        },
        {
          "dep": "cop",
          "governor": 1,
          "governorGloss": "Mann",
          "dependent": 17,
          "dependentGloss": "werden"
        }
      ],
      "enhancedDependencies": [
        {
          "dep": "ROOT",
          "governor": 0,
          "governorGloss": "ROOT",
          "dependent": 1,
          "dependentGloss": "Mann"
        },
        {
          "dep": "punct",
          "governor": 1,
          "governorGloss": "Mann",
          "dependent": 2,
          "dependentGloss": ","
        },
        {
          "dep": "dobj",
          "governor": 9,
          "governorGloss": "schlägt",
          "dependent": 3,
          "dependentGloss": "der"
        },
        {
          "dep": "det",
          "governor": 5,
          "governorGloss": "Menschen",
          "dependent": 4,
          "dependentGloss": "die"
        },
        {
          "dep": "nsubj",
          "governor": 9,
          "governorGloss": "schlägt",
          "dependent": 5,
          "dependentGloss": "Menschen"
        },
        {
          "dep": "mark",
          "governor": 9,
          "governorGloss": "schlägt",
          "dependent": 6,
          "dependentGloss": "um"
        },
        {
          "dep": "det",
          "governor": 8,
          "governorGloss": "Kopf",
          "dependent": 7,
          "dependentGloss": "den"
        },
        {
          "dep": "dobj",
          "governor": 9,
          "governorGloss": "schlägt",
          "dependent": 8,
          "dependentGloss": "Kopf"
        },
        {
          "dep": "acl",
          "governor": 1,
          "governorGloss": "Mann",
          "dependent": 9,
          "dependentGloss": "schlägt"
        },
        {
          "dep": "punct",
          "governor": 9,
          "governorGloss": "schlägt",
          "dependent": 10,
          "dependentGloss": ","
        },
        {
          "dep": "mark",
          "governor": 15,
          "governorGloss": "gejagt",
          "dependent": 11,
          "dependentGloss": "um"
        },
        {
          "dep": "case",
          "governor": 14,
          "governorGloss": "Polizei",
          "dependent": 12,
          "dependentGloss": "von"
        },
        {
          "dep": "det",
          "governor": 14,
          "governorGloss": "Polizei",
          "dependent": 13,
          "dependentGloss": "der"
        },
        {
          "dep": "nmod",
          "governor": 15,
          "governorGloss": "gejagt",
          "dependent": 14,
          "dependentGloss": "Polizei"
        },
        {
          "dep": "advcl",
          "governor": 1,
          "governorGloss": "Mann",
          "dependent": 15,
          "dependentGloss": "gejagt"
        },
        {
          "dep": "aux",
          "governor": 15,
          "governorGloss": "gejagt",
          "dependent": 16,
          "dependentGloss": "zu"
        },
        {
          "dep": "cop",
          "governor": 1,
          "governorGloss": "Mann",
          "dependent": 17,
          "dependentGloss": "werden"
        }
      ],
      "enhancedPlusPlusDependencies": [
        {
          "dep": "ROOT",
          "governor": 0,
          "governorGloss": "ROOT",
          "dependent": 1,
          "dependentGloss": "Mann"
        },
        {
          "dep": "punct",
          "governor": 1,
          "governorGloss": "Mann",
          "dependent": 2,
          "dependentGloss": ","
        },
        {
          "dep": "dobj",
          "governor": 9,
          "governorGloss": "schlägt",
          "dependent": 3,
          "dependentGloss": "der"
        },
        {
          "dep": "det",
          "governor": 5,
          "governorGloss": "Menschen",
          "dependent": 4,
          "dependentGloss": "die"
        },
        {
          "dep": "nsubj",
          "governor": 9,
          "governorGloss": "schlägt",
          "dependent": 5,
          "dependentGloss": "Menschen"
        },
        {
          "dep": "mark",
          "governor": 9,
          "governorGloss": "schlägt",
          "dependent": 6,
          "dependentGloss": "um"
        },
        {
          "dep": "det",
          "governor": 8,
          "governorGloss": "Kopf",
          "dependent": 7,
          "dependentGloss": "den"
        },
        {
          "dep": "dobj",
          "governor": 9,
          "governorGloss": "schlägt",
          "dependent": 8,
          "dependentGloss": "Kopf"
        },
        {
          "dep": "acl",
          "governor": 1,
          "governorGloss": "Mann",
          "dependent": 9,
          "dependentGloss": "schlägt"
        },
        {
          "dep": "punct",
          "governor": 9,
          "governorGloss": "schlägt",
          "dependent": 10,
          "dependentGloss": ","
        },
        {
          "dep": "mark",
          "governor": 15,
          "governorGloss": "gejagt",
          "dependent": 11,
          "dependentGloss": "um"
        },
        {
          "dep": "case",
          "governor": 14,
          "governorGloss": "Polizei",
          "dependent": 12,
          "dependentGloss": "von"
        },
        {
          "dep": "det",
          "governor": 14,
          "governorGloss": "Polizei",
          "dependent": 13,
          "dependentGloss": "der"
        },
        {
          "dep": "nmod",
          "governor": 15,
          "governorGloss": "gejagt",
          "dependent": 14,
          "dependentGloss": "Polizei"
        },
        {
          "dep": "advcl",
          "governor": 1,
          "governorGloss": "Mann",
          "dependent": 15,
          "dependentGloss": "gejagt"
        },
        {
          "dep": "aux",
          "governor": 15,
          "governorGloss": "gejagt",
          "dependent": 16,
          "dependentGloss": "zu"
        },
        {
          "dep": "cop",
          "governor": 1,
          "governorGloss": "Mann",
          "dependent": 17,
          "dependentGloss": "werden"
        }
      ],
      "tokens": [
        {
          "index": 1,
          "word": "Mann",
          "originalText": "Mann",
          "characterOffsetBegin": 0,
          "characterOffsetEnd": 4,
          "pos": "NN",
          "before": "",
          "after": ""
        },
        {
          "index": 2,
          "word": ",",
          "originalText": ",",
          "characterOffsetBegin": 4,
          "characterOffsetEnd": 5,
          "pos": "$,",
          "before": "",
          "after": " "
        },
        {
          "index": 3,
          "word": "der",
          "originalText": "der",
          "characterOffsetBegin": 6,
          "characterOffsetEnd": 9,
          "pos": "PRELS",
          "before": " ",
          "after": " "
        },
        {
          "index": 4,
          "word": "die",
          "originalText": "die",
          "characterOffsetBegin": 10,
          "characterOffsetEnd": 13,
          "pos": "ART",
          "before": " ",
          "after": " "
        },
        {
          "index": 5,
          "word": "Menschen",
          "originalText": "Menschen",
          "characterOffsetBegin": 14,
          "characterOffsetEnd": 22,
          "pos": "NN",
          "before": " ",
          "after": " "
        },
        {
          "index": 6,
          "word": "um",
          "originalText": "um",
          "characterOffsetBegin": 23,
          "characterOffsetEnd": 25,
          "pos": "APPR",
          "before": " ",
          "after": " "
        },
        {
          "index": 7,
          "word": "den",
          "originalText": "den",
          "characterOffsetBegin": 26,
          "characterOffsetEnd": 29,
          "pos": "ART",
          "before": " ",
          "after": " "
        },
        {
          "index": 8,
          "word": "Kopf",
          "originalText": "Kopf",
          "characterOffsetBegin": 30,
          "characterOffsetEnd": 34,
          "pos": "NN",
          "before": " ",
          "after": " "
        },
        {
          "index": 9,
          "word": "schlägt",
          "originalText": "schlägt",
          "characterOffsetBegin": 35,
          "characterOffsetEnd": 42,
          "pos": "VVFIN",
          "before": " ",
          "after": ""
        },
        {
          "index": 10,
          "word": ",",
          "originalText": ",",
          "characterOffsetBegin": 42,
          "characterOffsetEnd": 43,
          "pos": "$,",
          "before": "",
          "after": " "
        },
        {
          "index": 11,
          "word": "um",
          "originalText": "um",
          "characterOffsetBegin": 44,
          "characterOffsetEnd": 46,
          "pos": "KOUI",
          "before": " ",
          "after": " "
        },
        {
          "index": 12,
          "word": "von",
          "originalText": "von",
          "characterOffsetBegin": 47,
          "characterOffsetEnd": 50,
          "pos": "APPR",
          "before": " ",
          "after": " "
        },
        {
          "index": 13,
          "word": "der",
          "originalText": "der",
          "characterOffsetBegin": 51,
          "characterOffsetEnd": 54,
          "pos": "ART",
          "before": " ",
          "after": " "
        },
        {
          "index": 14,
          "word": "Polizei",
          "originalText": "Polizei",
          "characterOffsetBegin": 55,
          "characterOffsetEnd": 62,
          "pos": "NN",
          "before": " ",
          "after": " "
        },
        {
          "index": 15,
          "word": "gejagt",
          "originalText": "gejagt",
          "characterOffsetBegin": 63,
          "characterOffsetEnd": 69,
          "pos": "VVPP",
          "before": " ",
          "after": " "
        },
        {
          "index": 16,
          "word": "zu",
          "originalText": "zu",
          "characterOffsetBegin": 70,
          "characterOffsetEnd": 72,
          "pos": "PTKZU",
          "before": " ",
          "after": " "
        },
        {
          "index": 17,
          "word": "werden",
          "originalText": "werden",
          "characterOffsetBegin": 73,
          "characterOffsetEnd": 79,
          "pos": "VAINF",
          "before": " ",
          "after": ""
        }
      ]
    }
  ]
}