{
  "sentences": [
    {
      "index": 0,
      "basicDependencies": [
        {
          "dep": "ROOT",
          "governor": 0,
          "governorGloss": "ROOT",
          "dependent": 1,
          "dependentGloss": "Nein"
        },
        {
          "dep": "punct",
          "governor": 1,
          "governorGloss": "Nein",
          "dependent": 2,
          "dependentGloss": ","
        },
        {
          "dep": "name",
          "governor": 5,
          "governorGloss": "Abdullah",
          "dependent": 3,
          "dependentGloss": "Jordans"
        },
        {
          "dep": "name",
          "governor": 5,
          "governorGloss": "Abdullah",
          "dependent": 4,
          "dependentGloss": "König"
        },
        {
          "dep": "appos",
          "governor": 1,
          "governorGloss": "Nein",
          "dependent": 5,
          "dependentGloss": "Abdullah"
        },
        {
          "dep": "appos",
          "governor": 5,
          "governorGloss": "Abdullah",
          "dependent": 6,
          "dependentGloss": "II"
        },
        {
          "dep": "punct",
          "governor": 1,
          "governorGloss": "Nein",
          "dependent": 7,
          "dependentGloss": "."
        }
      ],
      "enhancedDependencies": [
        {
          "dep": "ROOT",
          "governor": 0,
          "governorGloss": "ROOT",
          "dependent": 1,
          "dependentGloss": "Nein"
        },
        {
          "dep": "punct",
          "governor": 1,
          "governorGloss": "Nein",
          "dependent": 2,
          "dependentGloss": ","
        },
        {
          "dep": "name",
          "governor": 5,
          "governorGloss": "Abdullah",
          "dependent": 3,
          "dependentGloss": "Jordans"
        },
        {
          "dep": "name",
          "governor": 5,
          "governorGloss": "Abdullah",
          "dependent": 4,
          "dependentGloss": "König"
        },
        {
          "dep": "appos",
          "governor": 1,
          "governorGloss": "Nein",
          "dependent": 5,
          "dependentGloss": "Abdullah"
        },
        {
          "dep": "appos",
          "governor": 5,
          "governorGloss": "Abdullah",
          "dependent": 6,
          "dependentGloss": "II"
        },
        {
          "dep": "punct",
          "governor": 1,
          "governorGloss": "Nein",
          "dependent": 7,
          "dependentGloss": "."
        }
      ],
      "enhancedPlusPlusDependencies": [
        {
          "dep": "ROOT",
          "governor": 0,
          "governorGloss": "ROOT",
          "dependent": 1,
          "dependentGloss": "Nein"
        },
        {
          "dep": "punct",
          "governor": 1,
          "governorGloss": "Nein",
          "dependent": 2,
          "dependentGloss": ","
        },
        {
          "dep": "name",
          "governor": 5,
          "governorGloss": "Abdullah",
          "dependent": 3,
          "dependentGloss": "Jordans"
        },
        {
          "dep": "name",
          "governor": 5,
          "governorGloss": "Abdullah",
          "dependent": 4,
          "dependentGloss": "König"
        },
        {
          "dep": "appos",
          "governor": 1,
          "governorGloss": "Nein",
          "dependent": 5,
          "dependentGloss": "Abdullah"
        },
        {
          "dep": "appos",
          "governor": 5,
          "governorGloss": "Abdullah",
          "dependent": 6,
          "dependentGloss": "II"
        },
        {
          "dep": "punct",
          "governor": 1,
          "governorGloss": "Nein",
          "dependent": 7,
          "dependentGloss": "."
        }
      ],
      "tokens": [
        {
          "index": 1,
          "word": "Nein",
          "originalText": "Nein",
          "characterOffsetBegin": 0,
          "characterOffsetEnd": 4,
          "pos": "PTKANT",
          "before": "",
          "after": ""
        },
        {
          "index": 2,
          "word": ",",
          "originalText": ",",
          "characterOffsetBegin": 4,
          "characterOffsetEnd": 5,
          "pos": "$,",
          "before": "",
          "after": " "
        },
        {
          "index": 3,
          "word": "Jordans",
          "originalText": "Jordans",
          "characterOffsetBegin": 6,
          "characterOffsetEnd": 13,
          "pos": "NE",
          "before": " ",
          "after": " "
        },
        {
          "index": 4,
          "word": "König",
          "originalText": "König",
          "characterOffsetBegin": 14,
          "characterOffsetEnd": 19,
          "pos": "NE",
          "before": " ",
          "after": " "
        },
        {
          "index": 5,
          "word": "Abdullah",
          "originalText": "Abdullah",
          "characterOffsetBegin": 20,
          "characterOffsetEnd": 28,
          "pos": "NE",
          "before": " ",
          "after": " "
        },
        {
          "index": 6,
          "word": "II",
          "originalText": "II",
          "characterOffsetBegin": 29,
          "characterOffsetEnd": 31,
          "pos": "CARD",
          "before": " ",
          "after": ""
        },
        {
          "index": 7,
          "word": ".",
          "originalText": ".",
          "characterOffsetBegin": 31,
          "characterOffsetEnd": 32,
          "pos": "$.",
          "before": "",
          "after": " "
        }
      ]
    },
    {
      "index": 1,
      "basicDependencies": [
        {
          "dep": "ROOT",
          "governor": 0,
          "governorGloss": "ROOT",
          "dependent": 4,
          "dependentGloss": "Flugzeuge"
        },
        {
          "dep": "cop",
          "governor": 4,
          "governorGloss": "Flugzeuge",
          "dependent": 1,
          "dependentGloss": "Ist"
        },
        {
          "dep": "neg",
          "governor": 4,
          "governorGloss": "Flugzeuge",
          "dependent": 2,
          "dependentGloss": "nicht"
        },
        {
          "dep": "advmod",
          "governor": 4,
          "governorGloss": "Flugzeuge",
          "dependent": 3,
          "dependentGloss": "persönlich"
        },
        {
          "dep": "case",
          "governor": 6,
          "governorGloss": "Isis",
          "dependent": 5,
          "dependentGloss": "gegen"
        },
        {
          "dep": "nmod",
          "governor": 4,
          "governorGloss": "Flugzeuge",
          "dependent": 6,
          "dependentGloss": "Isis"
        }
      ],
      "enhancedDependencies": [
        {
          "dep": "ROOT",
          "governor": 0,
          "governorGloss": "ROOT",
          "dependent": 4,
          "dependentGloss": "Flugzeuge"
        },
        {
          "dep": "cop",
          "governor": 4,
          "governorGloss": "Flugzeuge",
          "dependent": 1,
          "dependentGloss": "Ist"
        },
        {
          "dep": "neg",
          "governor": 4,
          "governorGloss": "Flugzeuge",
          "dependent": 2,
          "dependentGloss": "nicht"
        },
        {
          "dep": "advmod",
          "governor": 4,
          "governorGloss": "Flugzeuge",
          "dependent": 3,
          "dependentGloss": "persönlich"
        },
        {
          "dep": "case",
          "governor": 6,
          "governorGloss": "Isis",
          "dependent": 5,
          "dependentGloss": "gegen"
        },
        {
          "dep": "nmod",
          "governor": 4,
          "governorGloss": "Flugzeuge",
          "dependent": 6,
          "dependentGloss": "Isis"
        }
      ],
      "enhancedPlusPlusDependencies": [
        {
          "dep": "ROOT",
          "governor": 0,
          "governorGloss": "ROOT",
          "dependent": 4,
          "dependentGloss": "Flugzeuge"
        },
        {
          "dep": "cop",
          "governor": 4,
          "governorGloss": "Flugzeuge",
          "dependent": 1,
          "dependentGloss": "Ist"
        },
        {
          "dep": "neg",
          "governor": 4,
          "governorGloss": "Flugzeuge",
          "dependent": 2,
          "dependentGloss": "nicht"
        },
        {
          "dep": "advmod",
          "governor": 4,
          "governorGloss": "Flugzeuge",
          "dependent": 3,
          "dependentGloss": "persönlich"
        },
        {
          "dep": "case",
          "governor": 6,
          "governorGloss": "Isis",
          "dependent": 5,
          "dependentGloss": "gegen"
        },
        {
          "dep": "nmod",
          "governor": 4,
          "governorGloss": "Flugzeuge",
          "dependent": 6,
          "dependentGloss": "Isis"
        }
      ],
      "tokens": [
        {
          "index": 1,
          "word": "Ist",
          "originalText": "Ist",
          "characterOffsetBegin": 33,
          "characterOffsetEnd": 36,
          "pos": "VAFIN",
          "before": " ",
          "after": " "
        },
        {
          "index": 2,
          "word": "nicht",
          "originalText": "nicht",
          "characterOffsetBegin": 37,
          "characterOffsetEnd": 42,
          "pos": "PTKNEG",
          "before": " ",
          "after": " "
        },
        {
          "index": 3,
          "word": "persönlich",
          "originalText": "persönlich",
          "characterOffsetBegin": 43,
          "characterOffsetEnd": 53,
          "pos": "ADJD",
          "before": " ",
          "after": " "
        },
        {
          "index": 4,
          "word": "Flugzeuge",
          "originalText": "Flugzeuge",
          "characterOffsetBegin": 54,
          "characterOffsetEnd": 63,
          "pos": "NN",
          "before": " ",
          "after": " "
        },
        {
          "index": 5,
          "word": "gegen",
          "originalText": "gegen",
          "characterOffsetBegin": 64,
          "characterOffsetEnd": 69,
          "pos": "APPR",
          "before": " ",
          "after": " "
        },
        {
          "index": 6,
          "word": "Isis",
          "originalText": "Isis",
          "characterOffsetBegin": 70,
          "characterOffsetEnd": 74,
          "pos": "NE",
          "before": " ",
          "after": ""
        }
      ]
    }
  ]
}