{
  "sentences": [
    {
      "index": 0,
      "basicDependencies": [
        {
          "dep": "ROOT",
          "governor": 0,
          "governorGloss": "ROOT",
          "dependent": 8,
          "dependentGloss": "Foley"
        },
        {
          "dep": "advmod",
          "governor": 8,
          "governorGloss": "Foley",
          "dependent": 1,
          "dependentGloss": "ISIS"
        },
        {
          "dep": "advmod",
          "governor": 8,
          "governorGloss": "Foley",
          "dependent": 2,
          "dependentGloss": "scheinbar"
        },
        {
          "dep": "dobj",
          "governor": 8,
          "governorGloss": "Foley",
          "dependent": 3,
          "dependentGloss": "enthaupteten"
        },
        {
          "dep": "amod",
          "governor": 5,
          "governorGloss": "Journalisten",
          "dependent": 4,
          "dependentGloss": "amerikanischen"
        },
        {
          "dep": "det",
          "governor": 3,
          "governorGloss": "enthaupteten",
          "dependent": 5,
          "dependentGloss": "Journalisten"
        },
        {
          "dep": "name",
          "governor": 7,
          "governorGloss": "Wright",
          "dependent": 6,
          "dependentGloss": "James"
        },
        {
          "dep": "appos",
          "governor": 5,
          "governorGloss": "Journalisten",
          "dependent": 7,
          "dependentGloss": "Wright"
        }
      ],
      "enhancedDependencies": [
        {
          "dep": "ROOT",
          "governor": 0,
          "governorGloss": "ROOT",
          "dependent": 8,
          "dependentGloss": "Foley"
        },
        {
          "dep": "advmod",
          "governor": 8,
          "governorGloss": "Foley",
          "dependent": 1,
          "dependentGloss": "ISIS"
        },
        {
          "dep": "advmod",
          "governor": 8,
          "governorGloss": "Foley",
          "dependent": 2,
          "dependentGloss": "scheinbar"
        },
        {
          "dep": "dobj",
          "governor": 8,
          "governorGloss": "Foley",
          "dependent": 3,
          "dependentGloss": "enthaupteten"
        },
        {
          "dep": "amod",
          "governor": 5,
          "governorGloss": "Journalisten",
          "dependent": 4,
          "dependentGloss": "amerikanischen"
        },
        {
          "dep": "det",
          "governor": 3,
          "governorGloss": "enthaupteten",
          "dependent": 5,
          "dependentGloss": "Journalisten"
        },
        {
          "dep": "name",
          "governor": 7,
          "governorGloss": "Wright",
          "dependent": 6,
          "dependentGloss": "James"
        },
        {
          "dep": "appos",
          "governor": 5,
          "governorGloss": "Journalisten",
          "dependent": 7,
          "dependentGloss": "Wright"
        }
      ],
      "enhancedPlusPlusDependencies": [
        {
          "dep": "ROOT",
          "governor": 0,
          "governorGloss": "ROOT",
          "dependent": 8,
          "dependentGloss": "Foley"
        },
        {
          "dep": "advmod",
          "governor": 8,
          "governorGloss": "Foley",
          "dependent": 1,
          "dependentGloss": "ISIS"
        },
        {
          "dep": "advmod",
          "governor": 8,
          "governorGloss": "Foley",
          "dependent": 2,
          "dependentGloss": "scheinbar"
        },
        {
          "dep": "dobj",
          "governor": 8,
          "governorGloss": "Foley",
          "dependent": 3,
          "dependentGloss": "enthaupteten"
        },
        {
          "dep": "amod",
          "governor": 5,
          "governorGloss": "Journalisten",
          "dependent": 4,
          "dependentGloss": "amerikanischen"
        },
        {
          "dep": "det",
          "governor": 3,
          "governorGloss": "enthaupteten",
          "dependent": 5,
          "dependentGloss": "Journalisten"
        },
        {
          "dep": "name",
          "governor": 7,
          "governorGloss": "Wright",
          "dependent": 6,
          "dependentGloss": "James"
        },
        {
          "dep": "appos",
          "governor": 5,
          "governorGloss": "Journalisten",
          "dependent": 7,
          "dependentGloss": "Wright"
        }
      ],
      "tokens": [
        {
          "index": 1,
          "word": "ISIS",
          "originalText": "ISIS",
          "characterOffsetBegin": 0,
          "characterOffsetEnd": 4,
          "pos": "NE",
          "before": "",
          "after": " "
        },
        {
          "index": 2,
          "word": "scheinbar",
          "originalText": "scheinbar",
          "characterOffsetBegin": 5,
          "characterOffsetEnd": 14,
          "pos": "ADJD",
          "before": " ",
          "after": " "
        },
        {
          "index": 3,
          "word": "enthaupteten",
          "originalText": "enthaupteten",
          "characterOffsetBegin": 15,
          "characterOffsetEnd": 27,
          "pos": "ADJA",
          "before": " ",
          "after": " "
        },
        {
          "index": 4,
          "word": "amerikanischen",
          "originalText": "amerikanischen",
          "characterOffsetBegin": 28,
          "characterOffsetEnd": 42,
          "pos": "ADJA",
          "before": " ",
          "after": " "
        },
        {
          "index": 5,
          "word": "Journalisten",
          "originalText": "Journalisten",
          "characterOffsetBegin": 43,
          "characterOffsetEnd": 55,
          "pos": "NN",
          "before": " ",
          "after": " "
        },
        {
          "index": 6,
          "word": "James",
          "originalText": "James",
          "characterOffsetBegin": 56,
          "characterOffsetEnd": 61,
          "pos": "NE",
          "before": " ",
          "after": " "
        },
        {
          "index": 7,
          "word": "Wright",
          "originalText": "Wright",
          "characterOffsetBegin": 62,
          "characterOffsetEnd": 68,
          "pos": "NE",
          "before": " ",
          "after": " "
        },
        {
          "index": 8,
          "word": "Foley",
          "originalText": "Foley",
          "characterOffsetBegin": 69,
          "characterOffsetEnd": 74,
          "pos": "NE",
          "before": " ",
          "after": ""
        }
      ]
    }
  ]
}