{
  "sentences": [
    {
      "index": 0,
      "basicDependencies": [
        {
          "dep": "ROOT",
          "governor": 0,
          "governorGloss": "ROOT",
          "dependent": 2,
          "dependentGloss": "Führer"
        },
        {
          "dep": "nsubj",
          "governor": 2,
          "governorGloss": "Führer",
          "dependent": 1,
          "dependentGloss": "Nordkoreanischen"
        },
        {
          "dep": "name",
          "governor": 7,
          "governorGloss": "Krankheit",
          "dependent": 3,
          "dependentGloss": "Kim"
        },
        {
          "dep": "det",
          "governor": 6,
          "governorGloss": "Mystery",
          "dependent": 4,
          "dependentGloss": "Jong-un"
        },
        {
          "dep": "case",
          "governor": 4,
          "governorGloss": "Jong-un",
          "dependent": 5,
          "dependentGloss": "'s"
        },
        {
          "dep": "nmod",
          "governor": 7,
          "governorGloss": "Krankheit",
          "dependent": 6,
          "dependentGloss": "Mystery"
        },
        {
          "dep": "nmod",
          "governor": 2,
          "governorGloss": "Führer",
          "dependent": 7,
          "dependentGloss": "Krankheit"
        },
        {
          "dep": "advmod",
          "governor": 2,
          "governorGloss": "Führer",
          "dependent": 8,
          "dependentGloss": "tatsächlich"
        },
        {
          "dep": "nummod",
          "governor": 11,
          "governorGloss": "Knöchel",
          "dependent": 9,
          "dependentGloss": "zwei"
        },
        {
          "dep": "amod",
          "governor": 11,
          "governorGloss": "Knöchel",
          "dependent": 10,
          "dependentGloss": "gebrochene"
        },
        {
          "dep": "dobj",
          "governor": 2,
          "governorGloss": "Führer",
          "dependent": 11,
          "dependentGloss": "Knöchel"
        },
        {
          "dep": "punct",
          "governor": 11,
          "governorGloss": "Knöchel",
          "dependent": 12,
          "dependentGloss": ","
        },
        {
          "dep": "amod",
          "governor": 14,
          "governorGloss": "Zeitung",
          "dependent": 13,
          "dependentGloss": "sagt"
        },
        {
          "dep": "appos",
          "governor": 11,
          "governorGloss": "Knöchel",
          "dependent": 14,
          "dependentGloss": "Zeitung"
        }
      ],
      "enhancedDependencies": [
        {
          "dep": "ROOT",
          "governor": 0,
          "governorGloss": "ROOT",
          "dependent": 2,
          "dependentGloss": "Führer"
        },
        {
          "dep": "nsubj",
          "governor": 2,
          "governorGloss": "Führer",
          "dependent": 1,
          "dependentGloss": "Nordkoreanischen"
        },
        {
          "dep": "name",
          "governor": 7,
          "governorGloss": "Krankheit",
          "dependent": 3,
          "dependentGloss": "Kim"
        },
        {
          "dep": "det",
          "governor": 6,
          "governorGloss": "Mystery",
          "dependent": 4,
          "dependentGloss": "Jong-un"
        },
        {
          "dep": "case",
          "governor": 4,
          "governorGloss": "Jong-un",
          "dependent": 5,
          "dependentGloss": "'s"
        },
        {
          "dep": "nmod",
          "governor": 7,
          "governorGloss": "Krankheit",
          "dependent": 6,
          "dependentGloss": "Mystery"
        },
        {
          "dep": "nmod",
          "governor": 2,
          "governorGloss": "Führer",
          "dependent": 7,
          "dependentGloss": "Krankheit"
        },
        {
          "dep": "advmod",
          "governor": 2,
          "governorGloss": "Führer",
          "dependent": 8,
          "dependentGloss": "tatsächlich"
        },
        {
          "dep": "nummod",
          "governor": 11,
          "governorGloss": "Knöchel",
          "dependent": 9,
          "dependentGloss": "zwei"
        },
        {
          "dep": "amod",
          "governor": 11,
          "governorGloss": "Knöchel",
          "dependent": 10,
          "dependentGloss": "gebrochene"
        },
        {
          "dep": "dobj",
          "governor": 2,
          "governorGloss": "Führer",
          "dependent": 11,
          "dependentGloss": "Knöchel"
        },
        {
          "dep": "punct",
          "governor": 11,
          "governorGloss": "Knöchel",
          "dependent": 12,
          "dependentGloss": ","
        },
        {
          "dep": "amod",
          "governor": 14,
          "governorGloss": "Zeitung",
          "dependent": 13,
          "dependentGloss": "sagt"
        },
        {
          "dep": "appos",
          "governor": 11,
          "governorGloss": "Knöchel",
          "dependent": 14,
          "dependentGloss": "Zeitung"
        }
      ],
      "enhancedPlusPlusDependencies": [
        {
          "dep": "ROOT",
          "governor": 0,
          "governorGloss": "ROOT",
          "dependent": 2,
          "dependentGloss": "Führer"
        },
        {
          "dep": "nsubj",
          "governor": 2,
          "governorGloss": "Führer",
          "dependent": 1,
          "dependentGloss": "Nordkoreanischen"
        },
        {
          "dep": "name",
          "governor": 7,
          "governorGloss": "Krankheit",
          "dependent": 3,
          "dependentGloss": "Kim"
        },
        {
          "dep": "det",
          "governor": 6,
          "governorGloss": "Mystery",
          "dependent": 4,
          "dependentGloss": "Jong-un"
        },
        {
          "dep": "case",
          "governor": 4,
          "governorGloss": "Jong-un",
          "dependent": 5,
          "dependentGloss": "'s"
        },
        {
          "dep": "nmod",
          "governor": 7,
          "governorGloss": "Krankheit",
          "dependent": 6,
          "dependentGloss": "Mystery"
        },
        {
          "dep": "nmod",
          "governor": 2,
          "governorGloss": "Führer",
          "dependent": 7,
          "dependentGloss": "Krankheit"
        },
        {
          "dep": "advmod",
          "governor": 2,
          "governorGloss": "Führer",
          "dependent": 8,
          "dependentGloss": "tatsächlich"
        },
        {
          "dep": "nummod",
          "governor": 11,
          "governorGloss": "Knöchel",
          "dependent": 9,
          "dependentGloss": "zwei"
        },
        {
          "dep": "amod",
          "governor": 11,
          "governorGloss": "Knöchel",
          "dependent": 10,
          "dependentGloss": "gebrochene"
        },
        {
          "dep": "dobj",
          "governor": 2,
          "governorGloss": "Führer",
          "dependent": 11,
          "dependentGloss": "Knöchel"
        },
        {
          "dep": "punct",
          "governor": 11,
          "governorGloss": "Knöchel",
          "dependent": 12,
          "dependentGloss": ","
        },
        {
          "dep": "amod",
          "governor": 14,
          "governorGloss": "Zeitung",
          "dependent": 13,
          "dependentGloss": "sagt"
        },
        {
          "dep": "appos",
          "governor": 11,
          "governorGloss": "Knöchel",
          "dependent": 14,
          "dependentGloss": "Zeitung"
        }
      ],
      "tokens": [
        {
          "index": 1,
          "word": "Nordkoreanischen",
          "originalText": "Nordkoreanischen",
          "characterOffsetBegin": 0,
          "characterOffsetEnd": 16,
          "pos": "ADJA",
          "before": "",
          "after": " "
        },
        {
          "index": 2,
          "word": "Führer",
          "originalText": "Führer",
          "characterOffsetBegin": 17,
          "characterOffsetEnd": 23,
          "pos": "NN",
          "before": " ",
          "after": " "
        },
        {
          "index": 3,
          "word": "Kim",
          "originalText": "Kim",
          "characterOffsetBegin": 24,
          "characterOffsetEnd": 27,
          "pos": "NE",
          "before": " ",
          "after": " "
        },
        {
          "index": 4,
          "word": "Jong-un",
          "originalText": "Jong-un",
          "characterOffsetBegin": 28,
          "characterOffsetEnd": 35,
          "pos": "NE",
          "before": " ",
          "after": ""
        },
        {
          "index": 5,
          "word": "'s",
          "originalText": "'s",
          "characterOffsetBegin": 35,
          "characterOffsetEnd": 37,
          "pos": "PPER",
          "before": "",
          "after": " "
        },
        {
          "index": 6,
          "word": "Mystery",
          "originalText": "Mystery",
          "characterOffsetBegin": 38,
          "characterOffsetEnd": 45,
          "pos": "NE",
          "before": " ",
          "after": " "
        },
        {
          "index": 7,
          "word": "Krankheit",
          "originalText": "Krankheit",
          "characterOffsetBegin": 46,
          "characterOffsetEnd": 55,
          "pos": "NN",
          "before": " ",
          "after": " "
        },
        {
          "index": 8,
          "word": "tatsächlich",
          "originalText": "tatsächlich",
          "characterOffsetBegin": 56,
          "characterOffsetEnd": 67,
          "pos": "ADJD",
          "before": " ",
          "after": " "
        },
        {
          "index": 9,
          "word": "zwei",
          "originalText": "zwei",
          "characterOffsetBegin": 68,
          "characterOffsetEnd": 72,
          "pos": "CARD",
          "before": " ",
          "after": " "
        },
        {
          "index": 10,
          "word": "gebrochene",
          "originalText": "gebrochene",
          "characterOffsetBegin": 73,
          "characterOffsetEnd": 83,
          "pos": "ADJA",
          "before": " ",
          "after": " "
        },
        {
          "index": 11,
          "word": "Knöchel",
          "originalText": "Knöchel",
          "characterOffsetBegin": 84,
          "characterOffsetEnd": 91,
          "pos": "NN",
          "before": " ",
          "after": ""
        },
        {
          "index": 12,
          "word": ",",
          "originalText": ",",
          "characterOffsetBegin": 91,
          "characterOffsetEnd": 92,
          "pos": "$,",
          "before": "",
          "after": " "
        },
        {
          "index": 13,
          "word": "sagt",
          "originalText": "sagt",
          "characterOffsetBegin": 93,
          "characterOffsetEnd": 97,
          "pos": "VVFIN",
          "before": " ",
          "after": " "
        },
        {
          "index": 14,
          "word": "Zeitung",
          "originalText": "Zeitung",
          "characterOffsetBegin": 98,
          "characterOffsetEnd": 105,
          "pos": "NN",
          "before": " ",
          "after": ""
        }
      ]
    }
  ]
}