{
  "sentences": [
    {
      "index": 0,
      "basicDependencies": [
        {
          "dep": "ROOT",
          "governor": 0,
          "governorGloss": "ROOT",
          "dependent": 2,
          "dependentGloss": "Expert"
        },
        {
          "dep": "nsubj",
          "governor": 2,
          "governorGloss": "Expert",
          "dependent": 1,
          "dependentGloss": "CNN"
        },
        {
          "dep": "case",
          "governor": 5,
          "governorGloss": "Audio",
          "dependent": 3,
          "dependentGloss": "auf"
        },
        {
          "dep": "name",
          "governor": 5,
          "governorGloss": "Audio",
          "dependent": 4,
          "dependentGloss": "Brown"
        },
        {
          "dep": "nmod",
          "governor": 2,
          "governorGloss": "Expert",
          "dependent": 5,
          "dependentGloss": "Audio"
        },
        {
          "dep": "punct",
          "governor": 2,
          "governorGloss": "Expert",
          "dependent": 6,
          "dependentGloss": ":"
        },
        {
          "dep": "advmod",
          "governor": 8,
          "governorGloss": "dachte",
          "dependent": 7,
          "dependentGloss": "Zuerst"
        },
        {
          "dep": "parataxis",
          "governor": 2,
          "governorGloss": "Expert",
          "dependent": 8,
          "dependentGloss": "dachte"
        },
        {
          "dep": "nsubj",
          "governor": 8,
          "governorGloss": "dachte",
          "dependent": 9,
          "dependentGloss": "ich"
        },
        {
          "dep": "nsubj",
          "governor": 12,
          "governorGloss": "versucht",
          "dependent": 10,
          "dependentGloss": "`"
        },
        {
          "dep": "dobj",
          "governor": 12,
          "governorGloss": "versucht",
          "dependent": 11,
          "dependentGloss": "Jemand"
        },
        {
          "dep": "xcomp",
          "governor": 8,
          "governorGloss": "dachte",
          "dependent": 12,
          "dependentGloss": "versucht"
        },
        {
          "dep": "punct",
          "governor": 8,
          "governorGloss": "dachte",
          "dependent": 13,
          "dependentGloss": ","
        },
        {
          "dep": "name",
          "governor": 15,
          "governorGloss": "CNN",
          "dependent": 14,
          "dependentGloss": "Punk"
        },
        {
          "dep": "conj",
          "governor": 8,
          "governorGloss": "dachte",
          "dependent": 15,
          "dependentGloss": "CNN"
        },
        {
          "dep": "punct",
          "governor": 8,
          "governorGloss": "dachte",
          "dependent": 16,
          "dependentGloss": "'"
        }
      ],
      "enhancedDependencies": [
        {
          "dep": "ROOT",
          "governor": 0,
          "governorGloss": "ROOT",
          "dependent": 2,
          "dependentGloss": "Expert"
        },
        {
          "dep": "nsubj",
          "governor": 2,
          "governorGloss": "Expert",
          "dependent": 1,
          "dependentGloss": "CNN"
        },
        {
          "dep": "case",
          "governor": 5,
          "governorGloss": "Audio",
          "dependent": 3,
          "dependentGloss": "auf"
        },
        {
          "dep": "name",
          "governor": 5,
          "governorGloss": "Audio",
          "dependent": 4,
          "dependentGloss": "Brown"
        },
        {
          "dep": "nmod",
          "governor": 2,
          "governorGloss": "Expert",
          "dependent": 5,
          "dependentGloss": "Audio"
        },
        {
          "dep": "punct",
          "governor": 2,
          "governorGloss": "Expert",
          "dependent": 6,
          "dependentGloss": ":"
        },
        {
          "dep": "advmod",
          "governor": 8,
          "governorGloss": "dachte",
          "dependent": 7,
          "dependentGloss": "Zuerst"
        },
        {
          "dep": "parataxis",
          "governor": 2,
          "governorGloss": "Expert",
          "dependent": 8,
          "dependentGloss": "dachte"
        },
        {
          "dep": "nsubj",
          "governor": 8,
          "governorGloss": "dachte",
          "dependent": 9,
          "dependentGloss": "ich"
        },
        {
          "dep": "nsubj",
          "governor": 12,
          "governorGloss": "versucht",
          "dependent": 10,
          "dependentGloss": "`"
        },
        {
          "dep": "dobj",
          "governor": 12,
          "governorGloss": "versucht",
          "dependent": 11,
          "dependentGloss": "Jemand"
        },
        {
          "dep": "xcomp",
          "governor": 8,
          "governorGloss": "dachte",
          "dependent": 12,
          "dependentGloss": "versucht"
        },
        {
          "dep": "punct",
          "governor": 8,
          "governorGloss": "dachte",
          "dependent": 13,
          "dependentGloss": ","
        },
        {
          "dep": "name",
          "governor": 15,
          "governorGloss": "CNN",
          "dependent": 14,
          "dependentGloss": "Punk"
        },
        {
          "dep": "conj",
          "governor": 8,
          "governorGloss": "dachte",
          "dependent": 15,
          "dependentGloss": "CNN"
        },
        {
          "dep": "punct",
          "governor": 8,
          "governorGloss": "dachte",
          "dependent": 16,
          "dependentGloss": "'"
        }
      ],
      "enhancedPlusPlusDependencies": [
        {
          "dep": "ROOT",
          "governor": 0,
          "governorGloss": "ROOT",
          "dependent": 2,
          "dependentGloss": "Expert"
        },
        {
          "dep": "nsubj",
          "governor": 2,
          "governorGloss": "Expert",
          "dependent": 1,
          "dependentGloss": "CNN"
        },
        {
          "dep": "case",
          "governor": 5,
          "governorGloss": "Audio",
          "dependent": 3,
          "dependentGloss": "auf"
        },
        {
          "dep": "name",
          "governor": 5,
          "governorGloss": "Audio",
          "dependent": 4,
          "dependentGloss": "Brown"
        },
        {
          "dep": "nmod",
          "governor": 2,
          "governorGloss": "Expert",
          "dependent": 5,
          "dependentGloss": "Audio"
        },
        {
          "dep": "punct",
          "governor": 2,
          "governorGloss": "Expert",
          "dependent": 6,
          "dependentGloss": ":"
        },
        {
          "dep": "advmod",
          "governor": 8,
          "governorGloss": "dachte",
          "dependent": 7,
          "dependentGloss": "Zuerst"
        },
        {
          "dep": "parataxis",
          "governor": 2,
          "governorGloss": "Expert",
          "dependent": 8,
          "dependentGloss": "dachte"
        },
        {
          "dep": "nsubj",
          "governor": 8,
          "governorGloss": "dachte",
          "dependent": 9,
          "dependentGloss": "ich"
        },
        {
          "dep": "nsubj",
          "governor": 12,
          "governorGloss": "versucht",
          "dependent": 10,
          "dependentGloss": "`"
        },
        {
          "dep": "dobj",
          "governor": 12,
          "governorGloss": "versucht",
          "dependent": 11,
          "dependentGloss": "Jemand"
        },
        {
          "dep": "xcomp",
          "governor": 8,
          "governorGloss": "dachte",
          "dependent": 12,
          "dependentGloss": "versucht"
        },
        {
          "dep": "punct",
          "governor": 8,
          "governorGloss": "dachte",
          "dependent": 13,
          "dependentGloss": ","
        },
        {
          "dep": "name",
          "governor": 15,
          "governorGloss": "CNN",
          "dependent": 14,
          "dependentGloss": "Punk"
        },
        {
          "dep": "conj",
          "governor": 8,
          "governorGloss": "dachte",
          "dependent": 15,
          "dependentGloss": "CNN"
        },
        {
          "dep": "punct",
          "governor": 8,
          "governorGloss": "dachte",
          "dependent": 16,
          "dependentGloss": "'"
        }
      ],
      "tokens": [
        {
          "index": 1,
          "word": "CNN",
          "originalText": "CNN",
          "characterOffsetBegin": 0,
          "characterOffsetEnd": 3,
          "pos": "NE",
          "before": "",
          "after": " "
        },
        {
          "index": 2,
          "word": "Expert",
          "originalText": "Expert",
          "characterOffsetBegin": 4,
          "characterOffsetEnd": 10,
          "pos": "NE",
          "before": " ",
          "after": " "
        },
        {
          "index": 3,
          "word": "auf",
          "originalText": "auf",
          "characterOffsetBegin": 11,
          "characterOffsetEnd": 14,
          "pos": "APPR",
          "before": " ",
          "after": " "
        },
        {
          "index": 4,
          "word": "Brown",
          "originalText": "Brown",
          "characterOffsetBegin": 15,
          "characterOffsetEnd": 20,
          "pos": "NE",
          "before": " ",
          "after": " "
        },
        {
          "index": 5,
          "word": "Audio",
          "originalText": "Audio",
          "characterOffsetBegin": 21,
          "characterOffsetEnd": 26,
          "pos": "NE",
          "before": " ",
          "after": ""
        },
        {
          "index": 6,
          "word": ":",
          "originalText": ":",
          "characterOffsetBegin": 26,
          "characterOffsetEnd": 27,
          "pos": "$.",
          "before": "",
          "after": " "
        },
        {
          "index": 7,
          "word": "Zuerst",
          "originalText": "Zuerst",
          "characterOffsetBegin": 28,
          "characterOffsetEnd": 34,
          "pos": "ADV",
          "before": " ",
          "after": " "
        },
        {
          "index": 8,
          "word": "dachte",
          "originalText": "dachte",
          "characterOffsetBegin": 35,
          "characterOffsetEnd": 41,
          "pos": "VVFIN",
          "before": " ",
          "after": " "
        },
        {
          "index": 9,
          "word": "ich",
          "originalText": "ich",
          "characterOffsetBegin": 42,
          "characterOffsetEnd": 45,
          "pos": "PPER",
          "before": " ",
          "after": " "
        },
        {
          "index": 10,
          "word": "`",
          "originalText": "'",
          "characterOffsetBegin": 46,
          "characterOffsetEnd": 47,
          "pos": "CARD",
          "before": " ",
          "after": ""
        },
        {
          "index": 11,
          "word": "Jemand",
          "originalText": "Jemand",
          "characterOffsetBegin": 47,
          "characterOffsetEnd": 53,
          "pos": "NN",
          "before": "",
          "after": " "
        },
        {
          "index": 12,
          "word": "versucht",
          "originalText": "versucht",
          "characterOffsetBegin": 54,
          "characterOffsetEnd": 62,
          "pos": "VVFIN",
          "before": " ",
          "after": ""
        },
        {
          "index": 13,
          "word": ",",
          "originalText": ",",
          "characterOffsetBegin": 62,
          "characterOffsetEnd": 63,
          "pos": "$,",
          "before": "",
          "after": " "
        },
        {
          "index": 14,
          "word": "Punk",
          "originalText": "Punk",
          "characterOffsetBegin": 64,
          "characterOffsetEnd": 68,
          "pos": "NN",
          "before": " ",
          "after": " "
        },
        {
          "index": 15,
          "word": "CNN",
          "originalText": "CNN",
          "characterOffsetBegin": 69,
          "characterOffsetEnd": 72,
          "pos": "NE",
          "before": " ",
          "after": ""
        },
        {
          "index": 16,
          "word": "'",
          "originalText": "'",
          "characterOffsetBegin": 72,
          "characterOffsetEnd": 73,
          "pos": "$[",
          "before": "",
          "after": ""
        }
      ]
    }
  ]
}