{
  "sentences": [
    {
      "index": 0,
      "basicDependencies": [
        {
          "dep": "ROOT",
          "governor": 0,
          "governorGloss": "ROOT",
          "dependent": 7,
          "dependentGloss": "Bibeau"
        },
        {
          "dep": "name",
          "governor": 3,
          "governorGloss": "Sicherheitsaufnahmen",
          "dependent": 1,
          "dependentGloss": "RCMP"
        },
        {
          "dep": "name",
          "governor": 3,
          "governorGloss": "Sicherheitsaufnahmen",
          "dependent": 2,
          "dependentGloss": "Release"
        },
        {
          "dep": "nsubj",
          "governor": 7,
          "governorGloss": "Bibeau",
          "dependent": 3,
          "dependentGloss": "Sicherheitsaufnahmen"
        },
        {
          "dep": "case",
          "governor": 6,
          "governorGloss": "Zehaf",
          "dependent": 4,
          "dependentGloss": "von"
        },
        {
          "dep": "name",
          "governor": 6,
          "governorGloss": "Zehaf",
          "dependent": 5,
          "dependentGloss": "Michael"
        },
        {
          "dep": "nmod",
          "governor": 3,
          "governorGloss": "Sicherheitsaufnahmen",
          "dependent": 6,
          "dependentGloss": "Zehaf"
        },
        {
          "dep": "case",
          "governor": 10,
          "governorGloss": "Angriffs",
          "dependent": 8,
          "dependentGloss": "während"
        },
        {
          "dep": "det",
          "governor": 10,
          "governorGloss": "Angriffs",
          "dependent": 9,
          "dependentGloss": "des"
        },
        {
          "dep": "nmod",
          "governor": 7,
          "governorGloss": "Bibeau",
          "dependent": 10,
          "dependentGloss": "Angriffs"
        },
        {
          "dep": "punct",
          "governor": 10,
          "governorGloss": "Angriffs",
          "dependent": 11,
          "dependentGloss": ","
        },
        {
          "dep": "conj",
          "governor": 10,
          "governorGloss": "Angriffs",
          "dependent": 12,
          "dependentGloss": "sagen"
        },
        {
          "dep": "punct",
          "governor": 10,
          "governorGloss": "Angriffs",
          "dependent": 13,
          "dependentGloss": ","
        },
        {
          "dep": "nsubj",
          "governor": 18,
          "governorGloss": "Rücken",
          "dependent": 14,
          "dependentGloss": "er"
        },
        {
          "dep": "name",
          "governor": 17,
          "governorGloss": "im",
          "dependent": 15,
          "dependentGloss": "schoss"
        },
        {
          "dep": "name",
          "governor": 17,
          "governorGloss": "im",
          "dependent": 16,
          "dependentGloss": "Soldat"
        },
        {
          "dep": "dobj",
          "governor": 18,
          "governorGloss": "Rücken",
          "dependent": 17,
          "dependentGloss": "im"
        },
        {
          "dep": "acl",
          "governor": 10,
          "governorGloss": "Angriffs",
          "dependent": 18,
          "dependentGloss": "Rücken"
        }
      ],
      "enhancedDependencies": [
        {
          "dep": "ROOT",
          "governor": 0,
          "governorGloss": "ROOT",
          "dependent": 7,
          "dependentGloss": "Bibeau"
        },
        {
          "dep": "name",
          "governor": 3,
          "governorGloss": "Sicherheitsaufnahmen",
          "dependent": 1,
          "dependentGloss": "RCMP"
        },
        {
          "dep": "name",
          "governor": 3,
          "governorGloss": "Sicherheitsaufnahmen",
          "dependent": 2,
          "dependentGloss": "Release"
        },
        {
          "dep": "nsubj",
          "governor": 7,
          "governorGloss": "Bibeau",
          "dependent": 3,
          "dependentGloss": "Sicherheitsaufnahmen"
        },
        {
          "dep": "case",
          "governor": 6,
          "governorGloss": "Zehaf",
          "dependent": 4,
          "dependentGloss": "von"
        },
        {
          "dep": "name",
          "governor": 6,
          "governorGloss": "Zehaf",
          "dependent": 5,
          "dependentGloss": "Michael"
        },
        {
          "dep": "nmod",
          "governor": 3,
          "governorGloss": "Sicherheitsaufnahmen",
          "dependent": 6,
          "dependentGloss": "Zehaf"
        },
        {
          "dep": "case",
          "governor": 10,
          "governorGloss": "Angriffs",
          "dependent": 8,
          "dependentGloss": "während"
        },
        {
          "dep": "det",
          "governor": 10,
          "governorGloss": "Angriffs",
          "dependent": 9,
          "dependentGloss": "des"
        },
        {
          "dep": "nmod",
          "governor": 7,
          "governorGloss": "Bibeau",
          "dependent": 10,
          "dependentGloss": "Angriffs"
        },
        {
          "dep": "punct",
          "governor": 10,
          "governorGloss": "Angriffs",
          "dependent": 11,
          "dependentGloss": ","
        },
        {
          "dep": "conj",
          "governor": 10,
          "governorGloss": "Angriffs",
          "dependent": 12,
          "dependentGloss": "sagen"
        },
        {
          "dep": "punct",
          "governor": 10,
          "governorGloss": "Angriffs",
          "dependent": 13,
          "dependentGloss": ","
        },
        {
          "dep": "nsubj",
          "governor": 18,
          "governorGloss": "Rücken",
          "dependent": 14,
          "dependentGloss": "er"
        },
        {
          "dep": "name",
          "governor": 17,
          "governorGloss": "im",
          "dependent": 15,
          "dependentGloss": "schoss"
        },
        {
          "dep": "name",
          "governor": 17,
          "governorGloss": "im",
          "dependent": 16,
          "dependentGloss": "Soldat"
        },
        {
          "dep": "dobj",
          "governor": 18,
          "governorGloss": "Rücken",
          "dependent": 17,
          "dependentGloss": "im"
        },
        {
          "dep": "acl",
          "governor": 10,
          "governorGloss": "Angriffs",
          "dependent": 18,
          "dependentGloss": "Rücken"
        }
      ],
      "enhancedPlusPlusDependencies": [
        {
          "dep": "ROOT",
          "governor": 0,
          "governorGloss": "ROOT",
          "dependent": 7,
          "dependentGloss": "Bibeau"
        },
        {
          "dep": "name",
          "governor": 3,
          "governorGloss": "Sicherheitsaufnahmen",
          "dependent": 1,
          "dependentGloss": "RCMP"
        },
        {
          "dep": "name",
          "governor": 3,
          "governorGloss": "Sicherheitsaufnahmen",
          "dependent": 2,
          "dependentGloss": "Release"
        },
        {
          "dep": "nsubj",
          "governor": 7,
          "governorGloss": "Bibeau",
          "dependent": 3,
          "dependentGloss": "Sicherheitsaufnahmen"
        },
        {
          "dep": "case",
          "governor": 6,
          "governorGloss": "Zehaf",
          "dependent": 4,
          "dependentGloss": "von"
        },
        {
          "dep": "name",
          "governor": 6,
          "governorGloss": "Zehaf",
          "dependent": 5,
          "dependentGloss": "Michael"
        },
        {
          "dep": "nmod",
          "governor": 3,
          "governorGloss": "Sicherheitsaufnahmen",
          "dependent": 6,
          "dependentGloss": "Zehaf"
        },
        {
          "dep": "case",
          "governor": 10,
          "governorGloss": "Angriffs",
          "dependent": 8,
          "dependentGloss": "während"
        },
        {
          "dep": "det",
          "governor": 10,
          "governorGloss": "Angriffs",
          "dependent": 9,
          "dependentGloss": "des"
        },
        {
          "dep": "nmod",
          "governor": 7,
          "governorGloss": "Bibeau",
          "dependent": 10,
          "dependentGloss": "Angriffs"
        },
        {
          "dep": "punct",
          "governor": 10,
          "governorGloss": "Angriffs",
          "dependent": 11,
          "dependentGloss": ","
        },
        {
          "dep": "conj",
          "governor": 10,
          "governorGloss": "Angriffs",
          "dependent": 12,
          "dependentGloss": "sagen"
        },
        {
          "dep": "punct",
          "governor": 10,
          "governorGloss": "Angriffs",
          "dependent": 13,
          "dependentGloss": ","
        },
        {
          "dep": "nsubj",
          "governor": 18,
          "governorGloss": "Rücken",
          "dependent": 14,
          "dependentGloss": "er"
        },
        {
          "dep": "name",
          "governor": 17,
          "governorGloss": "im",
          "dependent": 15,
          "dependentGloss": "schoss"
        },
        {
          "dep": "name",
          "governor": 17,
          "governorGloss": "im",
          "dependent": 16,
          "dependentGloss": "Soldat"
        },
        {
          "dep": "dobj",
          "governor": 18,
          "governorGloss": "Rücken",
          "dependent": 17,
          "dependentGloss": "im"
        },
        {
          "dep": "acl",
          "governor": 10,
          "governorGloss": "Angriffs",
          "dependent": 18,
          "dependentGloss": "Rücken"
        }
      ],
      "tokens": [
        {
          "index": 1,
          "word": "RCMP",
          "originalText": "RCMP",
          "characterOffsetBegin": 0,
          "characterOffsetEnd": 4,
          "pos": "NE",
          "before": "",
          "after": " "
        },
        {
          "index": 2,
          "word": "Release",
          "originalText": "Release",
          "characterOffsetBegin": 5,
          "characterOffsetEnd": 12,
          "pos": "NE",
          "before": " ",
          "after": " "
        },
        {
          "index": 3,
          "word": "Sicherheitsaufnahmen",
          "originalText": "Sicherheitsaufnahmen",
          "characterOffsetBegin": 13,
          "characterOffsetEnd": 33,
          "pos": "NN",
          "before": " ",
          "after": " "
        },
        {
          "index": 4,
          "word": "von",
          "originalText": "von",
          "characterOffsetBegin": 34,
          "characterOffsetEnd": 37,
          "pos": "APPR",
          "before": " ",
          "after": " "
        },
        {
          "index": 5,
          "word": "Michael",
          "originalText": "Michael",
          "characterOffsetBegin": 38,
          "characterOffsetEnd": 45,
          "pos": "NE",
          "before": " ",
          "after": " "
        },
        {
          "index": 6,
          "word": "Zehaf",
          "originalText": "Zehaf",
          "characterOffsetBegin": 46,
          "characterOffsetEnd": 51,
          "pos": "NE",
          "before": " ",
          "after": " "
        },
        {
          "index": 7,
          "word": "Bibeau",
          "originalText": "Bibeau",
          "characterOffsetBegin": 52,
          "characterOffsetEnd": 58,
          "pos": "NE",
          "before": " ",
          "after": " "
        },
        {
          "index": 8,
          "word": "während",
          "originalText": "während",
          "characterOffsetBegin": 59,
          "characterOffsetEnd": 66,
          "pos": "APPR",
          "before": " ",
          "after": " "
        },
        {
          "index": 9,
          "word": "des",
          "originalText": "des",
          "characterOffsetBegin": 67,
          "characterOffsetEnd": 70,
          "pos": "ART",
          "before": " ",
          "after": " "
        },
        {
          "index": 10,
          "word": "Angriffs",
          "originalText": "Angriffs",
          "characterOffsetBegin": 71,
          "characterOffsetEnd": 79,
          "pos": "NN",
          "before": " ",
          "after": ""
        },
        {
          "index": 11,
          "word": ",",
          "originalText": ",",
          "characterOffsetBegin": 79,
          "characterOffsetEnd": 80,
          "pos": "$,",
          "before": "",
          "after": " "
        },
        {
          "index": 12,
          "word": "sagen",
          "originalText": "sagen",
          "characterOffsetBegin": 81,
          "characterOffsetEnd": 86,
          "pos": "VVINF",
          "before": " ",
          "after": ""
        },
        {
          "index": 13,
          "word": ",",
          "originalText": ",",
          "characterOffsetBegin": 86,
          "characterOffsetEnd": 87,
          "pos": "$,",
          "before": "",
          "after": " "
        },
        {
          "index": 14,
          "word": "er",
          "originalText": "er",
          "characterOffsetBegin": 88,
          "characterOffsetEnd": 90,
          "pos": "PPER",
          "before": " ",
          "after": " "
        },
        {
          "index": 15,
          "word": "schoss",
          "originalText": "schoss",
          "characterOffsetBegin": 91,
          "characterOffsetEnd": 97,
          "pos": "VVFIN",
          "before": " ",
          "after": " "
        },
        {
          "index": 16,
          "word": "Soldat",
          "originalText": "Soldat",
          "characterOffsetBegin": 98,
          "characterOffsetEnd": 104,
          "pos": "NN",
          "before": " ",
          "after": " "
        },
        {
          "index": 17,
          "word": "im",
          "originalText": "im",
          "characterOffsetBegin": 105,
          "characterOffsetEnd": 107,
          "pos": "APPRART",
          "before": " ",
          "after": " "
        },
        {
          "index": 18,
          "word": "Rücken",
          "originalText": "Rücken",
          "characterOffsetBegin": 108,
          "characterOffsetEnd": 114,
          "pos": "NN",
          "before": " ",
          "after": ""
        }
      ]
    }
  ]
}