{
  "sentences": [
    {
      "index": 0,
      "basicDependencies": [
        {
          "dep": "ROOT",
          "governor": 0,
          "governorGloss": "ROOT",
          "dependent": 3,
          "dependentGloss": "übergibt"
        },
        {
          "dep": "name",
          "governor": 2,
          "governorGloss": "Bale",
          "dependent": 1,
          "dependentGloss": "Christian"
        },
        {
          "dep": "nsubj",
          "governor": 3,
          "governorGloss": "übergibt",
          "dependent": 2,
          "dependentGloss": "Bale"
        },
        {
          "dep": "det",
          "governor": 5,
          "governorGloss": "Rolle",
          "dependent": 4,
          "dependentGloss": "die"
        },
        {
          "dep": "dobj",
          "governor": 3,
          "governorGloss": "übergibt",
          "dependent": 5,
          "dependentGloss": "Rolle"
        },
        {
          "dep": "case",
          "governor": 8,
          "governorGloss": "Jobs",
          "dependent": 6,
          "dependentGloss": "von"
        },
        {
          "dep": "name",
          "governor": 8,
          "governorGloss": "Jobs",
          "dependent": 7,
          "dependentGloss": "Steve"
        },
        {
          "dep": "nmod",
          "governor": 5,
          "governorGloss": "Rolle",
          "dependent": 8,
          "dependentGloss": "Jobs"
        },
        {
          "dep": "punct",
          "governor": 8,
          "governorGloss": "Jobs",
          "dependent": 9,
          "dependentGloss": ","
        },
        {
          "dep": "det",
          "governor": 11,
          "governorGloss": "Schauspieler",
          "dependent": 10,
          "dependentGloss": "der"
        },
        {
          "dep": "iobj",
          "governor": 12,
          "governorGloss": "fühlte",
          "dependent": 11,
          "dependentGloss": "Schauspieler"
        },
        {
          "dep": "conj",
          "governor": 8,
          "governorGloss": "Jobs",
          "dependent": 12,
          "dependentGloss": "fühlte"
        },
        {
          "dep": "punct",
          "governor": 8,
          "governorGloss": "Jobs",
          "dependent": 13,
          "dependentGloss": ","
        },
        {
          "dep": "mark",
          "governor": 17,
          "governorGloss": "richtig",
          "dependent": 14,
          "dependentGloss": "dass"
        },
        {
          "dep": "nsubj",
          "governor": 17,
          "governorGloss": "richtig",
          "dependent": 15,
          "dependentGloss": "er"
        },
        {
          "dep": "neg",
          "governor": 17,
          "governorGloss": "richtig",
          "dependent": 16,
          "dependentGloss": "nicht"
        },
        {
          "dep": "ccomp",
          "governor": 8,
          "governorGloss": "Jobs",
          "dependent": 17,
          "dependentGloss": "richtig"
        },
        {
          "dep": "cop",
          "governor": 17,
          "governorGloss": "richtig",
          "dependent": 18,
          "dependentGloss": "war"
        }
      ],
      "enhancedDependencies": [
        {
          "dep": "ROOT",
          "governor": 0,
          "governorGloss": "ROOT",
          "dependent": 3,
          "dependentGloss": "übergibt"
        },
        {
          "dep": "name",
          "governor": 2,
          "governorGloss": "Bale",
          "dependent": 1,
          "dependentGloss": "Christian"
        },
        {
          "dep": "nsubj",
          "governor": 3,
          "governorGloss": "übergibt",
          "dependent": 2,
          "dependentGloss": "Bale"
        },
        {
          "dep": "det",
          "governor": 5,
          "governorGloss": "Rolle",
          "dependent": 4,
          "dependentGloss": "die"
        },
        {
          "dep": "dobj",
          "governor": 3,
          "governorGloss": "übergibt",
          "dependent": 5,
          "dependentGloss": "Rolle"
        },
        {
          "dep": "case",
          "governor": 8,
          "governorGloss": "Jobs",
          "dependent": 6,
          "dependentGloss": "von"
        },
        {
          "dep": "name",
          "governor": 8,
          "governorGloss": "Jobs",
          "dependent": 7,
          "dependentGloss": "Steve"
        },
        {
          "dep": "nmod",
          "governor": 5,
          "governorGloss": "Rolle",
          "dependent": 8,
          "dependentGloss": "Jobs"
        },
        {
          "dep": "punct",
          "governor": 8,
          "governorGloss": "Jobs",
          "dependent": 9,
          "dependentGloss": ","
        },
        {
          "dep": "det",
          "governor": 11,
          "governorGloss": "Schauspieler",
          "dependent": 10,
          "dependentGloss": "der"
        },
        {
          "dep": "iobj",
          "governor": 12,
          "governorGloss": "fühlte",
          "dependent": 11,
          "dependentGloss": "Schauspieler"
        },
        {
          "dep": "conj",
          "governor": 8,
          "governorGloss": "Jobs",
          "dependent": 12,
          "dependentGloss": "fühlte"
        },
        {
          "dep": "punct",
          "governor": 8,
          "governorGloss": "Jobs",
          "dependent": 13,
          "dependentGloss": ","
        },
        {
          "dep": "mark",
          "governor": 17,
          "governorGloss": "richtig",
          "dependent": 14,
          "dependentGloss": "dass"
        },
        {
          "dep": "nsubj",
          "governor": 17,
          "governorGloss": "richtig",
          "dependent": 15,
          "dependentGloss": "er"
        },
        {
          "dep": "neg",
          "governor": 17,
          "governorGloss": "richtig",
          "dependent": 16,
          "dependentGloss": "nicht"
        },
        {
          "dep": "ccomp",
          "governor": 8,
          "governorGloss": "Jobs",
          "dependent": 17,
          "dependentGloss": "richtig"
        },
        {
          "dep": "cop",
          "governor": 17,
          "governorGloss": "richtig",
          "dependent": 18,
          "dependentGloss": "war"
        }
      ],
      "enhancedPlusPlusDependencies": [
        {
          "dep": "ROOT",
          "governor": 0,
          "governorGloss": "ROOT",
          "dependent": 3,
          "dependentGloss": "übergibt"
        },
        {
          "dep": "name",
          "governor": 2,
          "governorGloss": "Bale",
          "dependent": 1,
          "dependentGloss": "Christian"
        },
        {
          "dep": "nsubj",
          "governor": 3,
          "governorGloss": "übergibt",
          "dependent": 2,
          "dependentGloss": "Bale"
        },
        {
          "dep": "det",
          "governor": 5,
          "governorGloss": "Rolle",
          "dependent": 4,
          "dependentGloss": "die"
        },
        {
          "dep": "dobj",
          "governor": 3,
          "governorGloss": "übergibt",
          "dependent": 5,
          "dependentGloss": "Rolle"
        },
        {
          "dep": "case",
          "governor": 8,
          "governorGloss": "Jobs",
          "dependent": 6,
          "dependentGloss": "von"
        },
        {
          "dep": "name",
          "governor": 8,
          "governorGloss": "Jobs",
          "dependent": 7,
          "dependentGloss": "Steve"
        },
        {
          "dep": "nmod",
          "governor": 5,
          "governorGloss": "Rolle",
          "dependent": 8,
          "dependentGloss": "Jobs"
        },
        {
          "dep": "punct",
          "governor": 8,
          "governorGloss": "Jobs",
          "dependent": 9,
          "dependentGloss": ","
        },
        {
          "dep": "det",
          "governor": 11,
          "governorGloss": "Schauspieler",
          "dependent": 10,
          "dependentGloss": "der"
        },
        {
          "dep": "iobj",
          "governor": 12,
          "governorGloss": "fühlte",
          "dependent": 11,
          "dependentGloss": "Schauspieler"
        },
        {
          "dep": "conj",
          "governor": 8,
          "governorGloss": "Jobs",
          "dependent": 12,
          "dependentGloss": "fühlte"
        },
        {
          "dep": "punct",
          "governor": 8,
          "governorGloss": "Jobs",
          "dependent": 13,
          "dependentGloss": ","
        },
        {
          "dep": "mark",
          "governor": 17,
          "governorGloss": "richtig",
          "dependent": 14,
          "dependentGloss": "dass"
        },
        {
          "dep": "nsubj",
          "governor": 17,
          "governorGloss": "richtig",
          "dependent": 15,
          "dependentGloss": "er"
        },
        {
          "dep": "neg",
          "governor": 17,
          "governorGloss": "richtig",
          "dependent": 16,
          "dependentGloss": "nicht"
        },
        {
          "dep": "ccomp",
          "governor": 8,
          "governorGloss": "Jobs",
          "dependent": 17,
          "dependentGloss": "richtig"
        },
        {
          "dep": "cop",
          "governor": 17,
          "governorGloss": "richtig",
          "dependent": 18,
          "dependentGloss": "war"
        }
      ],
      "tokens": [
        {
          "index": 1,
          "word": "Christian",
          "originalText": "Christian",
          "characterOffsetBegin": 0,
          "characterOffsetEnd": 9,
          "pos": "NE",
          "before": "",
          "after": " "
        },
        {
          "index": 2,
          "word": "Bale",
          "originalText": "Bale",
          "characterOffsetBegin": 10,
          "characterOffsetEnd": 14,
          "pos": "NE",
          "before": " ",
          "after": " "
        },
        {
          "index": 3,
          "word": "übergibt",
          "originalText": "übergibt",
          "characterOffsetBegin": 15,
          "characterOffsetEnd": 23,
          "pos": "VVFIN",
          "before": " ",
          "after": " "
        },
        {
          "index": 4,
          "word": "die",
          "originalText": "die",
          "characterOffsetBegin": 24,
          "characterOffsetEnd": 27,
          "pos": "ART",
          "before": " ",
          "after": " "
        },
        {
          "index": 5,
          "word": "Rolle",
          "originalText": "Rolle",
          "characterOffsetBegin": 28,
          "characterOffsetEnd": 33,
          "pos": "NN",
          "before": " ",
          "after": " "
        },
        {
          "index": 6,
          "word": "von",
          "originalText": "von",
          "characterOffsetBegin": 34,
          "characterOffsetEnd": 37,
          "pos": "APPR",
          "before": " ",
          "after": " "
        },
        {
          "index": 7,
          "word": "Steve",
          "originalText": "Steve",
          "characterOffsetBegin": 38,
          "characterOffsetEnd": 43,
          "pos": "NE",
          "before": " ",
          "after": " "
        },
        {
          "index": 8,
          "word": "Jobs",
          "originalText": "Jobs",
          "characterOffsetBegin": 44,
          "characterOffsetEnd": 48,
          "pos": "NN",
          "before": " ",
          "after": ""
        },
        {
          "index": 9,
          "word": ",",
          "originalText": ",",
          "characterOffsetBegin": 48,
          "characterOffsetEnd": 49,
          "pos": "$,",
          "before": "",
          "after": " "
        },
        {
          "index": 10,
          "word": "der",
          "originalText": "der",
          "characterOffsetBegin": 50,
          "characterOffsetEnd": 53,
          "pos": "ART",
          "before": " ",
          "after": " "
        },
        {
          "index": 11,
          "word": "Schauspieler",
          "originalText": "Schauspieler",
          "characterOffsetBegin": 54,
          "characterOffsetEnd": 66,
          "pos": "NN",
          "before": " ",
          "after": " "
        },
        {
          "index": 12,
          "word": "fühlte",
          "originalText": "fühlte",
          "characterOffsetBegin": 67,
          "characterOffsetEnd": 73,
          "pos": "VVFIN",
          "before": " ",
          "after": ""
        },
        {
          "index": 13,
          "word": ",",
          "originalText": ",",
          "characterOffsetBegin": 73,
          "characterOffsetEnd": 74,
          "pos": "$,",
          "before": "",
          "after": " "
        },
        {
          "index": 14,
          "word": "dass",
          "originalText": "dass",
          "characterOffsetBegin": 75,
          "characterOffsetEnd": 79,
          "pos": "KOUS",
          "before": " ",
          "after": " "
        },
        {
          "index": 15,
          "word": "er",
          "originalText": "er",
          "characterOffsetBegin": 80,
          "characterOffsetEnd": 82,
          "pos": "PPER",
          "before": " ",
          "after": " "
        },
        {
          "index": 16,
          "word": "nicht",
          "originalText": "nicht",
          "characterOffsetBegin": 83,
          "characterOffsetEnd": 88,
          "pos": "PTKNEG",
          "before": " ",
          "after": " "
        },
        {
          "index": 17,
          "word": "richtig",
          "originalText": "richtig",
          "characterOffsetBegin": 89,
          "characterOffsetEnd": 96,
          "pos": "ADJD",
          "before": " ",
          "after": " "
        },
        {
          "index": 18,
          "word": "war",
          "originalText": "war",
          "characterOffsetBegin": 97,
          "characterOffsetEnd": 100,
          "pos": "VAFIN",
          "before": " ",
          "after": ""
        }
      ]
    }
  ]
}