{
  "sentences": [
    {
      "index": 0,
      "basicDependencies": [
        {
          "dep": "ROOT",
          "governor": 0,
          "governorGloss": "ROOT",
          "dependent": 1,
          "dependentGloss": "IRAQI"
        },
        {
          "dep": "appos",
          "governor": 1,
          "governorGloss": "IRAQI",
          "dependent": 2,
          "dependentGloss": "UND"
        },
        {
          "dep": "amod",
          "governor": 4,
          "governorGloss": "MEDIENBERICHTE",
          "dependent": 3,
          "dependentGloss": "KURDISCHE"
        },
        {
          "dep": "root",
          "governor": 2,
          "governorGloss": "UND",
          "dependent": 4,
          "dependentGloss": "MEDIENBERICHTE"
        },
        {
          "dep": "punct",
          "governor": 4,
          "governorGloss": "MEDIENBERICHTE",
          "dependent": 5,
          "dependentGloss": ":"
        },
        {
          "dep": "name",
          "governor": 8,
          "governorGloss": "HABEN",
          "dependent": 6,
          "dependentGloss": "ISIS"
        },
        {
          "dep": "name",
          "governor": 8,
          "governorGloss": "HABEN",
          "dependent": 7,
          "dependentGloss": "KÄMPFEN"
        },
        {
          "dep": "appos",
          "governor": 4,
          "governorGloss": "MEDIENBERICHTE",
          "dependent": 8,
          "dependentGloss": "HABEN"
        },
        {
          "dep": "amod",
          "governor": 10,
          "governorGloss": "EBOLA",
          "dependent": 9,
          "dependentGloss": "VERTRAGEN"
        },
        {
          "dep": "appos",
          "governor": 8,
          "governorGloss": "HABEN",
          "dependent": 10,
          "dependentGloss": "EBOLA"
        }
      ],
      "enhancedDependencies": [
        {
          "dep": "ROOT",
          "governor": 0,
          "governorGloss": "ROOT",
          "dependent": 1,
          "dependentGloss": "IRAQI"
        },
        {
          "dep": "appos",
          "governor": 1,
          "governorGloss": "IRAQI",
          "dependent": 2,
          "dependentGloss": "UND"
        },
        {
          "dep": "amod",
          "governor": 4,
          "governorGloss": "MEDIENBERICHTE",
          "dependent": 3,
          "dependentGloss": "KURDISCHE"
        },
        {
          "dep": "root",
          "governor": 2,
          "governorGloss": "UND",
          "dependent": 4,
          "dependentGloss": "MEDIENBERICHTE"
        },
        {
          "dep": "punct",
          "governor": 4,
          "governorGloss": "MEDIENBERICHTE",
          "dependent": 5,
          "dependentGloss": ":"
        },
        {
          "dep": "name",
          "governor": 8,
          "governorGloss": "HABEN",
          "dependent": 6,
          "dependentGloss": "ISIS"
        },
        {
          "dep": "name",
          "governor": 8,
          "governorGloss": "HABEN",
          "dependent": 7,
          "dependentGloss": "KÄMPFEN"
        },
        {
          "dep": "appos",
          "governor": 4,
          "governorGloss": "MEDIENBERICHTE",
          "dependent": 8,
          "dependentGloss": "HABEN"
        },
        {
          "dep": "amod",
          "governor": 10,
          "governorGloss": "EBOLA",
          "dependent": 9,
          "dependentGloss": "VERTRAGEN"
        },
        {
          "dep": "appos",
          "governor": 8,
          "governorGloss": "HABEN",
          "dependent": 10,
          "dependentGloss": "EBOLA"
        }
      ],
      "enhancedPlusPlusDependencies": [
        {
          "dep": "ROOT",
          "governor": 0,
          "governorGloss": "ROOT",
          "dependent": 1,
          "dependentGloss": "IRAQI"
        },
        {
          "dep": "appos",
          "governor": 1,
          "governorGloss": "IRAQI",
          "dependent": 2,
          "dependentGloss": "UND"
        },
        {
          "dep": "amod",
          "governor": 4,
          "governorGloss": "MEDIENBERICHTE",
          "dependent": 3,
          "dependentGloss": "KURDISCHE"
        },
        {
          "dep": "root",
          "governor": 2,
          "governorGloss": "UND",
          "dependent": 4,
          "dependentGloss": "MEDIENBERICHTE"
        },
        {
          "dep": "punct",
          "governor": 4,
          "governorGloss": "MEDIENBERICHTE",
          "dependent": 5,
          "dependentGloss": ":"
        },
        {
          "dep": "name",
          "governor": 8,
          "governorGloss": "HABEN",
          "dependent": 6,
          "dependentGloss": "ISIS"
        },
        {
          "dep": "name",
          "governor": 8,
          "governorGloss": "HABEN",
          "dependent": 7,
          "dependentGloss": "KÄMPFEN"
        },
        {
          "dep": "appos",
          "governor": 4,
          "governorGloss": "MEDIENBERICHTE",
          "dependent": 8,
          "dependentGloss": "HABEN"
        },
        {
          "dep": "amod",
          "governor": 10,
          "governorGloss": "EBOLA",
          "dependent": 9,
          "dependentGloss": "VERTRAGEN"
        },
        {
          "dep": "appos",
          "governor": 8,
          "governorGloss": "HABEN",
          "dependent": 10,
          "dependentGloss": "EBOLA"
        }
      ],
      "tokens": [
        {
          "index": 1,
          "word": "IRAQI",
          "originalText": "IRAQI",
          "characterOffsetBegin": 0,
          "characterOffsetEnd": 5,
          "pos": "NE",
          "before": "",
          "after": " "
        },
        {
          "index": 2,
          "word": "UND",
          "originalText": "UND",
          "characterOffsetBegin": 6,
          "characterOffsetEnd": 9,
          "pos": "KON",
          "before": " ",
          "after": " "
        },
        {
          "index": 3,
          "word": "KURDISCHE",
          "originalText": "KURDISCHE",
          "characterOffsetBegin": 10,
          "characterOffsetEnd": 19,
          "pos": "ADJA",
          "before": " ",
          "after": " "
        },
        {
          "index": 4,
          "word": "MEDIENBERICHTE",
          "originalText": "MEDIENBERICHTE",
          "characterOffsetBegin": 20,
          "characterOffsetEnd": 34,
          "pos": "NN",
          "before": " ",
          "after": ""
        },
        {
          "index": 5,
          "word": ":",
          "originalText": ":",
          "characterOffsetBegin": 34,
          "characterOffsetEnd": 35,
          "pos": "$.",
          "before": "",
          "after": " "
        },
        {
          "index": 6,
          "word": "ISIS",
          "originalText": "ISIS",
          "characterOffsetBegin": 36,
          "characterOffsetEnd": 40,
          "pos": "NE",
          "before": " ",
          "after": " "
        },
        {
          "index": 7,
          "word": "KÄMPFEN",
          "originalText": "KÄMPFEN",
          "characterOffsetBegin": 41,
          "characterOffsetEnd": 48,
          "pos": "NE",
          "before": " ",
          "after": " "
        },
        {
          "index": 8,
          "word": "HABEN",
          "originalText": "HABEN",
          "characterOffsetBegin": 49,
          "characterOffsetEnd": 54,
          "pos": "NE",
          "before": " ",
          "after": " "
        },
        {
          "index": 9,
          "word": "VERTRAGEN",
          "originalText": "VERTRAGEN",
          "characterOffsetBegin": 55,
          "characterOffsetEnd": 64,
          "pos": "NN",
          "before": " ",
          "after": " "
        },
        {
          "index": 10,
          "word": "EBOLA",
          "originalText": "EBOLA",
          "characterOffsetBegin": 65,
          "characterOffsetEnd": 70,
          "pos": "NE",
          "before": " ",
          "after": ""
        }
      ]
    }
  ]
}