{
  "sentences": [
    {
      "index": 0,
      "basicDependencies": [
        {
          "dep": "ROOT",
          "governor": 0,
          "governorGloss": "ROOT",
          "dependent": 15,
          "dependentGloss": "Reality-Check"
        },
        {
          "dep": "mark",
          "governor": 4,
          "governorGloss": "glaubten",
          "dependent": 1,
          "dependentGloss": "Wenn"
        },
        {
          "dep": "nsubj",
          "governor": 4,
          "governorGloss": "glaubten",
          "dependent": 2,
          "dependentGloss": "Sie"
        },
        {
          "dep": "advmod",
          "governor": 4,
          "governorGloss": "glaubten",
          "dependent": 3,
          "dependentGloss": "wirklich"
        },
        {
          "dep": "advcl",
          "governor": 15,
          "governorGloss": "Reality-Check",
          "dependent": 4,
          "dependentGloss": "glaubten"
        },
        {
          "dep": "punct",
          "governor": 4,
          "governorGloss": "glaubten",
          "dependent": 5,
          "dependentGloss": ","
        },
        {
          "dep": "mark",
          "governor": 10,
          "governorGloss": "verkaufen",
          "dependent": 6,
          "dependentGloss": "dass"
        },
        {
          "dep": "nsubj",
          "governor": 10,
          "governorGloss": "verkaufen",
          "dependent": 7,
          "dependentGloss": "Colorado"
        },
        {
          "dep": "advmod",
          "governor": 10,
          "governorGloss": "verkaufen",
          "dependent": 8,
          "dependentGloss": "KFCs"
        },
        {
          "dep": "dobj",
          "governor": 10,
          "governorGloss": "verkaufen",
          "dependent": 9,
          "dependentGloss": "Pot"
        },
        {
          "dep": "ccomp",
          "governor": 4,
          "governorGloss": "glaubten",
          "dependent": 10,
          "dependentGloss": "verkaufen"
        },
        {
          "dep": "punct",
          "governor": 15,
          "governorGloss": "Reality-Check",
          "dependent": 11,
          "dependentGloss": ","
        },
        {
          "dep": "cop",
          "governor": 15,
          "governorGloss": "Reality-Check",
          "dependent": 12,
          "dependentGloss": "ist"
        },
        {
          "dep": "advmod",
          "governor": 15,
          "governorGloss": "Reality-Check",
          "dependent": 13,
          "dependentGloss": "hier"
        },
        {
          "dep": "det",
          "governor": 15,
          "governorGloss": "Reality-Check",
          "dependent": 14,
          "dependentGloss": "ein"
        }
      ],
      "enhancedDependencies": [
        {
          "dep": "ROOT",
          "governor": 0,
          "governorGloss": "ROOT",
          "dependent": 15,
          "dependentGloss": "Reality-Check"
        },
        {
          "dep": "mark",
          "governor": 4,
          "governorGloss": "glaubten",
          "dependent": 1,
          "dependentGloss": "Wenn"
        },
        {
          "dep": "nsubj",
          "governor": 4,
          "governorGloss": "glaubten",
          "dependent": 2,
          "dependentGloss": "Sie"
        },
        {
          "dep": "advmod",
          "governor": 4,
          "governorGloss": "glaubten",
          "dependent": 3,
          "dependentGloss": "wirklich"
        },
        {
          "dep": "advcl",
          "governor": 15,
          "governorGloss": "Reality-Check",
          "dependent": 4,
          "dependentGloss": "glaubten"
        },
        {
          "dep": "punct",
          "governor": 4,
          "governorGloss": "glaubten",
          "dependent": 5,
          "dependentGloss": ","
        },
        {
          "dep": "mark",
          "governor": 10,
          "governorGloss": "verkaufen",
          "dependent": 6,
          "dependentGloss": "dass"
        },
        {
          "dep": "nsubj",
          "governor": 10,
          "governorGloss": "verkaufen",
          "dependent": 7,
          "dependentGloss": "Colorado"
        },
        {
          "dep": "advmod",
          "governor": 10,
          "governorGloss": "verkaufen",
          "dependent": 8,
          "dependentGloss": "KFCs"
        },
        {
          "dep": "dobj",
          "governor": 10,
          "governorGloss": "verkaufen",
          "dependent": 9,
          "dependentGloss": "Pot"
        },
        {
          "dep": "ccomp",
          "governor": 4,
          "governorGloss": "glaubten",
          "dependent": 10,
          "dependentGloss": "verkaufen"
        },
        {
          "dep": "punct",
          "governor": 15,
          "governorGloss": "Reality-Check",
          "dependent": 11,
          "dependentGloss": ","
        },
        {
          "dep": "cop",
          "governor": 15,
          "governorGloss": "Reality-Check",
          "dependent": 12,
          "dependentGloss": "ist"
        },
        {
          "dep": "advmod",
          "governor": 15,
          "governorGloss": "Reality-Check",
          "dependent": 13,
          "dependentGloss": "hier"
        },
        {
          "dep": "det",
          "governor": 15,
          "governorGloss": "Reality-Check",
          "dependent": 14,
          "dependentGloss": "ein"
        }
      ],
      "enhancedPlusPlusDependencies": [
        {
          "dep": "ROOT",
          "governor": 0,
          "governorGloss": "ROOT",
          "dependent": 15,
          "dependentGloss": "Reality-Check"
        },
        {
          "dep": "mark",
          "governor": 4,
          "governorGloss": "glaubten",
          "dependent": 1,
          "dependentGloss": "Wenn"
        },
        {
          "dep": "nsubj",
          "governor": 4,
          "governorGloss": "glaubten",
          "dependent": 2,
          "dependentGloss": "Sie"
        },
        {
          "dep": "advmod",
          "governor": 4,
          "governorGloss": "glaubten",
          "dependent": 3,
          "dependentGloss": "wirklich"
        },
        {
          "dep": "advcl",
          "governor": 15,
          "governorGloss": "Reality-Check",
          "dependent": 4,
          "dependentGloss": "glaubten"
        },
        {
          "dep": "punct",
          "governor": 4,
          "governorGloss": "glaubten",
          "dependent": 5,
          "dependentGloss": ","
        },
        {
          "dep": "mark",
          "governor": 10,
          "governorGloss": "verkaufen",
          "dependent": 6,
          "dependentGloss": "dass"
        },
        {
          "dep": "nsubj",
          "governor": 10,
          "governorGloss": "verkaufen",
          "dependent": 7,
          "dependentGloss": "Colorado"
        },
        {
          "dep": "advmod",
          "governor": 10,
          "governorGloss": "verkaufen",
          "dependent": 8,
          "dependentGloss": "KFCs"
        },
        {
          "dep": "dobj",
          "governor": 10,
          "governorGloss": "verkaufen",
          "dependent": 9,
          "dependentGloss": "Pot"
        },
        {
          "dep": "ccomp",
          "governor": 4,
          "governorGloss": "glaubten",
          "dependent": 10,
          "dependentGloss": "verkaufen"
        },
        {
          "dep": "punct",
          "governor": 15,
          "governorGloss": "Reality-Check",
          "dependent": 11,
          "dependentGloss": ","
        },
        {
          "dep": "cop",
          "governor": 15,
          "governorGloss": "Reality-Check",
          "dependent": 12,
          "dependentGloss": "ist"
        },
        {
          "dep": "advmod",
          "governor": 15,
          "governorGloss": "Reality-Check",
          "dependent": 13,
          "dependentGloss": "hier"
        },
        {
          "dep": "det",
          "governor": 15,
          "governorGloss": "Reality-Check",
          "dependent": 14,
          "dependentGloss": "ein"
        }
      ],
      "tokens": [
        {
          "index": 1,
          "word": "Wenn",
          "originalText": "Wenn",
          "characterOffsetBegin": 0,
          "characterOffsetEnd": 4,
          "pos": "KOUS",
          "before": "",
          "after": " "
        },
        {
          "index": 2,
          "word": "Sie",
          "originalText": "Sie",
          "characterOffsetBegin": 5,
          "characterOffsetEnd": 8,
          "pos": "PPER",
          "before": " ",
          "after": " "
        },
        {
          "index": 3,
          "word": "wirklich",
          "originalText": "wirklich",
          "characterOffsetBegin": 9,
          "characterOffsetEnd": 17,
          "pos": "ADJD",
          "before": " ",
          "after": " "
        },
        {
          "index": 4,
          "word": "glaubten",
          "originalText": "glaubten",
          "characterOffsetBegin": 18,
          "characterOffsetEnd": 26,
          "pos": "VVFIN",
          "before": " ",
          "after": ""
        },
        {
          "index": 5,
          "word": ",",
          "originalText": ",",
          "characterOffsetBegin": 26,
          "characterOffsetEnd": 27,
          "pos": "$,",
          "before": "",
          "after": " "
        },
        {
          "index": 6,
          "word": "dass",
          "originalText": "dass",
          "characterOffsetBegin": 28,
          "characterOffsetEnd": 32,
          "pos": "KOUS",
          "before": " ",
          "after": " "
        },
        {
          "index": 7,
          "word": "Colorado",
          "originalText": "Colorado",
          "characterOffsetBegin": 33,
          "characterOffsetEnd": 41,
          "pos": "NE",
          "before": " ",
          "after": " "
        },
        {
          "index": 8,
          "word": "KFCs",
          "originalText": "KFCs",
          "characterOffsetBegin": 42,
          "characterOffsetEnd": 46,
          "pos": "NE",
          "before": " ",
          "after": " "
        },
        {
          "index": 9,
          "word": "Pot",
          "originalText": "Pot",
          "characterOffsetBegin": 47,
          "characterOffsetEnd": 50,
          "pos": "NE",
          "before": " ",
          "after": " "
        },
        {
          "index": 10,
          "word": "verkaufen",
          "originalText": "verkaufen",
          "characterOffsetBegin": 51,
          "characterOffsetEnd": 60,
          "pos": "VVINF",
          "before": " ",
          "after": ""
        },
        {
          "index": 11,
          "word": ",",
          "originalText": ",",
          "characterOffsetBegin": 60,
          "characterOffsetEnd": 61,
          "pos": "$,",
          "before": "",
          "after": " "
        },
        {
          "index": 12,
          "word": "ist",
          "originalText": "ist",
          "characterOffsetBegin": 62,
          "characterOffsetEnd": 65,
          "pos": "VAFIN",
          "before": " ",
          "after": " "
        },
        {
          "index": 13,
          "word": "hier",
          "originalText": "hier",
          "characterOffsetBegin": 66,
          "characterOffsetEnd": 70,
          "pos": "ADV",
          "before": " ",
          "after": " "
        },
        {
          "index": 14,
          "word": "ein",
          "originalText": "ein",
          "characterOffsetBegin": 71,
          "characterOffsetEnd": 74,
          "pos": "ART",
          "before": " ",
          "after": " "
        },
        {
          "index": 15,
          "word": "Reality-Check",
          "originalText": "Reality-Check",
          "characterOffsetBegin": 75,
          "characterOffsetEnd": 88,
          "pos": "NN",
          "before": " ",
          "after": ""
        }
      ]
    }
  ]
}