{
  "sentences": [
    {
      "index": 0,
      "basicDependencies": [
        {
          "dep": "ROOT",
          "governor": 0,
          "governorGloss": "ROOT",
          "dependent": 2,
          "dependentGloss": "fördert"
        },
        {
          "dep": "nsubj",
          "governor": 2,
          "governorGloss": "fördert",
          "dependent": 1,
          "dependentGloss": "#RIPFidel"
        },
        {
          "dep": "amod",
          "governor": 4,
          "governorGloss": "Gerüchte",
          "dependent": 3,
          "dependentGloss": "falsche"
        },
        {
          "dep": "dobj",
          "governor": 2,
          "governorGloss": "fördert",
          "dependent": 4,
          "dependentGloss": "Gerüchte"
        },
        {
          "dep": "case",
          "governor": 7,
          "governorGloss": "Tod",
          "dependent": 5,
          "dependentGloss": "über"
        },
        {
          "dep": "det",
          "governor": 7,
          "governorGloss": "Tod",
          "dependent": 6,
          "dependentGloss": "den"
        },
        {
          "dep": "nmod",
          "governor": 4,
          "governorGloss": "Gerüchte",
          "dependent": 7,
          "dependentGloss": "Tod"
        },
        {
          "dep": "det",
          "governor": 10,
          "governorGloss": "Führers",
          "dependent": 8,
          "dependentGloss": "des"
        },
        {
          "dep": "amod",
          "governor": 10,
          "governorGloss": "Führers",
          "dependent": 9,
          "dependentGloss": "kubanischen"
        },
        {
          "dep": "det",
          "governor": 7,
          "governorGloss": "Tod",
          "dependent": 10,
          "dependentGloss": "Führers"
        },
        {
          "dep": "case",
          "governor": 14,
          "governorGloss": "Fidel",
          "dependent": 11,
          "dependentGloss": "nach"
        },
        {
          "dep": "det",
          "governor": 14,
          "governorGloss": "Fidel",
          "dependent": 12,
          "dependentGloss": "dem"
        },
        {
          "dep": "amod",
          "governor": 14,
          "governorGloss": "Fidel",
          "dependent": 13,
          "dependentGloss": "anderen"
        },
        {
          "dep": "nmod",
          "governor": 2,
          "governorGloss": "fördert",
          "dependent": 14,
          "dependentGloss": "Fidel"
        },
        {
          "dep": "appos",
          "governor": 14,
          "governorGloss": "Fidel",
          "dependent": 15,
          "dependentGloss": "Castro"
        },
        {
          "dep": "dep",
          "governor": 2,
          "governorGloss": "fördert",
          "dependent": 16,
          "dependentGloss": "stirbt"
        }
      ],
      "enhancedDependencies": [
        {
          "dep": "ROOT",
          "governor": 0,
          "governorGloss": "ROOT",
          "dependent": 2,
          "dependentGloss": "fördert"
        },
        {
          "dep": "nsubj",
          "governor": 2,
          "governorGloss": "fördert",
          "dependent": 1,
          "dependentGloss": "#RIPFidel"
        },
        {
          "dep": "amod",
          "governor": 4,
          "governorGloss": "Gerüchte",
          "dependent": 3,
          "dependentGloss": "falsche"
        },
        {
          "dep": "dobj",
          "governor": 2,
          "governorGloss": "fördert",
          "dependent": 4,
          "dependentGloss": "Gerüchte"
        },
        {
          "dep": "case",
          "governor": 7,
          "governorGloss": "Tod",
          "dependent": 5,
          "dependentGloss": "über"
        },
        {
          "dep": "det",
          "governor": 7,
          "governorGloss": "Tod",
          "dependent": 6,
          "dependentGloss": "den"
        },
        {
          "dep": "nmod",
          "governor": 4,
          "governorGloss": "Gerüchte",
          "dependent": 7,
          "dependentGloss": "Tod"
        },
        {
          "dep": "det",
          "governor": 10,
          "governorGloss": "Führers",
          "dependent": 8,
          "dependentGloss": "des"
        },
        {
          "dep": "amod",
          "governor": 10,
          "governorGloss": "Führers",
          "dependent": 9,
          "dependentGloss": "kubanischen"
        },
        {
          "dep": "det",
          "governor": 7,
          "governorGloss": "Tod",
          "dependent": 10,
          "dependentGloss": "Führers"
        },
        {
          "dep": "case",
          "governor": 14,
          "governorGloss": "Fidel",
          "dependent": 11,
          "dependentGloss": "nach"
        },
        {
          "dep": "det",
          "governor": 14,
          "governorGloss": "Fidel",
          "dependent": 12,
          "dependentGloss": "dem"
        },
        {
          "dep": "amod",
          "governor": 14,
          "governorGloss": "Fidel",
          "dependent": 13,
          "dependentGloss": "anderen"
        },
        {
          "dep": "nmod",
          "governor": 2,
          "governorGloss": "fördert",
          "dependent": 14,
          "dependentGloss": "Fidel"
        },
        {
          "dep": "appos",
          "governor": 14,
          "governorGloss": "Fidel",
          "dependent": 15,
          "dependentGloss": "Castro"
        },
        {
          "dep": "dep",
          "governor": 2,
          "governorGloss": "fördert",
          "dependent": 16,
          "dependentGloss": "stirbt"
        }
      ],
      "enhancedPlusPlusDependencies": [
        {
          "dep": "ROOT",
          "governor": 0,
          "governorGloss": "ROOT",
          "dependent": 2,
          "dependentGloss": "fördert"
        },
        {
          "dep": "nsubj",
          "governor": 2,
          "governorGloss": "fördert",
          "dependent": 1,
          "dependentGloss": "#RIPFidel"
        },
        {
          "dep": "amod",
          "governor": 4,
          "governorGloss": "Gerüchte",
          "dependent": 3,
          "dependentGloss": "falsche"
        },
        {
          "dep": "dobj",
          "governor": 2,
          "governorGloss": "fördert",
          "dependent": 4,
          "dependentGloss": "Gerüchte"
        },
        {
          "dep": "case",
          "governor": 7,
          "governorGloss": "Tod",
          "dependent": 5,
          "dependentGloss": "über"
        },
        {
          "dep": "det",
          "governor": 7,
          "governorGloss": "Tod",
          "dependent": 6,
          "dependentGloss": "den"
        },
        {
          "dep": "nmod",
          "governor": 4,
          "governorGloss": "Gerüchte",
          "dependent": 7,
          "dependentGloss": "Tod"
        },
        {
          "dep": "det",
          "governor": 10,
          "governorGloss": "Führers",
          "dependent": 8,
          "dependentGloss": "des"
        },
        {
          "dep": "amod",
          "governor": 10,
          "governorGloss": "Führers",
          "dependent": 9,
          "dependentGloss": "kubanischen"
        },
        {
          "dep": "det",
          "governor": 7,
          "governorGloss": "Tod",
          "dependent": 10,
          "dependentGloss": "Führers"
        },
        {
          "dep": "case",
          "governor": 14,
          "governorGloss": "Fidel",
          "dependent": 11,
          "dependentGloss": "nach"
        },
        {
          "dep": "det",
          "governor": 14,
          "governorGloss": "Fidel",
          "dependent": 12,
          "dependentGloss": "dem"
        },
        {
          "dep": "amod",
          "governor": 14,
          "governorGloss": "Fidel",
          "dependent": 13,
          "dependentGloss": "anderen"
        },
        {
          "dep": "nmod",
          "governor": 2,
          "governorGloss": "fördert",
          "dependent": 14,
          "dependentGloss": "Fidel"
        },
        {
          "dep": "appos",
          "governor": 14,
          "governorGloss": "Fidel",
          "dependent": 15,
          "dependentGloss": "Castro"
        },
        {
          "dep": "dep",
          "governor": 2,
          "governorGloss": "fördert",
          "dependent": 16,
          "dependentGloss": "stirbt"
        }
      ],
      "tokens": [
        {
          "index": 1,
          "word": "#RIPFidel",
          "originalText": "#RIPFidel",
          "characterOffsetBegin": 0,
          "characterOffsetEnd": 9,
          "pos": "NE",
          "before": "",
          "after": " "
        },
        {
          "index": 2,
          "word": "fördert",
          "originalText": "fördert",
          "characterOffsetBegin": 10,
          "characterOffsetEnd": 17,
          "pos": "VVFIN",
          "before": " ",
          "after": " "
        },
        {
          "index": 3,
          "word": "falsche",
          "originalText": "falsche",
          "characterOffsetBegin": 18,
          "characterOffsetEnd": 25,
          "pos": "ADJA",
          "before": " ",
          "after": " "
        },
        {
          "index": 4,
          "word": "Gerüchte",
          "originalText": "Gerüchte",
          "characterOffsetBegin": 26,
          "characterOffsetEnd": 34,
          "pos": "NN",
          "before": " ",
          "after": " "
        },
        {
          "index": 5,
          "word": "über",
          "originalText": "über",
          "characterOffsetBegin": 35,
          "characterOffsetEnd": 39,
          "pos": "APPR",
          "before": " ",
          "after": " "
        },
        {
          "index": 6,
          "word": "den",
          "originalText": "den",
          "characterOffsetBegin": 40,
          "characterOffsetEnd": 43,
          "pos": "ART",
          "before": " ",
          "after": " "
        },
        {
          "index": 7,
          "word": "Tod",
          "originalText": "Tod",
          "characterOffsetBegin": 44,
          "characterOffsetEnd": 47,
          "pos": "NN",
          "before": " ",
          "after": " "
        },
        {
          "index": 8,
          "word": "des",
          "originalText": "des",
          "characterOffsetBegin": 48,
          "characterOffsetEnd": 51,
          "pos": "ART",
          "before": " ",
          "after": " "
        },
        {
          "index": 9,
          "word": "kubanischen",
          "originalText": "kubanischen",
          "characterOffsetBegin": 52,
          "characterOffsetEnd": 63,
          "pos": "ADJA",
          "before": " ",
          "after": " "
        },
        {
          "index": 10,
          "word": "Führers",
          "originalText": "Führers",
          "characterOffsetBegin": 64,
          "characterOffsetEnd": 71,
          "pos": "NN",
          "before": " ",
          "after": " "
        },
        {
          "index": 11,
          "word": "nach",
          "originalText": "nach",
          "characterOffsetBegin": 72,
          "characterOffsetEnd": 76,
          "pos": "APPR",
          "before": " ",
          "after": " "
        },
        {
          "index": 12,
          "word": "dem",
          "originalText": "dem",
          "characterOffsetBegin": 77,
          "characterOffsetEnd": 80,
          "pos": "ART",
          "before": " ",
          "after": " "
        },
        {
          "index": 13,
          "word": "anderen",
          "originalText": "anderen",
          "characterOffsetBegin": 81,
          "characterOffsetEnd": 88,
          "pos": "ADJA",
          "before": " ",
          "after": " "
        },
        {
          "index": 14,
          "word": "Fidel",
          "originalText": "Fidel",
          "characterOffsetBegin": 89,
          "characterOffsetEnd": 94,
          "pos": "NE",
          "before": " ",
          "after": " "
        },
        {
          "index": 15,
          "word": "Castro",
          "originalText": "Castro",
          "characterOffsetBegin": 95,
          "characterOffsetEnd": 101,
          "pos": "NE",
          "before": " ",
          "after": " "
        },
        {
          "index": 16,
          "word": "stirbt",
          "originalText": "stirbt",
          "characterOffsetBegin": 102,
          "characterOffsetEnd": 108,
          "pos": "VVFIN",
          "before": " ",
          "after": ""
        }
      ]
    }
  ]
}