{
  "sentences": [
    {
      "index": 0,
      "basicDependencies": [
        {
          "dep": "ROOT",
          "governor": 0,
          "governorGloss": "ROOT",
          "dependent": 12,
          "dependentGloss": "Real"
        },
        {
          "dep": "mark",
          "governor": 8,
          "governorGloss": "hören",
          "dependent": 1,
          "dependentGloss": "Dass"
        },
        {
          "dep": "advmod",
          "governor": 8,
          "governorGloss": "hören",
          "dependent": 2,
          "dependentGloss": "ESPN"
        },
        {
          "dep": "nsubj",
          "governor": 8,
          "governorGloss": "hören",
          "dependent": 3,
          "dependentGloss": "Domestic"
        },
        {
          "dep": "dobj",
          "governor": 8,
          "governorGloss": "hören",
          "dependent": 4,
          "dependentGloss": "Violence"
        },
        {
          "dep": "aux",
          "governor": 8,
          "governorGloss": "hören",
          "dependent": 5,
          "dependentGloss": "Panel"
        },
        {
          "dep": "nsubj",
          "governor": 8,
          "governorGloss": "hören",
          "dependent": 6,
          "dependentGloss": "Sie"
        },
        {
          "dep": "advmod",
          "governor": 8,
          "governorGloss": "hören",
          "dependent": 7,
          "dependentGloss": "immer"
        },
        {
          "dep": "advcl",
          "governor": 12,
          "governorGloss": "Real",
          "dependent": 8,
          "dependentGloss": "hören"
        },
        {
          "dep": "punct",
          "governor": 12,
          "governorGloss": "Real",
          "dependent": 9,
          "dependentGloss": ","
        },
        {
          "dep": "cop",
          "governor": 12,
          "governorGloss": "Real",
          "dependent": 10,
          "dependentGloss": "ist"
        },
        {
          "dep": "neg",
          "governor": 10,
          "governorGloss": "ist",
          "dependent": 11,
          "dependentGloss": "nicht"
        }
      ],
      "enhancedDependencies": [
        {
          "dep": "ROOT",
          "governor": 0,
          "governorGloss": "ROOT",
          "dependent": 12,
          "dependentGloss": "Real"
        },
        {
          "dep": "mark",
          "governor": 8,
          "governorGloss": "hören",
          "dependent": 1,
          "dependentGloss": "Dass"
        },
        {
          "dep": "advmod",
          "governor": 8,
          "governorGloss": "hören",
          "dependent": 2,
          "dependentGloss": "ESPN"
        },
        {
          "dep": "nsubj",
          "governor": 8,
          "governorGloss": "hören",
          "dependent": 3,
          "dependentGloss": "Domestic"
        },
        {
          "dep": "dobj",
          "governor": 8,
          "governorGloss": "hören",
          "dependent": 4,
          "dependentGloss": "Violence"
        },
        {
          "dep": "aux",
          "governor": 8,
          "governorGloss": "hören",
          "dependent": 5,
          "dependentGloss": "Panel"
        },
        {
          "dep": "nsubj",
          "governor": 8,
          "governorGloss": "hören",
          "dependent": 6,
          "dependentGloss": "Sie"
        },
        {
          "dep": "advmod",
          "governor": 8,
          "governorGloss": "hören",
          "dependent": 7,
          "dependentGloss": "immer"
        },
        {
          "dep": "advcl",
          "governor": 12,
          "governorGloss": "Real",
          "dependent": 8,
          "dependentGloss": "hören"
        },
        {
          "dep": "punct",
          "governor": 12,
          "governorGloss": "Real",
          "dependent": 9,
          "dependentGloss": ","
        },
        {
          "dep": "cop",
          "governor": 12,
          "governorGloss": "Real",
          "dependent": 10,
          "dependentGloss": "ist"
        },
        {
          "dep": "neg",
          "governor": 10,
          "governorGloss": "ist",
          "dependent": 11,
          "dependentGloss": "nicht"
        }
      ],
      "enhancedPlusPlusDependencies": [
        {
          "dep": "ROOT",
          "governor": 0,
          "governorGloss": "ROOT",
          "dependent": 12,
          "dependentGloss": "Real"
        },
        {
          "dep": "mark",
          "governor": 8,
          "governorGloss": "hören",
          "dependent": 1,
          "dependentGloss": "Dass"
        },
        {
          "dep": "advmod",
          "governor": 8,
          "governorGloss": "hören",
          "dependent": 2,
          "dependentGloss": "ESPN"
        },
        {
          "dep": "nsubj",
          "governor": 8,
          "governorGloss": "hören",
          "dependent": 3,
          "dependentGloss": "Domestic"
        },
        {
          "dep": "dobj",
          "governor": 8,
          "governorGloss": "hören",
          "dependent": 4,
          "dependentGloss": "Violence"
        },
        {
          "dep": "aux",
          "governor": 8,
          "governorGloss": "hören",
          "dependent": 5,
          "dependentGloss": "Panel"
        },
        {
          "dep": "nsubj",
          "governor": 8,
          "governorGloss": "hören",
          "dependent": 6,
          "dependentGloss": "Sie"
        },
        {
          "dep": "advmod",
          "governor": 8,
          "governorGloss": "hören",
          "dependent": 7,
          "dependentGloss": "immer"
        },
        {
          "dep": "advcl",
          "governor": 12,
          "governorGloss": "Real",
          "dependent": 8,
          "dependentGloss": "hören"
        },
        {
          "dep": "punct",
          "governor": 12,
          "governorGloss": "Real",
          "dependent": 9,
          "dependentGloss": ","
        },
        {
          "dep": "cop",
          "governor": 12,
          "governorGloss": "Real",
          "dependent": 10,
          "dependentGloss": "ist"
        },
        {
          "dep": "neg",
          "governor": 10,
          "governorGloss": "ist",
          "dependent": 11,
          "dependentGloss": "nicht"
        }
      ],
      "tokens": [
        {
          "index": 1,
          "word": "Dass",
          "originalText": "Dass",
          "characterOffsetBegin": 0,
          "characterOffsetEnd": 4,
          "pos": "KOUS",
          "before": "",
          "after": " "
        },
        {
          "index": 2,
          "word": "ESPN",
          "originalText": "ESPN",
          "characterOffsetBegin": 5,
          "characterOffsetEnd": 9,
          "pos": "NE",
          "before": " ",
          "after": " "
        },
        {
          "index": 3,
          "word": "Domestic",
          "originalText": "Domestic",
          "characterOffsetBegin": 10,
          "characterOffsetEnd": 18,
          "pos": "FM",
          "before": " ",
          "after": " "
        },
        {
          "index": 4,
          "word": "Violence",
          "originalText": "Violence",
          "characterOffsetBegin": 19,
          "characterOffsetEnd": 27,
          "pos": "FM",
          "before": " ",
          "after": " "
        },
        {
          "index": 5,
          "word": "Panel",
          "originalText": "Panel",
          "characterOffsetBegin": 28,
          "characterOffsetEnd": 33,
          "pos": "FM",
          "before": " ",
          "after": " "
        },
        {
          "index": 6,
          "word": "Sie",
          "originalText": "Sie",
          "characterOffsetBegin": 34,
          "characterOffsetEnd": 37,
          "pos": "PPER",
          "before": " ",
          "after": " "
        },
        {
          "index": 7,
          "word": "immer",
          "originalText": "immer",
          "characterOffsetBegin": 38,
          "characterOffsetEnd": 43,
          "pos": "ADV",
          "before": " ",
          "after": " "
        },
        {
          "index": 8,
          "word": "hören",
          "originalText": "hören",
          "characterOffsetBegin": 44,
          "characterOffsetEnd": 49,
          "pos": "VVFIN",
          "before": " ",
          "after": ""
        },
        {
          "index": 9,
          "word": ",",
          "originalText": ",",
          "characterOffsetBegin": 49,
          "characterOffsetEnd": 50,
          "pos": "$,",
          "before": "",
          "after": " "
        },
        {
          "index": 10,
          "word": "ist",
          "originalText": "ist",
          "characterOffsetBegin": 51,
          "characterOffsetEnd": 54,
          "pos": "VAFIN",
          "before": " ",
          "after": " "
        },
        {
          "index": 11,
          "word": "nicht",
          "originalText": "nicht",
          "characterOffsetBegin": 55,
          "characterOffsetEnd": 60,
          "pos": "PTKNEG",
          "before": " ",
          "after": " "
        },
        {
          "index": 12,
          "word": "Real",
          "originalText": "Real",
          "characterOffsetBegin": 61,
          "characterOffsetEnd": 65,
          "pos": "NE",
          "before": " ",
          "after": ""
        }
      ]
    }
  ]
}