{
  "sentences": [
    {
      "index": 0,
      "basicDependencies": [
        {
          "dep": "ROOT",
          "governor": 0,
          "governorGloss": "ROOT",
          "dependent": 2,
          "dependentGloss": "Staat"
        },
        {
          "dep": "amod",
          "governor": 2,
          "governorGloss": "Staat",
          "dependent": 1,
          "dependentGloss": "Islamischen"
        },
        {
          "dep": "dep",
          "governor": 2,
          "governorGloss": "Staat",
          "dependent": 3,
          "dependentGloss": "`"
        },
        {
          "dep": "compound",
          "governor": 5,
          "governorGloss": "Piloten",
          "dependent": 4,
          "dependentGloss": "Training"
        },
        {
          "dep": "root",
          "governor": 3,
          "governorGloss": "`",
          "dependent": 5,
          "dependentGloss": "Piloten"
        },
        {
          "dep": "case",
          "governor": 8,
          "governorGloss": "Kampfjets",
          "dependent": 6,
          "dependentGloss": "zu"
        },
        {
          "dep": "det",
          "governor": 8,
          "governorGloss": "Kampfjets",
          "dependent": 7,
          "dependentGloss": "fliegen"
        },
        {
          "dep": "nmod",
          "governor": 5,
          "governorGloss": "Piloten",
          "dependent": 8,
          "dependentGloss": "Kampfjets"
        },
        {
          "dep": "punct",
          "governor": 5,
          "governorGloss": "Piloten",
          "dependent": 9,
          "dependentGloss": "'"
        }
      ],
      "enhancedDependencies": [
        {
          "dep": "ROOT",
          "governor": 0,
          "governorGloss": "ROOT",
          "dependent": 2,
          "dependentGloss": "Staat"
        },
        {
          "dep": "amod",
          "governor": 2,
          "governorGloss": "Staat",
          "dependent": 1,
          "dependentGloss": "Islamischen"
        },
        {
          "dep": "dep",
          "governor": 2,
          "governorGloss": "Staat",
          "dependent": 3,
          "dependentGloss": "`"
        },
        {
          "dep": "compound",
          "governor": 5,
          "governorGloss": "Piloten",
          "dependent": 4,
          "dependentGloss": "Training"
        },
        {
          "dep": "root",
          "governor": 3,
          "governorGloss": "`",
          "dependent": 5,
          "dependentGloss": "Piloten"
        },
        {
          "dep": "case",
          "governor": 8,
          "governorGloss": "Kampfjets",
          "dependent": 6,
          "dependentGloss": "zu"
        },
        {
          "dep": "det",
          "governor": 8,
          "governorGloss": "Kampfjets",
          "dependent": 7,
          "dependentGloss": "fliegen"
        },
        {
          "dep": "nmod",
          "governor": 5,
          "governorGloss": "Piloten",
          "dependent": 8,
          "dependentGloss": "Kampfjets"
        },
        {
          "dep": "punct",
          "governor": 5,
          "governorGloss": "Piloten",
          "dependent": 9,
          "dependentGloss": "'"
        }
      ],
      "enhancedPlusPlusDependencies": [
        {
          "dep": "ROOT",
          "governor": 0,
          "governorGloss": "ROOT",
          "dependent": 2,
          "dependentGloss": "Staat"
        },
        {
          "dep": "amod",
          "governor": 2,
          "governorGloss": "Staat",
          "dependent": 1,
          "dependentGloss": "Islamischen"
        },
        {
          "dep": "dep",
          "governor": 2,
          "governorGloss": "Staat",
          "dependent": 3,
          "dependentGloss": "`"
        },
        {
          "dep": "compound",
          "governor": 5,
          "governorGloss": "Piloten",
          "dependent": 4,
          "dependentGloss": "Training"
        },
        {
          "dep": "root",
          "governor": 3,
          "governorGloss": "`",
          "dependent": 5,
          "dependentGloss": "Piloten"
        },
        {
          "dep": "case",
          "governor": 8,
          "governorGloss": "Kampfjets",
          "dependent": 6,
          "dependentGloss": "zu"
        },
        {
          "dep": "det",
          "governor": 8,
          "governorGloss": "Kampfjets",
          "dependent": 7,
          "dependentGloss": "fliegen"
        },
        {
          "dep": "nmod",
          "governor": 5,
          "governorGloss": "Piloten",
          "dependent": 8,
          "dependentGloss": "Kampfjets"
        },
        {
          "dep": "punct",
          "governor": 5,
          "governorGloss": "Piloten",
          "dependent": 9,
          "dependentGloss": "'"
        }
      ],
      "tokens": [
        {
          "index": 1,
          "word": "Islamischen",
          "originalText": "Islamischen",
          "characterOffsetBegin": 0,
          "characterOffsetEnd": 11,
          "pos": "ADJA",
          "before": "",
          "after": " "
        },
        {
          "index": 2,
          "word": "Staat",
          "originalText": "Staat",
          "characterOffsetBegin": 12,
          "characterOffsetEnd": 17,
          "pos": "NN",
          "before": " ",
          "after": " "
        },
        {
          "index": 3,
          "word": "`",
          "originalText": "'",
          "characterOffsetBegin": 18,
          "characterOffsetEnd": 19,
          "pos": "CARD",
          "before": " ",
          "after": ""
        },
        {
          "index": 4,
          "word": "Training",
          "originalText": "Training",
          "characterOffsetBegin": 19,
          "characterOffsetEnd": 27,
          "pos": "NN",
          "before": "",
          "after": " "
        },
        {
          "index": 5,
          "word": "Piloten",
          "originalText": "Piloten",
          "characterOffsetBegin": 28,
          "characterOffsetEnd": 35,
          "pos": "NN",
          "before": " ",
          "after": " "
        },
        {
          "index": 6,
          "word": "zu",
          "originalText": "zu",
          "characterOffsetBegin": 36,
          "characterOffsetEnd": 38,
          "pos": "PTKZU",
          "before": " ",
          "after": " "
        },
        {
          "index": 7,
          "word": "fliegen",
          "originalText": "fliegen",
          "characterOffsetBegin": 39,
          "characterOffsetEnd": 46,
          "pos": "VVINF",
          "before": " ",
          "after": " "
        },
        {
          "index": 8,
          "word": "Kampfjets",
          "originalText": "Kampfjets",
          "characterOffsetBegin": 47,
          "characterOffsetEnd": 56,
          "pos": "NN",
          "before": " ",
          "after": ""
        },
        {
          "index": 9,
          "word": "'",
          "originalText": "'",
          "characterOffsetBegin": 56,
          "characterOffsetEnd": 57,
          "pos": "$[",
          "before": "",
          "after": ""
        }
      ]
    }
  ]
}