{
  "sentences": [
    {
      "index": 0,
      "basicDependencies": [
        {
          "dep": "ROOT",
          "governor": 0,
          "governorGloss": "ROOT",
          "dependent": 1,
          "dependentGloss": "12in"
        },
        {
          "dep": "nsubj",
          "governor": 1,
          "governorGloss": "12in",
          "dependent": 2,
          "dependentGloss": "Retina"
        },
        {
          "dep": "amod",
          "governor": 4,
          "governorGloss": "Luft",
          "dependent": 3,
          "dependentGloss": "MacBook"
        },
        {
          "dep": "det",
          "governor": 2,
          "governorGloss": "Retina",
          "dependent": 4,
          "dependentGloss": "Luft"
        },
        {
          "dep": "amod",
          "governor": 6,
          "governorGloss": "Datum",
          "dependent": 5,
          "dependentGloss": "Release"
        },
        {
          "dep": "det",
          "governor": 4,
          "governorGloss": "Luft",
          "dependent": 6,
          "dependentGloss": "Datum"
        },
        {
          "dep": "appos",
          "governor": 6,
          "governorGloss": "Datum",
          "dependent": 7,
          "dependentGloss": "Gerüchte"
        },
        {
          "dep": "punct",
          "governor": 6,
          "governorGloss": "Datum",
          "dependent": 8,
          "dependentGloss": ":"
        },
        {
          "dep": "amod",
          "governor": 13,
          "governorGloss": "Design",
          "dependent": 9,
          "dependentGloss": "All-neue"
        },
        {
          "dep": "amod",
          "governor": 13,
          "governorGloss": "Design",
          "dependent": 10,
          "dependentGloss": "12in"
        },
        {
          "dep": "amod",
          "governor": 13,
          "governorGloss": "Design",
          "dependent": 11,
          "dependentGloss": "MacBook"
        },
        {
          "dep": "name",
          "governor": 13,
          "governorGloss": "Design",
          "dependent": 12,
          "dependentGloss": "Air"
        },
        {
          "dep": "appos",
          "governor": 6,
          "governorGloss": "Datum",
          "dependent": 13,
          "dependentGloss": "Design"
        },
        {
          "dep": "case",
          "governor": 15,
          "governorGloss": "2015",
          "dependent": 14,
          "dependentGloss": "für"
        },
        {
          "dep": "nmod",
          "governor": 13,
          "governorGloss": "Design",
          "dependent": 15,
          "dependentGloss": "2015"
        },
        {
          "dep": "punct",
          "governor": 4,
          "governorGloss": "Luft",
          "dependent": 16,
          "dependentGloss": ","
        },
        {
          "dep": "appos",
          "governor": 4,
          "governorGloss": "Luft",
          "dependent": 17,
          "dependentGloss": "starten"
        },
        {
          "dep": "case",
          "governor": 19,
          "governorGloss": "WWDC",
          "dependent": 18,
          "dependentGloss": "bei"
        },
        {
          "dep": "nmod",
          "governor": 17,
          "governorGloss": "starten",
          "dependent": 19,
          "dependentGloss": "WWDC"
        },
        {
          "dep": "punct",
          "governor": 1,
          "governorGloss": "12in",
          "dependent": 20,
          "dependentGloss": "?"
        }
      ],
      "enhancedDependencies": [
        {
          "dep": "ROOT",
          "governor": 0,
          "governorGloss": "ROOT",
          "dependent": 1,
          "dependentGloss": "12in"
        },
        {
          "dep": "nsubj",
          "governor": 1,
          "governorGloss": "12in",
          "dependent": 2,
          "dependentGloss": "Retina"
        },
        {
          "dep": "amod",
          "governor": 4,
          "governorGloss": "Luft",
          "dependent": 3,
          "dependentGloss": "MacBook"
        },
        {
          "dep": "det",
          "governor": 2,
          "governorGloss": "Retina",
          "dependent": 4,
          "dependentGloss": "Luft"
        },
        {
          "dep": "amod",
          "governor": 6,
          "governorGloss": "Datum",
          "dependent": 5,
          "dependentGloss": "Release"
        },
        {
          "dep": "det",
          "governor": 4,
          "governorGloss": "Luft",
          "dependent": 6,
          "dependentGloss": "Datum"
        },
        {
          "dep": "appos",
          "governor": 6,
          "governorGloss": "Datum",
          "dependent": 7,
          "dependentGloss": "Gerüchte"
        },
        {
          "dep": "punct",
          "governor": 6,
          "governorGloss": "Datum",
          "dependent": 8,
          "dependentGloss": ":"
        },
        {
          "dep": "amod",
          "governor": 13,
          "governorGloss": "Design",
          "dependent": 9,
          "dependentGloss": "All-neue"
        },
        {
          "dep": "amod",
          "governor": 13,
          "governorGloss": "Design",
          "dependent": 10,
          "dependentGloss": "12in"
        },
        {
          "dep": "amod",
          "governor": 13,
          "governorGloss": "Design",
          "dependent": 11,
          "dependentGloss": "MacBook"
        },
        {
          "dep": "name",
          "governor": 13,
          "governorGloss": "Design",
          "dependent": 12,
          "dependentGloss": "Air"
        },
        {
          "dep": "appos",
          "governor": 6,
          "governorGloss": "Datum",
          "dependent": 13,
          "dependentGloss": "Design"
        },
        {
          "dep": "case",
          "governor": 15,
          "governorGloss": "2015",
          "dependent": 14,
          "dependentGloss": "für"
        },
        {
          "dep": "nmod",
          "governor": 13,
          "governorGloss": "Design",
          "dependent": 15,
          "dependentGloss": "2015"
        },
        {
          "dep": "punct",
          "governor": 4,
          "governorGloss": "Luft",
          "dependent": 16,
          "dependentGloss": ","
        },
        {
          "dep": "appos",
          "governor": 4,
          "governorGloss": "Luft",
          "dependent": 17,
          "dependentGloss": "starten"
        },
        {
          "dep": "case",
          "governor": 19,
          "governorGloss": "WWDC",
          "dependent": 18,
          "dependentGloss": "bei"
        },
        {
          "dep": "nmod",
          "governor": 17,
          "governorGloss": "starten",
          "dependent": 19,
          "dependentGloss": "WWDC"
        },
        {
          "dep": "punct",
          "governor": 1,
          "governorGloss": "12in",
          "dependent": 20,
          "dependentGloss": "?"
        }
      ],
      "enhancedPlusPlusDependencies": [
        {
          "dep": "ROOT",
          "governor": 0,
          "governorGloss": "ROOT",
          "dependent": 1,
          "dependentGloss": "12in"
        },
        {
          "dep": "nsubj",
          "governor": 1,
          "governorGloss": "12in",
          "dependent": 2,
          "dependentGloss": "Retina"
        },
        {
          "dep": "amod",
          "governor": 4,
          "governorGloss": "Luft",
          "dependent": 3,
          "dependentGloss": "MacBook"
        },
        {
          "dep": "det",
          "governor": 2,
          "governorGloss": "Retina",
          "dependent": 4,
          "dependentGloss": "Luft"
        },
        {
          "dep": "amod",
          "governor": 6,
          "governorGloss": "Datum",
          "dependent": 5,
          "dependentGloss": "Release"
        },
        {
          "dep": "det",
          "governor": 4,
          "governorGloss": "Luft",
          "dependent": 6,
          "dependentGloss": "Datum"
        },
        {
          "dep": "appos",
          "governor": 6,
          "governorGloss": "Datum",
          "dependent": 7,
          "dependentGloss": "Gerüchte"
        },
        {
          "dep": "punct",
          "governor": 6,
          "governorGloss": "Datum",
          "dependent": 8,
          "dependentGloss": ":"
        },
        {
          "dep": "amod",
          "governor": 13,
          "governorGloss": "Design",
          "dependent": 9,
          "dependentGloss": "All-neue"
        },
        {
          "dep": "amod",
          "governor": 13,
          "governorGloss": "Design",
          "dependent": 10,
          "dependentGloss": "12in"
        },
        {
          "dep": "amod",
          "governor": 13,
          "governorGloss": "Design",
          "dependent": 11,
          "dependentGloss": "MacBook"
        },
        {
          "dep": "name",
          "governor": 13,
          "governorGloss": "Design",
          "dependent": 12,
          "dependentGloss": "Air"
        },
        {
          "dep": "appos",
          "governor": 6,
          "governorGloss": "Datum",
          "dependent": 13,
          "dependentGloss": "Design"
        },
        {
          "dep": "case",
          "governor": 15,
          "governorGloss": "2015",
          "dependent": 14,
          "dependentGloss": "für"
        },
        {
          "dep": "nmod",
          "governor": 13,
          "governorGloss": "Design",
          "dependent": 15,
          "dependentGloss": "2015"
        },
        {
          "dep": "punct",
          "governor": 4,
          "governorGloss": "Luft",
          "dependent": 16,
          "dependentGloss": ","
        },
        {
          "dep": "appos",
          "governor": 4,
          "governorGloss": "Luft",
          "dependent": 17,
          "dependentGloss": "starten"
        },
        {
          "dep": "case",
          "governor": 19,
          "governorGloss": "WWDC",
          "dependent": 18,
          "dependentGloss": "bei"
        },
        {
          "dep": "nmod",
          "governor": 17,
          "governorGloss": "starten",
          "dependent": 19,
          "dependentGloss": "WWDC"
        },
        {
          "dep": "punct",
          "governor": 1,
          "governorGloss": "12in",
          "dependent": 20,
          "dependentGloss": "?"
        }
      ],
      "tokens": [
        {
          "index": 1,
          "word": "12in",
          "originalText": "12in",
          "characterOffsetBegin": 0,
          "characterOffsetEnd": 4,
          "pos": "CARD",
          "before": "",
          "after": " "
        },
        {
          "index": 2,
          "word": "Retina",
          "originalText": "Retina",
          "characterOffsetBegin": 5,
          "characterOffsetEnd": 11,
          "pos": "NE",
          "before": " ",
          "after": " "
        },
        {
          "index": 3,
          "word": "MacBook",
          "originalText": "MacBook",
          "characterOffsetBegin": 12,
          "characterOffsetEnd": 19,
          "pos": "NE",
          "before": " ",
          "after": " "
        },
        {
          "index": 4,
          "word": "Luft",
          "originalText": "Luft",
          "characterOffsetBegin": 20,
          "characterOffsetEnd": 24,
          "pos": "NN",
          "before": " ",
          "after": " "
        },
        {
          "index": 5,
          "word": "Release",
          "originalText": "Release",
          "characterOffsetBegin": 25,
          "characterOffsetEnd": 32,
          "pos": "NN",
          "before": " ",
          "after": " "
        },
        {
          "index": 6,
          "word": "Datum",
          "originalText": "Datum",
          "characterOffsetBegin": 33,
          "characterOffsetEnd": 38,
          "pos": "NN",
          "before": " ",
          "after": " "
        },
        {
          "index": 7,
          "word": "Gerüchte",
          "originalText": "Gerüchte",
          "characterOffsetBegin": 39,
          "characterOffsetEnd": 47,
          "pos": "NN",
          "before": " ",
          "after": ""
        },
        {
          "index": 8,
          "word": ":",
          "originalText": ":",
          "characterOffsetBegin": 47,
          "characterOffsetEnd": 48,
          "pos": "$.",
          "before": "",
          "after": " "
        },
        {
          "index": 9,
          "word": "All-neue",
          "originalText": "All-neue",
          "characterOffsetBegin": 49,
          "characterOffsetEnd": 57,
          "pos": "NE",
          "before": " ",
          "after": " "
        },
        {
          "index": 10,
          "word": "12in",
          "originalText": "12in",
          "characterOffsetBegin": 58,
          "characterOffsetEnd": 62,
          "pos": "CARD",
          "before": " ",
          "after": " "
        },
        {
          "index": 11,
          "word": "MacBook",
          "originalText": "MacBook",
          "characterOffsetBegin": 63,
          "characterOffsetEnd": 70,
          "pos": "NE",
          "before": " ",
          "after": " "
        },
        {
          "index": 12,
          "word": "Air",
          "originalText": "Air",
          "characterOffsetBegin": 71,
          "characterOffsetEnd": 74,
          "pos": "NE",
          "before": " ",
          "after": " "
        },
        {
          "index": 13,
          "word": "Design",
          "originalText": "Design",
          "characterOffsetBegin": 75,
          "characterOffsetEnd": 81,
          "pos": "NN",
          "before": " ",
          "after": " "
        },
        {
          "index": 14,
          "word": "für",
          "originalText": "für",
          "characterOffsetBegin": 82,
          "characterOffsetEnd": 85,
          "pos": "APPR",
          "before": " ",
          "after": " "
        },
        {
          "index": 15,
          "word": "2015",
          "originalText": "2015",
          "characterOffsetBegin": 86,
          "characterOffsetEnd": 90,
          "pos": "CARD",
          "before": " ",
          "after": ""
        },
        {
          "index": 16,
          "word": ",",
          "originalText": ",",
          "characterOffsetBegin": 90,
          "characterOffsetEnd": 91,
          "pos": "$,",
          "before": "",
          "after": " "
        },
        {
          "index": 17,
          "word": "starten",
          "originalText": "starten",
          "characterOffsetBegin": 92,
          "characterOffsetEnd": 99,
          "pos": "VVFIN",
          "before": " ",
          "after": " "
        },
        {
          "index": 18,
          "word": "bei",
          "originalText": "bei",
          "characterOffsetBegin": 100,
          "characterOffsetEnd": 103,
          "pos": "APPR",
          "before": " ",
          "after": " "
        },
        {
          "index": 19,
          "word": "WWDC",
          "originalText": "WWDC",
          "characterOffsetBegin": 104,
          "characterOffsetEnd": 108,
          "pos": "NE",
          "before": " ",
          "after": ""
        },
        {
          "index": 20,
          "word": "?",
          "originalText": "?",
          "characterOffsetBegin": 108,
          "characterOffsetEnd": 109,
          "pos": "$.",
          "before": "",
          "after": ""
        }
      ]
    }
  ]
}