{
  "sentences": [
    {
      "index": 0,
      "basicDependencies": [
        {
          "dep": "ROOT",
          "governor": 0,
          "governorGloss": "ROOT",
          "dependent": 3,
          "dependentGloss": "Kondome"
        },
        {
          "dep": "nummod",
          "governor": 3,
          "governorGloss": "Kondome",
          "dependent": 1,
          "dependentGloss": "Kürbis"
        },
        {
          "dep": "amod",
          "governor": 3,
          "governorGloss": "Kondome",
          "dependent": 2,
          "dependentGloss": "Gewürz"
        },
        {
          "dep": "punct",
          "governor": 3,
          "governorGloss": "Kondome",
          "dependent": 4,
          "dependentGloss": ","
        },
        {
          "dep": "cc",
          "governor": 3,
          "governorGloss": "Kondome",
          "dependent": 5,
          "dependentGloss": "und"
        },
        {
          "dep": "nummod",
          "governor": 8,
          "governorGloss": "Geschmacksrichtungen",
          "dependent": 6,
          "dependentGloss": "6"
        },
        {
          "dep": "amod",
          "governor": 8,
          "governorGloss": "Geschmacksrichtungen",
          "dependent": 7,
          "dependentGloss": "andere"
        },
        {
          "dep": "conj",
          "governor": 3,
          "governorGloss": "Kondome",
          "dependent": 8,
          "dependentGloss": "Geschmacksrichtungen"
        },
        {
          "dep": "punct",
          "governor": 8,
          "governorGloss": "Geschmacksrichtungen",
          "dependent": 9,
          "dependentGloss": ","
        },
        {
          "dep": "nsubj",
          "governor": 12,
          "governorGloss": "passieren",
          "dependent": 10,
          "dependentGloss": "die"
        },
        {
          "dep": "neg",
          "governor": 12,
          "governorGloss": "passieren",
          "dependent": 11,
          "dependentGloss": "nicht"
        },
        {
          "dep": "acl",
          "governor": 8,
          "governorGloss": "Geschmacksrichtungen",
          "dependent": 12,
          "dependentGloss": "passieren"
        }
      ],
      "enhancedDependencies": [
        {
          "dep": "ROOT",
          "governor": 0,
          "governorGloss": "ROOT",
          "dependent": 3,
          "dependentGloss": "Kondome"
        },
        {
          "dep": "nummod",
          "governor": 3,
          "governorGloss": "Kondome",
          "dependent": 1,
          "dependentGloss": "Kürbis"
        },
        {
          "dep": "amod",
          "governor": 3,
          "governorGloss": "Kondome",
          "dependent": 2,
          "dependentGloss": "Gewürz"
        },
        {
          "dep": "punct",
          "governor": 3,
          "governorGloss": "Kondome",
          "dependent": 4,
          "dependentGloss": ","
        },
        {
          "dep": "cc",
          "governor": 3,
          "governorGloss": "Kondome",
          "dependent": 5,
          "dependentGloss": "und"
        },
        {
          "dep": "nummod",
          "governor": 8,
          "governorGloss": "Geschmacksrichtungen",
          "dependent": 6,
          "dependentGloss": "6"
        },
        {
          "dep": "amod",
          "governor": 8,
          "governorGloss": "Geschmacksrichtungen",
          "dependent": 7,
          "dependentGloss": "andere"
        },
        {
          "dep": "conj:und",
          "governor": 3,
          "governorGloss": "Kondome",
          "dependent": 8,
          "dependentGloss": "Geschmacksrichtungen"
        },
        {
          "dep": "punct",
          "governor": 8,
          "governorGloss": "Geschmacksrichtungen",
          "dependent": 9,
          "dependentGloss": ","
        },
        {
          "dep": "nsubj",
          "governor": 12,
          "governorGloss": "passieren",
          "dependent": 10,
          "dependentGloss": "die"
        },
        {
          "dep": "neg",
          "governor": 12,
          "governorGloss": "passieren",
          "dependent": 11,
          "dependentGloss": "nicht"
        },
        {
          "dep": "acl",
          "governor": 8,
          "governorGloss": "Geschmacksrichtungen",
          "dependent": 12,
          "dependentGloss": "passieren"
        }
      ],
      "enhancedPlusPlusDependencies": [
        {
          "dep": "ROOT",
          "governor": 0,
          "governorGloss": "ROOT",
          "dependent": 3,
          "dependentGloss": "Kondome"
        },
        {
          "dep": "nummod",
          "governor": 3,
          "governorGloss": "Kondome",
          "dependent": 1,
          "dependentGloss": "Kürbis"
        },
        {
          "dep": "amod",
          "governor": 3,
          "governorGloss": "Kondome",
          "dependent": 2,
          "dependentGloss": "Gewürz"
        },
        {
          "dep": "punct",
          "governor": 3,
          "governorGloss": "Kondome",
          "dependent": 4,
          "dependentGloss": ","
        },
        {
          "dep": "cc",
          "governor": 3,
          "governorGloss": "Kondome",
          "dependent": 5,
          "dependentGloss": "und"
        },
        {
          "dep": "nummod",
          "governor": 8,
          "governorGloss": "Geschmacksrichtungen",
          "dependent": 6,
          "dependentGloss": "6"
        },
        {
          "dep": "amod",
          "governor": 8,
          "governorGloss": "Geschmacksrichtungen",
          "dependent": 7,
          "dependentGloss": "andere"
        },
        {
          "dep": "conj:und",
          "governor": 3,
          "governorGloss": "Kondome",
          "dependent": 8,
          "dependentGloss": "Geschmacksrichtungen"
        },
        {
          "dep": "punct",
          "governor": 8,
          "governorGloss": "Geschmacksrichtungen",
          "dependent": 9,
          "dependentGloss": ","
        },
        {
          "dep": "nsubj",
          "governor": 12,
          "governorGloss": "passieren",
          "dependent": 10,
          "dependentGloss": "die"
        },
        {
          "dep": "neg",
          "governor": 12,
          "governorGloss": "passieren",
          "dependent": 11,
          "dependentGloss": "nicht"
        },
        {
          "dep": "acl",
          "governor": 8,
          "governorGloss": "Geschmacksrichtungen",
          "dependent": 12,
          "dependentGloss": "passieren"
        }
      ],
      "tokens": [
        {
          "index": 1,
          "word": "Kürbis",
          "originalText": "Kürbis",
          "characterOffsetBegin": 0,
          "characterOffsetEnd": 6,
          "pos": "NE",
          "before": "",
          "after": " "
        },
        {
          "index": 2,
          "word": "Gewürz",
          "originalText": "Gewürz",
          "characterOffsetBegin": 7,
          "characterOffsetEnd": 13,
          "pos": "NE",
          "before": " ",
          "after": " "
        },
        {
          "index": 3,
          "word": "Kondome",
          "originalText": "Kondome",
          "characterOffsetBegin": 14,
          "characterOffsetEnd": 21,
          "pos": "NN",
          "before": " ",
          "after": ""
        },
        {
          "index": 4,
          "word": ",",
          "originalText": ",",
          "characterOffsetBegin": 21,
          "characterOffsetEnd": 22,
          "pos": "$,",
          "before": "",
          "after": " "
        },
        {
          "index": 5,
          "word": "und",
          "originalText": "und",
          "characterOffsetBegin": 23,
          "characterOffsetEnd": 26,
          "pos": "KON",
          "before": " ",
          "after": " "
        },
        {
          "index": 6,
          "word": "6",
          "originalText": "6",
          "characterOffsetBegin": 27,
          "characterOffsetEnd": 28,
          "pos": "CARD",
          "before": " ",
          "after": " "
        },
        {
          "index": 7,
          "word": "andere",
          "originalText": "andere",
          "characterOffsetBegin": 29,
          "characterOffsetEnd": 35,
          "pos": "ADJA",
          "before": " ",
          "after": " "
        },
        {
          "index": 8,
          "word": "Geschmacksrichtungen",
          "originalText": "Geschmacksrichtungen",
          "characterOffsetBegin": 36,
          "characterOffsetEnd": 56,
          "pos": "NN",
          "before": " ",
          "after": ""
        },
        {
          "index": 9,
          "word": ",",
          "originalText": ",",
          "characterOffsetBegin": 56,
          "characterOffsetEnd": 57,
          "pos": "$,",
          "before": "",
          "after": " "
        },
        {
          "index": 10,
          "word": "die",
          "originalText": "die",
          "characterOffsetBegin": 58,
          "characterOffsetEnd": 61,
          "pos": "PRELS",
          "before": " ",
          "after": " "
        },
        {
          "index": 11,
          "word": "nicht",
          "originalText": "nicht",
          "characterOffsetBegin": 62,
          "characterOffsetEnd": 67,
          "pos": "PTKNEG",
          "before": " ",
          "after": " "
        },
        {
          "index": 12,
          "word": "passieren",
          "originalText": "passieren",
          "characterOffsetBegin": 68,
          "characterOffsetEnd": 77,
          "pos": "VVINF",
          "before": " ",
          "after": ""
        }
      ]
    }
  ]
}