{
  "sentences": [
    {
      "index": 0,
      "basicDependencies": [
        {
          "dep": "ROOT",
          "governor": 0,
          "governorGloss": "ROOT",
          "dependent": 3,
          "dependentGloss": "LKW"
        },
        {
          "dep": "name",
          "governor": 2,
          "governorGloss": "Klempner",
          "dependent": 1,
          "dependentGloss": "Texas"
        },
        {
          "dep": "nsubj",
          "governor": 3,
          "governorGloss": "LKW",
          "dependent": 2,
          "dependentGloss": "Klempner"
        },
        {
          "dep": "case",
          "governor": 6,
          "governorGloss": "Vorderseite",
          "dependent": 4,
          "dependentGloss": "auf"
        },
        {
          "dep": "det",
          "governor": 6,
          "governorGloss": "Vorderseite",
          "dependent": 5,
          "dependentGloss": "der"
        },
        {
          "dep": "nmod",
          "governor": 3,
          "governorGloss": "LKW",
          "dependent": 6,
          "dependentGloss": "Vorderseite"
        },
        {
          "dep": "det",
          "governor": 8,
          "governorGloss": "Syrien",
          "dependent": 7,
          "dependentGloss": "der"
        },
        {
          "dep": "det",
          "governor": 6,
          "governorGloss": "Vorderseite",
          "dependent": 8,
          "dependentGloss": "Syrien"
        },
        {
          "dep": "appos",
          "governor": 8,
          "governorGloss": "Syrien",
          "dependent": 9,
          "dependentGloss": "Krieg"
        }
      ],
      "enhancedDependencies": [
        {
          "dep": "ROOT",
          "governor": 0,
          "governorGloss": "ROOT",
          "dependent": 3,
          "dependentGloss": "LKW"
        },
        {
          "dep": "name",
          "governor": 2,
          "governorGloss": "Klempner",
          "dependent": 1,
          "dependentGloss": "Texas"
        },
        {
          "dep": "nsubj",
          "governor": 3,
          "governorGloss": "LKW",
          "dependent": 2,
          "dependentGloss": "Klempner"
        },
        {
          "dep": "case",
          "governor": 6,
          "governorGloss": "Vorderseite",
          "dependent": 4,
          "dependentGloss": "auf"
        },
        {
          "dep": "det",
          "governor": 6,
          "governorGloss": "Vorderseite",
          "dependent": 5,
          "dependentGloss": "der"
        },
        {
          "dep": "nmod",
          "governor": 3,
          "governorGloss": "LKW",
          "dependent": 6,
          "dependentGloss": "Vorderseite"
        },
        {
          "dep": "det",
          "governor": 8,
          "governorGloss": "Syrien",
          "dependent": 7,
          "dependentGloss": "der"
        },
        {
          "dep": "det",
          "governor": 6,
          "governorGloss": "Vorderseite",
          "dependent": 8,
          "dependentGloss": "Syrien"
        },
        {
          "dep": "appos",
          "governor": 8,
          "governorGloss": "Syrien",
          "dependent": 9,
          "dependentGloss": "Krieg"
        }
      ],
      "enhancedPlusPlusDependencies": [
        {
          "dep": "ROOT",
          "governor": 0,
          "governorGloss": "ROOT",
          "dependent": 3,
          "dependentGloss": "LKW"
        },
        {
          "dep": "name",
          "governor": 2,
          "governorGloss": "Klempner",
          "dependent": 1,
          "dependentGloss": "Texas"
        },
        {
          "dep": "nsubj",
          "governor": 3,
          "governorGloss": "LKW",
          "dependent": 2,
          "dependentGloss": "Klempner"
        },
        {
          "dep": "case",
          "governor": 6,
          "governorGloss": "Vorderseite",
          "dependent": 4,
          "dependentGloss": "auf"
        },
        {
          "dep": "det",
          "governor": 6,
          "governorGloss": "Vorderseite",
          "dependent": 5,
          "dependentGloss": "der"
        },
        {
          "dep": "nmod",
          "governor": 3,
          "governorGloss": "LKW",
          "dependent": 6,
          "dependentGloss": "Vorderseite"
        },
        {
          "dep": "det",
          "governor": 8,
          "governorGloss": "Syrien",
          "dependent": 7,
          "dependentGloss": "der"
        },
        {
          "dep": "det",
          "governor": 6,
          "governorGloss": "Vorderseite",
          "dependent": 8,
          "dependentGloss": "Syrien"
        },
        {
          "dep": "appos",
          "governor": 8,
          "governorGloss": "Syrien",
          "dependent": 9,
          "dependentGloss": "Krieg"
        }
      ],
      "tokens": [
        {
          "index": 1,
          "word": "Texas",
          "originalText": "Texas",
          "characterOffsetBegin": 0,
          "characterOffsetEnd": 5,
          "pos": "NE",
          "before": "",
          "after": " "
        },
        {
          "index": 2,
          "word": "Klempner",
          "originalText": "Klempner",
          "characterOffsetBegin": 6,
          "characterOffsetEnd": 14,
          "pos": "NN",
          "before": " ",
          "after": " "
        },
        {
          "index": 3,
          "word": "LKW",
          "originalText": "LKW",
          "characterOffsetBegin": 15,
          "characterOffsetEnd": 18,
          "pos": "NE",
          "before": " ",
          "after": " "
        },
        {
          "index": 4,
          "word": "auf",
          "originalText": "auf",
          "characterOffsetBegin": 19,
          "characterOffsetEnd": 22,
          "pos": "APPR",
          "before": " ",
          "after": " "
        },
        {
          "index": 5,
          "word": "der",
          "originalText": "der",
          "characterOffsetBegin": 23,
          "characterOffsetEnd": 26,
          "pos": "ART",
          "before": " ",
          "after": " "
        },
        {
          "index": 6,
          "word": "Vorderseite",
          "originalText": "Vorderseite",
          "characterOffsetBegin": 27,
          "characterOffsetEnd": 38,
          "pos": "NN",
          "before": " ",
          "after": " "
        },
        {
          "index": 7,
          "word": "der",
          "originalText": "der",
          "characterOffsetBegin": 39,
          "characterOffsetEnd": 42,
          "pos": "ART",
          "before": " ",
          "after": " "
        },
        {
          "index": 8,
          "word": "Syrien",
          "originalText": "Syrien",
          "characterOffsetBegin": 43,
          "characterOffsetEnd": 49,
          "pos": "NE",
          "before": " ",
          "after": " "
        },
        {
          "index": 9,
          "word": "Krieg",
          "originalText": "Krieg",
          "characterOffsetBegin": 50,
          "characterOffsetEnd": 55,
          "pos": "NN",
          "before": " ",
          "after": ""
        }
      ]
    }
  ]
}