{
  "sentences": [
    {
      "index": 0,
      "basicDependencies": [
        {
          "dep": "ROOT",
          "governor": 0,
          "governorGloss": "ROOT",
          "dependent": 6,
          "dependentGloss": "erhöhen"
        },
        {
          "dep": "nsubj",
          "governor": 6,
          "governorGloss": "erhöhen",
          "dependent": 1,
          "dependentGloss": "Berichte"
        },
        {
          "dep": "case",
          "governor": 5,
          "governorGloss": "Flugzeuge",
          "dependent": 2,
          "dependentGloss": "über"
        },
        {
          "dep": "amod",
          "governor": 5,
          "governorGloss": "Flugzeuge",
          "dependent": 3,
          "dependentGloss": "fehlende"
        },
        {
          "dep": "amod",
          "governor": 5,
          "governorGloss": "Flugzeuge",
          "dependent": 4,
          "dependentGloss": "libysche"
        },
        {
          "dep": "nmod",
          "governor": 1,
          "governorGloss": "Berichte",
          "dependent": 5,
          "dependentGloss": "Flugzeuge"
        },
        {
          "dep": "dobj",
          "governor": 6,
          "governorGloss": "erhöhen",
          "dependent": 7,
          "dependentGloss": "9/11"
        },
        {
          "dep": "advmod",
          "governor": 6,
          "governorGloss": "erhöhen",
          "dependent": 8,
          "dependentGloss": "Terror-Ängste"
        }
      ],
      "enhancedDependencies": [
        {
          "dep": "ROOT",
          "governor": 0,
          "governorGloss": "ROOT",
          "dependent": 6,
          "dependentGloss": "erhöhen"
        },
        {
          "dep": "nsubj",
          "governor": 6,
          "governorGloss": "erhöhen",
          "dependent": 1,
          "dependentGloss": "Berichte"
        },
        {
          "dep": "case",
          "governor": 5,
          "governorGloss": "Flugzeuge",
          "dependent": 2,
          "dependentGloss": "über"
        },
        {
          "dep": "amod",
          "governor": 5,
          "governorGloss": "Flugzeuge",
          "dependent": 3,
          "dependentGloss": "fehlende"
        },
        {
          "dep": "amod",
          "governor": 5,
          "governorGloss": "Flugzeuge",
          "dependent": 4,
          "dependentGloss": "libysche"
        },
        {
          "dep": "nmod",
          "governor": 1,
          "governorGloss": "Berichte",
          "dependent": 5,
          "dependentGloss": "Flugzeuge"
        },
        {
          "dep": "dobj",
          "governor": 6,
          "governorGloss": "erhöhen",
          "dependent": 7,
          "dependentGloss": "9/11"
        },
        {
          "dep": "advmod",
          "governor": 6,
          "governorGloss": "erhöhen",
          "dependent": 8,
          "dependentGloss": "Terror-Ängste"
        }
      ],
      "enhancedPlusPlusDependencies": [
        {
          "dep": "ROOT",
          "governor": 0,
          "governorGloss": "ROOT",
          "dependent": 6,
          "dependentGloss": "erhöhen"
        },
        {
          "dep": "nsubj",
          "governor": 6,
          "governorGloss": "erhöhen",
          "dependent": 1,
          "dependentGloss": "Berichte"
        },
        {
          "dep": "case",
          "governor": 5,
          "governorGloss": "Flugzeuge",
          "dependent": 2,
          "dependentGloss": "über"
        },
        {
          "dep": "amod",
          "governor": 5,
          "governorGloss": "Flugzeuge",
          "dependent": 3,
          "dependentGloss": "fehlende"
        },
        {
          "dep": "amod",
          "governor": 5,
          "governorGloss": "Flugzeuge",
          "dependent": 4,
          "dependentGloss": "libysche"
        },
        {
          "dep": "nmod",
          "governor": 1,
          "governorGloss": "Berichte",
          "dependent": 5,
          "dependentGloss": "Flugzeuge"
        },
        {
          "dep": "dobj",
          "governor": 6,
          "governorGloss": "erhöhen",
          "dependent": 7,
          "dependentGloss": "9/11"
        },
        {
          "dep": "advmod",
          "governor": 6,
          "governorGloss": "erhöhen",
          "dependent": 8,
          "dependentGloss": "Terror-Ängste"
        }
      ],
      "tokens": [
        {
          "index": 1,
          "word": "Berichte",
          "originalText": "Berichte",
          "characterOffsetBegin": 0,
          "characterOffsetEnd": 8,
          "pos": "NN",
          "before": "",
          "after": " "
        },
        {
          "index": 2,
          "word": "über",
          "originalText": "über",
          "characterOffsetBegin": 9,
          "characterOffsetEnd": 13,
          "pos": "APPR",
          "before": " ",
          "after": " "
        },
        {
          "index": 3,
          "word": "fehlende",
          "originalText": "fehlende",
          "characterOffsetBegin": 14,
          "characterOffsetEnd": 22,
          "pos": "ADJA",
          "before": " ",
          "after": " "
        },
        {
          "index": 4,
          "word": "libysche",
          "originalText": "libysche",
          "characterOffsetBegin": 23,
          "characterOffsetEnd": 31,
          "pos": "ADJA",
          "before": " ",
          "after": " "
        },
        {
          "index": 5,
          "word": "Flugzeuge",
          "originalText": "Flugzeuge",
          "characterOffsetBegin": 32,
          "characterOffsetEnd": 41,
          "pos": "NN",
          "before": " ",
          "after": " "
        },
        {
          "index": 6,
          "word": "erhöhen",
          "originalText": "erhöhen",
          "characterOffsetBegin": 42,
          "characterOffsetEnd": 49,
          "pos": "VVINF",
          "before": " ",
          "after": " "
        },
        {
          "index": 7,
          "word": "9/11",
          "originalText": "9/11",
          "characterOffsetBegin": 50,
          "characterOffsetEnd": 54,
          "pos": "CARD",
          "before": " ",
          "after": " "
        },
        {
          "index": 8,
          "word": "Terror-Ängste",
          "originalText": "Terror-Ängste",
          "characterOffsetBegin": 55,
          "characterOffsetEnd": 68,
          "pos": "NN",
          "before": " ",
          "after": ""
        }
      ]
    }
  ]
}