{
  "sentences": [
    {
      "index": 0,
      "basicDependencies": [
        {
          "dep": "ROOT",
          "governor": 0,
          "governorGloss": "ROOT",
          "dependent": 1,
          "dependentGloss": "Fragen"
        },
        {
          "dep": "case",
          "governor": 4,
          "governorGloss": "Meteoriten",
          "dependent": 2,
          "dependentGloss": "über"
        },
        {
          "dep": "amod",
          "governor": 4,
          "governorGloss": "Meteoriten",
          "dependent": 3,
          "dependentGloss": "Nicaraguas"
        },
        {
          "dep": "nmod",
          "governor": 1,
          "governorGloss": "Fragen",
          "dependent": 4,
          "dependentGloss": "Meteoriten"
        },
        {
          "dep": "punct",
          "governor": 1,
          "governorGloss": "Fragen",
          "dependent": 5,
          "dependentGloss": "``"
        }
      ],
      "enhancedDependencies": [
        {
          "dep": "ROOT",
          "governor": 0,
          "governorGloss": "ROOT",
          "dependent": 1,
          "dependentGloss": "Fragen"
        },
        {
          "dep": "case",
          "governor": 4,
          "governorGloss": "Meteoriten",
          "dependent": 2,
          "dependentGloss": "über"
        },
        {
          "dep": "amod",
          "governor": 4,
          "governorGloss": "Meteoriten",
          "dependent": 3,
          "dependentGloss": "Nicaraguas"
        },
        {
          "dep": "nmod",
          "governor": 1,
          "governorGloss": "Fragen",
          "dependent": 4,
          "dependentGloss": "Meteoriten"
        },
        {
          "dep": "punct",
          "governor": 1,
          "governorGloss": "Fragen",
          "dependent": 5,
          "dependentGloss": "``"
        }
      ],
      "enhancedPlusPlusDependencies": [
        {
          "dep": "ROOT",
          "governor": 0,
          "governorGloss": "ROOT",
          "dependent": 1,
          "dependentGloss": "Fragen"
        },
        {
          "dep": "case",
          "governor": 4,
          "governorGloss": "Meteoriten",
          "dependent": 2,
          "dependentGloss": "über"
        },
        {
          "dep": "amod",
          "governor": 4,
          "governorGloss": "Meteoriten",
          "dependent": 3,
          "dependentGloss": "Nicaraguas"
        },
        {
          "dep": "nmod",
          "governor": 1,
          "governorGloss": "Fragen",
          "dependent": 4,
          "dependentGloss": "Meteoriten"
        },
        {
          "dep": "punct",
          "governor": 1,
          "governorGloss": "Fragen",
          "dependent": 5,
          "dependentGloss": "``"
        }
      ],
      "tokens": [
        {
          "index": 1,
          "word": "Fragen",
          "originalText": "Fragen",
          "characterOffsetBegin": 0,
          "characterOffsetEnd": 6,
          "pos": "NN",
          "before": "",
          "after": " "
        },
        {
          "index": 2,
          "word": "über",
          "originalText": "über",
          "characterOffsetBegin": 7,
          "characterOffsetEnd": 11,
          "pos": "APPR",
          "before": " ",
          "after": " "
        },
        {
          "index": 3,
          "word": "Nicaraguas",
          "originalText": "Nicaraguas",
          "characterOffsetBegin": 12,
          "characterOffsetEnd": 22,
          "pos": "NE",
          "before": " ",
          "after": " "
        },
        {
          "index": 4,
          "word": "Meteoriten",
          "originalText": "Meteoriten",
          "characterOffsetBegin": 23,
          "characterOffsetEnd": 33,
          "pos": "NN",
          "before": " ",
          "after": " "
        },
        {
          "index": 5,
          "word": "``",
          "originalText": "“",
          "characterOffsetBegin": 34,
          "characterOffsetEnd": 35,
          "pos": "CARD",
          "before": " ",
          "after": ""
        }
      ]
    }
  ]
}