{
  "sentences": [
    {
      "index": 0,
      "basicDependencies": [
        {
          "dep": "ROOT",
          "governor": 0,
          "governorGloss": "ROOT",
          "dependent": 3,
          "dependentGloss": "hat"
        },
        {
          "dep": "det",
          "governor": 2,
          "governorGloss": "Mensch",
          "dependent": 1,
          "dependentGloss": "Der"
        },
        {
          "dep": "nsubj",
          "governor": 3,
          "governorGloss": "hat",
          "dependent": 2,
          "dependentGloss": "Mensch"
        },
        {
          "dep": "det",
          "governor": 5,
          "governorGloss": "PENIS",
          "dependent": 4,
          "dependentGloss": "seinen"
        },
        {
          "dep": "dobj",
          "governor": 3,
          "governorGloss": "hat",
          "dependent": 5,
          "dependentGloss": "PENIS"
        },
        {
          "dep": "case",
          "governor": 9,
          "governorGloss": "Mob",
          "dependent": 6,
          "dependentGloss": "von"
        },
        {
          "dep": "det",
          "governor": 9,
          "governorGloss": "Mob",
          "dependent": 7,
          "dependentGloss": "einem"
        },
        {
          "dep": "amod",
          "governor": 9,
          "governorGloss": "Mob",
          "dependent": 8,
          "dependentGloss": "verärgerten"
        },
        {
          "dep": "nmod",
          "governor": 5,
          "governorGloss": "PENIS",
          "dependent": 9,
          "dependentGloss": "Mob"
        },
        {
          "dep": "case",
          "governor": 13,
          "governorGloss": "Vergewaltigung",
          "dependent": 10,
          "dependentGloss": "nach"
        },
        {
          "dep": "punct",
          "governor": 13,
          "governorGloss": "Vergewaltigung",
          "dependent": 11,
          "dependentGloss": "``"
        },
        {
          "dep": "amod",
          "governor": 13,
          "governorGloss": "Vergewaltigung",
          "dependent": 12,
          "dependentGloss": "versuchter"
        },
        {
          "dep": "nmod",
          "governor": 9,
          "governorGloss": "Mob",
          "dependent": 13,
          "dependentGloss": "Vergewaltigung"
        },
        {
          "dep": "punct",
          "governor": 13,
          "governorGloss": "Vergewaltigung",
          "dependent": 14,
          "dependentGloss": "``"
        },
        {
          "dep": "det",
          "governor": 16,
          "governorGloss": "Teenagers",
          "dependent": 15,
          "dependentGloss": "des"
        },
        {
          "dep": "det",
          "governor": 14,
          "governorGloss": "``",
          "dependent": 16,
          "dependentGloss": "Teenagers"
        },
        {
          "dep": "appos",
          "governor": 16,
          "governorGloss": "Teenagers",
          "dependent": 17,
          "dependentGloss": "abgeschnitten"
        }
      ],
      "enhancedDependencies": [
        {
          "dep": "ROOT",
          "governor": 0,
          "governorGloss": "ROOT",
          "dependent": 3,
          "dependentGloss": "hat"
        },
        {
          "dep": "det",
          "governor": 2,
          "governorGloss": "Mensch",
          "dependent": 1,
          "dependentGloss": "Der"
        },
        {
          "dep": "nsubj",
          "governor": 3,
          "governorGloss": "hat",
          "dependent": 2,
          "dependentGloss": "Mensch"
        },
        {
          "dep": "det",
          "governor": 5,
          "governorGloss": "PENIS",
          "dependent": 4,
          "dependentGloss": "seinen"
        },
        {
          "dep": "dobj",
          "governor": 3,
          "governorGloss": "hat",
          "dependent": 5,
          "dependentGloss": "PENIS"
        },
        {
          "dep": "case",
          "governor": 9,
          "governorGloss": "Mob",
          "dependent": 6,
          "dependentGloss": "von"
        },
        {
          "dep": "det",
          "governor": 9,
          "governorGloss": "Mob",
          "dependent": 7,
          "dependentGloss": "einem"
        },
        {
          "dep": "amod",
          "governor": 9,
          "governorGloss": "Mob",
          "dependent": 8,
          "dependentGloss": "verärgerten"
        },
        {
          "dep": "nmod",
          "governor": 5,
          "governorGloss": "PENIS",
          "dependent": 9,
          "dependentGloss": "Mob"
        },
        {
          "dep": "case",
          "governor": 13,
          "governorGloss": "Vergewaltigung",
          "dependent": 10,
          "dependentGloss": "nach"
        },
        {
          "dep": "punct",
          "governor": 13,
          "governorGloss": "Vergewaltigung",
          "dependent": 11,
          "dependentGloss": "``"
        },
        {
          "dep": "amod",
          "governor": 13,
          "governorGloss": "Vergewaltigung",
          "dependent": 12,
          "dependentGloss": "versuchter"
        },
        {
          "dep": "nmod",
          "governor": 9,
          "governorGloss": "Mob",
          "dependent": 13,
          "dependentGloss": "Vergewaltigung"
        },
        {
          "dep": "punct",
          "governor": 13,
          "governorGloss": "Vergewaltigung",
          "dependent": 14,
          "dependentGloss": "``"
        },
        {
          "dep": "det",
          "governor": 16,
          "governorGloss": "Teenagers",
          "dependent": 15,
          "dependentGloss": "des"
        },
        {
          "dep": "det",
          "governor": 14,
          "governorGloss": "``",
          "dependent": 16,
          "dependentGloss": "Teenagers"
        },
        {
          "dep": "appos",
          "governor": 16,
          "governorGloss": "Teenagers",
          "dependent": 17,
          "dependentGloss": "abgeschnitten"
        }
      ],
      "enhancedPlusPlusDependencies": [
        {
          "dep": "ROOT",
          "governor": 0,
          "governorGloss": "ROOT",
          "dependent": 3,
          "dependentGloss": "hat"
        },
        {
          "dep": "det",
          "governor": 2,
          "governorGloss": "Mensch",
          "dependent": 1,
          "dependentGloss": "Der"
        },
        {
          "dep": "nsubj",
          "governor": 3,
          "governorGloss": "hat",
          "dependent": 2,
          "dependentGloss": "Mensch"
        },
        {
          "dep": "det",
          "governor": 5,
          "governorGloss": "PENIS",
          "dependent": 4,
          "dependentGloss": "seinen"
        },
        {
          "dep": "dobj",
          "governor": 3,
          "governorGloss": "hat",
          "dependent": 5,
          "dependentGloss": "PENIS"
        },
        {
          "dep": "case",
          "governor": 9,
          "governorGloss": "Mob",
          "dependent": 6,
          "dependentGloss": "von"
        },
        {
          "dep": "det",
          "governor": 9,
          "governorGloss": "Mob",
          "dependent": 7,
          "dependentGloss": "einem"
        },
        {
          "dep": "amod",
          "governor": 9,
          "governorGloss": "Mob",
          "dependent": 8,
          "dependentGloss": "verärgerten"
        },
        {
          "dep": "nmod",
          "governor": 5,
          "governorGloss": "PENIS",
          "dependent": 9,
          "dependentGloss": "Mob"
        },
        {
          "dep": "case",
          "governor": 13,
          "governorGloss": "Vergewaltigung",
          "dependent": 10,
          "dependentGloss": "nach"
        },
        {
          "dep": "punct",
          "governor": 13,
          "governorGloss": "Vergewaltigung",
          "dependent": 11,
          "dependentGloss": "``"
        },
        {
          "dep": "amod",
          "governor": 13,
          "governorGloss": "Vergewaltigung",
          "dependent": 12,
          "dependentGloss": "versuchter"
        },
        {
          "dep": "nmod",
          "governor": 9,
          "governorGloss": "Mob",
          "dependent": 13,
          "dependentGloss": "Vergewaltigung"
        },
        {
          "dep": "punct",
          "governor": 13,
          "governorGloss": "Vergewaltigung",
          "dependent": 14,
          "dependentGloss": "``"
        },
        {
          "dep": "det",
          "governor": 16,
          "governorGloss": "Teenagers",
          "dependent": 15,
          "dependentGloss": "des"
        },
        {
          "dep": "det",
          "governor": 14,
          "governorGloss": "``",
          "dependent": 16,
          "dependentGloss": "Teenagers"
        },
        {
          "dep": "appos",
          "governor": 16,
          "governorGloss": "Teenagers",
          "dependent": 17,
          "dependentGloss": "abgeschnitten"
        }
      ],
      "tokens": [
        {
          "index": 1,
          "word": "Der",
          "originalText": "Der",
          "characterOffsetBegin": 0,
          "characterOffsetEnd": 3,
          "pos": "ART",
          "before": "",
          "after": " "
        },
        {
          "index": 2,
          "word": "Mensch",
          "originalText": "Mensch",
          "characterOffsetBegin": 4,
          "characterOffsetEnd": 10,
          "pos": "NN",
          "before": " ",
          "after": " "
        },
        {
          "index": 3,
          "word": "hat",
          "originalText": "hat",
          "characterOffsetBegin": 11,
          "characterOffsetEnd": 14,
          "pos": "VAFIN",
          "before": " ",
          "after": " "
        },
        {
          "index": 4,
          "word": "seinen",
          "originalText": "seinen",
          "characterOffsetBegin": 15,
          "characterOffsetEnd": 21,
          "pos": "PPOSAT",
          "before": " ",
          "after": " "
        },
        {
          "index": 5,
          "word": "PENIS",
          "originalText": "PENIS",
          "characterOffsetBegin": 22,
          "characterOffsetEnd": 27,
          "pos": "NN",
          "before": " ",
          "after": " "
        },
        {
          "index": 6,
          "word": "von",
          "originalText": "von",
          "characterOffsetBegin": 28,
          "characterOffsetEnd": 31,
          "pos": "APPR",
          "before": " ",
          "after": " "
        },
        {
          "index": 7,
          "word": "einem",
          "originalText": "einem",
          "characterOffsetBegin": 32,
          "characterOffsetEnd": 37,
          "pos": "ART",
          "before": " ",
          "after": " "
        },
        {
          "index": 8,
          "word": "verärgerten",
          "originalText": "verärgerten",
          "characterOffsetBegin": 38,
          "characterOffsetEnd": 49,
          "pos": "ADJA",
          "before": " ",
          "after": " "
        },
        {
          "index": 9,
          "word": "Mob",
          "originalText": "Mob",
          "characterOffsetBegin": 50,
          "characterOffsetEnd": 53,
          "pos": "NN",
          "before": " ",
          "after": " "
        },
        {
          "index": 10,
          "word": "nach",
          "originalText": "nach",
          "characterOffsetBegin": 54,
          "characterOffsetEnd": 58,
          "pos": "APPR",
          "before": " ",
          "after": " "
        },
        {
          "index": 11,
          "word": "``",
          "originalText": "“",
          "characterOffsetBegin": 59,
          "characterOffsetEnd": 60,
          "pos": "CARD",
          "before": " ",
          "after": ""
        },
        {
          "index": 12,
          "word": "versuchter",
          "originalText": "versuchter",
          "characterOffsetBegin": 60,
          "characterOffsetEnd": 70,
          "pos": "ADJA",
          "before": "",
          "after": " "
        },
        {
          "index": 13,
          "word": "Vergewaltigung",
          "originalText": "Vergewaltigung",
          "characterOffsetBegin": 71,
          "characterOffsetEnd": 85,
          "pos": "NN",
          "before": " ",
          "after": ""
        },
        {
          "index": 14,
          "word": "``",
          "originalText": "“",
          "characterOffsetBegin": 85,
          "characterOffsetEnd": 86,
          "pos": "APPR",
          "before": "",
          "after": " "
        },
        {
          "index": 15,
          "word": "des",
          "originalText": "des",
          "characterOffsetBegin": 87,
          "characterOffsetEnd": 90,
          "pos": "ART",
          "before": " ",
          "after": " "
        },
        {
          "index": 16,
          "word": "Teenagers",
          "originalText": "Teenagers",
          "characterOffsetBegin": 91,
          "characterOffsetEnd": 100,
          "pos": "NN",
          "before": " ",
          "after": " "
        },
        {
          "index": 17,
          "word": "abgeschnitten",
          "originalText": "abgeschnitten",
          "characterOffsetBegin": 101,
          "characterOffsetEnd": 114,
          "pos": "VVPP",
          "before": " ",
          "after": ""
        }
      ]
    }
  ]
}