{
  "sentences": [
    {
      "index": 0,
      "basicDependencies": [
        {
          "dep": "ROOT",
          "governor": 0,
          "governorGloss": "ROOT",
          "dependent": 5,
          "dependentGloss": "Jobs"
        },
        {
          "dep": "name",
          "governor": 2,
          "governorGloss": "Bale",
          "dependent": 1,
          "dependentGloss": "Christian"
        },
        {
          "dep": "nsubj",
          "governor": 5,
          "governorGloss": "Jobs",
          "dependent": 2,
          "dependentGloss": "Bale"
        },
        {
          "dep": "cop",
          "governor": 5,
          "governorGloss": "Jobs",
          "dependent": 3,
          "dependentGloss": "ist"
        },
        {
          "dep": "name",
          "governor": 5,
          "governorGloss": "Jobs",
          "dependent": 4,
          "dependentGloss": "Steve"
        }
      ],
      "enhancedDependencies": [
        {
          "dep": "ROOT",
          "governor": 0,
          "governorGloss": "ROOT",
          "dependent": 5,
          "dependentGloss": "Jobs"
        },
        {
          "dep": "name",
          "governor": 2,
          "governorGloss": "Bale",
          "dependent": 1,
          "dependentGloss": "Christian"
        },
        {
          "dep": "nsubj",
          "governor": 5,
          "governorGloss": "Jobs",
          "dependent": 2,
          "dependentGloss": "Bale"
        },
        {
          "dep": "cop",
          "governor": 5,
          "governorGloss": "Jobs",
          "dependent": 3,
          "dependentGloss": "ist"
        },
        {
          "dep": "name",
          "governor": 5,
          "governorGloss": "Jobs",
          "dependent": 4,
          "dependentGloss": "Steve"
        }
      ],
      "enhancedPlusPlusDependencies": [
        {
          "dep": "ROOT",
          "governor": 0,
          "governorGloss": "ROOT",
          "dependent": 5,
          "dependentGloss": "Jobs"
        },
        {
          "dep": "name",
          "governor": 2,
          "governorGloss": "Bale",
          "dependent": 1,
          "dependentGloss": "Christian"
        },
        {
          "dep": "nsubj",
          "governor": 5,
          "governorGloss": "Jobs",
          "dependent": 2,
          "dependentGloss": "Bale"
        },
        {
          "dep": "cop",
          "governor": 5,
          "governorGloss": "Jobs",
          "dependent": 3,
          "dependentGloss": "ist"
        },
        {
          "dep": "name",
          "governor": 5,
          "governorGloss": "Jobs",
          "dependent": 4,
          "dependentGloss": "Steve"
        }
      ],
      "tokens": [
        {
          "index": 1,
          "word": "Christian",
          "originalText": "Christian",
          "characterOffsetBegin": 0,
          "characterOffsetEnd": 9,
          "pos": "NE",
          "before": "",
          "after": " "
        },
        {
          "index": 2,
          "word": "Bale",
          "originalText": "Bale",
          "characterOffsetBegin": 10,
          "characterOffsetEnd": 14,
          "pos": "NE",
          "before": " ",
          "after": " "
        },
        {
          "index": 3,
          "word": "ist",
          "originalText": "ist",
          "characterOffsetBegin": 15,
          "characterOffsetEnd": 18,
          "pos": "VAFIN",
          "before": " ",
          "after": " "
        },
        {
          "index": 4,
          "word": "Steve",
          "originalText": "Steve",
          "characterOffsetBegin": 19,
          "characterOffsetEnd": 24,
          "pos": "NE",
          "before": " ",
          "after": " "
        },
        {
          "index": 5,
          "word": "Jobs",
          "originalText": "Jobs",
          "characterOffsetBegin": 25,
          "characterOffsetEnd": 29,
          "pos": "NN",
          "before": " ",
          "after": ""
        }
      ]
    }
  ]
}