{
  "sentences": [
    {
      "index": 0,
      "basicDependencies": [
        {
          "dep": "ROOT",
          "governor": 0,
          "governorGloss": "ROOT",
          "dependent": 1,
          "dependentGloss": "NASA"
        },
        {
          "dep": "punct",
          "governor": 1,
          "governorGloss": "NASA",
          "dependent": 2,
          "dependentGloss": ":"
        },
        {
          "dep": "appos",
          "governor": 1,
          "governorGloss": "NASA",
          "dependent": 3,
          "dependentGloss": "Planetary"
        },
        {
          "dep": "amod",
          "governor": 5,
          "governorGloss": "Am",
          "dependent": 4,
          "dependentGloss": "Alignment"
        },
        {
          "dep": "dobj",
          "governor": 3,
          "governorGloss": "Planetary",
          "dependent": 5,
          "dependentGloss": "Am"
        },
        {
          "dep": "appos",
          "governor": 5,
          "governorGloss": "Am",
          "dependent": 6,
          "dependentGloss": "4"
        },
        {
          "dep": "punct",
          "governor": 1,
          "governorGloss": "NASA",
          "dependent": 7,
          "dependentGloss": "."
        }
      ],
      "enhancedDependencies": [
        {
          "dep": "ROOT",
          "governor": 0,
          "governorGloss": "ROOT",
          "dependent": 1,
          "dependentGloss": "NASA"
        },
        {
          "dep": "punct",
          "governor": 1,
          "governorGloss": "NASA",
          "dependent": 2,
          "dependentGloss": ":"
        },
        {
          "dep": "appos",
          "governor": 1,
          "governorGloss": "NASA",
          "dependent": 3,
          "dependentGloss": "Planetary"
        },
        {
          "dep": "amod",
          "governor": 5,
          "governorGloss": "Am",
          "dependent": 4,
          "dependentGloss": "Alignment"
        },
        {
          "dep": "dobj",
          "governor": 3,
          "governorGloss": "Planetary",
          "dependent": 5,
          "dependentGloss": "Am"
        },
        {
          "dep": "appos",
          "governor": 5,
          "governorGloss": "Am",
          "dependent": 6,
          "dependentGloss": "4"
        },
        {
          "dep": "punct",
          "governor": 1,
          "governorGloss": "NASA",
          "dependent": 7,
          "dependentGloss": "."
        }
      ],
      "enhancedPlusPlusDependencies": [
        {
          "dep": "ROOT",
          "governor": 0,
          "governorGloss": "ROOT",
          "dependent": 1,
          "dependentGloss": "NASA"
        },
        {
          "dep": "punct",
          "governor": 1,
          "governorGloss": "NASA",
          "dependent": 2,
          "dependentGloss": ":"
        },
        {
          "dep": "appos",
          "governor": 1,
          "governorGloss": "NASA",
          "dependent": 3,
          "dependentGloss": "Planetary"
        },
        {
          "dep": "amod",
          "governor": 5,
          "governorGloss": "Am",
          "dependent": 4,
          "dependentGloss": "Alignment"
        },
        {
          "dep": "dobj",
          "governor": 3,
          "governorGloss": "Planetary",
          "dependent": 5,
          "dependentGloss": "Am"
        },
        {
          "dep": "appos",
          "governor": 5,
          "governorGloss": "Am",
          "dependent": 6,
          "dependentGloss": "4"
        },
        {
          "dep": "punct",
          "governor": 1,
          "governorGloss": "NASA",
          "dependent": 7,
          "dependentGloss": "."
        }
      ],
      "tokens": [
        {
          "index": 1,
          "word": "NASA",
          "originalText": "NASA",
          "characterOffsetBegin": 0,
          "characterOffsetEnd": 4,
          "pos": "NE",
          "before": "",
          "after": ""
        },
        {
          "index": 2,
          "word": ":",
          "originalText": ":",
          "characterOffsetBegin": 4,
          "characterOffsetEnd": 5,
          "pos": "$.",
          "before": "",
          "after": " "
        },
        {
          "index": 3,
          "word": "Planetary",
          "originalText": "Planetary",
          "characterOffsetBegin": 6,
          "characterOffsetEnd": 15,
          "pos": "NE",
          "before": " ",
          "after": " "
        },
        {
          "index": 4,
          "word": "Alignment",
          "originalText": "Alignment",
          "characterOffsetBegin": 16,
          "characterOffsetEnd": 25,
          "pos": "NN",
          "before": " ",
          "after": " "
        },
        {
          "index": 5,
          "word": "Am",
          "originalText": "Am",
          "characterOffsetBegin": 26,
          "characterOffsetEnd": 28,
          "pos": "APPRART",
          "before": " ",
          "after": " "
        },
        {
          "index": 6,
          "word": "4",
          "originalText": "4",
          "characterOffsetBegin": 29,
          "characterOffsetEnd": 30,
          "pos": "CARD",
          "before": " ",
          "after": ""
        },
        {
          "index": 7,
          "word": ".",
          "originalText": ".",
          "characterOffsetBegin": 30,
          "characterOffsetEnd": 31,
          "pos": "$.",
          "before": "",
          "after": " "
        }
      ]
    },
    {
      "index": 1,
      "basicDependencies": [
        {
          "dep": "ROOT",
          "governor": 0,
          "governorGloss": "ROOT",
          "dependent": 9,
          "dependentGloss": "verringern"
        },
        {
          "dep": "name",
          "governor": 2,
          "governorGloss": "2015",
          "dependent": 1,
          "dependentGloss": "Januar"
        },
        {
          "dep": "nmod",
          "governor": 9,
          "governorGloss": "verringern",
          "dependent": 2,
          "dependentGloss": "2015"
        },
        {
          "dep": "auxpass",
          "governor": 9,
          "governorGloss": "verringern",
          "dependent": 3,
          "dependentGloss": "wird"
        },
        {
          "dep": "det",
          "governor": 5,
          "governorGloss": "Schwerkraft",
          "dependent": 4,
          "dependentGloss": "die"
        },
        {
          "dep": "nsubjpass",
          "governor": 9,
          "governorGloss": "verringern",
          "dependent": 5,
          "dependentGloss": "Schwerkraft"
        },
        {
          "dep": "case",
          "governor": 8,
          "governorGloss": "Minuten",
          "dependent": 6,
          "dependentGloss": "für"
        },
        {
          "dep": "nummod",
          "governor": 8,
          "governorGloss": "Minuten",
          "dependent": 7,
          "dependentGloss": "5"
        },
        {
          "dep": "nmod",
          "governor": 9,
          "governorGloss": "verringern",
          "dependent": 8,
          "dependentGloss": "Minuten"
        },
        {
          "dep": "punct",
          "governor": 9,
          "governorGloss": "verringern",
          "dependent": 10,
          "dependentGloss": ","
        },
        {
          "dep": "det",
          "governor": 13,
          "governorGloss": "Schwerelosigkeit",
          "dependent": 11,
          "dependentGloss": "die"
        },
        {
          "dep": "amod",
          "governor": 13,
          "governorGloss": "Schwerelosigkeit",
          "dependent": 12,
          "dependentGloss": "partielle"
        },
        {
          "dep": "dobj",
          "governor": 14,
          "governorGloss": "verursacht",
          "dependent": 13,
          "dependentGloss": "Schwerelosigkeit"
        },
        {
          "dep": "conj",
          "governor": 9,
          "governorGloss": "verringern",
          "dependent": 14,
          "dependentGloss": "verursacht"
        },
        {
          "dep": "nsubj",
          "governor": 14,
          "governorGloss": "verursacht",
          "dependent": 15,
          "dependentGloss": "???"
        }
      ],
      "enhancedDependencies": [
        {
          "dep": "ROOT",
          "governor": 0,
          "governorGloss": "ROOT",
          "dependent": 9,
          "dependentGloss": "verringern"
        },
        {
          "dep": "name",
          "governor": 2,
          "governorGloss": "2015",
          "dependent": 1,
          "dependentGloss": "Januar"
        },
        {
          "dep": "nmod",
          "governor": 9,
          "governorGloss": "verringern",
          "dependent": 2,
          "dependentGloss": "2015"
        },
        {
          "dep": "auxpass",
          "governor": 9,
          "governorGloss": "verringern",
          "dependent": 3,
          "dependentGloss": "wird"
        },
        {
          "dep": "det",
          "governor": 5,
          "governorGloss": "Schwerkraft",
          "dependent": 4,
          "dependentGloss": "die"
        },
        {
          "dep": "nsubjpass",
          "governor": 9,
          "governorGloss": "verringern",
          "dependent": 5,
          "dependentGloss": "Schwerkraft"
        },
        {
          "dep": "case",
          "governor": 8,
          "governorGloss": "Minuten",
          "dependent": 6,
          "dependentGloss": "für"
        },
        {
          "dep": "nummod",
          "governor": 8,
          "governorGloss": "Minuten",
          "dependent": 7,
          "dependentGloss": "5"
        },
        {
          "dep": "nmod",
          "governor": 9,
          "governorGloss": "verringern",
          "dependent": 8,
          "dependentGloss": "Minuten"
        },
        {
          "dep": "punct",
          "governor": 9,
          "governorGloss": "verringern",
          "dependent": 10,
          "dependentGloss": ","
        },
        {
          "dep": "det",
          "governor": 13,
          "governorGloss": "Schwerelosigkeit",
          "dependent": 11,
          "dependentGloss": "die"
        },
        {
          "dep": "amod",
          "governor": 13,
          "governorGloss": "Schwerelosigkeit",
          "dependent": 12,
          "dependentGloss": "partielle"
        },
        {
          "dep": "dobj",
          "governor": 14,
          "governorGloss": "verursacht",
          "dependent": 13,
          "dependentGloss": "Schwerelosigkeit"
        },
        {
          "dep": "conj",
          "governor": 9,
          "governorGloss": "verringern",
          "dependent": 14,
          "dependentGloss": "verursacht"
        },
        {
          "dep": "nsubj",
          "governor": 14,
          "governorGloss": "verursacht",
          "dependent": 15,
          "dependentGloss": "???"
        }
      ],
      "enhancedPlusPlusDependencies": [
        {
          "dep": "ROOT",
          "governor": 0,
          "governorGloss": "ROOT",
          "dependent": 9,
          "dependentGloss": "verringern"
        },
        {
          "dep": "name",
          "governor": 2,
          "governorGloss": "2015",
          "dependent": 1,
          "dependentGloss": "Januar"
        },
        {
          "dep": "nmod",
          "governor": 9,
          "governorGloss": "verringern",
          "dependent": 2,
          "dependentGloss": "2015"
        },
        {
          "dep": "auxpass",
          "governor": 9,
          "governorGloss": "verringern",
          "dependent": 3,
          "dependentGloss": "wird"
        },
        {
          "dep": "det",
          "governor": 5,
          "governorGloss": "Schwerkraft",
          "dependent": 4,
          "dependentGloss": "die"
        },
        {
          "dep": "nsubjpass",
          "governor": 9,
          "governorGloss": "verringern",
          "dependent": 5,
          "dependentGloss": "Schwerkraft"
        },
        {
          "dep": "case",
          "governor": 8,
          "governorGloss": "Minuten",
          "dependent": 6,
          "dependentGloss": "für"
        },
        {
          "dep": "nummod",
          "governor": 8,
          "governorGloss": "Minuten",
          "dependent": 7,
          "dependentGloss": "5"
        },
        {
          "dep": "nmod",
          "governor": 9,
          "governorGloss": "verringern",
          "dependent": 8,
          "dependentGloss": "Minuten"
        },
        {
          "dep": "punct",
          "governor": 9,
          "governorGloss": "verringern",
          "dependent": 10,
          "dependentGloss": ","
        },
        {
          "dep": "det",
          "governor": 13,
          "governorGloss": "Schwerelosigkeit",
          "dependent": 11,
          "dependentGloss": "die"
        },
        {
          "dep": "amod",
          "governor": 13,
          "governorGloss": "Schwerelosigkeit",
          "dependent": 12,
          "dependentGloss": "partielle"
        },
        {
          "dep": "dobj",
          "governor": 14,
          "governorGloss": "verursacht",
          "dependent": 13,
          "dependentGloss": "Schwerelosigkeit"
        },
        {
          "dep": "conj",
          "governor": 9,
          "governorGloss": "verringern",
          "dependent": 14,
          "dependentGloss": "verursacht"
        },
        {
          "dep": "nsubj",
          "governor": 14,
          "governorGloss": "verursacht",
          "dependent": 15,
          "dependentGloss": "???"
        }
      ],
      "tokens": [
        {
          "index": 1,
          "word": "Januar",
          "originalText": "Januar",
          "characterOffsetBegin": 32,
          "characterOffsetEnd": 38,
          "pos": "NN",
          "before": " ",
          "after": " "
        },
        {
          "index": 2,
          "word": "2015",
          "originalText": "2015",
          "characterOffsetBegin": 39,
          "characterOffsetEnd": 43,
          "pos": "CARD",
          "before": " ",
          "after": " "
        },
        {
          "index": 3,
          "word": "wird",
          "originalText": "wird",
          "characterOffsetBegin": 44,
          "characterOffsetEnd": 48,
          "pos": "VAFIN",
          "before": " ",
          "after": " "
        },
        {
          "index": 4,
          "word": "die",
          "originalText": "die",
          "characterOffsetBegin": 49,
          "characterOffsetEnd": 52,
          "pos": "ART",
          "before": " ",
          "after": " "
        },
        {
          "index": 5,
          "word": "Schwerkraft",
          "originalText": "Schwerkraft",
          "characterOffsetBegin": 53,
          "characterOffsetEnd": 64,
          "pos": "NN",
          "before": " ",
          "after": " "
        },
        {
          "index": 6,
          "word": "für",
          "originalText": "für",
          "characterOffsetBegin": 65,
          "characterOffsetEnd": 68,
          "pos": "APPR",
          "before": " ",
          "after": " "
        },
        {
          "index": 7,
          "word": "5",
          "originalText": "5",
          "characterOffsetBegin": 69,
          "characterOffsetEnd": 70,
          "pos": "CARD",
          "before": " ",
          "after": " "
        },
        {
          "index": 8,
          "word": "Minuten",
          "originalText": "Minuten",
          "characterOffsetBegin": 71,
          "characterOffsetEnd": 78,
          "pos": "NN",
          "before": " ",
          "after": " "
        },
        {
          "index": 9,
          "word": "verringern",
          "originalText": "verringern",
          "characterOffsetBegin": 79,
          "characterOffsetEnd": 89,
          "pos": "VVINF",
          "before": " ",
          "after": ""
        },
        {
          "index": 10,
          "word": ",",
          "originalText": ",",
          "characterOffsetBegin": 89,
          "characterOffsetEnd": 90,
          "pos": "$,",
          "before": "",
          "after": " "
        },
        {
          "index": 11,
          "word": "die",
          "originalText": "die",
          "characterOffsetBegin": 91,
          "characterOffsetEnd": 94,
          "pos": "ART",
          "before": " ",
          "after": " "
        },
        {
          "index": 12,
          "word": "partielle",
          "originalText": "partielle",
          "characterOffsetBegin": 95,
          "characterOffsetEnd": 104,
          "pos": "ADJA",
          "before": " ",
          "after": " "
        },
        {
          "index": 13,
          "word": "Schwerelosigkeit",
          "originalText": "Schwerelosigkeit",
          "characterOffsetBegin": 105,
          "characterOffsetEnd": 121,
          "pos": "NN",
          "before": " ",
          "after": " "
        },
        {
          "index": 14,
          "word": "verursacht",
          "originalText": "verursacht",
          "characterOffsetBegin": 122,
          "characterOffsetEnd": 132,
          "pos": "VVFIN",
          "before": " ",
          "after": " "
        },
        {
          "index": 15,
          "word": "???",
          "originalText": "???",
          "characterOffsetBegin": 133,
          "characterOffsetEnd": 136,
          "pos": "CARD",
          "before": " ",
          "after": ""
        }
      ]
    }
  ]
}