{
  "sentences": [
    {
      "index": 0,
      "basicDependencies": [
        {
          "dep": "ROOT",
          "governor": 0,
          "governorGloss": "ROOT",
          "dependent": 4,
          "dependentGloss": "zur"
        },
        {
          "dep": "det",
          "governor": 3,
          "governorGloss": "Führer",
          "dependent": 1,
          "dependentGloss": "Der"
        },
        {
          "dep": "amod",
          "governor": 3,
          "governorGloss": "Führer",
          "dependent": 2,
          "dependentGloss": "chinesische"
        },
        {
          "dep": "nsubj",
          "governor": 4,
          "governorGloss": "zur",
          "dependent": 3,
          "dependentGloss": "Führer"
        },
        {
          "dep": "dobj",
          "governor": 4,
          "governorGloss": "zur",
          "dependent": 5,
          "dependentGloss": "Vermeidung"
        },
        {
          "dep": "det",
          "governor": 9,
          "governorGloss": "Namens",
          "dependent": 6,
          "dependentGloss": "eines"
        },
        {
          "dep": "amod",
          "governor": 9,
          "governorGloss": "Namens",
          "dependent": 7,
          "dependentGloss": "schlechten"
        },
        {
          "dep": "amod",
          "governor": 9,
          "governorGloss": "Namens",
          "dependent": 8,
          "dependentGloss": "englischen"
        },
        {
          "dep": "det",
          "governor": 5,
          "governorGloss": "Vermeidung",
          "dependent": 9,
          "dependentGloss": "Namens"
        }
      ],
      "enhancedDependencies": [
        {
          "dep": "ROOT",
          "governor": 0,
          "governorGloss": "ROOT",
          "dependent": 4,
          "dependentGloss": "zur"
        },
        {
          "dep": "det",
          "governor": 3,
          "governorGloss": "Führer",
          "dependent": 1,
          "dependentGloss": "Der"
        },
        {
          "dep": "amod",
          "governor": 3,
          "governorGloss": "Führer",
          "dependent": 2,
          "dependentGloss": "chinesische"
        },
        {
          "dep": "nsubj",
          "governor": 4,
          "governorGloss": "zur",
          "dependent": 3,
          "dependentGloss": "Führer"
        },
        {
          "dep": "dobj",
          "governor": 4,
          "governorGloss": "zur",
          "dependent": 5,
          "dependentGloss": "Vermeidung"
        },
        {
          "dep": "det",
          "governor": 9,
          "governorGloss": "Namens",
          "dependent": 6,
          "dependentGloss": "eines"
        },
        {
          "dep": "amod",
          "governor": 9,
          "governorGloss": "Namens",
          "dependent": 7,
          "dependentGloss": "schlechten"
        },
        {
          "dep": "amod",
          "governor": 9,
          "governorGloss": "Namens",
          "dependent": 8,
          "dependentGloss": "englischen"
        },
        {
          "dep": "det",
          "governor": 5,
          "governorGloss": "Vermeidung",
          "dependent": 9,
          "dependentGloss": "Namens"
        }
      ],
      "enhancedPlusPlusDependencies": [
        {
          "dep": "ROOT",
          "governor": 0,
          "governorGloss": "ROOT",
          "dependent": 4,
          "dependentGloss": "zur"
        },
        {
          "dep": "det",
          "governor": 3,
          "governorGloss": "Führer",
          "dependent": 1,
          "dependentGloss": "Der"
        },
        {
          "dep": "amod",
          "governor": 3,
          "governorGloss": "Führer",
          "dependent": 2,
          "dependentGloss": "chinesische"
        },
        {
          "dep": "nsubj",
          "governor": 4,
          "governorGloss": "zur",
          "dependent": 3,
          "dependentGloss": "Führer"
        },
        {
          "dep": "dobj",
          "governor": 4,
          "governorGloss": "zur",
          "dependent": 5,
          "dependentGloss": "Vermeidung"
        },
        {
          "dep": "det",
          "governor": 9,
          "governorGloss": "Namens",
          "dependent": 6,
          "dependentGloss": "eines"
        },
        {
          "dep": "amod",
          "governor": 9,
          "governorGloss": "Namens",
          "dependent": 7,
          "dependentGloss": "schlechten"
        },
        {
          "dep": "amod",
          "governor": 9,
          "governorGloss": "Namens",
          "dependent": 8,
          "dependentGloss": "englischen"
        },
        {
          "dep": "det",
          "governor": 5,
          "governorGloss": "Vermeidung",
          "dependent": 9,
          "dependentGloss": "Namens"
        }
      ],
      "tokens": [
        {
          "index": 1,
          "word": "Der",
          "originalText": "Der",
          "characterOffsetBegin": 0,
          "characterOffsetEnd": 3,
          "pos": "ART",
          "before": "",
          "after": " "
        },
        {
          "index": 2,
          "word": "chinesische",
          "originalText": "chinesische",
          "characterOffsetBegin": 4,
          "characterOffsetEnd": 15,
          "pos": "ADJA",
          "before": " ",
          "after": " "
        },
        {
          "index": 3,
          "word": "Führer",
          "originalText": "Führer",
          "characterOffsetBegin": 16,
          "characterOffsetEnd": 22,
          "pos": "NN",
          "before": " ",
          "after": " "
        },
        {
          "index": 4,
          "word": "zur",
          "originalText": "zur",
          "characterOffsetBegin": 23,
          "characterOffsetEnd": 26,
          "pos": "APPRART",
          "before": " ",
          "after": " "
        },
        {
          "index": 5,
          "word": "Vermeidung",
          "originalText": "Vermeidung",
          "characterOffsetBegin": 27,
          "characterOffsetEnd": 37,
          "pos": "NN",
          "before": " ",
          "after": " "
        },
        {
          "index": 6,
          "word": "eines",
          "originalText": "eines",
          "characterOffsetBegin": 38,
          "characterOffsetEnd": 43,
          "pos": "ART",
          "before": " ",
          "after": " "
        },
        {
          "index": 7,
          "word": "schlechten",
          "originalText": "schlechten",
          "characterOffsetBegin": 44,
          "characterOffsetEnd": 54,
          "pos": "ADJA",
          "before": " ",
          "after": " "
        },
        {
          "index": 8,
          "word": "englischen",
          "originalText": "englischen",
          "characterOffsetBegin": 55,
          "characterOffsetEnd": 65,
          "pos": "ADJA",
          "before": " ",
          "after": " "
        },
        {
          "index": 9,
          "word": "Namens",
          "originalText": "Namens",
          "characterOffsetBegin": 66,
          "characterOffsetEnd": 72,
          "pos": "NN",
          "before": " ",
          "after": ""
        }
      ]
    }
  ]
}