{
  "sentences": [
    {
      "index": 0,
      "basicDependencies": [
        {
          "dep": "ROOT",
          "governor": 0,
          "governorGloss": "ROOT",
          "dependent": 1,
          "dependentGloss": "Kunde"
        },
        {
          "dep": "punct",
          "governor": 1,
          "governorGloss": "Kunde",
          "dependent": 2,
          "dependentGloss": ":"
        },
        {
          "dep": "nsubjpass",
          "governor": 7,
          "governorGloss": "Beschwerde",
          "dependent": 3,
          "dependentGloss": "Ich"
        },
        {
          "dep": "auxpass",
          "governor": 7,
          "governorGloss": "Beschwerde",
          "dependent": 4,
          "dependentGloss": "wurde"
        },
        {
          "dep": "case",
          "governor": 6,
          "governorGloss": "Comcast",
          "dependent": 5,
          "dependentGloss": "für"
        },
        {
          "dep": "nmod",
          "governor": 7,
          "governorGloss": "Beschwerde",
          "dependent": 6,
          "dependentGloss": "Comcast"
        },
        {
          "dep": "parataxis",
          "governor": 1,
          "governorGloss": "Kunde",
          "dependent": 7,
          "dependentGloss": "Beschwerde"
        },
        {
          "dep": "dep",
          "governor": 1,
          "governorGloss": "Kunde",
          "dependent": 8,
          "dependentGloss": "abgefeuert"
        }
      ],
      "enhancedDependencies": [
        {
          "dep": "ROOT",
          "governor": 0,
          "governorGloss": "ROOT",
          "dependent": 1,
          "dependentGloss": "Kunde"
        },
        {
          "dep": "punct",
          "governor": 1,
          "governorGloss": "Kunde",
          "dependent": 2,
          "dependentGloss": ":"
        },
        {
          "dep": "nsubjpass",
          "governor": 7,
          "governorGloss": "Beschwerde",
          "dependent": 3,
          "dependentGloss": "Ich"
        },
        {
          "dep": "auxpass",
          "governor": 7,
          "governorGloss": "Beschwerde",
          "dependent": 4,
          "dependentGloss": "wurde"
        },
        {
          "dep": "case",
          "governor": 6,
          "governorGloss": "Comcast",
          "dependent": 5,
          "dependentGloss": "für"
        },
        {
          "dep": "nmod",
          "governor": 7,
          "governorGloss": "Beschwerde",
          "dependent": 6,
          "dependentGloss": "Comcast"
        },
        {
          "dep": "parataxis",
          "governor": 1,
          "governorGloss": "Kunde",
          "dependent": 7,
          "dependentGloss": "Beschwerde"
        },
        {
          "dep": "dep",
          "governor": 1,
          "governorGloss": "Kunde",
          "dependent": 8,
          "dependentGloss": "abgefeuert"
        }
      ],
      "enhancedPlusPlusDependencies": [
        {
          "dep": "ROOT",
          "governor": 0,
          "governorGloss": "ROOT",
          "dependent": 1,
          "dependentGloss": "Kunde"
        },
        {
          "dep": "punct",
          "governor": 1,
          "governorGloss": "Kunde",
          "dependent": 2,
          "dependentGloss": ":"
        },
        {
          "dep": "nsubjpass",
          "governor": 7,
          "governorGloss": "Beschwerde",
          "dependent": 3,
          "dependentGloss": "Ich"
        },
        {
          "dep": "auxpass",
          "governor": 7,
          "governorGloss": "Beschwerde",
          "dependent": 4,
          "dependentGloss": "wurde"
        },
        {
          "dep": "case",
          "governor": 6,
          "governorGloss": "Comcast",
          "dependent": 5,
          "dependentGloss": "für"
        },
        {
          "dep": "nmod",
          "governor": 7,
          "governorGloss": "Beschwerde",
          "dependent": 6,
          "dependentGloss": "Comcast"
        },
        {
          "dep": "parataxis",
          "governor": 1,
          "governorGloss": "Kunde",
          "dependent": 7,
          "dependentGloss": "Beschwerde"
        },
        {
          "dep": "dep",
          "governor": 1,
          "governorGloss": "Kunde",
          "dependent": 8,
          "dependentGloss": "abgefeuert"
        }
      ],
      "tokens": [
        {
          "index": 1,
          "word": "Kunde",
          "originalText": "Kunde",
          "characterOffsetBegin": 0,
          "characterOffsetEnd": 5,
          "pos": "NN",
          "before": "",
          "after": ""
        },
        {
          "index": 2,
          "word": ":",
          "originalText": ":",
          "characterOffsetBegin": 5,
          "characterOffsetEnd": 6,
          "pos": "$.",
          "before": "",
          "after": " "
        },
        {
          "index": 3,
          "word": "Ich",
          "originalText": "Ich",
          "characterOffsetBegin": 7,
          "characterOffsetEnd": 10,
          "pos": "PPER",
          "before": " ",
          "after": " "
        },
        {
          "index": 4,
          "word": "wurde",
          "originalText": "wurde",
          "characterOffsetBegin": 11,
          "characterOffsetEnd": 16,
          "pos": "VAFIN",
          "before": " ",
          "after": " "
        },
        {
          "index": 5,
          "word": "für",
          "originalText": "für",
          "characterOffsetBegin": 17,
          "characterOffsetEnd": 20,
          "pos": "APPR",
          "before": " ",
          "after": " "
        },
        {
          "index": 6,
          "word": "Comcast",
          "originalText": "Comcast",
          "characterOffsetBegin": 21,
          "characterOffsetEnd": 28,
          "pos": "NE",
          "before": " ",
          "after": " "
        },
        {
          "index": 7,
          "word": "Beschwerde",
          "originalText": "Beschwerde",
          "characterOffsetBegin": 29,
          "characterOffsetEnd": 39,
          "pos": "NN",
          "before": " ",
          "after": " "
        },
        {
          "index": 8,
          "word": "abgefeuert",
          "originalText": "abgefeuert",
          "characterOffsetBegin": 40,
          "characterOffsetEnd": 50,
          "pos": "VVPP",
          "before": " ",
          "after": ""
        }
      ]
    }
  ]
}