{
  "sentences": [
    {
      "index": 0,
      "basicDependencies": [
        {
          "dep": "ROOT",
          "governor": 0,
          "governorGloss": "ROOT",
          "dependent": 1,
          "dependentGloss": "Accountant"
        },
        {
          "dep": "name",
          "governor": 3,
          "governorGloss": "Comcast",
          "dependent": 2,
          "dependentGloss": "Claims"
        },
        {
          "dep": "appos",
          "governor": 1,
          "governorGloss": "Accountant",
          "dependent": 3,
          "dependentGloss": "Comcast"
        },
        {
          "dep": "acl",
          "governor": 1,
          "governorGloss": "Accountant",
          "dependent": 4,
          "dependentGloss": "hat"
        },
        {
          "dep": "dobj",
          "governor": 4,
          "governorGloss": "hat",
          "dependent": 5,
          "dependentGloss": "ihn"
        },
        {
          "dep": "case",
          "governor": 8,
          "governorGloss": "Job",
          "dependent": 6,
          "dependentGloss": "von"
        },
        {
          "dep": "det",
          "governor": 8,
          "governorGloss": "Job",
          "dependent": 7,
          "dependentGloss": "seinem"
        },
        {
          "dep": "nmod",
          "governor": 5,
          "governorGloss": "ihn",
          "dependent": 8,
          "dependentGloss": "Job"
        },
        {
          "dep": "case",
          "governor": 11,
          "governorGloss": "Meldung",
          "dependent": 9,
          "dependentGloss": "für"
        },
        {
          "dep": "det",
          "governor": 11,
          "governorGloss": "Meldung",
          "dependent": 10,
          "dependentGloss": "die"
        },
        {
          "dep": "nmod",
          "governor": 8,
          "governorGloss": "Job",
          "dependent": 11,
          "dependentGloss": "Meldung"
        },
        {
          "dep": "det",
          "governor": 14,
          "governorGloss": "Service",
          "dependent": 12,
          "dependentGloss": "eines"
        },
        {
          "dep": "amod",
          "governor": 14,
          "governorGloss": "Service",
          "dependent": 13,
          "dependentGloss": "Customer"
        },
        {
          "dep": "det",
          "governor": 11,
          "governorGloss": "Meldung",
          "dependent": 14,
          "dependentGloss": "Service"
        },
        {
          "dep": "amod",
          "governor": 16,
          "governorGloss": "gefeuert",
          "dependent": 15,
          "dependentGloss": "Issue"
        },
        {
          "dep": "det",
          "governor": 14,
          "governorGloss": "Service",
          "dependent": 16,
          "dependentGloss": "gefeuert"
        }
      ],
      "enhancedDependencies": [
        {
          "dep": "ROOT",
          "governor": 0,
          "governorGloss": "ROOT",
          "dependent": 1,
          "dependentGloss": "Accountant"
        },
        {
          "dep": "name",
          "governor": 3,
          "governorGloss": "Comcast",
          "dependent": 2,
          "dependentGloss": "Claims"
        },
        {
          "dep": "appos",
          "governor": 1,
          "governorGloss": "Accountant",
          "dependent": 3,
          "dependentGloss": "Comcast"
        },
        {
          "dep": "acl",
          "governor": 1,
          "governorGloss": "Accountant",
          "dependent": 4,
          "dependentGloss": "hat"
        },
        {
          "dep": "dobj",
          "governor": 4,
          "governorGloss": "hat",
          "dependent": 5,
          "dependentGloss": "ihn"
        },
        {
          "dep": "case",
          "governor": 8,
          "governorGloss": "Job",
          "dependent": 6,
          "dependentGloss": "von"
        },
        {
          "dep": "det",
          "governor": 8,
          "governorGloss": "Job",
          "dependent": 7,
          "dependentGloss": "seinem"
        },
        {
          "dep": "nmod",
          "governor": 5,
          "governorGloss": "ihn",
          "dependent": 8,
          "dependentGloss": "Job"
        },
        {
          "dep": "case",
          "governor": 11,
          "governorGloss": "Meldung",
          "dependent": 9,
          "dependentGloss": "für"
        },
        {
          "dep": "det",
          "governor": 11,
          "governorGloss": "Meldung",
          "dependent": 10,
          "dependentGloss": "die"
        },
        {
          "dep": "nmod",
          "governor": 8,
          "governorGloss": "Job",
          "dependent": 11,
          "dependentGloss": "Meldung"
        },
        {
          "dep": "det",
          "governor": 14,
          "governorGloss": "Service",
          "dependent": 12,
          "dependentGloss": "eines"
        },
        {
          "dep": "amod",
          "governor": 14,
          "governorGloss": "Service",
          "dependent": 13,
          "dependentGloss": "Customer"
        },
        {
          "dep": "det",
          "governor": 11,
          "governorGloss": "Meldung",
          "dependent": 14,
          "dependentGloss": "Service"
        },
        {
          "dep": "amod",
          "governor": 16,
          "governorGloss": "gefeuert",
          "dependent": 15,
          "dependentGloss": "Issue"
        },
        {
          "dep": "det",
          "governor": 14,
          "governorGloss": "Service",
          "dependent": 16,
          "dependentGloss": "gefeuert"
        }
      ],
      "enhancedPlusPlusDependencies": [
        {
          "dep": "ROOT",
          "governor": 0,
          "governorGloss": "ROOT",
          "dependent": 1,
          "dependentGloss": "Accountant"
        },
        {
          "dep": "name",
          "governor": 3,
          "governorGloss": "Comcast",
          "dependent": 2,
          "dependentGloss": "Claims"
        },
        {
          "dep": "appos",
          "governor": 1,
          "governorGloss": "Accountant",
          "dependent": 3,
          "dependentGloss": "Comcast"
        },
        {
          "dep": "acl",
          "governor": 1,
          "governorGloss": "Accountant",
          "dependent": 4,
          "dependentGloss": "hat"
        },
        {
          "dep": "dobj",
          "governor": 4,
          "governorGloss": "hat",
          "dependent": 5,
          "dependentGloss": "ihn"
        },
        {
          "dep": "case",
          "governor": 8,
          "governorGloss": "Job",
          "dependent": 6,
          "dependentGloss": "von"
        },
        {
          "dep": "det",
          "governor": 8,
          "governorGloss": "Job",
          "dependent": 7,
          "dependentGloss": "seinem"
        },
        {
          "dep": "nmod",
          "governor": 5,
          "governorGloss": "ihn",
          "dependent": 8,
          "dependentGloss": "Job"
        },
        {
          "dep": "case",
          "governor": 11,
          "governorGloss": "Meldung",
          "dependent": 9,
          "dependentGloss": "für"
        },
        {
          "dep": "det",
          "governor": 11,
          "governorGloss": "Meldung",
          "dependent": 10,
          "dependentGloss": "die"
        },
        {
          "dep": "nmod",
          "governor": 8,
          "governorGloss": "Job",
          "dependent": 11,
          "dependentGloss": "Meldung"
        },
        {
          "dep": "det",
          "governor": 14,
          "governorGloss": "Service",
          "dependent": 12,
          "dependentGloss": "eines"
        },
        {
          "dep": "amod",
          "governor": 14,
          "governorGloss": "Service",
          "dependent": 13,
          "dependentGloss": "Customer"
        },
        {
          "dep": "det",
          "governor": 11,
          "governorGloss": "Meldung",
          "dependent": 14,
          "dependentGloss": "Service"
        },
        {
          "dep": "amod",
          "governor": 16,
          "governorGloss": "gefeuert",
          "dependent": 15,
          "dependentGloss": "Issue"
        },
        {
          "dep": "det",
          "governor": 14,
          "governorGloss": "Service",
          "dependent": 16,
          "dependentGloss": "gefeuert"
        }
      ],
      "tokens": [
        {
          "index": 1,
          "word": "Accountant",
          "originalText": "Accountant",
          "characterOffsetBegin": 0,
          "characterOffsetEnd": 10,
          "pos": "NE",
          "before": "",
          "after": " "
        },
        {
          "index": 2,
          "word": "Claims",
          "originalText": "Claims",
          "characterOffsetBegin": 11,
          "characterOffsetEnd": 17,
          "pos": "NE",
          "before": " ",
          "after": " "
        },
        {
          "index": 3,
          "word": "Comcast",
          "originalText": "Comcast",
          "characterOffsetBegin": 18,
          "characterOffsetEnd": 25,
          "pos": "NE",
          "before": " ",
          "after": " "
        },
        {
          "index": 4,
          "word": "hat",
          "originalText": "hat",
          "characterOffsetBegin": 26,
          "characterOffsetEnd": 29,
          "pos": "VAFIN",
          "before": " ",
          "after": " "
        },
        {
          "index": 5,
          "word": "ihn",
          "originalText": "ihn",
          "characterOffsetBegin": 30,
          "characterOffsetEnd": 33,
          "pos": "PPER",
          "before": " ",
          "after": " "
        },
        {
          "index": 6,
          "word": "von",
          "originalText": "von",
          "characterOffsetBegin": 34,
          "characterOffsetEnd": 37,
          "pos": "APPR",
          "before": " ",
          "after": " "
        },
        {
          "index": 7,
          "word": "seinem",
          "originalText": "seinem",
          "characterOffsetBegin": 38,
          "characterOffsetEnd": 44,
          "pos": "PPOSAT",
          "before": " ",
          "after": " "
        },
        {
          "index": 8,
          "word": "Job",
          "originalText": "Job",
          "characterOffsetBegin": 45,
          "characterOffsetEnd": 48,
          "pos": "NN",
          "before": " ",
          "after": " "
        },
        {
          "index": 9,
          "word": "für",
          "originalText": "für",
          "characterOffsetBegin": 49,
          "characterOffsetEnd": 52,
          "pos": "APPR",
          "before": " ",
          "after": " "
        },
        {
          "index": 10,
          "word": "die",
          "originalText": "die",
          "characterOffsetBegin": 53,
          "characterOffsetEnd": 56,
          "pos": "ART",
          "before": " ",
          "after": " "
        },
        {
          "index": 11,
          "word": "Meldung",
          "originalText": "Meldung",
          "characterOffsetBegin": 57,
          "characterOffsetEnd": 64,
          "pos": "NN",
          "before": " ",
          "after": " "
        },
        {
          "index": 12,
          "word": "eines",
          "originalText": "eines",
          "characterOffsetBegin": 65,
          "characterOffsetEnd": 70,
          "pos": "ART",
          "before": " ",
          "after": " "
        },
        {
          "index": 13,
          "word": "Customer",
          "originalText": "Customer",
          "characterOffsetBegin": 71,
          "characterOffsetEnd": 79,
          "pos": "NN",
          "before": " ",
          "after": " "
        },
        {
          "index": 14,
          "word": "Service",
          "originalText": "Service",
          "characterOffsetBegin": 80,
          "characterOffsetEnd": 87,
          "pos": "NN",
          "before": " ",
          "after": " "
        },
        {
          "index": 15,
          "word": "Issue",
          "originalText": "Issue",
          "characterOffsetBegin": 88,
          "characterOffsetEnd": 93,
          "pos": "NE",
          "before": " ",
          "after": " "
        },
        {
          "index": 16,
          "word": "gefeuert",
          "originalText": "gefeuert",
          "characterOffsetBegin": 94,
          "characterOffsetEnd": 102,
          "pos": "VVPP",
          "before": " ",
          "after": ""
        }
      ]
    }
  ]
}