{
  "sentences": [
    {
      "index": 0,
      "basicDependencies": [
        {
          "dep": "ROOT",
          "governor": 0,
          "governorGloss": "ROOT",
          "dependent": 4,
          "dependentGloss": "zeigt"
        },
        {
          "dep": "appos",
          "governor": 4,
          "governorGloss": "zeigt",
          "dependent": 1,
          "dependentGloss": "US-Beamte"
        },
        {
          "dep": "punct",
          "governor": 1,
          "governorGloss": "US-Beamte",
          "dependent": 2,
          "dependentGloss": ":"
        },
        {
          "dep": "nsubj",
          "governor": 4,
          "governorGloss": "zeigt",
          "dependent": 3,
          "dependentGloss": "Video"
        },
        {
          "dep": "det",
          "governor": 6,
          "governorGloss": "Hinrichtung",
          "dependent": 5,
          "dependentGloss": "die"
        },
        {
          "dep": "dobj",
          "governor": 4,
          "governorGloss": "zeigt",
          "dependent": 6,
          "dependentGloss": "Hinrichtung"
        },
        {
          "dep": "det",
          "governor": 8,
          "governorGloss": "Amerikaners",
          "dependent": 7,
          "dependentGloss": "des"
        },
        {
          "dep": "det",
          "governor": 6,
          "governorGloss": "Hinrichtung",
          "dependent": 8,
          "dependentGloss": "Amerikaners"
        }
      ],
      "enhancedDependencies": [
        {
          "dep": "ROOT",
          "governor": 0,
          "governorGloss": "ROOT",
          "dependent": 4,
          "dependentGloss": "zeigt"
        },
        {
          "dep": "appos",
          "governor": 4,
          "governorGloss": "zeigt",
          "dependent": 1,
          "dependentGloss": "US-Beamte"
        },
        {
          "dep": "punct",
          "governor": 1,
          "governorGloss": "US-Beamte",
          "dependent": 2,
          "dependentGloss": ":"
        },
        {
          "dep": "nsubj",
          "governor": 4,
          "governorGloss": "zeigt",
          "dependent": 3,
          "dependentGloss": "Video"
        },
        {
          "dep": "det",
          "governor": 6,
          "governorGloss": "Hinrichtung",
          "dependent": 5,
          "dependentGloss": "die"
        },
        {
          "dep": "dobj",
          "governor": 4,
          "governorGloss": "zeigt",
          "dependent": 6,
          "dependentGloss": "Hinrichtung"
        },
        {
          "dep": "det",
          "governor": 8,
          "governorGloss": "Amerikaners",
          "dependent": 7,
          "dependentGloss": "des"
        },
        {
          "dep": "det",
          "governor": 6,
          "governorGloss": "Hinrichtung",
          "dependent": 8,
          "dependentGloss": "Amerikaners"
        }
      ],
      "enhancedPlusPlusDependencies": [
        {
          "dep": "ROOT",
          "governor": 0,
          "governorGloss": "ROOT",
          "dependent": 4,
          "dependentGloss": "zeigt"
        },
        {
          "dep": "appos",
          "governor": 4,
          "governorGloss": "zeigt",
          "dependent": 1,
          "dependentGloss": "US-Beamte"
        },
        {
          "dep": "punct",
          "governor": 1,
          "governorGloss": "US-Beamte",
          "dependent": 2,
          "dependentGloss": ":"
        },
        {
          "dep": "nsubj",
          "governor": 4,
          "governorGloss": "zeigt",
          "dependent": 3,
          "dependentGloss": "Video"
        },
        {
          "dep": "det",
          "governor": 6,
          "governorGloss": "Hinrichtung",
          "dependent": 5,
          "dependentGloss": "die"
        },
        {
          "dep": "dobj",
          "governor": 4,
          "governorGloss": "zeigt",
          "dependent": 6,
          "dependentGloss": "Hinrichtung"
        },
        {
          "dep": "det",
          "governor": 8,
          "governorGloss": "Amerikaners",
          "dependent": 7,
          "dependentGloss": "des"
        },
        {
          "dep": "det",
          "governor": 6,
          "governorGloss": "Hinrichtung",
          "dependent": 8,
          "dependentGloss": "Amerikaners"
        }
      ],
      "tokens": [
        {
          "index": 1,
          "word": "US-Beamte",
          "originalText": "US-Beamte",
          "characterOffsetBegin": 0,
          "characterOffsetEnd": 9,
          "pos": "NN",
          "before": "",
          "after": ""
        },
        {
          "index": 2,
          "word": ":",
          "originalText": ":",
          "characterOffsetBegin": 9,
          "characterOffsetEnd": 10,
          "pos": "$.",
          "before": "",
          "after": " "
        },
        {
          "index": 3,
          "word": "Video",
          "originalText": "Video",
          "characterOffsetBegin": 11,
          "characterOffsetEnd": 16,
          "pos": "NN",
          "before": " ",
          "after": " "
        },
        {
          "index": 4,
          "word": "zeigt",
          "originalText": "zeigt",
          "characterOffsetBegin": 17,
          "characterOffsetEnd": 22,
          "pos": "VVFIN",
          "before": " ",
          "after": " "
        },
        {
          "index": 5,
          "word": "die",
          "originalText": "die",
          "characterOffsetBegin": 23,
          "characterOffsetEnd": 26,
          "pos": "ART",
          "before": " ",
          "after": " "
        },
        {
          "index": 6,
          "word": "Hinrichtung",
          "originalText": "Hinrichtung",
          "characterOffsetBegin": 27,
          "characterOffsetEnd": 38,
          "pos": "NN",
          "before": " ",
          "after": " "
        },
        {
          "index": 7,
          "word": "des",
          "originalText": "des",
          "characterOffsetBegin": 39,
          "characterOffsetEnd": 42,
          "pos": "ART",
          "before": " ",
          "after": " "
        },
        {
          "index": 8,
          "word": "Amerikaners",
          "originalText": "Amerikaners",
          "characterOffsetBegin": 43,
          "characterOffsetEnd": 54,
          "pos": "NN",
          "before": " ",
          "after": ""
        }
      ]
    }
  ]
}