{
  "sentences": [
    {
      "index": 0,
      "basicDependencies": [
        {
          "dep": "ROOT",
          "governor": 0,
          "governorGloss": "ROOT",
          "dependent": 5,
          "dependentGloss": "sicher"
        },
        {
          "dep": "name",
          "governor": 2,
          "governorGloss": "Klempner",
          "dependent": 1,
          "dependentGloss": "Texas"
        },
        {
          "dep": "nsubj",
          "governor": 5,
          "governorGloss": "sicher",
          "dependent": 2,
          "dependentGloss": "Klempner"
        },
        {
          "dep": "cop",
          "governor": 5,
          "governorGloss": "sicher",
          "dependent": 3,
          "dependentGloss": "ist"
        },
        {
          "dep": "neg",
          "governor": 5,
          "governorGloss": "sicher",
          "dependent": 4,
          "dependentGloss": "nicht"
        },
        {
          "dep": "punct",
          "governor": 5,
          "governorGloss": "sicher",
          "dependent": 6,
          "dependentGloss": ","
        },
        {
          "dep": "case",
          "governor": 8,
          "governorGloss": "Extremisten",
          "dependent": 7,
          "dependentGloss": "wie"
        },
        {
          "dep": "nmod",
          "governor": 5,
          "governorGloss": "sicher",
          "dependent": 8,
          "dependentGloss": "Extremisten"
        },
        {
          "dep": "case",
          "governor": 10,
          "governorGloss": "Syrien",
          "dependent": 9,
          "dependentGloss": "in"
        },
        {
          "dep": "nmod",
          "governor": 8,
          "governorGloss": "Extremisten",
          "dependent": 10,
          "dependentGloss": "Syrien"
        },
        {
          "dep": "case",
          "governor": 13,
          "governorGloss": "Arbeit",
          "dependent": 11,
          "dependentGloss": "mit"
        },
        {
          "dep": "det",
          "governor": 13,
          "governorGloss": "Arbeit",
          "dependent": 12,
          "dependentGloss": "seinem"
        },
        {
          "dep": "nmod",
          "governor": 8,
          "governorGloss": "Extremisten",
          "dependent": 13,
          "dependentGloss": "Arbeit"
        },
        {
          "dep": "appos",
          "governor": 13,
          "governorGloss": "Arbeit",
          "dependent": 14,
          "dependentGloss": "LKW"
        },
        {
          "dep": "punct",
          "governor": 5,
          "governorGloss": "sicher",
          "dependent": 15,
          "dependentGloss": "endete"
        }
      ],
      "enhancedDependencies": [
        {
          "dep": "ROOT",
          "governor": 0,
          "governorGloss": "ROOT",
          "dependent": 5,
          "dependentGloss": "sicher"
        },
        {
          "dep": "name",
          "governor": 2,
          "governorGloss": "Klempner",
          "dependent": 1,
          "dependentGloss": "Texas"
        },
        {
          "dep": "nsubj",
          "governor": 5,
          "governorGloss": "sicher",
          "dependent": 2,
          "dependentGloss": "Klempner"
        },
        {
          "dep": "cop",
          "governor": 5,
          "governorGloss": "sicher",
          "dependent": 3,
          "dependentGloss": "ist"
        },
        {
          "dep": "neg",
          "governor": 5,
          "governorGloss": "sicher",
          "dependent": 4,
          "dependentGloss": "nicht"
        },
        {
          "dep": "punct",
          "governor": 5,
          "governorGloss": "sicher",
          "dependent": 6,
          "dependentGloss": ","
        },
        {
          "dep": "case",
          "governor": 8,
          "governorGloss": "Extremisten",
          "dependent": 7,
          "dependentGloss": "wie"
        },
        {
          "dep": "nmod",
          "governor": 5,
          "governorGloss": "sicher",
          "dependent": 8,
          "dependentGloss": "Extremisten"
        },
        {
          "dep": "case",
          "governor": 10,
          "governorGloss": "Syrien",
          "dependent": 9,
          "dependentGloss": "in"
        },
        {
          "dep": "nmod",
          "governor": 8,
          "governorGloss": "Extremisten",
          "dependent": 10,
          "dependentGloss": "Syrien"
        },
        {
          "dep": "case",
          "governor": 13,
          "governorGloss": "Arbeit",
          "dependent": 11,
          "dependentGloss": "mit"
        },
        {
          "dep": "det",
          "governor": 13,
          "governorGloss": "Arbeit",
          "dependent": 12,
          "dependentGloss": "seinem"
        },
        {
          "dep": "nmod",
          "governor": 8,
          "governorGloss": "Extremisten",
          "dependent": 13,
          "dependentGloss": "Arbeit"
        },
        {
          "dep": "appos",
          "governor": 13,
          "governorGloss": "Arbeit",
          "dependent": 14,
          "dependentGloss": "LKW"
        },
        {
          "dep": "punct",
          "governor": 5,
          "governorGloss": "sicher",
          "dependent": 15,
          "dependentGloss": "endete"
        }
      ],
      "enhancedPlusPlusDependencies": [
        {
          "dep": "ROOT",
          "governor": 0,
          "governorGloss": "ROOT",
          "dependent": 5,
          "dependentGloss": "sicher"
        },
        {
          "dep": "name",
          "governor": 2,
          "governorGloss": "Klempner",
          "dependent": 1,
          "dependentGloss": "Texas"
        },
        {
          "dep": "nsubj",
          "governor": 5,
          "governorGloss": "sicher",
          "dependent": 2,
          "dependentGloss": "Klempner"
        },
        {
          "dep": "cop",
          "governor": 5,
          "governorGloss": "sicher",
          "dependent": 3,
          "dependentGloss": "ist"
        },
        {
          "dep": "neg",
          "governor": 5,
          "governorGloss": "sicher",
          "dependent": 4,
          "dependentGloss": "nicht"
        },
        {
          "dep": "punct",
          "governor": 5,
          "governorGloss": "sicher",
          "dependent": 6,
          "dependentGloss": ","
        },
        {
          "dep": "case",
          "governor": 8,
          "governorGloss": "Extremisten",
          "dependent": 7,
          "dependentGloss": "wie"
        },
        {
          "dep": "nmod",
          "governor": 5,
          "governorGloss": "sicher",
          "dependent": 8,
          "dependentGloss": "Extremisten"
        },
        {
          "dep": "case",
          "governor": 10,
          "governorGloss": "Syrien",
          "dependent": 9,
          "dependentGloss": "in"
        },
        {
          "dep": "nmod",
          "governor": 8,
          "governorGloss": "Extremisten",
          "dependent": 10,
          "dependentGloss": "Syrien"
        },
        {
          "dep": "case",
          "governor": 13,
          "governorGloss": "Arbeit",
          "dependent": 11,
          "dependentGloss": "mit"
        },
        {
          "dep": "det",
          "governor": 13,
          "governorGloss": "Arbeit",
          "dependent": 12,
          "dependentGloss": "seinem"
        },
        {
          "dep": "nmod",
          "governor": 8,
          "governorGloss": "Extremisten",
          "dependent": 13,
          "dependentGloss": "Arbeit"
        },
        {
          "dep": "appos",
          "governor": 13,
          "governorGloss": "Arbeit",
          "dependent": 14,
          "dependentGloss": "LKW"
        },
        {
          "dep": "punct",
          "governor": 5,
          "governorGloss": "sicher",
          "dependent": 15,
          "dependentGloss": "endete"
        }
      ],
      "tokens": [
        {
          "index": 1,
          "word": "Texas",
          "originalText": "Texas",
          "characterOffsetBegin": 0,
          "characterOffsetEnd": 5,
          "pos": "NE",
          "before": "",
          "after": " "
        },
        {
          "index": 2,
          "word": "Klempner",
          "originalText": "Klempner",
          "characterOffsetBegin": 6,
          "characterOffsetEnd": 14,
          "pos": "NN",
          "before": " ",
          "after": " "
        },
        {
          "index": 3,
          "word": "ist",
          "originalText": "ist",
          "characterOffsetBegin": 15,
          "characterOffsetEnd": 18,
          "pos": "VAFIN",
          "before": " ",
          "after": " "
        },
        {
          "index": 4,
          "word": "nicht",
          "originalText": "nicht",
          "characterOffsetBegin": 19,
          "characterOffsetEnd": 24,
          "pos": "PTKNEG",
          "before": " ",
          "after": " "
        },
        {
          "index": 5,
          "word": "sicher",
          "originalText": "sicher",
          "characterOffsetBegin": 25,
          "characterOffsetEnd": 31,
          "pos": "ADJD",
          "before": " ",
          "after": ""
        },
        {
          "index": 6,
          "word": ",",
          "originalText": ",",
          "characterOffsetBegin": 31,
          "characterOffsetEnd": 32,
          "pos": "$,",
          "before": "",
          "after": " "
        },
        {
          "index": 7,
          "word": "wie",
          "originalText": "wie",
          "characterOffsetBegin": 33,
          "characterOffsetEnd": 36,
          "pos": "PWAV",
          "before": " ",
          "after": " "
        },
        {
          "index": 8,
          "word": "Extremisten",
          "originalText": "Extremisten",
          "characterOffsetBegin": 37,
          "characterOffsetEnd": 48,
          "pos": "NN",
          "before": " ",
          "after": " "
        },
        {
          "index": 9,
          "word": "in",
          "originalText": "in",
          "characterOffsetBegin": 49,
          "characterOffsetEnd": 51,
          "pos": "APPR",
          "before": " ",
          "after": " "
        },
        {
          "index": 10,
          "word": "Syrien",
          "originalText": "Syrien",
          "characterOffsetBegin": 52,
          "characterOffsetEnd": 58,
          "pos": "NE",
          "before": " ",
          "after": " "
        },
        {
          "index": 11,
          "word": "mit",
          "originalText": "mit",
          "characterOffsetBegin": 59,
          "characterOffsetEnd": 62,
          "pos": "APPR",
          "before": " ",
          "after": " "
        },
        {
          "index": 12,
          "word": "seinem",
          "originalText": "seinem",
          "characterOffsetBegin": 63,
          "characterOffsetEnd": 69,
          "pos": "PPOSAT",
          "before": " ",
          "after": " "
        },
        {
          "index": 13,
          "word": "Arbeit",
          "originalText": "Arbeit",
          "characterOffsetBegin": 70,
          "characterOffsetEnd": 76,
          "pos": "NN",
          "before": " ",
          "after": " "
        },
        {
          "index": 14,
          "word": "LKW",
          "originalText": "LKW",
          "characterOffsetBegin": 77,
          "characterOffsetEnd": 80,
          "pos": "NE",
          "before": " ",
          "after": " "
        },
        {
          "index": 15,
          "word": "endete",
          "originalText": "endete",
          "characterOffsetBegin": 81,
          "characterOffsetEnd": 87,
          "pos": "VVFIN",
          "before": " ",
          "after": ""
        }
      ]
    }
  ]
}