{
  "sentences": [
    {
      "index": 0,
      "basicDependencies": [
        {
          "dep": "ROOT",
          "governor": 0,
          "governorGloss": "ROOT",
          "dependent": 1,
          "dependentGloss": "UPDATE"
        },
        {
          "dep": "punct",
          "governor": 1,
          "governorGloss": "UPDATE",
          "dependent": 2,
          "dependentGloss": ":"
        },
        {
          "dep": "parataxis",
          "governor": 1,
          "governorGloss": "UPDATE",
          "dependent": 3,
          "dependentGloss": "Internet-Bericht"
        },
        {
          "dep": "case",
          "governor": 5,
          "governorGloss": "Ebola-Ausbruch",
          "dependent": 4,
          "dependentGloss": "von"
        },
        {
          "dep": "nmod",
          "governor": 3,
          "governorGloss": "Internet-Bericht",
          "dependent": 5,
          "dependentGloss": "Ebola-Ausbruch"
        },
        {
          "dep": "case",
          "governor": 7,
          "governorGloss": "Purdon",
          "dependent": 6,
          "dependentGloss": "in"
        },
        {
          "dep": "nmod",
          "governor": 3,
          "governorGloss": "Internet-Bericht",
          "dependent": 7,
          "dependentGloss": "Purdon"
        },
        {
          "dep": "neg",
          "governor": 3,
          "governorGloss": "Internet-Bericht",
          "dependent": 8,
          "dependentGloss": "nicht"
        },
        {
          "dep": "advmod",
          "governor": 3,
          "governorGloss": "Internet-Bericht",
          "dependent": 9,
          "dependentGloss": "wahr"
        }
      ],
      "enhancedDependencies": [
        {
          "dep": "ROOT",
          "governor": 0,
          "governorGloss": "ROOT",
          "dependent": 1,
          "dependentGloss": "UPDATE"
        },
        {
          "dep": "punct",
          "governor": 1,
          "governorGloss": "UPDATE",
          "dependent": 2,
          "dependentGloss": ":"
        },
        {
          "dep": "parataxis",
          "governor": 1,
          "governorGloss": "UPDATE",
          "dependent": 3,
          "dependentGloss": "Internet-Bericht"
        },
        {
          "dep": "case",
          "governor": 5,
          "governorGloss": "Ebola-Ausbruch",
          "dependent": 4,
          "dependentGloss": "von"
        },
        {
          "dep": "nmod",
          "governor": 3,
          "governorGloss": "Internet-Bericht",
          "dependent": 5,
          "dependentGloss": "Ebola-Ausbruch"
        },
        {
          "dep": "case",
          "governor": 7,
          "governorGloss": "Purdon",
          "dependent": 6,
          "dependentGloss": "in"
        },
        {
          "dep": "nmod",
          "governor": 3,
          "governorGloss": "Internet-Bericht",
          "dependent": 7,
          "dependentGloss": "Purdon"
        },
        {
          "dep": "neg",
          "governor": 3,
          "governorGloss": "Internet-Bericht",
          "dependent": 8,
          "dependentGloss": "nicht"
        },
        {
          "dep": "advmod",
          "governor": 3,
          "governorGloss": "Internet-Bericht",
          "dependent": 9,
          "dependentGloss": "wahr"
        }
      ],
      "enhancedPlusPlusDependencies": [
        {
          "dep": "ROOT",
          "governor": 0,
          "governorGloss": "ROOT",
          "dependent": 1,
          "dependentGloss": "UPDATE"
        },
        {
          "dep": "punct",
          "governor": 1,
          "governorGloss": "UPDATE",
          "dependent": 2,
          "dependentGloss": ":"
        },
        {
          "dep": "parataxis",
          "governor": 1,
          "governorGloss": "UPDATE",
          "dependent": 3,
          "dependentGloss": "Internet-Bericht"
        },
        {
          "dep": "case",
          "governor": 5,
          "governorGloss": "Ebola-Ausbruch",
          "dependent": 4,
          "dependentGloss": "von"
        },
        {
          "dep": "nmod",
          "governor": 3,
          "governorGloss": "Internet-Bericht",
          "dependent": 5,
          "dependentGloss": "Ebola-Ausbruch"
        },
        {
          "dep": "case",
          "governor": 7,
          "governorGloss": "Purdon",
          "dependent": 6,
          "dependentGloss": "in"
        },
        {
          "dep": "nmod",
          "governor": 3,
          "governorGloss": "Internet-Bericht",
          "dependent": 7,
          "dependentGloss": "Purdon"
        },
        {
          "dep": "neg",
          "governor": 3,
          "governorGloss": "Internet-Bericht",
          "dependent": 8,
          "dependentGloss": "nicht"
        },
        {
          "dep": "advmod",
          "governor": 3,
          "governorGloss": "Internet-Bericht",
          "dependent": 9,
          "dependentGloss": "wahr"
        }
      ],
      "tokens": [
        {
          "index": 1,
          "word": "UPDATE",
          "originalText": "UPDATE",
          "characterOffsetBegin": 0,
          "characterOffsetEnd": 6,
          "pos": "NN",
          "before": "",
          "after": ""
        },
        {
          "index": 2,
          "word": ":",
          "originalText": ":",
          "characterOffsetBegin": 6,
          "characterOffsetEnd": 7,
          "pos": "$.",
          "before": "",
          "after": " "
        },
        {
          "index": 3,
          "word": "Internet-Bericht",
          "originalText": "Internet-Bericht",
          "characterOffsetBegin": 8,
          "characterOffsetEnd": 24,
          "pos": "NN",
          "before": " ",
          "after": " "
        },
        {
          "index": 4,
          "word": "von",
          "originalText": "von",
          "characterOffsetBegin": 25,
          "characterOffsetEnd": 28,
          "pos": "APPR",
          "before": " ",
          "after": " "
        },
        {
          "index": 5,
          "word": "Ebola-Ausbruch",
          "originalText": "Ebola-Ausbruch",
          "characterOffsetBegin": 29,
          "characterOffsetEnd": 43,
          "pos": "NN",
          "before": " ",
          "after": " "
        },
        {
          "index": 6,
          "word": "in",
          "originalText": "in",
          "characterOffsetBegin": 44,
          "characterOffsetEnd": 46,
          "pos": "APPR",
          "before": " ",
          "after": " "
        },
        {
          "index": 7,
          "word": "Purdon",
          "originalText": "Purdon",
          "characterOffsetBegin": 47,
          "characterOffsetEnd": 53,
          "pos": "NE",
          "before": " ",
          "after": " "
        },
        {
          "index": 8,
          "word": "nicht",
          "originalText": "nicht",
          "characterOffsetBegin": 54,
          "characterOffsetEnd": 59,
          "pos": "PTKNEG",
          "before": " ",
          "after": " "
        },
        {
          "index": 9,
          "word": "wahr",
          "originalText": "wahr",
          "characterOffsetBegin": 60,
          "characterOffsetEnd": 64,
          "pos": "ADJD",
          "before": " ",
          "after": ""
        }
      ]
    }
  ]
}