{
  "sentences": [
    {
      "index": 0,
      "basicDependencies": [
        {
          "dep": "ROOT",
          "governor": 0,
          "governorGloss": "ROOT",
          "dependent": 7,
          "dependentGloss": "gefälscht"
        },
        {
          "dep": "name",
          "governor": 5,
          "governorGloss": "Video",
          "dependent": 1,
          "dependentGloss": "Vladimir"
        },
        {
          "dep": "name",
          "governor": 5,
          "governorGloss": "Video",
          "dependent": 2,
          "dependentGloss": "Putin"
        },
        {
          "dep": "name",
          "governor": 5,
          "governorGloss": "Video",
          "dependent": 3,
          "dependentGloss": "Vogel"
        },
        {
          "dep": "name",
          "governor": 5,
          "governorGloss": "Video",
          "dependent": 4,
          "dependentGloss": "Poop"
        },
        {
          "dep": "nsubj",
          "governor": 7,
          "governorGloss": "gefälscht",
          "dependent": 5,
          "dependentGloss": "Video"
        },
        {
          "dep": "cop",
          "governor": 7,
          "governorGloss": "gefälscht",
          "dependent": 6,
          "dependentGloss": "ist"
        }
      ],
      "enhancedDependencies": [
        {
          "dep": "ROOT",
          "governor": 0,
          "governorGloss": "ROOT",
          "dependent": 7,
          "dependentGloss": "gefälscht"
        },
        {
          "dep": "name",
          "governor": 5,
          "governorGloss": "Video",
          "dependent": 1,
          "dependentGloss": "Vladimir"
        },
        {
          "dep": "name",
          "governor": 5,
          "governorGloss": "Video",
          "dependent": 2,
          "dependentGloss": "Putin"
        },
        {
          "dep": "name",
          "governor": 5,
          "governorGloss": "Video",
          "dependent": 3,
          "dependentGloss": "Vogel"
        },
        {
          "dep": "name",
          "governor": 5,
          "governorGloss": "Video",
          "dependent": 4,
          "dependentGloss": "Poop"
        },
        {
          "dep": "nsubj",
          "governor": 7,
          "governorGloss": "gefälscht",
          "dependent": 5,
          "dependentGloss": "Video"
        },
        {
          "dep": "cop",
          "governor": 7,
          "governorGloss": "gefälscht",
          "dependent": 6,
          "dependentGloss": "ist"
        }
      ],
      "enhancedPlusPlusDependencies": [
        {
          "dep": "ROOT",
          "governor": 0,
          "governorGloss": "ROOT",
          "dependent": 7,
          "dependentGloss": "gefälscht"
        },
        {
          "dep": "name",
          "governor": 5,
          "governorGloss": "Video",
          "dependent": 1,
          "dependentGloss": "Vladimir"
        },
        {
          "dep": "name",
          "governor": 5,
          "governorGloss": "Video",
          "dependent": 2,
          "dependentGloss": "Putin"
        },
        {
          "dep": "name",
          "governor": 5,
          "governorGloss": "Video",
          "dependent": 3,
          "dependentGloss": "Vogel"
        },
        {
          "dep": "name",
          "governor": 5,
          "governorGloss": "Video",
          "dependent": 4,
          "dependentGloss": "Poop"
        },
        {
          "dep": "nsubj",
          "governor": 7,
          "governorGloss": "gefälscht",
          "dependent": 5,
          "dependentGloss": "Video"
        },
        {
          "dep": "cop",
          "governor": 7,
          "governorGloss": "gefälscht",
          "dependent": 6,
          "dependentGloss": "ist"
        }
      ],
      "tokens": [
        {
          "index": 1,
          "word": "Vladimir",
          "originalText": "Vladimir",
          "characterOffsetBegin": 0,
          "characterOffsetEnd": 8,
          "pos": "NE",
          "before": "",
          "after": " "
        },
        {
          "index": 2,
          "word": "Putin",
          "originalText": "Putin",
          "characterOffsetBegin": 9,
          "characterOffsetEnd": 14,
          "pos": "NE",
          "before": " ",
          "after": " "
        },
        {
          "index": 3,
          "word": "Vogel",
          "originalText": "Vogel",
          "characterOffsetBegin": 15,
          "characterOffsetEnd": 20,
          "pos": "NN",
          "before": " ",
          "after": " "
        },
        {
          "index": 4,
          "word": "Poop",
          "originalText": "Poop",
          "characterOffsetBegin": 21,
          "characterOffsetEnd": 25,
          "pos": "NE",
          "before": " ",
          "after": " "
        },
        {
          "index": 5,
          "word": "Video",
          "originalText": "Video",
          "characterOffsetBegin": 26,
          "characterOffsetEnd": 31,
          "pos": "NN",
          "before": " ",
          "after": " "
        },
        {
          "index": 6,
          "word": "ist",
          "originalText": "ist",
          "characterOffsetBegin": 32,
          "characterOffsetEnd": 35,
          "pos": "VAFIN",
          "before": " ",
          "after": " "
        },
        {
          "index": 7,
          "word": "gefälscht",
          "originalText": "gefälscht",
          "characterOffsetBegin": 36,
          "characterOffsetEnd": 45,
          "pos": "VVPP",
          "before": " ",
          "after": ""
        }
      ]
    }
  ]
}