{
  "sentences": [
    {
      "index": 0,
      "basicDependencies": [
        {
          "dep": "ROOT",
          "governor": 0,
          "governorGloss": "ROOT",
          "dependent": 2,
          "dependentGloss": "sagt"
        },
        {
          "dep": "nsubj",
          "governor": 2,
          "governorGloss": "sagt",
          "dependent": 1,
          "dependentGloss": "Nicaragua"
        },
        {
          "dep": "punct",
          "governor": 2,
          "governorGloss": "sagt",
          "dependent": 3,
          "dependentGloss": ","
        },
        {
          "dep": "mark",
          "governor": 15,
          "governorGloss": "ist",
          "dependent": 4,
          "dependentGloss": "dass"
        },
        {
          "dep": "det",
          "governor": 6,
          "governorGloss": "Meteorit",
          "dependent": 5,
          "dependentGloss": "der"
        },
        {
          "dep": "nsubj",
          "governor": 15,
          "governorGloss": "ist",
          "dependent": 6,
          "dependentGloss": "Meteorit"
        },
        {
          "dep": "advmod",
          "governor": 9,
          "governorGloss": "Ursache",
          "dependent": 7,
          "dependentGloss": "wahrscheinlich"
        },
        {
          "dep": "det",
          "governor": 9,
          "governorGloss": "Ursache",
          "dependent": 8,
          "dependentGloss": "die"
        },
        {
          "dep": "appos",
          "governor": 6,
          "governorGloss": "Meteorit",
          "dependent": 9,
          "dependentGloss": "Ursache"
        },
        {
          "dep": "case",
          "governor": 12,
          "governorGloss": "Explosion",
          "dependent": 10,
          "dependentGloss": "für"
        },
        {
          "dep": "det",
          "governor": 12,
          "governorGloss": "Explosion",
          "dependent": 11,
          "dependentGloss": "die"
        },
        {
          "dep": "nmod",
          "governor": 9,
          "governorGloss": "Ursache",
          "dependent": 12,
          "dependentGloss": "Explosion"
        },
        {
          "dep": "amod",
          "governor": 14,
          "governorGloss": "Kapital",
          "dependent": 13,
          "dependentGloss": "im"
        },
        {
          "dep": "det",
          "governor": 12,
          "governorGloss": "Explosion",
          "dependent": 14,
          "dependentGloss": "Kapital"
        },
        {
          "dep": "ccomp",
          "governor": 2,
          "governorGloss": "sagt",
          "dependent": 15,
          "dependentGloss": "ist"
        }
      ],
      "enhancedDependencies": [
        {
          "dep": "ROOT",
          "governor": 0,
          "governorGloss": "ROOT",
          "dependent": 2,
          "dependentGloss": "sagt"
        },
        {
          "dep": "nsubj",
          "governor": 2,
          "governorGloss": "sagt",
          "dependent": 1,
          "dependentGloss": "Nicaragua"
        },
        {
          "dep": "punct",
          "governor": 2,
          "governorGloss": "sagt",
          "dependent": 3,
          "dependentGloss": ","
        },
        {
          "dep": "mark",
          "governor": 15,
          "governorGloss": "ist",
          "dependent": 4,
          "dependentGloss": "dass"
        },
        {
          "dep": "det",
          "governor": 6,
          "governorGloss": "Meteorit",
          "dependent": 5,
          "dependentGloss": "der"
        },
        {
          "dep": "nsubj",
          "governor": 15,
          "governorGloss": "ist",
          "dependent": 6,
          "dependentGloss": "Meteorit"
        },
        {
          "dep": "advmod",
          "governor": 9,
          "governorGloss": "Ursache",
          "dependent": 7,
          "dependentGloss": "wahrscheinlich"
        },
        {
          "dep": "det",
          "governor": 9,
          "governorGloss": "Ursache",
          "dependent": 8,
          "dependentGloss": "die"
        },
        {
          "dep": "appos",
          "governor": 6,
          "governorGloss": "Meteorit",
          "dependent": 9,
          "dependentGloss": "Ursache"
        },
        {
          "dep": "case",
          "governor": 12,
          "governorGloss": "Explosion",
          "dependent": 10,
          "dependentGloss": "für"
        },
        {
          "dep": "det",
          "governor": 12,
          "governorGloss": "Explosion",
          "dependent": 11,
          "dependentGloss": "die"
        },
        {
          "dep": "nmod",
          "governor": 9,
          "governorGloss": "Ursache",
          "dependent": 12,
          "dependentGloss": "Explosion"
        },
        {
          "dep": "amod",
          "governor": 14,
          "governorGloss": "Kapital",
          "dependent": 13,
          "dependentGloss": "im"
        },
        {
          "dep": "det",
          "governor": 12,
          "governorGloss": "Explosion",
          "dependent": 14,
          "dependentGloss": "Kapital"
        },
        {
          "dep": "ccomp",
          "governor": 2,
          "governorGloss": "sagt",
          "dependent": 15,
          "dependentGloss": "ist"
        }
      ],
      "enhancedPlusPlusDependencies": [
        {
          "dep": "ROOT",
          "governor": 0,
          "governorGloss": "ROOT",
          "dependent": 2,
          "dependentGloss": "sagt"
        },
        {
          "dep": "nsubj",
          "governor": 2,
          "governorGloss": "sagt",
          "dependent": 1,
          "dependentGloss": "Nicaragua"
        },
        {
          "dep": "punct",
          "governor": 2,
          "governorGloss": "sagt",
          "dependent": 3,
          "dependentGloss": ","
        },
        {
          "dep": "mark",
          "governor": 15,
          "governorGloss": "ist",
          "dependent": 4,
          "dependentGloss": "dass"
        },
        {
          "dep": "det",
          "governor": 6,
          "governorGloss": "Meteorit",
          "dependent": 5,
          "dependentGloss": "der"
        },
        {
          "dep": "nsubj",
          "governor": 15,
          "governorGloss": "ist",
          "dependent": 6,
          "dependentGloss": "Meteorit"
        },
        {
          "dep": "advmod",
          "governor": 9,
          "governorGloss": "Ursache",
          "dependent": 7,
          "dependentGloss": "wahrscheinlich"
        },
        {
          "dep": "det",
          "governor": 9,
          "governorGloss": "Ursache",
          "dependent": 8,
          "dependentGloss": "die"
        },
        {
          "dep": "appos",
          "governor": 6,
          "governorGloss": "Meteorit",
          "dependent": 9,
          "dependentGloss": "Ursache"
        },
        {
          "dep": "case",
          "governor": 12,
          "governorGloss": "Explosion",
          "dependent": 10,
          "dependentGloss": "für"
        },
        {
          "dep": "det",
          "governor": 12,
          "governorGloss": "Explosion",
          "dependent": 11,
          "dependentGloss": "die"
        },
        {
          "dep": "nmod",
          "governor": 9,
          "governorGloss": "Ursache",
          "dependent": 12,
          "dependentGloss": "Explosion"
        },
        {
          "dep": "amod",
          "governor": 14,
          "governorGloss": "Kapital",
          "dependent": 13,
          "dependentGloss": "im"
        },
        {
          "dep": "det",
          "governor": 12,
          "governorGloss": "Explosion",
          "dependent": 14,
          "dependentGloss": "Kapital"
        },
        {
          "dep": "ccomp",
          "governor": 2,
          "governorGloss": "sagt",
          "dependent": 15,
          "dependentGloss": "ist"
        }
      ],
      "tokens": [
        {
          "index": 1,
          "word": "Nicaragua",
          "originalText": "Nicaragua",
          "characterOffsetBegin": 0,
          "characterOffsetEnd": 9,
          "pos": "NE",
          "before": "",
          "after": " "
        },
        {
          "index": 2,
          "word": "sagt",
          "originalText": "sagt",
          "characterOffsetBegin": 10,
          "characterOffsetEnd": 14,
          "pos": "VVFIN",
          "before": " ",
          "after": ""
        },
        {
          "index": 3,
          "word": ",",
          "originalText": ",",
          "characterOffsetBegin": 14,
          "characterOffsetEnd": 15,
          "pos": "$,",
          "before": "",
          "after": " "
        },
        {
          "index": 4,
          "word": "dass",
          "originalText": "dass",
          "characterOffsetBegin": 16,
          "characterOffsetEnd": 20,
          "pos": "KOUS",
          "before": " ",
          "after": " "
        },
        {
          "index": 5,
          "word": "der",
          "originalText": "der",
          "characterOffsetBegin": 21,
          "characterOffsetEnd": 24,
          "pos": "ART",
          "before": " ",
          "after": " "
        },
        {
          "index": 6,
          "word": "Meteorit",
          "originalText": "Meteorit",
          "characterOffsetBegin": 25,
          "characterOffsetEnd": 33,
          "pos": "NN",
          "before": " ",
          "after": " "
        },
        {
          "index": 7,
          "word": "wahrscheinlich",
          "originalText": "wahrscheinlich",
          "characterOffsetBegin": 34,
          "characterOffsetEnd": 48,
          "pos": "ADJD",
          "before": " ",
          "after": " "
        },
        {
          "index": 8,
          "word": "die",
          "originalText": "die",
          "characterOffsetBegin": 49,
          "characterOffsetEnd": 52,
          "pos": "ART",
          "before": " ",
          "after": " "
        },
        {
          "index": 9,
          "word": "Ursache",
          "originalText": "Ursache",
          "characterOffsetBegin": 53,
          "characterOffsetEnd": 60,
          "pos": "NN",
          "before": " ",
          "after": " "
        },
        {
          "index": 10,
          "word": "für",
          "originalText": "für",
          "characterOffsetBegin": 61,
          "characterOffsetEnd": 64,
          "pos": "APPR",
          "before": " ",
          "after": " "
        },
        {
          "index": 11,
          "word": "die",
          "originalText": "die",
          "characterOffsetBegin": 65,
          "characterOffsetEnd": 68,
          "pos": "ART",
          "before": " ",
          "after": " "
        },
        {
          "index": 12,
          "word": "Explosion",
          "originalText": "Explosion",
          "characterOffsetBegin": 69,
          "characterOffsetEnd": 78,
          "pos": "NN",
          "before": " ",
          "after": " "
        },
        {
          "index": 13,
          "word": "im",
          "originalText": "im",
          "characterOffsetBegin": 79,
          "characterOffsetEnd": 81,
          "pos": "APPRART",
          "before": " ",
          "after": " "
        },
        {
          "index": 14,
          "word": "Kapital",
          "originalText": "Kapital",
          "characterOffsetBegin": 82,
          "characterOffsetEnd": 89,
          "pos": "NN",
          "before": " ",
          "after": " "
        },
        {
          "index": 15,
          "word": "ist",
          "originalText": "ist",
          "characterOffsetBegin": 90,
          "characterOffsetEnd": 93,
          "pos": "VAFIN",
          "before": " ",
          "after": ""
        }
      ]
    }
  ]
}