{
  "sentences": [
    {
      "index": 0,
      "basicDependencies": [
        {
          "dep": "ROOT",
          "governor": 0,
          "governorGloss": "ROOT",
          "dependent": 2,
          "dependentGloss": "befreit"
        },
        {
          "dep": "nsubj",
          "governor": 2,
          "governorGloss": "befreit",
          "dependent": 1,
          "dependentGloss": "Guantanamo-Häftling"
        },
        {
          "dep": "case",
          "governor": 5,
          "governorGloss": "Bergdahl",
          "dependent": 3,
          "dependentGloss": "in"
        },
        {
          "dep": "nummod",
          "governor": 5,
          "governorGloss": "Bergdahl",
          "dependent": 4,
          "dependentGloss": "Bowe"
        },
        {
          "dep": "nmod",
          "governor": 2,
          "governorGloss": "befreit",
          "dependent": 5,
          "dependentGloss": "Bergdahl"
        },
        {
          "dep": "name",
          "governor": 10,
          "governorGloss": "Terrorismus",
          "dependent": 6,
          "dependentGloss": "Swap"
        },
        {
          "dep": "punct",
          "governor": 10,
          "governorGloss": "Terrorismus",
          "dependent": 7,
          "dependentGloss": "`"
        },
        {
          "dep": "cc",
          "governor": 10,
          "governorGloss": "Terrorismus",
          "dependent": 8,
          "dependentGloss": "zurück"
        },
        {
          "dep": "amod",
          "governor": 10,
          "governorGloss": "Terrorismus",
          "dependent": 9,
          "dependentGloss": "zum"
        },
        {
          "dep": "dobj",
          "governor": 2,
          "governorGloss": "befreit",
          "dependent": 10,
          "dependentGloss": "Terrorismus"
        },
        {
          "dep": "punct",
          "governor": 2,
          "governorGloss": "befreit",
          "dependent": 11,
          "dependentGloss": "'"
        }
      ],
      "enhancedDependencies": [
        {
          "dep": "ROOT",
          "governor": 0,
          "governorGloss": "ROOT",
          "dependent": 2,
          "dependentGloss": "befreit"
        },
        {
          "dep": "nsubj",
          "governor": 2,
          "governorGloss": "befreit",
          "dependent": 1,
          "dependentGloss": "Guantanamo-Häftling"
        },
        {
          "dep": "case",
          "governor": 5,
          "governorGloss": "Bergdahl",
          "dependent": 3,
          "dependentGloss": "in"
        },
        {
          "dep": "nummod",
          "governor": 5,
          "governorGloss": "Bergdahl",
          "dependent": 4,
          "dependentGloss": "Bowe"
        },
        {
          "dep": "nmod",
          "governor": 2,
          "governorGloss": "befreit",
          "dependent": 5,
          "dependentGloss": "Bergdahl"
        },
        {
          "dep": "name",
          "governor": 10,
          "governorGloss": "Terrorismus",
          "dependent": 6,
          "dependentGloss": "Swap"
        },
        {
          "dep": "punct",
          "governor": 10,
          "governorGloss": "Terrorismus",
          "dependent": 7,
          "dependentGloss": "`"
        },
        {
          "dep": "cc",
          "governor": 10,
          "governorGloss": "Terrorismus",
          "dependent": 8,
          "dependentGloss": "zurück"
        },
        {
          "dep": "amod",
          "governor": 10,
          "governorGloss": "Terrorismus",
          "dependent": 9,
          "dependentGloss": "zum"
        },
        {
          "dep": "dobj",
          "governor": 2,
          "governorGloss": "befreit",
          "dependent": 10,
          "dependentGloss": "Terrorismus"
        },
        {
          "dep": "punct",
          "governor": 2,
          "governorGloss": "befreit",
          "dependent": 11,
          "dependentGloss": "'"
        }
      ],
      "enhancedPlusPlusDependencies": [
        {
          "dep": "ROOT",
          "governor": 0,
          "governorGloss": "ROOT",
          "dependent": 2,
          "dependentGloss": "befreit"
        },
        {
          "dep": "nsubj",
          "governor": 2,
          "governorGloss": "befreit",
          "dependent": 1,
          "dependentGloss": "Guantanamo-Häftling"
        },
        {
          "dep": "case",
          "governor": 5,
          "governorGloss": "Bergdahl",
          "dependent": 3,
          "dependentGloss": "in"
        },
        {
          "dep": "nummod",
          "governor": 5,
          "governorGloss": "Bergdahl",
          "dependent": 4,
          "dependentGloss": "Bowe"
        },
        {
          "dep": "nmod",
          "governor": 2,
          "governorGloss": "befreit",
          "dependent": 5,
          "dependentGloss": "Bergdahl"
        },
        {
          "dep": "name",
          "governor": 10,
          "governorGloss": "Terrorismus",
          "dependent": 6,
          "dependentGloss": "Swap"
        },
        {
          "dep": "punct",
          "governor": 10,
          "governorGloss": "Terrorismus",
          "dependent": 7,
          "dependentGloss": "`"
        },
        {
          "dep": "cc",
          "governor": 10,
          "governorGloss": "Terrorismus",
          "dependent": 8,
          "dependentGloss": "zurück"
        },
        {
          "dep": "amod",
          "governor": 10,
          "governorGloss": "Terrorismus",
          "dependent": 9,
          "dependentGloss": "zum"
        },
        {
          "dep": "dobj",
          "governor": 2,
          "governorGloss": "befreit",
          "dependent": 10,
          "dependentGloss": "Terrorismus"
        },
        {
          "dep": "punct",
          "governor": 2,
          "governorGloss": "befreit",
          "dependent": 11,
          "dependentGloss": "'"
        }
      ],
      "tokens": [
        {
          "index": 1,
          "word": "Guantanamo-Häftling",
          "originalText": "Guantanamo-Häftling",
          "characterOffsetBegin": 0,
          "characterOffsetEnd": 19,
          "pos": "NN",
          "before": "",
          "after": " "
        },
        {
          "index": 2,
          "word": "befreit",
          "originalText": "befreit",
          "characterOffsetBegin": 20,
          "characterOffsetEnd": 27,
          "pos": "VVFIN",
          "before": " ",
          "after": " "
        },
        {
          "index": 3,
          "word": "in",
          "originalText": "in",
          "characterOffsetBegin": 28,
          "characterOffsetEnd": 30,
          "pos": "APPR",
          "before": " ",
          "after": " "
        },
        {
          "index": 4,
          "word": "Bowe",
          "originalText": "Bowe",
          "characterOffsetBegin": 31,
          "characterOffsetEnd": 35,
          "pos": "NE",
          "before": " ",
          "after": " "
        },
        {
          "index": 5,
          "word": "Bergdahl",
          "originalText": "Bergdahl",
          "characterOffsetBegin": 36,
          "characterOffsetEnd": 44,
          "pos": "NE",
          "before": " ",
          "after": " "
        },
        {
          "index": 6,
          "word": "Swap",
          "originalText": "Swap",
          "characterOffsetBegin": 45,
          "characterOffsetEnd": 49,
          "pos": "NE",
          "before": " ",
          "after": " "
        },
        {
          "index": 7,
          "word": "`",
          "originalText": "'",
          "characterOffsetBegin": 50,
          "characterOffsetEnd": 51,
          "pos": "CARD",
          "before": " ",
          "after": ""
        },
        {
          "index": 8,
          "word": "zurück",
          "originalText": "zurück",
          "characterOffsetBegin": 51,
          "characterOffsetEnd": 57,
          "pos": "ADV",
          "before": "",
          "after": " "
        },
        {
          "index": 9,
          "word": "zum",
          "originalText": "zum",
          "characterOffsetBegin": 58,
          "characterOffsetEnd": 61,
          "pos": "APPRART",
          "before": " ",
          "after": " "
        },
        {
          "index": 10,
          "word": "Terrorismus",
          "originalText": "Terrorismus",
          "characterOffsetBegin": 62,
          "characterOffsetEnd": 73,
          "pos": "NN",
          "before": " ",
          "after": ""
        },
        {
          "index": 11,
          "word": "'",
          "originalText": "'",
          "characterOffsetBegin": 73,
          "characterOffsetEnd": 74,
          "pos": "$[",
          "before": "",
          "after": ""
        }
      ]
    }
  ]
}