{
  "sentences": [
    {
      "index": 0,
      "basicDependencies": [
        {
          "dep": "ROOT",
          "governor": 0,
          "governorGloss": "ROOT",
          "dependent": 3,
          "dependentGloss": "fehlen"
        },
        {
          "dep": "nummod",
          "governor": 2,
          "governorGloss": "Flugzeuge",
          "dependent": 1,
          "dependentGloss": "11"
        },
        {
          "dep": "nsubj",
          "governor": 3,
          "governorGloss": "fehlen",
          "dependent": 2,
          "dependentGloss": "Flugzeuge"
        },
        {
          "dep": "dobj",
          "governor": 3,
          "governorGloss": "fehlen",
          "dependent": 4,
          "dependentGloss": "am"
        },
        {
          "dep": "punct",
          "governor": 6,
          "governorGloss": "terroristischen",
          "dependent": 5,
          "dependentGloss": "``"
        },
        {
          "dep": "appos",
          "governor": 4,
          "governorGloss": "am",
          "dependent": 6,
          "dependentGloss": "terroristischen"
        },
        {
          "dep": "punct",
          "governor": 8,
          "governorGloss": "Tripoli-Flughafen",
          "dependent": 7,
          "dependentGloss": "``"
        },
        {
          "dep": "appos",
          "governor": 6,
          "governorGloss": "terroristischen",
          "dependent": 8,
          "dependentGloss": "Tripoli-Flughafen"
        },
        {
          "dep": "case",
          "governor": 11,
          "governorGloss": "9/11",
          "dependent": 9,
          "dependentGloss": "vor"
        },
        {
          "dep": "det",
          "governor": 11,
          "governorGloss": "9/11",
          "dependent": 10,
          "dependentGloss": "dem"
        },
        {
          "dep": "nmod",
          "governor": 8,
          "governorGloss": "Tripoli-Flughafen",
          "dependent": 11,
          "dependentGloss": "9/11"
        },
        {
          "dep": "punct",
          "governor": 6,
          "governorGloss": "terroristischen",
          "dependent": 12,
          "dependentGloss": "Jubiläum"
        }
      ],
      "enhancedDependencies": [
        {
          "dep": "ROOT",
          "governor": 0,
          "governorGloss": "ROOT",
          "dependent": 3,
          "dependentGloss": "fehlen"
        },
        {
          "dep": "nummod",
          "governor": 2,
          "governorGloss": "Flugzeuge",
          "dependent": 1,
          "dependentGloss": "11"
        },
        {
          "dep": "nsubj",
          "governor": 3,
          "governorGloss": "fehlen",
          "dependent": 2,
          "dependentGloss": "Flugzeuge"
        },
        {
          "dep": "dobj",
          "governor": 3,
          "governorGloss": "fehlen",
          "dependent": 4,
          "dependentGloss": "am"
        },
        {
          "dep": "punct",
          "governor": 6,
          "governorGloss": "terroristischen",
          "dependent": 5,
          "dependentGloss": "``"
        },
        {
          "dep": "appos",
          "governor": 4,
          "governorGloss": "am",
          "dependent": 6,
          "dependentGloss": "terroristischen"
        },
        {
          "dep": "punct",
          "governor": 8,
          "governorGloss": "Tripoli-Flughafen",
          "dependent": 7,
          "dependentGloss": "``"
        },
        {
          "dep": "appos",
          "governor": 6,
          "governorGloss": "terroristischen",
          "dependent": 8,
          "dependentGloss": "Tripoli-Flughafen"
        },
        {
          "dep": "case",
          "governor": 11,
          "governorGloss": "9/11",
          "dependent": 9,
          "dependentGloss": "vor"
        },
        {
          "dep": "det",
          "governor": 11,
          "governorGloss": "9/11",
          "dependent": 10,
          "dependentGloss": "dem"
        },
        {
          "dep": "nmod",
          "governor": 8,
          "governorGloss": "Tripoli-Flughafen",
          "dependent": 11,
          "dependentGloss": "9/11"
        },
        {
          "dep": "punct",
          "governor": 6,
          "governorGloss": "terroristischen",
          "dependent": 12,
          "dependentGloss": "Jubiläum"
        }
      ],
      "enhancedPlusPlusDependencies": [
        {
          "dep": "ROOT",
          "governor": 0,
          "governorGloss": "ROOT",
          "dependent": 3,
          "dependentGloss": "fehlen"
        },
        {
          "dep": "nummod",
          "governor": 2,
          "governorGloss": "Flugzeuge",
          "dependent": 1,
          "dependentGloss": "11"
        },
        {
          "dep": "nsubj",
          "governor": 3,
          "governorGloss": "fehlen",
          "dependent": 2,
          "dependentGloss": "Flugzeuge"
        },
        {
          "dep": "dobj",
          "governor": 3,
          "governorGloss": "fehlen",
          "dependent": 4,
          "dependentGloss": "am"
        },
        {
          "dep": "punct",
          "governor": 6,
          "governorGloss": "terroristischen",
          "dependent": 5,
          "dependentGloss": "``"
        },
        {
          "dep": "appos",
          "governor": 4,
          "governorGloss": "am",
          "dependent": 6,
          "dependentGloss": "terroristischen"
        },
        {
          "dep": "punct",
          "governor": 8,
          "governorGloss": "Tripoli-Flughafen",
          "dependent": 7,
          "dependentGloss": "``"
        },
        {
          "dep": "appos",
          "governor": 6,
          "governorGloss": "terroristischen",
          "dependent": 8,
          "dependentGloss": "Tripoli-Flughafen"
        },
        {
          "dep": "case",
          "governor": 11,
          "governorGloss": "9/11",
          "dependent": 9,
          "dependentGloss": "vor"
        },
        {
          "dep": "det",
          "governor": 11,
          "governorGloss": "9/11",
          "dependent": 10,
          "dependentGloss": "dem"
        },
        {
          "dep": "nmod",
          "governor": 8,
          "governorGloss": "Tripoli-Flughafen",
          "dependent": 11,
          "dependentGloss": "9/11"
        },
        {
          "dep": "punct",
          "governor": 6,
          "governorGloss": "terroristischen",
          "dependent": 12,
          "dependentGloss": "Jubiläum"
        }
      ],
      "tokens": [
        {
          "index": 1,
          "word": "11",
          "originalText": "11",
          "characterOffsetBegin": 0,
          "characterOffsetEnd": 2,
          "pos": "CARD",
          "before": "",
          "after": " "
        },
        {
          "index": 2,
          "word": "Flugzeuge",
          "originalText": "Flugzeuge",
          "characterOffsetBegin": 3,
          "characterOffsetEnd": 12,
          "pos": "NN",
          "before": " ",
          "after": " "
        },
        {
          "index": 3,
          "word": "fehlen",
          "originalText": "fehlen",
          "characterOffsetBegin": 13,
          "characterOffsetEnd": 19,
          "pos": "VVFIN",
          "before": " ",
          "after": " "
        },
        {
          "index": 4,
          "word": "am",
          "originalText": "am",
          "characterOffsetBegin": 20,
          "characterOffsetEnd": 22,
          "pos": "APPRART",
          "before": " ",
          "after": " "
        },
        {
          "index": 5,
          "word": "``",
          "originalText": "“",
          "characterOffsetBegin": 23,
          "characterOffsetEnd": 24,
          "pos": "ADJA",
          "before": " ",
          "after": ""
        },
        {
          "index": 6,
          "word": "terroristischen",
          "originalText": "terroristischen",
          "characterOffsetBegin": 24,
          "characterOffsetEnd": 39,
          "pos": "ADJA",
          "before": "",
          "after": ""
        },
        {
          "index": 7,
          "word": "``",
          "originalText": "“",
          "characterOffsetBegin": 39,
          "characterOffsetEnd": 40,
          "pos": "VVFIN",
          "before": "",
          "after": " "
        },
        {
          "index": 8,
          "word": "Tripoli-Flughafen",
          "originalText": "Tripoli-Flughafen",
          "characterOffsetBegin": 41,
          "characterOffsetEnd": 58,
          "pos": "NN",
          "before": " ",
          "after": " "
        },
        {
          "index": 9,
          "word": "vor",
          "originalText": "vor",
          "characterOffsetBegin": 59,
          "characterOffsetEnd": 62,
          "pos": "APPR",
          "before": " ",
          "after": " "
        },
        {
          "index": 10,
          "word": "dem",
          "originalText": "dem",
          "characterOffsetBegin": 63,
          "characterOffsetEnd": 66,
          "pos": "ART",
          "before": " ",
          "after": " "
        },
        {
          "index": 11,
          "word": "9/11",
          "originalText": "9/11",
          "characterOffsetBegin": 67,
          "characterOffsetEnd": 71,
          "pos": "CARD",
          "before": " ",
          "after": " "
        },
        {
          "index": 12,
          "word": "Jubiläum",
          "originalText": "Jubiläum",
          "characterOffsetBegin": 72,
          "characterOffsetEnd": 80,
          "pos": "NN",
          "before": " ",
          "after": ""
        }
      ]
    }
  ]
}