{
  "sentences": [
    {
      "index": 0,
      "basicDependencies": [
        {
          "dep": "ROOT",
          "governor": 0,
          "governorGloss": "ROOT",
          "dependent": 4,
          "dependentGloss": "sagt"
        },
        {
          "dep": "det",
          "governor": 3,
          "governorGloss": "Präsident",
          "dependent": 1,
          "dependentGloss": "Der"
        },
        {
          "dep": "amod",
          "governor": 3,
          "governorGloss": "Präsident",
          "dependent": 2,
          "dependentGloss": "türkische"
        },
        {
          "dep": "nsubj",
          "governor": 4,
          "governorGloss": "sagt",
          "dependent": 3,
          "dependentGloss": "Präsident"
        },
        {
          "dep": "punct",
          "governor": 4,
          "governorGloss": "sagt",
          "dependent": 5,
          "dependentGloss": ","
        },
        {
          "dep": "case",
          "governor": 4,
          "governorGloss": "sagt",
          "dependent": 6,
          "dependentGloss": "dass"
        },
        {
          "dep": "det",
          "governor": 9,
          "governorGloss": "Waffen",
          "dependent": 7,
          "dependentGloss": "die"
        },
        {
          "dep": "amod",
          "governor": 9,
          "governorGloss": "Waffen",
          "dependent": 8,
          "dependentGloss": "amerikanischen"
        },
        {
          "dep": "root",
          "governor": 6,
          "governorGloss": "dass",
          "dependent": 9,
          "dependentGloss": "Waffen"
        },
        {
          "dep": "case",
          "governor": 12,
          "governorGloss": "Kämpfer",
          "dependent": 10,
          "dependentGloss": "für"
        },
        {
          "dep": "amod",
          "governor": 12,
          "governorGloss": "Kämpfer",
          "dependent": 11,
          "dependentGloss": "kurdische"
        },
        {
          "dep": "nmod",
          "governor": 9,
          "governorGloss": "Waffen",
          "dependent": 12,
          "dependentGloss": "Kämpfer"
        },
        {
          "dep": "case",
          "governor": 15,
          "governorGloss": "Versorgung",
          "dependent": 13,
          "dependentGloss": "nach"
        },
        {
          "dep": "det",
          "governor": 15,
          "governorGloss": "Versorgung",
          "dependent": 14,
          "dependentGloss": "der"
        },
        {
          "dep": "nmod",
          "governor": 12,
          "governorGloss": "Kämpfer",
          "dependent": 15,
          "dependentGloss": "Versorgung"
        },
        {
          "dep": "case",
          "governor": 18,
          "governorGloss": "Händen",
          "dependent": 16,
          "dependentGloss": "in"
        },
        {
          "dep": "det",
          "governor": 18,
          "governorGloss": "Händen",
          "dependent": 17,
          "dependentGloss": "den"
        },
        {
          "dep": "nmod",
          "governor": 15,
          "governorGloss": "Versorgung",
          "dependent": 18,
          "dependentGloss": "Händen"
        },
        {
          "dep": "case",
          "governor": 20,
          "governorGloss": "ISIS",
          "dependent": 19,
          "dependentGloss": "von"
        },
        {
          "dep": "nmod",
          "governor": 18,
          "governorGloss": "Händen",
          "dependent": 20,
          "dependentGloss": "ISIS"
        },
        {
          "dep": "punct",
          "governor": 22,
          "governorGloss": "falsch",
          "dependent": 21,
          "dependentGloss": "``"
        },
        {
          "dep": "appos",
          "governor": 18,
          "governorGloss": "Händen",
          "dependent": 22,
          "dependentGloss": "falsch"
        },
        {
          "dep": "punct",
          "governor": 22,
          "governorGloss": "falsch",
          "dependent": 23,
          "dependentGloss": "``"
        },
        {
          "dep": "punct",
          "governor": 22,
          "governorGloss": "falsch",
          "dependent": 24,
          "dependentGloss": "seien"
        }
      ],
      "enhancedDependencies": [
        {
          "dep": "ROOT",
          "governor": 0,
          "governorGloss": "ROOT",
          "dependent": 4,
          "dependentGloss": "sagt"
        },
        {
          "dep": "det",
          "governor": 3,
          "governorGloss": "Präsident",
          "dependent": 1,
          "dependentGloss": "Der"
        },
        {
          "dep": "amod",
          "governor": 3,
          "governorGloss": "Präsident",
          "dependent": 2,
          "dependentGloss": "türkische"
        },
        {
          "dep": "nsubj",
          "governor": 4,
          "governorGloss": "sagt",
          "dependent": 3,
          "dependentGloss": "Präsident"
        },
        {
          "dep": "punct",
          "governor": 4,
          "governorGloss": "sagt",
          "dependent": 5,
          "dependentGloss": ","
        },
        {
          "dep": "case",
          "governor": 4,
          "governorGloss": "sagt",
          "dependent": 6,
          "dependentGloss": "dass"
        },
        {
          "dep": "det",
          "governor": 9,
          "governorGloss": "Waffen",
          "dependent": 7,
          "dependentGloss": "die"
        },
        {
          "dep": "amod",
          "governor": 9,
          "governorGloss": "Waffen",
          "dependent": 8,
          "dependentGloss": "amerikanischen"
        },
        {
          "dep": "root",
          "governor": 6,
          "governorGloss": "dass",
          "dependent": 9,
          "dependentGloss": "Waffen"
        },
        {
          "dep": "case",
          "governor": 12,
          "governorGloss": "Kämpfer",
          "dependent": 10,
          "dependentGloss": "für"
        },
        {
          "dep": "amod",
          "governor": 12,
          "governorGloss": "Kämpfer",
          "dependent": 11,
          "dependentGloss": "kurdische"
        },
        {
          "dep": "nmod",
          "governor": 9,
          "governorGloss": "Waffen",
          "dependent": 12,
          "dependentGloss": "Kämpfer"
        },
        {
          "dep": "case",
          "governor": 15,
          "governorGloss": "Versorgung",
          "dependent": 13,
          "dependentGloss": "nach"
        },
        {
          "dep": "det",
          "governor": 15,
          "governorGloss": "Versorgung",
          "dependent": 14,
          "dependentGloss": "der"
        },
        {
          "dep": "nmod",
          "governor": 12,
          "governorGloss": "Kämpfer",
          "dependent": 15,
          "dependentGloss": "Versorgung"
        },
        {
          "dep": "case",
          "governor": 18,
          "governorGloss": "Händen",
          "dependent": 16,
          "dependentGloss": "in"
        },
        {
          "dep": "det",
          "governor": 18,
          "governorGloss": "Händen",
          "dependent": 17,
          "dependentGloss": "den"
        },
        {
          "dep": "nmod",
          "governor": 15,
          "governorGloss": "Versorgung",
          "dependent": 18,
          "dependentGloss": "Händen"
        },
        {
          "dep": "case",
          "governor": 20,
          "governorGloss": "ISIS",
          "dependent": 19,
          "dependentGloss": "von"
        },
        {
          "dep": "nmod",
          "governor": 18,
          "governorGloss": "Händen",
          "dependent": 20,
          "dependentGloss": "ISIS"
        },
        {
          "dep": "punct",
          "governor": 22,
          "governorGloss": "falsch",
          "dependent": 21,
          "dependentGloss": "``"
        },
        {
          "dep": "appos",
          "governor": 18,
          "governorGloss": "Händen",
          "dependent": 22,
          "dependentGloss": "falsch"
        },
        {
          "dep": "punct",
          "governor": 22,
          "governorGloss": "falsch",
          "dependent": 23,
          "dependentGloss": "``"
        },
        {
          "dep": "punct",
          "governor": 22,
          "governorGloss": "falsch",
          "dependent": 24,
          "dependentGloss": "seien"
        }
      ],
      "enhancedPlusPlusDependencies": [
        {
          "dep": "ROOT",
          "governor": 0,
          "governorGloss": "ROOT",
          "dependent": 4,
          "dependentGloss": "sagt"
        },
        {
          "dep": "det",
          "governor": 3,
          "governorGloss": "Präsident",
          "dependent": 1,
          "dependentGloss": "Der"
        },
        {
          "dep": "amod",
          "governor": 3,
          "governorGloss": "Präsident",
          "dependent": 2,
          "dependentGloss": "türkische"
        },
        {
          "dep": "nsubj",
          "governor": 4,
          "governorGloss": "sagt",
          "dependent": 3,
          "dependentGloss": "Präsident"
        },
        {
          "dep": "punct",
          "governor": 4,
          "governorGloss": "sagt",
          "dependent": 5,
          "dependentGloss": ","
        },
        {
          "dep": "case",
          "governor": 4,
          "governorGloss": "sagt",
          "dependent": 6,
          "dependentGloss": "dass"
        },
        {
          "dep": "det",
          "governor": 9,
          "governorGloss": "Waffen",
          "dependent": 7,
          "dependentGloss": "die"
        },
        {
          "dep": "amod",
          "governor": 9,
          "governorGloss": "Waffen",
          "dependent": 8,
          "dependentGloss": "amerikanischen"
        },
        {
          "dep": "root",
          "governor": 6,
          "governorGloss": "dass",
          "dependent": 9,
          "dependentGloss": "Waffen"
        },
        {
          "dep": "case",
          "governor": 12,
          "governorGloss": "Kämpfer",
          "dependent": 10,
          "dependentGloss": "für"
        },
        {
          "dep": "amod",
          "governor": 12,
          "governorGloss": "Kämpfer",
          "dependent": 11,
          "dependentGloss": "kurdische"
        },
        {
          "dep": "nmod",
          "governor": 9,
          "governorGloss": "Waffen",
          "dependent": 12,
          "dependentGloss": "Kämpfer"
        },
        {
          "dep": "case",
          "governor": 15,
          "governorGloss": "Versorgung",
          "dependent": 13,
          "dependentGloss": "nach"
        },
        {
          "dep": "det",
          "governor": 15,
          "governorGloss": "Versorgung",
          "dependent": 14,
          "dependentGloss": "der"
        },
        {
          "dep": "nmod",
          "governor": 12,
          "governorGloss": "Kämpfer",
          "dependent": 15,
          "dependentGloss": "Versorgung"
        },
        {
          "dep": "case",
          "governor": 18,
          "governorGloss": "Händen",
          "dependent": 16,
          "dependentGloss": "in"
        },
        {
          "dep": "det",
          "governor": 18,
          "governorGloss": "Händen",
          "dependent": 17,
          "dependentGloss": "den"
        },
        {
          "dep": "nmod",
          "governor": 15,
          "governorGloss": "Versorgung",
          "dependent": 18,
          "dependentGloss": "Händen"
        },
        {
          "dep": "case",
          "governor": 20,
          "governorGloss": "ISIS",
          "dependent": 19,
          "dependentGloss": "von"
        },
        {
          "dep": "nmod",
          "governor": 18,
          "governorGloss": "Händen",
          "dependent": 20,
          "dependentGloss": "ISIS"
        },
        {
          "dep": "punct",
          "governor": 22,
          "governorGloss": "falsch",
          "dependent": 21,
          "dependentGloss": "``"
        },
        {
          "dep": "appos",
          "governor": 18,
          "governorGloss": "Händen",
          "dependent": 22,
          "dependentGloss": "falsch"
        },
        {
          "dep": "punct",
          "governor": 22,
          "governorGloss": "falsch",
          "dependent": 23,
          "dependentGloss": "``"
        },
        {
          "dep": "punct",
          "governor": 22,
          "governorGloss": "falsch",
          "dependent": 24,
          "dependentGloss": "seien"
        }
      ],
      "tokens": [
        {
          "index": 1,
          "word": "Der",
          "originalText": "Der",
          "characterOffsetBegin": 0,
          "characterOffsetEnd": 3,
          "pos": "ART",
          "before": "",
          "after": " "
        },
        {
          "index": 2,
          "word": "türkische",
          "originalText": "türkische",
          "characterOffsetBegin": 4,
          "characterOffsetEnd": 13,
          "pos": "ADJA",
          "before": " ",
          "after": " "
        },
        {
          "index": 3,
          "word": "Präsident",
          "originalText": "Präsident",
          "characterOffsetBegin": 14,
          "characterOffsetEnd": 23,
          "pos": "NN",
          "before": " ",
          "after": " "
        },
        {
          "index": 4,
          "word": "sagt",
          "originalText": "sagt",
          "characterOffsetBegin": 24,
          "characterOffsetEnd": 28,
          "pos": "VVFIN",
          "before": " ",
          "after": ""
        },
        {
          "index": 5,
          "word": ",",
          "originalText": ",",
          "characterOffsetBegin": 28,
          "characterOffsetEnd": 29,
          "pos": "$,",
          "before": "",
          "after": " "
        },
        {
          "index": 6,
          "word": "dass",
          "originalText": "dass",
          "characterOffsetBegin": 30,
          "characterOffsetEnd": 34,
          "pos": "KOUS",
          "before": " ",
          "after": " "
        },
        {
          "index": 7,
          "word": "die",
          "originalText": "die",
          "characterOffsetBegin": 35,
          "characterOffsetEnd": 38,
          "pos": "ART",
          "before": " ",
          "after": " "
        },
        {
          "index": 8,
          "word": "amerikanischen",
          "originalText": "amerikanischen",
          "characterOffsetBegin": 39,
          "characterOffsetEnd": 53,
          "pos": "ADJA",
          "before": " ",
          "after": " "
        },
        {
          "index": 9,
          "word": "Waffen",
          "originalText": "Waffen",
          "characterOffsetBegin": 54,
          "characterOffsetEnd": 60,
          "pos": "NN",
          "before": " ",
          "after": " "
        },
        {
          "index": 10,
          "word": "für",
          "originalText": "für",
          "characterOffsetBegin": 61,
          "characterOffsetEnd": 64,
          "pos": "APPR",
          "before": " ",
          "after": " "
        },
        {
          "index": 11,
          "word": "kurdische",
          "originalText": "kurdische",
          "characterOffsetBegin": 65,
          "characterOffsetEnd": 74,
          "pos": "ADJA",
          "before": " ",
          "after": " "
        },
        {
          "index": 12,
          "word": "Kämpfer",
          "originalText": "Kämpfer",
          "characterOffsetBegin": 75,
          "characterOffsetEnd": 82,
          "pos": "NN",
          "before": " ",
          "after": " "
        },
        {
          "index": 13,
          "word": "nach",
          "originalText": "nach",
          "characterOffsetBegin": 83,
          "characterOffsetEnd": 87,
          "pos": "APPR",
          "before": " ",
          "after": " "
        },
        {
          "index": 14,
          "word": "der",
          "originalText": "der",
          "characterOffsetBegin": 88,
          "characterOffsetEnd": 91,
          "pos": "ART",
          "before": " ",
          "after": " "
        },
        {
          "index": 15,
          "word": "Versorgung",
          "originalText": "Versorgung",
          "characterOffsetBegin": 92,
          "characterOffsetEnd": 102,
          "pos": "NN",
          "before": " ",
          "after": " "
        },
        {
          "index": 16,
          "word": "in",
          "originalText": "in",
          "characterOffsetBegin": 103,
          "characterOffsetEnd": 105,
          "pos": "APPR",
          "before": " ",
          "after": " "
        },
        {
          "index": 17,
          "word": "den",
          "originalText": "den",
          "characterOffsetBegin": 106,
          "characterOffsetEnd": 109,
          "pos": "ART",
          "before": " ",
          "after": " "
        },
        {
          "index": 18,
          "word": "Händen",
          "originalText": "Händen",
          "characterOffsetBegin": 110,
          "characterOffsetEnd": 116,
          "pos": "NN",
          "before": " ",
          "after": " "
        },
        {
          "index": 19,
          "word": "von",
          "originalText": "von",
          "characterOffsetBegin": 117,
          "characterOffsetEnd": 120,
          "pos": "APPR",
          "before": " ",
          "after": " "
        },
        {
          "index": 20,
          "word": "ISIS",
          "originalText": "ISIS",
          "characterOffsetBegin": 121,
          "characterOffsetEnd": 125,
          "pos": "NE",
          "before": " ",
          "after": " "
        },
        {
          "index": 21,
          "word": "``",
          "originalText": "“",
          "characterOffsetBegin": 126,
          "characterOffsetEnd": 127,
          "pos": "CARD",
          "before": " ",
          "after": ""
        },
        {
          "index": 22,
          "word": "falsch",
          "originalText": "falsch",
          "characterOffsetBegin": 127,
          "characterOffsetEnd": 133,
          "pos": "ADJD",
          "before": "",
          "after": ""
        },
        {
          "index": 23,
          "word": "``",
          "originalText": "“",
          "characterOffsetBegin": 133,
          "characterOffsetEnd": 134,
          "pos": "ADJD",
          "before": "",
          "after": " "
        },
        {
          "index": 24,
          "word": "seien",
          "originalText": "seien",
          "characterOffsetBegin": 135,
          "characterOffsetEnd": 140,
          "pos": "VAFIN",
          "before": " ",
          "after": ""
        }
      ]
    }
  ]
}