{
  "sentences": [
    {
      "index": 0,
      "basicDependencies": [
        {
          "dep": "ROOT",
          "governor": 0,
          "governorGloss": "ROOT",
          "dependent": 8,
          "dependentGloss": "enthauptet"
        },
        {
          "dep": "name",
          "governor": 4,
          "governorGloss": "Foley",
          "dependent": 1,
          "dependentGloss": "Journalist"
        },
        {
          "dep": "name",
          "governor": 3,
          "governorGloss": "Wright",
          "dependent": 2,
          "dependentGloss": "James"
        },
        {
          "dep": "appos",
          "governor": 1,
          "governorGloss": "Journalist",
          "dependent": 3,
          "dependentGloss": "Wright"
        },
        {
          "dep": "nsubjpass",
          "governor": 8,
          "governorGloss": "enthauptet",
          "dependent": 4,
          "dependentGloss": "Foley"
        },
        {
          "dep": "auxpass",
          "governor": 8,
          "governorGloss": "enthauptet",
          "dependent": 5,
          "dependentGloss": "wurde"
        },
        {
          "dep": "case",
          "governor": 7,
          "governorGloss": "ISIS",
          "dependent": 6,
          "dependentGloss": "von"
        },
        {
          "dep": "nmod",
          "governor": 8,
          "governorGloss": "enthauptet",
          "dependent": 7,
          "dependentGloss": "ISIS"
        }
      ],
      "enhancedDependencies": [
        {
          "dep": "ROOT",
          "governor": 0,
          "governorGloss": "ROOT",
          "dependent": 8,
          "dependentGloss": "enthauptet"
        },
        {
          "dep": "name",
          "governor": 4,
          "governorGloss": "Foley",
          "dependent": 1,
          "dependentGloss": "Journalist"
        },
        {
          "dep": "name",
          "governor": 3,
          "governorGloss": "Wright",
          "dependent": 2,
          "dependentGloss": "James"
        },
        {
          "dep": "appos",
          "governor": 1,
          "governorGloss": "Journalist",
          "dependent": 3,
          "dependentGloss": "Wright"
        },
        {
          "dep": "nsubjpass",
          "governor": 8,
          "governorGloss": "enthauptet",
          "dependent": 4,
          "dependentGloss": "Foley"
        },
        {
          "dep": "auxpass",
          "governor": 8,
          "governorGloss": "enthauptet",
          "dependent": 5,
          "dependentGloss": "wurde"
        },
        {
          "dep": "case",
          "governor": 7,
          "governorGloss": "ISIS",
          "dependent": 6,
          "dependentGloss": "von"
        },
        {
          "dep": "nmod",
          "governor": 8,
          "governorGloss": "enthauptet",
          "dependent": 7,
          "dependentGloss": "ISIS"
        }
      ],
      "enhancedPlusPlusDependencies": [
        {
          "dep": "ROOT",
          "governor": 0,
          "governorGloss": "ROOT",
          "dependent": 8,
          "dependentGloss": "enthauptet"
        },
        {
          "dep": "name",
          "governor": 4,
          "governorGloss": "Foley",
          "dependent": 1,
          "dependentGloss": "Journalist"
        },
        {
          "dep": "name",
          "governor": 3,
          "governorGloss": "Wright",
          "dependent": 2,
          "dependentGloss": "James"
        },
        {
          "dep": "appos",
          "governor": 1,
          "governorGloss": "Journalist",
          "dependent": 3,
          "dependentGloss": "Wright"
        },
        {
          "dep": "nsubjpass",
          "governor": 8,
          "governorGloss": "enthauptet",
          "dependent": 4,
          "dependentGloss": "Foley"
        },
        {
          "dep": "auxpass",
          "governor": 8,
          "governorGloss": "enthauptet",
          "dependent": 5,
          "dependentGloss": "wurde"
        },
        {
          "dep": "case",
          "governor": 7,
          "governorGloss": "ISIS",
          "dependent": 6,
          "dependentGloss": "von"
        },
        {
          "dep": "nmod",
          "governor": 8,
          "governorGloss": "enthauptet",
          "dependent": 7,
          "dependentGloss": "ISIS"
        }
      ],
      "tokens": [
        {
          "index": 1,
          "word": "Journalist",
          "originalText": "Journalist",
          "characterOffsetBegin": 0,
          "characterOffsetEnd": 10,
          "pos": "NN",
          "before": "",
          "after": " "
        },
        {
          "index": 2,
          "word": "James",
          "originalText": "James",
          "characterOffsetBegin": 11,
          "characterOffsetEnd": 16,
          "pos": "NE",
          "before": " ",
          "after": " "
        },
        {
          "index": 3,
          "word": "Wright",
          "originalText": "Wright",
          "characterOffsetBegin": 17,
          "characterOffsetEnd": 23,
          "pos": "NE",
          "before": " ",
          "after": " "
        },
        {
          "index": 4,
          "word": "Foley",
          "originalText": "Foley",
          "characterOffsetBegin": 24,
          "characterOffsetEnd": 29,
          "pos": "NE",
          "before": " ",
          "after": " "
        },
        {
          "index": 5,
          "word": "wurde",
          "originalText": "wurde",
          "characterOffsetBegin": 30,
          "characterOffsetEnd": 35,
          "pos": "VAFIN",
          "before": " ",
          "after": " "
        },
        {
          "index": 6,
          "word": "von",
          "originalText": "von",
          "characterOffsetBegin": 36,
          "characterOffsetEnd": 39,
          "pos": "APPR",
          "before": " ",
          "after": " "
        },
        {
          "index": 7,
          "word": "ISIS",
          "originalText": "ISIS",
          "characterOffsetBegin": 40,
          "characterOffsetEnd": 44,
          "pos": "NE",
          "before": " ",
          "after": " "
        },
        {
          "index": 8,
          "word": "enthauptet",
          "originalText": "enthauptet",
          "characterOffsetBegin": 45,
          "characterOffsetEnd": 55,
          "pos": "VVPP",
          "before": " ",
          "after": ""
        }
      ]
    }
  ]
}