{
  "sentences": [
    {
      "index": 0,
      "basicDependencies": [
        {
          "dep": "ROOT",
          "governor": 0,
          "governorGloss": "ROOT",
          "dependent": 1,
          "dependentGloss": "ISIS-Militanten"
        },
        {
          "dep": "amod",
          "governor": 3,
          "governorGloss": "Mutter",
          "dependent": 2,
          "dependentGloss": "Trick"
        },
        {
          "dep": "dobj",
          "governor": 1,
          "governorGloss": "ISIS-Militanten",
          "dependent": 3,
          "dependentGloss": "Mutter"
        },
        {
          "dep": "case",
          "governor": 6,
          "governorGloss": "essen",
          "dependent": 4,
          "dependentGloss": "in"
        },
        {
          "dep": "punct",
          "governor": 6,
          "governorGloss": "essen",
          "dependent": 5,
          "dependentGloss": "``"
        },
        {
          "dep": "nmod",
          "governor": 3,
          "governorGloss": "Mutter",
          "dependent": 6,
          "dependentGloss": "essen"
        },
        {
          "dep": "det",
          "governor": 9,
          "governorGloss": "Sohn",
          "dependent": 7,
          "dependentGloss": "ihren"
        },
        {
          "dep": "amod",
          "governor": 9,
          "governorGloss": "Sohn",
          "dependent": 8,
          "dependentGloss": "entführten"
        },
        {
          "dep": "dobj",
          "governor": 6,
          "governorGloss": "essen",
          "dependent": 9,
          "dependentGloss": "Sohn"
        },
        {
          "dep": "punct",
          "governor": 1,
          "governorGloss": "ISIS-Militanten",
          "dependent": 10,
          "dependentGloss": "``"
        }
      ],
      "enhancedDependencies": [
        {
          "dep": "ROOT",
          "governor": 0,
          "governorGloss": "ROOT",
          "dependent": 1,
          "dependentGloss": "ISIS-Militanten"
        },
        {
          "dep": "amod",
          "governor": 3,
          "governorGloss": "Mutter",
          "dependent": 2,
          "dependentGloss": "Trick"
        },
        {
          "dep": "dobj",
          "governor": 1,
          "governorGloss": "ISIS-Militanten",
          "dependent": 3,
          "dependentGloss": "Mutter"
        },
        {
          "dep": "case",
          "governor": 6,
          "governorGloss": "essen",
          "dependent": 4,
          "dependentGloss": "in"
        },
        {
          "dep": "punct",
          "governor": 6,
          "governorGloss": "essen",
          "dependent": 5,
          "dependentGloss": "``"
        },
        {
          "dep": "nmod",
          "governor": 3,
          "governorGloss": "Mutter",
          "dependent": 6,
          "dependentGloss": "essen"
        },
        {
          "dep": "det",
          "governor": 9,
          "governorGloss": "Sohn",
          "dependent": 7,
          "dependentGloss": "ihren"
        },
        {
          "dep": "amod",
          "governor": 9,
          "governorGloss": "Sohn",
          "dependent": 8,
          "dependentGloss": "entführten"
        },
        {
          "dep": "dobj",
          "governor": 6,
          "governorGloss": "essen",
          "dependent": 9,
          "dependentGloss": "Sohn"
        },
        {
          "dep": "punct",
          "governor": 1,
          "governorGloss": "ISIS-Militanten",
          "dependent": 10,
          "dependentGloss": "``"
        }
      ],
      "enhancedPlusPlusDependencies": [
        {
          "dep": "ROOT",
          "governor": 0,
          "governorGloss": "ROOT",
          "dependent": 1,
          "dependentGloss": "ISIS-Militanten"
        },
        {
          "dep": "amod",
          "governor": 3,
          "governorGloss": "Mutter",
          "dependent": 2,
          "dependentGloss": "Trick"
        },
        {
          "dep": "dobj",
          "governor": 1,
          "governorGloss": "ISIS-Militanten",
          "dependent": 3,
          "dependentGloss": "Mutter"
        },
        {
          "dep": "case",
          "governor": 6,
          "governorGloss": "essen",
          "dependent": 4,
          "dependentGloss": "in"
        },
        {
          "dep": "punct",
          "governor": 6,
          "governorGloss": "essen",
          "dependent": 5,
          "dependentGloss": "``"
        },
        {
          "dep": "nmod",
          "governor": 3,
          "governorGloss": "Mutter",
          "dependent": 6,
          "dependentGloss": "essen"
        },
        {
          "dep": "det",
          "governor": 9,
          "governorGloss": "Sohn",
          "dependent": 7,
          "dependentGloss": "ihren"
        },
        {
          "dep": "amod",
          "governor": 9,
          "governorGloss": "Sohn",
          "dependent": 8,
          "dependentGloss": "entführten"
        },
        {
          "dep": "dobj",
          "governor": 6,
          "governorGloss": "essen",
          "dependent": 9,
          "dependentGloss": "Sohn"
        },
        {
          "dep": "punct",
          "governor": 1,
          "governorGloss": "ISIS-Militanten",
          "dependent": 10,
          "dependentGloss": "``"
        }
      ],
      "tokens": [
        {
          "index": 1,
          "word": "ISIS-Militanten",
          "originalText": "ISIS-Militanten",
          "characterOffsetBegin": 0,
          "characterOffsetEnd": 15,
          "pos": "NN",
          "before": "",
          "after": " "
        },
        {
          "index": 2,
          "word": "Trick",
          "originalText": "Trick",
          "characterOffsetBegin": 16,
          "characterOffsetEnd": 21,
          "pos": "NE",
          "before": " ",
          "after": " "
        },
        {
          "index": 3,
          "word": "Mutter",
          "originalText": "Mutter",
          "characterOffsetBegin": 22,
          "characterOffsetEnd": 28,
          "pos": "NN",
          "before": " ",
          "after": " "
        },
        {
          "index": 4,
          "word": "in",
          "originalText": "in",
          "characterOffsetBegin": 29,
          "characterOffsetEnd": 31,
          "pos": "APPR",
          "before": " ",
          "after": " "
        },
        {
          "index": 5,
          "word": "``",
          "originalText": "“",
          "characterOffsetBegin": 32,
          "characterOffsetEnd": 33,
          "pos": "NE",
          "before": " ",
          "after": ""
        },
        {
          "index": 6,
          "word": "essen",
          "originalText": "essen",
          "characterOffsetBegin": 33,
          "characterOffsetEnd": 38,
          "pos": "VVINF",
          "before": "",
          "after": " "
        },
        {
          "index": 7,
          "word": "ihren",
          "originalText": "ihren",
          "characterOffsetBegin": 39,
          "characterOffsetEnd": 44,
          "pos": "PPOSAT",
          "before": " ",
          "after": " "
        },
        {
          "index": 8,
          "word": "entführten",
          "originalText": "entführten",
          "characterOffsetBegin": 45,
          "characterOffsetEnd": 55,
          "pos": "ADJA",
          "before": " ",
          "after": " "
        },
        {
          "index": 9,
          "word": "Sohn",
          "originalText": "Sohn",
          "characterOffsetBegin": 56,
          "characterOffsetEnd": 60,
          "pos": "NN",
          "before": " ",
          "after": ""
        },
        {
          "index": 10,
          "word": "``",
          "originalText": "“",
          "characterOffsetBegin": 60,
          "characterOffsetEnd": 61,
          "pos": "CARD",
          "before": "",
          "after": ""
        }
      ]
    }
  ]
}