{
  "sentences": [
    {
      "index": 0,
      "basicDependencies": [
        {
          "dep": "ROOT",
          "governor": 0,
          "governorGloss": "ROOT",
          "dependent": 2,
          "dependentGloss": "Staatsanwalt"
        },
        {
          "dep": "nsubj",
          "governor": 2,
          "governorGloss": "Staatsanwalt",
          "dependent": 1,
          "dependentGloss": "Mexiko"
        },
        {
          "dep": "punct",
          "governor": 2,
          "governorGloss": "Staatsanwalt",
          "dependent": 3,
          "dependentGloss": ":"
        },
        {
          "dep": "appos",
          "governor": 2,
          "governorGloss": "Staatsanwalt",
          "dependent": 4,
          "dependentGloss": "Studenten"
        },
        {
          "dep": "neg",
          "governor": 7,
          "governorGloss": "1",
          "dependent": 5,
          "dependentGloss": "nicht"
        },
        {
          "dep": "case",
          "governor": 7,
          "governorGloss": "1",
          "dependent": 6,
          "dependentGloss": "in"
        },
        {
          "dep": "nmod",
          "governor": 4,
          "governorGloss": "Studenten",
          "dependent": 7,
          "dependentGloss": "1"
        },
        {
          "dep": "punct",
          "governor": 2,
          "governorGloss": "Staatsanwalt",
          "dependent": 8,
          "dependentGloss": "."
        }
      ],
      "enhancedDependencies": [
        {
          "dep": "ROOT",
          "governor": 0,
          "governorGloss": "ROOT",
          "dependent": 2,
          "dependentGloss": "Staatsanwalt"
        },
        {
          "dep": "nsubj",
          "governor": 2,
          "governorGloss": "Staatsanwalt",
          "dependent": 1,
          "dependentGloss": "Mexiko"
        },
        {
          "dep": "punct",
          "governor": 2,
          "governorGloss": "Staatsanwalt",
          "dependent": 3,
          "dependentGloss": ":"
        },
        {
          "dep": "appos",
          "governor": 2,
          "governorGloss": "Staatsanwalt",
          "dependent": 4,
          "dependentGloss": "Studenten"
        },
        {
          "dep": "neg",
          "governor": 7,
          "governorGloss": "1",
          "dependent": 5,
          "dependentGloss": "nicht"
        },
        {
          "dep": "case",
          "governor": 7,
          "governorGloss": "1",
          "dependent": 6,
          "dependentGloss": "in"
        },
        {
          "dep": "nmod",
          "governor": 4,
          "governorGloss": "Studenten",
          "dependent": 7,
          "dependentGloss": "1"
        },
        {
          "dep": "punct",
          "governor": 2,
          "governorGloss": "Staatsanwalt",
          "dependent": 8,
          "dependentGloss": "."
        }
      ],
      "enhancedPlusPlusDependencies": [
        {
          "dep": "ROOT",
          "governor": 0,
          "governorGloss": "ROOT",
          "dependent": 2,
          "dependentGloss": "Staatsanwalt"
        },
        {
          "dep": "nsubj",
          "governor": 2,
          "governorGloss": "Staatsanwalt",
          "dependent": 1,
          "dependentGloss": "Mexiko"
        },
        {
          "dep": "punct",
          "governor": 2,
          "governorGloss": "Staatsanwalt",
          "dependent": 3,
          "dependentGloss": ":"
        },
        {
          "dep": "appos",
          "governor": 2,
          "governorGloss": "Staatsanwalt",
          "dependent": 4,
          "dependentGloss": "Studenten"
        },
        {
          "dep": "neg",
          "governor": 7,
          "governorGloss": "1",
          "dependent": 5,
          "dependentGloss": "nicht"
        },
        {
          "dep": "case",
          "governor": 7,
          "governorGloss": "1",
          "dependent": 6,
          "dependentGloss": "in"
        },
        {
          "dep": "nmod",
          "governor": 4,
          "governorGloss": "Studenten",
          "dependent": 7,
          "dependentGloss": "1"
        },
        {
          "dep": "punct",
          "governor": 2,
          "governorGloss": "Staatsanwalt",
          "dependent": 8,
          "dependentGloss": "."
        }
      ],
      "tokens": [
        {
          "index": 1,
          "word": "Mexiko",
          "originalText": "Mexiko",
          "characterOffsetBegin": 0,
          "characterOffsetEnd": 6,
          "pos": "NE",
          "before": "",
          "after": " "
        },
        {
          "index": 2,
          "word": "Staatsanwalt",
          "originalText": "Staatsanwalt",
          "characterOffsetBegin": 7,
          "characterOffsetEnd": 19,
          "pos": "NN",
          "before": " ",
          "after": ""
        },
        {
          "index": 3,
          "word": ":",
          "originalText": ":",
          "characterOffsetBegin": 19,
          "characterOffsetEnd": 20,
          "pos": "$.",
          "before": "",
          "after": " "
        },
        {
          "index": 4,
          "word": "Studenten",
          "originalText": "Studenten",
          "characterOffsetBegin": 21,
          "characterOffsetEnd": 30,
          "pos": "NN",
          "before": " ",
          "after": " "
        },
        {
          "index": 5,
          "word": "nicht",
          "originalText": "nicht",
          "characterOffsetBegin": 31,
          "characterOffsetEnd": 36,
          "pos": "PTKNEG",
          "before": " ",
          "after": " "
        },
        {
          "index": 6,
          "word": "in",
          "originalText": "in",
          "characterOffsetBegin": 37,
          "characterOffsetEnd": 39,
          "pos": "APPR",
          "before": " ",
          "after": " "
        },
        {
          "index": 7,
          "word": "1",
          "originalText": "1",
          "characterOffsetBegin": 40,
          "characterOffsetEnd": 41,
          "pos": "CARD",
          "before": " ",
          "after": ""
        },
        {
          "index": 8,
          "word": ".",
          "originalText": ".",
          "characterOffsetBegin": 41,
          "characterOffsetEnd": 42,
          "pos": "$.",
          "before": "",
          "after": " "
        }
      ]
    },
    {
      "index": 1,
      "basicDependencies": [
        {
          "dep": "ROOT",
          "governor": 0,
          "governorGloss": "ROOT",
          "dependent": 1,
          "dependentGloss": "Massengräber"
        }
      ],
      "enhancedDependencies": [
        {
          "dep": "ROOT",
          "governor": 0,
          "governorGloss": "ROOT",
          "dependent": 1,
          "dependentGloss": "Massengräber"
        }
      ],
      "enhancedPlusPlusDependencies": [
        {
          "dep": "ROOT",
          "governor": 0,
          "governorGloss": "ROOT",
          "dependent": 1,
          "dependentGloss": "Massengräber"
        }
      ],
      "tokens": [
        {
          "index": 1,
          "word": "Massengräber",
          "originalText": "Massengräber",
          "characterOffsetBegin": 43,
          "characterOffsetEnd": 55,
          "pos": "NN",
          "before": " ",
          "after": ""
        }
      ]
    }
  ]
}