{
  "sentences": [
    {
      "index": 0,
      "basicDependencies": [
        {
          "dep": "ROOT",
          "governor": 0,
          "governorGloss": "ROOT",
          "dependent": 2,
          "dependentGloss": "Social-Media-Gerüchte"
        },
        {
          "dep": "nsubj",
          "governor": 2,
          "governorGloss": "Social-Media-Gerüchte",
          "dependent": 1,
          "dependentGloss": "Irakische"
        },
        {
          "dep": "xcomp",
          "governor": 2,
          "governorGloss": "Social-Media-Gerüchte",
          "dependent": 3,
          "dependentGloss": "behaupten"
        },
        {
          "dep": "punct",
          "governor": 2,
          "governorGloss": "Social-Media-Gerüchte",
          "dependent": 4,
          "dependentGloss": ","
        },
        {
          "dep": "mark",
          "governor": 8,
          "governorGloss": "getötet",
          "dependent": 5,
          "dependentGloss": "dass"
        },
        {
          "dep": "det",
          "governor": 7,
          "governorGloss": "Führer",
          "dependent": 6,
          "dependentGloss": "der"
        },
        {
          "dep": "nsubjpass",
          "governor": 8,
          "governorGloss": "getötet",
          "dependent": 7,
          "dependentGloss": "Führer"
        },
        {
          "dep": "ccomp",
          "governor": 2,
          "governorGloss": "Social-Media-Gerüchte",
          "dependent": 8,
          "dependentGloss": "getötet"
        },
        {
          "dep": "auxpass",
          "governor": 8,
          "governorGloss": "getötet",
          "dependent": 9,
          "dependentGloss": "wird"
        }
      ],
      "enhancedDependencies": [
        {
          "dep": "ROOT",
          "governor": 0,
          "governorGloss": "ROOT",
          "dependent": 2,
          "dependentGloss": "Social-Media-Gerüchte"
        },
        {
          "dep": "nsubj",
          "governor": 2,
          "governorGloss": "Social-Media-Gerüchte",
          "dependent": 1,
          "dependentGloss": "Irakische"
        },
        {
          "dep": "xcomp",
          "governor": 2,
          "governorGloss": "Social-Media-Gerüchte",
          "dependent": 3,
          "dependentGloss": "behaupten"
        },
        {
          "dep": "punct",
          "governor": 2,
          "governorGloss": "Social-Media-Gerüchte",
          "dependent": 4,
          "dependentGloss": ","
        },
        {
          "dep": "mark",
          "governor": 8,
          "governorGloss": "getötet",
          "dependent": 5,
          "dependentGloss": "dass"
        },
        {
          "dep": "det",
          "governor": 7,
          "governorGloss": "Führer",
          "dependent": 6,
          "dependentGloss": "der"
        },
        {
          "dep": "nsubjpass",
          "governor": 8,
          "governorGloss": "getötet",
          "dependent": 7,
          "dependentGloss": "Führer"
        },
        {
          "dep": "ccomp",
          "governor": 2,
          "governorGloss": "Social-Media-Gerüchte",
          "dependent": 8,
          "dependentGloss": "getötet"
        },
        {
          "dep": "auxpass",
          "governor": 8,
          "governorGloss": "getötet",
          "dependent": 9,
          "dependentGloss": "wird"
        }
      ],
      "enhancedPlusPlusDependencies": [
        {
          "dep": "ROOT",
          "governor": 0,
          "governorGloss": "ROOT",
          "dependent": 2,
          "dependentGloss": "Social-Media-Gerüchte"
        },
        {
          "dep": "nsubj",
          "governor": 2,
          "governorGloss": "Social-Media-Gerüchte",
          "dependent": 1,
          "dependentGloss": "Irakische"
        },
        {
          "dep": "xcomp",
          "governor": 2,
          "governorGloss": "Social-Media-Gerüchte",
          "dependent": 3,
          "dependentGloss": "behaupten"
        },
        {
          "dep": "punct",
          "governor": 2,
          "governorGloss": "Social-Media-Gerüchte",
          "dependent": 4,
          "dependentGloss": ","
        },
        {
          "dep": "mark",
          "governor": 8,
          "governorGloss": "getötet",
          "dependent": 5,
          "dependentGloss": "dass"
        },
        {
          "dep": "det",
          "governor": 7,
          "governorGloss": "Führer",
          "dependent": 6,
          "dependentGloss": "der"
        },
        {
          "dep": "nsubjpass",
          "governor": 8,
          "governorGloss": "getötet",
          "dependent": 7,
          "dependentGloss": "Führer"
        },
        {
          "dep": "ccomp",
          "governor": 2,
          "governorGloss": "Social-Media-Gerüchte",
          "dependent": 8,
          "dependentGloss": "getötet"
        },
        {
          "dep": "auxpass",
          "governor": 8,
          "governorGloss": "getötet",
          "dependent": 9,
          "dependentGloss": "wird"
        }
      ],
      "tokens": [
        {
          "index": 1,
          "word": "Irakische",
          "originalText": "Irakische",
          "characterOffsetBegin": 0,
          "characterOffsetEnd": 9,
          "pos": "ADJA",
          "before": "",
          "after": " "
        },
        {
          "index": 2,
          "word": "Social-Media-Gerüchte",
          "originalText": "Social-Media-Gerüchte",
          "characterOffsetBegin": 10,
          "characterOffsetEnd": 31,
          "pos": "NN",
          "before": " ",
          "after": " "
        },
        {
          "index": 3,
          "word": "behaupten",
          "originalText": "behaupten",
          "characterOffsetBegin": 32,
          "characterOffsetEnd": 41,
          "pos": "VVFIN",
          "before": " ",
          "after": ""
        },
        {
          "index": 4,
          "word": ",",
          "originalText": ",",
          "characterOffsetBegin": 41,
          "characterOffsetEnd": 42,
          "pos": "$,",
          "before": "",
          "after": " "
        },
        {
          "index": 5,
          "word": "dass",
          "originalText": "dass",
          "characterOffsetBegin": 43,
          "characterOffsetEnd": 47,
          "pos": "KOUS",
          "before": " ",
          "after": " "
        },
        {
          "index": 6,
          "word": "der",
          "originalText": "der",
          "characterOffsetBegin": 48,
          "characterOffsetEnd": 51,
          "pos": "ART",
          "before": " ",
          "after": " "
        },
        {
          "index": 7,
          "word": "Führer",
          "originalText": "Führer",
          "characterOffsetBegin": 52,
          "characterOffsetEnd": 58,
          "pos": "NN",
          "before": " ",
          "after": " "
        },
        {
          "index": 8,
          "word": "getötet",
          "originalText": "getötet",
          "characterOffsetBegin": 59,
          "characterOffsetEnd": 66,
          "pos": "VVPP",
          "before": " ",
          "after": " "
        },
        {
          "index": 9,
          "word": "wird",
          "originalText": "wird",
          "characterOffsetBegin": 67,
          "characterOffsetEnd": 71,
          "pos": "VAFIN",
          "before": " ",
          "after": ""
        }
      ]
    }
  ]
}