{
  "sentences": [
    {
      "index": 0,
      "basicDependencies": [
        {
          "dep": "ROOT",
          "governor": 0,
          "governorGloss": "ROOT",
          "dependent": 3,
          "dependentGloss": "arbeitet"
        },
        {
          "dep": "nsubj",
          "governor": 3,
          "governorGloss": "arbeitet",
          "dependent": 1,
          "dependentGloss": "Apple"
        },
        {
          "dep": "punct",
          "governor": 3,
          "governorGloss": "arbeitet",
          "dependent": 2,
          "dependentGloss": "`"
        },
        {
          "dep": "case",
          "governor": 7,
          "governorGloss": "Air",
          "dependent": 4,
          "dependentGloss": "auf"
        },
        {
          "dep": "name",
          "governor": 7,
          "governorGloss": "Air",
          "dependent": 5,
          "dependentGloss": "12-Zoll"
        },
        {
          "dep": "name",
          "governor": 7,
          "governorGloss": "Air",
          "dependent": 6,
          "dependentGloss": "MacBook"
        },
        {
          "dep": "nmod",
          "governor": 3,
          "governorGloss": "arbeitet",
          "dependent": 7,
          "dependentGloss": "Air"
        },
        {
          "dep": "punct",
          "governor": 3,
          "governorGloss": "arbeitet",
          "dependent": 8,
          "dependentGloss": "'"
        }
      ],
      "enhancedDependencies": [
        {
          "dep": "ROOT",
          "governor": 0,
          "governorGloss": "ROOT",
          "dependent": 3,
          "dependentGloss": "arbeitet"
        },
        {
          "dep": "nsubj",
          "governor": 3,
          "governorGloss": "arbeitet",
          "dependent": 1,
          "dependentGloss": "Apple"
        },
        {
          "dep": "punct",
          "governor": 3,
          "governorGloss": "arbeitet",
          "dependent": 2,
          "dependentGloss": "`"
        },
        {
          "dep": "case",
          "governor": 7,
          "governorGloss": "Air",
          "dependent": 4,
          "dependentGloss": "auf"
        },
        {
          "dep": "name",
          "governor": 7,
          "governorGloss": "Air",
          "dependent": 5,
          "dependentGloss": "12-Zoll"
        },
        {
          "dep": "name",
          "governor": 7,
          "governorGloss": "Air",
          "dependent": 6,
          "dependentGloss": "MacBook"
        },
        {
          "dep": "nmod",
          "governor": 3,
          "governorGloss": "arbeitet",
          "dependent": 7,
          "dependentGloss": "Air"
        },
        {
          "dep": "punct",
          "governor": 3,
          "governorGloss": "arbeitet",
          "dependent": 8,
          "dependentGloss": "'"
        }
      ],
      "enhancedPlusPlusDependencies": [
        {
          "dep": "ROOT",
          "governor": 0,
          "governorGloss": "ROOT",
          "dependent": 3,
          "dependentGloss": "arbeitet"
        },
        {
          "dep": "nsubj",
          "governor": 3,
          "governorGloss": "arbeitet",
          "dependent": 1,
          "dependentGloss": "Apple"
        },
        {
          "dep": "punct",
          "governor": 3,
          "governorGloss": "arbeitet",
          "dependent": 2,
          "dependentGloss": "`"
        },
        {
          "dep": "case",
          "governor": 7,
          "governorGloss": "Air",
          "dependent": 4,
          "dependentGloss": "auf"
        },
        {
          "dep": "name",
          "governor": 7,
          "governorGloss": "Air",
          "dependent": 5,
          "dependentGloss": "12-Zoll"
        },
        {
          "dep": "name",
          "governor": 7,
          "governorGloss": "Air",
          "dependent": 6,
          "dependentGloss": "MacBook"
        },
        {
          "dep": "nmod",
          "governor": 3,
          "governorGloss": "arbeitet",
          "dependent": 7,
          "dependentGloss": "Air"
        },
        {
          "dep": "punct",
          "governor": 3,
          "governorGloss": "arbeitet",
          "dependent": 8,
          "dependentGloss": "'"
        }
      ],
      "tokens": [
        {
          "index": 1,
          "word": "Apple",
          "originalText": "Apple",
          "characterOffsetBegin": 0,
          "characterOffsetEnd": 5,
          "pos": "NE",
          "before": "",
          "after": " "
        },
        {
          "index": 2,
          "word": "`",
          "originalText": "'",
          "characterOffsetBegin": 6,
          "characterOffsetEnd": 7,
          "pos": "CARD",
          "before": " ",
          "after": ""
        },
        {
          "index": 3,
          "word": "arbeitet",
          "originalText": "arbeitet",
          "characterOffsetBegin": 7,
          "characterOffsetEnd": 15,
          "pos": "VVFIN",
          "before": "",
          "after": " "
        },
        {
          "index": 4,
          "word": "auf",
          "originalText": "auf",
          "characterOffsetBegin": 16,
          "characterOffsetEnd": 19,
          "pos": "APPR",
          "before": " ",
          "after": " "
        },
        {
          "index": 5,
          "word": "12-Zoll",
          "originalText": "12-Zoll",
          "characterOffsetBegin": 20,
          "characterOffsetEnd": 27,
          "pos": "NN",
          "before": " ",
          "after": " "
        },
        {
          "index": 6,
          "word": "MacBook",
          "originalText": "MacBook",
          "characterOffsetBegin": 28,
          "characterOffsetEnd": 35,
          "pos": "NE",
          "before": " ",
          "after": " "
        },
        {
          "index": 7,
          "word": "Air",
          "originalText": "Air",
          "characterOffsetBegin": 36,
          "characterOffsetEnd": 39,
          "pos": "NE",
          "before": " ",
          "after": ""
        },
        {
          "index": 8,
          "word": "'",
          "originalText": "'",
          "characterOffsetBegin": 39,
          "characterOffsetEnd": 40,
          "pos": "$[",
          "before": "",
          "after": ""
        }
      ]
    }
  ]
}