{
  "sentences": [
    {
      "index": 0,
      "basicDependencies": [
        {
          "dep": "ROOT",
          "governor": 0,
          "governorGloss": "ROOT",
          "dependent": 1,
          "dependentGloss": "Ist"
        },
        {
          "dep": "name",
          "governor": 4,
          "governorGloss": "Schwester",
          "dependent": 2,
          "dependentGloss": "Kim"
        },
        {
          "dep": "name",
          "governor": 4,
          "governorGloss": "Schwester",
          "dependent": 3,
          "dependentGloss": "Jong-uns"
        },
        {
          "dep": "appos",
          "governor": 1,
          "governorGloss": "Ist",
          "dependent": 4,
          "dependentGloss": "Schwester"
        },
        {
          "dep": "punct",
          "governor": 4,
          "governorGloss": "Schwester",
          "dependent": 5,
          "dependentGloss": ","
        },
        {
          "dep": "name",
          "governor": 7,
          "governorGloss": "Yo-jong",
          "dependent": 6,
          "dependentGloss": "Kim"
        },
        {
          "dep": "conj",
          "governor": 4,
          "governorGloss": "Schwester",
          "dependent": 7,
          "dependentGloss": "Yo-jong"
        },
        {
          "dep": "punct",
          "governor": 4,
          "governorGloss": "Schwester",
          "dependent": 8,
          "dependentGloss": ","
        },
        {
          "dep": "dobj",
          "governor": 14,
          "governorGloss": "laufen",
          "dependent": 9,
          "dependentGloss": "Nordkorea"
        },
        {
          "dep": "case",
          "governor": 13,
          "governorGloss": "Abwesenheit",
          "dependent": 10,
          "dependentGloss": "in"
        },
        {
          "dep": "det",
          "governor": 13,
          "governorGloss": "Abwesenheit",
          "dependent": 11,
          "dependentGloss": "seiner"
        },
        {
          "dep": "amod",
          "governor": 13,
          "governorGloss": "Abwesenheit",
          "dependent": 12,
          "dependentGloss": "geheimnisvollen"
        },
        {
          "dep": "nmod",
          "governor": 14,
          "governorGloss": "laufen",
          "dependent": 13,
          "dependentGloss": "Abwesenheit"
        },
        {
          "dep": "acl",
          "governor": 4,
          "governorGloss": "Schwester",
          "dependent": 14,
          "dependentGloss": "laufen"
        },
        {
          "dep": "punct",
          "governor": 4,
          "governorGloss": "Schwester",
          "dependent": 15,
          "dependentGloss": "?"
        }
      ],
      "enhancedDependencies": [
        {
          "dep": "ROOT",
          "governor": 0,
          "governorGloss": "ROOT",
          "dependent": 1,
          "dependentGloss": "Ist"
        },
        {
          "dep": "name",
          "governor": 4,
          "governorGloss": "Schwester",
          "dependent": 2,
          "dependentGloss": "Kim"
        },
        {
          "dep": "name",
          "governor": 4,
          "governorGloss": "Schwester",
          "dependent": 3,
          "dependentGloss": "Jong-uns"
        },
        {
          "dep": "appos",
          "governor": 1,
          "governorGloss": "Ist",
          "dependent": 4,
          "dependentGloss": "Schwester"
        },
        {
          "dep": "punct",
          "governor": 4,
          "governorGloss": "Schwester",
          "dependent": 5,
          "dependentGloss": ","
        },
        {
          "dep": "name",
          "governor": 7,
          "governorGloss": "Yo-jong",
          "dependent": 6,
          "dependentGloss": "Kim"
        },
        {
          "dep": "conj",
          "governor": 4,
          "governorGloss": "Schwester",
          "dependent": 7,
          "dependentGloss": "Yo-jong"
        },
        {
          "dep": "punct",
          "governor": 4,
          "governorGloss": "Schwester",
          "dependent": 8,
          "dependentGloss": ","
        },
        {
          "dep": "dobj",
          "governor": 14,
          "governorGloss": "laufen",
          "dependent": 9,
          "dependentGloss": "Nordkorea"
        },
        {
          "dep": "case",
          "governor": 13,
          "governorGloss": "Abwesenheit",
          "dependent": 10,
          "dependentGloss": "in"
        },
        {
          "dep": "det",
          "governor": 13,
          "governorGloss": "Abwesenheit",
          "dependent": 11,
          "dependentGloss": "seiner"
        },
        {
          "dep": "amod",
          "governor": 13,
          "governorGloss": "Abwesenheit",
          "dependent": 12,
          "dependentGloss": "geheimnisvollen"
        },
        {
          "dep": "nmod",
          "governor": 14,
          "governorGloss": "laufen",
          "dependent": 13,
          "dependentGloss": "Abwesenheit"
        },
        {
          "dep": "acl",
          "governor": 4,
          "governorGloss": "Schwester",
          "dependent": 14,
          "dependentGloss": "laufen"
        },
        {
          "dep": "punct",
          "governor": 4,
          "governorGloss": "Schwester",
          "dependent": 15,
          "dependentGloss": "?"
        }
      ],
      "enhancedPlusPlusDependencies": [
        {
          "dep": "ROOT",
          "governor": 0,
          "governorGloss": "ROOT",
          "dependent": 1,
          "dependentGloss": "Ist"
        },
        {
          "dep": "name",
          "governor": 4,
          "governorGloss": "Schwester",
          "dependent": 2,
          "dependentGloss": "Kim"
        },
        {
          "dep": "name",
          "governor": 4,
          "governorGloss": "Schwester",
          "dependent": 3,
          "dependentGloss": "Jong-uns"
        },
        {
          "dep": "appos",
          "governor": 1,
          "governorGloss": "Ist",
          "dependent": 4,
          "dependentGloss": "Schwester"
        },
        {
          "dep": "punct",
          "governor": 4,
          "governorGloss": "Schwester",
          "dependent": 5,
          "dependentGloss": ","
        },
        {
          "dep": "name",
          "governor": 7,
          "governorGloss": "Yo-jong",
          "dependent": 6,
          "dependentGloss": "Kim"
        },
        {
          "dep": "conj",
          "governor": 4,
          "governorGloss": "Schwester",
          "dependent": 7,
          "dependentGloss": "Yo-jong"
        },
        {
          "dep": "punct",
          "governor": 4,
          "governorGloss": "Schwester",
          "dependent": 8,
          "dependentGloss": ","
        },
        {
          "dep": "dobj",
          "governor": 14,
          "governorGloss": "laufen",
          "dependent": 9,
          "dependentGloss": "Nordkorea"
        },
        {
          "dep": "case",
          "governor": 13,
          "governorGloss": "Abwesenheit",
          "dependent": 10,
          "dependentGloss": "in"
        },
        {
          "dep": "det",
          "governor": 13,
          "governorGloss": "Abwesenheit",
          "dependent": 11,
          "dependentGloss": "seiner"
        },
        {
          "dep": "amod",
          "governor": 13,
          "governorGloss": "Abwesenheit",
          "dependent": 12,
          "dependentGloss": "geheimnisvollen"
        },
        {
          "dep": "nmod",
          "governor": 14,
          "governorGloss": "laufen",
          "dependent": 13,
          "dependentGloss": "Abwesenheit"
        },
        {
          "dep": "acl",
          "governor": 4,
          "governorGloss": "Schwester",
          "dependent": 14,
          "dependentGloss": "laufen"
        },
        {
          "dep": "punct",
          "governor": 4,
          "governorGloss": "Schwester",
          "dependent": 15,
          "dependentGloss": "?"
        }
      ],
      "tokens": [
        {
          "index": 1,
          "word": "Ist",
          "originalText": "Ist",
          "characterOffsetBegin": 0,
          "characterOffsetEnd": 3,
          "pos": "VAFIN",
          "before": "",
          "after": " "
        },
        {
          "index": 2,
          "word": "Kim",
          "originalText": "Kim",
          "characterOffsetBegin": 4,
          "characterOffsetEnd": 7,
          "pos": "NE",
          "before": " ",
          "after": " "
        },
        {
          "index": 3,
          "word": "Jong-uns",
          "originalText": "Jong-uns",
          "characterOffsetBegin": 8,
          "characterOffsetEnd": 16,
          "pos": "NE",
          "before": " ",
          "after": " "
        },
        {
          "index": 4,
          "word": "Schwester",
          "originalText": "Schwester",
          "characterOffsetBegin": 17,
          "characterOffsetEnd": 26,
          "pos": "NN",
          "before": " ",
          "after": ""
        },
        {
          "index": 5,
          "word": ",",
          "originalText": ",",
          "characterOffsetBegin": 26,
          "characterOffsetEnd": 27,
          "pos": "$,",
          "before": "",
          "after": " "
        },
        {
          "index": 6,
          "word": "Kim",
          "originalText": "Kim",
          "characterOffsetBegin": 28,
          "characterOffsetEnd": 31,
          "pos": "NE",
          "before": " ",
          "after": " "
        },
        {
          "index": 7,
          "word": "Yo-jong",
          "originalText": "Yo-jong",
          "characterOffsetBegin": 32,
          "characterOffsetEnd": 39,
          "pos": "NE",
          "before": " ",
          "after": ""
        },
        {
          "index": 8,
          "word": ",",
          "originalText": ",",
          "characterOffsetBegin": 39,
          "characterOffsetEnd": 40,
          "pos": "$,",
          "before": "",
          "after": " "
        },
        {
          "index": 9,
          "word": "Nordkorea",
          "originalText": "Nordkorea",
          "characterOffsetBegin": 41,
          "characterOffsetEnd": 50,
          "pos": "NE",
          "before": " ",
          "after": " "
        },
        {
          "index": 10,
          "word": "in",
          "originalText": "in",
          "characterOffsetBegin": 51,
          "characterOffsetEnd": 53,
          "pos": "APPR",
          "before": " ",
          "after": " "
        },
        {
          "index": 11,
          "word": "seiner",
          "originalText": "seiner",
          "characterOffsetBegin": 54,
          "characterOffsetEnd": 60,
          "pos": "PPOSAT",
          "before": " ",
          "after": " "
        },
        {
          "index": 12,
          "word": "geheimnisvollen",
          "originalText": "geheimnisvollen",
          "characterOffsetBegin": 61,
          "characterOffsetEnd": 76,
          "pos": "ADJA",
          "before": " ",
          "after": " "
        },
        {
          "index": 13,
          "word": "Abwesenheit",
          "originalText": "Abwesenheit",
          "characterOffsetBegin": 77,
          "characterOffsetEnd": 88,
          "pos": "NN",
          "before": " ",
          "after": " "
        },
        {
          "index": 14,
          "word": "laufen",
          "originalText": "laufen",
          "characterOffsetBegin": 89,
          "characterOffsetEnd": 95,
          "pos": "VVINF",
          "before": " ",
          "after": ""
        },
        {
          "index": 15,
          "word": "?",
          "originalText": "?",
          "characterOffsetBegin": 95,
          "characterOffsetEnd": 96,
          "pos": "$.",
          "before": "",
          "after": ""
        }
      ]
    }
  ]
}