{
  "sentences": [
    {
      "index": 0,
      "basicDependencies": [
        {
          "dep": "ROOT",
          "governor": 0,
          "governorGloss": "ROOT",
          "dependent": 4,
          "dependentGloss": "Said"
        },
        {
          "dep": "name",
          "governor": 4,
          "governorGloss": "Said",
          "dependent": 1,
          "dependentGloss": "Vice"
        },
        {
          "dep": "name",
          "governor": 4,
          "governorGloss": "Said",
          "dependent": 2,
          "dependentGloss": "Media"
        },
        {
          "dep": "name",
          "governor": 4,
          "governorGloss": "Said",
          "dependent": 3,
          "dependentGloss": "Chief"
        },
        {
          "dep": "aux",
          "governor": 6,
          "governorGloss": "zahlen",
          "dependent": 5,
          "dependentGloss": "zu"
        },
        {
          "dep": "nummod",
          "governor": 7,
          "governorGloss": "$",
          "dependent": 6,
          "dependentGloss": "zahlen"
        },
        {
          "dep": "nmod",
          "governor": 8,
          "governorGloss": "300.000",
          "dependent": 7,
          "dependentGloss": "$"
        },
        {
          "dep": "acl",
          "governor": 4,
          "governorGloss": "Said",
          "dependent": 8,
          "dependentGloss": "300.000"
        },
        {
          "dep": "case",
          "governor": 10,
          "governorGloss": "Abendessen",
          "dependent": 9,
          "dependentGloss": "für"
        },
        {
          "dep": "nmod",
          "governor": 8,
          "governorGloss": "300.000",
          "dependent": 10,
          "dependentGloss": "Abendessen"
        },
        {
          "dep": "case",
          "governor": 12,
          "governorGloss": "30",
          "dependent": 11,
          "dependentGloss": "für"
        },
        {
          "dep": "nmod",
          "governor": 8,
          "governorGloss": "300.000",
          "dependent": 12,
          "dependentGloss": "30"
        }
      ],
      "enhancedDependencies": [
        {
          "dep": "ROOT",
          "governor": 0,
          "governorGloss": "ROOT",
          "dependent": 4,
          "dependentGloss": "Said"
        },
        {
          "dep": "name",
          "governor": 4,
          "governorGloss": "Said",
          "dependent": 1,
          "dependentGloss": "Vice"
        },
        {
          "dep": "name",
          "governor": 4,
          "governorGloss": "Said",
          "dependent": 2,
          "dependentGloss": "Media"
        },
        {
          "dep": "name",
          "governor": 4,
          "governorGloss": "Said",
          "dependent": 3,
          "dependentGloss": "Chief"
        },
        {
          "dep": "aux",
          "governor": 6,
          "governorGloss": "zahlen",
          "dependent": 5,
          "dependentGloss": "zu"
        },
        {
          "dep": "nummod",
          "governor": 7,
          "governorGloss": "$",
          "dependent": 6,
          "dependentGloss": "zahlen"
        },
        {
          "dep": "nmod",
          "governor": 8,
          "governorGloss": "300.000",
          "dependent": 7,
          "dependentGloss": "$"
        },
        {
          "dep": "acl",
          "governor": 4,
          "governorGloss": "Said",
          "dependent": 8,
          "dependentGloss": "300.000"
        },
        {
          "dep": "case",
          "governor": 10,
          "governorGloss": "Abendessen",
          "dependent": 9,
          "dependentGloss": "für"
        },
        {
          "dep": "nmod",
          "governor": 8,
          "governorGloss": "300.000",
          "dependent": 10,
          "dependentGloss": "Abendessen"
        },
        {
          "dep": "case",
          "governor": 12,
          "governorGloss": "30",
          "dependent": 11,
          "dependentGloss": "für"
        },
        {
          "dep": "nmod",
          "governor": 8,
          "governorGloss": "300.000",
          "dependent": 12,
          "dependentGloss": "30"
        }
      ],
      "enhancedPlusPlusDependencies": [
        {
          "dep": "ROOT",
          "governor": 0,
          "governorGloss": "ROOT",
          "dependent": 4,
          "dependentGloss": "Said"
        },
        {
          "dep": "name",
          "governor": 4,
          "governorGloss": "Said",
          "dependent": 1,
          "dependentGloss": "Vice"
        },
        {
          "dep": "name",
          "governor": 4,
          "governorGloss": "Said",
          "dependent": 2,
          "dependentGloss": "Media"
        },
        {
          "dep": "name",
          "governor": 4,
          "governorGloss": "Said",
          "dependent": 3,
          "dependentGloss": "Chief"
        },
        {
          "dep": "aux",
          "governor": 6,
          "governorGloss": "zahlen",
          "dependent": 5,
          "dependentGloss": "zu"
        },
        {
          "dep": "nummod",
          "governor": 7,
          "governorGloss": "$",
          "dependent": 6,
          "dependentGloss": "zahlen"
        },
        {
          "dep": "nmod",
          "governor": 8,
          "governorGloss": "300.000",
          "dependent": 7,
          "dependentGloss": "$"
        },
        {
          "dep": "acl",
          "governor": 4,
          "governorGloss": "Said",
          "dependent": 8,
          "dependentGloss": "300.000"
        },
        {
          "dep": "case",
          "governor": 10,
          "governorGloss": "Abendessen",
          "dependent": 9,
          "dependentGloss": "für"
        },
        {
          "dep": "nmod",
          "governor": 8,
          "governorGloss": "300.000",
          "dependent": 10,
          "dependentGloss": "Abendessen"
        },
        {
          "dep": "case",
          "governor": 12,
          "governorGloss": "30",
          "dependent": 11,
          "dependentGloss": "für"
        },
        {
          "dep": "nmod",
          "governor": 8,
          "governorGloss": "300.000",
          "dependent": 12,
          "dependentGloss": "30"
        }
      ],
      "tokens": [
        {
          "index": 1,
          "word": "Vice",
          "originalText": "Vice",
          "characterOffsetBegin": 0,
          "characterOffsetEnd": 4,
          "pos": "NE",
          "before": "",
          "after": " "
        },
        {
          "index": 2,
          "word": "Media",
          "originalText": "Media",
          "characterOffsetBegin": 5,
          "characterOffsetEnd": 10,
          "pos": "NE",
          "before": " ",
          "after": " "
        },
        {
          "index": 3,
          "word": "Chief",
          "originalText": "Chief",
          "characterOffsetBegin": 11,
          "characterOffsetEnd": 16,
          "pos": "NE",
          "before": " ",
          "after": " "
        },
        {
          "index": 4,
          "word": "Said",
          "originalText": "Said",
          "characterOffsetBegin": 17,
          "characterOffsetEnd": 21,
          "pos": "NE",
          "before": " ",
          "after": " "
        },
        {
          "index": 5,
          "word": "zu",
          "originalText": "zu",
          "characterOffsetBegin": 22,
          "characterOffsetEnd": 24,
          "pos": "PTKZU",
          "before": " ",
          "after": " "
        },
        {
          "index": 6,
          "word": "zahlen",
          "originalText": "zahlen",
          "characterOffsetBegin": 25,
          "characterOffsetEnd": 31,
          "pos": "VVINF",
          "before": " ",
          "after": " "
        },
        {
          "index": 7,
          "word": "$",
          "originalText": "$",
          "characterOffsetBegin": 32,
          "characterOffsetEnd": 33,
          "pos": "VVFIN",
          "before": " ",
          "after": " "
        },
        {
          "index": 8,
          "word": "300.000",
          "originalText": "300.000",
          "characterOffsetBegin": 34,
          "characterOffsetEnd": 41,
          "pos": "CARD",
          "before": " ",
          "after": " "
        },
        {
          "index": 9,
          "word": "für",
          "originalText": "für",
          "characterOffsetBegin": 42,
          "characterOffsetEnd": 45,
          "pos": "APPR",
          "before": " ",
          "after": " "
        },
        {
          "index": 10,
          "word": "Abendessen",
          "originalText": "Abendessen",
          "characterOffsetBegin": 46,
          "characterOffsetEnd": 56,
          "pos": "NN",
          "before": " ",
          "after": " "
        },
        {
          "index": 11,
          "word": "für",
          "originalText": "für",
          "characterOffsetBegin": 57,
          "characterOffsetEnd": 60,
          "pos": "APPR",
          "before": " ",
          "after": " "
        },
        {
          "index": 12,
          "word": "30",
          "originalText": "30",
          "characterOffsetBegin": 61,
          "characterOffsetEnd": 63,
          "pos": "CARD",
          "before": " ",
          "after": ""
        }
      ]
    }
  ]
}