{
  "sentences": [
    {
      "index": 0,
      "basicDependencies": [
        {
          "dep": "ROOT",
          "governor": 0,
          "governorGloss": "ROOT",
          "dependent": 3,
          "dependentGloss": "hält"
        },
        {
          "dep": "det",
          "governor": 2,
          "governorGloss": "Libanon",
          "dependent": 1,
          "dependentGloss": "Der"
        },
        {
          "dep": "nsubj",
          "governor": 3,
          "governorGloss": "hält",
          "dependent": 2,
          "dependentGloss": "Libanon"
        },
        {
          "dep": "dobj",
          "governor": 3,
          "governorGloss": "hält",
          "dependent": 4,
          "dependentGloss": "Frau"
        },
        {
          "dep": "cc",
          "governor": 4,
          "governorGloss": "Frau",
          "dependent": 5,
          "dependentGloss": "und"
        },
        {
          "dep": "conj",
          "governor": 4,
          "governorGloss": "Frau",
          "dependent": 6,
          "dependentGloss": "Sohn"
        },
        {
          "dep": "case",
          "governor": 8,
          "governorGloss": "Al-Bagdadi",
          "dependent": 7,
          "dependentGloss": "von"
        },
        {
          "dep": "nmod",
          "governor": 3,
          "governorGloss": "hält",
          "dependent": 8,
          "dependentGloss": "Al-Bagdadi"
        },
        {
          "dep": "mark",
          "governor": 3,
          "governorGloss": "hält",
          "dependent": 9,
          "dependentGloss": "fest"
        }
      ],
      "enhancedDependencies": [
        {
          "dep": "ROOT",
          "governor": 0,
          "governorGloss": "ROOT",
          "dependent": 3,
          "dependentGloss": "hält"
        },
        {
          "dep": "det",
          "governor": 2,
          "governorGloss": "Libanon",
          "dependent": 1,
          "dependentGloss": "Der"
        },
        {
          "dep": "nsubj",
          "governor": 3,
          "governorGloss": "hält",
          "dependent": 2,
          "dependentGloss": "Libanon"
        },
        {
          "dep": "dobj",
          "governor": 3,
          "governorGloss": "hält",
          "dependent": 4,
          "dependentGloss": "Frau"
        },
        {
          "dep": "cc",
          "governor": 4,
          "governorGloss": "Frau",
          "dependent": 5,
          "dependentGloss": "und"
        },
        {
          "dep": "dobj",
          "governor": 3,
          "governorGloss": "hält",
          "dependent": 6,
          "dependentGloss": "Sohn"
        },
        {
          "dep": "conj:und",
          "governor": 4,
          "governorGloss": "Frau",
          "dependent": 6,
          "dependentGloss": "Sohn"
        },
        {
          "dep": "case",
          "governor": 8,
          "governorGloss": "Al-Bagdadi",
          "dependent": 7,
          "dependentGloss": "von"
        },
        {
          "dep": "nmod",
          "governor": 3,
          "governorGloss": "hält",
          "dependent": 8,
          "dependentGloss": "Al-Bagdadi"
        },
        {
          "dep": "mark",
          "governor": 3,
          "governorGloss": "hält",
          "dependent": 9,
          "dependentGloss": "fest"
        }
      ],
      "enhancedPlusPlusDependencies": [
        {
          "dep": "ROOT",
          "governor": 0,
          "governorGloss": "ROOT",
          "dependent": 3,
          "dependentGloss": "hält"
        },
        {
          "dep": "det",
          "governor": 2,
          "governorGloss": "Libanon",
          "dependent": 1,
          "dependentGloss": "Der"
        },
        {
          "dep": "nsubj",
          "governor": 3,
          "governorGloss": "hält",
          "dependent": 2,
          "dependentGloss": "Libanon"
        },
        {
          "dep": "dobj",
          "governor": 3,
          "governorGloss": "hält",
          "dependent": 4,
          "dependentGloss": "Frau"
        },
        {
          "dep": "cc",
          "governor": 4,
          "governorGloss": "Frau",
          "dependent": 5,
          "dependentGloss": "und"
        },
        {
          "dep": "dobj",
          "governor": 3,
          "governorGloss": "hält",
          "dependent": 6,
          "dependentGloss": "Sohn"
        },
        {
          "dep": "conj:und",
          "governor": 4,
          "governorGloss": "Frau",
          "dependent": 6,
          "dependentGloss": "Sohn"
        },
        {
          "dep": "case",
          "governor": 8,
          "governorGloss": "Al-Bagdadi",
          "dependent": 7,
          "dependentGloss": "von"
        },
        {
          "dep": "nmod",
          "governor": 3,
          "governorGloss": "hält",
          "dependent": 8,
          "dependentGloss": "Al-Bagdadi"
        },
        {
          "dep": "mark",
          "governor": 3,
          "governorGloss": "hält",
          "dependent": 9,
          "dependentGloss": "fest"
        }
      ],
      "tokens": [
        {
          "index": 1,
          "word": "Der",
          "originalText": "Der",
          "characterOffsetBegin": 0,
          "characterOffsetEnd": 3,
          "pos": "ART",
          "before": "",
          "after": " "
        },
        {
          "index": 2,
          "word": "Libanon",
          "originalText": "Libanon",
          "characterOffsetBegin": 4,
          "characterOffsetEnd": 11,
          "pos": "NE",
          "before": " ",
          "after": " "
        },
        {
          "index": 3,
          "word": "hält",
          "originalText": "hält",
          "characterOffsetBegin": 12,
          "characterOffsetEnd": 16,
          "pos": "VVFIN",
          "before": " ",
          "after": " "
        },
        {
          "index": 4,
          "word": "Frau",
          "originalText": "Frau",
          "characterOffsetBegin": 17,
          "characterOffsetEnd": 21,
          "pos": "NN",
          "before": " ",
          "after": " "
        },
        {
          "index": 5,
          "word": "und",
          "originalText": "und",
          "characterOffsetBegin": 22,
          "characterOffsetEnd": 25,
          "pos": "KON",
          "before": " ",
          "after": " "
        },
        {
          "index": 6,
          "word": "Sohn",
          "originalText": "Sohn",
          "characterOffsetBegin": 26,
          "characterOffsetEnd": 30,
          "pos": "NN",
          "before": " ",
          "after": " "
        },
        {
          "index": 7,
          "word": "von",
          "originalText": "von",
          "characterOffsetBegin": 31,
          "characterOffsetEnd": 34,
          "pos": "APPR",
          "before": " ",
          "after": " "
        },
        {
          "index": 8,
          "word": "Al-Bagdadi",
          "originalText": "Al-Bagdadi",
          "characterOffsetBegin": 35,
          "characterOffsetEnd": 45,
          "pos": "NE",
          "before": " ",
          "after": " "
        },
        {
          "index": 9,
          "word": "fest",
          "originalText": "fest",
          "characterOffsetBegin": 46,
          "characterOffsetEnd": 50,
          "pos": "PTKVZ",
          "before": " ",
          "after": ""
        }
      ]
    }
  ]
}