{
  "sentences": [
    {
      "index": 0,
      "basicDependencies": [
        {
          "dep": "ROOT",
          "governor": 0,
          "governorGloss": "ROOT",
          "dependent": 1,
          "dependentGloss": "Bericht"
        },
        {
          "dep": "punct",
          "governor": 1,
          "governorGloss": "Bericht",
          "dependent": 2,
          "dependentGloss": ":"
        },
        {
          "dep": "amod",
          "governor": 4,
          "governorGloss": "12-Zoll",
          "dependent": 3,
          "dependentGloss": "neue"
        },
        {
          "dep": "appos",
          "governor": 1,
          "governorGloss": "Bericht",
          "dependent": 4,
          "dependentGloss": "12-Zoll"
        },
        {
          "dep": "name",
          "governor": 7,
          "governorGloss": "schlank",
          "dependent": 5,
          "dependentGloss": "MacBook"
        },
        {
          "dep": "name",
          "governor": 7,
          "governorGloss": "schlank",
          "dependent": 6,
          "dependentGloss": "Air"
        },
        {
          "dep": "appos",
          "governor": 4,
          "governorGloss": "12-Zoll",
          "dependent": 7,
          "dependentGloss": "schlank"
        },
        {
          "dep": "case",
          "governor": 9,
          "governorGloss": "unten",
          "dependent": 8,
          "dependentGloss": "nach"
        },
        {
          "dep": "nmod",
          "governor": 7,
          "governorGloss": "schlank",
          "dependent": 9,
          "dependentGloss": "unten"
        },
        {
          "dep": "punct",
          "governor": 4,
          "governorGloss": "12-Zoll",
          "dependent": 10,
          "dependentGloss": ","
        },
        {
          "dep": "conj",
          "governor": 1,
          "governorGloss": "Bericht",
          "dependent": 11,
          "dependentGloss": "hat"
        },
        {
          "dep": "det",
          "governor": 14,
          "governorGloss": "USB-Port",
          "dependent": 12,
          "dependentGloss": "einen"
        },
        {
          "dep": "amod",
          "governor": 14,
          "governorGloss": "USB-Port",
          "dependent": 13,
          "dependentGloss": "einzigen"
        },
        {
          "dep": "dobj",
          "governor": 11,
          "governorGloss": "hat",
          "dependent": 14,
          "dependentGloss": "USB-Port"
        }
      ],
      "enhancedDependencies": [
        {
          "dep": "ROOT",
          "governor": 0,
          "governorGloss": "ROOT",
          "dependent": 1,
          "dependentGloss": "Bericht"
        },
        {
          "dep": "punct",
          "governor": 1,
          "governorGloss": "Bericht",
          "dependent": 2,
          "dependentGloss": ":"
        },
        {
          "dep": "amod",
          "governor": 4,
          "governorGloss": "12-Zoll",
          "dependent": 3,
          "dependentGloss": "neue"
        },
        {
          "dep": "appos",
          "governor": 1,
          "governorGloss": "Bericht",
          "dependent": 4,
          "dependentGloss": "12-Zoll"
        },
        {
          "dep": "name",
          "governor": 7,
          "governorGloss": "schlank",
          "dependent": 5,
          "dependentGloss": "MacBook"
        },
        {
          "dep": "name",
          "governor": 7,
          "governorGloss": "schlank",
          "dependent": 6,
          "dependentGloss": "Air"
        },
        {
          "dep": "appos",
          "governor": 4,
          "governorGloss": "12-Zoll",
          "dependent": 7,
          "dependentGloss": "schlank"
        },
        {
          "dep": "case",
          "governor": 9,
          "governorGloss": "unten",
          "dependent": 8,
          "dependentGloss": "nach"
        },
        {
          "dep": "nmod",
          "governor": 7,
          "governorGloss": "schlank",
          "dependent": 9,
          "dependentGloss": "unten"
        },
        {
          "dep": "punct",
          "governor": 4,
          "governorGloss": "12-Zoll",
          "dependent": 10,
          "dependentGloss": ","
        },
        {
          "dep": "conj",
          "governor": 1,
          "governorGloss": "Bericht",
          "dependent": 11,
          "dependentGloss": "hat"
        },
        {
          "dep": "det",
          "governor": 14,
          "governorGloss": "USB-Port",
          "dependent": 12,
          "dependentGloss": "einen"
        },
        {
          "dep": "amod",
          "governor": 14,
          "governorGloss": "USB-Port",
          "dependent": 13,
          "dependentGloss": "einzigen"
        },
        {
          "dep": "dobj",
          "governor": 11,
          "governorGloss": "hat",
          "dependent": 14,
          "dependentGloss": "USB-Port"
        }
      ],
      "enhancedPlusPlusDependencies": [
        {
          "dep": "ROOT",
          "governor": 0,
          "governorGloss": "ROOT",
          "dependent": 1,
          "dependentGloss": "Bericht"
        },
        {
          "dep": "punct",
          "governor": 1,
          "governorGloss": "Bericht",
          "dependent": 2,
          "dependentGloss": ":"
        },
        {
          "dep": "amod",
          "governor": 4,
          "governorGloss": "12-Zoll",
          "dependent": 3,
          "dependentGloss": "neue"
        },
        {
          "dep": "appos",
          "governor": 1,
          "governorGloss": "Bericht",
          "dependent": 4,
          "dependentGloss": "12-Zoll"
        },
        {
          "dep": "name",
          "governor": 7,
          "governorGloss": "schlank",
          "dependent": 5,
          "dependentGloss": "MacBook"
        },
        {
          "dep": "name",
          "governor": 7,
          "governorGloss": "schlank",
          "dependent": 6,
          "dependentGloss": "Air"
        },
        {
          "dep": "appos",
          "governor": 4,
          "governorGloss": "12-Zoll",
          "dependent": 7,
          "dependentGloss": "schlank"
        },
        {
          "dep": "case",
          "governor": 9,
          "governorGloss": "unten",
          "dependent": 8,
          "dependentGloss": "nach"
        },
        {
          "dep": "nmod",
          "governor": 7,
          "governorGloss": "schlank",
          "dependent": 9,
          "dependentGloss": "unten"
        },
        {
          "dep": "punct",
          "governor": 4,
          "governorGloss": "12-Zoll",
          "dependent": 10,
          "dependentGloss": ","
        },
        {
          "dep": "conj",
          "governor": 1,
          "governorGloss": "Bericht",
          "dependent": 11,
          "dependentGloss": "hat"
        },
        {
          "dep": "det",
          "governor": 14,
          "governorGloss": "USB-Port",
          "dependent": 12,
          "dependentGloss": "einen"
        },
        {
          "dep": "amod",
          "governor": 14,
          "governorGloss": "USB-Port",
          "dependent": 13,
          "dependentGloss": "einzigen"
        },
        {
          "dep": "dobj",
          "governor": 11,
          "governorGloss": "hat",
          "dependent": 14,
          "dependentGloss": "USB-Port"
        }
      ],
      "tokens": [
        {
          "index": 1,
          "word": "Bericht",
          "originalText": "Bericht",
          "characterOffsetBegin": 0,
          "characterOffsetEnd": 7,
          "pos": "NN",
          "before": "",
          "after": ""
        },
        {
          "index": 2,
          "word": ":",
          "originalText": ":",
          "characterOffsetBegin": 7,
          "characterOffsetEnd": 8,
          "pos": "$.",
          "before": "",
          "after": " "
        },
        {
          "index": 3,
          "word": "neue",
          "originalText": "neue",
          "characterOffsetBegin": 9,
          "characterOffsetEnd": 13,
          "pos": "ADJA",
          "before": " ",
          "after": " "
        },
        {
          "index": 4,
          "word": "12-Zoll",
          "originalText": "12-Zoll",
          "characterOffsetBegin": 14,
          "characterOffsetEnd": 21,
          "pos": "NN",
          "before": " ",
          "after": " "
        },
        {
          "index": 5,
          "word": "MacBook",
          "originalText": "MacBook",
          "characterOffsetBegin": 22,
          "characterOffsetEnd": 29,
          "pos": "NE",
          "before": " ",
          "after": " "
        },
        {
          "index": 6,
          "word": "Air",
          "originalText": "Air",
          "characterOffsetBegin": 30,
          "characterOffsetEnd": 33,
          "pos": "NE",
          "before": " ",
          "after": " "
        },
        {
          "index": 7,
          "word": "schlank",
          "originalText": "schlank",
          "characterOffsetBegin": 34,
          "characterOffsetEnd": 41,
          "pos": "ADJD",
          "before": " ",
          "after": " "
        },
        {
          "index": 8,
          "word": "nach",
          "originalText": "nach",
          "characterOffsetBegin": 42,
          "characterOffsetEnd": 46,
          "pos": "APPR",
          "before": " ",
          "after": " "
        },
        {
          "index": 9,
          "word": "unten",
          "originalText": "unten",
          "characterOffsetBegin": 47,
          "characterOffsetEnd": 52,
          "pos": "ADV",
          "before": " ",
          "after": ""
        },
        {
          "index": 10,
          "word": ",",
          "originalText": ",",
          "characterOffsetBegin": 52,
          "characterOffsetEnd": 53,
          "pos": "$,",
          "before": "",
          "after": " "
        },
        {
          "index": 11,
          "word": "hat",
          "originalText": "hat",
          "characterOffsetBegin": 54,
          "characterOffsetEnd": 57,
          "pos": "VAFIN",
          "before": " ",
          "after": " "
        },
        {
          "index": 12,
          "word": "einen",
          "originalText": "einen",
          "characterOffsetBegin": 58,
          "characterOffsetEnd": 63,
          "pos": "ART",
          "before": " ",
          "after": " "
        },
        {
          "index": 13,
          "word": "einzigen",
          "originalText": "einzigen",
          "characterOffsetBegin": 64,
          "characterOffsetEnd": 72,
          "pos": "ADJA",
          "before": " ",
          "after": " "
        },
        {
          "index": 14,
          "word": "USB-Port",
          "originalText": "USB-Port",
          "characterOffsetBegin": 73,
          "characterOffsetEnd": 81,
          "pos": "NN",
          "before": " ",
          "after": ""
        }
      ]
    }
  ]
}