{
  "sentences": [
    {
      "index": 0,
      "basicDependencies": [
        {
          "dep": "ROOT",
          "governor": 0,
          "governorGloss": "ROOT",
          "dependent": 2,
          "dependentGloss": "entdeckt"
        },
        {
          "dep": "nsubj",
          "governor": 2,
          "governorGloss": "entdeckt",
          "dependent": 1,
          "dependentGloss": "Man"
        },
        {
          "dep": "dobj",
          "governor": 2,
          "governorGloss": "entdeckt",
          "dependent": 3,
          "dependentGloss": "Spinne"
        },
        {
          "dep": "case",
          "governor": 6,
          "governorGloss": "Haut",
          "dependent": 4,
          "dependentGloss": "unter"
        },
        {
          "dep": "nmod:poss",
          "governor": 6,
          "governorGloss": "Haut",
          "dependent": 5,
          "dependentGloss": "seiner"
        },
        {
          "dep": "nmod",
          "governor": 2,
          "governorGloss": "entdeckt",
          "dependent": 6,
          "dependentGloss": "Haut"
        },
        {
          "dep": "case",
          "governor": 9,
          "governorGloss": "Urlaub",
          "dependent": 7,
          "dependentGloss": "während"
        },
        {
          "dep": "name",
          "governor": 9,
          "governorGloss": "Urlaub",
          "dependent": 8,
          "dependentGloss": "Bali"
        },
        {
          "dep": "nmod",
          "governor": 2,
          "governorGloss": "entdeckt",
          "dependent": 9,
          "dependentGloss": "Urlaub"
        }
      ],
      "enhancedDependencies": [
        {
          "dep": "ROOT",
          "governor": 0,
          "governorGloss": "ROOT",
          "dependent": 2,
          "dependentGloss": "entdeckt"
        },
        {
          "dep": "nsubj",
          "governor": 2,
          "governorGloss": "entdeckt",
          "dependent": 1,
          "dependentGloss": "Man"
        },
        {
          "dep": "dobj",
          "governor": 2,
          "governorGloss": "entdeckt",
          "dependent": 3,
          "dependentGloss": "Spinne"
        },
        {
          "dep": "case",
          "governor": 6,
          "governorGloss": "Haut",
          "dependent": 4,
          "dependentGloss": "unter"
        },
        {
          "dep": "nmod:poss",
          "governor": 6,
          "governorGloss": "Haut",
          "dependent": 5,
          "dependentGloss": "seiner"
        },
        {
          "dep": "nmod",
          "governor": 2,
          "governorGloss": "entdeckt",
          "dependent": 6,
          "dependentGloss": "Haut"
        },
        {
          "dep": "case",
          "governor": 9,
          "governorGloss": "Urlaub",
          "dependent": 7,
          "dependentGloss": "während"
        },
        {
          "dep": "name",
          "governor": 9,
          "governorGloss": "Urlaub",
          "dependent": 8,
          "dependentGloss": "Bali"
        },
        {
          "dep": "nmod",
          "governor": 2,
          "governorGloss": "entdeckt",
          "dependent": 9,
          "dependentGloss": "Urlaub"
        }
      ],
      "enhancedPlusPlusDependencies": [
        {
          "dep": "ROOT",
          "governor": 0,
          "governorGloss": "ROOT",
          "dependent": 2,
          "dependentGloss": "entdeckt"
        },
        {
          "dep": "nsubj",
          "governor": 2,
          "governorGloss": "entdeckt",
          "dependent": 1,
          "dependentGloss": "Man"
        },
        {
          "dep": "dobj",
          "governor": 2,
          "governorGloss": "entdeckt",
          "dependent": 3,
          "dependentGloss": "Spinne"
        },
        {
          "dep": "case",
          "governor": 6,
          "governorGloss": "Haut",
          "dependent": 4,
          "dependentGloss": "unter"
        },
        {
          "dep": "nmod:poss",
          "governor": 6,
          "governorGloss": "Haut",
          "dependent": 5,
          "dependentGloss": "seiner"
        },
        {
          "dep": "nmod",
          "governor": 2,
          "governorGloss": "entdeckt",
          "dependent": 6,
          "dependentGloss": "Haut"
        },
        {
          "dep": "case",
          "governor": 9,
          "governorGloss": "Urlaub",
          "dependent": 7,
          "dependentGloss": "während"
        },
        {
          "dep": "name",
          "governor": 9,
          "governorGloss": "Urlaub",
          "dependent": 8,
          "dependentGloss": "Bali"
        },
        {
          "dep": "nmod",
          "governor": 2,
          "governorGloss": "entdeckt",
          "dependent": 9,
          "dependentGloss": "Urlaub"
        }
      ],
      "tokens": [
        {
          "index": 1,
          "word": "Man",
          "originalText": "Man",
          "characterOffsetBegin": 0,
          "characterOffsetEnd": 3,
          "pos": "PIS",
          "before": "",
          "after": " "
        },
        {
          "index": 2,
          "word": "entdeckt",
          "originalText": "entdeckt",
          "characterOffsetBegin": 4,
          "characterOffsetEnd": 12,
          "pos": "VVPP",
          "before": " ",
          "after": " "
        },
        {
          "index": 3,
          "word": "Spinne",
          "originalText": "Spinne",
          "characterOffsetBegin": 13,
          "characterOffsetEnd": 19,
          "pos": "NN",
          "before": " ",
          "after": " "
        },
        {
          "index": 4,
          "word": "unter",
          "originalText": "unter",
          "characterOffsetBegin": 20,
          "characterOffsetEnd": 25,
          "pos": "APPR",
          "before": " ",
          "after": " "
        },
        {
          "index": 5,
          "word": "seiner",
          "originalText": "seiner",
          "characterOffsetBegin": 26,
          "characterOffsetEnd": 32,
          "pos": "PPOSAT",
          "before": " ",
          "after": " "
        },
        {
          "index": 6,
          "word": "Haut",
          "originalText": "Haut",
          "characterOffsetBegin": 33,
          "characterOffsetEnd": 37,
          "pos": "NN",
          "before": " ",
          "after": " "
        },
        {
          "index": 7,
          "word": "während",
          "originalText": "während",
          "characterOffsetBegin": 38,
          "characterOffsetEnd": 45,
          "pos": "APPR",
          "before": " ",
          "after": " "
        },
        {
          "index": 8,
          "word": "Bali",
          "originalText": "Bali",
          "characterOffsetBegin": 46,
          "characterOffsetEnd": 50,
          "pos": "NE",
          "before": " ",
          "after": " "
        },
        {
          "index": 9,
          "word": "Urlaub",
          "originalText": "Urlaub",
          "characterOffsetBegin": 51,
          "characterOffsetEnd": 57,
          "pos": "NN",
          "before": " ",
          "after": ""
        }
      ]
    }
  ]
}