{
  "sentences": [
    {
      "index": 0,
      "basicDependencies": [
        {
          "dep": "ROOT",
          "governor": 0,
          "governorGloss": "ROOT",
          "dependent": 7,
          "dependentGloss": "Irak"
        },
        {
          "dep": "name",
          "governor": 2,
          "governorGloss": "Berichtet",
          "dependent": 1,
          "dependentGloss": "ISIS"
        },
        {
          "dep": "nsubj",
          "governor": 7,
          "governorGloss": "Irak",
          "dependent": 2,
          "dependentGloss": "Berichtet"
        },
        {
          "dep": "amod",
          "governor": 6,
          "governorGloss": "im",
          "dependent": 3,
          "dependentGloss": "Beheads"
        },
        {
          "dep": "amod",
          "governor": 5,
          "governorGloss": "Photojournalist",
          "dependent": 4,
          "dependentGloss": "American"
        },
        {
          "dep": "name",
          "governor": 6,
          "governorGloss": "im",
          "dependent": 5,
          "dependentGloss": "Photojournalist"
        },
        {
          "dep": "dobj",
          "governor": 7,
          "governorGloss": "Irak",
          "dependent": 6,
          "dependentGloss": "im"
        }
      ],
      "enhancedDependencies": [
        {
          "dep": "ROOT",
          "governor": 0,
          "governorGloss": "ROOT",
          "dependent": 7,
          "dependentGloss": "Irak"
        },
        {
          "dep": "name",
          "governor": 2,
          "governorGloss": "Berichtet",
          "dependent": 1,
          "dependentGloss": "ISIS"
        },
        {
          "dep": "nsubj",
          "governor": 7,
          "governorGloss": "Irak",
          "dependent": 2,
          "dependentGloss": "Berichtet"
        },
        {
          "dep": "amod",
          "governor": 6,
          "governorGloss": "im",
          "dependent": 3,
          "dependentGloss": "Beheads"
        },
        {
          "dep": "amod",
          "governor": 5,
          "governorGloss": "Photojournalist",
          "dependent": 4,
          "dependentGloss": "American"
        },
        {
          "dep": "name",
          "governor": 6,
          "governorGloss": "im",
          "dependent": 5,
          "dependentGloss": "Photojournalist"
        },
        {
          "dep": "dobj",
          "governor": 7,
          "governorGloss": "Irak",
          "dependent": 6,
          "dependentGloss": "im"
        }
      ],
      "enhancedPlusPlusDependencies": [
        {
          "dep": "ROOT",
          "governor": 0,
          "governorGloss": "ROOT",
          "dependent": 7,
          "dependentGloss": "Irak"
        },
        {
          "dep": "name",
          "governor": 2,
          "governorGloss": "Berichtet",
          "dependent": 1,
          "dependentGloss": "ISIS"
        },
        {
          "dep": "nsubj",
          "governor": 7,
          "governorGloss": "Irak",
          "dependent": 2,
          "dependentGloss": "Berichtet"
        },
        {
          "dep": "amod",
          "governor": 6,
          "governorGloss": "im",
          "dependent": 3,
          "dependentGloss": "Beheads"
        },
        {
          "dep": "amod",
          "governor": 5,
          "governorGloss": "Photojournalist",
          "dependent": 4,
          "dependentGloss": "American"
        },
        {
          "dep": "name",
          "governor": 6,
          "governorGloss": "im",
          "dependent": 5,
          "dependentGloss": "Photojournalist"
        },
        {
          "dep": "dobj",
          "governor": 7,
          "governorGloss": "Irak",
          "dependent": 6,
          "dependentGloss": "im"
        }
      ],
      "tokens": [
        {
          "index": 1,
          "word": "ISIS",
          "originalText": "ISIS",
          "characterOffsetBegin": 0,
          "characterOffsetEnd": 4,
          "pos": "NE",
          "before": "",
          "after": " "
        },
        {
          "index": 2,
          "word": "Berichtet",
          "originalText": "Berichtet",
          "characterOffsetBegin": 5,
          "characterOffsetEnd": 14,
          "pos": "NE",
          "before": " ",
          "after": " "
        },
        {
          "index": 3,
          "word": "Beheads",
          "originalText": "Beheads",
          "characterOffsetBegin": 15,
          "characterOffsetEnd": 22,
          "pos": "NE",
          "before": " ",
          "after": " "
        },
        {
          "index": 4,
          "word": "American",
          "originalText": "American",
          "characterOffsetBegin": 23,
          "characterOffsetEnd": 31,
          "pos": "FM",
          "before": " ",
          "after": " "
        },
        {
          "index": 5,
          "word": "Photojournalist",
          "originalText": "Photojournalist",
          "characterOffsetBegin": 32,
          "characterOffsetEnd": 47,
          "pos": "NE",
          "before": " ",
          "after": " "
        },
        {
          "index": 6,
          "word": "im",
          "originalText": "im",
          "characterOffsetBegin": 48,
          "characterOffsetEnd": 50,
          "pos": "APPRART",
          "before": " ",
          "after": " "
        },
        {
          "index": 7,
          "word": "Irak",
          "originalText": "Irak",
          "characterOffsetBegin": 51,
          "characterOffsetEnd": 55,
          "pos": "NE",
          "before": " ",
          "after": ""
        }
      ]
    }
  ]
}