{
  "sentences": [
    {
      "index": 0,
      "basicDependencies": [
        {
          "dep": "ROOT",
          "governor": 0,
          "governorGloss": "ROOT",
          "dependent": 1,
          "dependentGloss": "#Hairgate"
        },
        {
          "dep": "punct",
          "governor": 1,
          "governorGloss": "#Hairgate",
          "dependent": 2,
          "dependentGloss": ":"
        },
        {
          "dep": "advmod",
          "governor": 6,
          "governorGloss": "sagen",
          "dependent": 3,
          "dependentGloss": "iPhone"
        },
        {
          "dep": "nummod",
          "governor": 5,
          "governorGloss": "Benutzer",
          "dependent": 4,
          "dependentGloss": "6"
        },
        {
          "dep": "dobj",
          "governor": 6,
          "governorGloss": "sagen",
          "dependent": 5,
          "dependentGloss": "Benutzer"
        },
        {
          "dep": "parataxis",
          "governor": 1,
          "governorGloss": "#Hairgate",
          "dependent": 6,
          "dependentGloss": "sagen"
        },
        {
          "dep": "punct",
          "governor": 6,
          "governorGloss": "sagen",
          "dependent": 7,
          "dependentGloss": ","
        },
        {
          "dep": "dobj",
          "governor": 9,
          "governorGloss": "zieht",
          "dependent": 8,
          "dependentGloss": "Gerät"
        },
        {
          "dep": "xcomp",
          "governor": 6,
          "governorGloss": "sagen",
          "dependent": 9,
          "dependentGloss": "zieht"
        },
        {
          "dep": "punct",
          "governor": 6,
          "governorGloss": "sagen",
          "dependent": 10,
          "dependentGloss": "Haare"
        }
      ],
      "enhancedDependencies": [
        {
          "dep": "ROOT",
          "governor": 0,
          "governorGloss": "ROOT",
          "dependent": 1,
          "dependentGloss": "#Hairgate"
        },
        {
          "dep": "punct",
          "governor": 1,
          "governorGloss": "#Hairgate",
          "dependent": 2,
          "dependentGloss": ":"
        },
        {
          "dep": "advmod",
          "governor": 6,
          "governorGloss": "sagen",
          "dependent": 3,
          "dependentGloss": "iPhone"
        },
        {
          "dep": "nummod",
          "governor": 5,
          "governorGloss": "Benutzer",
          "dependent": 4,
          "dependentGloss": "6"
        },
        {
          "dep": "dobj",
          "governor": 6,
          "governorGloss": "sagen",
          "dependent": 5,
          "dependentGloss": "Benutzer"
        },
        {
          "dep": "parataxis",
          "governor": 1,
          "governorGloss": "#Hairgate",
          "dependent": 6,
          "dependentGloss": "sagen"
        },
        {
          "dep": "punct",
          "governor": 6,
          "governorGloss": "sagen",
          "dependent": 7,
          "dependentGloss": ","
        },
        {
          "dep": "dobj",
          "governor": 9,
          "governorGloss": "zieht",
          "dependent": 8,
          "dependentGloss": "Gerät"
        },
        {
          "dep": "xcomp",
          "governor": 6,
          "governorGloss": "sagen",
          "dependent": 9,
          "dependentGloss": "zieht"
        },
        {
          "dep": "punct",
          "governor": 6,
          "governorGloss": "sagen",
          "dependent": 10,
          "dependentGloss": "Haare"
        }
      ],
      "enhancedPlusPlusDependencies": [
        {
          "dep": "ROOT",
          "governor": 0,
          "governorGloss": "ROOT",
          "dependent": 1,
          "dependentGloss": "#Hairgate"
        },
        {
          "dep": "punct",
          "governor": 1,
          "governorGloss": "#Hairgate",
          "dependent": 2,
          "dependentGloss": ":"
        },
        {
          "dep": "advmod",
          "governor": 6,
          "governorGloss": "sagen",
          "dependent": 3,
          "dependentGloss": "iPhone"
        },
        {
          "dep": "nummod",
          "governor": 5,
          "governorGloss": "Benutzer",
          "dependent": 4,
          "dependentGloss": "6"
        },
        {
          "dep": "dobj",
          "governor": 6,
          "governorGloss": "sagen",
          "dependent": 5,
          "dependentGloss": "Benutzer"
        },
        {
          "dep": "parataxis",
          "governor": 1,
          "governorGloss": "#Hairgate",
          "dependent": 6,
          "dependentGloss": "sagen"
        },
        {
          "dep": "punct",
          "governor": 6,
          "governorGloss": "sagen",
          "dependent": 7,
          "dependentGloss": ","
        },
        {
          "dep": "dobj",
          "governor": 9,
          "governorGloss": "zieht",
          "dependent": 8,
          "dependentGloss": "Gerät"
        },
        {
          "dep": "xcomp",
          "governor": 6,
          "governorGloss": "sagen",
          "dependent": 9,
          "dependentGloss": "zieht"
        },
        {
          "dep": "punct",
          "governor": 6,
          "governorGloss": "sagen",
          "dependent": 10,
          "dependentGloss": "Haare"
        }
      ],
      "tokens": [
        {
          "index": 1,
          "word": "#Hairgate",
          "originalText": "#Hairgate",
          "characterOffsetBegin": 0,
          "characterOffsetEnd": 9,
          "pos": "NN",
          "before": "",
          "after": ""
        },
        {
          "index": 2,
          "word": ":",
          "originalText": ":",
          "characterOffsetBegin": 9,
          "characterOffsetEnd": 10,
          "pos": "$.",
          "before": "",
          "after": " "
        },
        {
          "index": 3,
          "word": "iPhone",
          "originalText": "iPhone",
          "characterOffsetBegin": 11,
          "characterOffsetEnd": 17,
          "pos": "NN",
          "before": " ",
          "after": " "
        },
        {
          "index": 4,
          "word": "6",
          "originalText": "6",
          "characterOffsetBegin": 18,
          "characterOffsetEnd": 19,
          "pos": "CARD",
          "before": " ",
          "after": " "
        },
        {
          "index": 5,
          "word": "Benutzer",
          "originalText": "Benutzer",
          "characterOffsetBegin": 20,
          "characterOffsetEnd": 28,
          "pos": "NN",
          "before": " ",
          "after": " "
        },
        {
          "index": 6,
          "word": "sagen",
          "originalText": "sagen",
          "characterOffsetBegin": 29,
          "characterOffsetEnd": 34,
          "pos": "VVINF",
          "before": " ",
          "after": ""
        },
        {
          "index": 7,
          "word": ",",
          "originalText": ",",
          "characterOffsetBegin": 34,
          "characterOffsetEnd": 35,
          "pos": "$,",
          "before": "",
          "after": " "
        },
        {
          "index": 8,
          "word": "Gerät",
          "originalText": "Gerät",
          "characterOffsetBegin": 36,
          "characterOffsetEnd": 41,
          "pos": "VVFIN",
          "before": " ",
          "after": " "
        },
        {
          "index": 9,
          "word": "zieht",
          "originalText": "zieht",
          "characterOffsetBegin": 42,
          "characterOffsetEnd": 47,
          "pos": "VVFIN",
          "before": " ",
          "after": " "
        },
        {
          "index": 10,
          "word": "Haare",
          "originalText": "Haare",
          "characterOffsetBegin": 48,
          "characterOffsetEnd": 53,
          "pos": "NN",
          "before": " ",
          "after": ""
        }
      ]
    }
  ]
}