{
  "sentences": [
    {
      "index": 0,
      "basicDependencies": [
        {
          "dep": "ROOT",
          "governor": 0,
          "governorGloss": "ROOT",
          "dependent": 12,
          "dependentGloss": "zurückgezogen"
        },
        {
          "dep": "name",
          "governor": 3,
          "governorGloss": "PED",
          "dependent": 1,
          "dependentGloss": "Tiger"
        },
        {
          "dep": "name",
          "governor": 3,
          "governorGloss": "PED",
          "dependent": 2,
          "dependentGloss": "Woods"
        },
        {
          "dep": "nsubj",
          "governor": 12,
          "governorGloss": "zurückgezogen",
          "dependent": 3,
          "dependentGloss": "PED"
        },
        {
          "dep": "punct",
          "governor": 3,
          "governorGloss": "PED",
          "dependent": 4,
          "dependentGloss": ","
        },
        {
          "dep": "name",
          "governor": 6,
          "governorGloss": "Tour",
          "dependent": 5,
          "dependentGloss": "PGA"
        },
        {
          "dep": "appos",
          "governor": 3,
          "governorGloss": "PED",
          "dependent": 6,
          "dependentGloss": "Tour"
        },
        {
          "dep": "name",
          "governor": 8,
          "governorGloss": "Vorwürfe",
          "dependent": 7,
          "dependentGloss": "Suspension"
        },
        {
          "dep": "appos",
          "governor": 6,
          "governorGloss": "Tour",
          "dependent": 8,
          "dependentGloss": "Vorwürfe"
        },
        {
          "dep": "case",
          "governor": 11,
          "governorGloss": "Olsen",
          "dependent": 9,
          "dependentGloss": "von"
        },
        {
          "dep": "name",
          "governor": 11,
          "governorGloss": "Olsen",
          "dependent": 10,
          "dependentGloss": "Dan"
        },
        {
          "dep": "nmod",
          "governor": 6,
          "governorGloss": "Tour",
          "dependent": 11,
          "dependentGloss": "Olsen"
        }
      ],
      "enhancedDependencies": [
        {
          "dep": "ROOT",
          "governor": 0,
          "governorGloss": "ROOT",
          "dependent": 12,
          "dependentGloss": "zurückgezogen"
        },
        {
          "dep": "name",
          "governor": 3,
          "governorGloss": "PED",
          "dependent": 1,
          "dependentGloss": "Tiger"
        },
        {
          "dep": "name",
          "governor": 3,
          "governorGloss": "PED",
          "dependent": 2,
          "dependentGloss": "Woods"
        },
        {
          "dep": "nsubj",
          "governor": 12,
          "governorGloss": "zurückgezogen",
          "dependent": 3,
          "dependentGloss": "PED"
        },
        {
          "dep": "punct",
          "governor": 3,
          "governorGloss": "PED",
          "dependent": 4,
          "dependentGloss": ","
        },
        {
          "dep": "name",
          "governor": 6,
          "governorGloss": "Tour",
          "dependent": 5,
          "dependentGloss": "PGA"
        },
        {
          "dep": "appos",
          "governor": 3,
          "governorGloss": "PED",
          "dependent": 6,
          "dependentGloss": "Tour"
        },
        {
          "dep": "name",
          "governor": 8,
          "governorGloss": "Vorwürfe",
          "dependent": 7,
          "dependentGloss": "Suspension"
        },
        {
          "dep": "appos",
          "governor": 6,
          "governorGloss": "Tour",
          "dependent": 8,
          "dependentGloss": "Vorwürfe"
        },
        {
          "dep": "case",
          "governor": 11,
          "governorGloss": "Olsen",
          "dependent": 9,
          "dependentGloss": "von"
        },
        {
          "dep": "name",
          "governor": 11,
          "governorGloss": "Olsen",
          "dependent": 10,
          "dependentGloss": "Dan"
        },
        {
          "dep": "nmod",
          "governor": 6,
          "governorGloss": "Tour",
          "dependent": 11,
          "dependentGloss": "Olsen"
        }
      ],
      "enhancedPlusPlusDependencies": [
        {
          "dep": "ROOT",
          "governor": 0,
          "governorGloss": "ROOT",
          "dependent": 12,
          "dependentGloss": "zurückgezogen"
        },
        {
          "dep": "name",
          "governor": 3,
          "governorGloss": "PED",
          "dependent": 1,
          "dependentGloss": "Tiger"
        },
        {
          "dep": "name",
          "governor": 3,
          "governorGloss": "PED",
          "dependent": 2,
          "dependentGloss": "Woods"
        },
        {
          "dep": "nsubj",
          "governor": 12,
          "governorGloss": "zurückgezogen",
          "dependent": 3,
          "dependentGloss": "PED"
        },
        {
          "dep": "punct",
          "governor": 3,
          "governorGloss": "PED",
          "dependent": 4,
          "dependentGloss": ","
        },
        {
          "dep": "name",
          "governor": 6,
          "governorGloss": "Tour",
          "dependent": 5,
          "dependentGloss": "PGA"
        },
        {
          "dep": "appos",
          "governor": 3,
          "governorGloss": "PED",
          "dependent": 6,
          "dependentGloss": "Tour"
        },
        {
          "dep": "name",
          "governor": 8,
          "governorGloss": "Vorwürfe",
          "dependent": 7,
          "dependentGloss": "Suspension"
        },
        {
          "dep": "appos",
          "governor": 6,
          "governorGloss": "Tour",
          "dependent": 8,
          "dependentGloss": "Vorwürfe"
        },
        {
          "dep": "case",
          "governor": 11,
          "governorGloss": "Olsen",
          "dependent": 9,
          "dependentGloss": "von"
        },
        {
          "dep": "name",
          "governor": 11,
          "governorGloss": "Olsen",
          "dependent": 10,
          "dependentGloss": "Dan"
        },
        {
          "dep": "nmod",
          "governor": 6,
          "governorGloss": "Tour",
          "dependent": 11,
          "dependentGloss": "Olsen"
        }
      ],
      "tokens": [
        {
          "index": 1,
          "word": "Tiger",
          "originalText": "Tiger",
          "characterOffsetBegin": 0,
          "characterOffsetEnd": 5,
          "pos": "NE",
          "before": "",
          "after": " "
        },
        {
          "index": 2,
          "word": "Woods",
          "originalText": "Woods",
          "characterOffsetBegin": 6,
          "characterOffsetEnd": 11,
          "pos": "NE",
          "before": " ",
          "after": " "
        },
        {
          "index": 3,
          "word": "PED",
          "originalText": "PED",
          "characterOffsetBegin": 12,
          "characterOffsetEnd": 15,
          "pos": "NE",
          "before": " ",
          "after": ""
        },
        {
          "index": 4,
          "word": ",",
          "originalText": ",",
          "characterOffsetBegin": 15,
          "characterOffsetEnd": 16,
          "pos": "$,",
          "before": "",
          "after": " "
        },
        {
          "index": 5,
          "word": "PGA",
          "originalText": "PGA",
          "characterOffsetBegin": 17,
          "characterOffsetEnd": 20,
          "pos": "NE",
          "before": " ",
          "after": " "
        },
        {
          "index": 6,
          "word": "Tour",
          "originalText": "Tour",
          "characterOffsetBegin": 21,
          "characterOffsetEnd": 25,
          "pos": "NN",
          "before": " ",
          "after": " "
        },
        {
          "index": 7,
          "word": "Suspension",
          "originalText": "Suspension",
          "characterOffsetBegin": 26,
          "characterOffsetEnd": 36,
          "pos": "NN",
          "before": " ",
          "after": " "
        },
        {
          "index": 8,
          "word": "Vorwürfe",
          "originalText": "Vorwürfe",
          "characterOffsetBegin": 37,
          "characterOffsetEnd": 45,
          "pos": "NN",
          "before": " ",
          "after": " "
        },
        {
          "index": 9,
          "word": "von",
          "originalText": "von",
          "characterOffsetBegin": 46,
          "characterOffsetEnd": 49,
          "pos": "APPR",
          "before": " ",
          "after": " "
        },
        {
          "index": 10,
          "word": "Dan",
          "originalText": "Dan",
          "characterOffsetBegin": 50,
          "characterOffsetEnd": 53,
          "pos": "NE",
          "before": " ",
          "after": " "
        },
        {
          "index": 11,
          "word": "Olsen",
          "originalText": "Olsen",
          "characterOffsetBegin": 54,
          "characterOffsetEnd": 59,
          "pos": "NE",
          "before": " ",
          "after": " "
        },
        {
          "index": 12,
          "word": "zurückgezogen",
          "originalText": "zurückgezogen",
          "characterOffsetBegin": 60,
          "characterOffsetEnd": 73,
          "pos": "VVPP",
          "before": " ",
          "after": ""
        }
      ]
    }
  ]
}