{
  "sentences": [
    {
      "index": 0,
      "basicDependencies": [
        {
          "dep": "ROOT",
          "governor": 0,
          "governorGloss": "ROOT",
          "dependent": 6,
          "dependentGloss": "zeigt"
        },
        {
          "dep": "name",
          "governor": 2,
          "governorGloss": "Phelps",
          "dependent": 1,
          "dependentGloss": "Michael"
        },
        {
          "dep": "det",
          "governor": 4,
          "governorGloss": "Freundin",
          "dependent": 2,
          "dependentGloss": "Phelps"
        },
        {
          "dep": "punct",
          "governor": 2,
          "governorGloss": "Phelps",
          "dependent": 3,
          "dependentGloss": "''"
        },
        {
          "dep": "nsubj",
          "governor": 6,
          "governorGloss": "zeigt",
          "dependent": 4,
          "dependentGloss": "Freundin"
        },
        {
          "dep": "aux",
          "governor": 6,
          "governorGloss": "zeigt",
          "dependent": 5,
          "dependentGloss": "`"
        },
        {
          "dep": "punct",
          "governor": 6,
          "governorGloss": "zeigt",
          "dependent": 7,
          "dependentGloss": ","
        },
        {
          "dep": "mark",
          "governor": 12,
          "governorGloss": "geboren",
          "dependent": 8,
          "dependentGloss": "dass"
        },
        {
          "dep": "nsubj",
          "governor": 12,
          "governorGloss": "geboren",
          "dependent": 9,
          "dependentGloss": "sie"
        },
        {
          "dep": "det",
          "governor": 11,
          "governorGloss": "Mann",
          "dependent": 10,
          "dependentGloss": "ein"
        },
        {
          "dep": "dobj",
          "governor": 12,
          "governorGloss": "geboren",
          "dependent": 11,
          "dependentGloss": "Mann"
        },
        {
          "dep": "ccomp",
          "governor": 6,
          "governorGloss": "zeigt",
          "dependent": 12,
          "dependentGloss": "geboren"
        },
        {
          "dep": "auxpass",
          "governor": 12,
          "governorGloss": "geboren",
          "dependent": 13,
          "dependentGloss": "wurde"
        },
        {
          "dep": "punct",
          "governor": 12,
          "governorGloss": "geboren",
          "dependent": 14,
          "dependentGloss": "-"
        },
        {
          "dep": "cc",
          "governor": 12,
          "governorGloss": "geboren",
          "dependent": 15,
          "dependentGloss": "und"
        },
        {
          "dep": "conj",
          "governor": 12,
          "governorGloss": "geboren",
          "dependent": 16,
          "dependentGloss": "sagte"
        },
        {
          "dep": "case",
          "governor": 19,
          "governorGloss": "Schwimmer",
          "dependent": 17,
          "dependentGloss": "niemals"
        },
        {
          "dep": "det",
          "governor": 19,
          "governorGloss": "Schwimmer",
          "dependent": 18,
          "dependentGloss": "dem"
        },
        {
          "dep": "nmod",
          "governor": 12,
          "governorGloss": "geboren",
          "dependent": 19,
          "dependentGloss": "Schwimmer"
        }
      ],
      "enhancedDependencies": [
        {
          "dep": "ROOT",
          "governor": 0,
          "governorGloss": "ROOT",
          "dependent": 6,
          "dependentGloss": "zeigt"
        },
        {
          "dep": "name",
          "governor": 2,
          "governorGloss": "Phelps",
          "dependent": 1,
          "dependentGloss": "Michael"
        },
        {
          "dep": "det",
          "governor": 4,
          "governorGloss": "Freundin",
          "dependent": 2,
          "dependentGloss": "Phelps"
        },
        {
          "dep": "punct",
          "governor": 2,
          "governorGloss": "Phelps",
          "dependent": 3,
          "dependentGloss": "''"
        },
        {
          "dep": "nsubj",
          "governor": 6,
          "governorGloss": "zeigt",
          "dependent": 4,
          "dependentGloss": "Freundin"
        },
        {
          "dep": "aux",
          "governor": 6,
          "governorGloss": "zeigt",
          "dependent": 5,
          "dependentGloss": "`"
        },
        {
          "dep": "punct",
          "governor": 6,
          "governorGloss": "zeigt",
          "dependent": 7,
          "dependentGloss": ","
        },
        {
          "dep": "mark",
          "governor": 12,
          "governorGloss": "geboren",
          "dependent": 8,
          "dependentGloss": "dass"
        },
        {
          "dep": "nsubj",
          "governor": 12,
          "governorGloss": "geboren",
          "dependent": 9,
          "dependentGloss": "sie"
        },
        {
          "dep": "det",
          "governor": 11,
          "governorGloss": "Mann",
          "dependent": 10,
          "dependentGloss": "ein"
        },
        {
          "dep": "dobj",
          "governor": 12,
          "governorGloss": "geboren",
          "dependent": 11,
          "dependentGloss": "Mann"
        },
        {
          "dep": "ccomp",
          "governor": 6,
          "governorGloss": "zeigt",
          "dependent": 12,
          "dependentGloss": "geboren"
        },
        {
          "dep": "auxpass",
          "governor": 12,
          "governorGloss": "geboren",
          "dependent": 13,
          "dependentGloss": "wurde"
        },
        {
          "dep": "punct",
          "governor": 12,
          "governorGloss": "geboren",
          "dependent": 14,
          "dependentGloss": "-"
        },
        {
          "dep": "cc",
          "governor": 12,
          "governorGloss": "geboren",
          "dependent": 15,
          "dependentGloss": "und"
        },
        {
          "dep": "ccomp",
          "governor": 6,
          "governorGloss": "zeigt",
          "dependent": 16,
          "dependentGloss": "sagte"
        },
        {
          "dep": "conj:und",
          "governor": 12,
          "governorGloss": "geboren",
          "dependent": 16,
          "dependentGloss": "sagte"
        },
        {
          "dep": "case",
          "governor": 19,
          "governorGloss": "Schwimmer",
          "dependent": 17,
          "dependentGloss": "niemals"
        },
        {
          "dep": "det",
          "governor": 19,
          "governorGloss": "Schwimmer",
          "dependent": 18,
          "dependentGloss": "dem"
        },
        {
          "dep": "nmod",
          "governor": 12,
          "governorGloss": "geboren",
          "dependent": 19,
          "dependentGloss": "Schwimmer"
        }
      ],
      "enhancedPlusPlusDependencies": [
        {
          "dep": "ROOT",
          "governor": 0,
          "governorGloss": "ROOT",
          "dependent": 6,
          "dependentGloss": "zeigt"
        },
        {
          "dep": "name",
          "governor": 2,
          "governorGloss": "Phelps",
          "dependent": 1,
          "dependentGloss": "Michael"
        },
        {
          "dep": "det",
          "governor": 4,
          "governorGloss": "Freundin",
          "dependent": 2,
          "dependentGloss": "Phelps"
        },
        {
          "dep": "punct",
          "governor": 2,
          "governorGloss": "Phelps",
          "dependent": 3,
          "dependentGloss": "''"
        },
        {
          "dep": "nsubj",
          "governor": 6,
          "governorGloss": "zeigt",
          "dependent": 4,
          "dependentGloss": "Freundin"
        },
        {
          "dep": "aux",
          "governor": 6,
          "governorGloss": "zeigt",
          "dependent": 5,
          "dependentGloss": "`"
        },
        {
          "dep": "punct",
          "governor": 6,
          "governorGloss": "zeigt",
          "dependent": 7,
          "dependentGloss": ","
        },
        {
          "dep": "mark",
          "governor": 12,
          "governorGloss": "geboren",
          "dependent": 8,
          "dependentGloss": "dass"
        },
        {
          "dep": "nsubj",
          "governor": 12,
          "governorGloss": "geboren",
          "dependent": 9,
          "dependentGloss": "sie"
        },
        {
          "dep": "det",
          "governor": 11,
          "governorGloss": "Mann",
          "dependent": 10,
          "dependentGloss": "ein"
        },
        {
          "dep": "dobj",
          "governor": 12,
          "governorGloss": "geboren",
          "dependent": 11,
          "dependentGloss": "Mann"
        },
        {
          "dep": "ccomp",
          "governor": 6,
          "governorGloss": "zeigt",
          "dependent": 12,
          "dependentGloss": "geboren"
        },
        {
          "dep": "auxpass",
          "governor": 12,
          "governorGloss": "geboren",
          "dependent": 13,
          "dependentGloss": "wurde"
        },
        {
          "dep": "punct",
          "governor": 12,
          "governorGloss": "geboren",
          "dependent": 14,
          "dependentGloss": "-"
        },
        {
          "dep": "cc",
          "governor": 12,
          "governorGloss": "geboren",
          "dependent": 15,
          "dependentGloss": "und"
        },
        {
          "dep": "ccomp",
          "governor": 6,
          "governorGloss": "zeigt",
          "dependent": 16,
          "dependentGloss": "sagte"
        },
        {
          "dep": "conj:und",
          "governor": 12,
          "governorGloss": "geboren",
          "dependent": 16,
          "dependentGloss": "sagte"
        },
        {
          "dep": "case",
          "governor": 19,
          "governorGloss": "Schwimmer",
          "dependent": 17,
          "dependentGloss": "niemals"
        },
        {
          "dep": "det",
          "governor": 19,
          "governorGloss": "Schwimmer",
          "dependent": 18,
          "dependentGloss": "dem"
        },
        {
          "dep": "nmod",
          "governor": 12,
          "governorGloss": "geboren",
          "dependent": 19,
          "dependentGloss": "Schwimmer"
        }
      ],
      "tokens": [
        {
          "index": 1,
          "word": "Michael",
          "originalText": "Michael",
          "characterOffsetBegin": 0,
          "characterOffsetEnd": 7,
          "pos": "NE",
          "before": "",
          "after": " "
        },
        {
          "index": 2,
          "word": "Phelps",
          "originalText": "Phelps",
          "characterOffsetBegin": 8,
          "characterOffsetEnd": 14,
          "pos": "NE",
          "before": " ",
          "after": " "
        },
        {
          "index": 3,
          "word": "''",
          "originalText": "''",
          "characterOffsetBegin": 15,
          "characterOffsetEnd": 17,
          "pos": "CARD",
          "before": " ",
          "after": " "
        },
        {
          "index": 4,
          "word": "Freundin",
          "originalText": "Freundin",
          "characterOffsetBegin": 18,
          "characterOffsetEnd": 26,
          "pos": "NN",
          "before": " ",
          "after": " "
        },
        {
          "index": 5,
          "word": "`",
          "originalText": "'",
          "characterOffsetBegin": 27,
          "characterOffsetEnd": 28,
          "pos": "CARD",
          "before": " ",
          "after": ""
        },
        {
          "index": 6,
          "word": "zeigt",
          "originalText": "zeigt",
          "characterOffsetBegin": 28,
          "characterOffsetEnd": 33,
          "pos": "VVFIN",
          "before": "",
          "after": ""
        },
        {
          "index": 7,
          "word": ",",
          "originalText": ",",
          "characterOffsetBegin": 33,
          "characterOffsetEnd": 34,
          "pos": "$,",
          "before": "",
          "after": " "
        },
        {
          "index": 8,
          "word": "dass",
          "originalText": "dass",
          "characterOffsetBegin": 35,
          "characterOffsetEnd": 39,
          "pos": "KOUS",
          "before": " ",
          "after": " "
        },
        {
          "index": 9,
          "word": "sie",
          "originalText": "sie",
          "characterOffsetBegin": 40,
          "characterOffsetEnd": 43,
          "pos": "PPER",
          "before": " ",
          "after": " "
        },
        {
          "index": 10,
          "word": "ein",
          "originalText": "ein",
          "characterOffsetBegin": 44,
          "characterOffsetEnd": 47,
          "pos": "ART",
          "before": " ",
          "after": " "
        },
        {
          "index": 11,
          "word": "Mann",
          "originalText": "Mann",
          "characterOffsetBegin": 48,
          "characterOffsetEnd": 52,
          "pos": "NN",
          "before": " ",
          "after": " "
        },
        {
          "index": 12,
          "word": "geboren",
          "originalText": "geboren",
          "characterOffsetBegin": 53,
          "characterOffsetEnd": 60,
          "pos": "VVPP",
          "before": " ",
          "after": " "
        },
        {
          "index": 13,
          "word": "wurde",
          "originalText": "wurde",
          "characterOffsetBegin": 61,
          "characterOffsetEnd": 66,
          "pos": "VAFIN",
          "before": " ",
          "after": " "
        },
        {
          "index": 14,
          "word": "-",
          "originalText": "-",
          "characterOffsetBegin": 67,
          "characterOffsetEnd": 68,
          "pos": "$[",
          "before": " ",
          "after": " "
        },
        {
          "index": 15,
          "word": "und",
          "originalText": "und",
          "characterOffsetBegin": 69,
          "characterOffsetEnd": 72,
          "pos": "KON",
          "before": " ",
          "after": " "
        },
        {
          "index": 16,
          "word": "sagte",
          "originalText": "sagte",
          "characterOffsetBegin": 73,
          "characterOffsetEnd": 78,
          "pos": "VVFIN",
          "before": " ",
          "after": " "
        },
        {
          "index": 17,
          "word": "niemals",
          "originalText": "niemals",
          "characterOffsetBegin": 79,
          "characterOffsetEnd": 86,
          "pos": "ADV",
          "before": " ",
          "after": " "
        },
        {
          "index": 18,
          "word": "dem",
          "originalText": "dem",
          "characterOffsetBegin": 87,
          "characterOffsetEnd": 90,
          "pos": "ART",
          "before": " ",
          "after": " "
        },
        {
          "index": 19,
          "word": "Schwimmer",
          "originalText": "Schwimmer",
          "characterOffsetBegin": 91,
          "characterOffsetEnd": 100,
          "pos": "NN",
          "before": " ",
          "after": ""
        }
      ]
    }
  ]
}