{
  "sentences": [
    {
      "index": 0,
      "basicDependencies": [
        {
          "dep": "ROOT",
          "governor": 0,
          "governorGloss": "ROOT",
          "dependent": 2,
          "dependentGloss": "gefunden"
        },
        {
          "dep": "nsubj",
          "governor": 2,
          "governorGloss": "gefunden",
          "dependent": 1,
          "dependentGloss": "Massengrab"
        },
        {
          "dep": "case",
          "governor": 5,
          "governorGloss": "Studenten",
          "dependent": 3,
          "dependentGloss": "nach"
        },
        {
          "dep": "nummod",
          "governor": 5,
          "governorGloss": "Studenten",
          "dependent": 4,
          "dependentGloss": "40"
        },
        {
          "dep": "nmod",
          "governor": 2,
          "governorGloss": "gefunden",
          "dependent": 5,
          "dependentGloss": "Studenten"
        },
        {
          "dep": "amod",
          "governor": 7,
          "governorGloss": "im",
          "dependent": 6,
          "dependentGloss": "verschwinden"
        },
        {
          "dep": "dobj",
          "governor": 2,
          "governorGloss": "gefunden",
          "dependent": 7,
          "dependentGloss": "im"
        },
        {
          "dep": "amod",
          "governor": 9,
          "governorGloss": "Protest",
          "dependent": 8,
          "dependentGloss": "mexikanischen"
        },
        {
          "dep": "dobj",
          "governor": 2,
          "governorGloss": "gefunden",
          "dependent": 9,
          "dependentGloss": "Protest"
        }
      ],
      "enhancedDependencies": [
        {
          "dep": "ROOT",
          "governor": 0,
          "governorGloss": "ROOT",
          "dependent": 2,
          "dependentGloss": "gefunden"
        },
        {
          "dep": "nsubj",
          "governor": 2,
          "governorGloss": "gefunden",
          "dependent": 1,
          "dependentGloss": "Massengrab"
        },
        {
          "dep": "case",
          "governor": 5,
          "governorGloss": "Studenten",
          "dependent": 3,
          "dependentGloss": "nach"
        },
        {
          "dep": "nummod",
          "governor": 5,
          "governorGloss": "Studenten",
          "dependent": 4,
          "dependentGloss": "40"
        },
        {
          "dep": "nmod",
          "governor": 2,
          "governorGloss": "gefunden",
          "dependent": 5,
          "dependentGloss": "Studenten"
        },
        {
          "dep": "amod",
          "governor": 7,
          "governorGloss": "im",
          "dependent": 6,
          "dependentGloss": "verschwinden"
        },
        {
          "dep": "dobj",
          "governor": 2,
          "governorGloss": "gefunden",
          "dependent": 7,
          "dependentGloss": "im"
        },
        {
          "dep": "amod",
          "governor": 9,
          "governorGloss": "Protest",
          "dependent": 8,
          "dependentGloss": "mexikanischen"
        },
        {
          "dep": "dobj",
          "governor": 2,
          "governorGloss": "gefunden",
          "dependent": 9,
          "dependentGloss": "Protest"
        }
      ],
      "enhancedPlusPlusDependencies": [
        {
          "dep": "ROOT",
          "governor": 0,
          "governorGloss": "ROOT",
          "dependent": 2,
          "dependentGloss": "gefunden"
        },
        {
          "dep": "nsubj",
          "governor": 2,
          "governorGloss": "gefunden",
          "dependent": 1,
          "dependentGloss": "Massengrab"
        },
        {
          "dep": "case",
          "governor": 5,
          "governorGloss": "Studenten",
          "dependent": 3,
          "dependentGloss": "nach"
        },
        {
          "dep": "nummod",
          "governor": 5,
          "governorGloss": "Studenten",
          "dependent": 4,
          "dependentGloss": "40"
        },
        {
          "dep": "nmod",
          "governor": 2,
          "governorGloss": "gefunden",
          "dependent": 5,
          "dependentGloss": "Studenten"
        },
        {
          "dep": "amod",
          "governor": 7,
          "governorGloss": "im",
          "dependent": 6,
          "dependentGloss": "verschwinden"
        },
        {
          "dep": "dobj",
          "governor": 2,
          "governorGloss": "gefunden",
          "dependent": 7,
          "dependentGloss": "im"
        },
        {
          "dep": "amod",
          "governor": 9,
          "governorGloss": "Protest",
          "dependent": 8,
          "dependentGloss": "mexikanischen"
        },
        {
          "dep": "dobj",
          "governor": 2,
          "governorGloss": "gefunden",
          "dependent": 9,
          "dependentGloss": "Protest"
        }
      ],
      "tokens": [
        {
          "index": 1,
          "word": "Massengrab",
          "originalText": "Massengrab",
          "characterOffsetBegin": 0,
          "characterOffsetEnd": 10,
          "pos": "NN",
          "before": "",
          "after": " "
        },
        {
          "index": 2,
          "word": "gefunden",
          "originalText": "gefunden",
          "characterOffsetBegin": 11,
          "characterOffsetEnd": 19,
          "pos": "VVPP",
          "before": " ",
          "after": " "
        },
        {
          "index": 3,
          "word": "nach",
          "originalText": "nach",
          "characterOffsetBegin": 20,
          "characterOffsetEnd": 24,
          "pos": "APPR",
          "before": " ",
          "after": " "
        },
        {
          "index": 4,
          "word": "40",
          "originalText": "40",
          "characterOffsetBegin": 25,
          "characterOffsetEnd": 27,
          "pos": "CARD",
          "before": " ",
          "after": " "
        },
        {
          "index": 5,
          "word": "Studenten",
          "originalText": "Studenten",
          "characterOffsetBegin": 28,
          "characterOffsetEnd": 37,
          "pos": "NN",
          "before": " ",
          "after": " "
        },
        {
          "index": 6,
          "word": "verschwinden",
          "originalText": "verschwinden",
          "characterOffsetBegin": 38,
          "characterOffsetEnd": 50,
          "pos": "VVFIN",
          "before": " ",
          "after": " "
        },
        {
          "index": 7,
          "word": "im",
          "originalText": "im",
          "characterOffsetBegin": 51,
          "characterOffsetEnd": 53,
          "pos": "APPRART",
          "before": " ",
          "after": " "
        },
        {
          "index": 8,
          "word": "mexikanischen",
          "originalText": "mexikanischen",
          "characterOffsetBegin": 54,
          "characterOffsetEnd": 67,
          "pos": "ADJA",
          "before": " ",
          "after": " "
        },
        {
          "index": 9,
          "word": "Protest",
          "originalText": "Protest",
          "characterOffsetBegin": 68,
          "characterOffsetEnd": 75,
          "pos": "NN",
          "before": " ",
          "after": ""
        }
      ]
    }
  ]
}