{
  "sentences": [
    {
      "index": 0,
      "basicDependencies": [
        {
          "dep": "ROOT",
          "governor": 0,
          "governorGloss": "ROOT",
          "dependent": 2,
          "dependentGloss": "Spiderman"
        },
        {
          "dep": "punct",
          "governor": 2,
          "governorGloss": "Spiderman",
          "dependent": 1,
          "dependentGloss": "``"
        },
        {
          "dep": "punct",
          "governor": 4,
          "governorGloss": "gequetscht",
          "dependent": 3,
          "dependentGloss": "``"
        },
        {
          "dep": "appos",
          "governor": 2,
          "governorGloss": "Spiderman",
          "dependent": 4,
          "dependentGloss": "gequetscht"
        },
        {
          "dep": "punct",
          "governor": 4,
          "governorGloss": "gequetscht",
          "dependent": 5,
          "dependentGloss": ":"
        },
        {
          "dep": "amod",
          "governor": 8,
          "governorGloss": "Spinne",
          "dependent": 6,
          "dependentGloss": "Perth-Experten"
        },
        {
          "dep": "amod",
          "governor": 8,
          "governorGloss": "Spinne",
          "dependent": 7,
          "dependentGloss": "entlarvt"
        },
        {
          "dep": "appos",
          "governor": 4,
          "governorGloss": "gequetscht",
          "dependent": 8,
          "dependentGloss": "Spinne"
        }
      ],
      "enhancedDependencies": [
        {
          "dep": "ROOT",
          "governor": 0,
          "governorGloss": "ROOT",
          "dependent": 2,
          "dependentGloss": "Spiderman"
        },
        {
          "dep": "punct",
          "governor": 2,
          "governorGloss": "Spiderman",
          "dependent": 1,
          "dependentGloss": "``"
        },
        {
          "dep": "punct",
          "governor": 4,
          "governorGloss": "gequetscht",
          "dependent": 3,
          "dependentGloss": "``"
        },
        {
          "dep": "appos",
          "governor": 2,
          "governorGloss": "Spiderman",
          "dependent": 4,
          "dependentGloss": "gequetscht"
        },
        {
          "dep": "punct",
          "governor": 4,
          "governorGloss": "gequetscht",
          "dependent": 5,
          "dependentGloss": ":"
        },
        {
          "dep": "amod",
          "governor": 8,
          "governorGloss": "Spinne",
          "dependent": 6,
          "dependentGloss": "Perth-Experten"
        },
        {
          "dep": "amod",
          "governor": 8,
          "governorGloss": "Spinne",
          "dependent": 7,
          "dependentGloss": "entlarvt"
        },
        {
          "dep": "appos",
          "governor": 4,
          "governorGloss": "gequetscht",
          "dependent": 8,
          "dependentGloss": "Spinne"
        }
      ],
      "enhancedPlusPlusDependencies": [
        {
          "dep": "ROOT",
          "governor": 0,
          "governorGloss": "ROOT",
          "dependent": 2,
          "dependentGloss": "Spiderman"
        },
        {
          "dep": "punct",
          "governor": 2,
          "governorGloss": "Spiderman",
          "dependent": 1,
          "dependentGloss": "``"
        },
        {
          "dep": "punct",
          "governor": 4,
          "governorGloss": "gequetscht",
          "dependent": 3,
          "dependentGloss": "``"
        },
        {
          "dep": "appos",
          "governor": 2,
          "governorGloss": "Spiderman",
          "dependent": 4,
          "dependentGloss": "gequetscht"
        },
        {
          "dep": "punct",
          "governor": 4,
          "governorGloss": "gequetscht",
          "dependent": 5,
          "dependentGloss": ":"
        },
        {
          "dep": "amod",
          "governor": 8,
          "governorGloss": "Spinne",
          "dependent": 6,
          "dependentGloss": "Perth-Experten"
        },
        {
          "dep": "amod",
          "governor": 8,
          "governorGloss": "Spinne",
          "dependent": 7,
          "dependentGloss": "entlarvt"
        },
        {
          "dep": "appos",
          "governor": 4,
          "governorGloss": "gequetscht",
          "dependent": 8,
          "dependentGloss": "Spinne"
        }
      ],
      "tokens": [
        {
          "index": 1,
          "word": "``",
          "originalText": "“",
          "characterOffsetBegin": 0,
          "characterOffsetEnd": 1,
          "pos": "CARD",
          "before": "",
          "after": ""
        },
        {
          "index": 2,
          "word": "Spiderman",
          "originalText": "Spiderman",
          "characterOffsetBegin": 1,
          "characterOffsetEnd": 10,
          "pos": "NE",
          "before": "",
          "after": ""
        },
        {
          "index": 3,
          "word": "``",
          "originalText": "“",
          "characterOffsetBegin": 10,
          "characterOffsetEnd": 11,
          "pos": "NE",
          "before": "",
          "after": " "
        },
        {
          "index": 4,
          "word": "gequetscht",
          "originalText": "gequetscht",
          "characterOffsetBegin": 12,
          "characterOffsetEnd": 22,
          "pos": "VVPP",
          "before": " ",
          "after": ""
        },
        {
          "index": 5,
          "word": ":",
          "originalText": ":",
          "characterOffsetBegin": 22,
          "characterOffsetEnd": 23,
          "pos": "$.",
          "before": "",
          "after": " "
        },
        {
          "index": 6,
          "word": "Perth-Experten",
          "originalText": "Perth-Experten",
          "characterOffsetBegin": 24,
          "characterOffsetEnd": 38,
          "pos": "NN",
          "before": " ",
          "after": " "
        },
        {
          "index": 7,
          "word": "entlarvt",
          "originalText": "entlarvt",
          "characterOffsetBegin": 39,
          "characterOffsetEnd": 47,
          "pos": "VVFIN",
          "before": " ",
          "after": " "
        },
        {
          "index": 8,
          "word": "Spinne",
          "originalText": "Spinne",
          "characterOffsetBegin": 48,
          "characterOffsetEnd": 54,
          "pos": "NN",
          "before": " ",
          "after": ""
        }
      ]
    }
  ]
}