{
  "sentences": [
    {
      "index": 0,
      "basicDependencies": [
        {
          "dep": "ROOT",
          "governor": 0,
          "governorGloss": "ROOT",
          "dependent": 4,
          "dependentGloss": "Zehaf-Bibeau"
        },
        {
          "dep": "nsubj",
          "governor": 4,
          "governorGloss": "Zehaf-Bibeau",
          "dependent": 1,
          "dependentGloss": "Wer"
        },
        {
          "dep": "cop",
          "governor": 4,
          "governorGloss": "Zehaf-Bibeau",
          "dependent": 2,
          "dependentGloss": "ist"
        },
        {
          "dep": "name",
          "governor": 4,
          "governorGloss": "Zehaf-Bibeau",
          "dependent": 3,
          "dependentGloss": "Michael"
        },
        {
          "dep": "punct",
          "governor": 4,
          "governorGloss": "Zehaf-Bibeau",
          "dependent": 5,
          "dependentGloss": "?"
        }
      ],
      "enhancedDependencies": [
        {
          "dep": "ROOT",
          "governor": 0,
          "governorGloss": "ROOT",
          "dependent": 4,
          "dependentGloss": "Zehaf-Bibeau"
        },
        {
          "dep": "nsubj",
          "governor": 4,
          "governorGloss": "Zehaf-Bibeau",
          "dependent": 1,
          "dependentGloss": "Wer"
        },
        {
          "dep": "cop",
          "governor": 4,
          "governorGloss": "Zehaf-Bibeau",
          "dependent": 2,
          "dependentGloss": "ist"
        },
        {
          "dep": "name",
          "governor": 4,
          "governorGloss": "Zehaf-Bibeau",
          "dependent": 3,
          "dependentGloss": "Michael"
        },
        {
          "dep": "punct",
          "governor": 4,
          "governorGloss": "Zehaf-Bibeau",
          "dependent": 5,
          "dependentGloss": "?"
        }
      ],
      "enhancedPlusPlusDependencies": [
        {
          "dep": "ROOT",
          "governor": 0,
          "governorGloss": "ROOT",
          "dependent": 4,
          "dependentGloss": "Zehaf-Bibeau"
        },
        {
          "dep": "nsubj",
          "governor": 4,
          "governorGloss": "Zehaf-Bibeau",
          "dependent": 1,
          "dependentGloss": "Wer"
        },
        {
          "dep": "cop",
          "governor": 4,
          "governorGloss": "Zehaf-Bibeau",
          "dependent": 2,
          "dependentGloss": "ist"
        },
        {
          "dep": "name",
          "governor": 4,
          "governorGloss": "Zehaf-Bibeau",
          "dependent": 3,
          "dependentGloss": "Michael"
        },
        {
          "dep": "punct",
          "governor": 4,
          "governorGloss": "Zehaf-Bibeau",
          "dependent": 5,
          "dependentGloss": "?"
        }
      ],
      "tokens": [
        {
          "index": 1,
          "word": "Wer",
          "originalText": "Wer",
          "characterOffsetBegin": 0,
          "characterOffsetEnd": 3,
          "pos": "PWS",
          "before": "",
          "after": " "
        },
        {
          "index": 2,
          "word": "ist",
          "originalText": "ist",
          "characterOffsetBegin": 4,
          "characterOffsetEnd": 7,
          "pos": "VAFIN",
          "before": " ",
          "after": " "
        },
        {
          "index": 3,
          "word": "Michael",
          "originalText": "Michael",
          "characterOffsetBegin": 8,
          "characterOffsetEnd": 15,
          "pos": "NE",
          "before": " ",
          "after": " "
        },
        {
          "index": 4,
          "word": "Zehaf-Bibeau",
          "originalText": "Zehaf-Bibeau",
          "characterOffsetBegin": 16,
          "characterOffsetEnd": 28,
          "pos": "NE",
          "before": " ",
          "after": ""
        },
        {
          "index": 5,
          "word": "?",
          "originalText": "?",
          "characterOffsetBegin": 28,
          "characterOffsetEnd": 29,
          "pos": "$.",
          "before": "",
          "after": " "
        }
      ]
    },
    {
      "index": 1,
      "basicDependencies": [
        {
          "dep": "ROOT",
          "governor": 0,
          "governorGloss": "ROOT",
          "dependent": 5,
          "dependentGloss": "identifiziert"
        },
        {
          "dep": "nsubj",
          "governor": 5,
          "governorGloss": "identifiziert",
          "dependent": 1,
          "dependentGloss": "Ottawa-Shooter-Verdächtiger"
        },
        {
          "dep": "case",
          "governor": 4,
          "governorGloss": "Beamten",
          "dependent": 2,
          "dependentGloss": "von"
        },
        {
          "dep": "amod",
          "governor": 4,
          "governorGloss": "Beamten",
          "dependent": 3,
          "dependentGloss": "kanadischen"
        },
        {
          "dep": "nmod",
          "governor": 1,
          "governorGloss": "Ottawa-Shooter-Verdächtiger",
          "dependent": 4,
          "dependentGloss": "Beamten"
        }
      ],
      "enhancedDependencies": [
        {
          "dep": "ROOT",
          "governor": 0,
          "governorGloss": "ROOT",
          "dependent": 5,
          "dependentGloss": "identifiziert"
        },
        {
          "dep": "nsubj",
          "governor": 5,
          "governorGloss": "identifiziert",
          "dependent": 1,
          "dependentGloss": "Ottawa-Shooter-Verdächtiger"
        },
        {
          "dep": "case",
          "governor": 4,
          "governorGloss": "Beamten",
          "dependent": 2,
          "dependentGloss": "von"
        },
        {
          "dep": "amod",
          "governor": 4,
          "governorGloss": "Beamten",
          "dependent": 3,
          "dependentGloss": "kanadischen"
        },
        {
          "dep": "nmod",
          "governor": 1,
          "governorGloss": "Ottawa-Shooter-Verdächtiger",
          "dependent": 4,
          "dependentGloss": "Beamten"
        }
      ],
      "enhancedPlusPlusDependencies": [
        {
          "dep": "ROOT",
          "governor": 0,
          "governorGloss": "ROOT",
          "dependent": 5,
          "dependentGloss": "identifiziert"
        },
        {
          "dep": "nsubj",
          "governor": 5,
          "governorGloss": "identifiziert",
          "dependent": 1,
          "dependentGloss": "Ottawa-Shooter-Verdächtiger"
        },
        {
          "dep": "case",
          "governor": 4,
          "governorGloss": "Beamten",
          "dependent": 2,
          "dependentGloss": "von"
        },
        {
          "dep": "amod",
          "governor": 4,
          "governorGloss": "Beamten",
          "dependent": 3,
          "dependentGloss": "kanadischen"
        },
        {
          "dep": "nmod",
          "governor": 1,
          "governorGloss": "Ottawa-Shooter-Verdächtiger",
          "dependent": 4,
          "dependentGloss": "Beamten"
        }
      ],
      "tokens": [
        {
          "index": 1,
          "word": "Ottawa-Shooter-Verdächtiger",
          "originalText": "Ottawa-Shooter-Verdächtiger",
          "characterOffsetBegin": 30,
          "characterOffsetEnd": 57,
          "pos": "NN",
          "before": " ",
          "after": " "
        },
        {
          "index": 2,
          "word": "von",
          "originalText": "von",
          "characterOffsetBegin": 58,
          "characterOffsetEnd": 61,
          "pos": "APPR",
          "before": " ",
          "after": " "
        },
        {
          "index": 3,
          "word": "kanadischen",
          "originalText": "kanadischen",
          "characterOffsetBegin": 62,
          "characterOffsetEnd": 73,
          "pos": "ADJA",
          "before": " ",
          "after": " "
        },
        {
          "index": 4,
          "word": "Beamten",
          "originalText": "Beamten",
          "characterOffsetBegin": 74,
          "characterOffsetEnd": 81,
          "pos": "NN",
          "before": " ",
          "after": " "
        },
        {
          "index": 5,
          "word": "identifiziert",
          "originalText": "identifiziert",
          "characterOffsetBegin": 82,
          "characterOffsetEnd": 95,
          "pos": "VVFIN",
          "before": " ",
          "after": ""
        }
      ]
    }
  ]
}