{
  "sentences": [
    {
      "index": 0,
      "basicDependencies": [
        {
          "dep": "ROOT",
          "governor": 0,
          "governorGloss": "ROOT",
          "dependent": 3,
          "dependentGloss": "Boy"
        },
        {
          "dep": "name",
          "governor": 3,
          "governorGloss": "Boy",
          "dependent": 1,
          "dependentGloss": "Real-life"
        },
        {
          "dep": "name",
          "governor": 3,
          "governorGloss": "Boy",
          "dependent": 2,
          "dependentGloss": "Magneto"
        },
        {
          "dep": "punct",
          "governor": 3,
          "governorGloss": "Boy",
          "dependent": 4,
          "dependentGloss": "`"
        },
        {
          "dep": "root",
          "governor": 4,
          "governorGloss": "`",
          "dependent": 5,
          "dependentGloss": "wird"
        },
        {
          "dep": "amod",
          "governor": 7,
          "governorGloss": "Magnet",
          "dependent": 6,
          "dependentGloss": "lebenden"
        },
        {
          "dep": "dobj",
          "governor": 5,
          "governorGloss": "wird",
          "dependent": 7,
          "dependentGloss": "Magnet"
        },
        {
          "dep": "punct",
          "governor": 7,
          "governorGloss": "Magnet",
          "dependent": 8,
          "dependentGloss": "'"
        },
        {
          "dep": "case",
          "governor": 13,
          "governorGloss": "Schlag",
          "dependent": 9,
          "dependentGloss": "nach"
        },
        {
          "dep": "det",
          "governor": 13,
          "governorGloss": "Schlag",
          "dependent": 10,
          "dependentGloss": "dem"
        },
        {
          "dep": "amod",
          "governor": 13,
          "governorGloss": "Schlag",
          "dependent": 11,
          "dependentGloss": "massiven"
        },
        {
          "dep": "amod",
          "governor": 13,
          "governorGloss": "Schlag",
          "dependent": 12,
          "dependentGloss": "elektrischen"
        },
        {
          "dep": "nmod",
          "governor": 7,
          "governorGloss": "Magnet",
          "dependent": 13,
          "dependentGloss": "Schlag"
        },
        {
          "dep": "case",
          "governor": 15,
          "governorGloss": "Straßenlaterne",
          "dependent": 14,
          "dependentGloss": "von"
        },
        {
          "dep": "nmod",
          "governor": 13,
          "governorGloss": "Schlag",
          "dependent": 15,
          "dependentGloss": "Straßenlaterne"
        }
      ],
      "enhancedDependencies": [
        {
          "dep": "ROOT",
          "governor": 0,
          "governorGloss": "ROOT",
          "dependent": 3,
          "dependentGloss": "Boy"
        },
        {
          "dep": "name",
          "governor": 3,
          "governorGloss": "Boy",
          "dependent": 1,
          "dependentGloss": "Real-life"
        },
        {
          "dep": "name",
          "governor": 3,
          "governorGloss": "Boy",
          "dependent": 2,
          "dependentGloss": "Magneto"
        },
        {
          "dep": "punct",
          "governor": 3,
          "governorGloss": "Boy",
          "dependent": 4,
          "dependentGloss": "`"
        },
        {
          "dep": "root",
          "governor": 4,
          "governorGloss": "`",
          "dependent": 5,
          "dependentGloss": "wird"
        },
        {
          "dep": "amod",
          "governor": 7,
          "governorGloss": "Magnet",
          "dependent": 6,
          "dependentGloss": "lebenden"
        },
        {
          "dep": "dobj",
          "governor": 5,
          "governorGloss": "wird",
          "dependent": 7,
          "dependentGloss": "Magnet"
        },
        {
          "dep": "punct",
          "governor": 7,
          "governorGloss": "Magnet",
          "dependent": 8,
          "dependentGloss": "'"
        },
        {
          "dep": "case",
          "governor": 13,
          "governorGloss": "Schlag",
          "dependent": 9,
          "dependentGloss": "nach"
        },
        {
          "dep": "det",
          "governor": 13,
          "governorGloss": "Schlag",
          "dependent": 10,
          "dependentGloss": "dem"
        },
        {
          "dep": "amod",
          "governor": 13,
          "governorGloss": "Schlag",
          "dependent": 11,
          "dependentGloss": "massiven"
        },
        {
          "dep": "amod",
          "governor": 13,
          "governorGloss": "Schlag",
          "dependent": 12,
          "dependentGloss": "elektrischen"
        },
        {
          "dep": "nmod",
          "governor": 7,
          "governorGloss": "Magnet",
          "dependent": 13,
          "dependentGloss": "Schlag"
        },
        {
          "dep": "case",
          "governor": 15,
          "governorGloss": "Straßenlaterne",
          "dependent": 14,
          "dependentGloss": "von"
        },
        {
          "dep": "nmod",
          "governor": 13,
          "governorGloss": "Schlag",
          "dependent": 15,
          "dependentGloss": "Straßenlaterne"
        }
      ],
      "enhancedPlusPlusDependencies": [
        {
          "dep": "ROOT",
          "governor": 0,
          "governorGloss": "ROOT",
          "dependent": 3,
          "dependentGloss": "Boy"
        },
        {
          "dep": "name",
          "governor": 3,
          "governorGloss": "Boy",
          "dependent": 1,
          "dependentGloss": "Real-life"
        },
        {
          "dep": "name",
          "governor": 3,
          "governorGloss": "Boy",
          "dependent": 2,
          "dependentGloss": "Magneto"
        },
        {
          "dep": "punct",
          "governor": 3,
          "governorGloss": "Boy",
          "dependent": 4,
          "dependentGloss": "`"
        },
        {
          "dep": "root",
          "governor": 4,
          "governorGloss": "`",
          "dependent": 5,
          "dependentGloss": "wird"
        },
        {
          "dep": "amod",
          "governor": 7,
          "governorGloss": "Magnet",
          "dependent": 6,
          "dependentGloss": "lebenden"
        },
        {
          "dep": "dobj",
          "governor": 5,
          "governorGloss": "wird",
          "dependent": 7,
          "dependentGloss": "Magnet"
        },
        {
          "dep": "punct",
          "governor": 7,
          "governorGloss": "Magnet",
          "dependent": 8,
          "dependentGloss": "'"
        },
        {
          "dep": "case",
          "governor": 13,
          "governorGloss": "Schlag",
          "dependent": 9,
          "dependentGloss": "nach"
        },
        {
          "dep": "det",
          "governor": 13,
          "governorGloss": "Schlag",
          "dependent": 10,
          "dependentGloss": "dem"
        },
        {
          "dep": "amod",
          "governor": 13,
          "governorGloss": "Schlag",
          "dependent": 11,
          "dependentGloss": "massiven"
        },
        {
          "dep": "amod",
          "governor": 13,
          "governorGloss": "Schlag",
          "dependent": 12,
          "dependentGloss": "elektrischen"
        },
        {
          "dep": "nmod",
          "governor": 7,
          "governorGloss": "Magnet",
          "dependent": 13,
          "dependentGloss": "Schlag"
        },
        {
          "dep": "case",
          "governor": 15,
          "governorGloss": "Straßenlaterne",
          "dependent": 14,
          "dependentGloss": "von"
        },
        {
          "dep": "nmod",
          "governor": 13,
          "governorGloss": "Schlag",
          "dependent": 15,
          "dependentGloss": "Straßenlaterne"
        }
      ],
      "tokens": [
        {
          "index": 1,
          "word": "Real-life",
          "originalText": "Real-life",
          "characterOffsetBegin": 0,
          "characterOffsetEnd": 9,
          "pos": "ADJA",
          "before": "",
          "after": " "
        },
        {
          "index": 2,
          "word": "Magneto",
          "originalText": "Magneto",
          "characterOffsetBegin": 10,
          "characterOffsetEnd": 17,
          "pos": "NN",
          "before": " ",
          "after": " "
        },
        {
          "index": 3,
          "word": "Boy",
          "originalText": "Boy",
          "characterOffsetBegin": 18,
          "characterOffsetEnd": 21,
          "pos": "NN",
          "before": " ",
          "after": " "
        },
        {
          "index": 4,
          "word": "`",
          "originalText": "'",
          "characterOffsetBegin": 22,
          "characterOffsetEnd": 23,
          "pos": "CARD",
          "before": " ",
          "after": ""
        },
        {
          "index": 5,
          "word": "wird",
          "originalText": "wird",
          "characterOffsetBegin": 23,
          "characterOffsetEnd": 27,
          "pos": "VAFIN",
          "before": "",
          "after": " "
        },
        {
          "index": 6,
          "word": "lebenden",
          "originalText": "lebenden",
          "characterOffsetBegin": 28,
          "characterOffsetEnd": 36,
          "pos": "ADJA",
          "before": " ",
          "after": " "
        },
        {
          "index": 7,
          "word": "Magnet",
          "originalText": "Magnet",
          "characterOffsetBegin": 37,
          "characterOffsetEnd": 43,
          "pos": "NN",
          "before": " ",
          "after": ""
        },
        {
          "index": 8,
          "word": "'",
          "originalText": "'",
          "characterOffsetBegin": 43,
          "characterOffsetEnd": 44,
          "pos": "$[",
          "before": "",
          "after": " "
        },
        {
          "index": 9,
          "word": "nach",
          "originalText": "nach",
          "characterOffsetBegin": 45,
          "characterOffsetEnd": 49,
          "pos": "APPR",
          "before": " ",
          "after": " "
        },
        {
          "index": 10,
          "word": "dem",
          "originalText": "dem",
          "characterOffsetBegin": 50,
          "characterOffsetEnd": 53,
          "pos": "ART",
          "before": " ",
          "after": " "
        },
        {
          "index": 11,
          "word": "massiven",
          "originalText": "massiven",
          "characterOffsetBegin": 54,
          "characterOffsetEnd": 62,
          "pos": "ADJA",
          "before": " ",
          "after": " "
        },
        {
          "index": 12,
          "word": "elektrischen",
          "originalText": "elektrischen",
          "characterOffsetBegin": 63,
          "characterOffsetEnd": 75,
          "pos": "ADJA",
          "before": " ",
          "after": " "
        },
        {
          "index": 13,
          "word": "Schlag",
          "originalText": "Schlag",
          "characterOffsetBegin": 76,
          "characterOffsetEnd": 82,
          "pos": "NN",
          "before": " ",
          "after": " "
        },
        {
          "index": 14,
          "word": "von",
          "originalText": "von",
          "characterOffsetBegin": 83,
          "characterOffsetEnd": 86,
          "pos": "APPR",
          "before": " ",
          "after": " "
        },
        {
          "index": 15,
          "word": "Straßenlaterne",
          "originalText": "Straßenlaterne",
          "characterOffsetBegin": 87,
          "characterOffsetEnd": 101,
          "pos": "NN",
          "before": " ",
          "after": ""
        }
      ]
    }
  ]
}