{
  "sentences": [
    {
      "index": 0,
      "basicDependencies": [
        {
          "dep": "ROOT",
          "governor": 0,
          "governorGloss": "ROOT",
          "dependent": 1,
          "dependentGloss": "Hat"
        },
        {
          "dep": "name",
          "governor": 3,
          "governorGloss": "Yo-Jong",
          "dependent": 2,
          "dependentGloss": "Kim"
        },
        {
          "dep": "dobj",
          "governor": 1,
          "governorGloss": "Hat",
          "dependent": 3,
          "dependentGloss": "Yo-Jong"
        },
        {
          "dep": "case",
          "governor": 6,
          "governorGloss": "Jong",
          "dependent": 4,
          "dependentGloss": "für"
        },
        {
          "dep": "name",
          "governor": 6,
          "governorGloss": "Jong",
          "dependent": 5,
          "dependentGloss": "Kim"
        },
        {
          "dep": "nmod",
          "governor": 3,
          "governorGloss": "Yo-Jong",
          "dependent": 6,
          "dependentGloss": "Jong"
        },
        {
          "dep": "appos",
          "governor": 6,
          "governorGloss": "Jong",
          "dependent": 7,
          "dependentGloss": "Un"
        },
        {
          "dep": "punct",
          "governor": 7,
          "governorGloss": "Un",
          "dependent": 8,
          "dependentGloss": "?"
        }
      ],
      "enhancedDependencies": [
        {
          "dep": "ROOT",
          "governor": 0,
          "governorGloss": "ROOT",
          "dependent": 1,
          "dependentGloss": "Hat"
        },
        {
          "dep": "name",
          "governor": 3,
          "governorGloss": "Yo-Jong",
          "dependent": 2,
          "dependentGloss": "Kim"
        },
        {
          "dep": "dobj",
          "governor": 1,
          "governorGloss": "Hat",
          "dependent": 3,
          "dependentGloss": "Yo-Jong"
        },
        {
          "dep": "case",
          "governor": 6,
          "governorGloss": "Jong",
          "dependent": 4,
          "dependentGloss": "für"
        },
        {
          "dep": "name",
          "governor": 6,
          "governorGloss": "Jong",
          "dependent": 5,
          "dependentGloss": "Kim"
        },
        {
          "dep": "nmod",
          "governor": 3,
          "governorGloss": "Yo-Jong",
          "dependent": 6,
          "dependentGloss": "Jong"
        },
        {
          "dep": "appos",
          "governor": 6,
          "governorGloss": "Jong",
          "dependent": 7,
          "dependentGloss": "Un"
        },
        {
          "dep": "punct",
          "governor": 7,
          "governorGloss": "Un",
          "dependent": 8,
          "dependentGloss": "?"
        }
      ],
      "enhancedPlusPlusDependencies": [
        {
          "dep": "ROOT",
          "governor": 0,
          "governorGloss": "ROOT",
          "dependent": 1,
          "dependentGloss": "Hat"
        },
        {
          "dep": "name",
          "governor": 3,
          "governorGloss": "Yo-Jong",
          "dependent": 2,
          "dependentGloss": "Kim"
        },
        {
          "dep": "dobj",
          "governor": 1,
          "governorGloss": "Hat",
          "dependent": 3,
          "dependentGloss": "Yo-Jong"
        },
        {
          "dep": "case",
          "governor": 6,
          "governorGloss": "Jong",
          "dependent": 4,
          "dependentGloss": "für"
        },
        {
          "dep": "name",
          "governor": 6,
          "governorGloss": "Jong",
          "dependent": 5,
          "dependentGloss": "Kim"
        },
        {
          "dep": "nmod",
          "governor": 3,
          "governorGloss": "Yo-Jong",
          "dependent": 6,
          "dependentGloss": "Jong"
        },
        {
          "dep": "appos",
          "governor": 6,
          "governorGloss": "Jong",
          "dependent": 7,
          "dependentGloss": "Un"
        },
        {
          "dep": "punct",
          "governor": 7,
          "governorGloss": "Un",
          "dependent": 8,
          "dependentGloss": "?"
        }
      ],
      "tokens": [
        {
          "index": 1,
          "word": "Hat",
          "originalText": "Hat",
          "characterOffsetBegin": 0,
          "characterOffsetEnd": 3,
          "pos": "VAFIN",
          "before": "",
          "after": " "
        },
        {
          "index": 2,
          "word": "Kim",
          "originalText": "Kim",
          "characterOffsetBegin": 4,
          "characterOffsetEnd": 7,
          "pos": "NE",
          "before": " ",
          "after": " "
        },
        {
          "index": 3,
          "word": "Yo-Jong",
          "originalText": "Yo-Jong",
          "characterOffsetBegin": 8,
          "characterOffsetEnd": 15,
          "pos": "NE",
          "before": " ",
          "after": " "
        },
        {
          "index": 4,
          "word": "für",
          "originalText": "für",
          "characterOffsetBegin": 16,
          "characterOffsetEnd": 19,
          "pos": "APPR",
          "before": " ",
          "after": " "
        },
        {
          "index": 5,
          "word": "Kim",
          "originalText": "Kim",
          "characterOffsetBegin": 20,
          "characterOffsetEnd": 23,
          "pos": "NE",
          "before": " ",
          "after": " "
        },
        {
          "index": 6,
          "word": "Jong",
          "originalText": "Jong",
          "characterOffsetBegin": 24,
          "characterOffsetEnd": 28,
          "pos": "NE",
          "before": " ",
          "after": " "
        },
        {
          "index": 7,
          "word": "Un",
          "originalText": "Un",
          "characterOffsetBegin": 29,
          "characterOffsetEnd": 31,
          "pos": "NE",
          "before": " ",
          "after": ""
        },
        {
          "index": 8,
          "word": "?",
          "originalText": "?",
          "characterOffsetBegin": 31,
          "characterOffsetEnd": 32,
          "pos": "$.",
          "before": "",
          "after": " "
        }
      ]
    },
    {
      "index": 1,
      "basicDependencies": [
        {
          "dep": "ROOT",
          "governor": 0,
          "governorGloss": "ROOT",
          "dependent": 2,
          "dependentGloss": "nimmt"
        },
        {
          "dep": "nsubj",
          "governor": 2,
          "governorGloss": "nimmt",
          "dependent": 1,
          "dependentGloss": "Schwester"
        },
        {
          "dep": "amod",
          "governor": 4,
          "governorGloss": "Staatspflichten",
          "dependent": 3,
          "dependentGloss": "nordkoreanischen"
        },
        {
          "dep": "dobj",
          "governor": 2,
          "governorGloss": "nimmt",
          "dependent": 4,
          "dependentGloss": "Staatspflichten"
        },
        {
          "dep": "mark",
          "governor": 2,
          "governorGloss": "nimmt",
          "dependent": 5,
          "dependentGloss": "an"
        },
        {
          "dep": "punct",
          "governor": 2,
          "governorGloss": "nimmt",
          "dependent": 6,
          "dependentGloss": ","
        },
        {
          "dep": "case",
          "governor": 8,
          "governorGloss": "Bruder",
          "dependent": 7,
          "dependentGloss": "während"
        },
        {
          "dep": "nmod",
          "governor": 2,
          "governorGloss": "nimmt",
          "dependent": 8,
          "dependentGloss": "Bruder"
        },
        {
          "dep": "amod",
          "governor": 10,
          "governorGloss": "Behandlung",
          "dependent": 9,
          "dependentGloss": "medizinische"
        },
        {
          "dep": "appos",
          "governor": 8,
          "governorGloss": "Bruder",
          "dependent": 10,
          "dependentGloss": "Behandlung"
        },
        {
          "dep": "appos",
          "governor": 10,
          "governorGloss": "Behandlung",
          "dependent": 11,
          "dependentGloss": "unterlässt"
        }
      ],
      "enhancedDependencies": [
        {
          "dep": "ROOT",
          "governor": 0,
          "governorGloss": "ROOT",
          "dependent": 2,
          "dependentGloss": "nimmt"
        },
        {
          "dep": "nsubj",
          "governor": 2,
          "governorGloss": "nimmt",
          "dependent": 1,
          "dependentGloss": "Schwester"
        },
        {
          "dep": "amod",
          "governor": 4,
          "governorGloss": "Staatspflichten",
          "dependent": 3,
          "dependentGloss": "nordkoreanischen"
        },
        {
          "dep": "dobj",
          "governor": 2,
          "governorGloss": "nimmt",
          "dependent": 4,
          "dependentGloss": "Staatspflichten"
        },
        {
          "dep": "mark",
          "governor": 2,
          "governorGloss": "nimmt",
          "dependent": 5,
          "dependentGloss": "an"
        },
        {
          "dep": "punct",
          "governor": 2,
          "governorGloss": "nimmt",
          "dependent": 6,
          "dependentGloss": ","
        },
        {
          "dep": "case",
          "governor": 8,
          "governorGloss": "Bruder",
          "dependent": 7,
          "dependentGloss": "während"
        },
        {
          "dep": "nmod",
          "governor": 2,
          "governorGloss": "nimmt",
          "dependent": 8,
          "dependentGloss": "Bruder"
        },
        {
          "dep": "amod",
          "governor": 10,
          "governorGloss": "Behandlung",
          "dependent": 9,
          "dependentGloss": "medizinische"
        },
        {
          "dep": "appos",
          "governor": 8,
          "governorGloss": "Bruder",
          "dependent": 10,
          "dependentGloss": "Behandlung"
        },
        {
          "dep": "appos",
          "governor": 10,
          "governorGloss": "Behandlung",
          "dependent": 11,
          "dependentGloss": "unterlässt"
        }
      ],
      "enhancedPlusPlusDependencies": [
        {
          "dep": "ROOT",
          "governor": 0,
          "governorGloss": "ROOT",
          "dependent": 2,
          "dependentGloss": "nimmt"
        },
        {
          "dep": "nsubj",
          "governor": 2,
          "governorGloss": "nimmt",
          "dependent": 1,
          "dependentGloss": "Schwester"
        },
        {
          "dep": "amod",
          "governor": 4,
          "governorGloss": "Staatspflichten",
          "dependent": 3,
          "dependentGloss": "nordkoreanischen"
        },
        {
          "dep": "dobj",
          "governor": 2,
          "governorGloss": "nimmt",
          "dependent": 4,
          "dependentGloss": "Staatspflichten"
        },
        {
          "dep": "mark",
          "governor": 2,
          "governorGloss": "nimmt",
          "dependent": 5,
          "dependentGloss": "an"
        },
        {
          "dep": "punct",
          "governor": 2,
          "governorGloss": "nimmt",
          "dependent": 6,
          "dependentGloss": ","
        },
        {
          "dep": "case",
          "governor": 8,
          "governorGloss": "Bruder",
          "dependent": 7,
          "dependentGloss": "während"
        },
        {
          "dep": "nmod",
          "governor": 2,
          "governorGloss": "nimmt",
          "dependent": 8,
          "dependentGloss": "Bruder"
        },
        {
          "dep": "amod",
          "governor": 10,
          "governorGloss": "Behandlung",
          "dependent": 9,
          "dependentGloss": "medizinische"
        },
        {
          "dep": "appos",
          "governor": 8,
          "governorGloss": "Bruder",
          "dependent": 10,
          "dependentGloss": "Behandlung"
        },
        {
          "dep": "appos",
          "governor": 10,
          "governorGloss": "Behandlung",
          "dependent": 11,
          "dependentGloss": "unterlässt"
        }
      ],
      "tokens": [
        {
          "index": 1,
          "word": "Schwester",
          "originalText": "Schwester",
          "characterOffsetBegin": 33,
          "characterOffsetEnd": 42,
          "pos": "NN",
          "before": " ",
          "after": " "
        },
        {
          "index": 2,
          "word": "nimmt",
          "originalText": "nimmt",
          "characterOffsetBegin": 43,
          "characterOffsetEnd": 48,
          "pos": "VVFIN",
          "before": " ",
          "after": " "
        },
        {
          "index": 3,
          "word": "nordkoreanischen",
          "originalText": "nordkoreanischen",
          "characterOffsetBegin": 49,
          "characterOffsetEnd": 65,
          "pos": "ADJA",
          "before": " ",
          "after": " "
        },
        {
          "index": 4,
          "word": "Staatspflichten",
          "originalText": "Staatspflichten",
          "characterOffsetBegin": 66,
          "characterOffsetEnd": 81,
          "pos": "NN",
          "before": " ",
          "after": " "
        },
        {
          "index": 5,
          "word": "an",
          "originalText": "an",
          "characterOffsetBegin": 82,
          "characterOffsetEnd": 84,
          "pos": "PTKVZ",
          "before": " ",
          "after": ""
        },
        {
          "index": 6,
          "word": ",",
          "originalText": ",",
          "characterOffsetBegin": 84,
          "characterOffsetEnd": 85,
          "pos": "$,",
          "before": "",
          "after": " "
        },
        {
          "index": 7,
          "word": "während",
          "originalText": "während",
          "characterOffsetBegin": 86,
          "characterOffsetEnd": 93,
          "pos": "KOUS",
          "before": " ",
          "after": " "
        },
        {
          "index": 8,
          "word": "Bruder",
          "originalText": "Bruder",
          "characterOffsetBegin": 94,
          "characterOffsetEnd": 100,
          "pos": "NN",
          "before": " ",
          "after": " "
        },
        {
          "index": 9,
          "word": "medizinische",
          "originalText": "medizinische",
          "characterOffsetBegin": 101,
          "characterOffsetEnd": 113,
          "pos": "ADJA",
          "before": " ",
          "after": " "
        },
        {
          "index": 10,
          "word": "Behandlung",
          "originalText": "Behandlung",
          "characterOffsetBegin": 114,
          "characterOffsetEnd": 124,
          "pos": "NN",
          "before": " ",
          "after": " "
        },
        {
          "index": 11,
          "word": "unterlässt",
          "originalText": "unterlässt",
          "characterOffsetBegin": 125,
          "characterOffsetEnd": 135,
          "pos": "VVPP",
          "before": " ",
          "after": ""
        }
      ]
    }
  ]
}