{
  "sentences": [
    {
      "index": 0,
      "basicDependencies": [
        {
          "dep": "ROOT",
          "governor": 0,
          "governorGloss": "ROOT",
          "dependent": 5,
          "dependentGloss": "Weg"
        },
        {
          "dep": "nsubj",
          "governor": 5,
          "governorGloss": "Weg",
          "dependent": 1,
          "dependentGloss": "Dies"
        },
        {
          "dep": "cop",
          "governor": 5,
          "governorGloss": "Weg",
          "dependent": 2,
          "dependentGloss": "ist"
        },
        {
          "dep": "det",
          "governor": 5,
          "governorGloss": "Weg",
          "dependent": 3,
          "dependentGloss": "der"
        },
        {
          "dep": "amod",
          "governor": 5,
          "governorGloss": "Weg",
          "dependent": 4,
          "dependentGloss": "epischste"
        },
        {
          "dep": "punct",
          "governor": 5,
          "governorGloss": "Weg",
          "dependent": 6,
          "dependentGloss": ","
        },
        {
          "dep": "case",
          "governor": 9,
          "governorGloss": "Job",
          "dependent": 7,
          "dependentGloss": "um"
        },
        {
          "dep": "det",
          "governor": 9,
          "governorGloss": "Job",
          "dependent": 8,
          "dependentGloss": "Ihren"
        },
        {
          "dep": "nmod",
          "governor": 11,
          "governorGloss": "beenden",
          "dependent": 9,
          "dependentGloss": "Job"
        },
        {
          "dep": "aux",
          "governor": 11,
          "governorGloss": "beenden",
          "dependent": 10,
          "dependentGloss": "zu"
        },
        {
          "dep": "xcomp",
          "governor": 5,
          "governorGloss": "Weg",
          "dependent": 11,
          "dependentGloss": "beenden"
        }
      ],
      "enhancedDependencies": [
        {
          "dep": "ROOT",
          "governor": 0,
          "governorGloss": "ROOT",
          "dependent": 5,
          "dependentGloss": "Weg"
        },
        {
          "dep": "nsubj",
          "governor": 5,
          "governorGloss": "Weg",
          "dependent": 1,
          "dependentGloss": "Dies"
        },
        {
          "dep": "cop",
          "governor": 5,
          "governorGloss": "Weg",
          "dependent": 2,
          "dependentGloss": "ist"
        },
        {
          "dep": "det",
          "governor": 5,
          "governorGloss": "Weg",
          "dependent": 3,
          "dependentGloss": "der"
        },
        {
          "dep": "amod",
          "governor": 5,
          "governorGloss": "Weg",
          "dependent": 4,
          "dependentGloss": "epischste"
        },
        {
          "dep": "punct",
          "governor": 5,
          "governorGloss": "Weg",
          "dependent": 6,
          "dependentGloss": ","
        },
        {
          "dep": "case",
          "governor": 9,
          "governorGloss": "Job",
          "dependent": 7,
          "dependentGloss": "um"
        },
        {
          "dep": "det",
          "governor": 9,
          "governorGloss": "Job",
          "dependent": 8,
          "dependentGloss": "Ihren"
        },
        {
          "dep": "nmod",
          "governor": 11,
          "governorGloss": "beenden",
          "dependent": 9,
          "dependentGloss": "Job"
        },
        {
          "dep": "aux",
          "governor": 11,
          "governorGloss": "beenden",
          "dependent": 10,
          "dependentGloss": "zu"
        },
        {
          "dep": "xcomp",
          "governor": 5,
          "governorGloss": "Weg",
          "dependent": 11,
          "dependentGloss": "beenden"
        }
      ],
      "enhancedPlusPlusDependencies": [
        {
          "dep": "ROOT",
          "governor": 0,
          "governorGloss": "ROOT",
          "dependent": 5,
          "dependentGloss": "Weg"
        },
        {
          "dep": "nsubj",
          "governor": 5,
          "governorGloss": "Weg",
          "dependent": 1,
          "dependentGloss": "Dies"
        },
        {
          "dep": "cop",
          "governor": 5,
          "governorGloss": "Weg",
          "dependent": 2,
          "dependentGloss": "ist"
        },
        {
          "dep": "det",
          "governor": 5,
          "governorGloss": "Weg",
          "dependent": 3,
          "dependentGloss": "der"
        },
        {
          "dep": "amod",
          "governor": 5,
          "governorGloss": "Weg",
          "dependent": 4,
          "dependentGloss": "epischste"
        },
        {
          "dep": "punct",
          "governor": 5,
          "governorGloss": "Weg",
          "dependent": 6,
          "dependentGloss": ","
        },
        {
          "dep": "case",
          "governor": 9,
          "governorGloss": "Job",
          "dependent": 7,
          "dependentGloss": "um"
        },
        {
          "dep": "det",
          "governor": 9,
          "governorGloss": "Job",
          "dependent": 8,
          "dependentGloss": "Ihren"
        },
        {
          "dep": "nmod",
          "governor": 11,
          "governorGloss": "beenden",
          "dependent": 9,
          "dependentGloss": "Job"
        },
        {
          "dep": "aux",
          "governor": 11,
          "governorGloss": "beenden",
          "dependent": 10,
          "dependentGloss": "zu"
        },
        {
          "dep": "xcomp",
          "governor": 5,
          "governorGloss": "Weg",
          "dependent": 11,
          "dependentGloss": "beenden"
        }
      ],
      "tokens": [
        {
          "index": 1,
          "word": "Dies",
          "originalText": "Dies",
          "characterOffsetBegin": 0,
          "characterOffsetEnd": 4,
          "pos": "PDS",
          "before": "",
          "after": " "
        },
        {
          "index": 2,
          "word": "ist",
          "originalText": "ist",
          "characterOffsetBegin": 5,
          "characterOffsetEnd": 8,
          "pos": "VAFIN",
          "before": " ",
          "after": " "
        },
        {
          "index": 3,
          "word": "der",
          "originalText": "der",
          "characterOffsetBegin": 9,
          "characterOffsetEnd": 12,
          "pos": "ART",
          "before": " ",
          "after": " "
        },
        {
          "index": 4,
          "word": "epischste",
          "originalText": "epischste",
          "characterOffsetBegin": 13,
          "characterOffsetEnd": 22,
          "pos": "ADJA",
          "before": " ",
          "after": " "
        },
        {
          "index": 5,
          "word": "Weg",
          "originalText": "Weg",
          "characterOffsetBegin": 23,
          "characterOffsetEnd": 26,
          "pos": "NN",
          "before": " ",
          "after": ""
        },
        {
          "index": 6,
          "word": ",",
          "originalText": ",",
          "characterOffsetBegin": 26,
          "characterOffsetEnd": 27,
          "pos": "$,",
          "before": "",
          "after": " "
        },
        {
          "index": 7,
          "word": "um",
          "originalText": "um",
          "characterOffsetBegin": 28,
          "characterOffsetEnd": 30,
          "pos": "KOUI",
          "before": " ",
          "after": " "
        },
        {
          "index": 8,
          "word": "Ihren",
          "originalText": "Ihren",
          "characterOffsetBegin": 31,
          "characterOffsetEnd": 36,
          "pos": "PPOSAT",
          "before": " ",
          "after": " "
        },
        {
          "index": 9,
          "word": "Job",
          "originalText": "Job",
          "characterOffsetBegin": 37,
          "characterOffsetEnd": 40,
          "pos": "NN",
          "before": " ",
          "after": " "
        },
        {
          "index": 10,
          "word": "zu",
          "originalText": "zu",
          "characterOffsetBegin": 41,
          "characterOffsetEnd": 43,
          "pos": "PTKZU",
          "before": " ",
          "after": " "
        },
        {
          "index": 11,
          "word": "beenden",
          "originalText": "beenden",
          "characterOffsetBegin": 44,
          "characterOffsetEnd": 51,
          "pos": "VVINF",
          "before": " ",
          "after": ""
        }
      ]
    }
  ]
}