{
  "sentences": [
    {
      "index": 0,
      "basicDependencies": [
        {
          "dep": "ROOT",
          "governor": 0,
          "governorGloss": "ROOT",
          "dependent": 7,
          "dependentGloss": "Baghdadi"
        },
        {
          "dep": "nsubj",
          "governor": 7,
          "governorGloss": "Baghdadi",
          "dependent": 1,
          "dependentGloss": "Frau"
        },
        {
          "dep": "cc",
          "governor": 1,
          "governorGloss": "Frau",
          "dependent": 2,
          "dependentGloss": "und"
        },
        {
          "dep": "conj",
          "governor": 1,
          "governorGloss": "Frau",
          "dependent": 3,
          "dependentGloss": "Kind"
        },
        {
          "dep": "det",
          "governor": 6,
          "governorGloss": "Staatsführers",
          "dependent": 4,
          "dependentGloss": "des"
        },
        {
          "dep": "amod",
          "governor": 6,
          "governorGloss": "Staatsführers",
          "dependent": 5,
          "dependentGloss": "islamischen"
        },
        {
          "dep": "det",
          "governor": 3,
          "governorGloss": "Kind",
          "dependent": 6,
          "dependentGloss": "Staatsführers"
        },
        {
          "dep": "amod",
          "governor": 9,
          "governorGloss": "Libanon",
          "dependent": 8,
          "dependentGloss": "im"
        },
        {
          "dep": "dobj",
          "governor": 7,
          "governorGloss": "Baghdadi",
          "dependent": 9,
          "dependentGloss": "Libanon"
        }
      ],
      "enhancedDependencies": [
        {
          "dep": "ROOT",
          "governor": 0,
          "governorGloss": "ROOT",
          "dependent": 7,
          "dependentGloss": "Baghdadi"
        },
        {
          "dep": "nsubj",
          "governor": 7,
          "governorGloss": "Baghdadi",
          "dependent": 1,
          "dependentGloss": "Frau"
        },
        {
          "dep": "cc",
          "governor": 1,
          "governorGloss": "Frau",
          "dependent": 2,
          "dependentGloss": "und"
        },
        {
          "dep": "conj:und",
          "governor": 1,
          "governorGloss": "Frau",
          "dependent": 3,
          "dependentGloss": "Kind"
        },
        {
          "dep": "nsubj",
          "governor": 7,
          "governorGloss": "Baghdadi",
          "dependent": 3,
          "dependentGloss": "Kind"
        },
        {
          "dep": "det",
          "governor": 6,
          "governorGloss": "Staatsführers",
          "dependent": 4,
          "dependentGloss": "des"
        },
        {
          "dep": "amod",
          "governor": 6,
          "governorGloss": "Staatsführers",
          "dependent": 5,
          "dependentGloss": "islamischen"
        },
        {
          "dep": "det",
          "governor": 3,
          "governorGloss": "Kind",
          "dependent": 6,
          "dependentGloss": "Staatsführers"
        },
        {
          "dep": "amod",
          "governor": 9,
          "governorGloss": "Libanon",
          "dependent": 8,
          "dependentGloss": "im"
        },
        {
          "dep": "dobj",
          "governor": 7,
          "governorGloss": "Baghdadi",
          "dependent": 9,
          "dependentGloss": "Libanon"
        }
      ],
      "enhancedPlusPlusDependencies": [
        {
          "dep": "ROOT",
          "governor": 0,
          "governorGloss": "ROOT",
          "dependent": 7,
          "dependentGloss": "Baghdadi"
        },
        {
          "dep": "nsubj",
          "governor": 7,
          "governorGloss": "Baghdadi",
          "dependent": 1,
          "dependentGloss": "Frau"
        },
        {
          "dep": "cc",
          "governor": 1,
          "governorGloss": "Frau",
          "dependent": 2,
          "dependentGloss": "und"
        },
        {
          "dep": "conj:und",
          "governor": 1,
          "governorGloss": "Frau",
          "dependent": 3,
          "dependentGloss": "Kind"
        },
        {
          "dep": "nsubj",
          "governor": 7,
          "governorGloss": "Baghdadi",
          "dependent": 3,
          "dependentGloss": "Kind"
        },
        {
          "dep": "det",
          "governor": 6,
          "governorGloss": "Staatsführers",
          "dependent": 4,
          "dependentGloss": "des"
        },
        {
          "dep": "amod",
          "governor": 6,
          "governorGloss": "Staatsführers",
          "dependent": 5,
          "dependentGloss": "islamischen"
        },
        {
          "dep": "det",
          "governor": 3,
          "governorGloss": "Kind",
          "dependent": 6,
          "dependentGloss": "Staatsführers"
        },
        {
          "dep": "amod",
          "governor": 9,
          "governorGloss": "Libanon",
          "dependent": 8,
          "dependentGloss": "im"
        },
        {
          "dep": "dobj",
          "governor": 7,
          "governorGloss": "Baghdadi",
          "dependent": 9,
          "dependentGloss": "Libanon"
        }
      ],
      "tokens": [
        {
          "index": 1,
          "word": "Frau",
          "originalText": "Frau",
          "characterOffsetBegin": 0,
          "characterOffsetEnd": 4,
          "pos": "NN",
          "before": "",
          "after": " "
        },
        {
          "index": 2,
          "word": "und",
          "originalText": "und",
          "characterOffsetBegin": 5,
          "characterOffsetEnd": 8,
          "pos": "KON",
          "before": " ",
          "after": " "
        },
        {
          "index": 3,
          "word": "Kind",
          "originalText": "Kind",
          "characterOffsetBegin": 9,
          "characterOffsetEnd": 13,
          "pos": "NN",
          "before": " ",
          "after": " "
        },
        {
          "index": 4,
          "word": "des",
          "originalText": "des",
          "characterOffsetBegin": 14,
          "characterOffsetEnd": 17,
          "pos": "ART",
          "before": " ",
          "after": " "
        },
        {
          "index": 5,
          "word": "islamischen",
          "originalText": "islamischen",
          "characterOffsetBegin": 18,
          "characterOffsetEnd": 29,
          "pos": "ADJA",
          "before": " ",
          "after": " "
        },
        {
          "index": 6,
          "word": "Staatsführers",
          "originalText": "Staatsführers",
          "characterOffsetBegin": 30,
          "characterOffsetEnd": 43,
          "pos": "NN",
          "before": " ",
          "after": " "
        },
        {
          "index": 7,
          "word": "Baghdadi",
          "originalText": "Baghdadi",
          "characterOffsetBegin": 44,
          "characterOffsetEnd": 52,
          "pos": "NE",
          "before": " ",
          "after": " "
        },
        {
          "index": 8,
          "word": "im",
          "originalText": "im",
          "characterOffsetBegin": 53,
          "characterOffsetEnd": 55,
          "pos": "APPRART",
          "before": " ",
          "after": " "
        },
        {
          "index": 9,
          "word": "Libanon",
          "originalText": "Libanon",
          "characterOffsetBegin": 56,
          "characterOffsetEnd": 63,
          "pos": "NE",
          "before": " ",
          "after": ""
        }
      ]
    }
  ]
}