{
  "sentences": [
    {
      "index": 0,
      "basicDependencies": [
        {
          "dep": "ROOT",
          "governor": 0,
          "governorGloss": "ROOT",
          "dependent": 2,
          "dependentGloss": "hatten"
        },
        {
          "dep": "nsubj",
          "governor": 2,
          "governorGloss": "hatten",
          "dependent": 1,
          "dependentGloss": "Sie"
        },
        {
          "dep": "det",
          "governor": 5,
          "governorGloss": "Abtreibung",
          "dependent": 3,
          "dependentGloss": "alle"
        },
        {
          "dep": "det",
          "governor": 5,
          "governorGloss": "Abtreibung",
          "dependent": 4,
          "dependentGloss": "eine"
        },
        {
          "dep": "dobj",
          "governor": 2,
          "governorGloss": "hatten",
          "dependent": 5,
          "dependentGloss": "Abtreibung"
        },
        {
          "dep": "punct",
          "governor": 2,
          "governorGloss": "hatten",
          "dependent": 6,
          "dependentGloss": "!"
        }
      ],
      "enhancedDependencies": [
        {
          "dep": "ROOT",
          "governor": 0,
          "governorGloss": "ROOT",
          "dependent": 2,
          "dependentGloss": "hatten"
        },
        {
          "dep": "nsubj",
          "governor": 2,
          "governorGloss": "hatten",
          "dependent": 1,
          "dependentGloss": "Sie"
        },
        {
          "dep": "det",
          "governor": 5,
          "governorGloss": "Abtreibung",
          "dependent": 3,
          "dependentGloss": "alle"
        },
        {
          "dep": "det",
          "governor": 5,
          "governorGloss": "Abtreibung",
          "dependent": 4,
          "dependentGloss": "eine"
        },
        {
          "dep": "dobj",
          "governor": 2,
          "governorGloss": "hatten",
          "dependent": 5,
          "dependentGloss": "Abtreibung"
        },
        {
          "dep": "punct",
          "governor": 2,
          "governorGloss": "hatten",
          "dependent": 6,
          "dependentGloss": "!"
        }
      ],
      "enhancedPlusPlusDependencies": [
        {
          "dep": "ROOT",
          "governor": 0,
          "governorGloss": "ROOT",
          "dependent": 2,
          "dependentGloss": "hatten"
        },
        {
          "dep": "nsubj",
          "governor": 2,
          "governorGloss": "hatten",
          "dependent": 1,
          "dependentGloss": "Sie"
        },
        {
          "dep": "det",
          "governor": 5,
          "governorGloss": "Abtreibung",
          "dependent": 3,
          "dependentGloss": "alle"
        },
        {
          "dep": "det",
          "governor": 5,
          "governorGloss": "Abtreibung",
          "dependent": 4,
          "dependentGloss": "eine"
        },
        {
          "dep": "dobj",
          "governor": 2,
          "governorGloss": "hatten",
          "dependent": 5,
          "dependentGloss": "Abtreibung"
        },
        {
          "dep": "punct",
          "governor": 2,
          "governorGloss": "hatten",
          "dependent": 6,
          "dependentGloss": "!"
        }
      ],
      "tokens": [
        {
          "index": 1,
          "word": "Sie",
          "originalText": "Sie",
          "characterOffsetBegin": 0,
          "characterOffsetEnd": 3,
          "pos": "PPER",
          "before": "",
          "after": " "
        },
        {
          "index": 2,
          "word": "hatten",
          "originalText": "hatten",
          "characterOffsetBegin": 4,
          "characterOffsetEnd": 10,
          "pos": "VAFIN",
          "before": " ",
          "after": " "
        },
        {
          "index": 3,
          "word": "alle",
          "originalText": "alle",
          "characterOffsetBegin": 11,
          "characterOffsetEnd": 15,
          "pos": "PIDAT",
          "before": " ",
          "after": " "
        },
        {
          "index": 4,
          "word": "eine",
          "originalText": "eine",
          "characterOffsetBegin": 16,
          "characterOffsetEnd": 20,
          "pos": "ART",
          "before": " ",
          "after": " "
        },
        {
          "index": 5,
          "word": "Abtreibung",
          "originalText": "Abtreibung",
          "characterOffsetBegin": 21,
          "characterOffsetEnd": 31,
          "pos": "NN",
          "before": " ",
          "after": ""
        },
        {
          "index": 6,
          "word": "!",
          "originalText": "!",
          "characterOffsetBegin": 31,
          "characterOffsetEnd": 32,
          "pos": "$.",
          "before": "",
          "after": " "
        }
      ]
    },
    {
      "index": 1,
      "basicDependencies": [
        {
          "dep": "ROOT",
          "governor": 0,
          "governorGloss": "ROOT",
          "dependent": 4,
          "dependentGloss": "-RSB-"
        },
        {
          "dep": "nsubj",
          "governor": 4,
          "governorGloss": "-RSB-",
          "dependent": 1,
          "dependentGloss": "-LSB-"
        },
        {
          "dep": "name",
          "governor": 3,
          "governorGloss": "Übersetzer",
          "dependent": 2,
          "dependentGloss": "Google"
        },
        {
          "dep": "appos",
          "governor": 1,
          "governorGloss": "-LSB-",
          "dependent": 3,
          "dependentGloss": "Übersetzer"
        }
      ],
      "enhancedDependencies": [
        {
          "dep": "ROOT",
          "governor": 0,
          "governorGloss": "ROOT",
          "dependent": 4,
          "dependentGloss": "-RSB-"
        },
        {
          "dep": "nsubj",
          "governor": 4,
          "governorGloss": "-RSB-",
          "dependent": 1,
          "dependentGloss": "-LSB-"
        },
        {
          "dep": "name",
          "governor": 3,
          "governorGloss": "Übersetzer",
          "dependent": 2,
          "dependentGloss": "Google"
        },
        {
          "dep": "appos",
          "governor": 1,
          "governorGloss": "-LSB-",
          "dependent": 3,
          "dependentGloss": "Übersetzer"
        }
      ],
      "enhancedPlusPlusDependencies": [
        {
          "dep": "ROOT",
          "governor": 0,
          "governorGloss": "ROOT",
          "dependent": 4,
          "dependentGloss": "-RSB-"
        },
        {
          "dep": "nsubj",
          "governor": 4,
          "governorGloss": "-RSB-",
          "dependent": 1,
          "dependentGloss": "-LSB-"
        },
        {
          "dep": "name",
          "governor": 3,
          "governorGloss": "Übersetzer",
          "dependent": 2,
          "dependentGloss": "Google"
        },
        {
          "dep": "appos",
          "governor": 1,
          "governorGloss": "-LSB-",
          "dependent": 3,
          "dependentGloss": "Übersetzer"
        }
      ],
      "tokens": [
        {
          "index": 1,
          "word": "-LSB-",
          "originalText": "[",
          "characterOffsetBegin": 33,
          "characterOffsetEnd": 34,
          "pos": "TRUNC",
          "before": " ",
          "after": ""
        },
        {
          "index": 2,
          "word": "Google",
          "originalText": "Google",
          "characterOffsetBegin": 34,
          "characterOffsetEnd": 40,
          "pos": "NN",
          "before": "",
          "after": " "
        },
        {
          "index": 3,
          "word": "Übersetzer",
          "originalText": "Übersetzer",
          "characterOffsetBegin": 41,
          "characterOffsetEnd": 51,
          "pos": "NN",
          "before": " ",
          "after": ""
        },
        {
          "index": 4,
          "word": "-RSB-",
          "originalText": "]",
          "characterOffsetBegin": 51,
          "characterOffsetEnd": 52,
          "pos": "TRUNC",
          "before": "",
          "after": ""
        }
      ]
    }
  ]
}