{
  "sentences": [
    {
      "index": 0,
      "basicDependencies": [
        {
          "dep": "ROOT",
          "governor": 0,
          "governorGloss": "ROOT",
          "dependent": 2,
          "dependentGloss": "freigegeben"
        },
        {
          "dep": "nsubj",
          "governor": 2,
          "governorGloss": "freigegeben",
          "dependent": 1,
          "dependentGloss": "Gefangener"
        },
        {
          "dep": "case",
          "governor": 5,
          "governorGloss": "Austausch",
          "dependent": 3,
          "dependentGloss": "in"
        },
        {
          "dep": "amod",
          "governor": 5,
          "governorGloss": "Austausch",
          "dependent": 4,
          "dependentGloss": "Bergdahl"
        },
        {
          "dep": "nmod",
          "governor": 2,
          "governorGloss": "freigegeben",
          "dependent": 5,
          "dependentGloss": "Austausch"
        },
        {
          "dep": "xcomp",
          "governor": 2,
          "governorGloss": "freigegeben",
          "dependent": 6,
          "dependentGloss": "versucht"
        },
        {
          "dep": "punct",
          "governor": 2,
          "governorGloss": "freigegeben",
          "dependent": 7,
          "dependentGloss": ","
        },
        {
          "dep": "case",
          "governor": 9,
          "governorGloss": "Taliban",
          "dependent": 8,
          "dependentGloss": "mit"
        },
        {
          "dep": "nmod",
          "governor": 12,
          "governorGloss": "verbinden",
          "dependent": 9,
          "dependentGloss": "Taliban"
        },
        {
          "dep": "advmod",
          "governor": 12,
          "governorGloss": "verbinden",
          "dependent": 10,
          "dependentGloss": "wieder"
        },
        {
          "dep": "aux",
          "governor": 12,
          "governorGloss": "verbinden",
          "dependent": 11,
          "dependentGloss": "zu"
        },
        {
          "dep": "conj",
          "governor": 2,
          "governorGloss": "freigegeben",
          "dependent": 12,
          "dependentGloss": "verbinden"
        }
      ],
      "enhancedDependencies": [
        {
          "dep": "ROOT",
          "governor": 0,
          "governorGloss": "ROOT",
          "dependent": 2,
          "dependentGloss": "freigegeben"
        },
        {
          "dep": "nsubj",
          "governor": 2,
          "governorGloss": "freigegeben",
          "dependent": 1,
          "dependentGloss": "Gefangener"
        },
        {
          "dep": "case",
          "governor": 5,
          "governorGloss": "Austausch",
          "dependent": 3,
          "dependentGloss": "in"
        },
        {
          "dep": "amod",
          "governor": 5,
          "governorGloss": "Austausch",
          "dependent": 4,
          "dependentGloss": "Bergdahl"
        },
        {
          "dep": "nmod",
          "governor": 2,
          "governorGloss": "freigegeben",
          "dependent": 5,
          "dependentGloss": "Austausch"
        },
        {
          "dep": "xcomp",
          "governor": 2,
          "governorGloss": "freigegeben",
          "dependent": 6,
          "dependentGloss": "versucht"
        },
        {
          "dep": "punct",
          "governor": 2,
          "governorGloss": "freigegeben",
          "dependent": 7,
          "dependentGloss": ","
        },
        {
          "dep": "case",
          "governor": 9,
          "governorGloss": "Taliban",
          "dependent": 8,
          "dependentGloss": "mit"
        },
        {
          "dep": "nmod",
          "governor": 12,
          "governorGloss": "verbinden",
          "dependent": 9,
          "dependentGloss": "Taliban"
        },
        {
          "dep": "advmod",
          "governor": 12,
          "governorGloss": "verbinden",
          "dependent": 10,
          "dependentGloss": "wieder"
        },
        {
          "dep": "aux",
          "governor": 12,
          "governorGloss": "verbinden",
          "dependent": 11,
          "dependentGloss": "zu"
        },
        {
          "dep": "conj",
          "governor": 2,
          "governorGloss": "freigegeben",
          "dependent": 12,
          "dependentGloss": "verbinden"
        }
      ],
      "enhancedPlusPlusDependencies": [
        {
          "dep": "ROOT",
          "governor": 0,
          "governorGloss": "ROOT",
          "dependent": 2,
          "dependentGloss": "freigegeben"
        },
        {
          "dep": "nsubj",
          "governor": 2,
          "governorGloss": "freigegeben",
          "dependent": 1,
          "dependentGloss": "Gefangener"
        },
        {
          "dep": "case",
          "governor": 5,
          "governorGloss": "Austausch",
          "dependent": 3,
          "dependentGloss": "in"
        },
        {
          "dep": "amod",
          "governor": 5,
          "governorGloss": "Austausch",
          "dependent": 4,
          "dependentGloss": "Bergdahl"
        },
        {
          "dep": "nmod",
          "governor": 2,
          "governorGloss": "freigegeben",
          "dependent": 5,
          "dependentGloss": "Austausch"
        },
        {
          "dep": "xcomp",
          "governor": 2,
          "governorGloss": "freigegeben",
          "dependent": 6,
          "dependentGloss": "versucht"
        },
        {
          "dep": "punct",
          "governor": 2,
          "governorGloss": "freigegeben",
          "dependent": 7,
          "dependentGloss": ","
        },
        {
          "dep": "case",
          "governor": 9,
          "governorGloss": "Taliban",
          "dependent": 8,
          "dependentGloss": "mit"
        },
        {
          "dep": "nmod",
          "governor": 12,
          "governorGloss": "verbinden",
          "dependent": 9,
          "dependentGloss": "Taliban"
        },
        {
          "dep": "advmod",
          "governor": 12,
          "governorGloss": "verbinden",
          "dependent": 10,
          "dependentGloss": "wieder"
        },
        {
          "dep": "aux",
          "governor": 12,
          "governorGloss": "verbinden",
          "dependent": 11,
          "dependentGloss": "zu"
        },
        {
          "dep": "conj",
          "governor": 2,
          "governorGloss": "freigegeben",
          "dependent": 12,
          "dependentGloss": "verbinden"
        }
      ],
      "tokens": [
        {
          "index": 1,
          "word": "Gefangener",
          "originalText": "Gefangener",
          "characterOffsetBegin": 0,
          "characterOffsetEnd": 10,
          "pos": "NN",
          "before": "",
          "after": " "
        },
        {
          "index": 2,
          "word": "freigegeben",
          "originalText": "freigegeben",
          "characterOffsetBegin": 11,
          "characterOffsetEnd": 22,
          "pos": "VVPP",
          "before": " ",
          "after": " "
        },
        {
          "index": 3,
          "word": "in",
          "originalText": "in",
          "characterOffsetBegin": 23,
          "characterOffsetEnd": 25,
          "pos": "APPR",
          "before": " ",
          "after": " "
        },
        {
          "index": 4,
          "word": "Bergdahl",
          "originalText": "Bergdahl",
          "characterOffsetBegin": 26,
          "characterOffsetEnd": 34,
          "pos": "NN",
          "before": " ",
          "after": " "
        },
        {
          "index": 5,
          "word": "Austausch",
          "originalText": "Austausch",
          "characterOffsetBegin": 35,
          "characterOffsetEnd": 44,
          "pos": "NN",
          "before": " ",
          "after": " "
        },
        {
          "index": 6,
          "word": "versucht",
          "originalText": "versucht",
          "characterOffsetBegin": 45,
          "characterOffsetEnd": 53,
          "pos": "VVFIN",
          "before": " ",
          "after": ""
        },
        {
          "index": 7,
          "word": ",",
          "originalText": ",",
          "characterOffsetBegin": 53,
          "characterOffsetEnd": 54,
          "pos": "$,",
          "before": "",
          "after": " "
        },
        {
          "index": 8,
          "word": "mit",
          "originalText": "mit",
          "characterOffsetBegin": 55,
          "characterOffsetEnd": 58,
          "pos": "APPR",
          "before": " ",
          "after": " "
        },
        {
          "index": 9,
          "word": "Taliban",
          "originalText": "Taliban",
          "characterOffsetBegin": 59,
          "characterOffsetEnd": 66,
          "pos": "NN",
          "before": " ",
          "after": " "
        },
        {
          "index": 10,
          "word": "wieder",
          "originalText": "wieder",
          "characterOffsetBegin": 67,
          "characterOffsetEnd": 73,
          "pos": "ADV",
          "before": " ",
          "after": " "
        },
        {
          "index": 11,
          "word": "zu",
          "originalText": "zu",
          "characterOffsetBegin": 74,
          "characterOffsetEnd": 76,
          "pos": "PTKZU",
          "before": " ",
          "after": " "
        },
        {
          "index": 12,
          "word": "verbinden",
          "originalText": "verbinden",
          "characterOffsetBegin": 77,
          "characterOffsetEnd": 86,
          "pos": "VVINF",
          "before": " ",
          "after": ""
        }
      ]
    }
  ]
}