{
  "sentences": [
    {
      "index": 0,
      "basicDependencies": [
        {
          "dep": "ROOT",
          "governor": 0,
          "governorGloss": "ROOT",
          "dependent": 5,
          "dependentGloss": "zerriß"
        },
        {
          "dep": "nsubj",
          "governor": 5,
          "governorGloss": "zerriß",
          "dependent": 1,
          "dependentGloss": "Nein"
        },
        {
          "dep": "punct",
          "governor": 1,
          "governorGloss": "Nein",
          "dependent": 2,
          "dependentGloss": ","
        },
        {
          "dep": "name",
          "governor": 4,
          "governorGloss": "Plant",
          "dependent": 3,
          "dependentGloss": "Robert"
        },
        {
          "dep": "conj",
          "governor": 1,
          "governorGloss": "Nein",
          "dependent": 4,
          "dependentGloss": "Plant"
        },
        {
          "dep": "neg",
          "governor": 5,
          "governorGloss": "zerriß",
          "dependent": 6,
          "dependentGloss": "nicht"
        },
        {
          "dep": "det",
          "governor": 8,
          "governorGloss": "$",
          "dependent": 7,
          "dependentGloss": "einen"
        },
        {
          "dep": "dobj",
          "governor": 5,
          "governorGloss": "zerriß",
          "dependent": 8,
          "dependentGloss": "$"
        },
        {
          "dep": "nummod",
          "governor": 10,
          "governorGloss": "Millionen",
          "dependent": 9,
          "dependentGloss": "800"
        },
        {
          "dep": "nummod",
          "governor": 11,
          "governorGloss": "Vertrag",
          "dependent": 10,
          "dependentGloss": "Millionen"
        },
        {
          "dep": "det",
          "governor": 8,
          "governorGloss": "$",
          "dependent": 11,
          "dependentGloss": "Vertrag"
        }
      ],
      "enhancedDependencies": [
        {
          "dep": "ROOT",
          "governor": 0,
          "governorGloss": "ROOT",
          "dependent": 5,
          "dependentGloss": "zerriß"
        },
        {
          "dep": "nsubj",
          "governor": 5,
          "governorGloss": "zerriß",
          "dependent": 1,
          "dependentGloss": "Nein"
        },
        {
          "dep": "punct",
          "governor": 1,
          "governorGloss": "Nein",
          "dependent": 2,
          "dependentGloss": ","
        },
        {
          "dep": "name",
          "governor": 4,
          "governorGloss": "Plant",
          "dependent": 3,
          "dependentGloss": "Robert"
        },
        {
          "dep": "conj",
          "governor": 1,
          "governorGloss": "Nein",
          "dependent": 4,
          "dependentGloss": "Plant"
        },
        {
          "dep": "neg",
          "governor": 5,
          "governorGloss": "zerriß",
          "dependent": 6,
          "dependentGloss": "nicht"
        },
        {
          "dep": "det",
          "governor": 8,
          "governorGloss": "$",
          "dependent": 7,
          "dependentGloss": "einen"
        },
        {
          "dep": "dobj",
          "governor": 5,
          "governorGloss": "zerriß",
          "dependent": 8,
          "dependentGloss": "$"
        },
        {
          "dep": "nummod",
          "governor": 10,
          "governorGloss": "Millionen",
          "dependent": 9,
          "dependentGloss": "800"
        },
        {
          "dep": "nummod",
          "governor": 11,
          "governorGloss": "Vertrag",
          "dependent": 10,
          "dependentGloss": "Millionen"
        },
        {
          "dep": "det",
          "governor": 8,
          "governorGloss": "$",
          "dependent": 11,
          "dependentGloss": "Vertrag"
        }
      ],
      "enhancedPlusPlusDependencies": [
        {
          "dep": "ROOT",
          "governor": 0,
          "governorGloss": "ROOT",
          "dependent": 5,
          "dependentGloss": "zerriß"
        },
        {
          "dep": "nsubj",
          "governor": 5,
          "governorGloss": "zerriß",
          "dependent": 1,
          "dependentGloss": "Nein"
        },
        {
          "dep": "punct",
          "governor": 1,
          "governorGloss": "Nein",
          "dependent": 2,
          "dependentGloss": ","
        },
        {
          "dep": "name",
          "governor": 4,
          "governorGloss": "Plant",
          "dependent": 3,
          "dependentGloss": "Robert"
        },
        {
          "dep": "conj",
          "governor": 1,
          "governorGloss": "Nein",
          "dependent": 4,
          "dependentGloss": "Plant"
        },
        {
          "dep": "neg",
          "governor": 5,
          "governorGloss": "zerriß",
          "dependent": 6,
          "dependentGloss": "nicht"
        },
        {
          "dep": "det",
          "governor": 8,
          "governorGloss": "$",
          "dependent": 7,
          "dependentGloss": "einen"
        },
        {
          "dep": "dobj",
          "governor": 5,
          "governorGloss": "zerriß",
          "dependent": 8,
          "dependentGloss": "$"
        },
        {
          "dep": "nummod",
          "governor": 10,
          "governorGloss": "Millionen",
          "dependent": 9,
          "dependentGloss": "800"
        },
        {
          "dep": "nummod",
          "governor": 11,
          "governorGloss": "Vertrag",
          "dependent": 10,
          "dependentGloss": "Millionen"
        },
        {
          "dep": "det",
          "governor": 8,
          "governorGloss": "$",
          "dependent": 11,
          "dependentGloss": "Vertrag"
        }
      ],
      "tokens": [
        {
          "index": 1,
          "word": "Nein",
          "originalText": "Nein",
          "characterOffsetBegin": 0,
          "characterOffsetEnd": 4,
          "pos": "PTKANT",
          "before": "",
          "after": ""
        },
        {
          "index": 2,
          "word": ",",
          "originalText": ",",
          "characterOffsetBegin": 4,
          "characterOffsetEnd": 5,
          "pos": "$,",
          "before": "",
          "after": " "
        },
        {
          "index": 3,
          "word": "Robert",
          "originalText": "Robert",
          "characterOffsetBegin": 6,
          "characterOffsetEnd": 12,
          "pos": "NE",
          "before": " ",
          "after": " "
        },
        {
          "index": 4,
          "word": "Plant",
          "originalText": "Plant",
          "characterOffsetBegin": 13,
          "characterOffsetEnd": 18,
          "pos": "NE",
          "before": " ",
          "after": " "
        },
        {
          "index": 5,
          "word": "zerriß",
          "originalText": "zerriß",
          "characterOffsetBegin": 19,
          "characterOffsetEnd": 25,
          "pos": "VVFIN",
          "before": " ",
          "after": " "
        },
        {
          "index": 6,
          "word": "nicht",
          "originalText": "nicht",
          "characterOffsetBegin": 26,
          "characterOffsetEnd": 31,
          "pos": "PTKNEG",
          "before": " ",
          "after": " "
        },
        {
          "index": 7,
          "word": "einen",
          "originalText": "einen",
          "characterOffsetBegin": 32,
          "characterOffsetEnd": 37,
          "pos": "ART",
          "before": " ",
          "after": " "
        },
        {
          "index": 8,
          "word": "$",
          "originalText": "$",
          "characterOffsetBegin": 38,
          "characterOffsetEnd": 39,
          "pos": "CARD",
          "before": " ",
          "after": " "
        },
        {
          "index": 9,
          "word": "800",
          "originalText": "800",
          "characterOffsetBegin": 40,
          "characterOffsetEnd": 43,
          "pos": "CARD",
          "before": " ",
          "after": " "
        },
        {
          "index": 10,
          "word": "Millionen",
          "originalText": "Millionen",
          "characterOffsetBegin": 44,
          "characterOffsetEnd": 53,
          "pos": "NN",
          "before": " ",
          "after": " "
        },
        {
          "index": 11,
          "word": "Vertrag",
          "originalText": "Vertrag",
          "characterOffsetBegin": 54,
          "characterOffsetEnd": 61,
          "pos": "NN",
          "before": " ",
          "after": ""
        }
      ]
    }
  ]
}