{
  "sentences": [
    {
      "index": 0,
      "basicDependencies": [
        {
          "dep": "ROOT",
          "governor": 0,
          "governorGloss": "ROOT",
          "dependent": 2,
          "dependentGloss": "behaupten"
        },
        {
          "dep": "nsubj",
          "governor": 2,
          "governorGloss": "behaupten",
          "dependent": 1,
          "dependentGloss": "Isis-Militanten"
        },
        {
          "dep": "punct",
          "governor": 2,
          "governorGloss": "behaupten",
          "dependent": 3,
          "dependentGloss": ","
        },
        {
          "dep": "det",
          "governor": 5,
          "governorGloss": "US-Journalisten",
          "dependent": 4,
          "dependentGloss": "den"
        },
        {
          "dep": "dobj",
          "governor": 8,
          "governorGloss": "getötet",
          "dependent": 5,
          "dependentGloss": "US-Journalisten"
        },
        {
          "dep": "name",
          "governor": 7,
          "governorGloss": "Foley",
          "dependent": 6,
          "dependentGloss": "James"
        },
        {
          "dep": "appos",
          "governor": 5,
          "governorGloss": "US-Journalisten",
          "dependent": 7,
          "dependentGloss": "Foley"
        },
        {
          "dep": "xcomp",
          "governor": 2,
          "governorGloss": "behaupten",
          "dependent": 8,
          "dependentGloss": "getötet"
        },
        {
          "dep": "aux",
          "governor": 10,
          "governorGloss": "haben",
          "dependent": 9,
          "dependentGloss": "zu"
        },
        {
          "dep": "aux",
          "governor": 8,
          "governorGloss": "getötet",
          "dependent": 10,
          "dependentGloss": "haben"
        }
      ],
      "enhancedDependencies": [
        {
          "dep": "ROOT",
          "governor": 0,
          "governorGloss": "ROOT",
          "dependent": 2,
          "dependentGloss": "behaupten"
        },
        {
          "dep": "nsubj",
          "governor": 2,
          "governorGloss": "behaupten",
          "dependent": 1,
          "dependentGloss": "Isis-Militanten"
        },
        {
          "dep": "punct",
          "governor": 2,
          "governorGloss": "behaupten",
          "dependent": 3,
          "dependentGloss": ","
        },
        {
          "dep": "det",
          "governor": 5,
          "governorGloss": "US-Journalisten",
          "dependent": 4,
          "dependentGloss": "den"
        },
        {
          "dep": "dobj",
          "governor": 8,
          "governorGloss": "getötet",
          "dependent": 5,
          "dependentGloss": "US-Journalisten"
        },
        {
          "dep": "name",
          "governor": 7,
          "governorGloss": "Foley",
          "dependent": 6,
          "dependentGloss": "James"
        },
        {
          "dep": "appos",
          "governor": 5,
          "governorGloss": "US-Journalisten",
          "dependent": 7,
          "dependentGloss": "Foley"
        },
        {
          "dep": "xcomp",
          "governor": 2,
          "governorGloss": "behaupten",
          "dependent": 8,
          "dependentGloss": "getötet"
        },
        {
          "dep": "aux",
          "governor": 10,
          "governorGloss": "haben",
          "dependent": 9,
          "dependentGloss": "zu"
        },
        {
          "dep": "aux",
          "governor": 8,
          "governorGloss": "getötet",
          "dependent": 10,
          "dependentGloss": "haben"
        }
      ],
      "enhancedPlusPlusDependencies": [
        {
          "dep": "ROOT",
          "governor": 0,
          "governorGloss": "ROOT",
          "dependent": 2,
          "dependentGloss": "behaupten"
        },
        {
          "dep": "nsubj",
          "governor": 2,
          "governorGloss": "behaupten",
          "dependent": 1,
          "dependentGloss": "Isis-Militanten"
        },
        {
          "dep": "punct",
          "governor": 2,
          "governorGloss": "behaupten",
          "dependent": 3,
          "dependentGloss": ","
        },
        {
          "dep": "det",
          "governor": 5,
          "governorGloss": "US-Journalisten",
          "dependent": 4,
          "dependentGloss": "den"
        },
        {
          "dep": "dobj",
          "governor": 8,
          "governorGloss": "getötet",
          "dependent": 5,
          "dependentGloss": "US-Journalisten"
        },
        {
          "dep": "name",
          "governor": 7,
          "governorGloss": "Foley",
          "dependent": 6,
          "dependentGloss": "James"
        },
        {
          "dep": "appos",
          "governor": 5,
          "governorGloss": "US-Journalisten",
          "dependent": 7,
          "dependentGloss": "Foley"
        },
        {
          "dep": "xcomp",
          "governor": 2,
          "governorGloss": "behaupten",
          "dependent": 8,
          "dependentGloss": "getötet"
        },
        {
          "dep": "aux",
          "governor": 10,
          "governorGloss": "haben",
          "dependent": 9,
          "dependentGloss": "zu"
        },
        {
          "dep": "aux",
          "governor": 8,
          "governorGloss": "getötet",
          "dependent": 10,
          "dependentGloss": "haben"
        }
      ],
      "tokens": [
        {
          "index": 1,
          "word": "Isis-Militanten",
          "originalText": "Isis-Militanten",
          "characterOffsetBegin": 0,
          "characterOffsetEnd": 15,
          "pos": "NN",
          "before": "",
          "after": " "
        },
        {
          "index": 2,
          "word": "behaupten",
          "originalText": "behaupten",
          "characterOffsetBegin": 16,
          "characterOffsetEnd": 25,
          "pos": "VVFIN",
          "before": " ",
          "after": ""
        },
        {
          "index": 3,
          "word": ",",
          "originalText": ",",
          "characterOffsetBegin": 25,
          "characterOffsetEnd": 26,
          "pos": "$,",
          "before": "",
          "after": " "
        },
        {
          "index": 4,
          "word": "den",
          "originalText": "den",
          "characterOffsetBegin": 27,
          "characterOffsetEnd": 30,
          "pos": "ART",
          "before": " ",
          "after": " "
        },
        {
          "index": 5,
          "word": "US-Journalisten",
          "originalText": "US-Journalisten",
          "characterOffsetBegin": 31,
          "characterOffsetEnd": 46,
          "pos": "NN",
          "before": " ",
          "after": " "
        },
        {
          "index": 6,
          "word": "James",
          "originalText": "James",
          "characterOffsetBegin": 47,
          "characterOffsetEnd": 52,
          "pos": "NE",
          "before": " ",
          "after": " "
        },
        {
          "index": 7,
          "word": "Foley",
          "originalText": "Foley",
          "characterOffsetBegin": 53,
          "characterOffsetEnd": 58,
          "pos": "NE",
          "before": " ",
          "after": " "
        },
        {
          "index": 8,
          "word": "getötet",
          "originalText": "getötet",
          "characterOffsetBegin": 59,
          "characterOffsetEnd": 66,
          "pos": "VVPP",
          "before": " ",
          "after": " "
        },
        {
          "index": 9,
          "word": "zu",
          "originalText": "zu",
          "characterOffsetBegin": 67,
          "characterOffsetEnd": 69,
          "pos": "PTKZU",
          "before": " ",
          "after": " "
        },
        {
          "index": 10,
          "word": "haben",
          "originalText": "haben",
          "characterOffsetBegin": 70,
          "characterOffsetEnd": 75,
          "pos": "VAINF",
          "before": " ",
          "after": ""
        }
      ]
    }
  ]
}