{
  "sentences": [
    {
      "index": 0,
      "basicDependencies": [
        {
          "dep": "ROOT",
          "governor": 0,
          "governorGloss": "ROOT",
          "dependent": 4,
          "dependentGloss": "Hank"
        },
        {
          "dep": "name",
          "governor": 3,
          "governorGloss": "Bank",
          "dependent": 1,
          "dependentGloss": "Rapper"
        },
        {
          "dep": "amod",
          "governor": 3,
          "governorGloss": "Bank",
          "dependent": 2,
          "dependentGloss": "Big"
        },
        {
          "dep": "nsubj",
          "governor": 4,
          "governorGloss": "Hank",
          "dependent": 3,
          "dependentGloss": "Bank"
        },
        {
          "dep": "case",
          "governor": 7,
          "governorGloss": "Gang",
          "dependent": 5,
          "dependentGloss": "von"
        },
        {
          "dep": "name",
          "governor": 7,
          "governorGloss": "Gang",
          "dependent": 6,
          "dependentGloss": "Sugarhill"
        },
        {
          "dep": "nmod",
          "governor": 4,
          "governorGloss": "Hank",
          "dependent": 7,
          "dependentGloss": "Gang"
        },
        {
          "dep": "advmod",
          "governor": 4,
          "governorGloss": "Hank",
          "dependent": 8,
          "dependentGloss": "stirbt"
        },
        {
          "dep": "case",
          "governor": 10,
          "governorGloss": "57",
          "dependent": 9,
          "dependentGloss": "bei"
        },
        {
          "dep": "nmod",
          "governor": 4,
          "governorGloss": "Hank",
          "dependent": 10,
          "dependentGloss": "57"
        }
      ],
      "enhancedDependencies": [
        {
          "dep": "ROOT",
          "governor": 0,
          "governorGloss": "ROOT",
          "dependent": 4,
          "dependentGloss": "Hank"
        },
        {
          "dep": "name",
          "governor": 3,
          "governorGloss": "Bank",
          "dependent": 1,
          "dependentGloss": "Rapper"
        },
        {
          "dep": "amod",
          "governor": 3,
          "governorGloss": "Bank",
          "dependent": 2,
          "dependentGloss": "Big"
        },
        {
          "dep": "nsubj",
          "governor": 4,
          "governorGloss": "Hank",
          "dependent": 3,
          "dependentGloss": "Bank"
        },
        {
          "dep": "case",
          "governor": 7,
          "governorGloss": "Gang",
          "dependent": 5,
          "dependentGloss": "von"
        },
        {
          "dep": "name",
          "governor": 7,
          "governorGloss": "Gang",
          "dependent": 6,
          "dependentGloss": "Sugarhill"
        },
        {
          "dep": "nmod",
          "governor": 4,
          "governorGloss": "Hank",
          "dependent": 7,
          "dependentGloss": "Gang"
        },
        {
          "dep": "advmod",
          "governor": 4,
          "governorGloss": "Hank",
          "dependent": 8,
          "dependentGloss": "stirbt"
        },
        {
          "dep": "case",
          "governor": 10,
          "governorGloss": "57",
          "dependent": 9,
          "dependentGloss": "bei"
        },
        {
          "dep": "nmod",
          "governor": 4,
          "governorGloss": "Hank",
          "dependent": 10,
          "dependentGloss": "57"
        }
      ],
      "enhancedPlusPlusDependencies": [
        {
          "dep": "ROOT",
          "governor": 0,
          "governorGloss": "ROOT",
          "dependent": 4,
          "dependentGloss": "Hank"
        },
        {
          "dep": "name",
          "governor": 3,
          "governorGloss": "Bank",
          "dependent": 1,
          "dependentGloss": "Rapper"
        },
        {
          "dep": "amod",
          "governor": 3,
          "governorGloss": "Bank",
          "dependent": 2,
          "dependentGloss": "Big"
        },
        {
          "dep": "nsubj",
          "governor": 4,
          "governorGloss": "Hank",
          "dependent": 3,
          "dependentGloss": "Bank"
        },
        {
          "dep": "case",
          "governor": 7,
          "governorGloss": "Gang",
          "dependent": 5,
          "dependentGloss": "von"
        },
        {
          "dep": "name",
          "governor": 7,
          "governorGloss": "Gang",
          "dependent": 6,
          "dependentGloss": "Sugarhill"
        },
        {
          "dep": "nmod",
          "governor": 4,
          "governorGloss": "Hank",
          "dependent": 7,
          "dependentGloss": "Gang"
        },
        {
          "dep": "advmod",
          "governor": 4,
          "governorGloss": "Hank",
          "dependent": 8,
          "dependentGloss": "stirbt"
        },
        {
          "dep": "case",
          "governor": 10,
          "governorGloss": "57",
          "dependent": 9,
          "dependentGloss": "bei"
        },
        {
          "dep": "nmod",
          "governor": 4,
          "governorGloss": "Hank",
          "dependent": 10,
          "dependentGloss": "57"
        }
      ],
      "tokens": [
        {
          "index": 1,
          "word": "Rapper",
          "originalText": "Rapper",
          "characterOffsetBegin": 0,
          "characterOffsetEnd": 6,
          "pos": "NN",
          "before": "",
          "after": " "
        },
        {
          "index": 2,
          "word": "Big",
          "originalText": "Big",
          "characterOffsetBegin": 7,
          "characterOffsetEnd": 10,
          "pos": "NE",
          "before": " ",
          "after": " "
        },
        {
          "index": 3,
          "word": "Bank",
          "originalText": "Bank",
          "characterOffsetBegin": 11,
          "characterOffsetEnd": 15,
          "pos": "NN",
          "before": " ",
          "after": " "
        },
        {
          "index": 4,
          "word": "Hank",
          "originalText": "Hank",
          "characterOffsetBegin": 16,
          "characterOffsetEnd": 20,
          "pos": "NE",
          "before": " ",
          "after": " "
        },
        {
          "index": 5,
          "word": "von",
          "originalText": "von",
          "characterOffsetBegin": 21,
          "characterOffsetEnd": 24,
          "pos": "APPR",
          "before": " ",
          "after": " "
        },
        {
          "index": 6,
          "word": "Sugarhill",
          "originalText": "Sugarhill",
          "characterOffsetBegin": 25,
          "characterOffsetEnd": 34,
          "pos": "NE",
          "before": " ",
          "after": " "
        },
        {
          "index": 7,
          "word": "Gang",
          "originalText": "Gang",
          "characterOffsetBegin": 35,
          "characterOffsetEnd": 39,
          "pos": "NN",
          "before": " ",
          "after": " "
        },
        {
          "index": 8,
          "word": "stirbt",
          "originalText": "stirbt",
          "characterOffsetBegin": 40,
          "characterOffsetEnd": 46,
          "pos": "VVFIN",
          "before": " ",
          "after": " "
        },
        {
          "index": 9,
          "word": "bei",
          "originalText": "bei",
          "characterOffsetBegin": 47,
          "characterOffsetEnd": 50,
          "pos": "APPR",
          "before": " ",
          "after": " "
        },
        {
          "index": 10,
          "word": "57",
          "originalText": "57",
          "characterOffsetBegin": 51,
          "characterOffsetEnd": 53,
          "pos": "CARD",
          "before": " ",
          "after": ""
        }
      ]
    }
  ]
}