{
  "sentences": [
    {
      "index": 0,
      "basicDependencies": [
        {
          "dep": "ROOT",
          "governor": 0,
          "governorGloss": "ROOT",
          "dependent": 2,
          "dependentGloss": "Woods"
        },
        {
          "dep": "name",
          "governor": 2,
          "governorGloss": "Woods",
          "dependent": 1,
          "dependentGloss": "Tiger"
        },
        {
          "dep": "punct",
          "governor": 2,
          "governorGloss": "Woods",
          "dependent": 3,
          "dependentGloss": "`"
        },
        {
          "dep": "amod",
          "governor": 6,
          "governorGloss": "Insel",
          "dependent": 4,
          "dependentGloss": "Luxe"
        },
        {
          "dep": "name",
          "governor": 6,
          "governorGloss": "Insel",
          "dependent": 5,
          "dependentGloss": "Wikinger"
        },
        {
          "dep": "nsubj",
          "governor": 9,
          "governorGloss": "steht",
          "dependent": 6,
          "dependentGloss": "Insel"
        },
        {
          "dep": "case",
          "governor": 8,
          "governorGloss": "Schweden",
          "dependent": 7,
          "dependentGloss": "in"
        },
        {
          "dep": "nmod",
          "governor": 6,
          "governorGloss": "Insel",
          "dependent": 8,
          "dependentGloss": "Schweden"
        },
        {
          "dep": "acl",
          "governor": 3,
          "governorGloss": "`",
          "dependent": 9,
          "dependentGloss": "steht"
        },
        {
          "dep": "amod",
          "governor": 11,
          "governorGloss": "Verkauf",
          "dependent": 10,
          "dependentGloss": "zum"
        },
        {
          "dep": "dobj",
          "governor": 9,
          "governorGloss": "steht",
          "dependent": 11,
          "dependentGloss": "Verkauf"
        }
      ],
      "enhancedDependencies": [
        {
          "dep": "ROOT",
          "governor": 0,
          "governorGloss": "ROOT",
          "dependent": 2,
          "dependentGloss": "Woods"
        },
        {
          "dep": "name",
          "governor": 2,
          "governorGloss": "Woods",
          "dependent": 1,
          "dependentGloss": "Tiger"
        },
        {
          "dep": "punct",
          "governor": 2,
          "governorGloss": "Woods",
          "dependent": 3,
          "dependentGloss": "`"
        },
        {
          "dep": "amod",
          "governor": 6,
          "governorGloss": "Insel",
          "dependent": 4,
          "dependentGloss": "Luxe"
        },
        {
          "dep": "name",
          "governor": 6,
          "governorGloss": "Insel",
          "dependent": 5,
          "dependentGloss": "Wikinger"
        },
        {
          "dep": "nsubj",
          "governor": 9,
          "governorGloss": "steht",
          "dependent": 6,
          "dependentGloss": "Insel"
        },
        {
          "dep": "case",
          "governor": 8,
          "governorGloss": "Schweden",
          "dependent": 7,
          "dependentGloss": "in"
        },
        {
          "dep": "nmod",
          "governor": 6,
          "governorGloss": "Insel",
          "dependent": 8,
          "dependentGloss": "Schweden"
        },
        {
          "dep": "acl",
          "governor": 3,
          "governorGloss": "`",
          "dependent": 9,
          "dependentGloss": "steht"
        },
        {
          "dep": "amod",
          "governor": 11,
          "governorGloss": "Verkauf",
          "dependent": 10,
          "dependentGloss": "zum"
        },
        {
          "dep": "dobj",
          "governor": 9,
          "governorGloss": "steht",
          "dependent": 11,
          "dependentGloss": "Verkauf"
        }
      ],
      "enhancedPlusPlusDependencies": [
        {
          "dep": "ROOT",
          "governor": 0,
          "governorGloss": "ROOT",
          "dependent": 2,
          "dependentGloss": "Woods"
        },
        {
          "dep": "name",
          "governor": 2,
          "governorGloss": "Woods",
          "dependent": 1,
          "dependentGloss": "Tiger"
        },
        {
          "dep": "punct",
          "governor": 2,
          "governorGloss": "Woods",
          "dependent": 3,
          "dependentGloss": "`"
        },
        {
          "dep": "amod",
          "governor": 6,
          "governorGloss": "Insel",
          "dependent": 4,
          "dependentGloss": "Luxe"
        },
        {
          "dep": "name",
          "governor": 6,
          "governorGloss": "Insel",
          "dependent": 5,
          "dependentGloss": "Wikinger"
        },
        {
          "dep": "nsubj",
          "governor": 9,
          "governorGloss": "steht",
          "dependent": 6,
          "dependentGloss": "Insel"
        },
        {
          "dep": "case",
          "governor": 8,
          "governorGloss": "Schweden",
          "dependent": 7,
          "dependentGloss": "in"
        },
        {
          "dep": "nmod",
          "governor": 6,
          "governorGloss": "Insel",
          "dependent": 8,
          "dependentGloss": "Schweden"
        },
        {
          "dep": "acl",
          "governor": 3,
          "governorGloss": "`",
          "dependent": 9,
          "dependentGloss": "steht"
        },
        {
          "dep": "amod",
          "governor": 11,
          "governorGloss": "Verkauf",
          "dependent": 10,
          "dependentGloss": "zum"
        },
        {
          "dep": "dobj",
          "governor": 9,
          "governorGloss": "steht",
          "dependent": 11,
          "dependentGloss": "Verkauf"
        }
      ],
      "tokens": [
        {
          "index": 1,
          "word": "Tiger",
          "originalText": "Tiger",
          "characterOffsetBegin": 0,
          "characterOffsetEnd": 5,
          "pos": "NE",
          "before": "",
          "after": " "
        },
        {
          "index": 2,
          "word": "Woods",
          "originalText": "Woods",
          "characterOffsetBegin": 6,
          "characterOffsetEnd": 11,
          "pos": "NE",
          "before": " ",
          "after": " "
        },
        {
          "index": 3,
          "word": "`",
          "originalText": "'",
          "characterOffsetBegin": 12,
          "characterOffsetEnd": 13,
          "pos": "CARD",
          "before": " ",
          "after": ""
        },
        {
          "index": 4,
          "word": "Luxe",
          "originalText": "Luxe",
          "characterOffsetBegin": 13,
          "characterOffsetEnd": 17,
          "pos": "NE",
          "before": "",
          "after": " "
        },
        {
          "index": 5,
          "word": "Wikinger",
          "originalText": "Wikinger",
          "characterOffsetBegin": 18,
          "characterOffsetEnd": 26,
          "pos": "NE",
          "before": " ",
          "after": " "
        },
        {
          "index": 6,
          "word": "Insel",
          "originalText": "Insel",
          "characterOffsetBegin": 27,
          "characterOffsetEnd": 32,
          "pos": "NN",
          "before": " ",
          "after": " "
        },
        {
          "index": 7,
          "word": "in",
          "originalText": "in",
          "characterOffsetBegin": 33,
          "characterOffsetEnd": 35,
          "pos": "APPR",
          "before": " ",
          "after": " "
        },
        {
          "index": 8,
          "word": "Schweden",
          "originalText": "Schweden",
          "characterOffsetBegin": 36,
          "characterOffsetEnd": 44,
          "pos": "NE",
          "before": " ",
          "after": " "
        },
        {
          "index": 9,
          "word": "steht",
          "originalText": "steht",
          "characterOffsetBegin": 45,
          "characterOffsetEnd": 50,
          "pos": "VVFIN",
          "before": " ",
          "after": " "
        },
        {
          "index": 10,
          "word": "zum",
          "originalText": "zum",
          "characterOffsetBegin": 51,
          "characterOffsetEnd": 54,
          "pos": "APPRART",
          "before": " ",
          "after": " "
        },
        {
          "index": 11,
          "word": "Verkauf",
          "originalText": "Verkauf",
          "characterOffsetBegin": 55,
          "characterOffsetEnd": 62,
          "pos": "NN",
          "before": " ",
          "after": ""
        }
      ]
    }
  ]
}