{
  "sentences": [
    {
      "index": 0,
      "basicDependencies": [
        {
          "dep": "ROOT",
          "governor": 0,
          "governorGloss": "ROOT",
          "dependent": 2,
          "dependentGloss": "zeigt"
        },
        {
          "dep": "nsubj",
          "governor": 2,
          "governorGloss": "zeigt",
          "dependent": 1,
          "dependentGloss": "ISIS-Video"
        },
        {
          "dep": "dobj",
          "governor": 2,
          "governorGloss": "zeigt",
          "dependent": 3,
          "dependentGloss": "Enthauptung"
        },
        {
          "dep": "dobj",
          "governor": 3,
          "governorGloss": "Enthauptung",
          "dependent": 4,
          "dependentGloss": "löst"
        },
        {
          "dep": "amod",
          "governor": 6,
          "governorGloss": "Antwort",
          "dependent": 5,
          "dependentGloss": "internationale"
        },
        {
          "dep": "dobj",
          "governor": 4,
          "governorGloss": "löst",
          "dependent": 6,
          "dependentGloss": "Antwort"
        },
        {
          "dep": "mark",
          "governor": 2,
          "governorGloss": "zeigt",
          "dependent": 7,
          "dependentGloss": "aus"
        }
      ],
      "enhancedDependencies": [
        {
          "dep": "ROOT",
          "governor": 0,
          "governorGloss": "ROOT",
          "dependent": 2,
          "dependentGloss": "zeigt"
        },
        {
          "dep": "nsubj",
          "governor": 2,
          "governorGloss": "zeigt",
          "dependent": 1,
          "dependentGloss": "ISIS-Video"
        },
        {
          "dep": "dobj",
          "governor": 2,
          "governorGloss": "zeigt",
          "dependent": 3,
          "dependentGloss": "Enthauptung"
        },
        {
          "dep": "dobj",
          "governor": 3,
          "governorGloss": "Enthauptung",
          "dependent": 4,
          "dependentGloss": "löst"
        },
        {
          "dep": "amod",
          "governor": 6,
          "governorGloss": "Antwort",
          "dependent": 5,
          "dependentGloss": "internationale"
        },
        {
          "dep": "dobj",
          "governor": 4,
          "governorGloss": "löst",
          "dependent": 6,
          "dependentGloss": "Antwort"
        },
        {
          "dep": "mark",
          "governor": 2,
          "governorGloss": "zeigt",
          "dependent": 7,
          "dependentGloss": "aus"
        }
      ],
      "enhancedPlusPlusDependencies": [
        {
          "dep": "ROOT",
          "governor": 0,
          "governorGloss": "ROOT",
          "dependent": 2,
          "dependentGloss": "zeigt"
        },
        {
          "dep": "nsubj",
          "governor": 2,
          "governorGloss": "zeigt",
          "dependent": 1,
          "dependentGloss": "ISIS-Video"
        },
        {
          "dep": "dobj",
          "governor": 2,
          "governorGloss": "zeigt",
          "dependent": 3,
          "dependentGloss": "Enthauptung"
        },
        {
          "dep": "dobj",
          "governor": 3,
          "governorGloss": "Enthauptung",
          "dependent": 4,
          "dependentGloss": "löst"
        },
        {
          "dep": "amod",
          "governor": 6,
          "governorGloss": "Antwort",
          "dependent": 5,
          "dependentGloss": "internationale"
        },
        {
          "dep": "dobj",
          "governor": 4,
          "governorGloss": "löst",
          "dependent": 6,
          "dependentGloss": "Antwort"
        },
        {
          "dep": "mark",
          "governor": 2,
          "governorGloss": "zeigt",
          "dependent": 7,
          "dependentGloss": "aus"
        }
      ],
      "tokens": [
        {
          "index": 1,
          "word": "ISIS-Video",
          "originalText": "ISIS-Video",
          "characterOffsetBegin": 0,
          "characterOffsetEnd": 10,
          "pos": "NN",
          "before": "",
          "after": " "
        },
        {
          "index": 2,
          "word": "zeigt",
          "originalText": "zeigt",
          "characterOffsetBegin": 11,
          "characterOffsetEnd": 16,
          "pos": "VVFIN",
          "before": " ",
          "after": " "
        },
        {
          "index": 3,
          "word": "Enthauptung",
          "originalText": "Enthauptung",
          "characterOffsetBegin": 17,
          "characterOffsetEnd": 28,
          "pos": "NN",
          "before": " ",
          "after": " "
        },
        {
          "index": 4,
          "word": "löst",
          "originalText": "löst",
          "characterOffsetBegin": 29,
          "characterOffsetEnd": 33,
          "pos": "VVFIN",
          "before": " ",
          "after": " "
        },
        {
          "index": 5,
          "word": "internationale",
          "originalText": "internationale",
          "characterOffsetBegin": 34,
          "characterOffsetEnd": 48,
          "pos": "ADJA",
          "before": " ",
          "after": " "
        },
        {
          "index": 6,
          "word": "Antwort",
          "originalText": "Antwort",
          "characterOffsetBegin": 49,
          "characterOffsetEnd": 56,
          "pos": "NN",
          "before": " ",
          "after": " "
        },
        {
          "index": 7,
          "word": "aus",
          "originalText": "aus",
          "characterOffsetBegin": 57,
          "characterOffsetEnd": 60,
          "pos": "PTKVZ",
          "before": " ",
          "after": ""
        }
      ]
    }
  ]
}