{
  "sentences": [
    {
      "index": 0,
      "basicDependencies": [
        {
          "dep": "ROOT",
          "governor": 0,
          "governorGloss": "ROOT",
          "dependent": 3,
          "dependentGloss": "tot"
        },
        {
          "dep": "name",
          "governor": 2,
          "governorGloss": "Rose",
          "dependent": 1,
          "dependentGloss": "Axl"
        },
        {
          "dep": "nsubj",
          "governor": 3,
          "governorGloss": "tot",
          "dependent": 2,
          "dependentGloss": "Rose"
        },
        {
          "dep": "punct",
          "governor": 3,
          "governorGloss": "tot",
          "dependent": 4,
          "dependentGloss": "?"
        }
      ],
      "enhancedDependencies": [
        {
          "dep": "ROOT",
          "governor": 0,
          "governorGloss": "ROOT",
          "dependent": 3,
          "dependentGloss": "tot"
        },
        {
          "dep": "name",
          "governor": 2,
          "governorGloss": "Rose",
          "dependent": 1,
          "dependentGloss": "Axl"
        },
        {
          "dep": "nsubj",
          "governor": 3,
          "governorGloss": "tot",
          "dependent": 2,
          "dependentGloss": "Rose"
        },
        {
          "dep": "punct",
          "governor": 3,
          "governorGloss": "tot",
          "dependent": 4,
          "dependentGloss": "?"
        }
      ],
      "enhancedPlusPlusDependencies": [
        {
          "dep": "ROOT",
          "governor": 0,
          "governorGloss": "ROOT",
          "dependent": 3,
          "dependentGloss": "tot"
        },
        {
          "dep": "name",
          "governor": 2,
          "governorGloss": "Rose",
          "dependent": 1,
          "dependentGloss": "Axl"
        },
        {
          "dep": "nsubj",
          "governor": 3,
          "governorGloss": "tot",
          "dependent": 2,
          "dependentGloss": "Rose"
        },
        {
          "dep": "punct",
          "governor": 3,
          "governorGloss": "tot",
          "dependent": 4,
          "dependentGloss": "?"
        }
      ],
      "tokens": [
        {
          "index": 1,
          "word": "Axl",
          "originalText": "Axl",
          "characterOffsetBegin": 0,
          "characterOffsetEnd": 3,
          "pos": "NE",
          "before": "",
          "after": " "
        },
        {
          "index": 2,
          "word": "Rose",
          "originalText": "Rose",
          "characterOffsetBegin": 4,
          "characterOffsetEnd": 8,
          "pos": "NE",
          "before": " ",
          "after": " "
        },
        {
          "index": 3,
          "word": "tot",
          "originalText": "tot",
          "characterOffsetBegin": 9,
          "characterOffsetEnd": 12,
          "pos": "ADJD",
          "before": " ",
          "after": ""
        },
        {
          "index": 4,
          "word": "?",
          "originalText": "?",
          "characterOffsetBegin": 12,
          "characterOffsetEnd": 13,
          "pos": "$.",
          "before": "",
          "after": " "
        }
      ]
    },
    {
      "index": 1,
      "basicDependencies": [
        {
          "dep": "ROOT",
          "governor": 0,
          "governorGloss": "ROOT",
          "dependent": 2,
          "dependentGloss": "Freak"
        },
        {
          "dep": "nsubj",
          "governor": 2,
          "governorGloss": "Freak",
          "dependent": 1,
          "dependentGloss": "Fans"
        },
        {
          "dep": "advmod",
          "governor": 2,
          "governorGloss": "Freak",
          "dependent": 3,
          "dependentGloss": "Out"
        },
        {
          "dep": "case",
          "governor": 5,
          "governorGloss": "Todesritter",
          "dependent": 4,
          "dependentGloss": "über"
        },
        {
          "dep": "nmod",
          "governor": 2,
          "governorGloss": "Freak",
          "dependent": 5,
          "dependentGloss": "Todesritter"
        }
      ],
      "enhancedDependencies": [
        {
          "dep": "ROOT",
          "governor": 0,
          "governorGloss": "ROOT",
          "dependent": 2,
          "dependentGloss": "Freak"
        },
        {
          "dep": "nsubj",
          "governor": 2,
          "governorGloss": "Freak",
          "dependent": 1,
          "dependentGloss": "Fans"
        },
        {
          "dep": "advmod",
          "governor": 2,
          "governorGloss": "Freak",
          "dependent": 3,
          "dependentGloss": "Out"
        },
        {
          "dep": "case",
          "governor": 5,
          "governorGloss": "Todesritter",
          "dependent": 4,
          "dependentGloss": "über"
        },
        {
          "dep": "nmod",
          "governor": 2,
          "governorGloss": "Freak",
          "dependent": 5,
          "dependentGloss": "Todesritter"
        }
      ],
      "enhancedPlusPlusDependencies": [
        {
          "dep": "ROOT",
          "governor": 0,
          "governorGloss": "ROOT",
          "dependent": 2,
          "dependentGloss": "Freak"
        },
        {
          "dep": "nsubj",
          "governor": 2,
          "governorGloss": "Freak",
          "dependent": 1,
          "dependentGloss": "Fans"
        },
        {
          "dep": "advmod",
          "governor": 2,
          "governorGloss": "Freak",
          "dependent": 3,
          "dependentGloss": "Out"
        },
        {
          "dep": "case",
          "governor": 5,
          "governorGloss": "Todesritter",
          "dependent": 4,
          "dependentGloss": "über"
        },
        {
          "dep": "nmod",
          "governor": 2,
          "governorGloss": "Freak",
          "dependent": 5,
          "dependentGloss": "Todesritter"
        }
      ],
      "tokens": [
        {
          "index": 1,
          "word": "Fans",
          "originalText": "Fans",
          "characterOffsetBegin": 14,
          "characterOffsetEnd": 18,
          "pos": "NN",
          "before": " ",
          "after": " "
        },
        {
          "index": 2,
          "word": "Freak",
          "originalText": "Freak",
          "characterOffsetBegin": 19,
          "characterOffsetEnd": 24,
          "pos": "NE",
          "before": " ",
          "after": " "
        },
        {
          "index": 3,
          "word": "Out",
          "originalText": "Out",
          "characterOffsetBegin": 25,
          "characterOffsetEnd": 28,
          "pos": "NE",
          "before": " ",
          "after": " "
        },
        {
          "index": 4,
          "word": "über",
          "originalText": "über",
          "characterOffsetBegin": 29,
          "characterOffsetEnd": 33,
          "pos": "APPR",
          "before": " ",
          "after": " "
        },
        {
          "index": 5,
          "word": "Todesritter",
          "originalText": "Todesritter",
          "characterOffsetBegin": 34,
          "characterOffsetEnd": 45,
          "pos": "NN",
          "before": " ",
          "after": ""
        }
      ]
    }
  ]
}