{
  "sentences": [
    {
      "index": 0,
      "basicDependencies": [
        {
          "dep": "ROOT",
          "governor": 0,
          "governorGloss": "ROOT",
          "dependent": 6,
          "dependentGloss": "fehlen"
        },
        {
          "dep": "nsubj",
          "governor": 6,
          "governorGloss": "fehlen",
          "dependent": 1,
          "dependentGloss": "Nordkoreanischen"
        },
        {
          "dep": "aux",
          "governor": 6,
          "governorGloss": "fehlen",
          "dependent": 2,
          "dependentGloss": "Führer"
        },
        {
          "dep": "name",
          "governor": 4,
          "governorGloss": "Jong-un",
          "dependent": 3,
          "dependentGloss": "Kim"
        },
        {
          "dep": "dobj",
          "governor": 6,
          "governorGloss": "fehlen",
          "dependent": 4,
          "dependentGloss": "Jong-un"
        },
        {
          "dep": "neg",
          "governor": 6,
          "governorGloss": "fehlen",
          "dependent": 5,
          "dependentGloss": "nicht"
        },
        {
          "dep": "punct",
          "governor": 6,
          "governorGloss": "fehlen",
          "dependent": 7,
          "dependentGloss": ","
        },
        {
          "dep": "advmod",
          "governor": 10,
          "governorGloss": "Knöchel",
          "dependent": 8,
          "dependentGloss": "nur"
        },
        {
          "dep": "case",
          "governor": 10,
          "governorGloss": "Knöchel",
          "dependent": 9,
          "dependentGloss": "mit"
        },
        {
          "dep": "nmod",
          "governor": 11,
          "governorGloss": "Chirurgie",
          "dependent": 10,
          "dependentGloss": "Knöchel"
        },
        {
          "dep": "conj",
          "governor": 6,
          "governorGloss": "fehlen",
          "dependent": 11,
          "dependentGloss": "Chirurgie"
        }
      ],
      "enhancedDependencies": [
        {
          "dep": "ROOT",
          "governor": 0,
          "governorGloss": "ROOT",
          "dependent": 6,
          "dependentGloss": "fehlen"
        },
        {
          "dep": "nsubj",
          "governor": 6,
          "governorGloss": "fehlen",
          "dependent": 1,
          "dependentGloss": "Nordkoreanischen"
        },
        {
          "dep": "aux",
          "governor": 6,
          "governorGloss": "fehlen",
          "dependent": 2,
          "dependentGloss": "Führer"
        },
        {
          "dep": "name",
          "governor": 4,
          "governorGloss": "Jong-un",
          "dependent": 3,
          "dependentGloss": "Kim"
        },
        {
          "dep": "dobj",
          "governor": 6,
          "governorGloss": "fehlen",
          "dependent": 4,
          "dependentGloss": "Jong-un"
        },
        {
          "dep": "neg",
          "governor": 6,
          "governorGloss": "fehlen",
          "dependent": 5,
          "dependentGloss": "nicht"
        },
        {
          "dep": "punct",
          "governor": 6,
          "governorGloss": "fehlen",
          "dependent": 7,
          "dependentGloss": ","
        },
        {
          "dep": "advmod",
          "governor": 10,
          "governorGloss": "Knöchel",
          "dependent": 8,
          "dependentGloss": "nur"
        },
        {
          "dep": "case",
          "governor": 10,
          "governorGloss": "Knöchel",
          "dependent": 9,
          "dependentGloss": "mit"
        },
        {
          "dep": "nmod",
          "governor": 11,
          "governorGloss": "Chirurgie",
          "dependent": 10,
          "dependentGloss": "Knöchel"
        },
        {
          "dep": "conj",
          "governor": 6,
          "governorGloss": "fehlen",
          "dependent": 11,
          "dependentGloss": "Chirurgie"
        }
      ],
      "enhancedPlusPlusDependencies": [
        {
          "dep": "ROOT",
          "governor": 0,
          "governorGloss": "ROOT",
          "dependent": 6,
          "dependentGloss": "fehlen"
        },
        {
          "dep": "nsubj",
          "governor": 6,
          "governorGloss": "fehlen",
          "dependent": 1,
          "dependentGloss": "Nordkoreanischen"
        },
        {
          "dep": "aux",
          "governor": 6,
          "governorGloss": "fehlen",
          "dependent": 2,
          "dependentGloss": "Führer"
        },
        {
          "dep": "name",
          "governor": 4,
          "governorGloss": "Jong-un",
          "dependent": 3,
          "dependentGloss": "Kim"
        },
        {
          "dep": "dobj",
          "governor": 6,
          "governorGloss": "fehlen",
          "dependent": 4,
          "dependentGloss": "Jong-un"
        },
        {
          "dep": "neg",
          "governor": 6,
          "governorGloss": "fehlen",
          "dependent": 5,
          "dependentGloss": "nicht"
        },
        {
          "dep": "punct",
          "governor": 6,
          "governorGloss": "fehlen",
          "dependent": 7,
          "dependentGloss": ","
        },
        {
          "dep": "advmod",
          "governor": 10,
          "governorGloss": "Knöchel",
          "dependent": 8,
          "dependentGloss": "nur"
        },
        {
          "dep": "case",
          "governor": 10,
          "governorGloss": "Knöchel",
          "dependent": 9,
          "dependentGloss": "mit"
        },
        {
          "dep": "nmod",
          "governor": 11,
          "governorGloss": "Chirurgie",
          "dependent": 10,
          "dependentGloss": "Knöchel"
        },
        {
          "dep": "conj",
          "governor": 6,
          "governorGloss": "fehlen",
          "dependent": 11,
          "dependentGloss": "Chirurgie"
        }
      ],
      "tokens": [
        {
          "index": 1,
          "word": "Nordkoreanischen",
          "originalText": "Nordkoreanischen",
          "characterOffsetBegin": 0,
          "characterOffsetEnd": 16,
          "pos": "ADJA",
          "before": "",
          "after": " "
        },
        {
          "index": 2,
          "word": "Führer",
          "originalText": "Führer",
          "characterOffsetBegin": 17,
          "characterOffsetEnd": 23,
          "pos": "NN",
          "before": " ",
          "after": " "
        },
        {
          "index": 3,
          "word": "Kim",
          "originalText": "Kim",
          "characterOffsetBegin": 24,
          "characterOffsetEnd": 27,
          "pos": "NE",
          "before": " ",
          "after": " "
        },
        {
          "index": 4,
          "word": "Jong-un",
          "originalText": "Jong-un",
          "characterOffsetBegin": 28,
          "characterOffsetEnd": 35,
          "pos": "NE",
          "before": " ",
          "after": " "
        },
        {
          "index": 5,
          "word": "nicht",
          "originalText": "nicht",
          "characterOffsetBegin": 36,
          "characterOffsetEnd": 41,
          "pos": "PTKNEG",
          "before": " ",
          "after": " "
        },
        {
          "index": 6,
          "word": "fehlen",
          "originalText": "fehlen",
          "characterOffsetBegin": 42,
          "characterOffsetEnd": 48,
          "pos": "VVINF",
          "before": " ",
          "after": ""
        },
        {
          "index": 7,
          "word": ",",
          "originalText": ",",
          "characterOffsetBegin": 48,
          "characterOffsetEnd": 49,
          "pos": "$,",
          "before": "",
          "after": " "
        },
        {
          "index": 8,
          "word": "nur",
          "originalText": "nur",
          "characterOffsetBegin": 50,
          "characterOffsetEnd": 53,
          "pos": "ADV",
          "before": " ",
          "after": " "
        },
        {
          "index": 9,
          "word": "mit",
          "originalText": "mit",
          "characterOffsetBegin": 54,
          "characterOffsetEnd": 57,
          "pos": "APPR",
          "before": " ",
          "after": " "
        },
        {
          "index": 10,
          "word": "Knöchel",
          "originalText": "Knöchel",
          "characterOffsetBegin": 58,
          "characterOffsetEnd": 65,
          "pos": "NN",
          "before": " ",
          "after": " "
        },
        {
          "index": 11,
          "word": "Chirurgie",
          "originalText": "Chirurgie",
          "characterOffsetBegin": 66,
          "characterOffsetEnd": 75,
          "pos": "NN",
          "before": " ",
          "after": ""
        }
      ]
    }
  ]
}