{
  "sentences": [
    {
      "index": 0,
      "basicDependencies": [
        {
          "dep": "ROOT",
          "governor": 0,
          "governorGloss": "ROOT",
          "dependent": 4,
          "dependentGloss": "Piloten"
        },
        {
          "dep": "amod",
          "governor": 3,
          "governorGloss": "Ausbildung",
          "dependent": 1,
          "dependentGloss": "Islamische"
        },
        {
          "dep": "amod",
          "governor": 3,
          "governorGloss": "Ausbildung",
          "dependent": 2,
          "dependentGloss": "Staatliche"
        },
        {
          "dep": "nsubj",
          "governor": 4,
          "governorGloss": "Piloten",
          "dependent": 3,
          "dependentGloss": "Ausbildung"
        },
        {
          "dep": "case",
          "governor": 6,
          "governorGloss": "Militärjets",
          "dependent": 5,
          "dependentGloss": "in"
        },
        {
          "dep": "nmod",
          "governor": 4,
          "governorGloss": "Piloten",
          "dependent": 6,
          "dependentGloss": "Militärjets"
        },
        {
          "dep": "punct",
          "governor": 4,
          "governorGloss": "Piloten",
          "dependent": 7,
          "dependentGloss": ","
        },
        {
          "dep": "amod",
          "governor": 9,
          "governorGloss": "Say",
          "dependent": 8,
          "dependentGloss": "Monitore"
        },
        {
          "dep": "conj",
          "governor": 4,
          "governorGloss": "Piloten",
          "dependent": 9,
          "dependentGloss": "Say"
        }
      ],
      "enhancedDependencies": [
        {
          "dep": "ROOT",
          "governor": 0,
          "governorGloss": "ROOT",
          "dependent": 4,
          "dependentGloss": "Piloten"
        },
        {
          "dep": "amod",
          "governor": 3,
          "governorGloss": "Ausbildung",
          "dependent": 1,
          "dependentGloss": "Islamische"
        },
        {
          "dep": "amod",
          "governor": 3,
          "governorGloss": "Ausbildung",
          "dependent": 2,
          "dependentGloss": "Staatliche"
        },
        {
          "dep": "nsubj",
          "governor": 4,
          "governorGloss": "Piloten",
          "dependent": 3,
          "dependentGloss": "Ausbildung"
        },
        {
          "dep": "case",
          "governor": 6,
          "governorGloss": "Militärjets",
          "dependent": 5,
          "dependentGloss": "in"
        },
        {
          "dep": "nmod",
          "governor": 4,
          "governorGloss": "Piloten",
          "dependent": 6,
          "dependentGloss": "Militärjets"
        },
        {
          "dep": "punct",
          "governor": 4,
          "governorGloss": "Piloten",
          "dependent": 7,
          "dependentGloss": ","
        },
        {
          "dep": "amod",
          "governor": 9,
          "governorGloss": "Say",
          "dependent": 8,
          "dependentGloss": "Monitore"
        },
        {
          "dep": "conj",
          "governor": 4,
          "governorGloss": "Piloten",
          "dependent": 9,
          "dependentGloss": "Say"
        }
      ],
      "enhancedPlusPlusDependencies": [
        {
          "dep": "ROOT",
          "governor": 0,
          "governorGloss": "ROOT",
          "dependent": 4,
          "dependentGloss": "Piloten"
        },
        {
          "dep": "amod",
          "governor": 3,
          "governorGloss": "Ausbildung",
          "dependent": 1,
          "dependentGloss": "Islamische"
        },
        {
          "dep": "amod",
          "governor": 3,
          "governorGloss": "Ausbildung",
          "dependent": 2,
          "dependentGloss": "Staatliche"
        },
        {
          "dep": "nsubj",
          "governor": 4,
          "governorGloss": "Piloten",
          "dependent": 3,
          "dependentGloss": "Ausbildung"
        },
        {
          "dep": "case",
          "governor": 6,
          "governorGloss": "Militärjets",
          "dependent": 5,
          "dependentGloss": "in"
        },
        {
          "dep": "nmod",
          "governor": 4,
          "governorGloss": "Piloten",
          "dependent": 6,
          "dependentGloss": "Militärjets"
        },
        {
          "dep": "punct",
          "governor": 4,
          "governorGloss": "Piloten",
          "dependent": 7,
          "dependentGloss": ","
        },
        {
          "dep": "amod",
          "governor": 9,
          "governorGloss": "Say",
          "dependent": 8,
          "dependentGloss": "Monitore"
        },
        {
          "dep": "conj",
          "governor": 4,
          "governorGloss": "Piloten",
          "dependent": 9,
          "dependentGloss": "Say"
        }
      ],
      "tokens": [
        {
          "index": 1,
          "word": "Islamische",
          "originalText": "Islamische",
          "characterOffsetBegin": 0,
          "characterOffsetEnd": 10,
          "pos": "ADJA",
          "before": "",
          "after": " "
        },
        {
          "index": 2,
          "word": "Staatliche",
          "originalText": "Staatliche",
          "characterOffsetBegin": 11,
          "characterOffsetEnd": 21,
          "pos": "ADJA",
          "before": " ",
          "after": " "
        },
        {
          "index": 3,
          "word": "Ausbildung",
          "originalText": "Ausbildung",
          "characterOffsetBegin": 22,
          "characterOffsetEnd": 32,
          "pos": "NN",
          "before": " ",
          "after": " "
        },
        {
          "index": 4,
          "word": "Piloten",
          "originalText": "Piloten",
          "characterOffsetBegin": 33,
          "characterOffsetEnd": 40,
          "pos": "NN",
          "before": " ",
          "after": " "
        },
        {
          "index": 5,
          "word": "in",
          "originalText": "in",
          "characterOffsetBegin": 41,
          "characterOffsetEnd": 43,
          "pos": "APPR",
          "before": " ",
          "after": " "
        },
        {
          "index": 6,
          "word": "Militärjets",
          "originalText": "Militärjets",
          "characterOffsetBegin": 44,
          "characterOffsetEnd": 55,
          "pos": "NN",
          "before": " ",
          "after": ""
        },
        {
          "index": 7,
          "word": ",",
          "originalText": ",",
          "characterOffsetBegin": 55,
          "characterOffsetEnd": 56,
          "pos": "$,",
          "before": "",
          "after": " "
        },
        {
          "index": 8,
          "word": "Monitore",
          "originalText": "Monitore",
          "characterOffsetBegin": 57,
          "characterOffsetEnd": 65,
          "pos": "FM",
          "before": " ",
          "after": " "
        },
        {
          "index": 9,
          "word": "Say",
          "originalText": "Say",
          "characterOffsetBegin": 66,
          "characterOffsetEnd": 69,
          "pos": "FM",
          "before": " ",
          "after": ""
        }
      ]
    }
  ]
}