{
  "sentences": [
    {
      "index": 0,
      "basicDependencies": [
        {
          "dep": "ROOT",
          "governor": 0,
          "governorGloss": "ROOT",
          "dependent": 7,
          "dependentGloss": "gegessen"
        },
        {
          "dep": "punct",
          "governor": 3,
          "governorGloss": "haben",
          "dependent": 1,
          "dependentGloss": "``"
        },
        {
          "dep": "nsubj",
          "governor": 3,
          "governorGloss": "haben",
          "dependent": 2,
          "dependentGloss": "Sie"
        },
        {
          "dep": "aux",
          "governor": 7,
          "governorGloss": "gegessen",
          "dependent": 3,
          "dependentGloss": "haben"
        },
        {
          "dep": "case",
          "governor": 6,
          "governorGloss": "Decken",
          "dependent": 4,
          "dependentGloss": "durch"
        },
        {
          "dep": "det",
          "governor": 6,
          "governorGloss": "Decken",
          "dependent": 5,
          "dependentGloss": "die"
        },
        {
          "dep": "nmod",
          "governor": 7,
          "governorGloss": "gegessen",
          "dependent": 6,
          "dependentGloss": "Decken"
        },
        {
          "dep": "cc",
          "governor": 7,
          "governorGloss": "gegessen",
          "dependent": 8,
          "dependentGloss": "und"
        },
        {
          "dep": "case",
          "governor": 11,
          "governorGloss": "Keyboards",
          "dependent": 9,
          "dependentGloss": "auf"
        },
        {
          "dep": "det",
          "governor": 11,
          "governorGloss": "Keyboards",
          "dependent": 10,
          "dependentGloss": "die"
        },
        {
          "dep": "conj",
          "governor": 7,
          "governorGloss": "gegessen",
          "dependent": 11,
          "dependentGloss": "Keyboards"
        },
        {
          "dep": "appos",
          "governor": 11,
          "governorGloss": "Keyboards",
          "dependent": 12,
          "dependentGloss": "gepeitscht"
        },
        {
          "dep": "punct",
          "governor": 12,
          "governorGloss": "gepeitscht",
          "dependent": 13,
          "dependentGloss": "``"
        },
        {
          "dep": "punct",
          "governor": 15,
          "governorGloss": "Ratten",
          "dependent": 14,
          "dependentGloss": ":"
        },
        {
          "dep": "root",
          "governor": 13,
          "governorGloss": "``",
          "dependent": 15,
          "dependentGloss": "Ratten"
        },
        {
          "dep": "cop",
          "governor": 15,
          "governorGloss": "Ratten",
          "dependent": 16,
          "dependentGloss": "sind"
        },
        {
          "dep": "punct",
          "governor": 18,
          "governorGloss": "übernehmen",
          "dependent": 17,
          "dependentGloss": "``"
        },
        {
          "dep": "nsubj",
          "governor": 15,
          "governorGloss": "Ratten",
          "dependent": 18,
          "dependentGloss": "übernehmen"
        },
        {
          "dep": "punct",
          "governor": 25,
          "governorGloss": "Center",
          "dependent": 19,
          "dependentGloss": "``"
        },
        {
          "dep": "det",
          "governor": 25,
          "governorGloss": "Center",
          "dependent": 20,
          "dependentGloss": "Vogue"
        },
        {
          "dep": "case",
          "governor": 20,
          "governorGloss": "Vogue",
          "dependent": 21,
          "dependentGloss": "'s"
        },
        {
          "dep": "amod",
          "governor": 25,
          "governorGloss": "Center",
          "dependent": 22,
          "dependentGloss": "neues"
        },
        {
          "dep": "name",
          "governor": 25,
          "governorGloss": "Center",
          "dependent": 23,
          "dependentGloss": "World"
        },
        {
          "dep": "name",
          "governor": 25,
          "governorGloss": "Center",
          "dependent": 24,
          "dependentGloss": "Trade"
        },
        {
          "dep": "nsubj",
          "governor": 18,
          "governorGloss": "übernehmen",
          "dependent": 25,
          "dependentGloss": "Center"
        },
        {
          "dep": "appos",
          "governor": 25,
          "governorGloss": "Center",
          "dependent": 26,
          "dependentGloss": "Büro"
        },
        {
          "dep": "cc",
          "governor": 25,
          "governorGloss": "Center",
          "dependent": 27,
          "dependentGloss": "und"
        },
        {
          "dep": "name",
          "governor": 29,
          "governorGloss": "Wintour",
          "dependent": 28,
          "dependentGloss": "Anna"
        },
        {
          "dep": "nsubj",
          "governor": 35,
          "governorGloss": "arbeiten",
          "dependent": 29,
          "dependentGloss": "Wintour"
        },
        {
          "dep": "punct",
          "governor": 35,
          "governorGloss": "arbeiten",
          "dependent": 30,
          "dependentGloss": "`"
        },
        {
          "dep": "aux",
          "governor": 35,
          "governorGloss": "arbeiten",
          "dependent": 31,
          "dependentGloss": "will"
        },
        {
          "dep": "neg",
          "governor": 33,
          "governorGloss": "mehr",
          "dependent": 32,
          "dependentGloss": "nicht"
        },
        {
          "dep": "advmod",
          "governor": 35,
          "governorGloss": "arbeiten",
          "dependent": 33,
          "dependentGloss": "mehr"
        },
        {
          "dep": "advmod",
          "governor": 35,
          "governorGloss": "arbeiten",
          "dependent": 34,
          "dependentGloss": "dort"
        },
        {
          "dep": "conj",
          "governor": 25,
          "governorGloss": "Center",
          "dependent": 35,
          "dependentGloss": "arbeiten"
        },
        {
          "dep": "punct",
          "governor": 15,
          "governorGloss": "Ratten",
          "dependent": 36,
          "dependentGloss": "'"
        }
      ],
      "enhancedDependencies": [
        {
          "dep": "ROOT",
          "governor": 0,
          "governorGloss": "ROOT",
          "dependent": 7,
          "dependentGloss": "gegessen"
        },
        {
          "dep": "punct",
          "governor": 3,
          "governorGloss": "haben",
          "dependent": 1,
          "dependentGloss": "``"
        },
        {
          "dep": "nsubj",
          "governor": 3,
          "governorGloss": "haben",
          "dependent": 2,
          "dependentGloss": "Sie"
        },
        {
          "dep": "aux",
          "governor": 7,
          "governorGloss": "gegessen",
          "dependent": 3,
          "dependentGloss": "haben"
        },
        {
          "dep": "case",
          "governor": 6,
          "governorGloss": "Decken",
          "dependent": 4,
          "dependentGloss": "durch"
        },
        {
          "dep": "det",
          "governor": 6,
          "governorGloss": "Decken",
          "dependent": 5,
          "dependentGloss": "die"
        },
        {
          "dep": "nmod",
          "governor": 7,
          "governorGloss": "gegessen",
          "dependent": 6,
          "dependentGloss": "Decken"
        },
        {
          "dep": "cc",
          "governor": 7,
          "governorGloss": "gegessen",
          "dependent": 8,
          "dependentGloss": "und"
        },
        {
          "dep": "case",
          "governor": 11,
          "governorGloss": "Keyboards",
          "dependent": 9,
          "dependentGloss": "auf"
        },
        {
          "dep": "det",
          "governor": 11,
          "governorGloss": "Keyboards",
          "dependent": 10,
          "dependentGloss": "die"
        },
        {
          "dep": "conj:und",
          "governor": 7,
          "governorGloss": "gegessen",
          "dependent": 11,
          "dependentGloss": "Keyboards"
        },
        {
          "dep": "appos",
          "governor": 11,
          "governorGloss": "Keyboards",
          "dependent": 12,
          "dependentGloss": "gepeitscht"
        },
        {
          "dep": "punct",
          "governor": 12,
          "governorGloss": "gepeitscht",
          "dependent": 13,
          "dependentGloss": "``"
        },
        {
          "dep": "punct",
          "governor": 15,
          "governorGloss": "Ratten",
          "dependent": 14,
          "dependentGloss": ":"
        },
        {
          "dep": "root",
          "governor": 13,
          "governorGloss": "``",
          "dependent": 15,
          "dependentGloss": "Ratten"
        },
        {
          "dep": "cop",
          "governor": 15,
          "governorGloss": "Ratten",
          "dependent": 16,
          "dependentGloss": "sind"
        },
        {
          "dep": "punct",
          "governor": 18,
          "governorGloss": "übernehmen",
          "dependent": 17,
          "dependentGloss": "``"
        },
        {
          "dep": "nsubj",
          "governor": 15,
          "governorGloss": "Ratten",
          "dependent": 18,
          "dependentGloss": "übernehmen"
        },
        {
          "dep": "punct",
          "governor": 25,
          "governorGloss": "Center",
          "dependent": 19,
          "dependentGloss": "``"
        },
        {
          "dep": "det",
          "governor": 25,
          "governorGloss": "Center",
          "dependent": 20,
          "dependentGloss": "Vogue"
        },
        {
          "dep": "case",
          "governor": 20,
          "governorGloss": "Vogue",
          "dependent": 21,
          "dependentGloss": "'s"
        },
        {
          "dep": "amod",
          "governor": 25,
          "governorGloss": "Center",
          "dependent": 22,
          "dependentGloss": "neues"
        },
        {
          "dep": "name",
          "governor": 25,
          "governorGloss": "Center",
          "dependent": 23,
          "dependentGloss": "World"
        },
        {
          "dep": "name",
          "governor": 25,
          "governorGloss": "Center",
          "dependent": 24,
          "dependentGloss": "Trade"
        },
        {
          "dep": "nsubj",
          "governor": 18,
          "governorGloss": "übernehmen",
          "dependent": 25,
          "dependentGloss": "Center"
        },
        {
          "dep": "appos",
          "governor": 25,
          "governorGloss": "Center",
          "dependent": 26,
          "dependentGloss": "Büro"
        },
        {
          "dep": "cc",
          "governor": 25,
          "governorGloss": "Center",
          "dependent": 27,
          "dependentGloss": "und"
        },
        {
          "dep": "name",
          "governor": 29,
          "governorGloss": "Wintour",
          "dependent": 28,
          "dependentGloss": "Anna"
        },
        {
          "dep": "nsubj",
          "governor": 35,
          "governorGloss": "arbeiten",
          "dependent": 29,
          "dependentGloss": "Wintour"
        },
        {
          "dep": "punct",
          "governor": 35,
          "governorGloss": "arbeiten",
          "dependent": 30,
          "dependentGloss": "`"
        },
        {
          "dep": "aux",
          "governor": 35,
          "governorGloss": "arbeiten",
          "dependent": 31,
          "dependentGloss": "will"
        },
        {
          "dep": "neg",
          "governor": 33,
          "governorGloss": "mehr",
          "dependent": 32,
          "dependentGloss": "nicht"
        },
        {
          "dep": "advmod",
          "governor": 35,
          "governorGloss": "arbeiten",
          "dependent": 33,
          "dependentGloss": "mehr"
        },
        {
          "dep": "advmod",
          "governor": 35,
          "governorGloss": "arbeiten",
          "dependent": 34,
          "dependentGloss": "dort"
        },
        {
          "dep": "nsubj",
          "governor": 18,
          "governorGloss": "übernehmen",
          "dependent": 35,
          "dependentGloss": "arbeiten"
        },
        {
          "dep": "conj:und",
          "governor": 25,
          "governorGloss": "Center",
          "dependent": 35,
          "dependentGloss": "arbeiten"
        },
        {
          "dep": "punct",
          "governor": 15,
          "governorGloss": "Ratten",
          "dependent": 36,
          "dependentGloss": "'"
        }
      ],
      "enhancedPlusPlusDependencies": [
        {
          "dep": "ROOT",
          "governor": 0,
          "governorGloss": "ROOT",
          "dependent": 7,
          "dependentGloss": "gegessen"
        },
        {
          "dep": "punct",
          "governor": 3,
          "governorGloss": "haben",
          "dependent": 1,
          "dependentGloss": "``"
        },
        {
          "dep": "nsubj",
          "governor": 3,
          "governorGloss": "haben",
          "dependent": 2,
          "dependentGloss": "Sie"
        },
        {
          "dep": "aux",
          "governor": 7,
          "governorGloss": "gegessen",
          "dependent": 3,
          "dependentGloss": "haben"
        },
        {
          "dep": "case",
          "governor": 6,
          "governorGloss": "Decken",
          "dependent": 4,
          "dependentGloss": "durch"
        },
        {
          "dep": "det",
          "governor": 6,
          "governorGloss": "Decken",
          "dependent": 5,
          "dependentGloss": "die"
        },
        {
          "dep": "nmod",
          "governor": 7,
          "governorGloss": "gegessen",
          "dependent": 6,
          "dependentGloss": "Decken"
        },
        {
          "dep": "cc",
          "governor": 7,
          "governorGloss": "gegessen",
          "dependent": 8,
          "dependentGloss": "und"
        },
        {
          "dep": "case",
          "governor": 11,
          "governorGloss": "Keyboards",
          "dependent": 9,
          "dependentGloss": "auf"
        },
        {
          "dep": "det",
          "governor": 11,
          "governorGloss": "Keyboards",
          "dependent": 10,
          "dependentGloss": "die"
        },
        {
          "dep": "conj:und",
          "governor": 7,
          "governorGloss": "gegessen",
          "dependent": 11,
          "dependentGloss": "Keyboards"
        },
        {
          "dep": "appos",
          "governor": 11,
          "governorGloss": "Keyboards",
          "dependent": 12,
          "dependentGloss": "gepeitscht"
        },
        {
          "dep": "punct",
          "governor": 12,
          "governorGloss": "gepeitscht",
          "dependent": 13,
          "dependentGloss": "``"
        },
        {
          "dep": "punct",
          "governor": 15,
          "governorGloss": "Ratten",
          "dependent": 14,
          "dependentGloss": ":"
        },
        {
          "dep": "root",
          "governor": 13,
          "governorGloss": "``",
          "dependent": 15,
          "dependentGloss": "Ratten"
        },
        {
          "dep": "cop",
          "governor": 15,
          "governorGloss": "Ratten",
          "dependent": 16,
          "dependentGloss": "sind"
        },
        {
          "dep": "punct",
          "governor": 18,
          "governorGloss": "übernehmen",
          "dependent": 17,
          "dependentGloss": "``"
        },
        {
          "dep": "nsubj",
          "governor": 15,
          "governorGloss": "Ratten",
          "dependent": 18,
          "dependentGloss": "übernehmen"
        },
        {
          "dep": "punct",
          "governor": 25,
          "governorGloss": "Center",
          "dependent": 19,
          "dependentGloss": "``"
        },
        {
          "dep": "det",
          "governor": 25,
          "governorGloss": "Center",
          "dependent": 20,
          "dependentGloss": "Vogue"
        },
        {
          "dep": "case",
          "governor": 20,
          "governorGloss": "Vogue",
          "dependent": 21,
          "dependentGloss": "'s"
        },
        {
          "dep": "amod",
          "governor": 25,
          "governorGloss": "Center",
          "dependent": 22,
          "dependentGloss": "neues"
        },
        {
          "dep": "name",
          "governor": 25,
          "governorGloss": "Center",
          "dependent": 23,
          "dependentGloss": "World"
        },
        {
          "dep": "name",
          "governor": 25,
          "governorGloss": "Center",
          "dependent": 24,
          "dependentGloss": "Trade"
        },
        {
          "dep": "nsubj",
          "governor": 18,
          "governorGloss": "übernehmen",
          "dependent": 25,
          "dependentGloss": "Center"
        },
        {
          "dep": "appos",
          "governor": 25,
          "governorGloss": "Center",
          "dependent": 26,
          "dependentGloss": "Büro"
        },
        {
          "dep": "cc",
          "governor": 25,
          "governorGloss": "Center",
          "dependent": 27,
          "dependentGloss": "und"
        },
        {
          "dep": "name",
          "governor": 29,
          "governorGloss": "Wintour",
          "dependent": 28,
          "dependentGloss": "Anna"
        },
        {
          "dep": "nsubj",
          "governor": 35,
          "governorGloss": "arbeiten",
          "dependent": 29,
          "dependentGloss": "Wintour"
        },
        {
          "dep": "punct",
          "governor": 35,
          "governorGloss": "arbeiten",
          "dependent": 30,
          "dependentGloss": "`"
        },
        {
          "dep": "aux",
          "governor": 35,
          "governorGloss": "arbeiten",
          "dependent": 31,
          "dependentGloss": "will"
        },
        {
          "dep": "neg",
          "governor": 33,
          "governorGloss": "mehr",
          "dependent": 32,
          "dependentGloss": "nicht"
        },
        {
          "dep": "advmod",
          "governor": 35,
          "governorGloss": "arbeiten",
          "dependent": 33,
          "dependentGloss": "mehr"
        },
        {
          "dep": "advmod",
          "governor": 35,
          "governorGloss": "arbeiten",
          "dependent": 34,
          "dependentGloss": "dort"
        },
        {
          "dep": "nsubj",
          "governor": 18,
          "governorGloss": "übernehmen",
          "dependent": 35,
          "dependentGloss": "arbeiten"
        },
        {
          "dep": "conj:und",
          "governor": 25,
          "governorGloss": "Center",
          "dependent": 35,
          "dependentGloss": "arbeiten"
        },
        {
          "dep": "punct",
          "governor": 15,
          "governorGloss": "Ratten",
          "dependent": 36,
          "dependentGloss": "'"
        }
      ],
      "tokens": [
        {
          "index": 1,
          "word": "``",
          "originalText": "“",
          "characterOffsetBegin": 0,
          "characterOffsetEnd": 1,
          "pos": "XY",
          "before": "",
          "after": ""
        },
        {
          "index": 2,
          "word": "Sie",
          "originalText": "Sie",
          "characterOffsetBegin": 1,
          "characterOffsetEnd": 4,
          "pos": "PPER",
          "before": "",
          "after": " "
        },
        {
          "index": 3,
          "word": "haben",
          "originalText": "haben",
          "characterOffsetBegin": 5,
          "characterOffsetEnd": 10,
          "pos": "VAFIN",
          "before": " ",
          "after": " "
        },
        {
          "index": 4,
          "word": "durch",
          "originalText": "durch",
          "characterOffsetBegin": 11,
          "characterOffsetEnd": 16,
          "pos": "APPR",
          "before": " ",
          "after": " "
        },
        {
          "index": 5,
          "word": "die",
          "originalText": "die",
          "characterOffsetBegin": 17,
          "characterOffsetEnd": 20,
          "pos": "ART",
          "before": " ",
          "after": " "
        },
        {
          "index": 6,
          "word": "Decken",
          "originalText": "Decken",
          "characterOffsetBegin": 21,
          "characterOffsetEnd": 27,
          "pos": "NN",
          "before": " ",
          "after": " "
        },
        {
          "index": 7,
          "word": "gegessen",
          "originalText": "gegessen",
          "characterOffsetBegin": 28,
          "characterOffsetEnd": 36,
          "pos": "VVPP",
          "before": " ",
          "after": " "
        },
        {
          "index": 8,
          "word": "und",
          "originalText": "und",
          "characterOffsetBegin": 37,
          "characterOffsetEnd": 40,
          "pos": "KON",
          "before": " ",
          "after": " "
        },
        {
          "index": 9,
          "word": "auf",
          "originalText": "auf",
          "characterOffsetBegin": 41,
          "characterOffsetEnd": 44,
          "pos": "APPR",
          "before": " ",
          "after": " "
        },
        {
          "index": 10,
          "word": "die",
          "originalText": "die",
          "characterOffsetBegin": 45,
          "characterOffsetEnd": 48,
          "pos": "ART",
          "before": " ",
          "after": " "
        },
        {
          "index": 11,
          "word": "Keyboards",
          "originalText": "Keyboards",
          "characterOffsetBegin": 49,
          "characterOffsetEnd": 58,
          "pos": "NN",
          "before": " ",
          "after": " "
        },
        {
          "index": 12,
          "word": "gepeitscht",
          "originalText": "gepeitscht",
          "characterOffsetBegin": 59,
          "characterOffsetEnd": 69,
          "pos": "VVPP",
          "before": " ",
          "after": ""
        },
        {
          "index": 13,
          "word": "``",
          "originalText": "“",
          "characterOffsetBegin": 69,
          "characterOffsetEnd": 70,
          "pos": "VVFIN",
          "before": "",
          "after": ""
        },
        {
          "index": 14,
          "word": ":",
          "originalText": ":",
          "characterOffsetBegin": 70,
          "characterOffsetEnd": 71,
          "pos": "$.",
          "before": "",
          "after": " "
        },
        {
          "index": 15,
          "word": "Ratten",
          "originalText": "Ratten",
          "characterOffsetBegin": 72,
          "characterOffsetEnd": 78,
          "pos": "NN",
          "before": " ",
          "after": " "
        },
        {
          "index": 16,
          "word": "sind",
          "originalText": "sind",
          "characterOffsetBegin": 79,
          "characterOffsetEnd": 83,
          "pos": "VAFIN",
          "before": " ",
          "after": " "
        },
        {
          "index": 17,
          "word": "``",
          "originalText": "“",
          "characterOffsetBegin": 84,
          "characterOffsetEnd": 85,
          "pos": "ADJD",
          "before": " ",
          "after": ""
        },
        {
          "index": 18,
          "word": "übernehmen",
          "originalText": "übernehmen",
          "characterOffsetBegin": 85,
          "characterOffsetEnd": 95,
          "pos": "VVINF",
          "before": "",
          "after": ""
        },
        {
          "index": 19,
          "word": "``",
          "originalText": "“",
          "characterOffsetBegin": 95,
          "characterOffsetEnd": 96,
          "pos": "VVFIN",
          "before": "",
          "after": " "
        },
        {
          "index": 20,
          "word": "Vogue",
          "originalText": "Vogue",
          "characterOffsetBegin": 97,
          "characterOffsetEnd": 102,
          "pos": "NE",
          "before": " ",
          "after": ""
        },
        {
          "index": 21,
          "word": "'s",
          "originalText": "'s",
          "characterOffsetBegin": 102,
          "characterOffsetEnd": 104,
          "pos": "PPER",
          "before": "",
          "after": " "
        },
        {
          "index": 22,
          "word": "neues",
          "originalText": "neues",
          "characterOffsetBegin": 105,
          "characterOffsetEnd": 110,
          "pos": "ADJA",
          "before": " ",
          "after": " "
        },
        {
          "index": 23,
          "word": "World",
          "originalText": "World",
          "characterOffsetBegin": 111,
          "characterOffsetEnd": 116,
          "pos": "FM",
          "before": " ",
          "after": " "
        },
        {
          "index": 24,
          "word": "Trade",
          "originalText": "Trade",
          "characterOffsetBegin": 117,
          "characterOffsetEnd": 122,
          "pos": "FM",
          "before": " ",
          "after": " "
        },
        {
          "index": 25,
          "word": "Center",
          "originalText": "Center",
          "characterOffsetBegin": 123,
          "characterOffsetEnd": 129,
          "pos": "FM",
          "before": " ",
          "after": " "
        },
        {
          "index": 26,
          "word": "Büro",
          "originalText": "Büro",
          "characterOffsetBegin": 130,
          "characterOffsetEnd": 134,
          "pos": "NN",
          "before": " ",
          "after": " "
        },
        {
          "index": 27,
          "word": "und",
          "originalText": "und",
          "characterOffsetBegin": 135,
          "characterOffsetEnd": 138,
          "pos": "KON",
          "before": " ",
          "after": " "
        },
        {
          "index": 28,
          "word": "Anna",
          "originalText": "Anna",
          "characterOffsetBegin": 139,
          "characterOffsetEnd": 143,
          "pos": "NE",
          "before": " ",
          "after": " "
        },
        {
          "index": 29,
          "word": "Wintour",
          "originalText": "Wintour",
          "characterOffsetBegin": 144,
          "characterOffsetEnd": 151,
          "pos": "NE",
          "before": " ",
          "after": " "
        },
        {
          "index": 30,
          "word": "`",
          "originalText": "'",
          "characterOffsetBegin": 152,
          "characterOffsetEnd": 153,
          "pos": "CARD",
          "before": " ",
          "after": ""
        },
        {
          "index": 31,
          "word": "will",
          "originalText": "will",
          "characterOffsetBegin": 153,
          "characterOffsetEnd": 157,
          "pos": "VMFIN",
          "before": "",
          "after": " "
        },
        {
          "index": 32,
          "word": "nicht",
          "originalText": "nicht",
          "characterOffsetBegin": 158,
          "characterOffsetEnd": 163,
          "pos": "PTKNEG",
          "before": " ",
          "after": " "
        },
        {
          "index": 33,
          "word": "mehr",
          "originalText": "mehr",
          "characterOffsetBegin": 164,
          "characterOffsetEnd": 168,
          "pos": "ADV",
          "before": " ",
          "after": " "
        },
        {
          "index": 34,
          "word": "dort",
          "originalText": "dort",
          "characterOffsetBegin": 169,
          "characterOffsetEnd": 173,
          "pos": "ADV",
          "before": " ",
          "after": " "
        },
        {
          "index": 35,
          "word": "arbeiten",
          "originalText": "arbeiten",
          "characterOffsetBegin": 174,
          "characterOffsetEnd": 182,
          "pos": "VVFIN",
          "before": " ",
          "after": ""
        },
        {
          "index": 36,
          "word": "'",
          "originalText": "'",
          "characterOffsetBegin": 182,
          "characterOffsetEnd": 183,
          "pos": "$[",
          "before": "",
          "after": ""
        }
      ]
    }
  ]
}