{
  "sentences": [
    {
      "index": 0,
      "basicDependencies": [
        {
          "dep": "ROOT",
          "governor": 0,
          "governorGloss": "ROOT",
          "dependent": 18,
          "dependentGloss": "wird"
        },
        {
          "dep": "dep",
          "governor": 18,
          "governorGloss": "wird",
          "dependent": 1,
          "dependentGloss": "Kidnapped"
        },
        {
          "dep": "amod",
          "governor": 3,
          "governorGloss": "Schulmädchen",
          "dependent": 2,
          "dependentGloss": "Nigerian"
        },
        {
          "dep": "det",
          "governor": 1,
          "governorGloss": "Kidnapped",
          "dependent": 3,
          "dependentGloss": "Schulmädchen"
        },
        {
          "dep": "punct",
          "governor": 3,
          "governorGloss": "Schulmädchen",
          "dependent": 4,
          "dependentGloss": ":"
        },
        {
          "dep": "name",
          "governor": 7,
          "governorGloss": "Waffenstillstand",
          "dependent": 5,
          "dependentGloss": "Regierung"
        },
        {
          "dep": "name",
          "governor": 7,
          "governorGloss": "Waffenstillstand",
          "dependent": 6,
          "dependentGloss": "behauptet"
        },
        {
          "dep": "appos",
          "governor": 3,
          "governorGloss": "Schulmädchen",
          "dependent": 7,
          "dependentGloss": "Waffenstillstand"
        },
        {
          "dep": "case",
          "governor": 10,
          "governorGloss": "Haram",
          "dependent": 8,
          "dependentGloss": "mit"
        },
        {
          "dep": "amod",
          "governor": 10,
          "governorGloss": "Haram",
          "dependent": 9,
          "dependentGloss": "Boko"
        },
        {
          "dep": "nmod",
          "governor": 7,
          "governorGloss": "Waffenstillstand",
          "dependent": 10,
          "dependentGloss": "Haram"
        },
        {
          "dep": "punct",
          "governor": 3,
          "governorGloss": "Schulmädchen",
          "dependent": 11,
          "dependentGloss": ","
        },
        {
          "dep": "det",
          "governor": 14,
          "governorGloss": "Mädchen",
          "dependent": 12,
          "dependentGloss": "die"
        },
        {
          "dep": "amod",
          "governor": 14,
          "governorGloss": "Mädchen",
          "dependent": 13,
          "dependentGloss": "fehlende"
        },
        {
          "dep": "dobj",
          "governor": 17,
          "governorGloss": "bringen",
          "dependent": 14,
          "dependentGloss": "Mädchen"
        },
        {
          "dep": "case",
          "governor": 16,
          "governorGloss": "Hause",
          "dependent": 15,
          "dependentGloss": "nach"
        },
        {
          "dep": "nmod",
          "governor": 17,
          "governorGloss": "bringen",
          "dependent": 16,
          "dependentGloss": "Hause"
        },
        {
          "dep": "acl",
          "governor": 3,
          "governorGloss": "Schulmädchen",
          "dependent": 17,
          "dependentGloss": "bringen"
        }
      ],
      "enhancedDependencies": [
        {
          "dep": "ROOT",
          "governor": 0,
          "governorGloss": "ROOT",
          "dependent": 18,
          "dependentGloss": "wird"
        },
        {
          "dep": "dep",
          "governor": 18,
          "governorGloss": "wird",
          "dependent": 1,
          "dependentGloss": "Kidnapped"
        },
        {
          "dep": "amod",
          "governor": 3,
          "governorGloss": "Schulmädchen",
          "dependent": 2,
          "dependentGloss": "Nigerian"
        },
        {
          "dep": "det",
          "governor": 1,
          "governorGloss": "Kidnapped",
          "dependent": 3,
          "dependentGloss": "Schulmädchen"
        },
        {
          "dep": "punct",
          "governor": 3,
          "governorGloss": "Schulmädchen",
          "dependent": 4,
          "dependentGloss": ":"
        },
        {
          "dep": "name",
          "governor": 7,
          "governorGloss": "Waffenstillstand",
          "dependent": 5,
          "dependentGloss": "Regierung"
        },
        {
          "dep": "name",
          "governor": 7,
          "governorGloss": "Waffenstillstand",
          "dependent": 6,
          "dependentGloss": "behauptet"
        },
        {
          "dep": "appos",
          "governor": 3,
          "governorGloss": "Schulmädchen",
          "dependent": 7,
          "dependentGloss": "Waffenstillstand"
        },
        {
          "dep": "case",
          "governor": 10,
          "governorGloss": "Haram",
          "dependent": 8,
          "dependentGloss": "mit"
        },
        {
          "dep": "amod",
          "governor": 10,
          "governorGloss": "Haram",
          "dependent": 9,
          "dependentGloss": "Boko"
        },
        {
          "dep": "nmod",
          "governor": 7,
          "governorGloss": "Waffenstillstand",
          "dependent": 10,
          "dependentGloss": "Haram"
        },
        {
          "dep": "punct",
          "governor": 3,
          "governorGloss": "Schulmädchen",
          "dependent": 11,
          "dependentGloss": ","
        },
        {
          "dep": "det",
          "governor": 14,
          "governorGloss": "Mädchen",
          "dependent": 12,
          "dependentGloss": "die"
        },
        {
          "dep": "amod",
          "governor": 14,
          "governorGloss": "Mädchen",
          "dependent": 13,
          "dependentGloss": "fehlende"
        },
        {
          "dep": "dobj",
          "governor": 17,
          "governorGloss": "bringen",
          "dependent": 14,
          "dependentGloss": "Mädchen"
        },
        {
          "dep": "case",
          "governor": 16,
          "governorGloss": "Hause",
          "dependent": 15,
          "dependentGloss": "nach"
        },
        {
          "dep": "nmod",
          "governor": 17,
          "governorGloss": "bringen",
          "dependent": 16,
          "dependentGloss": "Hause"
        },
        {
          "dep": "acl",
          "governor": 3,
          "governorGloss": "Schulmädchen",
          "dependent": 17,
          "dependentGloss": "bringen"
        }
      ],
      "enhancedPlusPlusDependencies": [
        {
          "dep": "ROOT",
          "governor": 0,
          "governorGloss": "ROOT",
          "dependent": 18,
          "dependentGloss": "wird"
        },
        {
          "dep": "dep",
          "governor": 18,
          "governorGloss": "wird",
          "dependent": 1,
          "dependentGloss": "Kidnapped"
        },
        {
          "dep": "amod",
          "governor": 3,
          "governorGloss": "Schulmädchen",
          "dependent": 2,
          "dependentGloss": "Nigerian"
        },
        {
          "dep": "det",
          "governor": 1,
          "governorGloss": "Kidnapped",
          "dependent": 3,
          "dependentGloss": "Schulmädchen"
        },
        {
          "dep": "punct",
          "governor": 3,
          "governorGloss": "Schulmädchen",
          "dependent": 4,
          "dependentGloss": ":"
        },
        {
          "dep": "name",
          "governor": 7,
          "governorGloss": "Waffenstillstand",
          "dependent": 5,
          "dependentGloss": "Regierung"
        },
        {
          "dep": "name",
          "governor": 7,
          "governorGloss": "Waffenstillstand",
          "dependent": 6,
          "dependentGloss": "behauptet"
        },
        {
          "dep": "appos",
          "governor": 3,
          "governorGloss": "Schulmädchen",
          "dependent": 7,
          "dependentGloss": "Waffenstillstand"
        },
        {
          "dep": "case",
          "governor": 10,
          "governorGloss": "Haram",
          "dependent": 8,
          "dependentGloss": "mit"
        },
        {
          "dep": "amod",
          "governor": 10,
          "governorGloss": "Haram",
          "dependent": 9,
          "dependentGloss": "Boko"
        },
        {
          "dep": "nmod",
          "governor": 7,
          "governorGloss": "Waffenstillstand",
          "dependent": 10,
          "dependentGloss": "Haram"
        },
        {
          "dep": "punct",
          "governor": 3,
          "governorGloss": "Schulmädchen",
          "dependent": 11,
          "dependentGloss": ","
        },
        {
          "dep": "det",
          "governor": 14,
          "governorGloss": "Mädchen",
          "dependent": 12,
          "dependentGloss": "die"
        },
        {
          "dep": "amod",
          "governor": 14,
          "governorGloss": "Mädchen",
          "dependent": 13,
          "dependentGloss": "fehlende"
        },
        {
          "dep": "dobj",
          "governor": 17,
          "governorGloss": "bringen",
          "dependent": 14,
          "dependentGloss": "Mädchen"
        },
        {
          "dep": "case",
          "governor": 16,
          "governorGloss": "Hause",
          "dependent": 15,
          "dependentGloss": "nach"
        },
        {
          "dep": "nmod",
          "governor": 17,
          "governorGloss": "bringen",
          "dependent": 16,
          "dependentGloss": "Hause"
        },
        {
          "dep": "acl",
          "governor": 3,
          "governorGloss": "Schulmädchen",
          "dependent": 17,
          "dependentGloss": "bringen"
        }
      ],
      "tokens": [
        {
          "index": 1,
          "word": "Kidnapped",
          "originalText": "Kidnapped",
          "characterOffsetBegin": 0,
          "characterOffsetEnd": 9,
          "pos": "NE",
          "before": "",
          "after": " "
        },
        {
          "index": 2,
          "word": "Nigerian",
          "originalText": "Nigerian",
          "characterOffsetBegin": 10,
          "characterOffsetEnd": 18,
          "pos": "NE",
          "before": " ",
          "after": " "
        },
        {
          "index": 3,
          "word": "Schulmädchen",
          "originalText": "Schulmädchen",
          "characterOffsetBegin": 19,
          "characterOffsetEnd": 31,
          "pos": "NN",
          "before": " ",
          "after": ""
        },
        {
          "index": 4,
          "word": ":",
          "originalText": ":",
          "characterOffsetBegin": 31,
          "characterOffsetEnd": 32,
          "pos": "$.",
          "before": "",
          "after": " "
        },
        {
          "index": 5,
          "word": "Regierung",
          "originalText": "Regierung",
          "characterOffsetBegin": 33,
          "characterOffsetEnd": 42,
          "pos": "NN",
          "before": " ",
          "after": " "
        },
        {
          "index": 6,
          "word": "behauptet",
          "originalText": "behauptet",
          "characterOffsetBegin": 43,
          "characterOffsetEnd": 52,
          "pos": "VVFIN",
          "before": " ",
          "after": " "
        },
        {
          "index": 7,
          "word": "Waffenstillstand",
          "originalText": "Waffenstillstand",
          "characterOffsetBegin": 53,
          "characterOffsetEnd": 69,
          "pos": "NN",
          "before": " ",
          "after": " "
        },
        {
          "index": 8,
          "word": "mit",
          "originalText": "mit",
          "characterOffsetBegin": 70,
          "characterOffsetEnd": 73,
          "pos": "APPR",
          "before": " ",
          "after": " "
        },
        {
          "index": 9,
          "word": "Boko",
          "originalText": "Boko",
          "characterOffsetBegin": 74,
          "characterOffsetEnd": 78,
          "pos": "NE",
          "before": " ",
          "after": " "
        },
        {
          "index": 10,
          "word": "Haram",
          "originalText": "Haram",
          "characterOffsetBegin": 79,
          "characterOffsetEnd": 84,
          "pos": "NE",
          "before": " ",
          "after": ""
        },
        {
          "index": 11,
          "word": ",",
          "originalText": ",",
          "characterOffsetBegin": 84,
          "characterOffsetEnd": 85,
          "pos": "$,",
          "before": "",
          "after": " "
        },
        {
          "index": 12,
          "word": "die",
          "originalText": "die",
          "characterOffsetBegin": 86,
          "characterOffsetEnd": 89,
          "pos": "ART",
          "before": " ",
          "after": " "
        },
        {
          "index": 13,
          "word": "fehlende",
          "originalText": "fehlende",
          "characterOffsetBegin": 90,
          "characterOffsetEnd": 98,
          "pos": "ADJA",
          "before": " ",
          "after": " "
        },
        {
          "index": 14,
          "word": "Mädchen",
          "originalText": "Mädchen",
          "characterOffsetBegin": 99,
          "characterOffsetEnd": 106,
          "pos": "NN",
          "before": " ",
          "after": " "
        },
        {
          "index": 15,
          "word": "nach",
          "originalText": "nach",
          "characterOffsetBegin": 107,
          "characterOffsetEnd": 111,
          "pos": "APPR",
          "before": " ",
          "after": " "
        },
        {
          "index": 16,
          "word": "Hause",
          "originalText": "Hause",
          "characterOffsetBegin": 112,
          "characterOffsetEnd": 117,
          "pos": "NN",
          "before": " ",
          "after": " "
        },
        {
          "index": 17,
          "word": "bringen",
          "originalText": "bringen",
          "characterOffsetBegin": 118,
          "characterOffsetEnd": 125,
          "pos": "VVINF",
          "before": " ",
          "after": " "
        },
        {
          "index": 18,
          "word": "wird",
          "originalText": "wird",
          "characterOffsetBegin": 126,
          "characterOffsetEnd": 130,
          "pos": "VAFIN",
          "before": " ",
          "after": ""
        }
      ]
    }
  ]
}