{
  "sentences": [
    {
      "index": 0,
      "basicDependencies": [
        {
          "dep": "ROOT",
          "governor": 0,
          "governorGloss": "ROOT",
          "dependent": 2,
          "dependentGloss": "Zehaf-Bibeau"
        },
        {
          "dep": "name",
          "governor": 2,
          "governorGloss": "Zehaf-Bibeau",
          "dependent": 1,
          "dependentGloss": "Michael"
        },
        {
          "dep": "punct",
          "governor": 2,
          "governorGloss": "Zehaf-Bibeau",
          "dependent": 3,
          "dependentGloss": ","
        },
        {
          "dep": "amod",
          "governor": 5,
          "governorGloss": "Ottawa-Shooter",
          "dependent": 4,
          "dependentGloss": "getöteter"
        },
        {
          "dep": "conj",
          "governor": 2,
          "governorGloss": "Zehaf-Bibeau",
          "dependent": 5,
          "dependentGloss": "Ottawa-Shooter"
        },
        {
          "dep": "punct",
          "governor": 2,
          "governorGloss": "Zehaf-Bibeau",
          "dependent": 6,
          "dependentGloss": ","
        },
        {
          "dep": "conj",
          "governor": 2,
          "governorGloss": "Zehaf-Bibeau",
          "dependent": 7,
          "dependentGloss": "hatte"
        },
        {
          "dep": "case",
          "governor": 9,
          "governorGloss": "Quebec",
          "dependent": 8,
          "dependentGloss": "in"
        },
        {
          "dep": "nmod",
          "governor": 7,
          "governorGloss": "hatte",
          "dependent": 9,
          "dependentGloss": "Quebec"
        },
        {
          "dep": "punct",
          "governor": 9,
          "governorGloss": "Quebec",
          "dependent": 10,
          "dependentGloss": ","
        },
        {
          "dep": "conj",
          "governor": 9,
          "governorGloss": "Quebec",
          "dependent": 11,
          "dependentGloss": "B.C."
        }
      ],
      "enhancedDependencies": [
        {
          "dep": "ROOT",
          "governor": 0,
          "governorGloss": "ROOT",
          "dependent": 2,
          "dependentGloss": "Zehaf-Bibeau"
        },
        {
          "dep": "name",
          "governor": 2,
          "governorGloss": "Zehaf-Bibeau",
          "dependent": 1,
          "dependentGloss": "Michael"
        },
        {
          "dep": "punct",
          "governor": 2,
          "governorGloss": "Zehaf-Bibeau",
          "dependent": 3,
          "dependentGloss": ","
        },
        {
          "dep": "amod",
          "governor": 5,
          "governorGloss": "Ottawa-Shooter",
          "dependent": 4,
          "dependentGloss": "getöteter"
        },
        {
          "dep": "conj",
          "governor": 2,
          "governorGloss": "Zehaf-Bibeau",
          "dependent": 5,
          "dependentGloss": "Ottawa-Shooter"
        },
        {
          "dep": "punct",
          "governor": 2,
          "governorGloss": "Zehaf-Bibeau",
          "dependent": 6,
          "dependentGloss": ","
        },
        {
          "dep": "conj",
          "governor": 2,
          "governorGloss": "Zehaf-Bibeau",
          "dependent": 7,
          "dependentGloss": "hatte"
        },
        {
          "dep": "case",
          "governor": 9,
          "governorGloss": "Quebec",
          "dependent": 8,
          "dependentGloss": "in"
        },
        {
          "dep": "nmod",
          "governor": 7,
          "governorGloss": "hatte",
          "dependent": 9,
          "dependentGloss": "Quebec"
        },
        {
          "dep": "punct",
          "governor": 9,
          "governorGloss": "Quebec",
          "dependent": 10,
          "dependentGloss": ","
        },
        {
          "dep": "conj",
          "governor": 9,
          "governorGloss": "Quebec",
          "dependent": 11,
          "dependentGloss": "B.C."
        }
      ],
      "enhancedPlusPlusDependencies": [
        {
          "dep": "ROOT",
          "governor": 0,
          "governorGloss": "ROOT",
          "dependent": 2,
          "dependentGloss": "Zehaf-Bibeau"
        },
        {
          "dep": "name",
          "governor": 2,
          "governorGloss": "Zehaf-Bibeau",
          "dependent": 1,
          "dependentGloss": "Michael"
        },
        {
          "dep": "punct",
          "governor": 2,
          "governorGloss": "Zehaf-Bibeau",
          "dependent": 3,
          "dependentGloss": ","
        },
        {
          "dep": "amod",
          "governor": 5,
          "governorGloss": "Ottawa-Shooter",
          "dependent": 4,
          "dependentGloss": "getöteter"
        },
        {
          "dep": "conj",
          "governor": 2,
          "governorGloss": "Zehaf-Bibeau",
          "dependent": 5,
          "dependentGloss": "Ottawa-Shooter"
        },
        {
          "dep": "punct",
          "governor": 2,
          "governorGloss": "Zehaf-Bibeau",
          "dependent": 6,
          "dependentGloss": ","
        },
        {
          "dep": "conj",
          "governor": 2,
          "governorGloss": "Zehaf-Bibeau",
          "dependent": 7,
          "dependentGloss": "hatte"
        },
        {
          "dep": "case",
          "governor": 9,
          "governorGloss": "Quebec",
          "dependent": 8,
          "dependentGloss": "in"
        },
        {
          "dep": "nmod",
          "governor": 7,
          "governorGloss": "hatte",
          "dependent": 9,
          "dependentGloss": "Quebec"
        },
        {
          "dep": "punct",
          "governor": 9,
          "governorGloss": "Quebec",
          "dependent": 10,
          "dependentGloss": ","
        },
        {
          "dep": "conj",
          "governor": 9,
          "governorGloss": "Quebec",
          "dependent": 11,
          "dependentGloss": "B.C."
        }
      ],
      "tokens": [
        {
          "index": 1,
          "word": "Michael",
          "originalText": "Michael",
          "characterOffsetBegin": 0,
          "characterOffsetEnd": 7,
          "pos": "NE",
          "before": "",
          "after": " "
        },
        {
          "index": 2,
          "word": "Zehaf-Bibeau",
          "originalText": "Zehaf-Bibeau",
          "characterOffsetBegin": 8,
          "characterOffsetEnd": 20,
          "pos": "NE",
          "before": " ",
          "after": ""
        },
        {
          "index": 3,
          "word": ",",
          "originalText": ",",
          "characterOffsetBegin": 20,
          "characterOffsetEnd": 21,
          "pos": "$,",
          "before": "",
          "after": " "
        },
        {
          "index": 4,
          "word": "getöteter",
          "originalText": "getöteter",
          "characterOffsetBegin": 22,
          "characterOffsetEnd": 31,
          "pos": "ADJA",
          "before": " ",
          "after": " "
        },
        {
          "index": 5,
          "word": "Ottawa-Shooter",
          "originalText": "Ottawa-Shooter",
          "characterOffsetBegin": 32,
          "characterOffsetEnd": 46,
          "pos": "NN",
          "before": " ",
          "after": ""
        },
        {
          "index": 6,
          "word": ",",
          "originalText": ",",
          "characterOffsetBegin": 46,
          "characterOffsetEnd": 47,
          "pos": "$,",
          "before": "",
          "after": " "
        },
        {
          "index": 7,
          "word": "hatte",
          "originalText": "hatte",
          "characterOffsetBegin": 48,
          "characterOffsetEnd": 53,
          "pos": "VAFIN",
          "before": " ",
          "after": " "
        },
        {
          "index": 8,
          "word": "in",
          "originalText": "in",
          "characterOffsetBegin": 54,
          "characterOffsetEnd": 56,
          "pos": "APPR",
          "before": " ",
          "after": " "
        },
        {
          "index": 9,
          "word": "Quebec",
          "originalText": "Quebec",
          "characterOffsetBegin": 57,
          "characterOffsetEnd": 63,
          "pos": "NE",
          "before": " ",
          "after": ""
        },
        {
          "index": 10,
          "word": ",",
          "originalText": ",",
          "characterOffsetBegin": 63,
          "characterOffsetEnd": 64,
          "pos": "$,",
          "before": "",
          "after": " "
        },
        {
          "index": 11,
          "word": "B.C.",
          "originalText": "B.C.",
          "characterOffsetBegin": 65,
          "characterOffsetEnd": 69,
          "pos": "NE",
          "before": " ",
          "after": ""
        }
      ]
    }
  ]
}