{
  "sentences": [
    {
      "index": 0,
      "basicDependencies": [
        {
          "dep": "ROOT",
          "governor": 0,
          "governorGloss": "ROOT",
          "dependent": 2,
          "dependentGloss": "behaupten"
        },
        {
          "dep": "nsubj",
          "governor": 2,
          "governorGloss": "behaupten",
          "dependent": 1,
          "dependentGloss": "Isis-Anhänger"
        },
        {
          "dep": "punct",
          "governor": 2,
          "governorGloss": "behaupten",
          "dependent": 3,
          "dependentGloss": ","
        },
        {
          "dep": "mark",
          "governor": 11,
          "governorGloss": "getötet",
          "dependent": 4,
          "dependentGloss": "dass"
        },
        {
          "dep": "det",
          "governor": 7,
          "governorGloss": "im",
          "dependent": 5,
          "dependentGloss": "die"
        },
        {
          "dep": "amod",
          "governor": 7,
          "governorGloss": "im",
          "dependent": 6,
          "dependentGloss": "US-Geisel"
        },
        {
          "dep": "nsubj",
          "governor": 11,
          "governorGloss": "getötet",
          "dependent": 7,
          "dependentGloss": "im"
        },
        {
          "dep": "nsubjpass",
          "governor": 11,
          "governorGloss": "getötet",
          "dependent": 8,
          "dependentGloss": "Koalitionsluftstreik"
        },
        {
          "dep": "case",
          "governor": 10,
          "governorGloss": "Syrien",
          "dependent": 9,
          "dependentGloss": "in"
        },
        {
          "dep": "nmod",
          "governor": 11,
          "governorGloss": "getötet",
          "dependent": 10,
          "dependentGloss": "Syrien"
        },
        {
          "dep": "ccomp",
          "governor": 2,
          "governorGloss": "behaupten",
          "dependent": 11,
          "dependentGloss": "getötet"
        },
        {
          "dep": "punct",
          "governor": 2,
          "governorGloss": "behaupten",
          "dependent": 12,
          "dependentGloss": "wurde"
        }
      ],
      "enhancedDependencies": [
        {
          "dep": "ROOT",
          "governor": 0,
          "governorGloss": "ROOT",
          "dependent": 2,
          "dependentGloss": "behaupten"
        },
        {
          "dep": "nsubj",
          "governor": 2,
          "governorGloss": "behaupten",
          "dependent": 1,
          "dependentGloss": "Isis-Anhänger"
        },
        {
          "dep": "punct",
          "governor": 2,
          "governorGloss": "behaupten",
          "dependent": 3,
          "dependentGloss": ","
        },
        {
          "dep": "mark",
          "governor": 11,
          "governorGloss": "getötet",
          "dependent": 4,
          "dependentGloss": "dass"
        },
        {
          "dep": "det",
          "governor": 7,
          "governorGloss": "im",
          "dependent": 5,
          "dependentGloss": "die"
        },
        {
          "dep": "amod",
          "governor": 7,
          "governorGloss": "im",
          "dependent": 6,
          "dependentGloss": "US-Geisel"
        },
        {
          "dep": "nsubj",
          "governor": 11,
          "governorGloss": "getötet",
          "dependent": 7,
          "dependentGloss": "im"
        },
        {
          "dep": "nsubjpass",
          "governor": 11,
          "governorGloss": "getötet",
          "dependent": 8,
          "dependentGloss": "Koalitionsluftstreik"
        },
        {
          "dep": "case",
          "governor": 10,
          "governorGloss": "Syrien",
          "dependent": 9,
          "dependentGloss": "in"
        },
        {
          "dep": "nmod",
          "governor": 11,
          "governorGloss": "getötet",
          "dependent": 10,
          "dependentGloss": "Syrien"
        },
        {
          "dep": "ccomp",
          "governor": 2,
          "governorGloss": "behaupten",
          "dependent": 11,
          "dependentGloss": "getötet"
        },
        {
          "dep": "punct",
          "governor": 2,
          "governorGloss": "behaupten",
          "dependent": 12,
          "dependentGloss": "wurde"
        }
      ],
      "enhancedPlusPlusDependencies": [
        {
          "dep": "ROOT",
          "governor": 0,
          "governorGloss": "ROOT",
          "dependent": 2,
          "dependentGloss": "behaupten"
        },
        {
          "dep": "nsubj",
          "governor": 2,
          "governorGloss": "behaupten",
          "dependent": 1,
          "dependentGloss": "Isis-Anhänger"
        },
        {
          "dep": "punct",
          "governor": 2,
          "governorGloss": "behaupten",
          "dependent": 3,
          "dependentGloss": ","
        },
        {
          "dep": "mark",
          "governor": 11,
          "governorGloss": "getötet",
          "dependent": 4,
          "dependentGloss": "dass"
        },
        {
          "dep": "det",
          "governor": 7,
          "governorGloss": "im",
          "dependent": 5,
          "dependentGloss": "die"
        },
        {
          "dep": "amod",
          "governor": 7,
          "governorGloss": "im",
          "dependent": 6,
          "dependentGloss": "US-Geisel"
        },
        {
          "dep": "nsubj",
          "governor": 11,
          "governorGloss": "getötet",
          "dependent": 7,
          "dependentGloss": "im"
        },
        {
          "dep": "nsubjpass",
          "governor": 11,
          "governorGloss": "getötet",
          "dependent": 8,
          "dependentGloss": "Koalitionsluftstreik"
        },
        {
          "dep": "case",
          "governor": 10,
          "governorGloss": "Syrien",
          "dependent": 9,
          "dependentGloss": "in"
        },
        {
          "dep": "nmod",
          "governor": 11,
          "governorGloss": "getötet",
          "dependent": 10,
          "dependentGloss": "Syrien"
        },
        {
          "dep": "ccomp",
          "governor": 2,
          "governorGloss": "behaupten",
          "dependent": 11,
          "dependentGloss": "getötet"
        },
        {
          "dep": "punct",
          "governor": 2,
          "governorGloss": "behaupten",
          "dependent": 12,
          "dependentGloss": "wurde"
        }
      ],
      "tokens": [
        {
          "index": 1,
          "word": "Isis-Anhänger",
          "originalText": "Isis-Anhänger",
          "characterOffsetBegin": 0,
          "characterOffsetEnd": 13,
          "pos": "NN",
          "before": "",
          "after": " "
        },
        {
          "index": 2,
          "word": "behaupten",
          "originalText": "behaupten",
          "characterOffsetBegin": 14,
          "characterOffsetEnd": 23,
          "pos": "VVFIN",
          "before": " ",
          "after": ""
        },
        {
          "index": 3,
          "word": ",",
          "originalText": ",",
          "characterOffsetBegin": 23,
          "characterOffsetEnd": 24,
          "pos": "$,",
          "before": "",
          "after": " "
        },
        {
          "index": 4,
          "word": "dass",
          "originalText": "dass",
          "characterOffsetBegin": 25,
          "characterOffsetEnd": 29,
          "pos": "KOUS",
          "before": " ",
          "after": " "
        },
        {
          "index": 5,
          "word": "die",
          "originalText": "die",
          "characterOffsetBegin": 30,
          "characterOffsetEnd": 33,
          "pos": "ART",
          "before": " ",
          "after": " "
        },
        {
          "index": 6,
          "word": "US-Geisel",
          "originalText": "US-Geisel",
          "characterOffsetBegin": 34,
          "characterOffsetEnd": 43,
          "pos": "NN",
          "before": " ",
          "after": " "
        },
        {
          "index": 7,
          "word": "im",
          "originalText": "im",
          "characterOffsetBegin": 44,
          "characterOffsetEnd": 46,
          "pos": "APPRART",
          "before": " ",
          "after": " "
        },
        {
          "index": 8,
          "word": "Koalitionsluftstreik",
          "originalText": "Koalitionsluftstreik",
          "characterOffsetBegin": 47,
          "characterOffsetEnd": 67,
          "pos": "NN",
          "before": " ",
          "after": " "
        },
        {
          "index": 9,
          "word": "in",
          "originalText": "in",
          "characterOffsetBegin": 68,
          "characterOffsetEnd": 70,
          "pos": "APPR",
          "before": " ",
          "after": " "
        },
        {
          "index": 10,
          "word": "Syrien",
          "originalText": "Syrien",
          "characterOffsetBegin": 71,
          "characterOffsetEnd": 77,
          "pos": "NE",
          "before": " ",
          "after": " "
        },
        {
          "index": 11,
          "word": "getötet",
          "originalText": "getötet",
          "characterOffsetBegin": 78,
          "characterOffsetEnd": 85,
          "pos": "VVPP",
          "before": " ",
          "after": " "
        },
        {
          "index": 12,
          "word": "wurde",
          "originalText": "wurde",
          "characterOffsetBegin": 86,
          "characterOffsetEnd": 91,
          "pos": "VAFIN",
          "before": " ",
          "after": ""
        }
      ]
    }
  ]
}