{
  "sentences": [
    {
      "index": 0,
      "basicDependencies": [
        {
          "dep": "ROOT",
          "governor": 0,
          "governorGloss": "ROOT",
          "dependent": 12,
          "dependentGloss": "wurden"
        },
        {
          "dep": "amod",
          "governor": 2,
          "governorGloss": "Studenten",
          "dependent": 1,
          "dependentGloss": "Mexikanische"
        },
        {
          "dep": "dep",
          "governor": 12,
          "governorGloss": "wurden",
          "dependent": 2,
          "dependentGloss": "Studenten"
        },
        {
          "dep": "neg",
          "governor": 12,
          "governorGloss": "wurden",
          "dependent": 3,
          "dependentGloss": "nicht"
        },
        {
          "dep": "case",
          "governor": 6,
          "governorGloss": "Leuten",
          "dependent": 4,
          "dependentGloss": "unter"
        },
        {
          "dep": "det",
          "governor": 6,
          "governorGloss": "Leuten",
          "dependent": 5,
          "dependentGloss": "den"
        },
        {
          "dep": "nmod",
          "governor": 12,
          "governorGloss": "wurden",
          "dependent": 6,
          "dependentGloss": "Leuten"
        },
        {
          "dep": "punct",
          "governor": 6,
          "governorGloss": "Leuten",
          "dependent": 7,
          "dependentGloss": ","
        },
        {
          "dep": "nsubjpass",
          "governor": 11,
          "governorGloss": "gefunden",
          "dependent": 8,
          "dependentGloss": "die"
        },
        {
          "dep": "case",
          "governor": 10,
          "governorGloss": "Massengräbern",
          "dependent": 9,
          "dependentGloss": "in"
        },
        {
          "dep": "nmod",
          "governor": 11,
          "governorGloss": "gefunden",
          "dependent": 10,
          "dependentGloss": "Massengräbern"
        },
        {
          "dep": "acl",
          "governor": 6,
          "governorGloss": "Leuten",
          "dependent": 11,
          "dependentGloss": "gefunden"
        }
      ],
      "enhancedDependencies": [
        {
          "dep": "ROOT",
          "governor": 0,
          "governorGloss": "ROOT",
          "dependent": 12,
          "dependentGloss": "wurden"
        },
        {
          "dep": "amod",
          "governor": 2,
          "governorGloss": "Studenten",
          "dependent": 1,
          "dependentGloss": "Mexikanische"
        },
        {
          "dep": "dep",
          "governor": 12,
          "governorGloss": "wurden",
          "dependent": 2,
          "dependentGloss": "Studenten"
        },
        {
          "dep": "neg",
          "governor": 12,
          "governorGloss": "wurden",
          "dependent": 3,
          "dependentGloss": "nicht"
        },
        {
          "dep": "case",
          "governor": 6,
          "governorGloss": "Leuten",
          "dependent": 4,
          "dependentGloss": "unter"
        },
        {
          "dep": "det",
          "governor": 6,
          "governorGloss": "Leuten",
          "dependent": 5,
          "dependentGloss": "den"
        },
        {
          "dep": "nmod",
          "governor": 12,
          "governorGloss": "wurden",
          "dependent": 6,
          "dependentGloss": "Leuten"
        },
        {
          "dep": "punct",
          "governor": 6,
          "governorGloss": "Leuten",
          "dependent": 7,
          "dependentGloss": ","
        },
        {
          "dep": "nsubjpass",
          "governor": 11,
          "governorGloss": "gefunden",
          "dependent": 8,
          "dependentGloss": "die"
        },
        {
          "dep": "case",
          "governor": 10,
          "governorGloss": "Massengräbern",
          "dependent": 9,
          "dependentGloss": "in"
        },
        {
          "dep": "nmod",
          "governor": 11,
          "governorGloss": "gefunden",
          "dependent": 10,
          "dependentGloss": "Massengräbern"
        },
        {
          "dep": "acl",
          "governor": 6,
          "governorGloss": "Leuten",
          "dependent": 11,
          "dependentGloss": "gefunden"
        }
      ],
      "enhancedPlusPlusDependencies": [
        {
          "dep": "ROOT",
          "governor": 0,
          "governorGloss": "ROOT",
          "dependent": 12,
          "dependentGloss": "wurden"
        },
        {
          "dep": "amod",
          "governor": 2,
          "governorGloss": "Studenten",
          "dependent": 1,
          "dependentGloss": "Mexikanische"
        },
        {
          "dep": "dep",
          "governor": 12,
          "governorGloss": "wurden",
          "dependent": 2,
          "dependentGloss": "Studenten"
        },
        {
          "dep": "neg",
          "governor": 12,
          "governorGloss": "wurden",
          "dependent": 3,
          "dependentGloss": "nicht"
        },
        {
          "dep": "case",
          "governor": 6,
          "governorGloss": "Leuten",
          "dependent": 4,
          "dependentGloss": "unter"
        },
        {
          "dep": "det",
          "governor": 6,
          "governorGloss": "Leuten",
          "dependent": 5,
          "dependentGloss": "den"
        },
        {
          "dep": "nmod",
          "governor": 12,
          "governorGloss": "wurden",
          "dependent": 6,
          "dependentGloss": "Leuten"
        },
        {
          "dep": "punct",
          "governor": 6,
          "governorGloss": "Leuten",
          "dependent": 7,
          "dependentGloss": ","
        },
        {
          "dep": "nsubjpass",
          "governor": 11,
          "governorGloss": "gefunden",
          "dependent": 8,
          "dependentGloss": "die"
        },
        {
          "dep": "case",
          "governor": 10,
          "governorGloss": "Massengräbern",
          "dependent": 9,
          "dependentGloss": "in"
        },
        {
          "dep": "nmod",
          "governor": 11,
          "governorGloss": "gefunden",
          "dependent": 10,
          "dependentGloss": "Massengräbern"
        },
        {
          "dep": "acl",
          "governor": 6,
          "governorGloss": "Leuten",
          "dependent": 11,
          "dependentGloss": "gefunden"
        }
      ],
      "tokens": [
        {
          "index": 1,
          "word": "Mexikanische",
          "originalText": "Mexikanische",
          "characterOffsetBegin": 0,
          "characterOffsetEnd": 12,
          "pos": "ADJA",
          "before": "",
          "after": " "
        },
        {
          "index": 2,
          "word": "Studenten",
          "originalText": "Studenten",
          "characterOffsetBegin": 13,
          "characterOffsetEnd": 22,
          "pos": "NN",
          "before": " ",
          "after": " "
        },
        {
          "index": 3,
          "word": "nicht",
          "originalText": "nicht",
          "characterOffsetBegin": 23,
          "characterOffsetEnd": 28,
          "pos": "PTKNEG",
          "before": " ",
          "after": " "
        },
        {
          "index": 4,
          "word": "unter",
          "originalText": "unter",
          "characterOffsetBegin": 29,
          "characterOffsetEnd": 34,
          "pos": "APPR",
          "before": " ",
          "after": " "
        },
        {
          "index": 5,
          "word": "den",
          "originalText": "den",
          "characterOffsetBegin": 35,
          "characterOffsetEnd": 38,
          "pos": "ART",
          "before": " ",
          "after": " "
        },
        {
          "index": 6,
          "word": "Leuten",
          "originalText": "Leuten",
          "characterOffsetBegin": 39,
          "characterOffsetEnd": 45,
          "pos": "NN",
          "before": " ",
          "after": ""
        },
        {
          "index": 7,
          "word": ",",
          "originalText": ",",
          "characterOffsetBegin": 45,
          "characterOffsetEnd": 46,
          "pos": "$,",
          "before": "",
          "after": " "
        },
        {
          "index": 8,
          "word": "die",
          "originalText": "die",
          "characterOffsetBegin": 47,
          "characterOffsetEnd": 50,
          "pos": "PRELS",
          "before": " ",
          "after": " "
        },
        {
          "index": 9,
          "word": "in",
          "originalText": "in",
          "characterOffsetBegin": 51,
          "characterOffsetEnd": 53,
          "pos": "APPR",
          "before": " ",
          "after": " "
        },
        {
          "index": 10,
          "word": "Massengräbern",
          "originalText": "Massengräbern",
          "characterOffsetBegin": 54,
          "characterOffsetEnd": 67,
          "pos": "NN",
          "before": " ",
          "after": " "
        },
        {
          "index": 11,
          "word": "gefunden",
          "originalText": "gefunden",
          "characterOffsetBegin": 68,
          "characterOffsetEnd": 76,
          "pos": "VVPP",
          "before": " ",
          "after": " "
        },
        {
          "index": 12,
          "word": "wurden",
          "originalText": "wurden",
          "characterOffsetBegin": 77,
          "characterOffsetEnd": 83,
          "pos": "VAFIN",
          "before": " ",
          "after": ""
        }
      ]
    }
  ]
}