{
  "sentences": [
    {
      "index": 0,
      "basicDependencies": [
        {
          "dep": "ROOT",
          "governor": 0,
          "governorGloss": "ROOT",
          "dependent": 3,
          "dependentGloss": "berichtete"
        },
        {
          "dep": "nsubj",
          "governor": 3,
          "governorGloss": "berichtete",
          "dependent": 1,
          "dependentGloss": "Seth"
        },
        {
          "dep": "dobj",
          "governor": 3,
          "governorGloss": "berichtete",
          "dependent": 2,
          "dependentGloss": "Rogen"
        },
        {
          "dep": "punct",
          "governor": 3,
          "governorGloss": "berichtete",
          "dependent": 4,
          "dependentGloss": ","
        },
        {
          "dep": "conj",
          "governor": 3,
          "governorGloss": "berichtete",
          "dependent": 5,
          "dependentGloss": "Woz"
        },
        {
          "dep": "advmod",
          "governor": 7,
          "governorGloss": "kommenden",
          "dependent": 6,
          "dependentGloss": "im"
        },
        {
          "dep": "dobj",
          "governor": 5,
          "governorGloss": "Woz",
          "dependent": 7,
          "dependentGloss": "kommenden"
        },
        {
          "dep": "name",
          "governor": 9,
          "governorGloss": "Jobs-Film",
          "dependent": 8,
          "dependentGloss": "Steve"
        },
        {
          "dep": "nsubj",
          "governor": 7,
          "governorGloss": "kommenden",
          "dependent": 9,
          "dependentGloss": "Jobs-Film"
        },
        {
          "dep": "aux",
          "governor": 11,
          "governorGloss": "spielen",
          "dependent": 10,
          "dependentGloss": "zu"
        },
        {
          "dep": "acl",
          "governor": 7,
          "governorGloss": "kommenden",
          "dependent": 11,
          "dependentGloss": "spielen"
        }
      ],
      "enhancedDependencies": [
        {
          "dep": "ROOT",
          "governor": 0,
          "governorGloss": "ROOT",
          "dependent": 3,
          "dependentGloss": "berichtete"
        },
        {
          "dep": "nsubj",
          "governor": 3,
          "governorGloss": "berichtete",
          "dependent": 1,
          "dependentGloss": "Seth"
        },
        {
          "dep": "dobj",
          "governor": 3,
          "governorGloss": "berichtete",
          "dependent": 2,
          "dependentGloss": "Rogen"
        },
        {
          "dep": "punct",
          "governor": 3,
          "governorGloss": "berichtete",
          "dependent": 4,
          "dependentGloss": ","
        },
        {
          "dep": "conj",
          "governor": 3,
          "governorGloss": "berichtete",
          "dependent": 5,
          "dependentGloss": "Woz"
        },
        {
          "dep": "advmod",
          "governor": 7,
          "governorGloss": "kommenden",
          "dependent": 6,
          "dependentGloss": "im"
        },
        {
          "dep": "dobj",
          "governor": 5,
          "governorGloss": "Woz",
          "dependent": 7,
          "dependentGloss": "kommenden"
        },
        {
          "dep": "name",
          "governor": 9,
          "governorGloss": "Jobs-Film",
          "dependent": 8,
          "dependentGloss": "Steve"
        },
        {
          "dep": "nsubj",
          "governor": 7,
          "governorGloss": "kommenden",
          "dependent": 9,
          "dependentGloss": "Jobs-Film"
        },
        {
          "dep": "aux",
          "governor": 11,
          "governorGloss": "spielen",
          "dependent": 10,
          "dependentGloss": "zu"
        },
        {
          "dep": "acl",
          "governor": 7,
          "governorGloss": "kommenden",
          "dependent": 11,
          "dependentGloss": "spielen"
        }
      ],
      "enhancedPlusPlusDependencies": [
        {
          "dep": "ROOT",
          "governor": 0,
          "governorGloss": "ROOT",
          "dependent": 3,
          "dependentGloss": "berichtete"
        },
        {
          "dep": "nsubj",
          "governor": 3,
          "governorGloss": "berichtete",
          "dependent": 1,
          "dependentGloss": "Seth"
        },
        {
          "dep": "dobj",
          "governor": 3,
          "governorGloss": "berichtete",
          "dependent": 2,
          "dependentGloss": "Rogen"
        },
        {
          "dep": "punct",
          "governor": 3,
          "governorGloss": "berichtete",
          "dependent": 4,
          "dependentGloss": ","
        },
        {
          "dep": "conj",
          "governor": 3,
          "governorGloss": "berichtete",
          "dependent": 5,
          "dependentGloss": "Woz"
        },
        {
          "dep": "advmod",
          "governor": 7,
          "governorGloss": "kommenden",
          "dependent": 6,
          "dependentGloss": "im"
        },
        {
          "dep": "dobj",
          "governor": 5,
          "governorGloss": "Woz",
          "dependent": 7,
          "dependentGloss": "kommenden"
        },
        {
          "dep": "name",
          "governor": 9,
          "governorGloss": "Jobs-Film",
          "dependent": 8,
          "dependentGloss": "Steve"
        },
        {
          "dep": "nsubj",
          "governor": 7,
          "governorGloss": "kommenden",
          "dependent": 9,
          "dependentGloss": "Jobs-Film"
        },
        {
          "dep": "aux",
          "governor": 11,
          "governorGloss": "spielen",
          "dependent": 10,
          "dependentGloss": "zu"
        },
        {
          "dep": "acl",
          "governor": 7,
          "governorGloss": "kommenden",
          "dependent": 11,
          "dependentGloss": "spielen"
        }
      ],
      "tokens": [
        {
          "index": 1,
          "word": "Seth",
          "originalText": "Seth",
          "characterOffsetBegin": 0,
          "characterOffsetEnd": 4,
          "pos": "NE",
          "before": "",
          "after": " "
        },
        {
          "index": 2,
          "word": "Rogen",
          "originalText": "Rogen",
          "characterOffsetBegin": 5,
          "characterOffsetEnd": 10,
          "pos": "NE",
          "before": " ",
          "after": " "
        },
        {
          "index": 3,
          "word": "berichtete",
          "originalText": "berichtete",
          "characterOffsetBegin": 11,
          "characterOffsetEnd": 21,
          "pos": "VVFIN",
          "before": " ",
          "after": ""
        },
        {
          "index": 4,
          "word": ",",
          "originalText": ",",
          "characterOffsetBegin": 21,
          "characterOffsetEnd": 22,
          "pos": "$,",
          "before": "",
          "after": " "
        },
        {
          "index": 5,
          "word": "Woz",
          "originalText": "Woz",
          "characterOffsetBegin": 23,
          "characterOffsetEnd": 26,
          "pos": "NE",
          "before": " ",
          "after": " "
        },
        {
          "index": 6,
          "word": "im",
          "originalText": "im",
          "characterOffsetBegin": 27,
          "characterOffsetEnd": 29,
          "pos": "APPRART",
          "before": " ",
          "after": " "
        },
        {
          "index": 7,
          "word": "kommenden",
          "originalText": "kommenden",
          "characterOffsetBegin": 30,
          "characterOffsetEnd": 39,
          "pos": "ADJA",
          "before": " ",
          "after": " "
        },
        {
          "index": 8,
          "word": "Steve",
          "originalText": "Steve",
          "characterOffsetBegin": 40,
          "characterOffsetEnd": 45,
          "pos": "NE",
          "before": " ",
          "after": " "
        },
        {
          "index": 9,
          "word": "Jobs-Film",
          "originalText": "Jobs-Film",
          "characterOffsetBegin": 46,
          "characterOffsetEnd": 55,
          "pos": "NE",
          "before": " ",
          "after": " "
        },
        {
          "index": 10,
          "word": "zu",
          "originalText": "zu",
          "characterOffsetBegin": 56,
          "characterOffsetEnd": 58,
          "pos": "PTKZU",
          "before": " ",
          "after": " "
        },
        {
          "index": 11,
          "word": "spielen",
          "originalText": "spielen",
          "characterOffsetBegin": 59,
          "characterOffsetEnd": 66,
          "pos": "VVINF",
          "before": " ",
          "after": ""
        }
      ]
    }
  ]
}