{
  "sentences": [
    {
      "index": 0,
      "basicDependencies": [
        {
          "dep": "ROOT",
          "governor": 0,
          "governorGloss": "ROOT",
          "dependent": 1,
          "dependentGloss": "Iraqi"
        },
        {
          "dep": "appos",
          "governor": 1,
          "governorGloss": "Iraqi",
          "dependent": 2,
          "dependentGloss": "airstrike"
        },
        {
          "dep": "amod",
          "governor": 4,
          "governorGloss": "Schlüssel",
          "dependent": 3,
          "dependentGloss": "tötet"
        },
        {
          "dep": "dobj",
          "governor": 2,
          "governorGloss": "airstrike",
          "dependent": 4,
          "dependentGloss": "Schlüssel"
        },
        {
          "dep": "amod",
          "governor": 6,
          "governorGloss": "Führer",
          "dependent": 5,
          "dependentGloss": "ISIL"
        },
        {
          "dep": "det",
          "governor": 4,
          "governorGloss": "Schlüssel",
          "dependent": 6,
          "dependentGloss": "Führer"
        }
      ],
      "enhancedDependencies": [
        {
          "dep": "ROOT",
          "governor": 0,
          "governorGloss": "ROOT",
          "dependent": 1,
          "dependentGloss": "Iraqi"
        },
        {
          "dep": "appos",
          "governor": 1,
          "governorGloss": "Iraqi",
          "dependent": 2,
          "dependentGloss": "airstrike"
        },
        {
          "dep": "amod",
          "governor": 4,
          "governorGloss": "Schlüssel",
          "dependent": 3,
          "dependentGloss": "tötet"
        },
        {
          "dep": "dobj",
          "governor": 2,
          "governorGloss": "airstrike",
          "dependent": 4,
          "dependentGloss": "Schlüssel"
        },
        {
          "dep": "amod",
          "governor": 6,
          "governorGloss": "Führer",
          "dependent": 5,
          "dependentGloss": "ISIL"
        },
        {
          "dep": "det",
          "governor": 4,
          "governorGloss": "Schlüssel",
          "dependent": 6,
          "dependentGloss": "Führer"
        }
      ],
      "enhancedPlusPlusDependencies": [
        {
          "dep": "ROOT",
          "governor": 0,
          "governorGloss": "ROOT",
          "dependent": 1,
          "dependentGloss": "Iraqi"
        },
        {
          "dep": "appos",
          "governor": 1,
          "governorGloss": "Iraqi",
          "dependent": 2,
          "dependentGloss": "airstrike"
        },
        {
          "dep": "amod",
          "governor": 4,
          "governorGloss": "Schlüssel",
          "dependent": 3,
          "dependentGloss": "tötet"
        },
        {
          "dep": "dobj",
          "governor": 2,
          "governorGloss": "airstrike",
          "dependent": 4,
          "dependentGloss": "Schlüssel"
        },
        {
          "dep": "amod",
          "governor": 6,
          "governorGloss": "Führer",
          "dependent": 5,
          "dependentGloss": "ISIL"
        },
        {
          "dep": "det",
          "governor": 4,
          "governorGloss": "Schlüssel",
          "dependent": 6,
          "dependentGloss": "Führer"
        }
      ],
      "tokens": [
        {
          "index": 1,
          "word": "Iraqi",
          "originalText": "Iraqi",
          "characterOffsetBegin": 0,
          "characterOffsetEnd": 5,
          "pos": "NE",
          "before": "",
          "after": " "
        },
        {
          "index": 2,
          "word": "airstrike",
          "originalText": "airstrike",
          "characterOffsetBegin": 6,
          "characterOffsetEnd": 15,
          "pos": "VVFIN",
          "before": " ",
          "after": " "
        },
        {
          "index": 3,
          "word": "tötet",
          "originalText": "tötet",
          "characterOffsetBegin": 16,
          "characterOffsetEnd": 21,
          "pos": "ADJD",
          "before": " ",
          "after": " "
        },
        {
          "index": 4,
          "word": "Schlüssel",
          "originalText": "Schlüssel",
          "characterOffsetBegin": 22,
          "characterOffsetEnd": 31,
          "pos": "NN",
          "before": " ",
          "after": " "
        },
        {
          "index": 5,
          "word": "ISIL",
          "originalText": "ISIL",
          "characterOffsetBegin": 32,
          "characterOffsetEnd": 36,
          "pos": "NE",
          "before": " ",
          "after": " "
        },
        {
          "index": 6,
          "word": "Führer",
          "originalText": "Führer",
          "characterOffsetBegin": 37,
          "characterOffsetEnd": 43,
          "pos": "NN",
          "before": " ",
          "after": ""
        }
      ]
    }
  ]
}