{
  "sentences": [
    {
      "index": 0,
      "basicDependencies": [
        {
          "dep": "ROOT",
          "governor": 0,
          "governorGloss": "ROOT",
          "dependent": 2,
          "dependentGloss": "Putins"
        },
        {
          "dep": "nsubj",
          "governor": 2,
          "governorGloss": "Putins",
          "dependent": 1,
          "dependentGloss": "Vladimir"
        },
        {
          "dep": "dobj",
          "governor": 2,
          "governorGloss": "Putins",
          "dependent": 3,
          "dependentGloss": "Motorcade"
        },
        {
          "dep": "advmod",
          "governor": 2,
          "governorGloss": "Putins",
          "dependent": 4,
          "dependentGloss": "sieht"
        },
        {
          "dep": "mark",
          "governor": 2,
          "governorGloss": "Putins",
          "dependent": 5,
          "dependentGloss": "aus"
        },
        {
          "dep": "case",
          "governor": 9,
          "governorGloss": "Knopf",
          "dependent": 6,
          "dependentGloss": "wie"
        },
        {
          "dep": "det",
          "governor": 9,
          "governorGloss": "Knopf",
          "dependent": 7,
          "dependentGloss": "ein"
        },
        {
          "dep": "amod",
          "governor": 9,
          "governorGloss": "Knopf",
          "dependent": 8,
          "dependentGloss": "massiver"
        },
        {
          "dep": "nmod",
          "governor": 2,
          "governorGloss": "Putins",
          "dependent": 9,
          "dependentGloss": "Knopf"
        }
      ],
      "enhancedDependencies": [
        {
          "dep": "ROOT",
          "governor": 0,
          "governorGloss": "ROOT",
          "dependent": 2,
          "dependentGloss": "Putins"
        },
        {
          "dep": "nsubj",
          "governor": 2,
          "governorGloss": "Putins",
          "dependent": 1,
          "dependentGloss": "Vladimir"
        },
        {
          "dep": "dobj",
          "governor": 2,
          "governorGloss": "Putins",
          "dependent": 3,
          "dependentGloss": "Motorcade"
        },
        {
          "dep": "advmod",
          "governor": 2,
          "governorGloss": "Putins",
          "dependent": 4,
          "dependentGloss": "sieht"
        },
        {
          "dep": "mark",
          "governor": 2,
          "governorGloss": "Putins",
          "dependent": 5,
          "dependentGloss": "aus"
        },
        {
          "dep": "case",
          "governor": 9,
          "governorGloss": "Knopf",
          "dependent": 6,
          "dependentGloss": "wie"
        },
        {
          "dep": "det",
          "governor": 9,
          "governorGloss": "Knopf",
          "dependent": 7,
          "dependentGloss": "ein"
        },
        {
          "dep": "amod",
          "governor": 9,
          "governorGloss": "Knopf",
          "dependent": 8,
          "dependentGloss": "massiver"
        },
        {
          "dep": "nmod",
          "governor": 2,
          "governorGloss": "Putins",
          "dependent": 9,
          "dependentGloss": "Knopf"
        }
      ],
      "enhancedPlusPlusDependencies": [
        {
          "dep": "ROOT",
          "governor": 0,
          "governorGloss": "ROOT",
          "dependent": 2,
          "dependentGloss": "Putins"
        },
        {
          "dep": "nsubj",
          "governor": 2,
          "governorGloss": "Putins",
          "dependent": 1,
          "dependentGloss": "Vladimir"
        },
        {
          "dep": "dobj",
          "governor": 2,
          "governorGloss": "Putins",
          "dependent": 3,
          "dependentGloss": "Motorcade"
        },
        {
          "dep": "advmod",
          "governor": 2,
          "governorGloss": "Putins",
          "dependent": 4,
          "dependentGloss": "sieht"
        },
        {
          "dep": "mark",
          "governor": 2,
          "governorGloss": "Putins",
          "dependent": 5,
          "dependentGloss": "aus"
        },
        {
          "dep": "case",
          "governor": 9,
          "governorGloss": "Knopf",
          "dependent": 6,
          "dependentGloss": "wie"
        },
        {
          "dep": "det",
          "governor": 9,
          "governorGloss": "Knopf",
          "dependent": 7,
          "dependentGloss": "ein"
        },
        {
          "dep": "amod",
          "governor": 9,
          "governorGloss": "Knopf",
          "dependent": 8,
          "dependentGloss": "massiver"
        },
        {
          "dep": "nmod",
          "governor": 2,
          "governorGloss": "Putins",
          "dependent": 9,
          "dependentGloss": "Knopf"
        }
      ],
      "tokens": [
        {
          "index": 1,
          "word": "Vladimir",
          "originalText": "Vladimir",
          "characterOffsetBegin": 0,
          "characterOffsetEnd": 8,
          "pos": "NE",
          "before": "",
          "after": " "
        },
        {
          "index": 2,
          "word": "Putins",
          "originalText": "Putins",
          "characterOffsetBegin": 9,
          "characterOffsetEnd": 15,
          "pos": "NE",
          "before": " ",
          "after": " "
        },
        {
          "index": 3,
          "word": "Motorcade",
          "originalText": "Motorcade",
          "characterOffsetBegin": 16,
          "characterOffsetEnd": 25,
          "pos": "NE",
          "before": " ",
          "after": " "
        },
        {
          "index": 4,
          "word": "sieht",
          "originalText": "sieht",
          "characterOffsetBegin": 26,
          "characterOffsetEnd": 31,
          "pos": "VVFIN",
          "before": " ",
          "after": " "
        },
        {
          "index": 5,
          "word": "aus",
          "originalText": "aus",
          "characterOffsetBegin": 32,
          "characterOffsetEnd": 35,
          "pos": "PTKVZ",
          "before": " ",
          "after": " "
        },
        {
          "index": 6,
          "word": "wie",
          "originalText": "wie",
          "characterOffsetBegin": 36,
          "characterOffsetEnd": 39,
          "pos": "KOKOM",
          "before": " ",
          "after": " "
        },
        {
          "index": 7,
          "word": "ein",
          "originalText": "ein",
          "characterOffsetBegin": 40,
          "characterOffsetEnd": 43,
          "pos": "ART",
          "before": " ",
          "after": " "
        },
        {
          "index": 8,
          "word": "massiver",
          "originalText": "massiver",
          "characterOffsetBegin": 44,
          "characterOffsetEnd": 52,
          "pos": "ADJA",
          "before": " ",
          "after": " "
        },
        {
          "index": 9,
          "word": "Knopf",
          "originalText": "Knopf",
          "characterOffsetBegin": 53,
          "characterOffsetEnd": 58,
          "pos": "NN",
          "before": " ",
          "after": ""
        }
      ]
    }
  ]
}