{
  "sentences": [
    {
      "index": 0,
      "basicDependencies": [
        {
          "dep": "ROOT",
          "governor": 0,
          "governorGloss": "ROOT",
          "dependent": 6,
          "dependentGloss": "zirkulieren"
        },
        {
          "dep": "det",
          "governor": 5,
          "governorGloss": "Tod",
          "dependent": 1,
          "dependentGloss": "Gerüchte"
        },
        {
          "dep": "case",
          "governor": 3,
          "governorGloss": "Fidel",
          "dependent": 2,
          "dependentGloss": "von"
        },
        {
          "dep": "nmod",
          "governor": 1,
          "governorGloss": "Gerüchte",
          "dependent": 3,
          "dependentGloss": "Fidel"
        },
        {
          "dep": "amod",
          "governor": 5,
          "governorGloss": "Tod",
          "dependent": 4,
          "dependentGloss": "Castros"
        },
        {
          "dep": "nsubj",
          "governor": 6,
          "governorGloss": "zirkulieren",
          "dependent": 5,
          "dependentGloss": "Tod"
        },
        {
          "dep": "case",
          "governor": 9,
          "governorGloss": "Abwesenheit",
          "dependent": 7,
          "dependentGloss": "nach"
        },
        {
          "dep": "amod",
          "governor": 9,
          "governorGloss": "Abwesenheit",
          "dependent": 8,
          "dependentGloss": "längerer"
        },
        {
          "dep": "nmod",
          "governor": 6,
          "governorGloss": "zirkulieren",
          "dependent": 9,
          "dependentGloss": "Abwesenheit"
        },
        {
          "dep": "case",
          "governor": 13,
          "governorGloss": "Leben",
          "dependent": 10,
          "dependentGloss": "aus"
        },
        {
          "dep": "det",
          "governor": 13,
          "governorGloss": "Leben",
          "dependent": 11,
          "dependentGloss": "dem"
        },
        {
          "dep": "amod",
          "governor": 13,
          "governorGloss": "Leben",
          "dependent": 12,
          "dependentGloss": "öffentlichen"
        },
        {
          "dep": "nmod",
          "governor": 6,
          "governorGloss": "zirkulieren",
          "dependent": 13,
          "dependentGloss": "Leben"
        }
      ],
      "enhancedDependencies": [
        {
          "dep": "ROOT",
          "governor": 0,
          "governorGloss": "ROOT",
          "dependent": 6,
          "dependentGloss": "zirkulieren"
        },
        {
          "dep": "det",
          "governor": 5,
          "governorGloss": "Tod",
          "dependent": 1,
          "dependentGloss": "Gerüchte"
        },
        {
          "dep": "case",
          "governor": 3,
          "governorGloss": "Fidel",
          "dependent": 2,
          "dependentGloss": "von"
        },
        {
          "dep": "nmod",
          "governor": 1,
          "governorGloss": "Gerüchte",
          "dependent": 3,
          "dependentGloss": "Fidel"
        },
        {
          "dep": "amod",
          "governor": 5,
          "governorGloss": "Tod",
          "dependent": 4,
          "dependentGloss": "Castros"
        },
        {
          "dep": "nsubj",
          "governor": 6,
          "governorGloss": "zirkulieren",
          "dependent": 5,
          "dependentGloss": "Tod"
        },
        {
          "dep": "case",
          "governor": 9,
          "governorGloss": "Abwesenheit",
          "dependent": 7,
          "dependentGloss": "nach"
        },
        {
          "dep": "amod",
          "governor": 9,
          "governorGloss": "Abwesenheit",
          "dependent": 8,
          "dependentGloss": "längerer"
        },
        {
          "dep": "nmod",
          "governor": 6,
          "governorGloss": "zirkulieren",
          "dependent": 9,
          "dependentGloss": "Abwesenheit"
        },
        {
          "dep": "case",
          "governor": 13,
          "governorGloss": "Leben",
          "dependent": 10,
          "dependentGloss": "aus"
        },
        {
          "dep": "det",
          "governor": 13,
          "governorGloss": "Leben",
          "dependent": 11,
          "dependentGloss": "dem"
        },
        {
          "dep": "amod",
          "governor": 13,
          "governorGloss": "Leben",
          "dependent": 12,
          "dependentGloss": "öffentlichen"
        },
        {
          "dep": "nmod",
          "governor": 6,
          "governorGloss": "zirkulieren",
          "dependent": 13,
          "dependentGloss": "Leben"
        }
      ],
      "enhancedPlusPlusDependencies": [
        {
          "dep": "ROOT",
          "governor": 0,
          "governorGloss": "ROOT",
          "dependent": 6,
          "dependentGloss": "zirkulieren"
        },
        {
          "dep": "det",
          "governor": 5,
          "governorGloss": "Tod",
          "dependent": 1,
          "dependentGloss": "Gerüchte"
        },
        {
          "dep": "case",
          "governor": 3,
          "governorGloss": "Fidel",
          "dependent": 2,
          "dependentGloss": "von"
        },
        {
          "dep": "nmod",
          "governor": 1,
          "governorGloss": "Gerüchte",
          "dependent": 3,
          "dependentGloss": "Fidel"
        },
        {
          "dep": "amod",
          "governor": 5,
          "governorGloss": "Tod",
          "dependent": 4,
          "dependentGloss": "Castros"
        },
        {
          "dep": "nsubj",
          "governor": 6,
          "governorGloss": "zirkulieren",
          "dependent": 5,
          "dependentGloss": "Tod"
        },
        {
          "dep": "case",
          "governor": 9,
          "governorGloss": "Abwesenheit",
          "dependent": 7,
          "dependentGloss": "nach"
        },
        {
          "dep": "amod",
          "governor": 9,
          "governorGloss": "Abwesenheit",
          "dependent": 8,
          "dependentGloss": "längerer"
        },
        {
          "dep": "nmod",
          "governor": 6,
          "governorGloss": "zirkulieren",
          "dependent": 9,
          "dependentGloss": "Abwesenheit"
        },
        {
          "dep": "case",
          "governor": 13,
          "governorGloss": "Leben",
          "dependent": 10,
          "dependentGloss": "aus"
        },
        {
          "dep": "det",
          "governor": 13,
          "governorGloss": "Leben",
          "dependent": 11,
          "dependentGloss": "dem"
        },
        {
          "dep": "amod",
          "governor": 13,
          "governorGloss": "Leben",
          "dependent": 12,
          "dependentGloss": "öffentlichen"
        },
        {
          "dep": "nmod",
          "governor": 6,
          "governorGloss": "zirkulieren",
          "dependent": 13,
          "dependentGloss": "Leben"
        }
      ],
      "tokens": [
        {
          "index": 1,
          "word": "Gerüchte",
          "originalText": "Gerüchte",
          "characterOffsetBegin": 0,
          "characterOffsetEnd": 8,
          "pos": "NN",
          "before": "",
          "after": " "
        },
        {
          "index": 2,
          "word": "von",
          "originalText": "von",
          "characterOffsetBegin": 9,
          "characterOffsetEnd": 12,
          "pos": "APPR",
          "before": " ",
          "after": " "
        },
        {
          "index": 3,
          "word": "Fidel",
          "originalText": "Fidel",
          "characterOffsetBegin": 13,
          "characterOffsetEnd": 18,
          "pos": "NE",
          "before": " ",
          "after": " "
        },
        {
          "index": 4,
          "word": "Castros",
          "originalText": "Castros",
          "characterOffsetBegin": 19,
          "characterOffsetEnd": 26,
          "pos": "NE",
          "before": " ",
          "after": " "
        },
        {
          "index": 5,
          "word": "Tod",
          "originalText": "Tod",
          "characterOffsetBegin": 27,
          "characterOffsetEnd": 30,
          "pos": "NN",
          "before": " ",
          "after": " "
        },
        {
          "index": 6,
          "word": "zirkulieren",
          "originalText": "zirkulieren",
          "characterOffsetBegin": 31,
          "characterOffsetEnd": 42,
          "pos": "VVFIN",
          "before": " ",
          "after": " "
        },
        {
          "index": 7,
          "word": "nach",
          "originalText": "nach",
          "characterOffsetBegin": 43,
          "characterOffsetEnd": 47,
          "pos": "APPR",
          "before": " ",
          "after": " "
        },
        {
          "index": 8,
          "word": "längerer",
          "originalText": "längerer",
          "characterOffsetBegin": 48,
          "characterOffsetEnd": 56,
          "pos": "ADJA",
          "before": " ",
          "after": " "
        },
        {
          "index": 9,
          "word": "Abwesenheit",
          "originalText": "Abwesenheit",
          "characterOffsetBegin": 57,
          "characterOffsetEnd": 68,
          "pos": "NN",
          "before": " ",
          "after": " "
        },
        {
          "index": 10,
          "word": "aus",
          "originalText": "aus",
          "characterOffsetBegin": 69,
          "characterOffsetEnd": 72,
          "pos": "APPR",
          "before": " ",
          "after": " "
        },
        {
          "index": 11,
          "word": "dem",
          "originalText": "dem",
          "characterOffsetBegin": 73,
          "characterOffsetEnd": 76,
          "pos": "ART",
          "before": " ",
          "after": " "
        },
        {
          "index": 12,
          "word": "öffentlichen",
          "originalText": "öffentlichen",
          "characterOffsetBegin": 77,
          "characterOffsetEnd": 89,
          "pos": "ADJA",
          "before": " ",
          "after": " "
        },
        {
          "index": 13,
          "word": "Leben",
          "originalText": "Leben",
          "characterOffsetBegin": 90,
          "characterOffsetEnd": 95,
          "pos": "NN",
          "before": " ",
          "after": ""
        }
      ]
    }
  ]
}