{
  "sentences": [
    {
      "index": 0,
      "basicDependencies": [
        {
          "dep": "ROOT",
          "governor": 0,
          "governorGloss": "ROOT",
          "dependent": 1,
          "dependentGloss": "Islamische"
        },
        {
          "dep": "amod",
          "governor": 3,
          "governorGloss": "Ausbildung",
          "dependent": 2,
          "dependentGloss": "staatliche"
        },
        {
          "dep": "det",
          "governor": 1,
          "governorGloss": "Islamische",
          "dependent": 3,
          "dependentGloss": "Ausbildung"
        },
        {
          "dep": "amod",
          "governor": 5,
          "governorGloss": "Piloten",
          "dependent": 4,
          "dependentGloss": "Kämpfer"
        },
        {
          "dep": "det",
          "governor": 3,
          "governorGloss": "Ausbildung",
          "dependent": 5,
          "dependentGloss": "Piloten"
        },
        {
          "dep": "case",
          "governor": 8,
          "governorGloss": "Jets",
          "dependent": 6,
          "dependentGloss": "in"
        },
        {
          "dep": "amod",
          "governor": 8,
          "governorGloss": "Jets",
          "dependent": 7,
          "dependentGloss": "gefangenen"
        },
        {
          "dep": "nmod",
          "governor": 5,
          "governorGloss": "Piloten",
          "dependent": 8,
          "dependentGloss": "Jets"
        },
        {
          "dep": "punct",
          "governor": 3,
          "governorGloss": "Ausbildung",
          "dependent": 9,
          "dependentGloss": ","
        },
        {
          "dep": "amod",
          "governor": 11,
          "governorGloss": "sagt",
          "dependent": 10,
          "dependentGloss": "Monitoring-Gruppe"
        },
        {
          "dep": "conj",
          "governor": 3,
          "governorGloss": "Ausbildung",
          "dependent": 11,
          "dependentGloss": "sagt"
        }
      ],
      "enhancedDependencies": [
        {
          "dep": "ROOT",
          "governor": 0,
          "governorGloss": "ROOT",
          "dependent": 1,
          "dependentGloss": "Islamische"
        },
        {
          "dep": "amod",
          "governor": 3,
          "governorGloss": "Ausbildung",
          "dependent": 2,
          "dependentGloss": "staatliche"
        },
        {
          "dep": "det",
          "governor": 1,
          "governorGloss": "Islamische",
          "dependent": 3,
          "dependentGloss": "Ausbildung"
        },
        {
          "dep": "amod",
          "governor": 5,
          "governorGloss": "Piloten",
          "dependent": 4,
          "dependentGloss": "Kämpfer"
        },
        {
          "dep": "det",
          "governor": 3,
          "governorGloss": "Ausbildung",
          "dependent": 5,
          "dependentGloss": "Piloten"
        },
        {
          "dep": "case",
          "governor": 8,
          "governorGloss": "Jets",
          "dependent": 6,
          "dependentGloss": "in"
        },
        {
          "dep": "amod",
          "governor": 8,
          "governorGloss": "Jets",
          "dependent": 7,
          "dependentGloss": "gefangenen"
        },
        {
          "dep": "nmod",
          "governor": 5,
          "governorGloss": "Piloten",
          "dependent": 8,
          "dependentGloss": "Jets"
        },
        {
          "dep": "punct",
          "governor": 3,
          "governorGloss": "Ausbildung",
          "dependent": 9,
          "dependentGloss": ","
        },
        {
          "dep": "amod",
          "governor": 11,
          "governorGloss": "sagt",
          "dependent": 10,
          "dependentGloss": "Monitoring-Gruppe"
        },
        {
          "dep": "conj",
          "governor": 3,
          "governorGloss": "Ausbildung",
          "dependent": 11,
          "dependentGloss": "sagt"
        }
      ],
      "enhancedPlusPlusDependencies": [
        {
          "dep": "ROOT",
          "governor": 0,
          "governorGloss": "ROOT",
          "dependent": 1,
          "dependentGloss": "Islamische"
        },
        {
          "dep": "amod",
          "governor": 3,
          "governorGloss": "Ausbildung",
          "dependent": 2,
          "dependentGloss": "staatliche"
        },
        {
          "dep": "det",
          "governor": 1,
          "governorGloss": "Islamische",
          "dependent": 3,
          "dependentGloss": "Ausbildung"
        },
        {
          "dep": "amod",
          "governor": 5,
          "governorGloss": "Piloten",
          "dependent": 4,
          "dependentGloss": "Kämpfer"
        },
        {
          "dep": "det",
          "governor": 3,
          "governorGloss": "Ausbildung",
          "dependent": 5,
          "dependentGloss": "Piloten"
        },
        {
          "dep": "case",
          "governor": 8,
          "governorGloss": "Jets",
          "dependent": 6,
          "dependentGloss": "in"
        },
        {
          "dep": "amod",
          "governor": 8,
          "governorGloss": "Jets",
          "dependent": 7,
          "dependentGloss": "gefangenen"
        },
        {
          "dep": "nmod",
          "governor": 5,
          "governorGloss": "Piloten",
          "dependent": 8,
          "dependentGloss": "Jets"
        },
        {
          "dep": "punct",
          "governor": 3,
          "governorGloss": "Ausbildung",
          "dependent": 9,
          "dependentGloss": ","
        },
        {
          "dep": "amod",
          "governor": 11,
          "governorGloss": "sagt",
          "dependent": 10,
          "dependentGloss": "Monitoring-Gruppe"
        },
        {
          "dep": "conj",
          "governor": 3,
          "governorGloss": "Ausbildung",
          "dependent": 11,
          "dependentGloss": "sagt"
        }
      ],
      "tokens": [
        {
          "index": 1,
          "word": "Islamische",
          "originalText": "Islamische",
          "characterOffsetBegin": 0,
          "characterOffsetEnd": 10,
          "pos": "ADJA",
          "before": "",
          "after": " "
        },
        {
          "index": 2,
          "word": "staatliche",
          "originalText": "staatliche",
          "characterOffsetBegin": 11,
          "characterOffsetEnd": 21,
          "pos": "ADJA",
          "before": " ",
          "after": " "
        },
        {
          "index": 3,
          "word": "Ausbildung",
          "originalText": "Ausbildung",
          "characterOffsetBegin": 22,
          "characterOffsetEnd": 32,
          "pos": "NN",
          "before": " ",
          "after": " "
        },
        {
          "index": 4,
          "word": "Kämpfer",
          "originalText": "Kämpfer",
          "characterOffsetBegin": 33,
          "characterOffsetEnd": 40,
          "pos": "NN",
          "before": " ",
          "after": " "
        },
        {
          "index": 5,
          "word": "Piloten",
          "originalText": "Piloten",
          "characterOffsetBegin": 41,
          "characterOffsetEnd": 48,
          "pos": "NN",
          "before": " ",
          "after": " "
        },
        {
          "index": 6,
          "word": "in",
          "originalText": "in",
          "characterOffsetBegin": 49,
          "characterOffsetEnd": 51,
          "pos": "APPR",
          "before": " ",
          "after": " "
        },
        {
          "index": 7,
          "word": "gefangenen",
          "originalText": "gefangenen",
          "characterOffsetBegin": 52,
          "characterOffsetEnd": 62,
          "pos": "ADJA",
          "before": " ",
          "after": " "
        },
        {
          "index": 8,
          "word": "Jets",
          "originalText": "Jets",
          "characterOffsetBegin": 63,
          "characterOffsetEnd": 67,
          "pos": "NN",
          "before": " ",
          "after": ""
        },
        {
          "index": 9,
          "word": ",",
          "originalText": ",",
          "characterOffsetBegin": 67,
          "characterOffsetEnd": 68,
          "pos": "$,",
          "before": "",
          "after": " "
        },
        {
          "index": 10,
          "word": "Monitoring-Gruppe",
          "originalText": "Monitoring-Gruppe",
          "characterOffsetBegin": 69,
          "characterOffsetEnd": 86,
          "pos": "NN",
          "before": " ",
          "after": " "
        },
        {
          "index": 11,
          "word": "sagt",
          "originalText": "sagt",
          "characterOffsetBegin": 87,
          "characterOffsetEnd": 91,
          "pos": "VVFIN",
          "before": " ",
          "after": ""
        }
      ]
    }
  ]
}