{
  "sentences": [
    {
      "index": 0,
      "basicDependencies": [
        {
          "dep": "ROOT",
          "governor": 0,
          "governorGloss": "ROOT",
          "dependent": 3,
          "dependentGloss": "Form"
        },
        {
          "dep": "punct",
          "governor": 3,
          "governorGloss": "Form",
          "dependent": 1,
          "dependentGloss": "``"
        },
        {
          "dep": "amod",
          "governor": 3,
          "governorGloss": "Form",
          "dependent": 2,
          "dependentGloss": "Evokative"
        },
        {
          "dep": "punct",
          "governor": 14,
          "governorGloss": "unterwegs",
          "dependent": 4,
          "dependentGloss": "``"
        },
        {
          "dep": "punct",
          "governor": 14,
          "governorGloss": "unterwegs",
          "dependent": 5,
          "dependentGloss": ":"
        },
        {
          "dep": "cop",
          "governor": 14,
          "governorGloss": "unterwegs",
          "dependent": 6,
          "dependentGloss": "Ist"
        },
        {
          "dep": "name",
          "governor": 8,
          "governorGloss": "Putin",
          "dependent": 7,
          "dependentGloss": "Wladimir"
        },
        {
          "dep": "nsubj",
          "governor": 14,
          "governorGloss": "unterwegs",
          "dependent": 8,
          "dependentGloss": "Putin"
        },
        {
          "dep": "det",
          "governor": 10,
          "governorGloss": "Welt",
          "dependent": 9,
          "dependentGloss": "die"
        },
        {
          "dep": "dobj",
          "governor": 14,
          "governorGloss": "unterwegs",
          "dependent": 10,
          "dependentGloss": "Welt"
        },
        {
          "dep": "case",
          "governor": 13,
          "governorGloss": "Kumpelformationen",
          "dependent": 11,
          "dependentGloss": "mit"
        },
        {
          "dep": "det",
          "governor": 13,
          "governorGloss": "Kumpelformationen",
          "dependent": 12,
          "dependentGloss": "seiner"
        },
        {
          "dep": "nmod",
          "governor": 14,
          "governorGloss": "unterwegs",
          "dependent": 13,
          "dependentGloss": "Kumpelformationen"
        },
        {
          "dep": "appos",
          "governor": 3,
          "governorGloss": "Form",
          "dependent": 14,
          "dependentGloss": "unterwegs"
        },
        {
          "dep": "punct",
          "governor": 14,
          "governorGloss": "unterwegs",
          "dependent": 15,
          "dependentGloss": "?"
        }
      ],
      "enhancedDependencies": [
        {
          "dep": "ROOT",
          "governor": 0,
          "governorGloss": "ROOT",
          "dependent": 3,
          "dependentGloss": "Form"
        },
        {
          "dep": "punct",
          "governor": 3,
          "governorGloss": "Form",
          "dependent": 1,
          "dependentGloss": "``"
        },
        {
          "dep": "amod",
          "governor": 3,
          "governorGloss": "Form",
          "dependent": 2,
          "dependentGloss": "Evokative"
        },
        {
          "dep": "punct",
          "governor": 14,
          "governorGloss": "unterwegs",
          "dependent": 4,
          "dependentGloss": "``"
        },
        {
          "dep": "punct",
          "governor": 14,
          "governorGloss": "unterwegs",
          "dependent": 5,
          "dependentGloss": ":"
        },
        {
          "dep": "cop",
          "governor": 14,
          "governorGloss": "unterwegs",
          "dependent": 6,
          "dependentGloss": "Ist"
        },
        {
          "dep": "name",
          "governor": 8,
          "governorGloss": "Putin",
          "dependent": 7,
          "dependentGloss": "Wladimir"
        },
        {
          "dep": "nsubj",
          "governor": 14,
          "governorGloss": "unterwegs",
          "dependent": 8,
          "dependentGloss": "Putin"
        },
        {
          "dep": "det",
          "governor": 10,
          "governorGloss": "Welt",
          "dependent": 9,
          "dependentGloss": "die"
        },
        {
          "dep": "dobj",
          "governor": 14,
          "governorGloss": "unterwegs",
          "dependent": 10,
          "dependentGloss": "Welt"
        },
        {
          "dep": "case",
          "governor": 13,
          "governorGloss": "Kumpelformationen",
          "dependent": 11,
          "dependentGloss": "mit"
        },
        {
          "dep": "det",
          "governor": 13,
          "governorGloss": "Kumpelformationen",
          "dependent": 12,
          "dependentGloss": "seiner"
        },
        {
          "dep": "nmod",
          "governor": 14,
          "governorGloss": "unterwegs",
          "dependent": 13,
          "dependentGloss": "Kumpelformationen"
        },
        {
          "dep": "appos",
          "governor": 3,
          "governorGloss": "Form",
          "dependent": 14,
          "dependentGloss": "unterwegs"
        },
        {
          "dep": "punct",
          "governor": 14,
          "governorGloss": "unterwegs",
          "dependent": 15,
          "dependentGloss": "?"
        }
      ],
      "enhancedPlusPlusDependencies": [
        {
          "dep": "ROOT",
          "governor": 0,
          "governorGloss": "ROOT",
          "dependent": 3,
          "dependentGloss": "Form"
        },
        {
          "dep": "punct",
          "governor": 3,
          "governorGloss": "Form",
          "dependent": 1,
          "dependentGloss": "``"
        },
        {
          "dep": "amod",
          "governor": 3,
          "governorGloss": "Form",
          "dependent": 2,
          "dependentGloss": "Evokative"
        },
        {
          "dep": "punct",
          "governor": 14,
          "governorGloss": "unterwegs",
          "dependent": 4,
          "dependentGloss": "``"
        },
        {
          "dep": "punct",
          "governor": 14,
          "governorGloss": "unterwegs",
          "dependent": 5,
          "dependentGloss": ":"
        },
        {
          "dep": "cop",
          "governor": 14,
          "governorGloss": "unterwegs",
          "dependent": 6,
          "dependentGloss": "Ist"
        },
        {
          "dep": "name",
          "governor": 8,
          "governorGloss": "Putin",
          "dependent": 7,
          "dependentGloss": "Wladimir"
        },
        {
          "dep": "nsubj",
          "governor": 14,
          "governorGloss": "unterwegs",
          "dependent": 8,
          "dependentGloss": "Putin"
        },
        {
          "dep": "det",
          "governor": 10,
          "governorGloss": "Welt",
          "dependent": 9,
          "dependentGloss": "die"
        },
        {
          "dep": "dobj",
          "governor": 14,
          "governorGloss": "unterwegs",
          "dependent": 10,
          "dependentGloss": "Welt"
        },
        {
          "dep": "case",
          "governor": 13,
          "governorGloss": "Kumpelformationen",
          "dependent": 11,
          "dependentGloss": "mit"
        },
        {
          "dep": "det",
          "governor": 13,
          "governorGloss": "Kumpelformationen",
          "dependent": 12,
          "dependentGloss": "seiner"
        },
        {
          "dep": "nmod",
          "governor": 14,
          "governorGloss": "unterwegs",
          "dependent": 13,
          "dependentGloss": "Kumpelformationen"
        },
        {
          "dep": "appos",
          "governor": 3,
          "governorGloss": "Form",
          "dependent": 14,
          "dependentGloss": "unterwegs"
        },
        {
          "dep": "punct",
          "governor": 14,
          "governorGloss": "unterwegs",
          "dependent": 15,
          "dependentGloss": "?"
        }
      ],
      "tokens": [
        {
          "index": 1,
          "word": "``",
          "originalText": "“",
          "characterOffsetBegin": 0,
          "characterOffsetEnd": 1,
          "pos": "CARD",
          "before": "",
          "after": ""
        },
        {
          "index": 2,
          "word": "Evokative",
          "originalText": "Evokative",
          "characterOffsetBegin": 1,
          "characterOffsetEnd": 10,
          "pos": "NN",
          "before": "",
          "after": " "
        },
        {
          "index": 3,
          "word": "Form",
          "originalText": "Form",
          "characterOffsetBegin": 11,
          "characterOffsetEnd": 15,
          "pos": "NN",
          "before": " ",
          "after": ""
        },
        {
          "index": 4,
          "word": "``",
          "originalText": "“",
          "characterOffsetBegin": 15,
          "characterOffsetEnd": 16,
          "pos": "CARD",
          "before": "",
          "after": ""
        },
        {
          "index": 5,
          "word": ":",
          "originalText": ":",
          "characterOffsetBegin": 16,
          "characterOffsetEnd": 17,
          "pos": "$.",
          "before": "",
          "after": " "
        },
        {
          "index": 6,
          "word": "Ist",
          "originalText": "Ist",
          "characterOffsetBegin": 18,
          "characterOffsetEnd": 21,
          "pos": "VAFIN",
          "before": " ",
          "after": " "
        },
        {
          "index": 7,
          "word": "Wladimir",
          "originalText": "Wladimir",
          "characterOffsetBegin": 22,
          "characterOffsetEnd": 30,
          "pos": "NE",
          "before": " ",
          "after": " "
        },
        {
          "index": 8,
          "word": "Putin",
          "originalText": "Putin",
          "characterOffsetBegin": 31,
          "characterOffsetEnd": 36,
          "pos": "NE",
          "before": " ",
          "after": " "
        },
        {
          "index": 9,
          "word": "die",
          "originalText": "die",
          "characterOffsetBegin": 37,
          "characterOffsetEnd": 40,
          "pos": "ART",
          "before": " ",
          "after": " "
        },
        {
          "index": 10,
          "word": "Welt",
          "originalText": "Welt",
          "characterOffsetBegin": 41,
          "characterOffsetEnd": 45,
          "pos": "NN",
          "before": " ",
          "after": " "
        },
        {
          "index": 11,
          "word": "mit",
          "originalText": "mit",
          "characterOffsetBegin": 46,
          "characterOffsetEnd": 49,
          "pos": "APPR",
          "before": " ",
          "after": " "
        },
        {
          "index": 12,
          "word": "seiner",
          "originalText": "seiner",
          "characterOffsetBegin": 50,
          "characterOffsetEnd": 56,
          "pos": "PPOSAT",
          "before": " ",
          "after": " "
        },
        {
          "index": 13,
          "word": "Kumpelformationen",
          "originalText": "Kumpelformationen",
          "characterOffsetBegin": 57,
          "characterOffsetEnd": 74,
          "pos": "NN",
          "before": " ",
          "after": " "
        },
        {
          "index": 14,
          "word": "unterwegs",
          "originalText": "unterwegs",
          "characterOffsetBegin": 75,
          "characterOffsetEnd": 84,
          "pos": "ADV",
          "before": " ",
          "after": ""
        },
        {
          "index": 15,
          "word": "?",
          "originalText": "?",
          "characterOffsetBegin": 84,
          "characterOffsetEnd": 85,
          "pos": "$.",
          "before": "",
          "after": ""
        }
      ]
    }
  ]
}