{
  "sentences": [
    {
      "index": 0,
      "basicDependencies": [
        {
          "dep": "ROOT",
          "governor": 0,
          "governorGloss": "ROOT",
          "dependent": 2,
          "dependentGloss": "wirft"
        },
        {
          "dep": "nsubj",
          "governor": 2,
          "governorGloss": "wirft",
          "dependent": 1,
          "dependentGloss": "Experte"
        },
        {
          "dep": "dobj",
          "governor": 2,
          "governorGloss": "wirft",
          "dependent": 3,
          "dependentGloss": "Zweifel"
        },
        {
          "dep": "case",
          "governor": 6,
          "governorGloss": "Mann",
          "dependent": 4,
          "dependentGloss": "an"
        },
        {
          "dep": "name",
          "governor": 6,
          "governorGloss": "Mann",
          "dependent": 5,
          "dependentGloss": "Bunbury"
        },
        {
          "dep": "nmod",
          "governor": 2,
          "governorGloss": "wirft",
          "dependent": 6,
          "dependentGloss": "Mann"
        },
        {
          "dep": "name",
          "governor": 8,
          "governorGloss": "Thomas",
          "dependent": 7,
          "dependentGloss": "Dylan"
        },
        {
          "dep": "det",
          "governor": 10,
          "governorGloss": "grabenden",
          "dependent": 8,
          "dependentGloss": "Thomas"
        },
        {
          "dep": "case",
          "governor": 8,
          "governorGloss": "Thomas",
          "dependent": 9,
          "dependentGloss": "'s"
        },
        {
          "dep": "appos",
          "governor": 6,
          "governorGloss": "Mann",
          "dependent": 10,
          "dependentGloss": "grabenden"
        },
        {
          "dep": "amod",
          "governor": 12,
          "governorGloss": "Geschichte",
          "dependent": 11,
          "dependentGloss": "Magen-Spinne"
        },
        {
          "dep": "det",
          "governor": 10,
          "governorGloss": "grabenden",
          "dependent": 12,
          "dependentGloss": "Geschichte"
        }
      ],
      "enhancedDependencies": [
        {
          "dep": "ROOT",
          "governor": 0,
          "governorGloss": "ROOT",
          "dependent": 2,
          "dependentGloss": "wirft"
        },
        {
          "dep": "nsubj",
          "governor": 2,
          "governorGloss": "wirft",
          "dependent": 1,
          "dependentGloss": "Experte"
        },
        {
          "dep": "dobj",
          "governor": 2,
          "governorGloss": "wirft",
          "dependent": 3,
          "dependentGloss": "Zweifel"
        },
        {
          "dep": "case",
          "governor": 6,
          "governorGloss": "Mann",
          "dependent": 4,
          "dependentGloss": "an"
        },
        {
          "dep": "name",
          "governor": 6,
          "governorGloss": "Mann",
          "dependent": 5,
          "dependentGloss": "Bunbury"
        },
        {
          "dep": "nmod",
          "governor": 2,
          "governorGloss": "wirft",
          "dependent": 6,
          "dependentGloss": "Mann"
        },
        {
          "dep": "name",
          "governor": 8,
          "governorGloss": "Thomas",
          "dependent": 7,
          "dependentGloss": "Dylan"
        },
        {
          "dep": "det",
          "governor": 10,
          "governorGloss": "grabenden",
          "dependent": 8,
          "dependentGloss": "Thomas"
        },
        {
          "dep": "case",
          "governor": 8,
          "governorGloss": "Thomas",
          "dependent": 9,
          "dependentGloss": "'s"
        },
        {
          "dep": "appos",
          "governor": 6,
          "governorGloss": "Mann",
          "dependent": 10,
          "dependentGloss": "grabenden"
        },
        {
          "dep": "amod",
          "governor": 12,
          "governorGloss": "Geschichte",
          "dependent": 11,
          "dependentGloss": "Magen-Spinne"
        },
        {
          "dep": "det",
          "governor": 10,
          "governorGloss": "grabenden",
          "dependent": 12,
          "dependentGloss": "Geschichte"
        }
      ],
      "enhancedPlusPlusDependencies": [
        {
          "dep": "ROOT",
          "governor": 0,
          "governorGloss": "ROOT",
          "dependent": 2,
          "dependentGloss": "wirft"
        },
        {
          "dep": "nsubj",
          "governor": 2,
          "governorGloss": "wirft",
          "dependent": 1,
          "dependentGloss": "Experte"
        },
        {
          "dep": "dobj",
          "governor": 2,
          "governorGloss": "wirft",
          "dependent": 3,
          "dependentGloss": "Zweifel"
        },
        {
          "dep": "case",
          "governor": 6,
          "governorGloss": "Mann",
          "dependent": 4,
          "dependentGloss": "an"
        },
        {
          "dep": "name",
          "governor": 6,
          "governorGloss": "Mann",
          "dependent": 5,
          "dependentGloss": "Bunbury"
        },
        {
          "dep": "nmod",
          "governor": 2,
          "governorGloss": "wirft",
          "dependent": 6,
          "dependentGloss": "Mann"
        },
        {
          "dep": "name",
          "governor": 8,
          "governorGloss": "Thomas",
          "dependent": 7,
          "dependentGloss": "Dylan"
        },
        {
          "dep": "det",
          "governor": 10,
          "governorGloss": "grabenden",
          "dependent": 8,
          "dependentGloss": "Thomas"
        },
        {
          "dep": "case",
          "governor": 8,
          "governorGloss": "Thomas",
          "dependent": 9,
          "dependentGloss": "'s"
        },
        {
          "dep": "appos",
          "governor": 6,
          "governorGloss": "Mann",
          "dependent": 10,
          "dependentGloss": "grabenden"
        },
        {
          "dep": "amod",
          "governor": 12,
          "governorGloss": "Geschichte",
          "dependent": 11,
          "dependentGloss": "Magen-Spinne"
        },
        {
          "dep": "det",
          "governor": 10,
          "governorGloss": "grabenden",
          "dependent": 12,
          "dependentGloss": "Geschichte"
        }
      ],
      "tokens": [
        {
          "index": 1,
          "word": "Experte",
          "originalText": "Experte",
          "characterOffsetBegin": 0,
          "characterOffsetEnd": 7,
          "pos": "NN",
          "before": "",
          "after": " "
        },
        {
          "index": 2,
          "word": "wirft",
          "originalText": "wirft",
          "characterOffsetBegin": 8,
          "characterOffsetEnd": 13,
          "pos": "VVFIN",
          "before": " ",
          "after": " "
        },
        {
          "index": 3,
          "word": "Zweifel",
          "originalText": "Zweifel",
          "characterOffsetBegin": 14,
          "characterOffsetEnd": 21,
          "pos": "NN",
          "before": " ",
          "after": " "
        },
        {
          "index": 4,
          "word": "an",
          "originalText": "an",
          "characterOffsetBegin": 22,
          "characterOffsetEnd": 24,
          "pos": "APPR",
          "before": " ",
          "after": " "
        },
        {
          "index": 5,
          "word": "Bunbury",
          "originalText": "Bunbury",
          "characterOffsetBegin": 25,
          "characterOffsetEnd": 32,
          "pos": "NE",
          "before": " ",
          "after": " "
        },
        {
          "index": 6,
          "word": "Mann",
          "originalText": "Mann",
          "characterOffsetBegin": 33,
          "characterOffsetEnd": 37,
          "pos": "NN",
          "before": " ",
          "after": " "
        },
        {
          "index": 7,
          "word": "Dylan",
          "originalText": "Dylan",
          "characterOffsetBegin": 38,
          "characterOffsetEnd": 43,
          "pos": "NE",
          "before": " ",
          "after": " "
        },
        {
          "index": 8,
          "word": "Thomas",
          "originalText": "Thomas",
          "characterOffsetBegin": 44,
          "characterOffsetEnd": 50,
          "pos": "NE",
          "before": " ",
          "after": ""
        },
        {
          "index": 9,
          "word": "'s",
          "originalText": "'s",
          "characterOffsetBegin": 50,
          "characterOffsetEnd": 52,
          "pos": "PPER",
          "before": "",
          "after": " "
        },
        {
          "index": 10,
          "word": "grabenden",
          "originalText": "grabenden",
          "characterOffsetBegin": 53,
          "characterOffsetEnd": 62,
          "pos": "ADJA",
          "before": " ",
          "after": " "
        },
        {
          "index": 11,
          "word": "Magen-Spinne",
          "originalText": "Magen-Spinne",
          "characterOffsetBegin": 63,
          "characterOffsetEnd": 75,
          "pos": "NN",
          "before": " ",
          "after": " "
        },
        {
          "index": 12,
          "word": "Geschichte",
          "originalText": "Geschichte",
          "characterOffsetBegin": 76,
          "characterOffsetEnd": 86,
          "pos": "NN",
          "before": " ",
          "after": ""
        }
      ]
    }
  ]
}