{
  "sentences": [
    {
      "index": 0,
      "basicDependencies": [
        {
          "dep": "ROOT",
          "governor": 0,
          "governorGloss": "ROOT",
          "dependent": 7,
          "dependentGloss": "schwanger"
        },
        {
          "dep": "nummod",
          "governor": 2,
          "governorGloss": "Teenager-Mädchen",
          "dependent": 1,
          "dependentGloss": "Sieben"
        },
        {
          "dep": "nsubjpass",
          "governor": 7,
          "governorGloss": "schwanger",
          "dependent": 2,
          "dependentGloss": "Teenager-Mädchen"
        },
        {
          "dep": "auxpass",
          "governor": 7,
          "governorGloss": "schwanger",
          "dependent": 3,
          "dependentGloss": "werden"
        },
        {
          "dep": "case",
          "governor": 6,
          "governorGloss": "Schulreise",
          "dependent": 4,
          "dependentGloss": "auf"
        },
        {
          "dep": "det",
          "governor": 6,
          "governorGloss": "Schulreise",
          "dependent": 5,
          "dependentGloss": "der"
        },
        {
          "dep": "nmod",
          "governor": 7,
          "governorGloss": "schwanger",
          "dependent": 6,
          "dependentGloss": "Schulreise"
        }
      ],
      "enhancedDependencies": [
        {
          "dep": "ROOT",
          "governor": 0,
          "governorGloss": "ROOT",
          "dependent": 7,
          "dependentGloss": "schwanger"
        },
        {
          "dep": "nummod",
          "governor": 2,
          "governorGloss": "Teenager-Mädchen",
          "dependent": 1,
          "dependentGloss": "Sieben"
        },
        {
          "dep": "nsubjpass",
          "governor": 7,
          "governorGloss": "schwanger",
          "dependent": 2,
          "dependentGloss": "Teenager-Mädchen"
        },
        {
          "dep": "auxpass",
          "governor": 7,
          "governorGloss": "schwanger",
          "dependent": 3,
          "dependentGloss": "werden"
        },
        {
          "dep": "case",
          "governor": 6,
          "governorGloss": "Schulreise",
          "dependent": 4,
          "dependentGloss": "auf"
        },
        {
          "dep": "det",
          "governor": 6,
          "governorGloss": "Schulreise",
          "dependent": 5,
          "dependentGloss": "der"
        },
        {
          "dep": "nmod",
          "governor": 7,
          "governorGloss": "schwanger",
          "dependent": 6,
          "dependentGloss": "Schulreise"
        }
      ],
      "enhancedPlusPlusDependencies": [
        {
          "dep": "ROOT",
          "governor": 0,
          "governorGloss": "ROOT",
          "dependent": 7,
          "dependentGloss": "schwanger"
        },
        {
          "dep": "nummod",
          "governor": 2,
          "governorGloss": "Teenager-Mädchen",
          "dependent": 1,
          "dependentGloss": "Sieben"
        },
        {
          "dep": "nsubjpass",
          "governor": 7,
          "governorGloss": "schwanger",
          "dependent": 2,
          "dependentGloss": "Teenager-Mädchen"
        },
        {
          "dep": "auxpass",
          "governor": 7,
          "governorGloss": "schwanger",
          "dependent": 3,
          "dependentGloss": "werden"
        },
        {
          "dep": "case",
          "governor": 6,
          "governorGloss": "Schulreise",
          "dependent": 4,
          "dependentGloss": "auf"
        },
        {
          "dep": "det",
          "governor": 6,
          "governorGloss": "Schulreise",
          "dependent": 5,
          "dependentGloss": "der"
        },
        {
          "dep": "nmod",
          "governor": 7,
          "governorGloss": "schwanger",
          "dependent": 6,
          "dependentGloss": "Schulreise"
        }
      ],
      "tokens": [
        {
          "index": 1,
          "word": "Sieben",
          "originalText": "Sieben",
          "characterOffsetBegin": 0,
          "characterOffsetEnd": 6,
          "pos": "CARD",
          "before": "",
          "after": " "
        },
        {
          "index": 2,
          "word": "Teenager-Mädchen",
          "originalText": "Teenager-Mädchen",
          "characterOffsetBegin": 7,
          "characterOffsetEnd": 23,
          "pos": "NN",
          "before": " ",
          "after": " "
        },
        {
          "index": 3,
          "word": "werden",
          "originalText": "werden",
          "characterOffsetBegin": 24,
          "characterOffsetEnd": 30,
          "pos": "VAFIN",
          "before": " ",
          "after": " "
        },
        {
          "index": 4,
          "word": "auf",
          "originalText": "auf",
          "characterOffsetBegin": 31,
          "characterOffsetEnd": 34,
          "pos": "APPR",
          "before": " ",
          "after": " "
        },
        {
          "index": 5,
          "word": "der",
          "originalText": "der",
          "characterOffsetBegin": 35,
          "characterOffsetEnd": 38,
          "pos": "ART",
          "before": " ",
          "after": " "
        },
        {
          "index": 6,
          "word": "Schulreise",
          "originalText": "Schulreise",
          "characterOffsetBegin": 39,
          "characterOffsetEnd": 49,
          "pos": "NN",
          "before": " ",
          "after": " "
        },
        {
          "index": 7,
          "word": "schwanger",
          "originalText": "schwanger",
          "characterOffsetBegin": 50,
          "characterOffsetEnd": 59,
          "pos": "ADJD",
          "before": " ",
          "after": ""
        }
      ]
    }
  ]
}