{
  "sentences": [
    {
      "index": 0,
      "basicDependencies": [
        {
          "dep": "ROOT",
          "governor": 0,
          "governorGloss": "ROOT",
          "dependent": 4,
          "dependentGloss": "sagt"
        },
        {
          "dep": "det",
          "governor": 3,
          "governorGloss": "US-Soldat",
          "dependent": 1,
          "dependentGloss": "Der"
        },
        {
          "dep": "amod",
          "governor": 3,
          "governorGloss": "US-Soldat",
          "dependent": 2,
          "dependentGloss": "ehemalige"
        },
        {
          "dep": "nsubj",
          "governor": 4,
          "governorGloss": "sagt",
          "dependent": 3,
          "dependentGloss": "US-Soldat"
        },
        {
          "dep": "punct",
          "governor": 4,
          "governorGloss": "sagt",
          "dependent": 5,
          "dependentGloss": ","
        },
        {
          "dep": "mark",
          "governor": 11,
          "governorGloss": "verwendet",
          "dependent": 6,
          "dependentGloss": "dass"
        },
        {
          "dep": "case",
          "governor": 8,
          "governorGloss": "Kobani",
          "dependent": 7,
          "dependentGloss": "in"
        },
        {
          "dep": "nmod",
          "governor": 11,
          "governorGloss": "verwendet",
          "dependent": 8,
          "dependentGloss": "Kobani"
        },
        {
          "dep": "amod",
          "governor": 10,
          "governorGloss": "Waffen",
          "dependent": 9,
          "dependentGloss": "chemische"
        },
        {
          "dep": "nsubjpass",
          "governor": 11,
          "governorGloss": "verwendet",
          "dependent": 10,
          "dependentGloss": "Waffen"
        },
        {
          "dep": "ccomp",
          "governor": 4,
          "governorGloss": "sagt",
          "dependent": 11,
          "dependentGloss": "verwendet"
        },
        {
          "dep": "auxpass",
          "governor": 11,
          "governorGloss": "verwendet",
          "dependent": 12,
          "dependentGloss": "werden"
        }
      ],
      "enhancedDependencies": [
        {
          "dep": "ROOT",
          "governor": 0,
          "governorGloss": "ROOT",
          "dependent": 4,
          "dependentGloss": "sagt"
        },
        {
          "dep": "det",
          "governor": 3,
          "governorGloss": "US-Soldat",
          "dependent": 1,
          "dependentGloss": "Der"
        },
        {
          "dep": "amod",
          "governor": 3,
          "governorGloss": "US-Soldat",
          "dependent": 2,
          "dependentGloss": "ehemalige"
        },
        {
          "dep": "nsubj",
          "governor": 4,
          "governorGloss": "sagt",
          "dependent": 3,
          "dependentGloss": "US-Soldat"
        },
        {
          "dep": "punct",
          "governor": 4,
          "governorGloss": "sagt",
          "dependent": 5,
          "dependentGloss": ","
        },
        {
          "dep": "mark",
          "governor": 11,
          "governorGloss": "verwendet",
          "dependent": 6,
          "dependentGloss": "dass"
        },
        {
          "dep": "case",
          "governor": 8,
          "governorGloss": "Kobani",
          "dependent": 7,
          "dependentGloss": "in"
        },
        {
          "dep": "nmod",
          "governor": 11,
          "governorGloss": "verwendet",
          "dependent": 8,
          "dependentGloss": "Kobani"
        },
        {
          "dep": "amod",
          "governor": 10,
          "governorGloss": "Waffen",
          "dependent": 9,
          "dependentGloss": "chemische"
        },
        {
          "dep": "nsubjpass",
          "governor": 11,
          "governorGloss": "verwendet",
          "dependent": 10,
          "dependentGloss": "Waffen"
        },
        {
          "dep": "ccomp",
          "governor": 4,
          "governorGloss": "sagt",
          "dependent": 11,
          "dependentGloss": "verwendet"
        },
        {
          "dep": "auxpass",
          "governor": 11,
          "governorGloss": "verwendet",
          "dependent": 12,
          "dependentGloss": "werden"
        }
      ],
      "enhancedPlusPlusDependencies": [
        {
          "dep": "ROOT",
          "governor": 0,
          "governorGloss": "ROOT",
          "dependent": 4,
          "dependentGloss": "sagt"
        },
        {
          "dep": "det",
          "governor": 3,
          "governorGloss": "US-Soldat",
          "dependent": 1,
          "dependentGloss": "Der"
        },
        {
          "dep": "amod",
          "governor": 3,
          "governorGloss": "US-Soldat",
          "dependent": 2,
          "dependentGloss": "ehemalige"
        },
        {
          "dep": "nsubj",
          "governor": 4,
          "governorGloss": "sagt",
          "dependent": 3,
          "dependentGloss": "US-Soldat"
        },
        {
          "dep": "punct",
          "governor": 4,
          "governorGloss": "sagt",
          "dependent": 5,
          "dependentGloss": ","
        },
        {
          "dep": "mark",
          "governor": 11,
          "governorGloss": "verwendet",
          "dependent": 6,
          "dependentGloss": "dass"
        },
        {
          "dep": "case",
          "governor": 8,
          "governorGloss": "Kobani",
          "dependent": 7,
          "dependentGloss": "in"
        },
        {
          "dep": "nmod",
          "governor": 11,
          "governorGloss": "verwendet",
          "dependent": 8,
          "dependentGloss": "Kobani"
        },
        {
          "dep": "amod",
          "governor": 10,
          "governorGloss": "Waffen",
          "dependent": 9,
          "dependentGloss": "chemische"
        },
        {
          "dep": "nsubjpass",
          "governor": 11,
          "governorGloss": "verwendet",
          "dependent": 10,
          "dependentGloss": "Waffen"
        },
        {
          "dep": "ccomp",
          "governor": 4,
          "governorGloss": "sagt",
          "dependent": 11,
          "dependentGloss": "verwendet"
        },
        {
          "dep": "auxpass",
          "governor": 11,
          "governorGloss": "verwendet",
          "dependent": 12,
          "dependentGloss": "werden"
        }
      ],
      "tokens": [
        {
          "index": 1,
          "word": "Der",
          "originalText": "Der",
          "characterOffsetBegin": 0,
          "characterOffsetEnd": 3,
          "pos": "ART",
          "before": "",
          "after": " "
        },
        {
          "index": 2,
          "word": "ehemalige",
          "originalText": "ehemalige",
          "characterOffsetBegin": 4,
          "characterOffsetEnd": 13,
          "pos": "ADJA",
          "before": " ",
          "after": " "
        },
        {
          "index": 3,
          "word": "US-Soldat",
          "originalText": "US-Soldat",
          "characterOffsetBegin": 14,
          "characterOffsetEnd": 23,
          "pos": "NN",
          "before": " ",
          "after": " "
        },
        {
          "index": 4,
          "word": "sagt",
          "originalText": "sagt",
          "characterOffsetBegin": 24,
          "characterOffsetEnd": 28,
          "pos": "VVFIN",
          "before": " ",
          "after": ""
        },
        {
          "index": 5,
          "word": ",",
          "originalText": ",",
          "characterOffsetBegin": 28,
          "characterOffsetEnd": 29,
          "pos": "$,",
          "before": "",
          "after": " "
        },
        {
          "index": 6,
          "word": "dass",
          "originalText": "dass",
          "characterOffsetBegin": 30,
          "characterOffsetEnd": 34,
          "pos": "KOUS",
          "before": " ",
          "after": " "
        },
        {
          "index": 7,
          "word": "in",
          "originalText": "in",
          "characterOffsetBegin": 35,
          "characterOffsetEnd": 37,
          "pos": "APPR",
          "before": " ",
          "after": " "
        },
        {
          "index": 8,
          "word": "Kobani",
          "originalText": "Kobani",
          "characterOffsetBegin": 38,
          "characterOffsetEnd": 44,
          "pos": "NE",
          "before": " ",
          "after": " "
        },
        {
          "index": 9,
          "word": "chemische",
          "originalText": "chemische",
          "characterOffsetBegin": 45,
          "characterOffsetEnd": 54,
          "pos": "ADJA",
          "before": " ",
          "after": " "
        },
        {
          "index": 10,
          "word": "Waffen",
          "originalText": "Waffen",
          "characterOffsetBegin": 55,
          "characterOffsetEnd": 61,
          "pos": "NN",
          "before": " ",
          "after": " "
        },
        {
          "index": 11,
          "word": "verwendet",
          "originalText": "verwendet",
          "characterOffsetBegin": 62,
          "characterOffsetEnd": 71,
          "pos": "VVPP",
          "before": " ",
          "after": " "
        },
        {
          "index": 12,
          "word": "werden",
          "originalText": "werden",
          "characterOffsetBegin": 72,
          "characterOffsetEnd": 78,
          "pos": "VAINF",
          "before": " ",
          "after": ""
        }
      ]
    }
  ]
}