{
  "sentences": [
    {
      "index": 0,
      "basicDependencies": [
        {
          "dep": "ROOT",
          "governor": 0,
          "governorGloss": "ROOT",
          "dependent": 2,
          "dependentGloss": "Klempner"
        },
        {
          "dep": "name",
          "governor": 2,
          "governorGloss": "Klempner",
          "dependent": 1,
          "dependentGloss": "Texas"
        },
        {
          "dep": "appos",
          "governor": 2,
          "governorGloss": "Klempner",
          "dependent": 3,
          "dependentGloss": "hat"
        },
        {
          "dep": "dobj",
          "governor": 3,
          "governorGloss": "hat",
          "dependent": 4,
          "dependentGloss": "`"
        },
        {
          "dep": "neg",
          "governor": 6,
          "governorGloss": "Idee",
          "dependent": 5,
          "dependentGloss": "keine"
        },
        {
          "dep": "dobj",
          "governor": 4,
          "governorGloss": "`",
          "dependent": 6,
          "dependentGloss": "Idee"
        },
        {
          "dep": "punct",
          "governor": 6,
          "governorGloss": "Idee",
          "dependent": 7,
          "dependentGloss": "'"
        },
        {
          "dep": "punct",
          "governor": 6,
          "governorGloss": "Idee",
          "dependent": 8,
          "dependentGloss": ","
        },
        {
          "dep": "case",
          "governor": 10,
          "governorGloss": "Company",
          "dependent": 9,
          "dependentGloss": "wie"
        },
        {
          "dep": "nmod",
          "governor": 14,
          "governorGloss": "endete",
          "dependent": 10,
          "dependentGloss": "Company"
        },
        {
          "dep": "appos",
          "governor": 10,
          "governorGloss": "Company",
          "dependent": 11,
          "dependentGloss": "Truck"
        },
        {
          "dep": "case",
          "governor": 13,
          "governorGloss": "ISIS",
          "dependent": 12,
          "dependentGloss": "mit"
        },
        {
          "dep": "nmod",
          "governor": 14,
          "governorGloss": "endete",
          "dependent": 13,
          "dependentGloss": "ISIS"
        },
        {
          "dep": "acl",
          "governor": 6,
          "governorGloss": "Idee",
          "dependent": 14,
          "dependentGloss": "endete"
        }
      ],
      "enhancedDependencies": [
        {
          "dep": "ROOT",
          "governor": 0,
          "governorGloss": "ROOT",
          "dependent": 2,
          "dependentGloss": "Klempner"
        },
        {
          "dep": "name",
          "governor": 2,
          "governorGloss": "Klempner",
          "dependent": 1,
          "dependentGloss": "Texas"
        },
        {
          "dep": "appos",
          "governor": 2,
          "governorGloss": "Klempner",
          "dependent": 3,
          "dependentGloss": "hat"
        },
        {
          "dep": "dobj",
          "governor": 3,
          "governorGloss": "hat",
          "dependent": 4,
          "dependentGloss": "`"
        },
        {
          "dep": "neg",
          "governor": 6,
          "governorGloss": "Idee",
          "dependent": 5,
          "dependentGloss": "keine"
        },
        {
          "dep": "dobj",
          "governor": 4,
          "governorGloss": "`",
          "dependent": 6,
          "dependentGloss": "Idee"
        },
        {
          "dep": "punct",
          "governor": 6,
          "governorGloss": "Idee",
          "dependent": 7,
          "dependentGloss": "'"
        },
        {
          "dep": "punct",
          "governor": 6,
          "governorGloss": "Idee",
          "dependent": 8,
          "dependentGloss": ","
        },
        {
          "dep": "case",
          "governor": 10,
          "governorGloss": "Company",
          "dependent": 9,
          "dependentGloss": "wie"
        },
        {
          "dep": "nmod",
          "governor": 14,
          "governorGloss": "endete",
          "dependent": 10,
          "dependentGloss": "Company"
        },
        {
          "dep": "appos",
          "governor": 10,
          "governorGloss": "Company",
          "dependent": 11,
          "dependentGloss": "Truck"
        },
        {
          "dep": "case",
          "governor": 13,
          "governorGloss": "ISIS",
          "dependent": 12,
          "dependentGloss": "mit"
        },
        {
          "dep": "nmod",
          "governor": 14,
          "governorGloss": "endete",
          "dependent": 13,
          "dependentGloss": "ISIS"
        },
        {
          "dep": "acl",
          "governor": 6,
          "governorGloss": "Idee",
          "dependent": 14,
          "dependentGloss": "endete"
        }
      ],
      "enhancedPlusPlusDependencies": [
        {
          "dep": "ROOT",
          "governor": 0,
          "governorGloss": "ROOT",
          "dependent": 2,
          "dependentGloss": "Klempner"
        },
        {
          "dep": "name",
          "governor": 2,
          "governorGloss": "Klempner",
          "dependent": 1,
          "dependentGloss": "Texas"
        },
        {
          "dep": "appos",
          "governor": 2,
          "governorGloss": "Klempner",
          "dependent": 3,
          "dependentGloss": "hat"
        },
        {
          "dep": "dobj",
          "governor": 3,
          "governorGloss": "hat",
          "dependent": 4,
          "dependentGloss": "`"
        },
        {
          "dep": "neg",
          "governor": 6,
          "governorGloss": "Idee",
          "dependent": 5,
          "dependentGloss": "keine"
        },
        {
          "dep": "dobj",
          "governor": 4,
          "governorGloss": "`",
          "dependent": 6,
          "dependentGloss": "Idee"
        },
        {
          "dep": "punct",
          "governor": 6,
          "governorGloss": "Idee",
          "dependent": 7,
          "dependentGloss": "'"
        },
        {
          "dep": "punct",
          "governor": 6,
          "governorGloss": "Idee",
          "dependent": 8,
          "dependentGloss": ","
        },
        {
          "dep": "case",
          "governor": 10,
          "governorGloss": "Company",
          "dependent": 9,
          "dependentGloss": "wie"
        },
        {
          "dep": "nmod",
          "governor": 14,
          "governorGloss": "endete",
          "dependent": 10,
          "dependentGloss": "Company"
        },
        {
          "dep": "appos",
          "governor": 10,
          "governorGloss": "Company",
          "dependent": 11,
          "dependentGloss": "Truck"
        },
        {
          "dep": "case",
          "governor": 13,
          "governorGloss": "ISIS",
          "dependent": 12,
          "dependentGloss": "mit"
        },
        {
          "dep": "nmod",
          "governor": 14,
          "governorGloss": "endete",
          "dependent": 13,
          "dependentGloss": "ISIS"
        },
        {
          "dep": "acl",
          "governor": 6,
          "governorGloss": "Idee",
          "dependent": 14,
          "dependentGloss": "endete"
        }
      ],
      "tokens": [
        {
          "index": 1,
          "word": "Texas",
          "originalText": "Texas",
          "characterOffsetBegin": 0,
          "characterOffsetEnd": 5,
          "pos": "NE",
          "before": "",
          "after": " "
        },
        {
          "index": 2,
          "word": "Klempner",
          "originalText": "Klempner",
          "characterOffsetBegin": 6,
          "characterOffsetEnd": 14,
          "pos": "NN",
          "before": " ",
          "after": " "
        },
        {
          "index": 3,
          "word": "hat",
          "originalText": "hat",
          "characterOffsetBegin": 15,
          "characterOffsetEnd": 18,
          "pos": "VAFIN",
          "before": " ",
          "after": " "
        },
        {
          "index": 4,
          "word": "`",
          "originalText": "'",
          "characterOffsetBegin": 19,
          "characterOffsetEnd": 20,
          "pos": "CARD",
          "before": " ",
          "after": ""
        },
        {
          "index": 5,
          "word": "keine",
          "originalText": "keine",
          "characterOffsetBegin": 20,
          "characterOffsetEnd": 25,
          "pos": "PIAT",
          "before": "",
          "after": " "
        },
        {
          "index": 6,
          "word": "Idee",
          "originalText": "Idee",
          "characterOffsetBegin": 26,
          "characterOffsetEnd": 30,
          "pos": "NN",
          "before": " ",
          "after": ""
        },
        {
          "index": 7,
          "word": "'",
          "originalText": "'",
          "characterOffsetBegin": 30,
          "characterOffsetEnd": 31,
          "pos": "$[",
          "before": "",
          "after": ""
        },
        {
          "index": 8,
          "word": ",",
          "originalText": ",",
          "characterOffsetBegin": 31,
          "characterOffsetEnd": 32,
          "pos": "$,",
          "before": "",
          "after": " "
        },
        {
          "index": 9,
          "word": "wie",
          "originalText": "wie",
          "characterOffsetBegin": 33,
          "characterOffsetEnd": 36,
          "pos": "PWAV",
          "before": " ",
          "after": " "
        },
        {
          "index": 10,
          "word": "Company",
          "originalText": "Company",
          "characterOffsetBegin": 37,
          "characterOffsetEnd": 44,
          "pos": "NE",
          "before": " ",
          "after": " "
        },
        {
          "index": 11,
          "word": "Truck",
          "originalText": "Truck",
          "characterOffsetBegin": 45,
          "characterOffsetEnd": 50,
          "pos": "NE",
          "before": " ",
          "after": " "
        },
        {
          "index": 12,
          "word": "mit",
          "originalText": "mit",
          "characterOffsetBegin": 51,
          "characterOffsetEnd": 54,
          "pos": "APPR",
          "before": " ",
          "after": " "
        },
        {
          "index": 13,
          "word": "ISIS",
          "originalText": "ISIS",
          "characterOffsetBegin": 55,
          "characterOffsetEnd": 59,
          "pos": "NE",
          "before": " ",
          "after": " "
        },
        {
          "index": 14,
          "word": "endete",
          "originalText": "endete",
          "characterOffsetBegin": 60,
          "characterOffsetEnd": 66,
          "pos": "VVFIN",
          "before": " ",
          "after": ""
        }
      ]
    }
  ]
}