{
  "sentences": [
    {
      "index": 0,
      "basicDependencies": [
        {
          "dep": "ROOT",
          "governor": 0,
          "governorGloss": "ROOT",
          "dependent": 5,
          "dependentGloss": "zeigt"
        },
        {
          "dep": "det",
          "governor": 2,
          "governorGloss": "Baby",
          "dependent": 1,
          "dependentGloss": "Das"
        },
        {
          "dep": "nsubj",
          "governor": 5,
          "governorGloss": "zeigt",
          "dependent": 2,
          "dependentGloss": "Baby"
        },
        {
          "dep": "case",
          "governor": 4,
          "governorGloss": "Teletubbies",
          "dependent": 3,
          "dependentGloss": "von"
        },
        {
          "dep": "nmod",
          "governor": 2,
          "governorGloss": "Baby",
          "dependent": 4,
          "dependentGloss": "Teletubbies"
        },
        {
          "dep": "dobj",
          "governor": 5,
          "governorGloss": "zeigt",
          "dependent": 6,
          "dependentGloss": "sich"
        }
      ],
      "enhancedDependencies": [
        {
          "dep": "ROOT",
          "governor": 0,
          "governorGloss": "ROOT",
          "dependent": 5,
          "dependentGloss": "zeigt"
        },
        {
          "dep": "det",
          "governor": 2,
          "governorGloss": "Baby",
          "dependent": 1,
          "dependentGloss": "Das"
        },
        {
          "dep": "nsubj",
          "governor": 5,
          "governorGloss": "zeigt",
          "dependent": 2,
          "dependentGloss": "Baby"
        },
        {
          "dep": "case",
          "governor": 4,
          "governorGloss": "Teletubbies",
          "dependent": 3,
          "dependentGloss": "von"
        },
        {
          "dep": "nmod",
          "governor": 2,
          "governorGloss": "Baby",
          "dependent": 4,
          "dependentGloss": "Teletubbies"
        },
        {
          "dep": "dobj",
          "governor": 5,
          "governorGloss": "zeigt",
          "dependent": 6,
          "dependentGloss": "sich"
        }
      ],
      "enhancedPlusPlusDependencies": [
        {
          "dep": "ROOT",
          "governor": 0,
          "governorGloss": "ROOT",
          "dependent": 5,
          "dependentGloss": "zeigt"
        },
        {
          "dep": "det",
          "governor": 2,
          "governorGloss": "Baby",
          "dependent": 1,
          "dependentGloss": "Das"
        },
        {
          "dep": "nsubj",
          "governor": 5,
          "governorGloss": "zeigt",
          "dependent": 2,
          "dependentGloss": "Baby"
        },
        {
          "dep": "case",
          "governor": 4,
          "governorGloss": "Teletubbies",
          "dependent": 3,
          "dependentGloss": "von"
        },
        {
          "dep": "nmod",
          "governor": 2,
          "governorGloss": "Baby",
          "dependent": 4,
          "dependentGloss": "Teletubbies"
        },
        {
          "dep": "dobj",
          "governor": 5,
          "governorGloss": "zeigt",
          "dependent": 6,
          "dependentGloss": "sich"
        }
      ],
      "tokens": [
        {
          "index": 1,
          "word": "Das",
          "originalText": "Das",
          "characterOffsetBegin": 0,
          "characterOffsetEnd": 3,
          "pos": "ART",
          "before": "",
          "after": " "
        },
        {
          "index": 2,
          "word": "Baby",
          "originalText": "Baby",
          "characterOffsetBegin": 4,
          "characterOffsetEnd": 8,
          "pos": "NN",
          "before": " ",
          "after": " "
        },
        {
          "index": 3,
          "word": "von",
          "originalText": "von",
          "characterOffsetBegin": 9,
          "characterOffsetEnd": 12,
          "pos": "APPR",
          "before": " ",
          "after": " "
        },
        {
          "index": 4,
          "word": "Teletubbies",
          "originalText": "Teletubbies",
          "characterOffsetBegin": 13,
          "characterOffsetEnd": 24,
          "pos": "NN",
          "before": " ",
          "after": " "
        },
        {
          "index": 5,
          "word": "zeigt",
          "originalText": "zeigt",
          "characterOffsetBegin": 25,
          "characterOffsetEnd": 30,
          "pos": "VVFIN",
          "before": " ",
          "after": " "
        },
        {
          "index": 6,
          "word": "sich",
          "originalText": "sich",
          "characterOffsetBegin": 31,
          "characterOffsetEnd": 35,
          "pos": "PRF",
          "before": " ",
          "after": ""
        }
      ]
    }
  ]
}