{
  "sentences": [
    {
      "index": 0,
      "basicDependencies": [
        {
          "dep": "ROOT",
          "governor": 0,
          "governorGloss": "ROOT",
          "dependent": 2,
          "dependentGloss": "geht"
        },
        {
          "dep": "nsubj",
          "governor": 2,
          "governorGloss": "geht",
          "dependent": 1,
          "dependentGloss": "Es"
        },
        {
          "dep": "advmod",
          "governor": 2,
          "governorGloss": "geht",
          "dependent": 3,
          "dependentGloss": "darum"
        },
        {
          "dep": "punct",
          "governor": 2,
          "governorGloss": "geht",
          "dependent": 4,
          "dependentGloss": ","
        },
        {
          "dep": "xcomp",
          "governor": 2,
          "governorGloss": "geht",
          "dependent": 5,
          "dependentGloss": "härter"
        },
        {
          "dep": "aux",
          "governor": 7,
          "governorGloss": "werden",
          "dependent": 6,
          "dependentGloss": "zu"
        },
        {
          "dep": "cop",
          "governor": 5,
          "governorGloss": "härter",
          "dependent": 7,
          "dependentGloss": "werden"
        },
        {
          "dep": "punct",
          "governor": 2,
          "governorGloss": "geht",
          "dependent": 8,
          "dependentGloss": ","
        },
        {
          "dep": "mark",
          "governor": 16,
          "governorGloss": "verhaftet",
          "dependent": 9,
          "dependentGloss": "um"
        },
        {
          "dep": "case",
          "governor": 11,
          "governorGloss": "Pot-Besitz",
          "dependent": 10,
          "dependentGloss": "für"
        },
        {
          "dep": "nmod",
          "governor": 16,
          "governorGloss": "verhaftet",
          "dependent": 11,
          "dependentGloss": "Pot-Besitz"
        },
        {
          "dep": "case",
          "governor": 15,
          "governorGloss": "City",
          "dependent": 12,
          "dependentGloss": "in"
        },
        {
          "dep": "name",
          "governor": 14,
          "governorGloss": "York",
          "dependent": 13,
          "dependentGloss": "New"
        },
        {
          "dep": "name",
          "governor": 15,
          "governorGloss": "City",
          "dependent": 14,
          "dependentGloss": "York"
        },
        {
          "dep": "nmod",
          "governor": 16,
          "governorGloss": "verhaftet",
          "dependent": 15,
          "dependentGloss": "City"
        },
        {
          "dep": "advcl",
          "governor": 2,
          "governorGloss": "geht",
          "dependent": 16,
          "dependentGloss": "verhaftet"
        },
        {
          "dep": "aux",
          "governor": 16,
          "governorGloss": "verhaftet",
          "dependent": 17,
          "dependentGloss": "zu"
        },
        {
          "dep": "punct",
          "governor": 2,
          "governorGloss": "geht",
          "dependent": 18,
          "dependentGloss": "werden"
        }
      ],
      "enhancedDependencies": [
        {
          "dep": "ROOT",
          "governor": 0,
          "governorGloss": "ROOT",
          "dependent": 2,
          "dependentGloss": "geht"
        },
        {
          "dep": "nsubj",
          "governor": 2,
          "governorGloss": "geht",
          "dependent": 1,
          "dependentGloss": "Es"
        },
        {
          "dep": "advmod",
          "governor": 2,
          "governorGloss": "geht",
          "dependent": 3,
          "dependentGloss": "darum"
        },
        {
          "dep": "punct",
          "governor": 2,
          "governorGloss": "geht",
          "dependent": 4,
          "dependentGloss": ","
        },
        {
          "dep": "xcomp",
          "governor": 2,
          "governorGloss": "geht",
          "dependent": 5,
          "dependentGloss": "härter"
        },
        {
          "dep": "aux",
          "governor": 7,
          "governorGloss": "werden",
          "dependent": 6,
          "dependentGloss": "zu"
        },
        {
          "dep": "cop",
          "governor": 5,
          "governorGloss": "härter",
          "dependent": 7,
          "dependentGloss": "werden"
        },
        {
          "dep": "punct",
          "governor": 2,
          "governorGloss": "geht",
          "dependent": 8,
          "dependentGloss": ","
        },
        {
          "dep": "mark",
          "governor": 16,
          "governorGloss": "verhaftet",
          "dependent": 9,
          "dependentGloss": "um"
        },
        {
          "dep": "case",
          "governor": 11,
          "governorGloss": "Pot-Besitz",
          "dependent": 10,
          "dependentGloss": "für"
        },
        {
          "dep": "nmod",
          "governor": 16,
          "governorGloss": "verhaftet",
          "dependent": 11,
          "dependentGloss": "Pot-Besitz"
        },
        {
          "dep": "case",
          "governor": 15,
          "governorGloss": "City",
          "dependent": 12,
          "dependentGloss": "in"
        },
        {
          "dep": "name",
          "governor": 14,
          "governorGloss": "York",
          "dependent": 13,
          "dependentGloss": "New"
        },
        {
          "dep": "name",
          "governor": 15,
          "governorGloss": "City",
          "dependent": 14,
          "dependentGloss": "York"
        },
        {
          "dep": "nmod",
          "governor": 16,
          "governorGloss": "verhaftet",
          "dependent": 15,
          "dependentGloss": "City"
        },
        {
          "dep": "advcl",
          "governor": 2,
          "governorGloss": "geht",
          "dependent": 16,
          "dependentGloss": "verhaftet"
        },
        {
          "dep": "aux",
          "governor": 16,
          "governorGloss": "verhaftet",
          "dependent": 17,
          "dependentGloss": "zu"
        },
        {
          "dep": "punct",
          "governor": 2,
          "governorGloss": "geht",
          "dependent": 18,
          "dependentGloss": "werden"
        }
      ],
      "enhancedPlusPlusDependencies": [
        {
          "dep": "ROOT",
          "governor": 0,
          "governorGloss": "ROOT",
          "dependent": 2,
          "dependentGloss": "geht"
        },
        {
          "dep": "nsubj",
          "governor": 2,
          "governorGloss": "geht",
          "dependent": 1,
          "dependentGloss": "Es"
        },
        {
          "dep": "advmod",
          "governor": 2,
          "governorGloss": "geht",
          "dependent": 3,
          "dependentGloss": "darum"
        },
        {
          "dep": "punct",
          "governor": 2,
          "governorGloss": "geht",
          "dependent": 4,
          "dependentGloss": ","
        },
        {
          "dep": "xcomp",
          "governor": 2,
          "governorGloss": "geht",
          "dependent": 5,
          "dependentGloss": "härter"
        },
        {
          "dep": "aux",
          "governor": 7,
          "governorGloss": "werden",
          "dependent": 6,
          "dependentGloss": "zu"
        },
        {
          "dep": "cop",
          "governor": 5,
          "governorGloss": "härter",
          "dependent": 7,
          "dependentGloss": "werden"
        },
        {
          "dep": "punct",
          "governor": 2,
          "governorGloss": "geht",
          "dependent": 8,
          "dependentGloss": ","
        },
        {
          "dep": "mark",
          "governor": 16,
          "governorGloss": "verhaftet",
          "dependent": 9,
          "dependentGloss": "um"
        },
        {
          "dep": "case",
          "governor": 11,
          "governorGloss": "Pot-Besitz",
          "dependent": 10,
          "dependentGloss": "für"
        },
        {
          "dep": "nmod",
          "governor": 16,
          "governorGloss": "verhaftet",
          "dependent": 11,
          "dependentGloss": "Pot-Besitz"
        },
        {
          "dep": "case",
          "governor": 15,
          "governorGloss": "City",
          "dependent": 12,
          "dependentGloss": "in"
        },
        {
          "dep": "name",
          "governor": 14,
          "governorGloss": "York",
          "dependent": 13,
          "dependentGloss": "New"
        },
        {
          "dep": "name",
          "governor": 15,
          "governorGloss": "City",
          "dependent": 14,
          "dependentGloss": "York"
        },
        {
          "dep": "nmod",
          "governor": 16,
          "governorGloss": "verhaftet",
          "dependent": 15,
          "dependentGloss": "City"
        },
        {
          "dep": "advcl",
          "governor": 2,
          "governorGloss": "geht",
          "dependent": 16,
          "dependentGloss": "verhaftet"
        },
        {
          "dep": "aux",
          "governor": 16,
          "governorGloss": "verhaftet",
          "dependent": 17,
          "dependentGloss": "zu"
        },
        {
          "dep": "punct",
          "governor": 2,
          "governorGloss": "geht",
          "dependent": 18,
          "dependentGloss": "werden"
        }
      ],
      "tokens": [
        {
          "index": 1,
          "word": "Es",
          "originalText": "Es",
          "characterOffsetBegin": 0,
          "characterOffsetEnd": 2,
          "pos": "PPER",
          "before": "",
          "after": " "
        },
        {
          "index": 2,
          "word": "geht",
          "originalText": "geht",
          "characterOffsetBegin": 3,
          "characterOffsetEnd": 7,
          "pos": "VVFIN",
          "before": " ",
          "after": " "
        },
        {
          "index": 3,
          "word": "darum",
          "originalText": "darum",
          "characterOffsetBegin": 8,
          "characterOffsetEnd": 13,
          "pos": "PROAV",
          "before": " ",
          "after": ""
        },
        {
          "index": 4,
          "word": ",",
          "originalText": ",",
          "characterOffsetBegin": 13,
          "characterOffsetEnd": 14,
          "pos": "$,",
          "before": "",
          "after": " "
        },
        {
          "index": 5,
          "word": "härter",
          "originalText": "härter",
          "characterOffsetBegin": 15,
          "characterOffsetEnd": 21,
          "pos": "ADJD",
          "before": " ",
          "after": " "
        },
        {
          "index": 6,
          "word": "zu",
          "originalText": "zu",
          "characterOffsetBegin": 22,
          "characterOffsetEnd": 24,
          "pos": "PTKZU",
          "before": " ",
          "after": " "
        },
        {
          "index": 7,
          "word": "werden",
          "originalText": "werden",
          "characterOffsetBegin": 25,
          "characterOffsetEnd": 31,
          "pos": "VAINF",
          "before": " ",
          "after": ""
        },
        {
          "index": 8,
          "word": ",",
          "originalText": ",",
          "characterOffsetBegin": 31,
          "characterOffsetEnd": 32,
          "pos": "$,",
          "before": "",
          "after": " "
        },
        {
          "index": 9,
          "word": "um",
          "originalText": "um",
          "characterOffsetBegin": 33,
          "characterOffsetEnd": 35,
          "pos": "KOUI",
          "before": " ",
          "after": " "
        },
        {
          "index": 10,
          "word": "für",
          "originalText": "für",
          "characterOffsetBegin": 36,
          "characterOffsetEnd": 39,
          "pos": "APPR",
          "before": " ",
          "after": " "
        },
        {
          "index": 11,
          "word": "Pot-Besitz",
          "originalText": "Pot-Besitz",
          "characterOffsetBegin": 40,
          "characterOffsetEnd": 50,
          "pos": "NN",
          "before": " ",
          "after": " "
        },
        {
          "index": 12,
          "word": "in",
          "originalText": "in",
          "characterOffsetBegin": 51,
          "characterOffsetEnd": 53,
          "pos": "APPR",
          "before": " ",
          "after": " "
        },
        {
          "index": 13,
          "word": "New",
          "originalText": "New",
          "characterOffsetBegin": 54,
          "characterOffsetEnd": 57,
          "pos": "NE",
          "before": " ",
          "after": " "
        },
        {
          "index": 14,
          "word": "York",
          "originalText": "York",
          "characterOffsetBegin": 58,
          "characterOffsetEnd": 62,
          "pos": "NE",
          "before": " ",
          "after": " "
        },
        {
          "index": 15,
          "word": "City",
          "originalText": "City",
          "characterOffsetBegin": 63,
          "characterOffsetEnd": 67,
          "pos": "NE",
          "before": " ",
          "after": " "
        },
        {
          "index": 16,
          "word": "verhaftet",
          "originalText": "verhaftet",
          "characterOffsetBegin": 68,
          "characterOffsetEnd": 77,
          "pos": "VVPP",
          "before": " ",
          "after": " "
        },
        {
          "index": 17,
          "word": "zu",
          "originalText": "zu",
          "characterOffsetBegin": 78,
          "characterOffsetEnd": 80,
          "pos": "PTKZU",
          "before": " ",
          "after": " "
        },
        {
          "index": 18,
          "word": "werden",
          "originalText": "werden",
          "characterOffsetBegin": 81,
          "characterOffsetEnd": 87,
          "pos": "VAINF",
          "before": " ",
          "after": ""
        }
      ]
    }
  ]
}