{
  "sentences": [
    {
      "index": 0,
      "basicDependencies": [
        {
          "dep": "ROOT",
          "governor": 0,
          "governorGloss": "ROOT",
          "dependent": 10,
          "dependentGloss": "kosten"
        },
        {
          "dep": "advmod",
          "governor": 10,
          "governorGloss": "kosten",
          "dependent": 1,
          "dependentGloss": "Warum"
        },
        {
          "dep": "det",
          "governor": 6,
          "governorGloss": "Edition",
          "dependent": 2,
          "dependentGloss": "die"
        },
        {
          "dep": "name",
          "governor": 6,
          "governorGloss": "Edition",
          "dependent": 3,
          "dependentGloss": "Gold"
        },
        {
          "dep": "name",
          "governor": 6,
          "governorGloss": "Edition",
          "dependent": 4,
          "dependentGloss": "Apple"
        },
        {
          "dep": "name",
          "governor": 6,
          "governorGloss": "Edition",
          "dependent": 5,
          "dependentGloss": "Watch"
        },
        {
          "dep": "nsubj",
          "governor": 10,
          "governorGloss": "kosten",
          "dependent": 6,
          "dependentGloss": "Edition"
        },
        {
          "dep": "aux",
          "governor": 10,
          "governorGloss": "kosten",
          "dependent": 7,
          "dependentGloss": "muss"
        },
        {
          "dep": "nmod",
          "governor": 10,
          "governorGloss": "kosten",
          "dependent": 8,
          "dependentGloss": "$"
        },
        {
          "dep": "dobj",
          "governor": 10,
          "governorGloss": "kosten",
          "dependent": 9,
          "dependentGloss": "10.000"
        }
      ],
      "enhancedDependencies": [
        {
          "dep": "ROOT",
          "governor": 0,
          "governorGloss": "ROOT",
          "dependent": 10,
          "dependentGloss": "kosten"
        },
        {
          "dep": "advmod",
          "governor": 10,
          "governorGloss": "kosten",
          "dependent": 1,
          "dependentGloss": "Warum"
        },
        {
          "dep": "det",
          "governor": 6,
          "governorGloss": "Edition",
          "dependent": 2,
          "dependentGloss": "die"
        },
        {
          "dep": "name",
          "governor": 6,
          "governorGloss": "Edition",
          "dependent": 3,
          "dependentGloss": "Gold"
        },
        {
          "dep": "name",
          "governor": 6,
          "governorGloss": "Edition",
          "dependent": 4,
          "dependentGloss": "Apple"
        },
        {
          "dep": "name",
          "governor": 6,
          "governorGloss": "Edition",
          "dependent": 5,
          "dependentGloss": "Watch"
        },
        {
          "dep": "nsubj",
          "governor": 10,
          "governorGloss": "kosten",
          "dependent": 6,
          "dependentGloss": "Edition"
        },
        {
          "dep": "aux",
          "governor": 10,
          "governorGloss": "kosten",
          "dependent": 7,
          "dependentGloss": "muss"
        },
        {
          "dep": "nmod",
          "governor": 10,
          "governorGloss": "kosten",
          "dependent": 8,
          "dependentGloss": "$"
        },
        {
          "dep": "dobj",
          "governor": 10,
          "governorGloss": "kosten",
          "dependent": 9,
          "dependentGloss": "10.000"
        }
      ],
      "enhancedPlusPlusDependencies": [
        {
          "dep": "ROOT",
          "governor": 0,
          "governorGloss": "ROOT",
          "dependent": 10,
          "dependentGloss": "kosten"
        },
        {
          "dep": "advmod",
          "governor": 10,
          "governorGloss": "kosten",
          "dependent": 1,
          "dependentGloss": "Warum"
        },
        {
          "dep": "det",
          "governor": 6,
          "governorGloss": "Edition",
          "dependent": 2,
          "dependentGloss": "die"
        },
        {
          "dep": "name",
          "governor": 6,
          "governorGloss": "Edition",
          "dependent": 3,
          "dependentGloss": "Gold"
        },
        {
          "dep": "name",
          "governor": 6,
          "governorGloss": "Edition",
          "dependent": 4,
          "dependentGloss": "Apple"
        },
        {
          "dep": "name",
          "governor": 6,
          "governorGloss": "Edition",
          "dependent": 5,
          "dependentGloss": "Watch"
        },
        {
          "dep": "nsubj",
          "governor": 10,
          "governorGloss": "kosten",
          "dependent": 6,
          "dependentGloss": "Edition"
        },
        {
          "dep": "aux",
          "governor": 10,
          "governorGloss": "kosten",
          "dependent": 7,
          "dependentGloss": "muss"
        },
        {
          "dep": "nmod",
          "governor": 10,
          "governorGloss": "kosten",
          "dependent": 8,
          "dependentGloss": "$"
        },
        {
          "dep": "dobj",
          "governor": 10,
          "governorGloss": "kosten",
          "dependent": 9,
          "dependentGloss": "10.000"
        }
      ],
      "tokens": [
        {
          "index": 1,
          "word": "Warum",
          "originalText": "Warum",
          "characterOffsetBegin": 0,
          "characterOffsetEnd": 5,
          "pos": "PWAV",
          "before": "",
          "after": " "
        },
        {
          "index": 2,
          "word": "die",
          "originalText": "die",
          "characterOffsetBegin": 6,
          "characterOffsetEnd": 9,
          "pos": "ART",
          "before": " ",
          "after": " "
        },
        {
          "index": 3,
          "word": "Gold",
          "originalText": "Gold",
          "characterOffsetBegin": 10,
          "characterOffsetEnd": 14,
          "pos": "NN",
          "before": " ",
          "after": " "
        },
        {
          "index": 4,
          "word": "Apple",
          "originalText": "Apple",
          "characterOffsetBegin": 15,
          "characterOffsetEnd": 20,
          "pos": "NE",
          "before": " ",
          "after": " "
        },
        {
          "index": 5,
          "word": "Watch",
          "originalText": "Watch",
          "characterOffsetBegin": 21,
          "characterOffsetEnd": 26,
          "pos": "NE",
          "before": " ",
          "after": " "
        },
        {
          "index": 6,
          "word": "Edition",
          "originalText": "Edition",
          "characterOffsetBegin": 27,
          "characterOffsetEnd": 34,
          "pos": "NN",
          "before": " ",
          "after": " "
        },
        {
          "index": 7,
          "word": "muss",
          "originalText": "muss",
          "characterOffsetBegin": 35,
          "characterOffsetEnd": 39,
          "pos": "APPR",
          "before": " ",
          "after": " "
        },
        {
          "index": 8,
          "word": "$",
          "originalText": "$",
          "characterOffsetBegin": 40,
          "characterOffsetEnd": 41,
          "pos": "CARD",
          "before": " ",
          "after": " "
        },
        {
          "index": 9,
          "word": "10.000",
          "originalText": "10.000",
          "characterOffsetBegin": 42,
          "characterOffsetEnd": 48,
          "pos": "CARD",
          "before": " ",
          "after": " "
        },
        {
          "index": 10,
          "word": "kosten",
          "originalText": "kosten",
          "characterOffsetBegin": 49,
          "characterOffsetEnd": 55,
          "pos": "VVINF",
          "before": " ",
          "after": ""
        }
      ]
    }
  ]
}