{
  "sentences": [
    {
      "index": 0,
      "basicDependencies": [
        {
          "dep": "ROOT",
          "governor": 0,
          "governorGloss": "ROOT",
          "dependent": 1,
          "dependentGloss": "Nein"
        },
        {
          "dep": "punct",
          "governor": 1,
          "governorGloss": "Nein",
          "dependent": 2,
          "dependentGloss": ","
        },
        {
          "dep": "amod",
          "governor": 5,
          "governorGloss": "Kondome",
          "dependent": 3,
          "dependentGloss": "Kürbis"
        },
        {
          "dep": "amod",
          "governor": 5,
          "governorGloss": "Kondome",
          "dependent": 4,
          "dependentGloss": "Gewürz"
        },
        {
          "dep": "nsubj",
          "governor": 9,
          "governorGloss": "Sache",
          "dependent": 5,
          "dependentGloss": "Kondome"
        },
        {
          "dep": "cop",
          "governor": 9,
          "governorGloss": "Sache",
          "dependent": 6,
          "dependentGloss": "sind"
        },
        {
          "dep": "neg",
          "governor": 8,
          "governorGloss": "wirkliche",
          "dependent": 7,
          "dependentGloss": "keine"
        },
        {
          "dep": "amod",
          "governor": 9,
          "governorGloss": "Sache",
          "dependent": 8,
          "dependentGloss": "wirkliche"
        },
        {
          "dep": "parataxis",
          "governor": 1,
          "governorGloss": "Nein",
          "dependent": 9,
          "dependentGloss": "Sache"
        }
      ],
      "enhancedDependencies": [
        {
          "dep": "ROOT",
          "governor": 0,
          "governorGloss": "ROOT",
          "dependent": 1,
          "dependentGloss": "Nein"
        },
        {
          "dep": "punct",
          "governor": 1,
          "governorGloss": "Nein",
          "dependent": 2,
          "dependentGloss": ","
        },
        {
          "dep": "amod",
          "governor": 5,
          "governorGloss": "Kondome",
          "dependent": 3,
          "dependentGloss": "Kürbis"
        },
        {
          "dep": "amod",
          "governor": 5,
          "governorGloss": "Kondome",
          "dependent": 4,
          "dependentGloss": "Gewürz"
        },
        {
          "dep": "nsubj",
          "governor": 9,
          "governorGloss": "Sache",
          "dependent": 5,
          "dependentGloss": "Kondome"
        },
        {
          "dep": "cop",
          "governor": 9,
          "governorGloss": "Sache",
          "dependent": 6,
          "dependentGloss": "sind"
        },
        {
          "dep": "neg",
          "governor": 8,
          "governorGloss": "wirkliche",
          "dependent": 7,
          "dependentGloss": "keine"
        },
        {
          "dep": "amod",
          "governor": 9,
          "governorGloss": "Sache",
          "dependent": 8,
          "dependentGloss": "wirkliche"
        },
        {
          "dep": "parataxis",
          "governor": 1,
          "governorGloss": "Nein",
          "dependent": 9,
          "dependentGloss": "Sache"
        }
      ],
      "enhancedPlusPlusDependencies": [
        {
          "dep": "ROOT",
          "governor": 0,
          "governorGloss": "ROOT",
          "dependent": 1,
          "dependentGloss": "Nein"
        },
        {
          "dep": "punct",
          "governor": 1,
          "governorGloss": "Nein",
          "dependent": 2,
          "dependentGloss": ","
        },
        {
          "dep": "amod",
          "governor": 5,
          "governorGloss": "Kondome",
          "dependent": 3,
          "dependentGloss": "Kürbis"
        },
        {
          "dep": "amod",
          "governor": 5,
          "governorGloss": "Kondome",
          "dependent": 4,
          "dependentGloss": "Gewürz"
        },
        {
          "dep": "nsubj",
          "governor": 9,
          "governorGloss": "Sache",
          "dependent": 5,
          "dependentGloss": "Kondome"
        },
        {
          "dep": "cop",
          "governor": 9,
          "governorGloss": "Sache",
          "dependent": 6,
          "dependentGloss": "sind"
        },
        {
          "dep": "neg",
          "governor": 8,
          "governorGloss": "wirkliche",
          "dependent": 7,
          "dependentGloss": "keine"
        },
        {
          "dep": "amod",
          "governor": 9,
          "governorGloss": "Sache",
          "dependent": 8,
          "dependentGloss": "wirkliche"
        },
        {
          "dep": "parataxis",
          "governor": 1,
          "governorGloss": "Nein",
          "dependent": 9,
          "dependentGloss": "Sache"
        }
      ],
      "tokens": [
        {
          "index": 1,
          "word": "Nein",
          "originalText": "Nein",
          "characterOffsetBegin": 0,
          "characterOffsetEnd": 4,
          "pos": "PTKANT",
          "before": "",
          "after": ""
        },
        {
          "index": 2,
          "word": ",",
          "originalText": ",",
          "characterOffsetBegin": 4,
          "characterOffsetEnd": 5,
          "pos": "$,",
          "before": "",
          "after": " "
        },
        {
          "index": 3,
          "word": "Kürbis",
          "originalText": "Kürbis",
          "characterOffsetBegin": 6,
          "characterOffsetEnd": 12,
          "pos": "NE",
          "before": " ",
          "after": " "
        },
        {
          "index": 4,
          "word": "Gewürz",
          "originalText": "Gewürz",
          "characterOffsetBegin": 13,
          "characterOffsetEnd": 19,
          "pos": "NE",
          "before": " ",
          "after": " "
        },
        {
          "index": 5,
          "word": "Kondome",
          "originalText": "Kondome",
          "characterOffsetBegin": 20,
          "characterOffsetEnd": 27,
          "pos": "NN",
          "before": " ",
          "after": " "
        },
        {
          "index": 6,
          "word": "sind",
          "originalText": "sind",
          "characterOffsetBegin": 28,
          "characterOffsetEnd": 32,
          "pos": "VAFIN",
          "before": " ",
          "after": " "
        },
        {
          "index": 7,
          "word": "keine",
          "originalText": "keine",
          "characterOffsetBegin": 33,
          "characterOffsetEnd": 38,
          "pos": "PIAT",
          "before": " ",
          "after": " "
        },
        {
          "index": 8,
          "word": "wirkliche",
          "originalText": "wirkliche",
          "characterOffsetBegin": 39,
          "characterOffsetEnd": 48,
          "pos": "ADJA",
          "before": " ",
          "after": " "
        },
        {
          "index": 9,
          "word": "Sache",
          "originalText": "Sache",
          "characterOffsetBegin": 49,
          "characterOffsetEnd": 54,
          "pos": "NN",
          "before": " ",
          "after": ""
        }
      ]
    }
  ]
}