{
  "sentences": [
    {
      "index": 0,
      "basicDependencies": [
        {
          "dep": "ROOT",
          "governor": 0,
          "governorGloss": "ROOT",
          "dependent": 15,
          "dependentGloss": "-RSB-"
        },
        {
          "dep": "advmod",
          "governor": 15,
          "governorGloss": "-RSB-",
          "dependent": 1,
          "dependentGloss": "Seth"
        },
        {
          "dep": "nsubj",
          "governor": 1,
          "governorGloss": "Seth",
          "dependent": 2,
          "dependentGloss": "Rogen"
        },
        {
          "dep": "case",
          "governor": 4,
          "governorGloss": "Star",
          "dependent": 3,
          "dependentGloss": "zu"
        },
        {
          "dep": "nmod",
          "governor": 2,
          "governorGloss": "Rogen",
          "dependent": 4,
          "dependentGloss": "Star"
        },
        {
          "dep": "case",
          "governor": 7,
          "governorGloss": "Wozniak",
          "dependent": 5,
          "dependentGloss": "als"
        },
        {
          "dep": "name",
          "governor": 7,
          "governorGloss": "Wozniak",
          "dependent": 6,
          "dependentGloss": "Steve"
        },
        {
          "dep": "nmod",
          "governor": 1,
          "governorGloss": "Seth",
          "dependent": 7,
          "dependentGloss": "Wozniak"
        },
        {
          "dep": "case",
          "governor": 9,
          "governorGloss": "Sony",
          "dependent": 8,
          "dependentGloss": "in"
        },
        {
          "dep": "nmod",
          "governor": 15,
          "governorGloss": "-RSB-",
          "dependent": 9,
          "dependentGloss": "Sony"
        },
        {
          "dep": "name",
          "governor": 11,
          "governorGloss": "Jobs",
          "dependent": 10,
          "dependentGloss": "Steve"
        },
        {
          "dep": "nsubj",
          "governor": 15,
          "governorGloss": "-RSB-",
          "dependent": 11,
          "dependentGloss": "Jobs"
        },
        {
          "dep": "amod",
          "governor": 14,
          "governorGloss": "Updated",
          "dependent": 12,
          "dependentGloss": "Biopic"
        },
        {
          "dep": "amod",
          "governor": 14,
          "governorGloss": "Updated",
          "dependent": 13,
          "dependentGloss": "-LSB-"
        },
        {
          "dep": "dobj",
          "governor": 15,
          "governorGloss": "-RSB-",
          "dependent": 14,
          "dependentGloss": "Updated"
        }
      ],
      "enhancedDependencies": [
        {
          "dep": "ROOT",
          "governor": 0,
          "governorGloss": "ROOT",
          "dependent": 15,
          "dependentGloss": "-RSB-"
        },
        {
          "dep": "advmod",
          "governor": 15,
          "governorGloss": "-RSB-",
          "dependent": 1,
          "dependentGloss": "Seth"
        },
        {
          "dep": "nsubj",
          "governor": 1,
          "governorGloss": "Seth",
          "dependent": 2,
          "dependentGloss": "Rogen"
        },
        {
          "dep": "case",
          "governor": 4,
          "governorGloss": "Star",
          "dependent": 3,
          "dependentGloss": "zu"
        },
        {
          "dep": "nmod",
          "governor": 2,
          "governorGloss": "Rogen",
          "dependent": 4,
          "dependentGloss": "Star"
        },
        {
          "dep": "case",
          "governor": 7,
          "governorGloss": "Wozniak",
          "dependent": 5,
          "dependentGloss": "als"
        },
        {
          "dep": "name",
          "governor": 7,
          "governorGloss": "Wozniak",
          "dependent": 6,
          "dependentGloss": "Steve"
        },
        {
          "dep": "nmod",
          "governor": 1,
          "governorGloss": "Seth",
          "dependent": 7,
          "dependentGloss": "Wozniak"
        },
        {
          "dep": "case",
          "governor": 9,
          "governorGloss": "Sony",
          "dependent": 8,
          "dependentGloss": "in"
        },
        {
          "dep": "nmod",
          "governor": 15,
          "governorGloss": "-RSB-",
          "dependent": 9,
          "dependentGloss": "Sony"
        },
        {
          "dep": "name",
          "governor": 11,
          "governorGloss": "Jobs",
          "dependent": 10,
          "dependentGloss": "Steve"
        },
        {
          "dep": "nsubj",
          "governor": 15,
          "governorGloss": "-RSB-",
          "dependent": 11,
          "dependentGloss": "Jobs"
        },
        {
          "dep": "amod",
          "governor": 14,
          "governorGloss": "Updated",
          "dependent": 12,
          "dependentGloss": "Biopic"
        },
        {
          "dep": "amod",
          "governor": 14,
          "governorGloss": "Updated",
          "dependent": 13,
          "dependentGloss": "-LSB-"
        },
        {
          "dep": "dobj",
          "governor": 15,
          "governorGloss": "-RSB-",
          "dependent": 14,
          "dependentGloss": "Updated"
        }
      ],
      "enhancedPlusPlusDependencies": [
        {
          "dep": "ROOT",
          "governor": 0,
          "governorGloss": "ROOT",
          "dependent": 15,
          "dependentGloss": "-RSB-"
        },
        {
          "dep": "advmod",
          "governor": 15,
          "governorGloss": "-RSB-",
          "dependent": 1,
          "dependentGloss": "Seth"
        },
        {
          "dep": "nsubj",
          "governor": 1,
          "governorGloss": "Seth",
          "dependent": 2,
          "dependentGloss": "Rogen"
        },
        {
          "dep": "case",
          "governor": 4,
          "governorGloss": "Star",
          "dependent": 3,
          "dependentGloss": "zu"
        },
        {
          "dep": "nmod",
          "governor": 2,
          "governorGloss": "Rogen",
          "dependent": 4,
          "dependentGloss": "Star"
        },
        {
          "dep": "case",
          "governor": 7,
          "governorGloss": "Wozniak",
          "dependent": 5,
          "dependentGloss": "als"
        },
        {
          "dep": "name",
          "governor": 7,
          "governorGloss": "Wozniak",
          "dependent": 6,
          "dependentGloss": "Steve"
        },
        {
          "dep": "nmod",
          "governor": 1,
          "governorGloss": "Seth",
          "dependent": 7,
          "dependentGloss": "Wozniak"
        },
        {
          "dep": "case",
          "governor": 9,
          "governorGloss": "Sony",
          "dependent": 8,
          "dependentGloss": "in"
        },
        {
          "dep": "nmod",
          "governor": 15,
          "governorGloss": "-RSB-",
          "dependent": 9,
          "dependentGloss": "Sony"
        },
        {
          "dep": "name",
          "governor": 11,
          "governorGloss": "Jobs",
          "dependent": 10,
          "dependentGloss": "Steve"
        },
        {
          "dep": "nsubj",
          "governor": 15,
          "governorGloss": "-RSB-",
          "dependent": 11,
          "dependentGloss": "Jobs"
        },
        {
          "dep": "amod",
          "governor": 14,
          "governorGloss": "Updated",
          "dependent": 12,
          "dependentGloss": "Biopic"
        },
        {
          "dep": "amod",
          "governor": 14,
          "governorGloss": "Updated",
          "dependent": 13,
          "dependentGloss": "-LSB-"
        },
        {
          "dep": "dobj",
          "governor": 15,
          "governorGloss": "-RSB-",
          "dependent": 14,
          "dependentGloss": "Updated"
        }
      ],
      "tokens": [
        {
          "index": 1,
          "word": "Seth",
          "originalText": "Seth",
          "characterOffsetBegin": 0,
          "characterOffsetEnd": 4,
          "pos": "NE",
          "before": "",
          "after": " "
        },
        {
          "index": 2,
          "word": "Rogen",
          "originalText": "Rogen",
          "characterOffsetBegin": 5,
          "characterOffsetEnd": 10,
          "pos": "NN",
          "before": " ",
          "after": " "
        },
        {
          "index": 3,
          "word": "zu",
          "originalText": "zu",
          "characterOffsetBegin": 11,
          "characterOffsetEnd": 13,
          "pos": "PTKZU",
          "before": " ",
          "after": " "
        },
        {
          "index": 4,
          "word": "Star",
          "originalText": "Star",
          "characterOffsetBegin": 14,
          "characterOffsetEnd": 18,
          "pos": "NN",
          "before": " ",
          "after": " "
        },
        {
          "index": 5,
          "word": "als",
          "originalText": "als",
          "characterOffsetBegin": 19,
          "characterOffsetEnd": 22,
          "pos": "APPR",
          "before": " ",
          "after": " "
        },
        {
          "index": 6,
          "word": "Steve",
          "originalText": "Steve",
          "characterOffsetBegin": 23,
          "characterOffsetEnd": 28,
          "pos": "NE",
          "before": " ",
          "after": " "
        },
        {
          "index": 7,
          "word": "Wozniak",
          "originalText": "Wozniak",
          "characterOffsetBegin": 29,
          "characterOffsetEnd": 36,
          "pos": "NE",
          "before": " ",
          "after": " "
        },
        {
          "index": 8,
          "word": "in",
          "originalText": "in",
          "characterOffsetBegin": 37,
          "characterOffsetEnd": 39,
          "pos": "APPR",
          "before": " ",
          "after": " "
        },
        {
          "index": 9,
          "word": "Sony",
          "originalText": "Sony",
          "characterOffsetBegin": 40,
          "characterOffsetEnd": 44,
          "pos": "NE",
          "before": " ",
          "after": " "
        },
        {
          "index": 10,
          "word": "Steve",
          "originalText": "Steve",
          "characterOffsetBegin": 45,
          "characterOffsetEnd": 50,
          "pos": "NE",
          "before": " ",
          "after": " "
        },
        {
          "index": 11,
          "word": "Jobs",
          "originalText": "Jobs",
          "characterOffsetBegin": 51,
          "characterOffsetEnd": 55,
          "pos": "NN",
          "before": " ",
          "after": " "
        },
        {
          "index": 12,
          "word": "Biopic",
          "originalText": "Biopic",
          "characterOffsetBegin": 56,
          "characterOffsetEnd": 62,
          "pos": "NE",
          "before": " ",
          "after": " "
        },
        {
          "index": 13,
          "word": "-LSB-",
          "originalText": "[",
          "characterOffsetBegin": 63,
          "characterOffsetEnd": 64,
          "pos": "TRUNC",
          "before": " ",
          "after": ""
        },
        {
          "index": 14,
          "word": "Updated",
          "originalText": "Updated",
          "characterOffsetBegin": 64,
          "characterOffsetEnd": 71,
          "pos": "NN",
          "before": "",
          "after": ""
        },
        {
          "index": 15,
          "word": "-RSB-",
          "originalText": "]",
          "characterOffsetBegin": 71,
          "characterOffsetEnd": 72,
          "pos": "TRUNC",
          "before": "",
          "after": ""
        }
      ]
    }
  ]
}