{
  "sentences": [
    {
      "index": 0,
      "basicDependencies": [
        {
          "dep": "ROOT",
          "governor": 0,
          "governorGloss": "ROOT",
          "dependent": 3,
          "dependentGloss": "setzt"
        },
        {
          "dep": "name",
          "governor": 2,
          "governorGloss": "Rogen",
          "dependent": 1,
          "dependentGloss": "Seth"
        },
        {
          "dep": "nsubj",
          "governor": 3,
          "governorGloss": "setzt",
          "dependent": 2,
          "dependentGloss": "Rogen"
        },
        {
          "dep": "case",
          "governor": 6,
          "governorGloss": "Wozniak",
          "dependent": 4,
          "dependentGloss": "auf"
        },
        {
          "dep": "name",
          "governor": 6,
          "governorGloss": "Wozniak",
          "dependent": 5,
          "dependentGloss": "Steve"
        },
        {
          "dep": "nmod",
          "governor": 3,
          "governorGloss": "setzt",
          "dependent": 6,
          "dependentGloss": "Wozniak"
        },
        {
          "dep": "case",
          "governor": 12,
          "governorGloss": "Jobs",
          "dependent": 7,
          "dependentGloss": "in"
        },
        {
          "dep": "name",
          "governor": 9,
          "governorGloss": "Boyle",
          "dependent": 8,
          "dependentGloss": "Danny"
        },
        {
          "dep": "det",
          "governor": 12,
          "governorGloss": "Jobs",
          "dependent": 9,
          "dependentGloss": "Boyle"
        },
        {
          "dep": "case",
          "governor": 9,
          "governorGloss": "Boyle",
          "dependent": 10,
          "dependentGloss": "'s"
        },
        {
          "dep": "name",
          "governor": 12,
          "governorGloss": "Jobs",
          "dependent": 11,
          "dependentGloss": "Steve"
        },
        {
          "dep": "nmod",
          "governor": 3,
          "governorGloss": "setzt",
          "dependent": 12,
          "dependentGloss": "Jobs"
        },
        {
          "dep": "dep",
          "governor": 3,
          "governorGloss": "setzt",
          "dependent": 13,
          "dependentGloss": "Biopic"
        }
      ],
      "enhancedDependencies": [
        {
          "dep": "ROOT",
          "governor": 0,
          "governorGloss": "ROOT",
          "dependent": 3,
          "dependentGloss": "setzt"
        },
        {
          "dep": "name",
          "governor": 2,
          "governorGloss": "Rogen",
          "dependent": 1,
          "dependentGloss": "Seth"
        },
        {
          "dep": "nsubj",
          "governor": 3,
          "governorGloss": "setzt",
          "dependent": 2,
          "dependentGloss": "Rogen"
        },
        {
          "dep": "case",
          "governor": 6,
          "governorGloss": "Wozniak",
          "dependent": 4,
          "dependentGloss": "auf"
        },
        {
          "dep": "name",
          "governor": 6,
          "governorGloss": "Wozniak",
          "dependent": 5,
          "dependentGloss": "Steve"
        },
        {
          "dep": "nmod",
          "governor": 3,
          "governorGloss": "setzt",
          "dependent": 6,
          "dependentGloss": "Wozniak"
        },
        {
          "dep": "case",
          "governor": 12,
          "governorGloss": "Jobs",
          "dependent": 7,
          "dependentGloss": "in"
        },
        {
          "dep": "name",
          "governor": 9,
          "governorGloss": "Boyle",
          "dependent": 8,
          "dependentGloss": "Danny"
        },
        {
          "dep": "det",
          "governor": 12,
          "governorGloss": "Jobs",
          "dependent": 9,
          "dependentGloss": "Boyle"
        },
        {
          "dep": "case",
          "governor": 9,
          "governorGloss": "Boyle",
          "dependent": 10,
          "dependentGloss": "'s"
        },
        {
          "dep": "name",
          "governor": 12,
          "governorGloss": "Jobs",
          "dependent": 11,
          "dependentGloss": "Steve"
        },
        {
          "dep": "nmod",
          "governor": 3,
          "governorGloss": "setzt",
          "dependent": 12,
          "dependentGloss": "Jobs"
        },
        {
          "dep": "dep",
          "governor": 3,
          "governorGloss": "setzt",
          "dependent": 13,
          "dependentGloss": "Biopic"
        }
      ],
      "enhancedPlusPlusDependencies": [
        {
          "dep": "ROOT",
          "governor": 0,
          "governorGloss": "ROOT",
          "dependent": 3,
          "dependentGloss": "setzt"
        },
        {
          "dep": "name",
          "governor": 2,
          "governorGloss": "Rogen",
          "dependent": 1,
          "dependentGloss": "Seth"
        },
        {
          "dep": "nsubj",
          "governor": 3,
          "governorGloss": "setzt",
          "dependent": 2,
          "dependentGloss": "Rogen"
        },
        {
          "dep": "case",
          "governor": 6,
          "governorGloss": "Wozniak",
          "dependent": 4,
          "dependentGloss": "auf"
        },
        {
          "dep": "name",
          "governor": 6,
          "governorGloss": "Wozniak",
          "dependent": 5,
          "dependentGloss": "Steve"
        },
        {
          "dep": "nmod",
          "governor": 3,
          "governorGloss": "setzt",
          "dependent": 6,
          "dependentGloss": "Wozniak"
        },
        {
          "dep": "case",
          "governor": 12,
          "governorGloss": "Jobs",
          "dependent": 7,
          "dependentGloss": "in"
        },
        {
          "dep": "name",
          "governor": 9,
          "governorGloss": "Boyle",
          "dependent": 8,
          "dependentGloss": "Danny"
        },
        {
          "dep": "det",
          "governor": 12,
          "governorGloss": "Jobs",
          "dependent": 9,
          "dependentGloss": "Boyle"
        },
        {
          "dep": "case",
          "governor": 9,
          "governorGloss": "Boyle",
          "dependent": 10,
          "dependentGloss": "'s"
        },
        {
          "dep": "name",
          "governor": 12,
          "governorGloss": "Jobs",
          "dependent": 11,
          "dependentGloss": "Steve"
        },
        {
          "dep": "nmod",
          "governor": 3,
          "governorGloss": "setzt",
          "dependent": 12,
          "dependentGloss": "Jobs"
        },
        {
          "dep": "dep",
          "governor": 3,
          "governorGloss": "setzt",
          "dependent": 13,
          "dependentGloss": "Biopic"
        }
      ],
      "tokens": [
        {
          "index": 1,
          "word": "Seth",
          "originalText": "Seth",
          "characterOffsetBegin": 0,
          "characterOffsetEnd": 4,
          "pos": "NE",
          "before": "",
          "after": " "
        },
        {
          "index": 2,
          "word": "Rogen",
          "originalText": "Rogen",
          "characterOffsetBegin": 5,
          "characterOffsetEnd": 10,
          "pos": "NN",
          "before": " ",
          "after": " "
        },
        {
          "index": 3,
          "word": "setzt",
          "originalText": "setzt",
          "characterOffsetBegin": 11,
          "characterOffsetEnd": 16,
          "pos": "VVFIN",
          "before": " ",
          "after": " "
        },
        {
          "index": 4,
          "word": "auf",
          "originalText": "auf",
          "characterOffsetBegin": 17,
          "characterOffsetEnd": 20,
          "pos": "APPR",
          "before": " ",
          "after": " "
        },
        {
          "index": 5,
          "word": "Steve",
          "originalText": "Steve",
          "characterOffsetBegin": 21,
          "characterOffsetEnd": 26,
          "pos": "NE",
          "before": " ",
          "after": " "
        },
        {
          "index": 6,
          "word": "Wozniak",
          "originalText": "Wozniak",
          "characterOffsetBegin": 27,
          "characterOffsetEnd": 34,
          "pos": "NE",
          "before": " ",
          "after": " "
        },
        {
          "index": 7,
          "word": "in",
          "originalText": "in",
          "characterOffsetBegin": 35,
          "characterOffsetEnd": 37,
          "pos": "APPR",
          "before": " ",
          "after": " "
        },
        {
          "index": 8,
          "word": "Danny",
          "originalText": "Danny",
          "characterOffsetBegin": 38,
          "characterOffsetEnd": 43,
          "pos": "NE",
          "before": " ",
          "after": " "
        },
        {
          "index": 9,
          "word": "Boyle",
          "originalText": "Boyle",
          "characterOffsetBegin": 44,
          "characterOffsetEnd": 49,
          "pos": "NE",
          "before": " ",
          "after": ""
        },
        {
          "index": 10,
          "word": "'s",
          "originalText": "'s",
          "characterOffsetBegin": 49,
          "characterOffsetEnd": 51,
          "pos": "PPER",
          "before": "",
          "after": " "
        },
        {
          "index": 11,
          "word": "Steve",
          "originalText": "Steve",
          "characterOffsetBegin": 52,
          "characterOffsetEnd": 57,
          "pos": "NE",
          "before": " ",
          "after": " "
        },
        {
          "index": 12,
          "word": "Jobs",
          "originalText": "Jobs",
          "characterOffsetBegin": 58,
          "characterOffsetEnd": 62,
          "pos": "NN",
          "before": " ",
          "after": " "
        },
        {
          "index": 13,
          "word": "Biopic",
          "originalText": "Biopic",
          "characterOffsetBegin": 63,
          "characterOffsetEnd": 69,
          "pos": "NE",
          "before": " ",
          "after": ""
        }
      ]
    }
  ]
}