{
  "sentences": [
    {
      "index": 0,
      "basicDependencies": [
        {
          "dep": "ROOT",
          "governor": 0,
          "governorGloss": "ROOT",
          "dependent": 1,
          "dependentGloss": "HBO"
        },
        {
          "dep": "cc",
          "governor": 1,
          "governorGloss": "HBO",
          "dependent": 2,
          "dependentGloss": "und"
        },
        {
          "dep": "conj",
          "governor": 1,
          "governorGloss": "HBO",
          "dependent": 3,
          "dependentGloss": "Apple"
        },
        {
          "dep": "case",
          "governor": 5,
          "governorGloss": "Gesprächen",
          "dependent": 4,
          "dependentGloss": "in"
        },
        {
          "dep": "nmod",
          "governor": 3,
          "governorGloss": "Apple",
          "dependent": 5,
          "dependentGloss": "Gesprächen"
        },
        {
          "dep": "case",
          "governor": 7,
          "governorGloss": "$",
          "dependent": 6,
          "dependentGloss": "für"
        },
        {
          "dep": "nmod",
          "governor": 5,
          "governorGloss": "Gesprächen",
          "dependent": 7,
          "dependentGloss": "$"
        },
        {
          "dep": "nmod",
          "governor": 7,
          "governorGloss": "$",
          "dependent": 8,
          "dependentGloss": "15"
        },
        {
          "dep": "punct",
          "governor": 8,
          "governorGloss": "15",
          "dependent": 9,
          "dependentGloss": "/"
        },
        {
          "dep": "conj",
          "governor": 8,
          "governorGloss": "15",
          "dependent": 10,
          "dependentGloss": "Monat"
        },
        {
          "dep": "name",
          "governor": 14,
          "governorGloss": "Service",
          "dependent": 11,
          "dependentGloss": "Apple"
        },
        {
          "dep": "name",
          "governor": 14,
          "governorGloss": "Service",
          "dependent": 12,
          "dependentGloss": "TV"
        },
        {
          "dep": "name",
          "governor": 14,
          "governorGloss": "Service",
          "dependent": 13,
          "dependentGloss": "Streaming"
        },
        {
          "dep": "appos",
          "governor": 7,
          "governorGloss": "$",
          "dependent": 14,
          "dependentGloss": "Service"
        },
        {
          "dep": "amod",
          "governor": 16,
          "governorGloss": "im",
          "dependent": 15,
          "dependentGloss": "Starten"
        },
        {
          "dep": "appos",
          "governor": 14,
          "governorGloss": "Service",
          "dependent": 16,
          "dependentGloss": "im"
        },
        {
          "dep": "appos",
          "governor": 16,
          "governorGloss": "im",
          "dependent": 17,
          "dependentGloss": "April"
        }
      ],
      "enhancedDependencies": [
        {
          "dep": "ROOT",
          "governor": 0,
          "governorGloss": "ROOT",
          "dependent": 1,
          "dependentGloss": "HBO"
        },
        {
          "dep": "cc",
          "governor": 1,
          "governorGloss": "HBO",
          "dependent": 2,
          "dependentGloss": "und"
        },
        {
          "dep": "conj:und",
          "governor": 1,
          "governorGloss": "HBO",
          "dependent": 3,
          "dependentGloss": "Apple"
        },
        {
          "dep": "case",
          "governor": 5,
          "governorGloss": "Gesprächen",
          "dependent": 4,
          "dependentGloss": "in"
        },
        {
          "dep": "nmod",
          "governor": 3,
          "governorGloss": "Apple",
          "dependent": 5,
          "dependentGloss": "Gesprächen"
        },
        {
          "dep": "case",
          "governor": 7,
          "governorGloss": "$",
          "dependent": 6,
          "dependentGloss": "für"
        },
        {
          "dep": "nmod",
          "governor": 5,
          "governorGloss": "Gesprächen",
          "dependent": 7,
          "dependentGloss": "$"
        },
        {
          "dep": "nmod",
          "governor": 7,
          "governorGloss": "$",
          "dependent": 8,
          "dependentGloss": "15"
        },
        {
          "dep": "punct",
          "governor": 8,
          "governorGloss": "15",
          "dependent": 9,
          "dependentGloss": "/"
        },
        {
          "dep": "conj",
          "governor": 8,
          "governorGloss": "15",
          "dependent": 10,
          "dependentGloss": "Monat"
        },
        {
          "dep": "name",
          "governor": 14,
          "governorGloss": "Service",
          "dependent": 11,
          "dependentGloss": "Apple"
        },
        {
          "dep": "name",
          "governor": 14,
          "governorGloss": "Service",
          "dependent": 12,
          "dependentGloss": "TV"
        },
        {
          "dep": "name",
          "governor": 14,
          "governorGloss": "Service",
          "dependent": 13,
          "dependentGloss": "Streaming"
        },
        {
          "dep": "appos",
          "governor": 7,
          "governorGloss": "$",
          "dependent": 14,
          "dependentGloss": "Service"
        },
        {
          "dep": "amod",
          "governor": 16,
          "governorGloss": "im",
          "dependent": 15,
          "dependentGloss": "Starten"
        },
        {
          "dep": "appos",
          "governor": 14,
          "governorGloss": "Service",
          "dependent": 16,
          "dependentGloss": "im"
        },
        {
          "dep": "appos",
          "governor": 16,
          "governorGloss": "im",
          "dependent": 17,
          "dependentGloss": "April"
        }
      ],
      "enhancedPlusPlusDependencies": [
        {
          "dep": "ROOT",
          "governor": 0,
          "governorGloss": "ROOT",
          "dependent": 1,
          "dependentGloss": "HBO"
        },
        {
          "dep": "cc",
          "governor": 1,
          "governorGloss": "HBO",
          "dependent": 2,
          "dependentGloss": "und"
        },
        {
          "dep": "conj:und",
          "governor": 1,
          "governorGloss": "HBO",
          "dependent": 3,
          "dependentGloss": "Apple"
        },
        {
          "dep": "case",
          "governor": 5,
          "governorGloss": "Gesprächen",
          "dependent": 4,
          "dependentGloss": "in"
        },
        {
          "dep": "nmod",
          "governor": 3,
          "governorGloss": "Apple",
          "dependent": 5,
          "dependentGloss": "Gesprächen"
        },
        {
          "dep": "case",
          "governor": 7,
          "governorGloss": "$",
          "dependent": 6,
          "dependentGloss": "für"
        },
        {
          "dep": "nmod",
          "governor": 5,
          "governorGloss": "Gesprächen",
          "dependent": 7,
          "dependentGloss": "$"
        },
        {
          "dep": "nmod",
          "governor": 7,
          "governorGloss": "$",
          "dependent": 8,
          "dependentGloss": "15"
        },
        {
          "dep": "punct",
          "governor": 8,
          "governorGloss": "15",
          "dependent": 9,
          "dependentGloss": "/"
        },
        {
          "dep": "conj",
          "governor": 8,
          "governorGloss": "15",
          "dependent": 10,
          "dependentGloss": "Monat"
        },
        {
          "dep": "name",
          "governor": 14,
          "governorGloss": "Service",
          "dependent": 11,
          "dependentGloss": "Apple"
        },
        {
          "dep": "name",
          "governor": 14,
          "governorGloss": "Service",
          "dependent": 12,
          "dependentGloss": "TV"
        },
        {
          "dep": "name",
          "governor": 14,
          "governorGloss": "Service",
          "dependent": 13,
          "dependentGloss": "Streaming"
        },
        {
          "dep": "appos",
          "governor": 7,
          "governorGloss": "$",
          "dependent": 14,
          "dependentGloss": "Service"
        },
        {
          "dep": "amod",
          "governor": 16,
          "governorGloss": "im",
          "dependent": 15,
          "dependentGloss": "Starten"
        },
        {
          "dep": "appos",
          "governor": 14,
          "governorGloss": "Service",
          "dependent": 16,
          "dependentGloss": "im"
        },
        {
          "dep": "appos",
          "governor": 16,
          "governorGloss": "im",
          "dependent": 17,
          "dependentGloss": "April"
        }
      ],
      "tokens": [
        {
          "index": 1,
          "word": "HBO",
          "originalText": "HBO",
          "characterOffsetBegin": 0,
          "characterOffsetEnd": 3,
          "pos": "NE",
          "before": "",
          "after": " "
        },
        {
          "index": 2,
          "word": "und",
          "originalText": "und",
          "characterOffsetBegin": 4,
          "characterOffsetEnd": 7,
          "pos": "KON",
          "before": " ",
          "after": " "
        },
        {
          "index": 3,
          "word": "Apple",
          "originalText": "Apple",
          "characterOffsetBegin": 8,
          "characterOffsetEnd": 13,
          "pos": "NE",
          "before": " ",
          "after": " "
        },
        {
          "index": 4,
          "word": "in",
          "originalText": "in",
          "characterOffsetBegin": 14,
          "characterOffsetEnd": 16,
          "pos": "APPR",
          "before": " ",
          "after": " "
        },
        {
          "index": 5,
          "word": "Gesprächen",
          "originalText": "Gesprächen",
          "characterOffsetBegin": 17,
          "characterOffsetEnd": 27,
          "pos": "NN",
          "before": " ",
          "after": " "
        },
        {
          "index": 6,
          "word": "für",
          "originalText": "für",
          "characterOffsetBegin": 28,
          "characterOffsetEnd": 31,
          "pos": "APPR",
          "before": " ",
          "after": " "
        },
        {
          "index": 7,
          "word": "$",
          "originalText": "$",
          "characterOffsetBegin": 32,
          "characterOffsetEnd": 33,
          "pos": "CARD",
          "before": " ",
          "after": " "
        },
        {
          "index": 8,
          "word": "15",
          "originalText": "15",
          "characterOffsetBegin": 34,
          "characterOffsetEnd": 36,
          "pos": "CARD",
          "before": " ",
          "after": " "
        },
        {
          "index": 9,
          "word": "/",
          "originalText": "/",
          "characterOffsetBegin": 37,
          "characterOffsetEnd": 38,
          "pos": "$[",
          "before": " ",
          "after": " "
        },
        {
          "index": 10,
          "word": "Monat",
          "originalText": "Monat",
          "characterOffsetBegin": 39,
          "characterOffsetEnd": 44,
          "pos": "NN",
          "before": " ",
          "after": " "
        },
        {
          "index": 11,
          "word": "Apple",
          "originalText": "Apple",
          "characterOffsetBegin": 45,
          "characterOffsetEnd": 50,
          "pos": "NE",
          "before": " ",
          "after": " "
        },
        {
          "index": 12,
          "word": "TV",
          "originalText": "TV",
          "characterOffsetBegin": 51,
          "characterOffsetEnd": 53,
          "pos": "NN",
          "before": " ",
          "after": " "
        },
        {
          "index": 13,
          "word": "Streaming",
          "originalText": "Streaming",
          "characterOffsetBegin": 54,
          "characterOffsetEnd": 63,
          "pos": "NE",
          "before": " ",
          "after": " "
        },
        {
          "index": 14,
          "word": "Service",
          "originalText": "Service",
          "characterOffsetBegin": 64,
          "characterOffsetEnd": 71,
          "pos": "NN",
          "before": " ",
          "after": " "
        },
        {
          "index": 15,
          "word": "Starten",
          "originalText": "Starten",
          "characterOffsetBegin": 72,
          "characterOffsetEnd": 79,
          "pos": "NE",
          "before": " ",
          "after": " "
        },
        {
          "index": 16,
          "word": "im",
          "originalText": "im",
          "characterOffsetBegin": 80,
          "characterOffsetEnd": 82,
          "pos": "APPRART",
          "before": " ",
          "after": " "
        },
        {
          "index": 17,
          "word": "April",
          "originalText": "April",
          "characterOffsetBegin": 83,
          "characterOffsetEnd": 88,
          "pos": "NN",
          "before": " ",
          "after": ""
        }
      ]
    }
  ]
}