{
  "sentences": [
    {
      "index": 0,
      "basicDependencies": [
        {
          "dep": "ROOT",
          "governor": 0,
          "governorGloss": "ROOT",
          "dependent": 6,
          "dependentGloss": "spielen"
        },
        {
          "dep": "name",
          "governor": 2,
          "governorGloss": "Bale",
          "dependent": 1,
          "dependentGloss": "Christian"
        },
        {
          "dep": "nsubj",
          "governor": 6,
          "governorGloss": "spielen",
          "dependent": 2,
          "dependentGloss": "Bale"
        },
        {
          "dep": "case",
          "governor": 4,
          "governorGloss": "Gesprächen",
          "dependent": 3,
          "dependentGloss": "in"
        },
        {
          "dep": "nmod",
          "governor": 6,
          "governorGloss": "spielen",
          "dependent": 4,
          "dependentGloss": "Gesprächen"
        },
        {
          "dep": "aux",
          "governor": 6,
          "governorGloss": "spielen",
          "dependent": 5,
          "dependentGloss": "zu"
        },
        {
          "dep": "name",
          "governor": 8,
          "governorGloss": "Jobs",
          "dependent": 7,
          "dependentGloss": "Steve"
        },
        {
          "dep": "dobj",
          "governor": 6,
          "governorGloss": "spielen",
          "dependent": 8,
          "dependentGloss": "Jobs"
        },
        {
          "dep": "case",
          "governor": 13,
          "governorGloss": "Biopic",
          "dependent": 9,
          "dependentGloss": "in"
        },
        {
          "dep": "name",
          "governor": 11,
          "governorGloss": "Boyle",
          "dependent": 10,
          "dependentGloss": "Danny"
        },
        {
          "dep": "det",
          "governor": 13,
          "governorGloss": "Biopic",
          "dependent": 11,
          "dependentGloss": "Boyle"
        },
        {
          "dep": "case",
          "governor": 11,
          "governorGloss": "Boyle",
          "dependent": 12,
          "dependentGloss": "'s"
        },
        {
          "dep": "nmod",
          "governor": 8,
          "governorGloss": "Jobs",
          "dependent": 13,
          "dependentGloss": "Biopic"
        }
      ],
      "enhancedDependencies": [
        {
          "dep": "ROOT",
          "governor": 0,
          "governorGloss": "ROOT",
          "dependent": 6,
          "dependentGloss": "spielen"
        },
        {
          "dep": "name",
          "governor": 2,
          "governorGloss": "Bale",
          "dependent": 1,
          "dependentGloss": "Christian"
        },
        {
          "dep": "nsubj",
          "governor": 6,
          "governorGloss": "spielen",
          "dependent": 2,
          "dependentGloss": "Bale"
        },
        {
          "dep": "case",
          "governor": 4,
          "governorGloss": "Gesprächen",
          "dependent": 3,
          "dependentGloss": "in"
        },
        {
          "dep": "nmod",
          "governor": 6,
          "governorGloss": "spielen",
          "dependent": 4,
          "dependentGloss": "Gesprächen"
        },
        {
          "dep": "aux",
          "governor": 6,
          "governorGloss": "spielen",
          "dependent": 5,
          "dependentGloss": "zu"
        },
        {
          "dep": "name",
          "governor": 8,
          "governorGloss": "Jobs",
          "dependent": 7,
          "dependentGloss": "Steve"
        },
        {
          "dep": "dobj",
          "governor": 6,
          "governorGloss": "spielen",
          "dependent": 8,
          "dependentGloss": "Jobs"
        },
        {
          "dep": "case",
          "governor": 13,
          "governorGloss": "Biopic",
          "dependent": 9,
          "dependentGloss": "in"
        },
        {
          "dep": "name",
          "governor": 11,
          "governorGloss": "Boyle",
          "dependent": 10,
          "dependentGloss": "Danny"
        },
        {
          "dep": "det",
          "governor": 13,
          "governorGloss": "Biopic",
          "dependent": 11,
          "dependentGloss": "Boyle"
        },
        {
          "dep": "case",
          "governor": 11,
          "governorGloss": "Boyle",
          "dependent": 12,
          "dependentGloss": "'s"
        },
        {
          "dep": "nmod",
          "governor": 8,
          "governorGloss": "Jobs",
          "dependent": 13,
          "dependentGloss": "Biopic"
        }
      ],
      "enhancedPlusPlusDependencies": [
        {
          "dep": "ROOT",
          "governor": 0,
          "governorGloss": "ROOT",
          "dependent": 6,
          "dependentGloss": "spielen"
        },
        {
          "dep": "name",
          "governor": 2,
          "governorGloss": "Bale",
          "dependent": 1,
          "dependentGloss": "Christian"
        },
        {
          "dep": "nsubj",
          "governor": 6,
          "governorGloss": "spielen",
          "dependent": 2,
          "dependentGloss": "Bale"
        },
        {
          "dep": "case",
          "governor": 4,
          "governorGloss": "Gesprächen",
          "dependent": 3,
          "dependentGloss": "in"
        },
        {
          "dep": "nmod",
          "governor": 6,
          "governorGloss": "spielen",
          "dependent": 4,
          "dependentGloss": "Gesprächen"
        },
        {
          "dep": "aux",
          "governor": 6,
          "governorGloss": "spielen",
          "dependent": 5,
          "dependentGloss": "zu"
        },
        {
          "dep": "name",
          "governor": 8,
          "governorGloss": "Jobs",
          "dependent": 7,
          "dependentGloss": "Steve"
        },
        {
          "dep": "dobj",
          "governor": 6,
          "governorGloss": "spielen",
          "dependent": 8,
          "dependentGloss": "Jobs"
        },
        {
          "dep": "case",
          "governor": 13,
          "governorGloss": "Biopic",
          "dependent": 9,
          "dependentGloss": "in"
        },
        {
          "dep": "name",
          "governor": 11,
          "governorGloss": "Boyle",
          "dependent": 10,
          "dependentGloss": "Danny"
        },
        {
          "dep": "det",
          "governor": 13,
          "governorGloss": "Biopic",
          "dependent": 11,
          "dependentGloss": "Boyle"
        },
        {
          "dep": "case",
          "governor": 11,
          "governorGloss": "Boyle",
          "dependent": 12,
          "dependentGloss": "'s"
        },
        {
          "dep": "nmod",
          "governor": 8,
          "governorGloss": "Jobs",
          "dependent": 13,
          "dependentGloss": "Biopic"
        }
      ],
      "tokens": [
        {
          "index": 1,
          "word": "Christian",
          "originalText": "Christian",
          "characterOffsetBegin": 0,
          "characterOffsetEnd": 9,
          "pos": "NE",
          "before": "",
          "after": " "
        },
        {
          "index": 2,
          "word": "Bale",
          "originalText": "Bale",
          "characterOffsetBegin": 10,
          "characterOffsetEnd": 14,
          "pos": "NE",
          "before": " ",
          "after": " "
        },
        {
          "index": 3,
          "word": "in",
          "originalText": "in",
          "characterOffsetBegin": 15,
          "characterOffsetEnd": 17,
          "pos": "APPR",
          "before": " ",
          "after": " "
        },
        {
          "index": 4,
          "word": "Gesprächen",
          "originalText": "Gesprächen",
          "characterOffsetBegin": 18,
          "characterOffsetEnd": 28,
          "pos": "NN",
          "before": " ",
          "after": " "
        },
        {
          "index": 5,
          "word": "zu",
          "originalText": "zu",
          "characterOffsetBegin": 29,
          "characterOffsetEnd": 31,
          "pos": "PTKZU",
          "before": " ",
          "after": " "
        },
        {
          "index": 6,
          "word": "spielen",
          "originalText": "spielen",
          "characterOffsetBegin": 32,
          "characterOffsetEnd": 39,
          "pos": "VVINF",
          "before": " ",
          "after": " "
        },
        {
          "index": 7,
          "word": "Steve",
          "originalText": "Steve",
          "characterOffsetBegin": 40,
          "characterOffsetEnd": 45,
          "pos": "NE",
          "before": " ",
          "after": " "
        },
        {
          "index": 8,
          "word": "Jobs",
          "originalText": "Jobs",
          "characterOffsetBegin": 46,
          "characterOffsetEnd": 50,
          "pos": "NN",
          "before": " ",
          "after": " "
        },
        {
          "index": 9,
          "word": "in",
          "originalText": "in",
          "characterOffsetBegin": 51,
          "characterOffsetEnd": 53,
          "pos": "APPR",
          "before": " ",
          "after": " "
        },
        {
          "index": 10,
          "word": "Danny",
          "originalText": "Danny",
          "characterOffsetBegin": 54,
          "characterOffsetEnd": 59,
          "pos": "NE",
          "before": " ",
          "after": " "
        },
        {
          "index": 11,
          "word": "Boyle",
          "originalText": "Boyle",
          "characterOffsetBegin": 60,
          "characterOffsetEnd": 65,
          "pos": "NE",
          "before": " ",
          "after": ""
        },
        {
          "index": 12,
          "word": "'s",
          "originalText": "'s",
          "characterOffsetBegin": 65,
          "characterOffsetEnd": 67,
          "pos": "PPER",
          "before": "",
          "after": " "
        },
        {
          "index": 13,
          "word": "Biopic",
          "originalText": "Biopic",
          "characterOffsetBegin": 68,
          "characterOffsetEnd": 74,
          "pos": "NE",
          "before": " ",
          "after": ""
        }
      ]
    }
  ]
}