{
  "sentences": [
    {
      "index": 0,
      "basicDependencies": [
        {
          "dep": "ROOT",
          "governor": 0,
          "governorGloss": "ROOT",
          "dependent": 2,
          "dependentGloss": "ging"
        },
        {
          "dep": "nsubj",
          "governor": 2,
          "governorGloss": "ging",
          "dependent": 1,
          "dependentGloss": "Zaun-Pullover"
        },
        {
          "dep": "advmod",
          "governor": 2,
          "governorGloss": "ging",
          "dependent": 3,
          "dependentGloss": "weiter"
        },
        {
          "dep": "case",
          "governor": 7,
          "governorGloss": "Haus",
          "dependent": 4,
          "dependentGloss": "in"
        },
        {
          "dep": "det",
          "governor": 7,
          "governorGloss": "Haus",
          "dependent": 5,
          "dependentGloss": "das"
        },
        {
          "dep": "amod",
          "governor": 7,
          "governorGloss": "Haus",
          "dependent": 6,
          "dependentGloss": "Weiße"
        },
        {
          "dep": "nmod",
          "governor": 2,
          "governorGloss": "ging",
          "dependent": 7,
          "dependentGloss": "Haus"
        }
      ],
      "enhancedDependencies": [
        {
          "dep": "ROOT",
          "governor": 0,
          "governorGloss": "ROOT",
          "dependent": 2,
          "dependentGloss": "ging"
        },
        {
          "dep": "nsubj",
          "governor": 2,
          "governorGloss": "ging",
          "dependent": 1,
          "dependentGloss": "Zaun-Pullover"
        },
        {
          "dep": "advmod",
          "governor": 2,
          "governorGloss": "ging",
          "dependent": 3,
          "dependentGloss": "weiter"
        },
        {
          "dep": "case",
          "governor": 7,
          "governorGloss": "Haus",
          "dependent": 4,
          "dependentGloss": "in"
        },
        {
          "dep": "det",
          "governor": 7,
          "governorGloss": "Haus",
          "dependent": 5,
          "dependentGloss": "das"
        },
        {
          "dep": "amod",
          "governor": 7,
          "governorGloss": "Haus",
          "dependent": 6,
          "dependentGloss": "Weiße"
        },
        {
          "dep": "nmod",
          "governor": 2,
          "governorGloss": "ging",
          "dependent": 7,
          "dependentGloss": "Haus"
        }
      ],
      "enhancedPlusPlusDependencies": [
        {
          "dep": "ROOT",
          "governor": 0,
          "governorGloss": "ROOT",
          "dependent": 2,
          "dependentGloss": "ging"
        },
        {
          "dep": "nsubj",
          "governor": 2,
          "governorGloss": "ging",
          "dependent": 1,
          "dependentGloss": "Zaun-Pullover"
        },
        {
          "dep": "advmod",
          "governor": 2,
          "governorGloss": "ging",
          "dependent": 3,
          "dependentGloss": "weiter"
        },
        {
          "dep": "case",
          "governor": 7,
          "governorGloss": "Haus",
          "dependent": 4,
          "dependentGloss": "in"
        },
        {
          "dep": "det",
          "governor": 7,
          "governorGloss": "Haus",
          "dependent": 5,
          "dependentGloss": "das"
        },
        {
          "dep": "amod",
          "governor": 7,
          "governorGloss": "Haus",
          "dependent": 6,
          "dependentGloss": "Weiße"
        },
        {
          "dep": "nmod",
          "governor": 2,
          "governorGloss": "ging",
          "dependent": 7,
          "dependentGloss": "Haus"
        }
      ],
      "tokens": [
        {
          "index": 1,
          "word": "Zaun-Pullover",
          "originalText": "Zaun-Pullover",
          "characterOffsetBegin": 0,
          "characterOffsetEnd": 13,
          "pos": "NN",
          "before": "",
          "after": " "
        },
        {
          "index": 2,
          "word": "ging",
          "originalText": "ging",
          "characterOffsetBegin": 14,
          "characterOffsetEnd": 18,
          "pos": "VVFIN",
          "before": " ",
          "after": " "
        },
        {
          "index": 3,
          "word": "weiter",
          "originalText": "weiter",
          "characterOffsetBegin": 19,
          "characterOffsetEnd": 25,
          "pos": "ADV",
          "before": " ",
          "after": " "
        },
        {
          "index": 4,
          "word": "in",
          "originalText": "in",
          "characterOffsetBegin": 26,
          "characterOffsetEnd": 28,
          "pos": "APPR",
          "before": " ",
          "after": " "
        },
        {
          "index": 5,
          "word": "das",
          "originalText": "das",
          "characterOffsetBegin": 29,
          "characterOffsetEnd": 32,
          "pos": "ART",
          "before": " ",
          "after": " "
        },
        {
          "index": 6,
          "word": "Weiße",
          "originalText": "Weiße",
          "characterOffsetBegin": 33,
          "characterOffsetEnd": 38,
          "pos": "ADJA",
          "before": " ",
          "after": " "
        },
        {
          "index": 7,
          "word": "Haus",
          "originalText": "Haus",
          "characterOffsetBegin": 39,
          "characterOffsetEnd": 43,
          "pos": "NN",
          "before": " ",
          "after": ""
        }
      ]
    }
  ]
}