{
  "sentences": [
    {
      "index": 0,
      "basicDependencies": [
        {
          "dep": "ROOT",
          "governor": 0,
          "governorGloss": "ROOT",
          "dependent": 2,
          "dependentGloss": "erklärt"
        },
        {
          "dep": "nsubj",
          "governor": 2,
          "governorGloss": "erklärt",
          "dependent": 1,
          "dependentGloss": "Comcast"
        },
        {
          "dep": "dobj",
          "governor": 2,
          "governorGloss": "erklärt",
          "dependent": 3,
          "dependentGloss": "Krieg"
        },
        {
          "dep": "case",
          "governor": 5,
          "governorGloss": "Tor",
          "dependent": 4,
          "dependentGloss": "auf"
        },
        {
          "dep": "nmod",
          "governor": 2,
          "governorGloss": "erklärt",
          "dependent": 5,
          "dependentGloss": "Tor"
        },
        {
          "dep": "punct",
          "governor": 2,
          "governorGloss": "erklärt",
          "dependent": 6,
          "dependentGloss": "?"
        }
      ],
      "enhancedDependencies": [
        {
          "dep": "ROOT",
          "governor": 0,
          "governorGloss": "ROOT",
          "dependent": 2,
          "dependentGloss": "erklärt"
        },
        {
          "dep": "nsubj",
          "governor": 2,
          "governorGloss": "erklärt",
          "dependent": 1,
          "dependentGloss": "Comcast"
        },
        {
          "dep": "dobj",
          "governor": 2,
          "governorGloss": "erklärt",
          "dependent": 3,
          "dependentGloss": "Krieg"
        },
        {
          "dep": "case",
          "governor": 5,
          "governorGloss": "Tor",
          "dependent": 4,
          "dependentGloss": "auf"
        },
        {
          "dep": "nmod",
          "governor": 2,
          "governorGloss": "erklärt",
          "dependent": 5,
          "dependentGloss": "Tor"
        },
        {
          "dep": "punct",
          "governor": 2,
          "governorGloss": "erklärt",
          "dependent": 6,
          "dependentGloss": "?"
        }
      ],
      "enhancedPlusPlusDependencies": [
        {
          "dep": "ROOT",
          "governor": 0,
          "governorGloss": "ROOT",
          "dependent": 2,
          "dependentGloss": "erklärt"
        },
        {
          "dep": "nsubj",
          "governor": 2,
          "governorGloss": "erklärt",
          "dependent": 1,
          "dependentGloss": "Comcast"
        },
        {
          "dep": "dobj",
          "governor": 2,
          "governorGloss": "erklärt",
          "dependent": 3,
          "dependentGloss": "Krieg"
        },
        {
          "dep": "case",
          "governor": 5,
          "governorGloss": "Tor",
          "dependent": 4,
          "dependentGloss": "auf"
        },
        {
          "dep": "nmod",
          "governor": 2,
          "governorGloss": "erklärt",
          "dependent": 5,
          "dependentGloss": "Tor"
        },
        {
          "dep": "punct",
          "governor": 2,
          "governorGloss": "erklärt",
          "dependent": 6,
          "dependentGloss": "?"
        }
      ],
      "tokens": [
        {
          "index": 1,
          "word": "Comcast",
          "originalText": "Comcast",
          "characterOffsetBegin": 0,
          "characterOffsetEnd": 7,
          "pos": "NE",
          "before": "",
          "after": " "
        },
        {
          "index": 2,
          "word": "erklärt",
          "originalText": "erklärt",
          "characterOffsetBegin": 8,
          "characterOffsetEnd": 15,
          "pos": "VVFIN",
          "before": " ",
          "after": " "
        },
        {
          "index": 3,
          "word": "Krieg",
          "originalText": "Krieg",
          "characterOffsetBegin": 16,
          "characterOffsetEnd": 21,
          "pos": "NN",
          "before": " ",
          "after": " "
        },
        {
          "index": 4,
          "word": "auf",
          "originalText": "auf",
          "characterOffsetBegin": 22,
          "characterOffsetEnd": 25,
          "pos": "APPR",
          "before": " ",
          "after": " "
        },
        {
          "index": 5,
          "word": "Tor",
          "originalText": "Tor",
          "characterOffsetBegin": 26,
          "characterOffsetEnd": 29,
          "pos": "NN",
          "before": " ",
          "after": ""
        },
        {
          "index": 6,
          "word": "?",
          "originalText": "?",
          "characterOffsetBegin": 29,
          "characterOffsetEnd": 30,
          "pos": "$.",
          "before": "",
          "after": ""
        }
      ]
    }
  ]
}