{
  "sentences": [
    {
      "index": 0,
      "basicDependencies": [
        {
          "dep": "ROOT",
          "governor": 0,
          "governorGloss": "ROOT",
          "dependent": 1,
          "dependentGloss": "Apple"
        },
        {
          "dep": "punct",
          "governor": 3,
          "governorGloss": "Citi",
          "dependent": 2,
          "dependentGloss": ":"
        },
        {
          "dep": "appos",
          "governor": 1,
          "governorGloss": "Apple",
          "dependent": 3,
          "dependentGloss": "Citi"
        },
        {
          "dep": "nummod",
          "governor": 5,
          "governorGloss": "$",
          "dependent": 4,
          "dependentGloss": "sieht"
        },
        {
          "dep": "nmod",
          "governor": 6,
          "governorGloss": "550",
          "dependent": 5,
          "dependentGloss": "$"
        },
        {
          "dep": "iobj",
          "governor": 3,
          "governorGloss": "Citi",
          "dependent": 6,
          "dependentGloss": "550"
        },
        {
          "dep": "cc",
          "governor": 6,
          "governorGloss": "550",
          "dependent": 7,
          "dependentGloss": "und"
        },
        {
          "dep": "conj",
          "governor": 6,
          "governorGloss": "550",
          "dependent": 8,
          "dependentGloss": "$"
        },
        {
          "dep": "appos",
          "governor": 8,
          "governorGloss": "$",
          "dependent": 9,
          "dependentGloss": "950"
        },
        {
          "dep": "det",
          "governor": 11,
          "governorGloss": "Uhren",
          "dependent": 10,
          "dependentGloss": "Apple"
        },
        {
          "dep": "dobj",
          "governor": 9,
          "governorGloss": "950",
          "dependent": 11,
          "dependentGloss": "Uhren"
        },
        {
          "dep": "punct",
          "governor": 11,
          "governorGloss": "Uhren",
          "dependent": 12,
          "dependentGloss": ","
        },
        {
          "dep": "amod",
          "governor": 14,
          "governorGloss": "Plethora",
          "dependent": 13,
          "dependentGloss": "Zubehör"
        },
        {
          "dep": "conj",
          "governor": 11,
          "governorGloss": "Uhren",
          "dependent": 14,
          "dependentGloss": "Plethora"
        }
      ],
      "enhancedDependencies": [
        {
          "dep": "ROOT",
          "governor": 0,
          "governorGloss": "ROOT",
          "dependent": 1,
          "dependentGloss": "Apple"
        },
        {
          "dep": "punct",
          "governor": 3,
          "governorGloss": "Citi",
          "dependent": 2,
          "dependentGloss": ":"
        },
        {
          "dep": "appos",
          "governor": 1,
          "governorGloss": "Apple",
          "dependent": 3,
          "dependentGloss": "Citi"
        },
        {
          "dep": "nummod",
          "governor": 5,
          "governorGloss": "$",
          "dependent": 4,
          "dependentGloss": "sieht"
        },
        {
          "dep": "nmod",
          "governor": 6,
          "governorGloss": "550",
          "dependent": 5,
          "dependentGloss": "$"
        },
        {
          "dep": "iobj",
          "governor": 3,
          "governorGloss": "Citi",
          "dependent": 6,
          "dependentGloss": "550"
        },
        {
          "dep": "cc",
          "governor": 6,
          "governorGloss": "550",
          "dependent": 7,
          "dependentGloss": "und"
        },
        {
          "dep": "iobj",
          "governor": 3,
          "governorGloss": "Citi",
          "dependent": 8,
          "dependentGloss": "$"
        },
        {
          "dep": "conj:und",
          "governor": 6,
          "governorGloss": "550",
          "dependent": 8,
          "dependentGloss": "$"
        },
        {
          "dep": "appos",
          "governor": 8,
          "governorGloss": "$",
          "dependent": 9,
          "dependentGloss": "950"
        },
        {
          "dep": "det",
          "governor": 11,
          "governorGloss": "Uhren",
          "dependent": 10,
          "dependentGloss": "Apple"
        },
        {
          "dep": "dobj",
          "governor": 9,
          "governorGloss": "950",
          "dependent": 11,
          "dependentGloss": "Uhren"
        },
        {
          "dep": "punct",
          "governor": 11,
          "governorGloss": "Uhren",
          "dependent": 12,
          "dependentGloss": ","
        },
        {
          "dep": "amod",
          "governor": 14,
          "governorGloss": "Plethora",
          "dependent": 13,
          "dependentGloss": "Zubehör"
        },
        {
          "dep": "conj",
          "governor": 11,
          "governorGloss": "Uhren",
          "dependent": 14,
          "dependentGloss": "Plethora"
        }
      ],
      "enhancedPlusPlusDependencies": [
        {
          "dep": "ROOT",
          "governor": 0,
          "governorGloss": "ROOT",
          "dependent": 1,
          "dependentGloss": "Apple"
        },
        {
          "dep": "punct",
          "governor": 3,
          "governorGloss": "Citi",
          "dependent": 2,
          "dependentGloss": ":"
        },
        {
          "dep": "appos",
          "governor": 1,
          "governorGloss": "Apple",
          "dependent": 3,
          "dependentGloss": "Citi"
        },
        {
          "dep": "nummod",
          "governor": 5,
          "governorGloss": "$",
          "dependent": 4,
          "dependentGloss": "sieht"
        },
        {
          "dep": "nmod",
          "governor": 6,
          "governorGloss": "550",
          "dependent": 5,
          "dependentGloss": "$"
        },
        {
          "dep": "iobj",
          "governor": 3,
          "governorGloss": "Citi",
          "dependent": 6,
          "dependentGloss": "550"
        },
        {
          "dep": "cc",
          "governor": 6,
          "governorGloss": "550",
          "dependent": 7,
          "dependentGloss": "und"
        },
        {
          "dep": "iobj",
          "governor": 3,
          "governorGloss": "Citi",
          "dependent": 8,
          "dependentGloss": "$"
        },
        {
          "dep": "conj:und",
          "governor": 6,
          "governorGloss": "550",
          "dependent": 8,
          "dependentGloss": "$"
        },
        {
          "dep": "appos",
          "governor": 8,
          "governorGloss": "$",
          "dependent": 9,
          "dependentGloss": "950"
        },
        {
          "dep": "det",
          "governor": 11,
          "governorGloss": "Uhren",
          "dependent": 10,
          "dependentGloss": "Apple"
        },
        {
          "dep": "dobj",
          "governor": 9,
          "governorGloss": "950",
          "dependent": 11,
          "dependentGloss": "Uhren"
        },
        {
          "dep": "punct",
          "governor": 11,
          "governorGloss": "Uhren",
          "dependent": 12,
          "dependentGloss": ","
        },
        {
          "dep": "amod",
          "governor": 14,
          "governorGloss": "Plethora",
          "dependent": 13,
          "dependentGloss": "Zubehör"
        },
        {
          "dep": "conj",
          "governor": 11,
          "governorGloss": "Uhren",
          "dependent": 14,
          "dependentGloss": "Plethora"
        }
      ],
      "tokens": [
        {
          "index": 1,
          "word": "Apple",
          "originalText": "Apple",
          "characterOffsetBegin": 0,
          "characterOffsetEnd": 5,
          "pos": "NE",
          "before": "",
          "after": ""
        },
        {
          "index": 2,
          "word": ":",
          "originalText": ":",
          "characterOffsetBegin": 5,
          "characterOffsetEnd": 6,
          "pos": "$.",
          "before": "",
          "after": " "
        },
        {
          "index": 3,
          "word": "Citi",
          "originalText": "Citi",
          "characterOffsetBegin": 7,
          "characterOffsetEnd": 11,
          "pos": "FM",
          "before": " ",
          "after": " "
        },
        {
          "index": 4,
          "word": "sieht",
          "originalText": "sieht",
          "characterOffsetBegin": 12,
          "characterOffsetEnd": 17,
          "pos": "VVFIN",
          "before": " ",
          "after": " "
        },
        {
          "index": 5,
          "word": "$",
          "originalText": "$",
          "characterOffsetBegin": 18,
          "characterOffsetEnd": 19,
          "pos": "XY",
          "before": " ",
          "after": " "
        },
        {
          "index": 6,
          "word": "550",
          "originalText": "550",
          "characterOffsetBegin": 20,
          "characterOffsetEnd": 23,
          "pos": "CARD",
          "before": " ",
          "after": " "
        },
        {
          "index": 7,
          "word": "und",
          "originalText": "und",
          "characterOffsetBegin": 24,
          "characterOffsetEnd": 27,
          "pos": "KON",
          "before": " ",
          "after": " "
        },
        {
          "index": 8,
          "word": "$",
          "originalText": "$",
          "characterOffsetBegin": 28,
          "characterOffsetEnd": 29,
          "pos": "CARD",
          "before": " ",
          "after": " "
        },
        {
          "index": 9,
          "word": "950",
          "originalText": "950",
          "characterOffsetBegin": 30,
          "characterOffsetEnd": 33,
          "pos": "CARD",
          "before": " ",
          "after": " "
        },
        {
          "index": 10,
          "word": "Apple",
          "originalText": "Apple",
          "characterOffsetBegin": 34,
          "characterOffsetEnd": 39,
          "pos": "NE",
          "before": " ",
          "after": " "
        },
        {
          "index": 11,
          "word": "Uhren",
          "originalText": "Uhren",
          "characterOffsetBegin": 40,
          "characterOffsetEnd": 45,
          "pos": "NN",
          "before": " ",
          "after": ""
        },
        {
          "index": 12,
          "word": ",",
          "originalText": ",",
          "characterOffsetBegin": 45,
          "characterOffsetEnd": 46,
          "pos": "$,",
          "before": "",
          "after": " "
        },
        {
          "index": 13,
          "word": "Zubehör",
          "originalText": "Zubehör",
          "characterOffsetBegin": 47,
          "characterOffsetEnd": 54,
          "pos": "NN",
          "before": " ",
          "after": " "
        },
        {
          "index": 14,
          "word": "Plethora",
          "originalText": "Plethora",
          "characterOffsetBegin": 55,
          "characterOffsetEnd": 63,
          "pos": "NE",
          "before": " ",
          "after": ""
        }
      ]
    }
  ]
}