{
  "sentences": [
    {
      "index": 0,
      "basicDependencies": [
        {
          "dep": "ROOT",
          "governor": 0,
          "governorGloss": "ROOT",
          "dependent": 1,
          "dependentGloss": "Uhr"
        },
        {
          "dep": "punct",
          "governor": 1,
          "governorGloss": "Uhr",
          "dependent": 2,
          "dependentGloss": ":"
        },
        {
          "dep": "name",
          "governor": 5,
          "governorGloss": "Taliban-Scharfschützen-Kopfschuss",
          "dependent": 3,
          "dependentGloss": "US-Marine"
        },
        {
          "dep": "name",
          "governor": 5,
          "governorGloss": "Taliban-Scharfschützen-Kopfschuss",
          "dependent": 4,
          "dependentGloss": "überlebt"
        },
        {
          "dep": "appos",
          "governor": 1,
          "governorGloss": "Uhr",
          "dependent": 5,
          "dependentGloss": "Taliban-Scharfschützen-Kopfschuss"
        },
        {
          "dep": "case",
          "governor": 7,
          "governorGloss": "Afghanistan",
          "dependent": 6,
          "dependentGloss": "in"
        },
        {
          "dep": "nmod",
          "governor": 1,
          "governorGloss": "Uhr",
          "dependent": 7,
          "dependentGloss": "Afghanistan"
        }
      ],
      "enhancedDependencies": [
        {
          "dep": "ROOT",
          "governor": 0,
          "governorGloss": "ROOT",
          "dependent": 1,
          "dependentGloss": "Uhr"
        },
        {
          "dep": "punct",
          "governor": 1,
          "governorGloss": "Uhr",
          "dependent": 2,
          "dependentGloss": ":"
        },
        {
          "dep": "name",
          "governor": 5,
          "governorGloss": "Taliban-Scharfschützen-Kopfschuss",
          "dependent": 3,
          "dependentGloss": "US-Marine"
        },
        {
          "dep": "name",
          "governor": 5,
          "governorGloss": "Taliban-Scharfschützen-Kopfschuss",
          "dependent": 4,
          "dependentGloss": "überlebt"
        },
        {
          "dep": "appos",
          "governor": 1,
          "governorGloss": "Uhr",
          "dependent": 5,
          "dependentGloss": "Taliban-Scharfschützen-Kopfschuss"
        },
        {
          "dep": "case",
          "governor": 7,
          "governorGloss": "Afghanistan",
          "dependent": 6,
          "dependentGloss": "in"
        },
        {
          "dep": "nmod",
          "governor": 1,
          "governorGloss": "Uhr",
          "dependent": 7,
          "dependentGloss": "Afghanistan"
        }
      ],
      "enhancedPlusPlusDependencies": [
        {
          "dep": "ROOT",
          "governor": 0,
          "governorGloss": "ROOT",
          "dependent": 1,
          "dependentGloss": "Uhr"
        },
        {
          "dep": "punct",
          "governor": 1,
          "governorGloss": "Uhr",
          "dependent": 2,
          "dependentGloss": ":"
        },
        {
          "dep": "name",
          "governor": 5,
          "governorGloss": "Taliban-Scharfschützen-Kopfschuss",
          "dependent": 3,
          "dependentGloss": "US-Marine"
        },
        {
          "dep": "name",
          "governor": 5,
          "governorGloss": "Taliban-Scharfschützen-Kopfschuss",
          "dependent": 4,
          "dependentGloss": "überlebt"
        },
        {
          "dep": "appos",
          "governor": 1,
          "governorGloss": "Uhr",
          "dependent": 5,
          "dependentGloss": "Taliban-Scharfschützen-Kopfschuss"
        },
        {
          "dep": "case",
          "governor": 7,
          "governorGloss": "Afghanistan",
          "dependent": 6,
          "dependentGloss": "in"
        },
        {
          "dep": "nmod",
          "governor": 1,
          "governorGloss": "Uhr",
          "dependent": 7,
          "dependentGloss": "Afghanistan"
        }
      ],
      "tokens": [
        {
          "index": 1,
          "word": "Uhr",
          "originalText": "Uhr",
          "characterOffsetBegin": 0,
          "characterOffsetEnd": 3,
          "pos": "NN",
          "before": "",
          "after": ""
        },
        {
          "index": 2,
          "word": ":",
          "originalText": ":",
          "characterOffsetBegin": 3,
          "characterOffsetEnd": 4,
          "pos": "$.",
          "before": "",
          "after": " "
        },
        {
          "index": 3,
          "word": "US-Marine",
          "originalText": "US-Marine",
          "characterOffsetBegin": 5,
          "characterOffsetEnd": 14,
          "pos": "NN",
          "before": " ",
          "after": " "
        },
        {
          "index": 4,
          "word": "überlebt",
          "originalText": "überlebt",
          "characterOffsetBegin": 15,
          "characterOffsetEnd": 23,
          "pos": "VVFIN",
          "before": " ",
          "after": " "
        },
        {
          "index": 5,
          "word": "Taliban-Scharfschützen-Kopfschuss",
          "originalText": "Taliban-Scharfschützen-Kopfschuss",
          "characterOffsetBegin": 24,
          "characterOffsetEnd": 57,
          "pos": "NN",
          "before": " ",
          "after": " "
        },
        {
          "index": 6,
          "word": "in",
          "originalText": "in",
          "characterOffsetBegin": 58,
          "characterOffsetEnd": 60,
          "pos": "APPR",
          "before": " ",
          "after": " "
        },
        {
          "index": 7,
          "word": "Afghanistan",
          "originalText": "Afghanistan",
          "characterOffsetBegin": 61,
          "characterOffsetEnd": 72,
          "pos": "NE",
          "before": " ",
          "after": ""
        }
      ]
    }
  ]
}