{
  "sentences": [
    {
      "index": 0,
      "basicDependencies": [
        {
          "dep": "ROOT",
          "governor": 0,
          "governorGloss": "ROOT",
          "dependent": 1,
          "dependentGloss": "Ist"
        },
        {
          "dep": "name",
          "governor": 3,
          "governorGloss": "Jong-Uns",
          "dependent": 2,
          "dependentGloss": "Kim"
        },
        {
          "dep": "appos",
          "governor": 1,
          "governorGloss": "Ist",
          "dependent": 3,
          "dependentGloss": "Jong-Uns"
        },
        {
          "dep": "appos",
          "governor": 3,
          "governorGloss": "Jong-Uns",
          "dependent": 4,
          "dependentGloss": "Schwester"
        },
        {
          "dep": "advmod",
          "governor": 4,
          "governorGloss": "Schwester",
          "dependent": 5,
          "dependentGloss": "jetzt"
        },
        {
          "dep": "det",
          "governor": 7,
          "governorGloss": "Macht",
          "dependent": 6,
          "dependentGloss": "die"
        },
        {
          "dep": "dobj",
          "governor": 5,
          "governorGloss": "jetzt",
          "dependent": 7,
          "dependentGloss": "Macht"
        },
        {
          "dep": "case",
          "governor": 11,
          "governorGloss": "Thron",
          "dependent": 8,
          "dependentGloss": "hinter"
        },
        {
          "dep": "det",
          "governor": 11,
          "governorGloss": "Thron",
          "dependent": 9,
          "dependentGloss": "dem"
        },
        {
          "dep": "amod",
          "governor": 11,
          "governorGloss": "Thron",
          "dependent": 10,
          "dependentGloss": "nordkoreanischen"
        },
        {
          "dep": "nmod",
          "governor": 7,
          "governorGloss": "Macht",
          "dependent": 11,
          "dependentGloss": "Thron"
        },
        {
          "dep": "punct",
          "governor": 3,
          "governorGloss": "Jong-Uns",
          "dependent": 12,
          "dependentGloss": "?"
        }
      ],
      "enhancedDependencies": [
        {
          "dep": "ROOT",
          "governor": 0,
          "governorGloss": "ROOT",
          "dependent": 1,
          "dependentGloss": "Ist"
        },
        {
          "dep": "name",
          "governor": 3,
          "governorGloss": "Jong-Uns",
          "dependent": 2,
          "dependentGloss": "Kim"
        },
        {
          "dep": "appos",
          "governor": 1,
          "governorGloss": "Ist",
          "dependent": 3,
          "dependentGloss": "Jong-Uns"
        },
        {
          "dep": "appos",
          "governor": 3,
          "governorGloss": "Jong-Uns",
          "dependent": 4,
          "dependentGloss": "Schwester"
        },
        {
          "dep": "advmod",
          "governor": 4,
          "governorGloss": "Schwester",
          "dependent": 5,
          "dependentGloss": "jetzt"
        },
        {
          "dep": "det",
          "governor": 7,
          "governorGloss": "Macht",
          "dependent": 6,
          "dependentGloss": "die"
        },
        {
          "dep": "dobj",
          "governor": 5,
          "governorGloss": "jetzt",
          "dependent": 7,
          "dependentGloss": "Macht"
        },
        {
          "dep": "case",
          "governor": 11,
          "governorGloss": "Thron",
          "dependent": 8,
          "dependentGloss": "hinter"
        },
        {
          "dep": "det",
          "governor": 11,
          "governorGloss": "Thron",
          "dependent": 9,
          "dependentGloss": "dem"
        },
        {
          "dep": "amod",
          "governor": 11,
          "governorGloss": "Thron",
          "dependent": 10,
          "dependentGloss": "nordkoreanischen"
        },
        {
          "dep": "nmod",
          "governor": 7,
          "governorGloss": "Macht",
          "dependent": 11,
          "dependentGloss": "Thron"
        },
        {
          "dep": "punct",
          "governor": 3,
          "governorGloss": "Jong-Uns",
          "dependent": 12,
          "dependentGloss": "?"
        }
      ],
      "enhancedPlusPlusDependencies": [
        {
          "dep": "ROOT",
          "governor": 0,
          "governorGloss": "ROOT",
          "dependent": 1,
          "dependentGloss": "Ist"
        },
        {
          "dep": "name",
          "governor": 3,
          "governorGloss": "Jong-Uns",
          "dependent": 2,
          "dependentGloss": "Kim"
        },
        {
          "dep": "appos",
          "governor": 1,
          "governorGloss": "Ist",
          "dependent": 3,
          "dependentGloss": "Jong-Uns"
        },
        {
          "dep": "appos",
          "governor": 3,
          "governorGloss": "Jong-Uns",
          "dependent": 4,
          "dependentGloss": "Schwester"
        },
        {
          "dep": "advmod",
          "governor": 4,
          "governorGloss": "Schwester",
          "dependent": 5,
          "dependentGloss": "jetzt"
        },
        {
          "dep": "det",
          "governor": 7,
          "governorGloss": "Macht",
          "dependent": 6,
          "dependentGloss": "die"
        },
        {
          "dep": "dobj",
          "governor": 5,
          "governorGloss": "jetzt",
          "dependent": 7,
          "dependentGloss": "Macht"
        },
        {
          "dep": "case",
          "governor": 11,
          "governorGloss": "Thron",
          "dependent": 8,
          "dependentGloss": "hinter"
        },
        {
          "dep": "det",
          "governor": 11,
          "governorGloss": "Thron",
          "dependent": 9,
          "dependentGloss": "dem"
        },
        {
          "dep": "amod",
          "governor": 11,
          "governorGloss": "Thron",
          "dependent": 10,
          "dependentGloss": "nordkoreanischen"
        },
        {
          "dep": "nmod",
          "governor": 7,
          "governorGloss": "Macht",
          "dependent": 11,
          "dependentGloss": "Thron"
        },
        {
          "dep": "punct",
          "governor": 3,
          "governorGloss": "Jong-Uns",
          "dependent": 12,
          "dependentGloss": "?"
        }
      ],
      "tokens": [
        {
          "index": 1,
          "word": "Ist",
          "originalText": "Ist",
          "characterOffsetBegin": 0,
          "characterOffsetEnd": 3,
          "pos": "VAFIN",
          "before": "",
          "after": " "
        },
        {
          "index": 2,
          "word": "Kim",
          "originalText": "Kim",
          "characterOffsetBegin": 4,
          "characterOffsetEnd": 7,
          "pos": "NE",
          "before": " ",
          "after": " "
        },
        {
          "index": 3,
          "word": "Jong-Uns",
          "originalText": "Jong-Uns",
          "characterOffsetBegin": 8,
          "characterOffsetEnd": 16,
          "pos": "NE",
          "before": " ",
          "after": " "
        },
        {
          "index": 4,
          "word": "Schwester",
          "originalText": "Schwester",
          "characterOffsetBegin": 17,
          "characterOffsetEnd": 26,
          "pos": "NN",
          "before": " ",
          "after": " "
        },
        {
          "index": 5,
          "word": "jetzt",
          "originalText": "jetzt",
          "characterOffsetBegin": 27,
          "characterOffsetEnd": 32,
          "pos": "ADV",
          "before": " ",
          "after": " "
        },
        {
          "index": 6,
          "word": "die",
          "originalText": "die",
          "characterOffsetBegin": 33,
          "characterOffsetEnd": 36,
          "pos": "ART",
          "before": " ",
          "after": " "
        },
        {
          "index": 7,
          "word": "Macht",
          "originalText": "Macht",
          "characterOffsetBegin": 37,
          "characterOffsetEnd": 42,
          "pos": "NN",
          "before": " ",
          "after": " "
        },
        {
          "index": 8,
          "word": "hinter",
          "originalText": "hinter",
          "characterOffsetBegin": 43,
          "characterOffsetEnd": 49,
          "pos": "APPR",
          "before": " ",
          "after": " "
        },
        {
          "index": 9,
          "word": "dem",
          "originalText": "dem",
          "characterOffsetBegin": 50,
          "characterOffsetEnd": 53,
          "pos": "ART",
          "before": " ",
          "after": " "
        },
        {
          "index": 10,
          "word": "nordkoreanischen",
          "originalText": "nordkoreanischen",
          "characterOffsetBegin": 54,
          "characterOffsetEnd": 70,
          "pos": "ADJA",
          "before": " ",
          "after": " "
        },
        {
          "index": 11,
          "word": "Thron",
          "originalText": "Thron",
          "characterOffsetBegin": 71,
          "characterOffsetEnd": 76,
          "pos": "NN",
          "before": " ",
          "after": ""
        },
        {
          "index": 12,
          "word": "?",
          "originalText": "?",
          "characterOffsetBegin": 76,
          "characterOffsetEnd": 77,
          "pos": "$.",
          "before": "",
          "after": ""
        }
      ]
    }
  ]
}