{
  "sentences": [
    {
      "index": 0,
      "basicDependencies": [
        {
          "dep": "ROOT",
          "governor": 0,
          "governorGloss": "ROOT",
          "dependent": 2,
          "dependentGloss": "Brokaw"
        },
        {
          "dep": "name",
          "governor": 2,
          "governorGloss": "Brokaw",
          "dependent": 1,
          "dependentGloss": "Tom"
        },
        {
          "dep": "dep",
          "governor": 2,
          "governorGloss": "Brokaw",
          "dependent": 3,
          "dependentGloss": "`"
        },
        {
          "dep": "aux",
          "governor": 11,
          "governorGloss": "Legende",
          "dependent": 4,
          "dependentGloss": "will"
        },
        {
          "dep": "name",
          "governor": 6,
          "governorGloss": "Williams",
          "dependent": 5,
          "dependentGloss": "Brian"
        },
        {
          "dep": "nsubj",
          "governor": 11,
          "governorGloss": "Legende",
          "dependent": 6,
          "dependentGloss": "Williams"
        },
        {
          "dep": "case",
          "governor": 10,
          "governorGloss": "NBC",
          "dependent": 7,
          "dependentGloss": "aus"
        },
        {
          "dep": "punct",
          "governor": 10,
          "governorGloss": "NBC",
          "dependent": 8,
          "dependentGloss": "'"
        },
        {
          "dep": "punct",
          "governor": 10,
          "governorGloss": "NBC",
          "dependent": 9,
          "dependentGloss": ":"
        },
        {
          "dep": "nmod",
          "governor": 11,
          "governorGloss": "Legende",
          "dependent": 10,
          "dependentGloss": "NBC"
        },
        {
          "dep": "acl",
          "governor": 3,
          "governorGloss": "`",
          "dependent": 11,
          "dependentGloss": "Legende"
        },
        {
          "dep": "dobj",
          "governor": 11,
          "governorGloss": "Legende",
          "dependent": 12,
          "dependentGloss": "`"
        },
        {
          "dep": "det",
          "governor": 15,
          "governorGloss": "im",
          "dependent": 13,
          "dependentGloss": "wütend"
        },
        {
          "dep": "case",
          "governor": 13,
          "governorGloss": "wütend",
          "dependent": 14,
          "dependentGloss": "'"
        },
        {
          "dep": "dobj",
          "governor": 12,
          "governorGloss": "`",
          "dependent": 15,
          "dependentGloss": "im"
        },
        {
          "dep": "name",
          "governor": 18,
          "governorGloss": "Lüge",
          "dependent": 16,
          "dependentGloss": "Irak"
        },
        {
          "dep": "name",
          "governor": 18,
          "governorGloss": "Lüge",
          "dependent": 17,
          "dependentGloss": "Krieg"
        },
        {
          "dep": "appos",
          "governor": 15,
          "governorGloss": "im",
          "dependent": 18,
          "dependentGloss": "Lüge"
        },
        {
          "dep": "punct",
          "governor": 15,
          "governorGloss": "im",
          "dependent": 19,
          "dependentGloss": ","
        },
        {
          "dep": "case",
          "governor": 22,
          "governorGloss": "behauptet",
          "dependent": 20,
          "dependentGloss": "wie"
        },
        {
          "dep": "expl",
          "governor": 22,
          "governorGloss": "behauptet",
          "dependent": 21,
          "dependentGloss": "es"
        },
        {
          "dep": "advcl",
          "governor": 15,
          "governorGloss": "im",
          "dependent": 22,
          "dependentGloss": "behauptet"
        },
        {
          "dep": "amod",
          "governor": 24,
          "governorGloss": "warnte",
          "dependent": 23,
          "dependentGloss": "Führungskräfte"
        },
        {
          "dep": "det",
          "governor": 22,
          "governorGloss": "behauptet",
          "dependent": 24,
          "dependentGloss": "warnte"
        },
        {
          "dep": "dobj",
          "governor": 27,
          "governorGloss": "stoppen",
          "dependent": 25,
          "dependentGloss": "Anker"
        },
        {
          "dep": "aux",
          "governor": 27,
          "governorGloss": "stoppen",
          "dependent": 26,
          "dependentGloss": "zu"
        },
        {
          "dep": "acl",
          "governor": 24,
          "governorGloss": "warnte",
          "dependent": 27,
          "dependentGloss": "stoppen"
        },
        {
          "dep": "appos",
          "governor": 27,
          "governorGloss": "stoppen",
          "dependent": 28,
          "dependentGloss": "übertreiben"
        },
        {
          "dep": "det",
          "governor": 30,
          "governorGloss": "Geschichte",
          "dependent": 29,
          "dependentGloss": "die"
        },
        {
          "dep": "dobj",
          "governor": 28,
          "governorGloss": "übertreiben",
          "dependent": 30,
          "dependentGloss": "Geschichte"
        },
        {
          "dep": "case",
          "governor": 33,
          "governorGloss": "Vergangenheit",
          "dependent": 31,
          "dependentGloss": "in"
        },
        {
          "dep": "det",
          "governor": 33,
          "governorGloss": "Vergangenheit",
          "dependent": 32,
          "dependentGloss": "der"
        },
        {
          "dep": "nmod",
          "governor": 30,
          "governorGloss": "Geschichte",
          "dependent": 33,
          "dependentGloss": "Vergangenheit"
        }
      ],
      "enhancedDependencies": [
        {
          "dep": "ROOT",
          "governor": 0,
          "governorGloss": "ROOT",
          "dependent": 2,
          "dependentGloss": "Brokaw"
        },
        {
          "dep": "name",
          "governor": 2,
          "governorGloss": "Brokaw",
          "dependent": 1,
          "dependentGloss": "Tom"
        },
        {
          "dep": "dep",
          "governor": 2,
          "governorGloss": "Brokaw",
          "dependent": 3,
          "dependentGloss": "`"
        },
        {
          "dep": "aux",
          "governor": 11,
          "governorGloss": "Legende",
          "dependent": 4,
          "dependentGloss": "will"
        },
        {
          "dep": "name",
          "governor": 6,
          "governorGloss": "Williams",
          "dependent": 5,
          "dependentGloss": "Brian"
        },
        {
          "dep": "nsubj",
          "governor": 11,
          "governorGloss": "Legende",
          "dependent": 6,
          "dependentGloss": "Williams"
        },
        {
          "dep": "case",
          "governor": 10,
          "governorGloss": "NBC",
          "dependent": 7,
          "dependentGloss": "aus"
        },
        {
          "dep": "punct",
          "governor": 10,
          "governorGloss": "NBC",
          "dependent": 8,
          "dependentGloss": "'"
        },
        {
          "dep": "punct",
          "governor": 10,
          "governorGloss": "NBC",
          "dependent": 9,
          "dependentGloss": ":"
        },
        {
          "dep": "nmod",
          "governor": 11,
          "governorGloss": "Legende",
          "dependent": 10,
          "dependentGloss": "NBC"
        },
        {
          "dep": "acl",
          "governor": 3,
          "governorGloss": "`",
          "dependent": 11,
          "dependentGloss": "Legende"
        },
        {
          "dep": "dobj",
          "governor": 11,
          "governorGloss": "Legende",
          "dependent": 12,
          "dependentGloss": "`"
        },
        {
          "dep": "det",
          "governor": 15,
          "governorGloss": "im",
          "dependent": 13,
          "dependentGloss": "wütend"
        },
        {
          "dep": "case",
          "governor": 13,
          "governorGloss": "wütend",
          "dependent": 14,
          "dependentGloss": "'"
        },
        {
          "dep": "dobj",
          "governor": 12,
          "governorGloss": "`",
          "dependent": 15,
          "dependentGloss": "im"
        },
        {
          "dep": "name",
          "governor": 18,
          "governorGloss": "Lüge",
          "dependent": 16,
          "dependentGloss": "Irak"
        },
        {
          "dep": "name",
          "governor": 18,
          "governorGloss": "Lüge",
          "dependent": 17,
          "dependentGloss": "Krieg"
        },
        {
          "dep": "appos",
          "governor": 15,
          "governorGloss": "im",
          "dependent": 18,
          "dependentGloss": "Lüge"
        },
        {
          "dep": "punct",
          "governor": 15,
          "governorGloss": "im",
          "dependent": 19,
          "dependentGloss": ","
        },
        {
          "dep": "case",
          "governor": 22,
          "governorGloss": "behauptet",
          "dependent": 20,
          "dependentGloss": "wie"
        },
        {
          "dep": "expl",
          "governor": 22,
          "governorGloss": "behauptet",
          "dependent": 21,
          "dependentGloss": "es"
        },
        {
          "dep": "advcl",
          "governor": 15,
          "governorGloss": "im",
          "dependent": 22,
          "dependentGloss": "behauptet"
        },
        {
          "dep": "amod",
          "governor": 24,
          "governorGloss": "warnte",
          "dependent": 23,
          "dependentGloss": "Führungskräfte"
        },
        {
          "dep": "det",
          "governor": 22,
          "governorGloss": "behauptet",
          "dependent": 24,
          "dependentGloss": "warnte"
        },
        {
          "dep": "dobj",
          "governor": 27,
          "governorGloss": "stoppen",
          "dependent": 25,
          "dependentGloss": "Anker"
        },
        {
          "dep": "aux",
          "governor": 27,
          "governorGloss": "stoppen",
          "dependent": 26,
          "dependentGloss": "zu"
        },
        {
          "dep": "acl",
          "governor": 24,
          "governorGloss": "warnte",
          "dependent": 27,
          "dependentGloss": "stoppen"
        },
        {
          "dep": "appos",
          "governor": 27,
          "governorGloss": "stoppen",
          "dependent": 28,
          "dependentGloss": "übertreiben"
        },
        {
          "dep": "det",
          "governor": 30,
          "governorGloss": "Geschichte",
          "dependent": 29,
          "dependentGloss": "die"
        },
        {
          "dep": "dobj",
          "governor": 28,
          "governorGloss": "übertreiben",
          "dependent": 30,
          "dependentGloss": "Geschichte"
        },
        {
          "dep": "case",
          "governor": 33,
          "governorGloss": "Vergangenheit",
          "dependent": 31,
          "dependentGloss": "in"
        },
        {
          "dep": "det",
          "governor": 33,
          "governorGloss": "Vergangenheit",
          "dependent": 32,
          "dependentGloss": "der"
        },
        {
          "dep": "nmod",
          "governor": 30,
          "governorGloss": "Geschichte",
          "dependent": 33,
          "dependentGloss": "Vergangenheit"
        }
      ],
      "enhancedPlusPlusDependencies": [
        {
          "dep": "ROOT",
          "governor": 0,
          "governorGloss": "ROOT",
          "dependent": 2,
          "dependentGloss": "Brokaw"
        },
        {
          "dep": "name",
          "governor": 2,
          "governorGloss": "Brokaw",
          "dependent": 1,
          "dependentGloss": "Tom"
        },
        {
          "dep": "dep",
          "governor": 2,
          "governorGloss": "Brokaw",
          "dependent": 3,
          "dependentGloss": "`"
        },
        {
          "dep": "aux",
          "governor": 11,
          "governorGloss": "Legende",
          "dependent": 4,
          "dependentGloss": "will"
        },
        {
          "dep": "name",
          "governor": 6,
          "governorGloss": "Williams",
          "dependent": 5,
          "dependentGloss": "Brian"
        },
        {
          "dep": "nsubj",
          "governor": 11,
          "governorGloss": "Legende",
          "dependent": 6,
          "dependentGloss": "Williams"
        },
        {
          "dep": "case",
          "governor": 10,
          "governorGloss": "NBC",
          "dependent": 7,
          "dependentGloss": "aus"
        },
        {
          "dep": "punct",
          "governor": 10,
          "governorGloss": "NBC",
          "dependent": 8,
          "dependentGloss": "'"
        },
        {
          "dep": "punct",
          "governor": 10,
          "governorGloss": "NBC",
          "dependent": 9,
          "dependentGloss": ":"
        },
        {
          "dep": "nmod",
          "governor": 11,
          "governorGloss": "Legende",
          "dependent": 10,
          "dependentGloss": "NBC"
        },
        {
          "dep": "acl",
          "governor": 3,
          "governorGloss": "`",
          "dependent": 11,
          "dependentGloss": "Legende"
        },
        {
          "dep": "dobj",
          "governor": 11,
          "governorGloss": "Legende",
          "dependent": 12,
          "dependentGloss": "`"
        },
        {
          "dep": "det",
          "governor": 15,
          "governorGloss": "im",
          "dependent": 13,
          "dependentGloss": "wütend"
        },
        {
          "dep": "case",
          "governor": 13,
          "governorGloss": "wütend",
          "dependent": 14,
          "dependentGloss": "'"
        },
        {
          "dep": "dobj",
          "governor": 12,
          "governorGloss": "`",
          "dependent": 15,
          "dependentGloss": "im"
        },
        {
          "dep": "name",
          "governor": 18,
          "governorGloss": "Lüge",
          "dependent": 16,
          "dependentGloss": "Irak"
        },
        {
          "dep": "name",
          "governor": 18,
          "governorGloss": "Lüge",
          "dependent": 17,
          "dependentGloss": "Krieg"
        },
        {
          "dep": "appos",
          "governor": 15,
          "governorGloss": "im",
          "dependent": 18,
          "dependentGloss": "Lüge"
        },
        {
          "dep": "punct",
          "governor": 15,
          "governorGloss": "im",
          "dependent": 19,
          "dependentGloss": ","
        },
        {
          "dep": "case",
          "governor": 22,
          "governorGloss": "behauptet",
          "dependent": 20,
          "dependentGloss": "wie"
        },
        {
          "dep": "expl",
          "governor": 22,
          "governorGloss": "behauptet",
          "dependent": 21,
          "dependentGloss": "es"
        },
        {
          "dep": "advcl",
          "governor": 15,
          "governorGloss": "im",
          "dependent": 22,
          "dependentGloss": "behauptet"
        },
        {
          "dep": "amod",
          "governor": 24,
          "governorGloss": "warnte",
          "dependent": 23,
          "dependentGloss": "Führungskräfte"
        },
        {
          "dep": "det",
          "governor": 22,
          "governorGloss": "behauptet",
          "dependent": 24,
          "dependentGloss": "warnte"
        },
        {
          "dep": "dobj",
          "governor": 27,
          "governorGloss": "stoppen",
          "dependent": 25,
          "dependentGloss": "Anker"
        },
        {
          "dep": "aux",
          "governor": 27,
          "governorGloss": "stoppen",
          "dependent": 26,
          "dependentGloss": "zu"
        },
        {
          "dep": "acl",
          "governor": 24,
          "governorGloss": "warnte",
          "dependent": 27,
          "dependentGloss": "stoppen"
        },
        {
          "dep": "appos",
          "governor": 27,
          "governorGloss": "stoppen",
          "dependent": 28,
          "dependentGloss": "übertreiben"
        },
        {
          "dep": "det",
          "governor": 30,
          "governorGloss": "Geschichte",
          "dependent": 29,
          "dependentGloss": "die"
        },
        {
          "dep": "dobj",
          "governor": 28,
          "governorGloss": "übertreiben",
          "dependent": 30,
          "dependentGloss": "Geschichte"
        },
        {
          "dep": "case",
          "governor": 33,
          "governorGloss": "Vergangenheit",
          "dependent": 31,
          "dependentGloss": "in"
        },
        {
          "dep": "det",
          "governor": 33,
          "governorGloss": "Vergangenheit",
          "dependent": 32,
          "dependentGloss": "der"
        },
        {
          "dep": "nmod",
          "governor": 30,
          "governorGloss": "Geschichte",
          "dependent": 33,
          "dependentGloss": "Vergangenheit"
        }
      ],
      "tokens": [
        {
          "index": 1,
          "word": "Tom",
          "originalText": "Tom",
          "characterOffsetBegin": 0,
          "characterOffsetEnd": 3,
          "pos": "NE",
          "before": "",
          "after": " "
        },
        {
          "index": 2,
          "word": "Brokaw",
          "originalText": "Brokaw",
          "characterOffsetBegin": 4,
          "characterOffsetEnd": 10,
          "pos": "NE",
          "before": " ",
          "after": " "
        },
        {
          "index": 3,
          "word": "`",
          "originalText": "'",
          "characterOffsetBegin": 11,
          "characterOffsetEnd": 12,
          "pos": "VVFIN",
          "before": " ",
          "after": ""
        },
        {
          "index": 4,
          "word": "will",
          "originalText": "will",
          "characterOffsetBegin": 12,
          "characterOffsetEnd": 16,
          "pos": "VMFIN",
          "before": "",
          "after": " "
        },
        {
          "index": 5,
          "word": "Brian",
          "originalText": "Brian",
          "characterOffsetBegin": 17,
          "characterOffsetEnd": 22,
          "pos": "NE",
          "before": " ",
          "after": " "
        },
        {
          "index": 6,
          "word": "Williams",
          "originalText": "Williams",
          "characterOffsetBegin": 23,
          "characterOffsetEnd": 31,
          "pos": "NE",
          "before": " ",
          "after": " "
        },
        {
          "index": 7,
          "word": "aus",
          "originalText": "aus",
          "characterOffsetBegin": 32,
          "characterOffsetEnd": 35,
          "pos": "APPR",
          "before": " ",
          "after": ""
        },
        {
          "index": 8,
          "word": "'",
          "originalText": "'",
          "characterOffsetBegin": 35,
          "characterOffsetEnd": 36,
          "pos": "$[",
          "before": "",
          "after": ""
        },
        {
          "index": 9,
          "word": ":",
          "originalText": ":",
          "characterOffsetBegin": 36,
          "characterOffsetEnd": 37,
          "pos": "$.",
          "before": "",
          "after": " "
        },
        {
          "index": 10,
          "word": "NBC",
          "originalText": "NBC",
          "characterOffsetBegin": 38,
          "characterOffsetEnd": 41,
          "pos": "NE",
          "before": " ",
          "after": " "
        },
        {
          "index": 11,
          "word": "Legende",
          "originalText": "Legende",
          "characterOffsetBegin": 42,
          "characterOffsetEnd": 49,
          "pos": "NN",
          "before": " ",
          "after": " "
        },
        {
          "index": 12,
          "word": "`",
          "originalText": "'",
          "characterOffsetBegin": 50,
          "characterOffsetEnd": 51,
          "pos": "CARD",
          "before": " ",
          "after": ""
        },
        {
          "index": 13,
          "word": "wütend",
          "originalText": "wütend",
          "characterOffsetBegin": 51,
          "characterOffsetEnd": 57,
          "pos": "ADJD",
          "before": "",
          "after": ""
        },
        {
          "index": 14,
          "word": "'",
          "originalText": "'",
          "characterOffsetBegin": 57,
          "characterOffsetEnd": 58,
          "pos": "$[",
          "before": "",
          "after": " "
        },
        {
          "index": 15,
          "word": "im",
          "originalText": "im",
          "characterOffsetBegin": 59,
          "characterOffsetEnd": 61,
          "pos": "APPRART",
          "before": " ",
          "after": " "
        },
        {
          "index": 16,
          "word": "Irak",
          "originalText": "Irak",
          "characterOffsetBegin": 62,
          "characterOffsetEnd": 66,
          "pos": "NE",
          "before": " ",
          "after": " "
        },
        {
          "index": 17,
          "word": "Krieg",
          "originalText": "Krieg",
          "characterOffsetBegin": 67,
          "characterOffsetEnd": 72,
          "pos": "NN",
          "before": " ",
          "after": " "
        },
        {
          "index": 18,
          "word": "Lüge",
          "originalText": "Lüge",
          "characterOffsetBegin": 73,
          "characterOffsetEnd": 77,
          "pos": "NE",
          "before": " ",
          "after": ""
        },
        {
          "index": 19,
          "word": ",",
          "originalText": ",",
          "characterOffsetBegin": 77,
          "characterOffsetEnd": 78,
          "pos": "$,",
          "before": "",
          "after": " "
        },
        {
          "index": 20,
          "word": "wie",
          "originalText": "wie",
          "characterOffsetBegin": 79,
          "characterOffsetEnd": 82,
          "pos": "PWAV",
          "before": " ",
          "after": " "
        },
        {
          "index": 21,
          "word": "es",
          "originalText": "es",
          "characterOffsetBegin": 83,
          "characterOffsetEnd": 85,
          "pos": "PPER",
          "before": " ",
          "after": " "
        },
        {
          "index": 22,
          "word": "behauptet",
          "originalText": "behauptet",
          "characterOffsetBegin": 86,
          "characterOffsetEnd": 95,
          "pos": "VVFIN",
          "before": " ",
          "after": " "
        },
        {
          "index": 23,
          "word": "Führungskräfte",
          "originalText": "Führungskräfte",
          "characterOffsetBegin": 96,
          "characterOffsetEnd": 110,
          "pos": "NN",
          "before": " ",
          "after": " "
        },
        {
          "index": 24,
          "word": "warnte",
          "originalText": "warnte",
          "characterOffsetBegin": 111,
          "characterOffsetEnd": 117,
          "pos": "VVFIN",
          "before": " ",
          "after": " "
        },
        {
          "index": 25,
          "word": "Anker",
          "originalText": "Anker",
          "characterOffsetBegin": 118,
          "characterOffsetEnd": 123,
          "pos": "NN",
          "before": " ",
          "after": " "
        },
        {
          "index": 26,
          "word": "zu",
          "originalText": "zu",
          "characterOffsetBegin": 124,
          "characterOffsetEnd": 126,
          "pos": "PTKZU",
          "before": " ",
          "after": " "
        },
        {
          "index": 27,
          "word": "stoppen",
          "originalText": "stoppen",
          "characterOffsetBegin": 127,
          "characterOffsetEnd": 134,
          "pos": "VVINF",
          "before": " ",
          "after": " "
        },
        {
          "index": 28,
          "word": "übertreiben",
          "originalText": "übertreiben",
          "characterOffsetBegin": 135,
          "characterOffsetEnd": 146,
          "pos": "VVFIN",
          "before": " ",
          "after": " "
        },
        {
          "index": 29,
          "word": "die",
          "originalText": "die",
          "characterOffsetBegin": 147,
          "characterOffsetEnd": 150,
          "pos": "ART",
          "before": " ",
          "after": " "
        },
        {
          "index": 30,
          "word": "Geschichte",
          "originalText": "Geschichte",
          "characterOffsetBegin": 151,
          "characterOffsetEnd": 161,
          "pos": "NN",
          "before": " ",
          "after": " "
        },
        {
          "index": 31,
          "word": "in",
          "originalText": "in",
          "characterOffsetBegin": 162,
          "characterOffsetEnd": 164,
          "pos": "APPR",
          "before": " ",
          "after": " "
        },
        {
          "index": 32,
          "word": "der",
          "originalText": "der",
          "characterOffsetBegin": 165,
          "characterOffsetEnd": 168,
          "pos": "ART",
          "before": " ",
          "after": " "
        },
        {
          "index": 33,
          "word": "Vergangenheit",
          "originalText": "Vergangenheit",
          "characterOffsetBegin": 169,
          "characterOffsetEnd": 182,
          "pos": "NN",
          "before": " ",
          "after": ""
        }
      ]
    }
  ]
}