{
  "sentences": [
    {
      "index": 0,
      "basicDependencies": [
        {
          "dep": "ROOT",
          "governor": 0,
          "governorGloss": "ROOT",
          "dependent": 4,
          "dependentGloss": "gestohlen"
        },
        {
          "dep": "advmod",
          "governor": 4,
          "governorGloss": "gestohlen",
          "dependent": 1,
          "dependentGloss": "Batmobile"
        },
        {
          "dep": "case",
          "governor": 3,
          "governorGloss": "Detroit",
          "dependent": 2,
          "dependentGloss": "in"
        },
        {
          "dep": "nmod",
          "governor": 4,
          "governorGloss": "gestohlen",
          "dependent": 3,
          "dependentGloss": "Detroit"
        },
        {
          "dep": "punct",
          "governor": 4,
          "governorGloss": "gestohlen",
          "dependent": 5,
          "dependentGloss": "?"
        }
      ],
      "enhancedDependencies": [
        {
          "dep": "ROOT",
          "governor": 0,
          "governorGloss": "ROOT",
          "dependent": 4,
          "dependentGloss": "gestohlen"
        },
        {
          "dep": "advmod",
          "governor": 4,
          "governorGloss": "gestohlen",
          "dependent": 1,
          "dependentGloss": "Batmobile"
        },
        {
          "dep": "case",
          "governor": 3,
          "governorGloss": "Detroit",
          "dependent": 2,
          "dependentGloss": "in"
        },
        {
          "dep": "nmod",
          "governor": 4,
          "governorGloss": "gestohlen",
          "dependent": 3,
          "dependentGloss": "Detroit"
        },
        {
          "dep": "punct",
          "governor": 4,
          "governorGloss": "gestohlen",
          "dependent": 5,
          "dependentGloss": "?"
        }
      ],
      "enhancedPlusPlusDependencies": [
        {
          "dep": "ROOT",
          "governor": 0,
          "governorGloss": "ROOT",
          "dependent": 4,
          "dependentGloss": "gestohlen"
        },
        {
          "dep": "advmod",
          "governor": 4,
          "governorGloss": "gestohlen",
          "dependent": 1,
          "dependentGloss": "Batmobile"
        },
        {
          "dep": "case",
          "governor": 3,
          "governorGloss": "Detroit",
          "dependent": 2,
          "dependentGloss": "in"
        },
        {
          "dep": "nmod",
          "governor": 4,
          "governorGloss": "gestohlen",
          "dependent": 3,
          "dependentGloss": "Detroit"
        },
        {
          "dep": "punct",
          "governor": 4,
          "governorGloss": "gestohlen",
          "dependent": 5,
          "dependentGloss": "?"
        }
      ],
      "tokens": [
        {
          "index": 1,
          "word": "Batmobile",
          "originalText": "Batmobile",
          "characterOffsetBegin": 0,
          "characterOffsetEnd": 9,
          "pos": "NN",
          "before": "",
          "after": " "
        },
        {
          "index": 2,
          "word": "in",
          "originalText": "in",
          "characterOffsetBegin": 10,
          "characterOffsetEnd": 12,
          "pos": "APPR",
          "before": " ",
          "after": " "
        },
        {
          "index": 3,
          "word": "Detroit",
          "originalText": "Detroit",
          "characterOffsetBegin": 13,
          "characterOffsetEnd": 20,
          "pos": "NE",
          "before": " ",
          "after": " "
        },
        {
          "index": 4,
          "word": "gestohlen",
          "originalText": "gestohlen",
          "characterOffsetBegin": 21,
          "characterOffsetEnd": 30,
          "pos": "VVPP",
          "before": " ",
          "after": ""
        },
        {
          "index": 5,
          "word": "?",
          "originalText": "?",
          "characterOffsetBegin": 30,
          "characterOffsetEnd": 31,
          "pos": "$.",
          "before": "",
          "after": " "
        }
      ]
    },
    {
      "index": 1,
      "basicDependencies": [
        {
          "dep": "ROOT",
          "governor": 0,
          "governorGloss": "ROOT",
          "dependent": 1,
          "dependentGloss": "Gute"
        },
        {
          "dep": "punct",
          "governor": 1,
          "governorGloss": "Gute",
          "dependent": 2,
          "dependentGloss": ","
        },
        {
          "dep": "conj",
          "governor": 1,
          "governorGloss": "Gute",
          "dependent": 3,
          "dependentGloss": "Joker"
        },
        {
          "dep": "punct",
          "governor": 1,
          "governorGloss": "Gute",
          "dependent": 4,
          "dependentGloss": "!"
        }
      ],
      "enhancedDependencies": [
        {
          "dep": "ROOT",
          "governor": 0,
          "governorGloss": "ROOT",
          "dependent": 1,
          "dependentGloss": "Gute"
        },
        {
          "dep": "punct",
          "governor": 1,
          "governorGloss": "Gute",
          "dependent": 2,
          "dependentGloss": ","
        },
        {
          "dep": "conj",
          "governor": 1,
          "governorGloss": "Gute",
          "dependent": 3,
          "dependentGloss": "Joker"
        },
        {
          "dep": "punct",
          "governor": 1,
          "governorGloss": "Gute",
          "dependent": 4,
          "dependentGloss": "!"
        }
      ],
      "enhancedPlusPlusDependencies": [
        {
          "dep": "ROOT",
          "governor": 0,
          "governorGloss": "ROOT",
          "dependent": 1,
          "dependentGloss": "Gute"
        },
        {
          "dep": "punct",
          "governor": 1,
          "governorGloss": "Gute",
          "dependent": 2,
          "dependentGloss": ","
        },
        {
          "dep": "conj",
          "governor": 1,
          "governorGloss": "Gute",
          "dependent": 3,
          "dependentGloss": "Joker"
        },
        {
          "dep": "punct",
          "governor": 1,
          "governorGloss": "Gute",
          "dependent": 4,
          "dependentGloss": "!"
        }
      ],
      "tokens": [
        {
          "index": 1,
          "word": "Gute",
          "originalText": "Gute",
          "characterOffsetBegin": 32,
          "characterOffsetEnd": 36,
          "pos": "ADJA",
          "before": " ",
          "after": ""
        },
        {
          "index": 2,
          "word": ",",
          "originalText": ",",
          "characterOffsetBegin": 36,
          "characterOffsetEnd": 37,
          "pos": "$,",
          "before": "",
          "after": " "
        },
        {
          "index": 3,
          "word": "Joker",
          "originalText": "Joker",
          "characterOffsetBegin": 38,
          "characterOffsetEnd": 43,
          "pos": "NN",
          "before": " ",
          "after": ""
        },
        {
          "index": 4,
          "word": "!",
          "originalText": "!",
          "characterOffsetBegin": 43,
          "characterOffsetEnd": 44,
          "pos": "$.",
          "before": "",
          "after": ""
        }
      ]
    }
  ]
}