{
  "sentences": [
    {
      "index": 0,
      "basicDependencies": [
        {
          "dep": "ROOT",
          "governor": 0,
          "governorGloss": "ROOT",
          "dependent": 2,
          "dependentGloss": "Jong-Un"
        },
        {
          "dep": "name",
          "governor": 2,
          "governorGloss": "Jong-Un",
          "dependent": 1,
          "dependentGloss": "Kim"
        },
        {
          "dep": "punct",
          "governor": 2,
          "governorGloss": "Jong-Un",
          "dependent": 3,
          "dependentGloss": "`"
        },
        {
          "dep": "root",
          "governor": 3,
          "governorGloss": "`",
          "dependent": 4,
          "dependentGloss": "verbietet"
        },
        {
          "dep": "det",
          "governor": 6,
          "governorGloss": "Namen",
          "dependent": 5,
          "dependentGloss": "den"
        },
        {
          "dep": "dobj",
          "governor": 4,
          "governorGloss": "verbietet",
          "dependent": 6,
          "dependentGloss": "Namen"
        },
        {
          "dep": "name",
          "governor": 8,
          "governorGloss": "Jong-un",
          "dependent": 7,
          "dependentGloss": "Kim"
        },
        {
          "dep": "appos",
          "governor": 6,
          "governorGloss": "Namen",
          "dependent": 8,
          "dependentGloss": "Jong-un"
        },
        {
          "dep": "punct",
          "governor": 4,
          "governorGloss": "verbietet",
          "dependent": 9,
          "dependentGloss": "'"
        }
      ],
      "enhancedDependencies": [
        {
          "dep": "ROOT",
          "governor": 0,
          "governorGloss": "ROOT",
          "dependent": 2,
          "dependentGloss": "Jong-Un"
        },
        {
          "dep": "name",
          "governor": 2,
          "governorGloss": "Jong-Un",
          "dependent": 1,
          "dependentGloss": "Kim"
        },
        {
          "dep": "punct",
          "governor": 2,
          "governorGloss": "Jong-Un",
          "dependent": 3,
          "dependentGloss": "`"
        },
        {
          "dep": "root",
          "governor": 3,
          "governorGloss": "`",
          "dependent": 4,
          "dependentGloss": "verbietet"
        },
        {
          "dep": "det",
          "governor": 6,
          "governorGloss": "Namen",
          "dependent": 5,
          "dependentGloss": "den"
        },
        {
          "dep": "dobj",
          "governor": 4,
          "governorGloss": "verbietet",
          "dependent": 6,
          "dependentGloss": "Namen"
        },
        {
          "dep": "name",
          "governor": 8,
          "governorGloss": "Jong-un",
          "dependent": 7,
          "dependentGloss": "Kim"
        },
        {
          "dep": "appos",
          "governor": 6,
          "governorGloss": "Namen",
          "dependent": 8,
          "dependentGloss": "Jong-un"
        },
        {
          "dep": "punct",
          "governor": 4,
          "governorGloss": "verbietet",
          "dependent": 9,
          "dependentGloss": "'"
        }
      ],
      "enhancedPlusPlusDependencies": [
        {
          "dep": "ROOT",
          "governor": 0,
          "governorGloss": "ROOT",
          "dependent": 2,
          "dependentGloss": "Jong-Un"
        },
        {
          "dep": "name",
          "governor": 2,
          "governorGloss": "Jong-Un",
          "dependent": 1,
          "dependentGloss": "Kim"
        },
        {
          "dep": "punct",
          "governor": 2,
          "governorGloss": "Jong-Un",
          "dependent": 3,
          "dependentGloss": "`"
        },
        {
          "dep": "root",
          "governor": 3,
          "governorGloss": "`",
          "dependent": 4,
          "dependentGloss": "verbietet"
        },
        {
          "dep": "det",
          "governor": 6,
          "governorGloss": "Namen",
          "dependent": 5,
          "dependentGloss": "den"
        },
        {
          "dep": "dobj",
          "governor": 4,
          "governorGloss": "verbietet",
          "dependent": 6,
          "dependentGloss": "Namen"
        },
        {
          "dep": "name",
          "governor": 8,
          "governorGloss": "Jong-un",
          "dependent": 7,
          "dependentGloss": "Kim"
        },
        {
          "dep": "appos",
          "governor": 6,
          "governorGloss": "Namen",
          "dependent": 8,
          "dependentGloss": "Jong-un"
        },
        {
          "dep": "punct",
          "governor": 4,
          "governorGloss": "verbietet",
          "dependent": 9,
          "dependentGloss": "'"
        }
      ],
      "tokens": [
        {
          "index": 1,
          "word": "Kim",
          "originalText": "Kim",
          "characterOffsetBegin": 0,
          "characterOffsetEnd": 3,
          "pos": "NE",
          "before": "",
          "after": " "
        },
        {
          "index": 2,
          "word": "Jong-Un",
          "originalText": "Jong-Un",
          "characterOffsetBegin": 4,
          "characterOffsetEnd": 11,
          "pos": "NE",
          "before": " ",
          "after": " "
        },
        {
          "index": 3,
          "word": "`",
          "originalText": "'",
          "characterOffsetBegin": 12,
          "characterOffsetEnd": 13,
          "pos": "VVFIN",
          "before": " ",
          "after": ""
        },
        {
          "index": 4,
          "word": "verbietet",
          "originalText": "verbietet",
          "characterOffsetBegin": 13,
          "characterOffsetEnd": 22,
          "pos": "VVFIN",
          "before": "",
          "after": " "
        },
        {
          "index": 5,
          "word": "den",
          "originalText": "den",
          "characterOffsetBegin": 23,
          "characterOffsetEnd": 26,
          "pos": "ART",
          "before": " ",
          "after": " "
        },
        {
          "index": 6,
          "word": "Namen",
          "originalText": "Namen",
          "characterOffsetBegin": 27,
          "characterOffsetEnd": 32,
          "pos": "NN",
          "before": " ",
          "after": " "
        },
        {
          "index": 7,
          "word": "Kim",
          "originalText": "Kim",
          "characterOffsetBegin": 33,
          "characterOffsetEnd": 36,
          "pos": "NE",
          "before": " ",
          "after": " "
        },
        {
          "index": 8,
          "word": "Jong-un",
          "originalText": "Jong-un",
          "characterOffsetBegin": 37,
          "characterOffsetEnd": 44,
          "pos": "NE",
          "before": " ",
          "after": ""
        },
        {
          "index": 9,
          "word": "'",
          "originalText": "'",
          "characterOffsetBegin": 44,
          "characterOffsetEnd": 45,
          "pos": "$[",
          "before": "",
          "after": ""
        }
      ]
    }
  ]
}