{
  "sentences": [
    {
      "index": 0,
      "basicDependencies": [
        {
          "dep": "ROOT",
          "governor": 0,
          "governorGloss": "ROOT",
          "dependent": 3,
          "dependentGloss": "Beamter"
        },
        {
          "dep": "det",
          "governor": 3,
          "governorGloss": "Beamter",
          "dependent": 1,
          "dependentGloss": "Ein"
        },
        {
          "dep": "amod",
          "governor": 3,
          "governorGloss": "Beamter",
          "dependent": 2,
          "dependentGloss": "indischer"
        },
        {
          "dep": "punct",
          "governor": 3,
          "governorGloss": "Beamter",
          "dependent": 4,
          "dependentGloss": ","
        },
        {
          "dep": "nsubjpass",
          "governor": 7,
          "governorGloss": "entlassen",
          "dependent": 5,
          "dependentGloss": "der"
        },
        {
          "dep": "advmod",
          "governor": 7,
          "governorGloss": "entlassen",
          "dependent": 6,
          "dependentGloss": "gerade"
        },
        {
          "dep": "acl",
          "governor": 3,
          "governorGloss": "Beamter",
          "dependent": 7,
          "dependentGloss": "entlassen"
        },
        {
          "dep": "auxpass",
          "governor": 7,
          "governorGloss": "entlassen",
          "dependent": 8,
          "dependentGloss": "wurde"
        },
        {
          "dep": "punct",
          "governor": 3,
          "governorGloss": "Beamter",
          "dependent": 9,
          "dependentGloss": ","
        },
        {
          "dep": "mark",
          "governor": 20,
          "governorGloss": "gedreht",
          "dependent": 10,
          "dependentGloss": "nachdem"
        },
        {
          "dep": "nsubj",
          "governor": 20,
          "governorGloss": "gedreht",
          "dependent": 11,
          "dependentGloss": "er"
        },
        {
          "dep": "dobj",
          "governor": 20,
          "governorGloss": "gedreht",
          "dependent": 12,
          "dependentGloss": "sich"
        },
        {
          "dep": "case",
          "governor": 15,
          "governorGloss": "Jahre",
          "dependent": 13,
          "dependentGloss": "für"
        },
        {
          "dep": "nummod",
          "governor": 15,
          "governorGloss": "Jahre",
          "dependent": 14,
          "dependentGloss": "25"
        },
        {
          "dep": "nmod",
          "governor": 20,
          "governorGloss": "gedreht",
          "dependent": 15,
          "dependentGloss": "Jahre"
        },
        {
          "dep": "neg",
          "governor": 20,
          "governorGloss": "gedreht",
          "dependent": 16,
          "dependentGloss": "nicht"
        },
        {
          "dep": "case",
          "governor": 19,
          "governorGloss": "Arbeit",
          "dependent": 17,
          "dependentGloss": "für"
        },
        {
          "dep": "det",
          "governor": 19,
          "governorGloss": "Arbeit",
          "dependent": 18,
          "dependentGloss": "die"
        },
        {
          "dep": "nmod",
          "governor": 20,
          "governorGloss": "gedreht",
          "dependent": 19,
          "dependentGloss": "Arbeit"
        },
        {
          "dep": "advcl",
          "governor": 3,
          "governorGloss": "Beamter",
          "dependent": 20,
          "dependentGloss": "gedreht"
        },
        {
          "dep": "aux",
          "governor": 20,
          "governorGloss": "gedreht",
          "dependent": 21,
          "dependentGloss": "hat"
        }
      ],
      "enhancedDependencies": [
        {
          "dep": "ROOT",
          "governor": 0,
          "governorGloss": "ROOT",
          "dependent": 3,
          "dependentGloss": "Beamter"
        },
        {
          "dep": "det",
          "governor": 3,
          "governorGloss": "Beamter",
          "dependent": 1,
          "dependentGloss": "Ein"
        },
        {
          "dep": "amod",
          "governor": 3,
          "governorGloss": "Beamter",
          "dependent": 2,
          "dependentGloss": "indischer"
        },
        {
          "dep": "punct",
          "governor": 3,
          "governorGloss": "Beamter",
          "dependent": 4,
          "dependentGloss": ","
        },
        {
          "dep": "nsubjpass",
          "governor": 7,
          "governorGloss": "entlassen",
          "dependent": 5,
          "dependentGloss": "der"
        },
        {
          "dep": "advmod",
          "governor": 7,
          "governorGloss": "entlassen",
          "dependent": 6,
          "dependentGloss": "gerade"
        },
        {
          "dep": "acl",
          "governor": 3,
          "governorGloss": "Beamter",
          "dependent": 7,
          "dependentGloss": "entlassen"
        },
        {
          "dep": "auxpass",
          "governor": 7,
          "governorGloss": "entlassen",
          "dependent": 8,
          "dependentGloss": "wurde"
        },
        {
          "dep": "punct",
          "governor": 3,
          "governorGloss": "Beamter",
          "dependent": 9,
          "dependentGloss": ","
        },
        {
          "dep": "mark",
          "governor": 20,
          "governorGloss": "gedreht",
          "dependent": 10,
          "dependentGloss": "nachdem"
        },
        {
          "dep": "nsubj",
          "governor": 20,
          "governorGloss": "gedreht",
          "dependent": 11,
          "dependentGloss": "er"
        },
        {
          "dep": "dobj",
          "governor": 20,
          "governorGloss": "gedreht",
          "dependent": 12,
          "dependentGloss": "sich"
        },
        {
          "dep": "case",
          "governor": 15,
          "governorGloss": "Jahre",
          "dependent": 13,
          "dependentGloss": "für"
        },
        {
          "dep": "nummod",
          "governor": 15,
          "governorGloss": "Jahre",
          "dependent": 14,
          "dependentGloss": "25"
        },
        {
          "dep": "nmod",
          "governor": 20,
          "governorGloss": "gedreht",
          "dependent": 15,
          "dependentGloss": "Jahre"
        },
        {
          "dep": "neg",
          "governor": 20,
          "governorGloss": "gedreht",
          "dependent": 16,
          "dependentGloss": "nicht"
        },
        {
          "dep": "case",
          "governor": 19,
          "governorGloss": "Arbeit",
          "dependent": 17,
          "dependentGloss": "für"
        },
        {
          "dep": "det",
          "governor": 19,
          "governorGloss": "Arbeit",
          "dependent": 18,
          "dependentGloss": "die"
        },
        {
          "dep": "nmod",
          "governor": 20,
          "governorGloss": "gedreht",
          "dependent": 19,
          "dependentGloss": "Arbeit"
        },
        {
          "dep": "advcl",
          "governor": 3,
          "governorGloss": "Beamter",
          "dependent": 20,
          "dependentGloss": "gedreht"
        },
        {
          "dep": "aux",
          "governor": 20,
          "governorGloss": "gedreht",
          "dependent": 21,
          "dependentGloss": "hat"
        }
      ],
      "enhancedPlusPlusDependencies": [
        {
          "dep": "ROOT",
          "governor": 0,
          "governorGloss": "ROOT",
          "dependent": 3,
          "dependentGloss": "Beamter"
        },
        {
          "dep": "det",
          "governor": 3,
          "governorGloss": "Beamter",
          "dependent": 1,
          "dependentGloss": "Ein"
        },
        {
          "dep": "amod",
          "governor": 3,
          "governorGloss": "Beamter",
          "dependent": 2,
          "dependentGloss": "indischer"
        },
        {
          "dep": "punct",
          "governor": 3,
          "governorGloss": "Beamter",
          "dependent": 4,
          "dependentGloss": ","
        },
        {
          "dep": "nsubjpass",
          "governor": 7,
          "governorGloss": "entlassen",
          "dependent": 5,
          "dependentGloss": "der"
        },
        {
          "dep": "advmod",
          "governor": 7,
          "governorGloss": "entlassen",
          "dependent": 6,
          "dependentGloss": "gerade"
        },
        {
          "dep": "acl",
          "governor": 3,
          "governorGloss": "Beamter",
          "dependent": 7,
          "dependentGloss": "entlassen"
        },
        {
          "dep": "auxpass",
          "governor": 7,
          "governorGloss": "entlassen",
          "dependent": 8,
          "dependentGloss": "wurde"
        },
        {
          "dep": "punct",
          "governor": 3,
          "governorGloss": "Beamter",
          "dependent": 9,
          "dependentGloss": ","
        },
        {
          "dep": "mark",
          "governor": 20,
          "governorGloss": "gedreht",
          "dependent": 10,
          "dependentGloss": "nachdem"
        },
        {
          "dep": "nsubj",
          "governor": 20,
          "governorGloss": "gedreht",
          "dependent": 11,
          "dependentGloss": "er"
        },
        {
          "dep": "dobj",
          "governor": 20,
          "governorGloss": "gedreht",
          "dependent": 12,
          "dependentGloss": "sich"
        },
        {
          "dep": "case",
          "governor": 15,
          "governorGloss": "Jahre",
          "dependent": 13,
          "dependentGloss": "für"
        },
        {
          "dep": "nummod",
          "governor": 15,
          "governorGloss": "Jahre",
          "dependent": 14,
          "dependentGloss": "25"
        },
        {
          "dep": "nmod",
          "governor": 20,
          "governorGloss": "gedreht",
          "dependent": 15,
          "dependentGloss": "Jahre"
        },
        {
          "dep": "neg",
          "governor": 20,
          "governorGloss": "gedreht",
          "dependent": 16,
          "dependentGloss": "nicht"
        },
        {
          "dep": "case",
          "governor": 19,
          "governorGloss": "Arbeit",
          "dependent": 17,
          "dependentGloss": "für"
        },
        {
          "dep": "det",
          "governor": 19,
          "governorGloss": "Arbeit",
          "dependent": 18,
          "dependentGloss": "die"
        },
        {
          "dep": "nmod",
          "governor": 20,
          "governorGloss": "gedreht",
          "dependent": 19,
          "dependentGloss": "Arbeit"
        },
        {
          "dep": "advcl",
          "governor": 3,
          "governorGloss": "Beamter",
          "dependent": 20,
          "dependentGloss": "gedreht"
        },
        {
          "dep": "aux",
          "governor": 20,
          "governorGloss": "gedreht",
          "dependent": 21,
          "dependentGloss": "hat"
        }
      ],
      "tokens": [
        {
          "index": 1,
          "word": "Ein",
          "originalText": "Ein",
          "characterOffsetBegin": 0,
          "characterOffsetEnd": 3,
          "pos": "ART",
          "before": "",
          "after": " "
        },
        {
          "index": 2,
          "word": "indischer",
          "originalText": "indischer",
          "characterOffsetBegin": 4,
          "characterOffsetEnd": 13,
          "pos": "ADJA",
          "before": " ",
          "after": " "
        },
        {
          "index": 3,
          "word": "Beamter",
          "originalText": "Beamter",
          "characterOffsetBegin": 14,
          "characterOffsetEnd": 21,
          "pos": "NN",
          "before": " ",
          "after": ""
        },
        {
          "index": 4,
          "word": ",",
          "originalText": ",",
          "characterOffsetBegin": 21,
          "characterOffsetEnd": 22,
          "pos": "$,",
          "before": "",
          "after": " "
        },
        {
          "index": 5,
          "word": "der",
          "originalText": "der",
          "characterOffsetBegin": 23,
          "characterOffsetEnd": 26,
          "pos": "PRELS",
          "before": " ",
          "after": " "
        },
        {
          "index": 6,
          "word": "gerade",
          "originalText": "gerade",
          "characterOffsetBegin": 27,
          "characterOffsetEnd": 33,
          "pos": "ADV",
          "before": " ",
          "after": " "
        },
        {
          "index": 7,
          "word": "entlassen",
          "originalText": "entlassen",
          "characterOffsetBegin": 34,
          "characterOffsetEnd": 43,
          "pos": "VVPP",
          "before": " ",
          "after": " "
        },
        {
          "index": 8,
          "word": "wurde",
          "originalText": "wurde",
          "characterOffsetBegin": 44,
          "characterOffsetEnd": 49,
          "pos": "VAFIN",
          "before": " ",
          "after": ""
        },
        {
          "index": 9,
          "word": ",",
          "originalText": ",",
          "characterOffsetBegin": 49,
          "characterOffsetEnd": 50,
          "pos": "$,",
          "before": "",
          "after": " "
        },
        {
          "index": 10,
          "word": "nachdem",
          "originalText": "nachdem",
          "characterOffsetBegin": 51,
          "characterOffsetEnd": 58,
          "pos": "KOUS",
          "before": " ",
          "after": " "
        },
        {
          "index": 11,
          "word": "er",
          "originalText": "er",
          "characterOffsetBegin": 59,
          "characterOffsetEnd": 61,
          "pos": "PPER",
          "before": " ",
          "after": " "
        },
        {
          "index": 12,
          "word": "sich",
          "originalText": "sich",
          "characterOffsetBegin": 62,
          "characterOffsetEnd": 66,
          "pos": "PRF",
          "before": " ",
          "after": " "
        },
        {
          "index": 13,
          "word": "für",
          "originalText": "für",
          "characterOffsetBegin": 67,
          "characterOffsetEnd": 70,
          "pos": "APPR",
          "before": " ",
          "after": " "
        },
        {
          "index": 14,
          "word": "25",
          "originalText": "25",
          "characterOffsetBegin": 71,
          "characterOffsetEnd": 73,
          "pos": "CARD",
          "before": " ",
          "after": " "
        },
        {
          "index": 15,
          "word": "Jahre",
          "originalText": "Jahre",
          "characterOffsetBegin": 74,
          "characterOffsetEnd": 79,
          "pos": "NN",
          "before": " ",
          "after": " "
        },
        {
          "index": 16,
          "word": "nicht",
          "originalText": "nicht",
          "characterOffsetBegin": 80,
          "characterOffsetEnd": 85,
          "pos": "PTKNEG",
          "before": " ",
          "after": " "
        },
        {
          "index": 17,
          "word": "für",
          "originalText": "für",
          "characterOffsetBegin": 86,
          "characterOffsetEnd": 89,
          "pos": "APPR",
          "before": " ",
          "after": " "
        },
        {
          "index": 18,
          "word": "die",
          "originalText": "die",
          "characterOffsetBegin": 90,
          "characterOffsetEnd": 93,
          "pos": "ART",
          "before": " ",
          "after": " "
        },
        {
          "index": 19,
          "word": "Arbeit",
          "originalText": "Arbeit",
          "characterOffsetBegin": 94,
          "characterOffsetEnd": 100,
          "pos": "NN",
          "before": " ",
          "after": " "
        },
        {
          "index": 20,
          "word": "gedreht",
          "originalText": "gedreht",
          "characterOffsetBegin": 101,
          "characterOffsetEnd": 108,
          "pos": "VVPP",
          "before": " ",
          "after": " "
        },
        {
          "index": 21,
          "word": "hat",
          "originalText": "hat",
          "characterOffsetBegin": 109,
          "characterOffsetEnd": 112,
          "pos": "VAFIN",
          "before": " ",
          "after": ""
        }
      ]
    }
  ]
}