{
  "sentences": [
    {
      "index": 0,
      "basicDependencies": [
        {
          "dep": "ROOT",
          "governor": 0,
          "governorGloss": "ROOT",
          "dependent": 11,
          "dependentGloss": "sein"
        },
        {
          "dep": "det",
          "governor": 2,
          "governorGloss": "Akku-Lebensdauer",
          "dependent": 1,
          "dependentGloss": "Die"
        },
        {
          "dep": "nsubj",
          "governor": 11,
          "governorGloss": "sein",
          "dependent": 2,
          "dependentGloss": "Akku-Lebensdauer"
        },
        {
          "dep": "det",
          "governor": 4,
          "governorGloss": "Apple-Uhr",
          "dependent": 3,
          "dependentGloss": "der"
        },
        {
          "dep": "det",
          "governor": 2,
          "governorGloss": "Akku-Lebensdauer",
          "dependent": 4,
          "dependentGloss": "Apple-Uhr"
        },
        {
          "dep": "aux",
          "governor": 11,
          "governorGloss": "sein",
          "dependent": 5,
          "dependentGloss": "wird"
        },
        {
          "dep": "advmod",
          "governor": 11,
          "governorGloss": "sein",
          "dependent": 6,
          "dependentGloss": "angeblich"
        },
        {
          "dep": "case",
          "governor": 10,
          "governorGloss": "Smartwatch",
          "dependent": 7,
          "dependentGloss": "wie"
        },
        {
          "dep": "det",
          "governor": 10,
          "governorGloss": "Smartwatch",
          "dependent": 8,
          "dependentGloss": "jeder"
        },
        {
          "dep": "amod",
          "governor": 10,
          "governorGloss": "Smartwatch",
          "dependent": 9,
          "dependentGloss": "andere"
        },
        {
          "dep": "nmod",
          "governor": 11,
          "governorGloss": "sein",
          "dependent": 10,
          "dependentGloss": "Smartwatch"
        }
      ],
      "enhancedDependencies": [
        {
          "dep": "ROOT",
          "governor": 0,
          "governorGloss": "ROOT",
          "dependent": 11,
          "dependentGloss": "sein"
        },
        {
          "dep": "det",
          "governor": 2,
          "governorGloss": "Akku-Lebensdauer",
          "dependent": 1,
          "dependentGloss": "Die"
        },
        {
          "dep": "nsubj",
          "governor": 11,
          "governorGloss": "sein",
          "dependent": 2,
          "dependentGloss": "Akku-Lebensdauer"
        },
        {
          "dep": "det",
          "governor": 4,
          "governorGloss": "Apple-Uhr",
          "dependent": 3,
          "dependentGloss": "der"
        },
        {
          "dep": "det",
          "governor": 2,
          "governorGloss": "Akku-Lebensdauer",
          "dependent": 4,
          "dependentGloss": "Apple-Uhr"
        },
        {
          "dep": "aux",
          "governor": 11,
          "governorGloss": "sein",
          "dependent": 5,
          "dependentGloss": "wird"
        },
        {
          "dep": "advmod",
          "governor": 11,
          "governorGloss": "sein",
          "dependent": 6,
          "dependentGloss": "angeblich"
        },
        {
          "dep": "case",
          "governor": 10,
          "governorGloss": "Smartwatch",
          "dependent": 7,
          "dependentGloss": "wie"
        },
        {
          "dep": "det",
          "governor": 10,
          "governorGloss": "Smartwatch",
          "dependent": 8,
          "dependentGloss": "jeder"
        },
        {
          "dep": "amod",
          "governor": 10,
          "governorGloss": "Smartwatch",
          "dependent": 9,
          "dependentGloss": "andere"
        },
        {
          "dep": "nmod",
          "governor": 11,
          "governorGloss": "sein",
          "dependent": 10,
          "dependentGloss": "Smartwatch"
        }
      ],
      "enhancedPlusPlusDependencies": [
        {
          "dep": "ROOT",
          "governor": 0,
          "governorGloss": "ROOT",
          "dependent": 11,
          "dependentGloss": "sein"
        },
        {
          "dep": "det",
          "governor": 2,
          "governorGloss": "Akku-Lebensdauer",
          "dependent": 1,
          "dependentGloss": "Die"
        },
        {
          "dep": "nsubj",
          "governor": 11,
          "governorGloss": "sein",
          "dependent": 2,
          "dependentGloss": "Akku-Lebensdauer"
        },
        {
          "dep": "det",
          "governor": 4,
          "governorGloss": "Apple-Uhr",
          "dependent": 3,
          "dependentGloss": "der"
        },
        {
          "dep": "det",
          "governor": 2,
          "governorGloss": "Akku-Lebensdauer",
          "dependent": 4,
          "dependentGloss": "Apple-Uhr"
        },
        {
          "dep": "aux",
          "governor": 11,
          "governorGloss": "sein",
          "dependent": 5,
          "dependentGloss": "wird"
        },
        {
          "dep": "advmod",
          "governor": 11,
          "governorGloss": "sein",
          "dependent": 6,
          "dependentGloss": "angeblich"
        },
        {
          "dep": "case",
          "governor": 10,
          "governorGloss": "Smartwatch",
          "dependent": 7,
          "dependentGloss": "wie"
        },
        {
          "dep": "det",
          "governor": 10,
          "governorGloss": "Smartwatch",
          "dependent": 8,
          "dependentGloss": "jeder"
        },
        {
          "dep": "amod",
          "governor": 10,
          "governorGloss": "Smartwatch",
          "dependent": 9,
          "dependentGloss": "andere"
        },
        {
          "dep": "nmod",
          "governor": 11,
          "governorGloss": "sein",
          "dependent": 10,
          "dependentGloss": "Smartwatch"
        }
      ],
      "tokens": [
        {
          "index": 1,
          "word": "Die",
          "originalText": "Die",
          "characterOffsetBegin": 0,
          "characterOffsetEnd": 3,
          "pos": "ART",
          "before": "",
          "after": " "
        },
        {
          "index": 2,
          "word": "Akku-Lebensdauer",
          "originalText": "Akku-Lebensdauer",
          "characterOffsetBegin": 4,
          "characterOffsetEnd": 20,
          "pos": "NN",
          "before": " ",
          "after": " "
        },
        {
          "index": 3,
          "word": "der",
          "originalText": "der",
          "characterOffsetBegin": 21,
          "characterOffsetEnd": 24,
          "pos": "ART",
          "before": " ",
          "after": " "
        },
        {
          "index": 4,
          "word": "Apple-Uhr",
          "originalText": "Apple-Uhr",
          "characterOffsetBegin": 25,
          "characterOffsetEnd": 34,
          "pos": "NN",
          "before": " ",
          "after": " "
        },
        {
          "index": 5,
          "word": "wird",
          "originalText": "wird",
          "characterOffsetBegin": 35,
          "characterOffsetEnd": 39,
          "pos": "VAFIN",
          "before": " ",
          "after": " "
        },
        {
          "index": 6,
          "word": "angeblich",
          "originalText": "angeblich",
          "characterOffsetBegin": 40,
          "characterOffsetEnd": 49,
          "pos": "ADJD",
          "before": " ",
          "after": " "
        },
        {
          "index": 7,
          "word": "wie",
          "originalText": "wie",
          "characterOffsetBegin": 50,
          "characterOffsetEnd": 53,
          "pos": "KOKOM",
          "before": " ",
          "after": " "
        },
        {
          "index": 8,
          "word": "jeder",
          "originalText": "jeder",
          "characterOffsetBegin": 54,
          "characterOffsetEnd": 59,
          "pos": "PIDAT",
          "before": " ",
          "after": " "
        },
        {
          "index": 9,
          "word": "andere",
          "originalText": "andere",
          "characterOffsetBegin": 60,
          "characterOffsetEnd": 66,
          "pos": "ADJA",
          "before": " ",
          "after": " "
        },
        {
          "index": 10,
          "word": "Smartwatch",
          "originalText": "Smartwatch",
          "characterOffsetBegin": 67,
          "characterOffsetEnd": 77,
          "pos": "NN",
          "before": " ",
          "after": " "
        },
        {
          "index": 11,
          "word": "sein",
          "originalText": "sein",
          "characterOffsetBegin": 78,
          "characterOffsetEnd": 82,
          "pos": "VAINF",
          "before": " ",
          "after": ""
        }
      ]
    }
  ]
}