{
  "sentences": [
    {
      "index": 0,
      "basicDependencies": [
        {
          "dep": "ROOT",
          "governor": 0,
          "governorGloss": "ROOT",
          "dependent": 1,
          "dependentGloss": "Pentagon"
        },
        {
          "dep": "punct",
          "governor": 1,
          "governorGloss": "Pentagon",
          "dependent": 2,
          "dependentGloss": ":"
        },
        {
          "dep": "nummod",
          "governor": 4,
          "governorGloss": "Waffenbündel",
          "dependent": 3,
          "dependentGloss": "1"
        },
        {
          "dep": "appos",
          "governor": 1,
          "governorGloss": "Pentagon",
          "dependent": 4,
          "dependentGloss": "Waffenbündel"
        },
        {
          "dep": "case",
          "governor": 6,
          "governorGloss": "Militanten",
          "dependent": 5,
          "dependentGloss": "von"
        },
        {
          "dep": "nmod",
          "governor": 4,
          "governorGloss": "Waffenbündel",
          "dependent": 6,
          "dependentGloss": "Militanten"
        },
        {
          "dep": "dep",
          "governor": 1,
          "governorGloss": "Pentagon",
          "dependent": 7,
          "dependentGloss": "beschlagnahmt"
        }
      ],
      "enhancedDependencies": [
        {
          "dep": "ROOT",
          "governor": 0,
          "governorGloss": "ROOT",
          "dependent": 1,
          "dependentGloss": "Pentagon"
        },
        {
          "dep": "punct",
          "governor": 1,
          "governorGloss": "Pentagon",
          "dependent": 2,
          "dependentGloss": ":"
        },
        {
          "dep": "nummod",
          "governor": 4,
          "governorGloss": "Waffenbündel",
          "dependent": 3,
          "dependentGloss": "1"
        },
        {
          "dep": "appos",
          "governor": 1,
          "governorGloss": "Pentagon",
          "dependent": 4,
          "dependentGloss": "Waffenbündel"
        },
        {
          "dep": "case",
          "governor": 6,
          "governorGloss": "Militanten",
          "dependent": 5,
          "dependentGloss": "von"
        },
        {
          "dep": "nmod",
          "governor": 4,
          "governorGloss": "Waffenbündel",
          "dependent": 6,
          "dependentGloss": "Militanten"
        },
        {
          "dep": "dep",
          "governor": 1,
          "governorGloss": "Pentagon",
          "dependent": 7,
          "dependentGloss": "beschlagnahmt"
        }
      ],
      "enhancedPlusPlusDependencies": [
        {
          "dep": "ROOT",
          "governor": 0,
          "governorGloss": "ROOT",
          "dependent": 1,
          "dependentGloss": "Pentagon"
        },
        {
          "dep": "punct",
          "governor": 1,
          "governorGloss": "Pentagon",
          "dependent": 2,
          "dependentGloss": ":"
        },
        {
          "dep": "nummod",
          "governor": 4,
          "governorGloss": "Waffenbündel",
          "dependent": 3,
          "dependentGloss": "1"
        },
        {
          "dep": "appos",
          "governor": 1,
          "governorGloss": "Pentagon",
          "dependent": 4,
          "dependentGloss": "Waffenbündel"
        },
        {
          "dep": "case",
          "governor": 6,
          "governorGloss": "Militanten",
          "dependent": 5,
          "dependentGloss": "von"
        },
        {
          "dep": "nmod",
          "governor": 4,
          "governorGloss": "Waffenbündel",
          "dependent": 6,
          "dependentGloss": "Militanten"
        },
        {
          "dep": "dep",
          "governor": 1,
          "governorGloss": "Pentagon",
          "dependent": 7,
          "dependentGloss": "beschlagnahmt"
        }
      ],
      "tokens": [
        {
          "index": 1,
          "word": "Pentagon",
          "originalText": "Pentagon",
          "characterOffsetBegin": 0,
          "characterOffsetEnd": 8,
          "pos": "NN",
          "before": "",
          "after": ""
        },
        {
          "index": 2,
          "word": ":",
          "originalText": ":",
          "characterOffsetBegin": 8,
          "characterOffsetEnd": 9,
          "pos": "$.",
          "before": "",
          "after": " "
        },
        {
          "index": 3,
          "word": "1",
          "originalText": "1",
          "characterOffsetBegin": 10,
          "characterOffsetEnd": 11,
          "pos": "CARD",
          "before": " ",
          "after": " "
        },
        {
          "index": 4,
          "word": "Waffenbündel",
          "originalText": "Waffenbündel",
          "characterOffsetBegin": 12,
          "characterOffsetEnd": 24,
          "pos": "NN",
          "before": " ",
          "after": " "
        },
        {
          "index": 5,
          "word": "von",
          "originalText": "von",
          "characterOffsetBegin": 25,
          "characterOffsetEnd": 28,
          "pos": "APPR",
          "before": " ",
          "after": " "
        },
        {
          "index": 6,
          "word": "Militanten",
          "originalText": "Militanten",
          "characterOffsetBegin": 29,
          "characterOffsetEnd": 39,
          "pos": "NN",
          "before": " ",
          "after": " "
        },
        {
          "index": 7,
          "word": "beschlagnahmt",
          "originalText": "beschlagnahmt",
          "characterOffsetBegin": 40,
          "characterOffsetEnd": 53,
          "pos": "VVPP",
          "before": " ",
          "after": ""
        }
      ]
    }
  ]
}