{
  "sentences": [
    {
      "index": 0,
      "basicDependencies": [
        {
          "dep": "ROOT",
          "governor": 0,
          "governorGloss": "ROOT",
          "dependent": 1,
          "dependentGloss": "Ist"
        },
        {
          "dep": "dep",
          "governor": 1,
          "governorGloss": "Ist",
          "dependent": 2,
          "dependentGloss": "das"
        },
        {
          "dep": "det",
          "governor": 5,
          "governorGloss": "Burger",
          "dependent": 3,
          "dependentGloss": "der"
        },
        {
          "dep": "amod",
          "governor": 5,
          "governorGloss": "Burger",
          "dependent": 4,
          "dependentGloss": "älteste"
        },
        {
          "dep": "root",
          "governor": 2,
          "governorGloss": "das",
          "dependent": 5,
          "dependentGloss": "Burger"
        },
        {
          "dep": "det",
          "governor": 7,
          "governorGloss": "Welt",
          "dependent": 6,
          "dependentGloss": "der"
        },
        {
          "dep": "det",
          "governor": 5,
          "governorGloss": "Burger",
          "dependent": 7,
          "dependentGloss": "Welt"
        },
        {
          "dep": "punct",
          "governor": 5,
          "governorGloss": "Burger",
          "dependent": 8,
          "dependentGloss": "?"
        }
      ],
      "enhancedDependencies": [
        {
          "dep": "ROOT",
          "governor": 0,
          "governorGloss": "ROOT",
          "dependent": 1,
          "dependentGloss": "Ist"
        },
        {
          "dep": "dep",
          "governor": 1,
          "governorGloss": "Ist",
          "dependent": 2,
          "dependentGloss": "das"
        },
        {
          "dep": "det",
          "governor": 5,
          "governorGloss": "Burger",
          "dependent": 3,
          "dependentGloss": "der"
        },
        {
          "dep": "amod",
          "governor": 5,
          "governorGloss": "Burger",
          "dependent": 4,
          "dependentGloss": "älteste"
        },
        {
          "dep": "root",
          "governor": 2,
          "governorGloss": "das",
          "dependent": 5,
          "dependentGloss": "Burger"
        },
        {
          "dep": "det",
          "governor": 7,
          "governorGloss": "Welt",
          "dependent": 6,
          "dependentGloss": "der"
        },
        {
          "dep": "det",
          "governor": 5,
          "governorGloss": "Burger",
          "dependent": 7,
          "dependentGloss": "Welt"
        },
        {
          "dep": "punct",
          "governor": 5,
          "governorGloss": "Burger",
          "dependent": 8,
          "dependentGloss": "?"
        }
      ],
      "enhancedPlusPlusDependencies": [
        {
          "dep": "ROOT",
          "governor": 0,
          "governorGloss": "ROOT",
          "dependent": 1,
          "dependentGloss": "Ist"
        },
        {
          "dep": "dep",
          "governor": 1,
          "governorGloss": "Ist",
          "dependent": 2,
          "dependentGloss": "das"
        },
        {
          "dep": "det",
          "governor": 5,
          "governorGloss": "Burger",
          "dependent": 3,
          "dependentGloss": "der"
        },
        {
          "dep": "amod",
          "governor": 5,
          "governorGloss": "Burger",
          "dependent": 4,
          "dependentGloss": "älteste"
        },
        {
          "dep": "root",
          "governor": 2,
          "governorGloss": "das",
          "dependent": 5,
          "dependentGloss": "Burger"
        },
        {
          "dep": "det",
          "governor": 7,
          "governorGloss": "Welt",
          "dependent": 6,
          "dependentGloss": "der"
        },
        {
          "dep": "det",
          "governor": 5,
          "governorGloss": "Burger",
          "dependent": 7,
          "dependentGloss": "Welt"
        },
        {
          "dep": "punct",
          "governor": 5,
          "governorGloss": "Burger",
          "dependent": 8,
          "dependentGloss": "?"
        }
      ],
      "tokens": [
        {
          "index": 1,
          "word": "Ist",
          "originalText": "Ist",
          "characterOffsetBegin": 0,
          "characterOffsetEnd": 3,
          "pos": "VAFIN",
          "before": "",
          "after": " "
        },
        {
          "index": 2,
          "word": "das",
          "originalText": "das",
          "characterOffsetBegin": 4,
          "characterOffsetEnd": 7,
          "pos": "PDS",
          "before": " ",
          "after": " "
        },
        {
          "index": 3,
          "word": "der",
          "originalText": "der",
          "characterOffsetBegin": 8,
          "characterOffsetEnd": 11,
          "pos": "ART",
          "before": " ",
          "after": " "
        },
        {
          "index": 4,
          "word": "älteste",
          "originalText": "älteste",
          "characterOffsetBegin": 12,
          "characterOffsetEnd": 19,
          "pos": "ADJA",
          "before": " ",
          "after": " "
        },
        {
          "index": 5,
          "word": "Burger",
          "originalText": "Burger",
          "characterOffsetBegin": 20,
          "characterOffsetEnd": 26,
          "pos": "NE",
          "before": " ",
          "after": " "
        },
        {
          "index": 6,
          "word": "der",
          "originalText": "der",
          "characterOffsetBegin": 27,
          "characterOffsetEnd": 30,
          "pos": "ART",
          "before": " ",
          "after": " "
        },
        {
          "index": 7,
          "word": "Welt",
          "originalText": "Welt",
          "characterOffsetBegin": 31,
          "characterOffsetEnd": 35,
          "pos": "NN",
          "before": " ",
          "after": ""
        },
        {
          "index": 8,
          "word": "?",
          "originalText": "?",
          "characterOffsetBegin": 35,
          "characterOffsetEnd": 36,
          "pos": "$.",
          "before": "",
          "after": " "
        }
      ]
    },
    {
      "index": 1,
      "basicDependencies": [
        {
          "dep": "ROOT",
          "governor": 0,
          "governorGloss": "ROOT",
          "dependent": 2,
          "dependentGloss": "behauptet"
        },
        {
          "dep": "nsubj",
          "governor": 2,
          "governorGloss": "behauptet",
          "dependent": 1,
          "dependentGloss": "Man"
        },
        {
          "dep": "punct",
          "governor": 2,
          "governorGloss": "behauptet",
          "dependent": 3,
          "dependentGloss": ","
        },
        {
          "dep": "det",
          "governor": 7,
          "governorGloss": "Pounder",
          "dependent": 4,
          "dependentGloss": "McDonald"
        },
        {
          "dep": "case",
          "governor": 4,
          "governorGloss": "McDonald",
          "dependent": 5,
          "dependentGloss": "'s"
        },
        {
          "dep": "amod",
          "governor": 7,
          "governorGloss": "Pounder",
          "dependent": 6,
          "dependentGloss": "Quarter"
        },
        {
          "dep": "dobj",
          "governor": 11,
          "governorGloss": "gehalten",
          "dependent": 7,
          "dependentGloss": "Pounder"
        },
        {
          "dep": "case",
          "governor": 10,
          "governorGloss": "JAHRE",
          "dependent": 8,
          "dependentGloss": "für"
        },
        {
          "dep": "nummod",
          "governor": 10,
          "governorGloss": "JAHRE",
          "dependent": 9,
          "dependentGloss": "20"
        },
        {
          "dep": "nmod",
          "governor": 7,
          "governorGloss": "Pounder",
          "dependent": 10,
          "dependentGloss": "JAHRE"
        },
        {
          "dep": "xcomp",
          "governor": 2,
          "governorGloss": "behauptet",
          "dependent": 11,
          "dependentGloss": "gehalten"
        },
        {
          "dep": "aux",
          "governor": 13,
          "governorGloss": "haben",
          "dependent": 12,
          "dependentGloss": "zu"
        },
        {
          "dep": "aux",
          "governor": 11,
          "governorGloss": "gehalten",
          "dependent": 13,
          "dependentGloss": "haben"
        }
      ],
      "enhancedDependencies": [
        {
          "dep": "ROOT",
          "governor": 0,
          "governorGloss": "ROOT",
          "dependent": 2,
          "dependentGloss": "behauptet"
        },
        {
          "dep": "nsubj",
          "governor": 2,
          "governorGloss": "behauptet",
          "dependent": 1,
          "dependentGloss": "Man"
        },
        {
          "dep": "punct",
          "governor": 2,
          "governorGloss": "behauptet",
          "dependent": 3,
          "dependentGloss": ","
        },
        {
          "dep": "det",
          "governor": 7,
          "governorGloss": "Pounder",
          "dependent": 4,
          "dependentGloss": "McDonald"
        },
        {
          "dep": "case",
          "governor": 4,
          "governorGloss": "McDonald",
          "dependent": 5,
          "dependentGloss": "'s"
        },
        {
          "dep": "amod",
          "governor": 7,
          "governorGloss": "Pounder",
          "dependent": 6,
          "dependentGloss": "Quarter"
        },
        {
          "dep": "dobj",
          "governor": 11,
          "governorGloss": "gehalten",
          "dependent": 7,
          "dependentGloss": "Pounder"
        },
        {
          "dep": "case",
          "governor": 10,
          "governorGloss": "JAHRE",
          "dependent": 8,
          "dependentGloss": "für"
        },
        {
          "dep": "nummod",
          "governor": 10,
          "governorGloss": "JAHRE",
          "dependent": 9,
          "dependentGloss": "20"
        },
        {
          "dep": "nmod",
          "governor": 7,
          "governorGloss": "Pounder",
          "dependent": 10,
          "dependentGloss": "JAHRE"
        },
        {
          "dep": "xcomp",
          "governor": 2,
          "governorGloss": "behauptet",
          "dependent": 11,
          "dependentGloss": "gehalten"
        },
        {
          "dep": "aux",
          "governor": 13,
          "governorGloss": "haben",
          "dependent": 12,
          "dependentGloss": "zu"
        },
        {
          "dep": "aux",
          "governor": 11,
          "governorGloss": "gehalten",
          "dependent": 13,
          "dependentGloss": "haben"
        }
      ],
      "enhancedPlusPlusDependencies": [
        {
          "dep": "ROOT",
          "governor": 0,
          "governorGloss": "ROOT",
          "dependent": 2,
          "dependentGloss": "behauptet"
        },
        {
          "dep": "nsubj",
          "governor": 2,
          "governorGloss": "behauptet",
          "dependent": 1,
          "dependentGloss": "Man"
        },
        {
          "dep": "punct",
          "governor": 2,
          "governorGloss": "behauptet",
          "dependent": 3,
          "dependentGloss": ","
        },
        {
          "dep": "det",
          "governor": 7,
          "governorGloss": "Pounder",
          "dependent": 4,
          "dependentGloss": "McDonald"
        },
        {
          "dep": "case",
          "governor": 4,
          "governorGloss": "McDonald",
          "dependent": 5,
          "dependentGloss": "'s"
        },
        {
          "dep": "amod",
          "governor": 7,
          "governorGloss": "Pounder",
          "dependent": 6,
          "dependentGloss": "Quarter"
        },
        {
          "dep": "dobj",
          "governor": 11,
          "governorGloss": "gehalten",
          "dependent": 7,
          "dependentGloss": "Pounder"
        },
        {
          "dep": "case",
          "governor": 10,
          "governorGloss": "JAHRE",
          "dependent": 8,
          "dependentGloss": "für"
        },
        {
          "dep": "nummod",
          "governor": 10,
          "governorGloss": "JAHRE",
          "dependent": 9,
          "dependentGloss": "20"
        },
        {
          "dep": "nmod",
          "governor": 7,
          "governorGloss": "Pounder",
          "dependent": 10,
          "dependentGloss": "JAHRE"
        },
        {
          "dep": "xcomp",
          "governor": 2,
          "governorGloss": "behauptet",
          "dependent": 11,
          "dependentGloss": "gehalten"
        },
        {
          "dep": "aux",
          "governor": 13,
          "governorGloss": "haben",
          "dependent": 12,
          "dependentGloss": "zu"
        },
        {
          "dep": "aux",
          "governor": 11,
          "governorGloss": "gehalten",
          "dependent": 13,
          "dependentGloss": "haben"
        }
      ],
      "tokens": [
        {
          "index": 1,
          "word": "Man",
          "originalText": "Man",
          "characterOffsetBegin": 37,
          "characterOffsetEnd": 40,
          "pos": "PIS",
          "before": " ",
          "after": " "
        },
        {
          "index": 2,
          "word": "behauptet",
          "originalText": "behauptet",
          "characterOffsetBegin": 41,
          "characterOffsetEnd": 50,
          "pos": "VVFIN",
          "before": " ",
          "after": ""
        },
        {
          "index": 3,
          "word": ",",
          "originalText": ",",
          "characterOffsetBegin": 50,
          "characterOffsetEnd": 51,
          "pos": "$,",
          "before": "",
          "after": " "
        },
        {
          "index": 4,
          "word": "McDonald",
          "originalText": "McDonald",
          "characterOffsetBegin": 52,
          "characterOffsetEnd": 60,
          "pos": "NE",
          "before": " ",
          "after": ""
        },
        {
          "index": 5,
          "word": "'s",
          "originalText": "'s",
          "characterOffsetBegin": 60,
          "characterOffsetEnd": 62,
          "pos": "PPER",
          "before": "",
          "after": " "
        },
        {
          "index": 6,
          "word": "Quarter",
          "originalText": "Quarter",
          "characterOffsetBegin": 63,
          "characterOffsetEnd": 70,
          "pos": "NE",
          "before": " ",
          "after": " "
        },
        {
          "index": 7,
          "word": "Pounder",
          "originalText": "Pounder",
          "characterOffsetBegin": 71,
          "characterOffsetEnd": 78,
          "pos": "NE",
          "before": " ",
          "after": " "
        },
        {
          "index": 8,
          "word": "für",
          "originalText": "für",
          "characterOffsetBegin": 79,
          "characterOffsetEnd": 82,
          "pos": "APPR",
          "before": " ",
          "after": " "
        },
        {
          "index": 9,
          "word": "20",
          "originalText": "20",
          "characterOffsetBegin": 83,
          "characterOffsetEnd": 85,
          "pos": "CARD",
          "before": " ",
          "after": " "
        },
        {
          "index": 10,
          "word": "JAHRE",
          "originalText": "JAHRE",
          "characterOffsetBegin": 86,
          "characterOffsetEnd": 91,
          "pos": "NN",
          "before": " ",
          "after": " "
        },
        {
          "index": 11,
          "word": "gehalten",
          "originalText": "gehalten",
          "characterOffsetBegin": 92,
          "characterOffsetEnd": 100,
          "pos": "VVPP",
          "before": " ",
          "after": " "
        },
        {
          "index": 12,
          "word": "zu",
          "originalText": "zu",
          "characterOffsetBegin": 101,
          "characterOffsetEnd": 103,
          "pos": "PTKZU",
          "before": " ",
          "after": " "
        },
        {
          "index": 13,
          "word": "haben",
          "originalText": "haben",
          "characterOffsetBegin": 104,
          "characterOffsetEnd": 109,
          "pos": "VAINF",
          "before": " ",
          "after": ""
        }
      ]
    }
  ]
}