{
  "sentences": [
    {
      "index": 0,
      "basicDependencies": [
        {
          "dep": "ROOT",
          "governor": 0,
          "governorGloss": "ROOT",
          "dependent": 2,
          "dependentGloss": "Jong-un"
        },
        {
          "dep": "name",
          "governor": 2,
          "governorGloss": "Jong-un",
          "dependent": 1,
          "dependentGloss": "Kim"
        },
        {
          "dep": "punct",
          "governor": 2,
          "governorGloss": "Jong-un",
          "dependent": 3,
          "dependentGloss": ":"
        },
        {
          "dep": "amod",
          "governor": 5,
          "governorGloss": "Führer",
          "dependent": 4,
          "dependentGloss": "fettleibiger"
        },
        {
          "dep": "appos",
          "governor": 2,
          "governorGloss": "Jong-un",
          "dependent": 5,
          "dependentGloss": "Führer"
        },
        {
          "dep": "punct",
          "governor": 7,
          "governorGloss": "gebrochen",
          "dependent": 6,
          "dependentGloss": "``"
        },
        {
          "dep": "appos",
          "governor": 5,
          "governorGloss": "Führer",
          "dependent": 7,
          "dependentGloss": "gebrochen"
        },
        {
          "dep": "det",
          "governor": 9,
          "governorGloss": "Knöchel",
          "dependent": 8,
          "dependentGloss": "beide"
        },
        {
          "dep": "det",
          "governor": 7,
          "governorGloss": "gebrochen",
          "dependent": 9,
          "dependentGloss": "Knöchel"
        },
        {
          "dep": "punct",
          "governor": 2,
          "governorGloss": "Jong-un",
          "dependent": 10,
          "dependentGloss": "``"
        }
      ],
      "enhancedDependencies": [
        {
          "dep": "ROOT",
          "governor": 0,
          "governorGloss": "ROOT",
          "dependent": 2,
          "dependentGloss": "Jong-un"
        },
        {
          "dep": "name",
          "governor": 2,
          "governorGloss": "Jong-un",
          "dependent": 1,
          "dependentGloss": "Kim"
        },
        {
          "dep": "punct",
          "governor": 2,
          "governorGloss": "Jong-un",
          "dependent": 3,
          "dependentGloss": ":"
        },
        {
          "dep": "amod",
          "governor": 5,
          "governorGloss": "Führer",
          "dependent": 4,
          "dependentGloss": "fettleibiger"
        },
        {
          "dep": "appos",
          "governor": 2,
          "governorGloss": "Jong-un",
          "dependent": 5,
          "dependentGloss": "Führer"
        },
        {
          "dep": "punct",
          "governor": 7,
          "governorGloss": "gebrochen",
          "dependent": 6,
          "dependentGloss": "``"
        },
        {
          "dep": "appos",
          "governor": 5,
          "governorGloss": "Führer",
          "dependent": 7,
          "dependentGloss": "gebrochen"
        },
        {
          "dep": "det",
          "governor": 9,
          "governorGloss": "Knöchel",
          "dependent": 8,
          "dependentGloss": "beide"
        },
        {
          "dep": "det",
          "governor": 7,
          "governorGloss": "gebrochen",
          "dependent": 9,
          "dependentGloss": "Knöchel"
        },
        {
          "dep": "punct",
          "governor": 2,
          "governorGloss": "Jong-un",
          "dependent": 10,
          "dependentGloss": "``"
        }
      ],
      "enhancedPlusPlusDependencies": [
        {
          "dep": "ROOT",
          "governor": 0,
          "governorGloss": "ROOT",
          "dependent": 2,
          "dependentGloss": "Jong-un"
        },
        {
          "dep": "name",
          "governor": 2,
          "governorGloss": "Jong-un",
          "dependent": 1,
          "dependentGloss": "Kim"
        },
        {
          "dep": "punct",
          "governor": 2,
          "governorGloss": "Jong-un",
          "dependent": 3,
          "dependentGloss": ":"
        },
        {
          "dep": "amod",
          "governor": 5,
          "governorGloss": "Führer",
          "dependent": 4,
          "dependentGloss": "fettleibiger"
        },
        {
          "dep": "appos",
          "governor": 2,
          "governorGloss": "Jong-un",
          "dependent": 5,
          "dependentGloss": "Führer"
        },
        {
          "dep": "punct",
          "governor": 7,
          "governorGloss": "gebrochen",
          "dependent": 6,
          "dependentGloss": "``"
        },
        {
          "dep": "appos",
          "governor": 5,
          "governorGloss": "Führer",
          "dependent": 7,
          "dependentGloss": "gebrochen"
        },
        {
          "dep": "det",
          "governor": 9,
          "governorGloss": "Knöchel",
          "dependent": 8,
          "dependentGloss": "beide"
        },
        {
          "dep": "det",
          "governor": 7,
          "governorGloss": "gebrochen",
          "dependent": 9,
          "dependentGloss": "Knöchel"
        },
        {
          "dep": "punct",
          "governor": 2,
          "governorGloss": "Jong-un",
          "dependent": 10,
          "dependentGloss": "``"
        }
      ],
      "tokens": [
        {
          "index": 1,
          "word": "Kim",
          "originalText": "Kim",
          "characterOffsetBegin": 0,
          "characterOffsetEnd": 3,
          "pos": "NE",
          "before": "",
          "after": " "
        },
        {
          "index": 2,
          "word": "Jong-un",
          "originalText": "Jong-un",
          "characterOffsetBegin": 4,
          "characterOffsetEnd": 11,
          "pos": "NE",
          "before": " ",
          "after": ""
        },
        {
          "index": 3,
          "word": ":",
          "originalText": ":",
          "characterOffsetBegin": 11,
          "characterOffsetEnd": 12,
          "pos": "$.",
          "before": "",
          "after": " "
        },
        {
          "index": 4,
          "word": "fettleibiger",
          "originalText": "fettleibiger",
          "characterOffsetBegin": 13,
          "characterOffsetEnd": 25,
          "pos": "ADJA",
          "before": " ",
          "after": " "
        },
        {
          "index": 5,
          "word": "Führer",
          "originalText": "Führer",
          "characterOffsetBegin": 26,
          "characterOffsetEnd": 32,
          "pos": "NN",
          "before": " ",
          "after": " "
        },
        {
          "index": 6,
          "word": "``",
          "originalText": "“",
          "characterOffsetBegin": 33,
          "characterOffsetEnd": 34,
          "pos": "CARD",
          "before": " ",
          "after": ""
        },
        {
          "index": 7,
          "word": "gebrochen",
          "originalText": "gebrochen",
          "characterOffsetBegin": 34,
          "characterOffsetEnd": 43,
          "pos": "VVPP",
          "before": "",
          "after": " "
        },
        {
          "index": 8,
          "word": "beide",
          "originalText": "beide",
          "characterOffsetBegin": 44,
          "characterOffsetEnd": 49,
          "pos": "PIDAT",
          "before": " ",
          "after": " "
        },
        {
          "index": 9,
          "word": "Knöchel",
          "originalText": "Knöchel",
          "characterOffsetBegin": 50,
          "characterOffsetEnd": 57,
          "pos": "NN",
          "before": " ",
          "after": ""
        },
        {
          "index": 10,
          "word": "``",
          "originalText": "“",
          "characterOffsetBegin": 57,
          "characterOffsetEnd": 58,
          "pos": "CARD",
          "before": "",
          "after": ""
        }
      ]
    }
  ]
}