{
  "sentences": [
    {
      "index": 0,
      "basicDependencies": [
        {
          "dep": "ROOT",
          "governor": 0,
          "governorGloss": "ROOT",
          "dependent": 1,
          "dependentGloss": "-LSB-"
        },
        {
          "dep": "amod",
          "governor": 3,
          "governorGloss": "-RSB-",
          "dependent": 2,
          "dependentGloss": "AKTUALISIERT"
        },
        {
          "dep": "nsubj",
          "governor": 1,
          "governorGloss": "-LSB-",
          "dependent": 3,
          "dependentGloss": "-RSB-"
        },
        {
          "dep": "nummod",
          "governor": 5,
          "governorGloss": "Männer",
          "dependent": 4,
          "dependentGloss": "11"
        },
        {
          "dep": "appos",
          "governor": 3,
          "governorGloss": "-RSB-",
          "dependent": 5,
          "dependentGloss": "Männer"
        },
        {
          "dep": "cc",
          "governor": 5,
          "governorGloss": "Männer",
          "dependent": 6,
          "dependentGloss": "und"
        },
        {
          "dep": "nummod",
          "governor": 8,
          "governorGloss": "Frauen",
          "dependent": 7,
          "dependentGloss": "0"
        },
        {
          "dep": "conj",
          "governor": 5,
          "governorGloss": "Männer",
          "dependent": 8,
          "dependentGloss": "Frauen"
        },
        {
          "dep": "case",
          "governor": 12,
          "governorGloss": "ESPN",
          "dependent": 9,
          "dependentGloss": "auf"
        },
        {
          "dep": "det",
          "governor": 12,
          "governorGloss": "ESPN",
          "dependent": 10,
          "dependentGloss": "der"
        },
        {
          "dep": "amod",
          "governor": 12,
          "governorGloss": "ESPN",
          "dependent": 11,
          "dependentGloss": "heutigen"
        },
        {
          "dep": "nmod",
          "governor": 5,
          "governorGloss": "Männer",
          "dependent": 12,
          "dependentGloss": "ESPN"
        },
        {
          "dep": "amod",
          "governor": 14,
          "governorGloss": "Violence",
          "dependent": 13,
          "dependentGloss": "Domestic"
        },
        {
          "dep": "det",
          "governor": 12,
          "governorGloss": "ESPN",
          "dependent": 14,
          "dependentGloss": "Violence"
        },
        {
          "dep": "dobj",
          "governor": 1,
          "governorGloss": "-LSB-",
          "dependent": 15,
          "dependentGloss": "Panel"
        }
      ],
      "enhancedDependencies": [
        {
          "dep": "ROOT",
          "governor": 0,
          "governorGloss": "ROOT",
          "dependent": 1,
          "dependentGloss": "-LSB-"
        },
        {
          "dep": "amod",
          "governor": 3,
          "governorGloss": "-RSB-",
          "dependent": 2,
          "dependentGloss": "AKTUALISIERT"
        },
        {
          "dep": "nsubj",
          "governor": 1,
          "governorGloss": "-LSB-",
          "dependent": 3,
          "dependentGloss": "-RSB-"
        },
        {
          "dep": "nummod",
          "governor": 5,
          "governorGloss": "Männer",
          "dependent": 4,
          "dependentGloss": "11"
        },
        {
          "dep": "appos",
          "governor": 3,
          "governorGloss": "-RSB-",
          "dependent": 5,
          "dependentGloss": "Männer"
        },
        {
          "dep": "cc",
          "governor": 5,
          "governorGloss": "Männer",
          "dependent": 6,
          "dependentGloss": "und"
        },
        {
          "dep": "nummod",
          "governor": 8,
          "governorGloss": "Frauen",
          "dependent": 7,
          "dependentGloss": "0"
        },
        {
          "dep": "appos",
          "governor": 3,
          "governorGloss": "-RSB-",
          "dependent": 8,
          "dependentGloss": "Frauen"
        },
        {
          "dep": "conj:und",
          "governor": 5,
          "governorGloss": "Männer",
          "dependent": 8,
          "dependentGloss": "Frauen"
        },
        {
          "dep": "case",
          "governor": 12,
          "governorGloss": "ESPN",
          "dependent": 9,
          "dependentGloss": "auf"
        },
        {
          "dep": "det",
          "governor": 12,
          "governorGloss": "ESPN",
          "dependent": 10,
          "dependentGloss": "der"
        },
        {
          "dep": "amod",
          "governor": 12,
          "governorGloss": "ESPN",
          "dependent": 11,
          "dependentGloss": "heutigen"
        },
        {
          "dep": "nmod",
          "governor": 5,
          "governorGloss": "Männer",
          "dependent": 12,
          "dependentGloss": "ESPN"
        },
        {
          "dep": "amod",
          "governor": 14,
          "governorGloss": "Violence",
          "dependent": 13,
          "dependentGloss": "Domestic"
        },
        {
          "dep": "det",
          "governor": 12,
          "governorGloss": "ESPN",
          "dependent": 14,
          "dependentGloss": "Violence"
        },
        {
          "dep": "dobj",
          "governor": 1,
          "governorGloss": "-LSB-",
          "dependent": 15,
          "dependentGloss": "Panel"
        }
      ],
      "enhancedPlusPlusDependencies": [
        {
          "dep": "ROOT",
          "governor": 0,
          "governorGloss": "ROOT",
          "dependent": 1,
          "dependentGloss": "-LSB-"
        },
        {
          "dep": "amod",
          "governor": 3,
          "governorGloss": "-RSB-",
          "dependent": 2,
          "dependentGloss": "AKTUALISIERT"
        },
        {
          "dep": "nsubj",
          "governor": 1,
          "governorGloss": "-LSB-",
          "dependent": 3,
          "dependentGloss": "-RSB-"
        },
        {
          "dep": "nummod",
          "governor": 5,
          "governorGloss": "Männer",
          "dependent": 4,
          "dependentGloss": "11"
        },
        {
          "dep": "appos",
          "governor": 3,
          "governorGloss": "-RSB-",
          "dependent": 5,
          "dependentGloss": "Männer"
        },
        {
          "dep": "cc",
          "governor": 5,
          "governorGloss": "Männer",
          "dependent": 6,
          "dependentGloss": "und"
        },
        {
          "dep": "nummod",
          "governor": 8,
          "governorGloss": "Frauen",
          "dependent": 7,
          "dependentGloss": "0"
        },
        {
          "dep": "appos",
          "governor": 3,
          "governorGloss": "-RSB-",
          "dependent": 8,
          "dependentGloss": "Frauen"
        },
        {
          "dep": "conj:und",
          "governor": 5,
          "governorGloss": "Männer",
          "dependent": 8,
          "dependentGloss": "Frauen"
        },
        {
          "dep": "case",
          "governor": 12,
          "governorGloss": "ESPN",
          "dependent": 9,
          "dependentGloss": "auf"
        },
        {
          "dep": "det",
          "governor": 12,
          "governorGloss": "ESPN",
          "dependent": 10,
          "dependentGloss": "der"
        },
        {
          "dep": "amod",
          "governor": 12,
          "governorGloss": "ESPN",
          "dependent": 11,
          "dependentGloss": "heutigen"
        },
        {
          "dep": "nmod",
          "governor": 5,
          "governorGloss": "Männer",
          "dependent": 12,
          "dependentGloss": "ESPN"
        },
        {
          "dep": "amod",
          "governor": 14,
          "governorGloss": "Violence",
          "dependent": 13,
          "dependentGloss": "Domestic"
        },
        {
          "dep": "det",
          "governor": 12,
          "governorGloss": "ESPN",
          "dependent": 14,
          "dependentGloss": "Violence"
        },
        {
          "dep": "dobj",
          "governor": 1,
          "governorGloss": "-LSB-",
          "dependent": 15,
          "dependentGloss": "Panel"
        }
      ],
      "tokens": [
        {
          "index": 1,
          "word": "-LSB-",
          "originalText": "[",
          "characterOffsetBegin": 0,
          "characterOffsetEnd": 1,
          "pos": "TRUNC",
          "before": "",
          "after": ""
        },
        {
          "index": 2,
          "word": "AKTUALISIERT",
          "originalText": "AKTUALISIERT",
          "characterOffsetBegin": 1,
          "characterOffsetEnd": 13,
          "pos": "NN",
          "before": "",
          "after": ""
        },
        {
          "index": 3,
          "word": "-RSB-",
          "originalText": "]",
          "characterOffsetBegin": 13,
          "characterOffsetEnd": 14,
          "pos": "TRUNC",
          "before": "",
          "after": " "
        },
        {
          "index": 4,
          "word": "11",
          "originalText": "11",
          "characterOffsetBegin": 15,
          "characterOffsetEnd": 17,
          "pos": "CARD",
          "before": " ",
          "after": " "
        },
        {
          "index": 5,
          "word": "Männer",
          "originalText": "Männer",
          "characterOffsetBegin": 18,
          "characterOffsetEnd": 24,
          "pos": "NN",
          "before": " ",
          "after": " "
        },
        {
          "index": 6,
          "word": "und",
          "originalText": "und",
          "characterOffsetBegin": 25,
          "characterOffsetEnd": 28,
          "pos": "KON",
          "before": " ",
          "after": " "
        },
        {
          "index": 7,
          "word": "0",
          "originalText": "0",
          "characterOffsetBegin": 29,
          "characterOffsetEnd": 30,
          "pos": "CARD",
          "before": " ",
          "after": " "
        },
        {
          "index": 8,
          "word": "Frauen",
          "originalText": "Frauen",
          "characterOffsetBegin": 31,
          "characterOffsetEnd": 37,
          "pos": "NN",
          "before": " ",
          "after": " "
        },
        {
          "index": 9,
          "word": "auf",
          "originalText": "auf",
          "characterOffsetBegin": 38,
          "characterOffsetEnd": 41,
          "pos": "APPR",
          "before": " ",
          "after": " "
        },
        {
          "index": 10,
          "word": "der",
          "originalText": "der",
          "characterOffsetBegin": 42,
          "characterOffsetEnd": 45,
          "pos": "ART",
          "before": " ",
          "after": " "
        },
        {
          "index": 11,
          "word": "heutigen",
          "originalText": "heutigen",
          "characterOffsetBegin": 46,
          "characterOffsetEnd": 54,
          "pos": "ADJA",
          "before": " ",
          "after": " "
        },
        {
          "index": 12,
          "word": "ESPN",
          "originalText": "ESPN",
          "characterOffsetBegin": 55,
          "characterOffsetEnd": 59,
          "pos": "NE",
          "before": " ",
          "after": " "
        },
        {
          "index": 13,
          "word": "Domestic",
          "originalText": "Domestic",
          "characterOffsetBegin": 60,
          "characterOffsetEnd": 68,
          "pos": "FM",
          "before": " ",
          "after": " "
        },
        {
          "index": 14,
          "word": "Violence",
          "originalText": "Violence",
          "characterOffsetBegin": 69,
          "characterOffsetEnd": 77,
          "pos": "FM",
          "before": " ",
          "after": " "
        },
        {
          "index": 15,
          "word": "Panel",
          "originalText": "Panel",
          "characterOffsetBegin": 78,
          "characterOffsetEnd": 83,
          "pos": "NE",
          "before": " ",
          "after": ""
        }
      ]
    }
  ]
}