{
  "sentences": [
    {
      "index": 0,
      "basicDependencies": [
        {
          "dep": "ROOT",
          "governor": 0,
          "governorGloss": "ROOT",
          "dependent": 3,
          "dependentGloss": "findet"
        },
        {
          "dep": "name",
          "governor": 2,
          "governorGloss": "Thomas",
          "dependent": 1,
          "dependentGloss": "Dylan"
        },
        {
          "dep": "nsubj",
          "governor": 3,
          "governorGloss": "findet",
          "dependent": 2,
          "dependentGloss": "Thomas"
        },
        {
          "dep": "amod",
          "governor": 5,
          "governorGloss": "Spinne",
          "dependent": 4,
          "dependentGloss": "tropische"
        },
        {
          "dep": "dobj",
          "governor": 3,
          "governorGloss": "findet",
          "dependent": 5,
          "dependentGloss": "Spinne"
        },
        {
          "dep": "case",
          "governor": 8,
          "governorGloss": "Haut",
          "dependent": 6,
          "dependentGloss": "unter"
        },
        {
          "dep": "det",
          "governor": 8,
          "governorGloss": "Haut",
          "dependent": 7,
          "dependentGloss": "der"
        },
        {
          "dep": "nmod",
          "governor": 3,
          "governorGloss": "findet",
          "dependent": 8,
          "dependentGloss": "Haut"
        }
      ],
      "enhancedDependencies": [
        {
          "dep": "ROOT",
          "governor": 0,
          "governorGloss": "ROOT",
          "dependent": 3,
          "dependentGloss": "findet"
        },
        {
          "dep": "name",
          "governor": 2,
          "governorGloss": "Thomas",
          "dependent": 1,
          "dependentGloss": "Dylan"
        },
        {
          "dep": "nsubj",
          "governor": 3,
          "governorGloss": "findet",
          "dependent": 2,
          "dependentGloss": "Thomas"
        },
        {
          "dep": "amod",
          "governor": 5,
          "governorGloss": "Spinne",
          "dependent": 4,
          "dependentGloss": "tropische"
        },
        {
          "dep": "dobj",
          "governor": 3,
          "governorGloss": "findet",
          "dependent": 5,
          "dependentGloss": "Spinne"
        },
        {
          "dep": "case",
          "governor": 8,
          "governorGloss": "Haut",
          "dependent": 6,
          "dependentGloss": "unter"
        },
        {
          "dep": "det",
          "governor": 8,
          "governorGloss": "Haut",
          "dependent": 7,
          "dependentGloss": "der"
        },
        {
          "dep": "nmod",
          "governor": 3,
          "governorGloss": "findet",
          "dependent": 8,
          "dependentGloss": "Haut"
        }
      ],
      "enhancedPlusPlusDependencies": [
        {
          "dep": "ROOT",
          "governor": 0,
          "governorGloss": "ROOT",
          "dependent": 3,
          "dependentGloss": "findet"
        },
        {
          "dep": "name",
          "governor": 2,
          "governorGloss": "Thomas",
          "dependent": 1,
          "dependentGloss": "Dylan"
        },
        {
          "dep": "nsubj",
          "governor": 3,
          "governorGloss": "findet",
          "dependent": 2,
          "dependentGloss": "Thomas"
        },
        {
          "dep": "amod",
          "governor": 5,
          "governorGloss": "Spinne",
          "dependent": 4,
          "dependentGloss": "tropische"
        },
        {
          "dep": "dobj",
          "governor": 3,
          "governorGloss": "findet",
          "dependent": 5,
          "dependentGloss": "Spinne"
        },
        {
          "dep": "case",
          "governor": 8,
          "governorGloss": "Haut",
          "dependent": 6,
          "dependentGloss": "unter"
        },
        {
          "dep": "det",
          "governor": 8,
          "governorGloss": "Haut",
          "dependent": 7,
          "dependentGloss": "der"
        },
        {
          "dep": "nmod",
          "governor": 3,
          "governorGloss": "findet",
          "dependent": 8,
          "dependentGloss": "Haut"
        }
      ],
      "tokens": [
        {
          "index": 1,
          "word": "Dylan",
          "originalText": "Dylan",
          "characterOffsetBegin": 0,
          "characterOffsetEnd": 5,
          "pos": "NE",
          "before": "",
          "after": " "
        },
        {
          "index": 2,
          "word": "Thomas",
          "originalText": "Thomas",
          "characterOffsetBegin": 6,
          "characterOffsetEnd": 12,
          "pos": "NE",
          "before": " ",
          "after": " "
        },
        {
          "index": 3,
          "word": "findet",
          "originalText": "findet",
          "characterOffsetBegin": 13,
          "characterOffsetEnd": 19,
          "pos": "VVFIN",
          "before": " ",
          "after": " "
        },
        {
          "index": 4,
          "word": "tropische",
          "originalText": "tropische",
          "characterOffsetBegin": 20,
          "characterOffsetEnd": 29,
          "pos": "ADJA",
          "before": " ",
          "after": " "
        },
        {
          "index": 5,
          "word": "Spinne",
          "originalText": "Spinne",
          "characterOffsetBegin": 30,
          "characterOffsetEnd": 36,
          "pos": "NN",
          "before": " ",
          "after": " "
        },
        {
          "index": 6,
          "word": "unter",
          "originalText": "unter",
          "characterOffsetBegin": 37,
          "characterOffsetEnd": 42,
          "pos": "APPR",
          "before": " ",
          "after": " "
        },
        {
          "index": 7,
          "word": "der",
          "originalText": "der",
          "characterOffsetBegin": 43,
          "characterOffsetEnd": 46,
          "pos": "ART",
          "before": " ",
          "after": " "
        },
        {
          "index": 8,
          "word": "Haut",
          "originalText": "Haut",
          "characterOffsetBegin": 47,
          "characterOffsetEnd": 51,
          "pos": "NN",
          "before": " ",
          "after": ""
        }
      ]
    }
  ]
}