{
  "sentences": [
    {
      "index": 0,
      "basicDependencies": [
        {
          "dep": "ROOT",
          "governor": 0,
          "governorGloss": "ROOT",
          "dependent": 3,
          "dependentGloss": "eh-oh"
        },
        {
          "dep": "dep",
          "governor": 3,
          "governorGloss": "eh-oh",
          "dependent": 1,
          "dependentGloss": "Sag"
        },
        {
          "dep": "punct",
          "governor": 3,
          "governorGloss": "eh-oh",
          "dependent": 2,
          "dependentGloss": "`"
        },
        {
          "dep": "punct",
          "governor": 3,
          "governorGloss": "eh-oh",
          "dependent": 4,
          "dependentGloss": "!"
        },
        {
          "dep": "punct",
          "governor": 3,
          "governorGloss": "eh-oh",
          "dependent": 5,
          "dependentGloss": "'"
        }
      ],
      "enhancedDependencies": [
        {
          "dep": "ROOT",
          "governor": 0,
          "governorGloss": "ROOT",
          "dependent": 3,
          "dependentGloss": "eh-oh"
        },
        {
          "dep": "dep",
          "governor": 3,
          "governorGloss": "eh-oh",
          "dependent": 1,
          "dependentGloss": "Sag"
        },
        {
          "dep": "punct",
          "governor": 3,
          "governorGloss": "eh-oh",
          "dependent": 2,
          "dependentGloss": "`"
        },
        {
          "dep": "punct",
          "governor": 3,
          "governorGloss": "eh-oh",
          "dependent": 4,
          "dependentGloss": "!"
        },
        {
          "dep": "punct",
          "governor": 3,
          "governorGloss": "eh-oh",
          "dependent": 5,
          "dependentGloss": "'"
        }
      ],
      "enhancedPlusPlusDependencies": [
        {
          "dep": "ROOT",
          "governor": 0,
          "governorGloss": "ROOT",
          "dependent": 3,
          "dependentGloss": "eh-oh"
        },
        {
          "dep": "dep",
          "governor": 3,
          "governorGloss": "eh-oh",
          "dependent": 1,
          "dependentGloss": "Sag"
        },
        {
          "dep": "punct",
          "governor": 3,
          "governorGloss": "eh-oh",
          "dependent": 2,
          "dependentGloss": "`"
        },
        {
          "dep": "punct",
          "governor": 3,
          "governorGloss": "eh-oh",
          "dependent": 4,
          "dependentGloss": "!"
        },
        {
          "dep": "punct",
          "governor": 3,
          "governorGloss": "eh-oh",
          "dependent": 5,
          "dependentGloss": "'"
        }
      ],
      "tokens": [
        {
          "index": 1,
          "word": "Sag",
          "originalText": "Sag",
          "characterOffsetBegin": 0,
          "characterOffsetEnd": 3,
          "pos": "VVIMP",
          "before": "",
          "after": " "
        },
        {
          "index": 2,
          "word": "`",
          "originalText": "'",
          "characterOffsetBegin": 4,
          "characterOffsetEnd": 5,
          "pos": "XY",
          "before": " ",
          "after": ""
        },
        {
          "index": 3,
          "word": "eh-oh",
          "originalText": "eh-oh",
          "characterOffsetBegin": 5,
          "characterOffsetEnd": 10,
          "pos": "ITJ",
          "before": "",
          "after": ""
        },
        {
          "index": 4,
          "word": "!",
          "originalText": "!",
          "characterOffsetBegin": 10,
          "characterOffsetEnd": 11,
          "pos": "$.",
          "before": "",
          "after": ""
        },
        {
          "index": 5,
          "word": "'",
          "originalText": "'",
          "characterOffsetBegin": 11,
          "characterOffsetEnd": 12,
          "pos": "$[",
          "before": "",
          "after": " "
        }
      ]
    },
    {
      "index": 1,
      "basicDependencies": [
        {
          "dep": "ROOT",
          "governor": 0,
          "governorGloss": "ROOT",
          "dependent": 14,
          "dependentGloss": "erkennen"
        },
        {
          "dep": "case",
          "governor": 4,
          "governorGloss": "SUN",
          "dependent": 1,
          "dependentGloss": "Zu"
        },
        {
          "dep": "det",
          "governor": 4,
          "governorGloss": "SUN",
          "dependent": 2,
          "dependentGloss": "den"
        },
        {
          "dep": "amod",
          "governor": 4,
          "governorGloss": "SUN",
          "dependent": 3,
          "dependentGloss": "Teletubbies"
        },
        {
          "dep": "nmod",
          "governor": 14,
          "governorGloss": "erkennen",
          "dependent": 4,
          "dependentGloss": "SUN"
        },
        {
          "dep": "compound",
          "governor": 7,
          "governorGloss": "kannst",
          "dependent": 5,
          "dependentGloss": "BABY"
        },
        {
          "dep": "punct",
          "governor": 7,
          "governorGloss": "kannst",
          "dependent": 6,
          "dependentGloss": "-"
        },
        {
          "dep": "aux",
          "governor": 14,
          "governorGloss": "erkennen",
          "dependent": 7,
          "dependentGloss": "kannst"
        },
        {
          "dep": "aux",
          "governor": 14,
          "governorGloss": "erkennen",
          "dependent": 8,
          "dependentGloss": "du"
        },
        {
          "dep": "dobj",
          "governor": 14,
          "governorGloss": "erkennen",
          "dependent": 9,
          "dependentGloss": "sie"
        },
        {
          "dep": "case",
          "governor": 12,
          "governorGloss": "Jahren",
          "dependent": 10,
          "dependentGloss": "nach"
        },
        {
          "dep": "nummod",
          "governor": 12,
          "governorGloss": "Jahren",
          "dependent": 11,
          "dependentGloss": "19"
        },
        {
          "dep": "nmod",
          "governor": 14,
          "governorGloss": "erkennen",
          "dependent": 12,
          "dependentGloss": "Jahren"
        },
        {
          "dep": "advmod",
          "governor": 14,
          "governorGloss": "erkennen",
          "dependent": 13,
          "dependentGloss": "noch"
        },
        {
          "dep": "punct",
          "governor": 14,
          "governorGloss": "erkennen",
          "dependent": 15,
          "dependentGloss": "?"
        }
      ],
      "enhancedDependencies": [
        {
          "dep": "ROOT",
          "governor": 0,
          "governorGloss": "ROOT",
          "dependent": 14,
          "dependentGloss": "erkennen"
        },
        {
          "dep": "case",
          "governor": 4,
          "governorGloss": "SUN",
          "dependent": 1,
          "dependentGloss": "Zu"
        },
        {
          "dep": "det",
          "governor": 4,
          "governorGloss": "SUN",
          "dependent": 2,
          "dependentGloss": "den"
        },
        {
          "dep": "amod",
          "governor": 4,
          "governorGloss": "SUN",
          "dependent": 3,
          "dependentGloss": "Teletubbies"
        },
        {
          "dep": "nmod",
          "governor": 14,
          "governorGloss": "erkennen",
          "dependent": 4,
          "dependentGloss": "SUN"
        },
        {
          "dep": "compound",
          "governor": 7,
          "governorGloss": "kannst",
          "dependent": 5,
          "dependentGloss": "BABY"
        },
        {
          "dep": "punct",
          "governor": 7,
          "governorGloss": "kannst",
          "dependent": 6,
          "dependentGloss": "-"
        },
        {
          "dep": "aux",
          "governor": 14,
          "governorGloss": "erkennen",
          "dependent": 7,
          "dependentGloss": "kannst"
        },
        {
          "dep": "aux",
          "governor": 14,
          "governorGloss": "erkennen",
          "dependent": 8,
          "dependentGloss": "du"
        },
        {
          "dep": "dobj",
          "governor": 14,
          "governorGloss": "erkennen",
          "dependent": 9,
          "dependentGloss": "sie"
        },
        {
          "dep": "case",
          "governor": 12,
          "governorGloss": "Jahren",
          "dependent": 10,
          "dependentGloss": "nach"
        },
        {
          "dep": "nummod",
          "governor": 12,
          "governorGloss": "Jahren",
          "dependent": 11,
          "dependentGloss": "19"
        },
        {
          "dep": "nmod",
          "governor": 14,
          "governorGloss": "erkennen",
          "dependent": 12,
          "dependentGloss": "Jahren"
        },
        {
          "dep": "advmod",
          "governor": 14,
          "governorGloss": "erkennen",
          "dependent": 13,
          "dependentGloss": "noch"
        },
        {
          "dep": "punct",
          "governor": 14,
          "governorGloss": "erkennen",
          "dependent": 15,
          "dependentGloss": "?"
        }
      ],
      "enhancedPlusPlusDependencies": [
        {
          "dep": "ROOT",
          "governor": 0,
          "governorGloss": "ROOT",
          "dependent": 14,
          "dependentGloss": "erkennen"
        },
        {
          "dep": "case",
          "governor": 4,
          "governorGloss": "SUN",
          "dependent": 1,
          "dependentGloss": "Zu"
        },
        {
          "dep": "det",
          "governor": 4,
          "governorGloss": "SUN",
          "dependent": 2,
          "dependentGloss": "den"
        },
        {
          "dep": "amod",
          "governor": 4,
          "governorGloss": "SUN",
          "dependent": 3,
          "dependentGloss": "Teletubbies"
        },
        {
          "dep": "nmod",
          "governor": 14,
          "governorGloss": "erkennen",
          "dependent": 4,
          "dependentGloss": "SUN"
        },
        {
          "dep": "compound",
          "governor": 7,
          "governorGloss": "kannst",
          "dependent": 5,
          "dependentGloss": "BABY"
        },
        {
          "dep": "punct",
          "governor": 7,
          "governorGloss": "kannst",
          "dependent": 6,
          "dependentGloss": "-"
        },
        {
          "dep": "aux",
          "governor": 14,
          "governorGloss": "erkennen",
          "dependent": 7,
          "dependentGloss": "kannst"
        },
        {
          "dep": "aux",
          "governor": 14,
          "governorGloss": "erkennen",
          "dependent": 8,
          "dependentGloss": "du"
        },
        {
          "dep": "dobj",
          "governor": 14,
          "governorGloss": "erkennen",
          "dependent": 9,
          "dependentGloss": "sie"
        },
        {
          "dep": "case",
          "governor": 12,
          "governorGloss": "Jahren",
          "dependent": 10,
          "dependentGloss": "nach"
        },
        {
          "dep": "nummod",
          "governor": 12,
          "governorGloss": "Jahren",
          "dependent": 11,
          "dependentGloss": "19"
        },
        {
          "dep": "nmod",
          "governor": 14,
          "governorGloss": "erkennen",
          "dependent": 12,
          "dependentGloss": "Jahren"
        },
        {
          "dep": "advmod",
          "governor": 14,
          "governorGloss": "erkennen",
          "dependent": 13,
          "dependentGloss": "noch"
        },
        {
          "dep": "punct",
          "governor": 14,
          "governorGloss": "erkennen",
          "dependent": 15,
          "dependentGloss": "?"
        }
      ],
      "tokens": [
        {
          "index": 1,
          "word": "Zu",
          "originalText": "Zu",
          "characterOffsetBegin": 13,
          "characterOffsetEnd": 15,
          "pos": "APPR",
          "before": " ",
          "after": " "
        },
        {
          "index": 2,
          "word": "den",
          "originalText": "den",
          "characterOffsetBegin": 16,
          "characterOffsetEnd": 19,
          "pos": "ART",
          "before": " ",
          "after": " "
        },
        {
          "index": 3,
          "word": "Teletubbies",
          "originalText": "Teletubbies",
          "characterOffsetBegin": 20,
          "characterOffsetEnd": 31,
          "pos": "NN",
          "before": " ",
          "after": " "
        },
        {
          "index": 4,
          "word": "SUN",
          "originalText": "SUN",
          "characterOffsetBegin": 32,
          "characterOffsetEnd": 35,
          "pos": "NE",
          "before": " ",
          "after": " "
        },
        {
          "index": 5,
          "word": "BABY",
          "originalText": "BABY",
          "characterOffsetBegin": 36,
          "characterOffsetEnd": 40,
          "pos": "NE",
          "before": " ",
          "after": " "
        },
        {
          "index": 6,
          "word": "-",
          "originalText": "-",
          "characterOffsetBegin": 41,
          "characterOffsetEnd": 42,
          "pos": "$[",
          "before": " ",
          "after": " "
        },
        {
          "index": 7,
          "word": "kannst",
          "originalText": "kannst",
          "characterOffsetBegin": 43,
          "characterOffsetEnd": 49,
          "pos": "VMFIN",
          "before": " ",
          "after": " "
        },
        {
          "index": 8,
          "word": "du",
          "originalText": "du",
          "characterOffsetBegin": 50,
          "characterOffsetEnd": 52,
          "pos": "PPER",
          "before": " ",
          "after": " "
        },
        {
          "index": 9,
          "word": "sie",
          "originalText": "sie",
          "characterOffsetBegin": 53,
          "characterOffsetEnd": 56,
          "pos": "PPER",
          "before": " ",
          "after": " "
        },
        {
          "index": 10,
          "word": "nach",
          "originalText": "nach",
          "characterOffsetBegin": 57,
          "characterOffsetEnd": 61,
          "pos": "APPR",
          "before": " ",
          "after": " "
        },
        {
          "index": 11,
          "word": "19",
          "originalText": "19",
          "characterOffsetBegin": 62,
          "characterOffsetEnd": 64,
          "pos": "CARD",
          "before": " ",
          "after": " "
        },
        {
          "index": 12,
          "word": "Jahren",
          "originalText": "Jahren",
          "characterOffsetBegin": 65,
          "characterOffsetEnd": 71,
          "pos": "NN",
          "before": " ",
          "after": " "
        },
        {
          "index": 13,
          "word": "noch",
          "originalText": "noch",
          "characterOffsetBegin": 72,
          "characterOffsetEnd": 76,
          "pos": "ADV",
          "before": " ",
          "after": " "
        },
        {
          "index": 14,
          "word": "erkennen",
          "originalText": "erkennen",
          "characterOffsetBegin": 77,
          "characterOffsetEnd": 85,
          "pos": "VVINF",
          "before": " ",
          "after": ""
        },
        {
          "index": 15,
          "word": "?",
          "originalText": "?",
          "characterOffsetBegin": 85,
          "characterOffsetEnd": 86,
          "pos": "$.",
          "before": "",
          "after": ""
        }
      ]
    }
  ]
}