{
  "sentences": [
    {
      "index": 0,
      "basicDependencies": [
        {
          "dep": "ROOT",
          "governor": 0,
          "governorGloss": "ROOT",
          "dependent": 12,
          "dependentGloss": "berichtet"
        },
        {
          "dep": "dep",
          "governor": 12,
          "governorGloss": "berichtet",
          "dependent": 1,
          "dependentGloss": "Nigeria"
        },
        {
          "dep": "punct",
          "governor": 1,
          "governorGloss": "Nigeria",
          "dependent": 2,
          "dependentGloss": ":"
        },
        {
          "dep": "advmod",
          "governor": 9,
          "governorGloss": "steigen",
          "dependent": 3,
          "dependentGloss": "Hoffnungen"
        },
        {
          "dep": "case",
          "governor": 5,
          "governorGloss": "Rückkehr",
          "dependent": 4,
          "dependentGloss": "auf"
        },
        {
          "dep": "nmod",
          "governor": 9,
          "governorGloss": "steigen",
          "dependent": 5,
          "dependentGloss": "Rückkehr"
        },
        {
          "dep": "case",
          "governor": 8,
          "governorGloss": "Schulmädchen",
          "dependent": 6,
          "dependentGloss": "von"
        },
        {
          "dep": "amod",
          "governor": 8,
          "governorGloss": "Schulmädchen",
          "dependent": 7,
          "dependentGloss": "entführten"
        },
        {
          "dep": "nmod",
          "governor": 5,
          "governorGloss": "Rückkehr",
          "dependent": 8,
          "dependentGloss": "Schulmädchen"
        },
        {
          "dep": "advmod",
          "governor": 12,
          "governorGloss": "berichtet",
          "dependent": 9,
          "dependentGloss": "steigen"
        },
        {
          "dep": "case",
          "governor": 11,
          "governorGloss": "Waffenstillstand",
          "dependent": 10,
          "dependentGloss": "nach"
        },
        {
          "dep": "nmod",
          "governor": 9,
          "governorGloss": "steigen",
          "dependent": 11,
          "dependentGloss": "Waffenstillstand"
        }
      ],
      "enhancedDependencies": [
        {
          "dep": "ROOT",
          "governor": 0,
          "governorGloss": "ROOT",
          "dependent": 12,
          "dependentGloss": "berichtet"
        },
        {
          "dep": "dep",
          "governor": 12,
          "governorGloss": "berichtet",
          "dependent": 1,
          "dependentGloss": "Nigeria"
        },
        {
          "dep": "punct",
          "governor": 1,
          "governorGloss": "Nigeria",
          "dependent": 2,
          "dependentGloss": ":"
        },
        {
          "dep": "advmod",
          "governor": 9,
          "governorGloss": "steigen",
          "dependent": 3,
          "dependentGloss": "Hoffnungen"
        },
        {
          "dep": "case",
          "governor": 5,
          "governorGloss": "Rückkehr",
          "dependent": 4,
          "dependentGloss": "auf"
        },
        {
          "dep": "nmod",
          "governor": 9,
          "governorGloss": "steigen",
          "dependent": 5,
          "dependentGloss": "Rückkehr"
        },
        {
          "dep": "case",
          "governor": 8,
          "governorGloss": "Schulmädchen",
          "dependent": 6,
          "dependentGloss": "von"
        },
        {
          "dep": "amod",
          "governor": 8,
          "governorGloss": "Schulmädchen",
          "dependent": 7,
          "dependentGloss": "entführten"
        },
        {
          "dep": "nmod",
          "governor": 5,
          "governorGloss": "Rückkehr",
          "dependent": 8,
          "dependentGloss": "Schulmädchen"
        },
        {
          "dep": "advmod",
          "governor": 12,
          "governorGloss": "berichtet",
          "dependent": 9,
          "dependentGloss": "steigen"
        },
        {
          "dep": "case",
          "governor": 11,
          "governorGloss": "Waffenstillstand",
          "dependent": 10,
          "dependentGloss": "nach"
        },
        {
          "dep": "nmod",
          "governor": 9,
          "governorGloss": "steigen",
          "dependent": 11,
          "dependentGloss": "Waffenstillstand"
        }
      ],
      "enhancedPlusPlusDependencies": [
        {
          "dep": "ROOT",
          "governor": 0,
          "governorGloss": "ROOT",
          "dependent": 12,
          "dependentGloss": "berichtet"
        },
        {
          "dep": "dep",
          "governor": 12,
          "governorGloss": "berichtet",
          "dependent": 1,
          "dependentGloss": "Nigeria"
        },
        {
          "dep": "punct",
          "governor": 1,
          "governorGloss": "Nigeria",
          "dependent": 2,
          "dependentGloss": ":"
        },
        {
          "dep": "advmod",
          "governor": 9,
          "governorGloss": "steigen",
          "dependent": 3,
          "dependentGloss": "Hoffnungen"
        },
        {
          "dep": "case",
          "governor": 5,
          "governorGloss": "Rückkehr",
          "dependent": 4,
          "dependentGloss": "auf"
        },
        {
          "dep": "nmod",
          "governor": 9,
          "governorGloss": "steigen",
          "dependent": 5,
          "dependentGloss": "Rückkehr"
        },
        {
          "dep": "case",
          "governor": 8,
          "governorGloss": "Schulmädchen",
          "dependent": 6,
          "dependentGloss": "von"
        },
        {
          "dep": "amod",
          "governor": 8,
          "governorGloss": "Schulmädchen",
          "dependent": 7,
          "dependentGloss": "entführten"
        },
        {
          "dep": "nmod",
          "governor": 5,
          "governorGloss": "Rückkehr",
          "dependent": 8,
          "dependentGloss": "Schulmädchen"
        },
        {
          "dep": "advmod",
          "governor": 12,
          "governorGloss": "berichtet",
          "dependent": 9,
          "dependentGloss": "steigen"
        },
        {
          "dep": "case",
          "governor": 11,
          "governorGloss": "Waffenstillstand",
          "dependent": 10,
          "dependentGloss": "nach"
        },
        {
          "dep": "nmod",
          "governor": 9,
          "governorGloss": "steigen",
          "dependent": 11,
          "dependentGloss": "Waffenstillstand"
        }
      ],
      "tokens": [
        {
          "index": 1,
          "word": "Nigeria",
          "originalText": "Nigeria",
          "characterOffsetBegin": 0,
          "characterOffsetEnd": 7,
          "pos": "NE",
          "before": "",
          "after": ""
        },
        {
          "index": 2,
          "word": ":",
          "originalText": ":",
          "characterOffsetBegin": 7,
          "characterOffsetEnd": 8,
          "pos": "$.",
          "before": "",
          "after": " "
        },
        {
          "index": 3,
          "word": "Hoffnungen",
          "originalText": "Hoffnungen",
          "characterOffsetBegin": 9,
          "characterOffsetEnd": 19,
          "pos": "NN",
          "before": " ",
          "after": " "
        },
        {
          "index": 4,
          "word": "auf",
          "originalText": "auf",
          "characterOffsetBegin": 20,
          "characterOffsetEnd": 23,
          "pos": "APPR",
          "before": " ",
          "after": " "
        },
        {
          "index": 5,
          "word": "Rückkehr",
          "originalText": "Rückkehr",
          "characterOffsetBegin": 24,
          "characterOffsetEnd": 32,
          "pos": "NN",
          "before": " ",
          "after": " "
        },
        {
          "index": 6,
          "word": "von",
          "originalText": "von",
          "characterOffsetBegin": 33,
          "characterOffsetEnd": 36,
          "pos": "APPR",
          "before": " ",
          "after": " "
        },
        {
          "index": 7,
          "word": "entführten",
          "originalText": "entführten",
          "characterOffsetBegin": 37,
          "characterOffsetEnd": 47,
          "pos": "ADJA",
          "before": " ",
          "after": " "
        },
        {
          "index": 8,
          "word": "Schulmädchen",
          "originalText": "Schulmädchen",
          "characterOffsetBegin": 48,
          "characterOffsetEnd": 60,
          "pos": "NN",
          "before": " ",
          "after": " "
        },
        {
          "index": 9,
          "word": "steigen",
          "originalText": "steigen",
          "characterOffsetBegin": 61,
          "characterOffsetEnd": 68,
          "pos": "VVFIN",
          "before": " ",
          "after": " "
        },
        {
          "index": 10,
          "word": "nach",
          "originalText": "nach",
          "characterOffsetBegin": 69,
          "characterOffsetEnd": 73,
          "pos": "APPR",
          "before": " ",
          "after": " "
        },
        {
          "index": 11,
          "word": "Waffenstillstand",
          "originalText": "Waffenstillstand",
          "characterOffsetBegin": 74,
          "characterOffsetEnd": 90,
          "pos": "NN",
          "before": " ",
          "after": " "
        },
        {
          "index": 12,
          "word": "berichtet",
          "originalText": "berichtet",
          "characterOffsetBegin": 91,
          "characterOffsetEnd": 100,
          "pos": "VVPP",
          "before": " ",
          "after": ""
        }
      ]
    }
  ]
}