{
  "sentences": [
    {
      "index": 0,
      "basicDependencies": [
        {
          "dep": "ROOT",
          "governor": 0,
          "governorGloss": "ROOT",
          "dependent": 2,
          "dependentGloss": "spielt"
        },
        {
          "dep": "nsubj",
          "governor": 2,
          "governorGloss": "spielt",
          "dependent": 1,
          "dependentGloss": "CNN"
        },
        {
          "dep": "advmod",
          "governor": 4,
          "governorGloss": "Audiotape",
          "dependent": 3,
          "dependentGloss": "angeblich"
        },
        {
          "dep": "dobj",
          "governor": 2,
          "governorGloss": "spielt",
          "dependent": 4,
          "dependentGloss": "Audiotape"
        },
        {
          "dep": "case",
          "governor": 7,
          "governorGloss": "Brown",
          "dependent": 5,
          "dependentGloss": "von"
        },
        {
          "dep": "name",
          "governor": 7,
          "governorGloss": "Brown",
          "dependent": 6,
          "dependentGloss": "Michael"
        },
        {
          "dep": "nmod",
          "governor": 4,
          "governorGloss": "Audiotape",
          "dependent": 7,
          "dependentGloss": "Brown"
        },
        {
          "dep": "advmod",
          "governor": 2,
          "governorGloss": "spielt",
          "dependent": 8,
          "dependentGloss": "ShootingMilitarisierung"
        },
        {
          "dep": "det",
          "governor": 10,
          "governorGloss": "Polizei",
          "dependent": 9,
          "dependentGloss": "der"
        },
        {
          "dep": "iobj",
          "governor": 2,
          "governorGloss": "spielt",
          "dependent": 10,
          "dependentGloss": "Polizei"
        }
      ],
      "enhancedDependencies": [
        {
          "dep": "ROOT",
          "governor": 0,
          "governorGloss": "ROOT",
          "dependent": 2,
          "dependentGloss": "spielt"
        },
        {
          "dep": "nsubj",
          "governor": 2,
          "governorGloss": "spielt",
          "dependent": 1,
          "dependentGloss": "CNN"
        },
        {
          "dep": "advmod",
          "governor": 4,
          "governorGloss": "Audiotape",
          "dependent": 3,
          "dependentGloss": "angeblich"
        },
        {
          "dep": "dobj",
          "governor": 2,
          "governorGloss": "spielt",
          "dependent": 4,
          "dependentGloss": "Audiotape"
        },
        {
          "dep": "case",
          "governor": 7,
          "governorGloss": "Brown",
          "dependent": 5,
          "dependentGloss": "von"
        },
        {
          "dep": "name",
          "governor": 7,
          "governorGloss": "Brown",
          "dependent": 6,
          "dependentGloss": "Michael"
        },
        {
          "dep": "nmod",
          "governor": 4,
          "governorGloss": "Audiotape",
          "dependent": 7,
          "dependentGloss": "Brown"
        },
        {
          "dep": "advmod",
          "governor": 2,
          "governorGloss": "spielt",
          "dependent": 8,
          "dependentGloss": "ShootingMilitarisierung"
        },
        {
          "dep": "det",
          "governor": 10,
          "governorGloss": "Polizei",
          "dependent": 9,
          "dependentGloss": "der"
        },
        {
          "dep": "iobj",
          "governor": 2,
          "governorGloss": "spielt",
          "dependent": 10,
          "dependentGloss": "Polizei"
        }
      ],
      "enhancedPlusPlusDependencies": [
        {
          "dep": "ROOT",
          "governor": 0,
          "governorGloss": "ROOT",
          "dependent": 2,
          "dependentGloss": "spielt"
        },
        {
          "dep": "nsubj",
          "governor": 2,
          "governorGloss": "spielt",
          "dependent": 1,
          "dependentGloss": "CNN"
        },
        {
          "dep": "advmod",
          "governor": 4,
          "governorGloss": "Audiotape",
          "dependent": 3,
          "dependentGloss": "angeblich"
        },
        {
          "dep": "dobj",
          "governor": 2,
          "governorGloss": "spielt",
          "dependent": 4,
          "dependentGloss": "Audiotape"
        },
        {
          "dep": "case",
          "governor": 7,
          "governorGloss": "Brown",
          "dependent": 5,
          "dependentGloss": "von"
        },
        {
          "dep": "name",
          "governor": 7,
          "governorGloss": "Brown",
          "dependent": 6,
          "dependentGloss": "Michael"
        },
        {
          "dep": "nmod",
          "governor": 4,
          "governorGloss": "Audiotape",
          "dependent": 7,
          "dependentGloss": "Brown"
        },
        {
          "dep": "advmod",
          "governor": 2,
          "governorGloss": "spielt",
          "dependent": 8,
          "dependentGloss": "ShootingMilitarisierung"
        },
        {
          "dep": "det",
          "governor": 10,
          "governorGloss": "Polizei",
          "dependent": 9,
          "dependentGloss": "der"
        },
        {
          "dep": "iobj",
          "governor": 2,
          "governorGloss": "spielt",
          "dependent": 10,
          "dependentGloss": "Polizei"
        }
      ],
      "tokens": [
        {
          "index": 1,
          "word": "CNN",
          "originalText": "CNN",
          "characterOffsetBegin": 0,
          "characterOffsetEnd": 3,
          "pos": "NE",
          "before": "",
          "after": " "
        },
        {
          "index": 2,
          "word": "spielt",
          "originalText": "spielt",
          "characterOffsetBegin": 4,
          "characterOffsetEnd": 10,
          "pos": "VVFIN",
          "before": " ",
          "after": " "
        },
        {
          "index": 3,
          "word": "angeblich",
          "originalText": "angeblich",
          "characterOffsetBegin": 11,
          "characterOffsetEnd": 20,
          "pos": "ADJD",
          "before": " ",
          "after": " "
        },
        {
          "index": 4,
          "word": "Audiotape",
          "originalText": "Audiotape",
          "characterOffsetBegin": 21,
          "characterOffsetEnd": 30,
          "pos": "NN",
          "before": " ",
          "after": " "
        },
        {
          "index": 5,
          "word": "von",
          "originalText": "von",
          "characterOffsetBegin": 31,
          "characterOffsetEnd": 34,
          "pos": "APPR",
          "before": " ",
          "after": " "
        },
        {
          "index": 6,
          "word": "Michael",
          "originalText": "Michael",
          "characterOffsetBegin": 35,
          "characterOffsetEnd": 42,
          "pos": "NE",
          "before": " ",
          "after": " "
        },
        {
          "index": 7,
          "word": "Brown",
          "originalText": "Brown",
          "characterOffsetBegin": 43,
          "characterOffsetEnd": 48,
          "pos": "NE",
          "before": " ",
          "after": " "
        },
        {
          "index": 8,
          "word": "ShootingMilitarisierung",
          "originalText": "ShootingMilitarisierung",
          "characterOffsetBegin": 49,
          "characterOffsetEnd": 72,
          "pos": "NN",
          "before": " ",
          "after": " "
        },
        {
          "index": 9,
          "word": "der",
          "originalText": "der",
          "characterOffsetBegin": 73,
          "characterOffsetEnd": 76,
          "pos": "ART",
          "before": " ",
          "after": " "
        },
        {
          "index": 10,
          "word": "Polizei",
          "originalText": "Polizei",
          "characterOffsetBegin": 77,
          "characterOffsetEnd": 84,
          "pos": "NN",
          "before": " ",
          "after": ""
        }
      ]
    }
  ]
}