{
  "sentences": [
    {
      "index": 0,
      "basicDependencies": [
        {
          "dep": "ROOT",
          "governor": 0,
          "governorGloss": "ROOT",
          "dependent": 3,
          "dependentGloss": "Serving"
        },
        {
          "dep": "name",
          "governor": 3,
          "governorGloss": "Serving",
          "dependent": 1,
          "dependentGloss": "$"
        },
        {
          "dep": "name",
          "governor": 3,
          "governorGloss": "Serving",
          "dependent": 2,
          "dependentGloss": "YUM"
        },
        {
          "dep": "advmod",
          "governor": 5,
          "governorGloss": "#Marijuana",
          "dependent": 4,
          "dependentGloss": "Up"
        },
        {
          "dep": "appos",
          "governor": 3,
          "governorGloss": "Serving",
          "dependent": 5,
          "dependentGloss": "#Marijuana"
        },
        {
          "dep": "amod",
          "governor": 7,
          "governorGloss": "Gebratenes",
          "dependent": 6,
          "dependentGloss": "&"
        },
        {
          "dep": "nsubj",
          "governor": 5,
          "governorGloss": "#Marijuana",
          "dependent": 7,
          "dependentGloss": "Gebratenes"
        },
        {
          "dep": "dobj",
          "governor": 5,
          "governorGloss": "#Marijuana",
          "dependent": 8,
          "dependentGloss": "Huhn"
        }
      ],
      "enhancedDependencies": [
        {
          "dep": "ROOT",
          "governor": 0,
          "governorGloss": "ROOT",
          "dependent": 3,
          "dependentGloss": "Serving"
        },
        {
          "dep": "name",
          "governor": 3,
          "governorGloss": "Serving",
          "dependent": 1,
          "dependentGloss": "$"
        },
        {
          "dep": "name",
          "governor": 3,
          "governorGloss": "Serving",
          "dependent": 2,
          "dependentGloss": "YUM"
        },
        {
          "dep": "advmod",
          "governor": 5,
          "governorGloss": "#Marijuana",
          "dependent": 4,
          "dependentGloss": "Up"
        },
        {
          "dep": "appos",
          "governor": 3,
          "governorGloss": "Serving",
          "dependent": 5,
          "dependentGloss": "#Marijuana"
        },
        {
          "dep": "amod",
          "governor": 7,
          "governorGloss": "Gebratenes",
          "dependent": 6,
          "dependentGloss": "&"
        },
        {
          "dep": "nsubj",
          "governor": 5,
          "governorGloss": "#Marijuana",
          "dependent": 7,
          "dependentGloss": "Gebratenes"
        },
        {
          "dep": "dobj",
          "governor": 5,
          "governorGloss": "#Marijuana",
          "dependent": 8,
          "dependentGloss": "Huhn"
        }
      ],
      "enhancedPlusPlusDependencies": [
        {
          "dep": "ROOT",
          "governor": 0,
          "governorGloss": "ROOT",
          "dependent": 3,
          "dependentGloss": "Serving"
        },
        {
          "dep": "name",
          "governor": 3,
          "governorGloss": "Serving",
          "dependent": 1,
          "dependentGloss": "$"
        },
        {
          "dep": "name",
          "governor": 3,
          "governorGloss": "Serving",
          "dependent": 2,
          "dependentGloss": "YUM"
        },
        {
          "dep": "advmod",
          "governor": 5,
          "governorGloss": "#Marijuana",
          "dependent": 4,
          "dependentGloss": "Up"
        },
        {
          "dep": "appos",
          "governor": 3,
          "governorGloss": "Serving",
          "dependent": 5,
          "dependentGloss": "#Marijuana"
        },
        {
          "dep": "amod",
          "governor": 7,
          "governorGloss": "Gebratenes",
          "dependent": 6,
          "dependentGloss": "&"
        },
        {
          "dep": "nsubj",
          "governor": 5,
          "governorGloss": "#Marijuana",
          "dependent": 7,
          "dependentGloss": "Gebratenes"
        },
        {
          "dep": "dobj",
          "governor": 5,
          "governorGloss": "#Marijuana",
          "dependent": 8,
          "dependentGloss": "Huhn"
        }
      ],
      "tokens": [
        {
          "index": 1,
          "word": "$",
          "originalText": "$",
          "characterOffsetBegin": 0,
          "characterOffsetEnd": 1,
          "pos": "XY",
          "before": "",
          "after": " "
        },
        {
          "index": 2,
          "word": "YUM",
          "originalText": "YUM",
          "characterOffsetBegin": 2,
          "characterOffsetEnd": 5,
          "pos": "NE",
          "before": " ",
          "after": " "
        },
        {
          "index": 3,
          "word": "Serving",
          "originalText": "Serving",
          "characterOffsetBegin": 6,
          "characterOffsetEnd": 13,
          "pos": "NE",
          "before": " ",
          "after": " "
        },
        {
          "index": 4,
          "word": "Up",
          "originalText": "Up",
          "characterOffsetBegin": 14,
          "characterOffsetEnd": 16,
          "pos": "NE",
          "before": " ",
          "after": " "
        },
        {
          "index": 5,
          "word": "#Marijuana",
          "originalText": "#Marijuana",
          "characterOffsetBegin": 17,
          "characterOffsetEnd": 27,
          "pos": "NE",
          "before": " ",
          "after": " "
        },
        {
          "index": 6,
          "word": "&",
          "originalText": "&",
          "characterOffsetBegin": 28,
          "characterOffsetEnd": 29,
          "pos": "KON",
          "before": " ",
          "after": " "
        },
        {
          "index": 7,
          "word": "Gebratenes",
          "originalText": "Gebratenes",
          "characterOffsetBegin": 30,
          "characterOffsetEnd": 40,
          "pos": "ADJA",
          "before": " ",
          "after": " "
        },
        {
          "index": 8,
          "word": "Huhn",
          "originalText": "Huhn",
          "characterOffsetBegin": 41,
          "characterOffsetEnd": 45,
          "pos": "NN",
          "before": " ",
          "after": ""
        }
      ]
    }
  ]
}