{
  "sentences": [
    {
      "index": 0,
      "basicDependencies": [
        {
          "dep": "ROOT",
          "governor": 0,
          "governorGloss": "ROOT",
          "dependent": 8,
          "dependentGloss": "Shooting"
        },
        {
          "dep": "amod",
          "governor": 2,
          "governorGloss": "Beiträge",
          "dependent": 1,
          "dependentGloss": "CNN"
        },
        {
          "dep": "dobj",
          "governor": 8,
          "governorGloss": "Shooting",
          "dependent": 2,
          "dependentGloss": "Beiträge"
        },
        {
          "dep": "advmod",
          "governor": 8,
          "governorGloss": "Shooting",
          "dependent": 3,
          "dependentGloss": "angeblich"
        },
        {
          "dep": "nsubj",
          "governor": 8,
          "governorGloss": "Shooting",
          "dependent": 4,
          "dependentGloss": "Audio"
        },
        {
          "dep": "case",
          "governor": 7,
          "governorGloss": "Brown",
          "dependent": 5,
          "dependentGloss": "von"
        },
        {
          "dep": "name",
          "governor": 7,
          "governorGloss": "Brown",
          "dependent": 6,
          "dependentGloss": "Michael"
        },
        {
          "dep": "nmod",
          "governor": 4,
          "governorGloss": "Audio",
          "dependent": 7,
          "dependentGloss": "Brown"
        }
      ],
      "enhancedDependencies": [
        {
          "dep": "ROOT",
          "governor": 0,
          "governorGloss": "ROOT",
          "dependent": 8,
          "dependentGloss": "Shooting"
        },
        {
          "dep": "amod",
          "governor": 2,
          "governorGloss": "Beiträge",
          "dependent": 1,
          "dependentGloss": "CNN"
        },
        {
          "dep": "dobj",
          "governor": 8,
          "governorGloss": "Shooting",
          "dependent": 2,
          "dependentGloss": "Beiträge"
        },
        {
          "dep": "advmod",
          "governor": 8,
          "governorGloss": "Shooting",
          "dependent": 3,
          "dependentGloss": "angeblich"
        },
        {
          "dep": "nsubj",
          "governor": 8,
          "governorGloss": "Shooting",
          "dependent": 4,
          "dependentGloss": "Audio"
        },
        {
          "dep": "case",
          "governor": 7,
          "governorGloss": "Brown",
          "dependent": 5,
          "dependentGloss": "von"
        },
        {
          "dep": "name",
          "governor": 7,
          "governorGloss": "Brown",
          "dependent": 6,
          "dependentGloss": "Michael"
        },
        {
          "dep": "nmod",
          "governor": 4,
          "governorGloss": "Audio",
          "dependent": 7,
          "dependentGloss": "Brown"
        }
      ],
      "enhancedPlusPlusDependencies": [
        {
          "dep": "ROOT",
          "governor": 0,
          "governorGloss": "ROOT",
          "dependent": 8,
          "dependentGloss": "Shooting"
        },
        {
          "dep": "amod",
          "governor": 2,
          "governorGloss": "Beiträge",
          "dependent": 1,
          "dependentGloss": "CNN"
        },
        {
          "dep": "dobj",
          "governor": 8,
          "governorGloss": "Shooting",
          "dependent": 2,
          "dependentGloss": "Beiträge"
        },
        {
          "dep": "advmod",
          "governor": 8,
          "governorGloss": "Shooting",
          "dependent": 3,
          "dependentGloss": "angeblich"
        },
        {
          "dep": "nsubj",
          "governor": 8,
          "governorGloss": "Shooting",
          "dependent": 4,
          "dependentGloss": "Audio"
        },
        {
          "dep": "case",
          "governor": 7,
          "governorGloss": "Brown",
          "dependent": 5,
          "dependentGloss": "von"
        },
        {
          "dep": "name",
          "governor": 7,
          "governorGloss": "Brown",
          "dependent": 6,
          "dependentGloss": "Michael"
        },
        {
          "dep": "nmod",
          "governor": 4,
          "governorGloss": "Audio",
          "dependent": 7,
          "dependentGloss": "Brown"
        }
      ],
      "tokens": [
        {
          "index": 1,
          "word": "CNN",
          "originalText": "CNN",
          "characterOffsetBegin": 0,
          "characterOffsetEnd": 3,
          "pos": "NE",
          "before": "",
          "after": " "
        },
        {
          "index": 2,
          "word": "Beiträge",
          "originalText": "Beiträge",
          "characterOffsetBegin": 4,
          "characterOffsetEnd": 12,
          "pos": "NN",
          "before": " ",
          "after": " "
        },
        {
          "index": 3,
          "word": "angeblich",
          "originalText": "angeblich",
          "characterOffsetBegin": 13,
          "characterOffsetEnd": 22,
          "pos": "ADJD",
          "before": " ",
          "after": " "
        },
        {
          "index": 4,
          "word": "Audio",
          "originalText": "Audio",
          "characterOffsetBegin": 23,
          "characterOffsetEnd": 28,
          "pos": "NN",
          "before": " ",
          "after": " "
        },
        {
          "index": 5,
          "word": "von",
          "originalText": "von",
          "characterOffsetBegin": 29,
          "characterOffsetEnd": 32,
          "pos": "APPR",
          "before": " ",
          "after": " "
        },
        {
          "index": 6,
          "word": "Michael",
          "originalText": "Michael",
          "characterOffsetBegin": 33,
          "characterOffsetEnd": 40,
          "pos": "NE",
          "before": " ",
          "after": " "
        },
        {
          "index": 7,
          "word": "Brown",
          "originalText": "Brown",
          "characterOffsetBegin": 41,
          "characterOffsetEnd": 46,
          "pos": "NE",
          "before": " ",
          "after": " "
        },
        {
          "index": 8,
          "word": "Shooting",
          "originalText": "Shooting",
          "characterOffsetBegin": 47,
          "characterOffsetEnd": 55,
          "pos": "NE",
          "before": " ",
          "after": ""
        }
      ]
    }
  ]
}