{
  "sentences": [
    {
      "index": 0,
      "basicDependencies": [
        {
          "dep": "ROOT",
          "governor": 0,
          "governorGloss": "ROOT",
          "dependent": 2,
          "dependentGloss": "blockiert"
        },
        {
          "dep": "nsubj",
          "governor": 2,
          "governorGloss": "blockiert",
          "dependent": 1,
          "dependentGloss": "Comcast"
        },
        {
          "dep": "advmod",
          "governor": 2,
          "governorGloss": "blockiert",
          "dependent": 3,
          "dependentGloss": "Tor"
        }
      ],
      "enhancedDependencies": [
        {
          "dep": "ROOT",
          "governor": 0,
          "governorGloss": "ROOT",
          "dependent": 2,
          "dependentGloss": "blockiert"
        },
        {
          "dep": "nsubj",
          "governor": 2,
          "governorGloss": "blockiert",
          "dependent": 1,
          "dependentGloss": "Comcast"
        },
        {
          "dep": "advmod",
          "governor": 2,
          "governorGloss": "blockiert",
          "dependent": 3,
          "dependentGloss": "Tor"
        }
      ],
      "enhancedPlusPlusDependencies": [
        {
          "dep": "ROOT",
          "governor": 0,
          "governorGloss": "ROOT",
          "dependent": 2,
          "dependentGloss": "blockiert"
        },
        {
          "dep": "nsubj",
          "governor": 2,
          "governorGloss": "blockiert",
          "dependent": 1,
          "dependentGloss": "Comcast"
        },
        {
          "dep": "advmod",
          "governor": 2,
          "governorGloss": "blockiert",
          "dependent": 3,
          "dependentGloss": "Tor"
        }
      ],
      "tokens": [
        {
          "index": 1,
          "word": "Comcast",
          "originalText": "Comcast",
          "characterOffsetBegin": 0,
          "characterOffsetEnd": 7,
          "pos": "NE",
          "before": "",
          "after": " "
        },
        {
          "index": 2,
          "word": "blockiert",
          "originalText": "blockiert",
          "characterOffsetBegin": 8,
          "characterOffsetEnd": 17,
          "pos": "VVFIN",
          "before": " ",
          "after": " "
        },
        {
          "index": 3,
          "word": "Tor",
          "originalText": "Tor",
          "characterOffsetBegin": 18,
          "characterOffsetEnd": 21,
          "pos": "NN",
          "before": " ",
          "after": ""
        }
      ]
    }
  ]
}