{
  "sentences": [
    {
      "index": 0,
      "basicDependencies": [
        {
          "dep": "ROOT",
          "governor": 0,
          "governorGloss": "ROOT",
          "dependent": 1,
          "dependentGloss": "Unbestätigt"
        },
        {
          "dep": "punct",
          "governor": 1,
          "governorGloss": "Unbestätigt",
          "dependent": 2,
          "dependentGloss": ":"
        },
        {
          "dep": "amod",
          "governor": 6,
          "governorGloss": "Mueller",
          "dependent": 3,
          "dependentGloss": "ISIS"
        },
        {
          "dep": "amod",
          "governor": 6,
          "governorGloss": "Mueller",
          "dependent": 4,
          "dependentGloss": "behauptet"
        },
        {
          "dep": "amod",
          "governor": 6,
          "governorGloss": "Mueller",
          "dependent": 5,
          "dependentGloss": "Kayla"
        },
        {
          "dep": "appos",
          "governor": 1,
          "governorGloss": "Unbestätigt",
          "dependent": 6,
          "dependentGloss": "Mueller"
        },
        {
          "dep": "punct",
          "governor": 6,
          "governorGloss": "Mueller",
          "dependent": 7,
          "dependentGloss": ","
        },
        {
          "dep": "amod",
          "governor": 10,
          "governorGloss": "Geisel",
          "dependent": 8,
          "dependentGloss": "amerikanische"
        },
        {
          "dep": "amod",
          "governor": 10,
          "governorGloss": "Geisel",
          "dependent": 9,
          "dependentGloss": "weibliche"
        },
        {
          "dep": "conj",
          "governor": 6,
          "governorGloss": "Mueller",
          "dependent": 10,
          "dependentGloss": "Geisel"
        },
        {
          "dep": "punct",
          "governor": 6,
          "governorGloss": "Mueller",
          "dependent": 11,
          "dependentGloss": ","
        },
        {
          "dep": "cop",
          "governor": 13,
          "governorGloss": "tot",
          "dependent": 12,
          "dependentGloss": "ist"
        },
        {
          "dep": "conj",
          "governor": 6,
          "governorGloss": "Mueller",
          "dependent": 13,
          "dependentGloss": "tot"
        }
      ],
      "enhancedDependencies": [
        {
          "dep": "ROOT",
          "governor": 0,
          "governorGloss": "ROOT",
          "dependent": 1,
          "dependentGloss": "Unbestätigt"
        },
        {
          "dep": "punct",
          "governor": 1,
          "governorGloss": "Unbestätigt",
          "dependent": 2,
          "dependentGloss": ":"
        },
        {
          "dep": "amod",
          "governor": 6,
          "governorGloss": "Mueller",
          "dependent": 3,
          "dependentGloss": "ISIS"
        },
        {
          "dep": "amod",
          "governor": 6,
          "governorGloss": "Mueller",
          "dependent": 4,
          "dependentGloss": "behauptet"
        },
        {
          "dep": "amod",
          "governor": 6,
          "governorGloss": "Mueller",
          "dependent": 5,
          "dependentGloss": "Kayla"
        },
        {
          "dep": "appos",
          "governor": 1,
          "governorGloss": "Unbestätigt",
          "dependent": 6,
          "dependentGloss": "Mueller"
        },
        {
          "dep": "punct",
          "governor": 6,
          "governorGloss": "Mueller",
          "dependent": 7,
          "dependentGloss": ","
        },
        {
          "dep": "amod",
          "governor": 10,
          "governorGloss": "Geisel",
          "dependent": 8,
          "dependentGloss": "amerikanische"
        },
        {
          "dep": "amod",
          "governor": 10,
          "governorGloss": "Geisel",
          "dependent": 9,
          "dependentGloss": "weibliche"
        },
        {
          "dep": "conj",
          "governor": 6,
          "governorGloss": "Mueller",
          "dependent": 10,
          "dependentGloss": "Geisel"
        },
        {
          "dep": "punct",
          "governor": 6,
          "governorGloss": "Mueller",
          "dependent": 11,
          "dependentGloss": ","
        },
        {
          "dep": "cop",
          "governor": 13,
          "governorGloss": "tot",
          "dependent": 12,
          "dependentGloss": "ist"
        },
        {
          "dep": "conj",
          "governor": 6,
          "governorGloss": "Mueller",
          "dependent": 13,
          "dependentGloss": "tot"
        }
      ],
      "enhancedPlusPlusDependencies": [
        {
          "dep": "ROOT",
          "governor": 0,
          "governorGloss": "ROOT",
          "dependent": 1,
          "dependentGloss": "Unbestätigt"
        },
        {
          "dep": "punct",
          "governor": 1,
          "governorGloss": "Unbestätigt",
          "dependent": 2,
          "dependentGloss": ":"
        },
        {
          "dep": "amod",
          "governor": 6,
          "governorGloss": "Mueller",
          "dependent": 3,
          "dependentGloss": "ISIS"
        },
        {
          "dep": "amod",
          "governor": 6,
          "governorGloss": "Mueller",
          "dependent": 4,
          "dependentGloss": "behauptet"
        },
        {
          "dep": "amod",
          "governor": 6,
          "governorGloss": "Mueller",
          "dependent": 5,
          "dependentGloss": "Kayla"
        },
        {
          "dep": "appos",
          "governor": 1,
          "governorGloss": "Unbestätigt",
          "dependent": 6,
          "dependentGloss": "Mueller"
        },
        {
          "dep": "punct",
          "governor": 6,
          "governorGloss": "Mueller",
          "dependent": 7,
          "dependentGloss": ","
        },
        {
          "dep": "amod",
          "governor": 10,
          "governorGloss": "Geisel",
          "dependent": 8,
          "dependentGloss": "amerikanische"
        },
        {
          "dep": "amod",
          "governor": 10,
          "governorGloss": "Geisel",
          "dependent": 9,
          "dependentGloss": "weibliche"
        },
        {
          "dep": "conj",
          "governor": 6,
          "governorGloss": "Mueller",
          "dependent": 10,
          "dependentGloss": "Geisel"
        },
        {
          "dep": "punct",
          "governor": 6,
          "governorGloss": "Mueller",
          "dependent": 11,
          "dependentGloss": ","
        },
        {
          "dep": "cop",
          "governor": 13,
          "governorGloss": "tot",
          "dependent": 12,
          "dependentGloss": "ist"
        },
        {
          "dep": "conj",
          "governor": 6,
          "governorGloss": "Mueller",
          "dependent": 13,
          "dependentGloss": "tot"
        }
      ],
      "tokens": [
        {
          "index": 1,
          "word": "Unbestätigt",
          "originalText": "Unbestätigt",
          "characterOffsetBegin": 0,
          "characterOffsetEnd": 11,
          "pos": "ADJD",
          "before": "",
          "after": ""
        },
        {
          "index": 2,
          "word": ":",
          "originalText": ":",
          "characterOffsetBegin": 11,
          "characterOffsetEnd": 12,
          "pos": "$.",
          "before": "",
          "after": " "
        },
        {
          "index": 3,
          "word": "ISIS",
          "originalText": "ISIS",
          "characterOffsetBegin": 13,
          "characterOffsetEnd": 17,
          "pos": "NE",
          "before": " ",
          "after": " "
        },
        {
          "index": 4,
          "word": "behauptet",
          "originalText": "behauptet",
          "characterOffsetBegin": 18,
          "characterOffsetEnd": 27,
          "pos": "VVFIN",
          "before": " ",
          "after": " "
        },
        {
          "index": 5,
          "word": "Kayla",
          "originalText": "Kayla",
          "characterOffsetBegin": 28,
          "characterOffsetEnd": 33,
          "pos": "NE",
          "before": " ",
          "after": " "
        },
        {
          "index": 6,
          "word": "Mueller",
          "originalText": "Mueller",
          "characterOffsetBegin": 34,
          "characterOffsetEnd": 41,
          "pos": "NE",
          "before": " ",
          "after": ""
        },
        {
          "index": 7,
          "word": ",",
          "originalText": ",",
          "characterOffsetBegin": 41,
          "characterOffsetEnd": 42,
          "pos": "$,",
          "before": "",
          "after": " "
        },
        {
          "index": 8,
          "word": "amerikanische",
          "originalText": "amerikanische",
          "characterOffsetBegin": 43,
          "characterOffsetEnd": 56,
          "pos": "ADJA",
          "before": " ",
          "after": " "
        },
        {
          "index": 9,
          "word": "weibliche",
          "originalText": "weibliche",
          "characterOffsetBegin": 57,
          "characterOffsetEnd": 66,
          "pos": "ADJA",
          "before": " ",
          "after": " "
        },
        {
          "index": 10,
          "word": "Geisel",
          "originalText": "Geisel",
          "characterOffsetBegin": 67,
          "characterOffsetEnd": 73,
          "pos": "NN",
          "before": " ",
          "after": ""
        },
        {
          "index": 11,
          "word": ",",
          "originalText": ",",
          "characterOffsetBegin": 73,
          "characterOffsetEnd": 74,
          "pos": "$,",
          "before": "",
          "after": " "
        },
        {
          "index": 12,
          "word": "ist",
          "originalText": "ist",
          "characterOffsetBegin": 75,
          "characterOffsetEnd": 78,
          "pos": "VAFIN",
          "before": " ",
          "after": " "
        },
        {
          "index": 13,
          "word": "tot",
          "originalText": "tot",
          "characterOffsetBegin": 79,
          "characterOffsetEnd": 82,
          "pos": "ADJD",
          "before": " ",
          "after": ""
        }
      ]
    }
  ]
}