{
  "sentences": [
    {
      "index": 0,
      "basicDependencies": [
        {
          "dep": "ROOT",
          "governor": 0,
          "governorGloss": "ROOT",
          "dependent": 2,
          "dependentGloss": "gestohlen"
        },
        {
          "dep": "nsubj",
          "governor": 2,
          "governorGloss": "gestohlen",
          "dependent": 1,
          "dependentGloss": "Batmobile"
        },
        {
          "dep": "case",
          "governor": 7,
          "governorGloss": "Superman",
          "dependent": 3,
          "dependentGloss": "von"
        },
        {
          "dep": "punct",
          "governor": 7,
          "governorGloss": "Superman",
          "dependent": 4,
          "dependentGloss": "`"
        },
        {
          "dep": "name",
          "governor": 7,
          "governorGloss": "Superman",
          "dependent": 5,
          "dependentGloss": "Batman"
        },
        {
          "dep": "name",
          "governor": 7,
          "governorGloss": "Superman",
          "dependent": 6,
          "dependentGloss": "V"
        },
        {
          "dep": "nmod",
          "governor": 2,
          "governorGloss": "gestohlen",
          "dependent": 7,
          "dependentGloss": "Superman"
        },
        {
          "dep": "punct",
          "governor": 2,
          "governorGloss": "gestohlen",
          "dependent": 8,
          "dependentGloss": ":"
        },
        {
          "dep": "cop",
          "governor": 13,
          "governorGloss": "Set",
          "dependent": 9,
          "dependentGloss": "Dämmerung"
        },
        {
          "dep": "det",
          "governor": 11,
          "governorGloss": "Gerechtigkeit",
          "dependent": 10,
          "dependentGloss": "der"
        },
        {
          "dep": "det",
          "governor": 13,
          "governorGloss": "Set",
          "dependent": 11,
          "dependentGloss": "Gerechtigkeit"
        },
        {
          "dep": "punct",
          "governor": 11,
          "governorGloss": "Gerechtigkeit",
          "dependent": 12,
          "dependentGloss": "'"
        },
        {
          "dep": "parataxis",
          "governor": 2,
          "governorGloss": "gestohlen",
          "dependent": 13,
          "dependentGloss": "Set"
        },
        {
          "dep": "punct",
          "governor": 13,
          "governorGloss": "Set",
          "dependent": 14,
          "dependentGloss": "?"
        }
      ],
      "enhancedDependencies": [
        {
          "dep": "ROOT",
          "governor": 0,
          "governorGloss": "ROOT",
          "dependent": 2,
          "dependentGloss": "gestohlen"
        },
        {
          "dep": "nsubj",
          "governor": 2,
          "governorGloss": "gestohlen",
          "dependent": 1,
          "dependentGloss": "Batmobile"
        },
        {
          "dep": "case",
          "governor": 7,
          "governorGloss": "Superman",
          "dependent": 3,
          "dependentGloss": "von"
        },
        {
          "dep": "punct",
          "governor": 7,
          "governorGloss": "Superman",
          "dependent": 4,
          "dependentGloss": "`"
        },
        {
          "dep": "name",
          "governor": 7,
          "governorGloss": "Superman",
          "dependent": 5,
          "dependentGloss": "Batman"
        },
        {
          "dep": "name",
          "governor": 7,
          "governorGloss": "Superman",
          "dependent": 6,
          "dependentGloss": "V"
        },
        {
          "dep": "nmod",
          "governor": 2,
          "governorGloss": "gestohlen",
          "dependent": 7,
          "dependentGloss": "Superman"
        },
        {
          "dep": "punct",
          "governor": 2,
          "governorGloss": "gestohlen",
          "dependent": 8,
          "dependentGloss": ":"
        },
        {
          "dep": "cop",
          "governor": 13,
          "governorGloss": "Set",
          "dependent": 9,
          "dependentGloss": "Dämmerung"
        },
        {
          "dep": "det",
          "governor": 11,
          "governorGloss": "Gerechtigkeit",
          "dependent": 10,
          "dependentGloss": "der"
        },
        {
          "dep": "det",
          "governor": 13,
          "governorGloss": "Set",
          "dependent": 11,
          "dependentGloss": "Gerechtigkeit"
        },
        {
          "dep": "punct",
          "governor": 11,
          "governorGloss": "Gerechtigkeit",
          "dependent": 12,
          "dependentGloss": "'"
        },
        {
          "dep": "parataxis",
          "governor": 2,
          "governorGloss": "gestohlen",
          "dependent": 13,
          "dependentGloss": "Set"
        },
        {
          "dep": "punct",
          "governor": 13,
          "governorGloss": "Set",
          "dependent": 14,
          "dependentGloss": "?"
        }
      ],
      "enhancedPlusPlusDependencies": [
        {
          "dep": "ROOT",
          "governor": 0,
          "governorGloss": "ROOT",
          "dependent": 2,
          "dependentGloss": "gestohlen"
        },
        {
          "dep": "nsubj",
          "governor": 2,
          "governorGloss": "gestohlen",
          "dependent": 1,
          "dependentGloss": "Batmobile"
        },
        {
          "dep": "case",
          "governor": 7,
          "governorGloss": "Superman",
          "dependent": 3,
          "dependentGloss": "von"
        },
        {
          "dep": "punct",
          "governor": 7,
          "governorGloss": "Superman",
          "dependent": 4,
          "dependentGloss": "`"
        },
        {
          "dep": "name",
          "governor": 7,
          "governorGloss": "Superman",
          "dependent": 5,
          "dependentGloss": "Batman"
        },
        {
          "dep": "name",
          "governor": 7,
          "governorGloss": "Superman",
          "dependent": 6,
          "dependentGloss": "V"
        },
        {
          "dep": "nmod",
          "governor": 2,
          "governorGloss": "gestohlen",
          "dependent": 7,
          "dependentGloss": "Superman"
        },
        {
          "dep": "punct",
          "governor": 2,
          "governorGloss": "gestohlen",
          "dependent": 8,
          "dependentGloss": ":"
        },
        {
          "dep": "cop",
          "governor": 13,
          "governorGloss": "Set",
          "dependent": 9,
          "dependentGloss": "Dämmerung"
        },
        {
          "dep": "det",
          "governor": 11,
          "governorGloss": "Gerechtigkeit",
          "dependent": 10,
          "dependentGloss": "der"
        },
        {
          "dep": "det",
          "governor": 13,
          "governorGloss": "Set",
          "dependent": 11,
          "dependentGloss": "Gerechtigkeit"
        },
        {
          "dep": "punct",
          "governor": 11,
          "governorGloss": "Gerechtigkeit",
          "dependent": 12,
          "dependentGloss": "'"
        },
        {
          "dep": "parataxis",
          "governor": 2,
          "governorGloss": "gestohlen",
          "dependent": 13,
          "dependentGloss": "Set"
        },
        {
          "dep": "punct",
          "governor": 13,
          "governorGloss": "Set",
          "dependent": 14,
          "dependentGloss": "?"
        }
      ],
      "tokens": [
        {
          "index": 1,
          "word": "Batmobile",
          "originalText": "Batmobile",
          "characterOffsetBegin": 0,
          "characterOffsetEnd": 9,
          "pos": "NN",
          "before": "",
          "after": " "
        },
        {
          "index": 2,
          "word": "gestohlen",
          "originalText": "gestohlen",
          "characterOffsetBegin": 10,
          "characterOffsetEnd": 19,
          "pos": "VVPP",
          "before": " ",
          "after": " "
        },
        {
          "index": 3,
          "word": "von",
          "originalText": "von",
          "characterOffsetBegin": 20,
          "characterOffsetEnd": 23,
          "pos": "APPR",
          "before": " ",
          "after": " "
        },
        {
          "index": 4,
          "word": "`",
          "originalText": "'",
          "characterOffsetBegin": 24,
          "characterOffsetEnd": 25,
          "pos": "CARD",
          "before": " ",
          "after": ""
        },
        {
          "index": 5,
          "word": "Batman",
          "originalText": "Batman",
          "characterOffsetBegin": 25,
          "characterOffsetEnd": 31,
          "pos": "NN",
          "before": "",
          "after": " "
        },
        {
          "index": 6,
          "word": "V",
          "originalText": "V",
          "characterOffsetBegin": 32,
          "characterOffsetEnd": 33,
          "pos": "CARD",
          "before": " ",
          "after": " "
        },
        {
          "index": 7,
          "word": "Superman",
          "originalText": "Superman",
          "characterOffsetBegin": 34,
          "characterOffsetEnd": 42,
          "pos": "NE",
          "before": " ",
          "after": ""
        },
        {
          "index": 8,
          "word": ":",
          "originalText": ":",
          "characterOffsetBegin": 42,
          "characterOffsetEnd": 43,
          "pos": "$.",
          "before": "",
          "after": " "
        },
        {
          "index": 9,
          "word": "Dämmerung",
          "originalText": "Dämmerung",
          "characterOffsetBegin": 44,
          "characterOffsetEnd": 53,
          "pos": "NN",
          "before": " ",
          "after": " "
        },
        {
          "index": 10,
          "word": "der",
          "originalText": "der",
          "characterOffsetBegin": 54,
          "characterOffsetEnd": 57,
          "pos": "ART",
          "before": " ",
          "after": " "
        },
        {
          "index": 11,
          "word": "Gerechtigkeit",
          "originalText": "Gerechtigkeit",
          "characterOffsetBegin": 58,
          "characterOffsetEnd": 71,
          "pos": "NN",
          "before": " ",
          "after": ""
        },
        {
          "index": 12,
          "word": "'",
          "originalText": "'",
          "characterOffsetBegin": 71,
          "characterOffsetEnd": 72,
          "pos": "$[",
          "before": "",
          "after": " "
        },
        {
          "index": 13,
          "word": "Set",
          "originalText": "Set",
          "characterOffsetBegin": 73,
          "characterOffsetEnd": 76,
          "pos": "NN",
          "before": " ",
          "after": ""
        },
        {
          "index": 14,
          "word": "?",
          "originalText": "?",
          "characterOffsetBegin": 76,
          "characterOffsetEnd": 77,
          "pos": "$.",
          "before": "",
          "after": " "
        }
      ]
    },
    {
      "index": 1,
      "basicDependencies": [
        {
          "dep": "ROOT",
          "governor": 0,
          "governorGloss": "ROOT",
          "dependent": 2,
          "dependentGloss": "behauptet"
        },
        {
          "dep": "nsubj",
          "governor": 2,
          "governorGloss": "behauptet",
          "dependent": 1,
          "dependentGloss": "Bericht"
        },
        {
          "dep": "punct",
          "governor": 2,
          "governorGloss": "behauptet",
          "dependent": 3,
          "dependentGloss": ","
        },
        {
          "dep": "mark",
          "governor": 9,
          "governorGloss": "fehlt",
          "dependent": 4,
          "dependentGloss": "dass"
        },
        {
          "dep": "iobj",
          "governor": 9,
          "governorGloss": "fehlt",
          "dependent": 5,
          "dependentGloss": "einer"
        },
        {
          "dep": "det",
          "governor": 7,
          "governorGloss": "Batmobile",
          "dependent": 6,
          "dependentGloss": "der"
        },
        {
          "dep": "nsubj",
          "governor": 9,
          "governorGloss": "fehlt",
          "dependent": 7,
          "dependentGloss": "Batmobile"
        },
        {
          "dep": "dobj",
          "governor": 9,
          "governorGloss": "fehlt",
          "dependent": 8,
          "dependentGloss": "Modelle"
        },
        {
          "dep": "ccomp",
          "governor": 2,
          "governorGloss": "behauptet",
          "dependent": 9,
          "dependentGloss": "fehlt"
        },
        {
          "dep": "punct",
          "governor": 2,
          "governorGloss": "behauptet",
          "dependent": 10,
          "dependentGloss": "!"
        }
      ],
      "enhancedDependencies": [
        {
          "dep": "ROOT",
          "governor": 0,
          "governorGloss": "ROOT",
          "dependent": 2,
          "dependentGloss": "behauptet"
        },
        {
          "dep": "nsubj",
          "governor": 2,
          "governorGloss": "behauptet",
          "dependent": 1,
          "dependentGloss": "Bericht"
        },
        {
          "dep": "punct",
          "governor": 2,
          "governorGloss": "behauptet",
          "dependent": 3,
          "dependentGloss": ","
        },
        {
          "dep": "mark",
          "governor": 9,
          "governorGloss": "fehlt",
          "dependent": 4,
          "dependentGloss": "dass"
        },
        {
          "dep": "iobj",
          "governor": 9,
          "governorGloss": "fehlt",
          "dependent": 5,
          "dependentGloss": "einer"
        },
        {
          "dep": "det",
          "governor": 7,
          "governorGloss": "Batmobile",
          "dependent": 6,
          "dependentGloss": "der"
        },
        {
          "dep": "nsubj",
          "governor": 9,
          "governorGloss": "fehlt",
          "dependent": 7,
          "dependentGloss": "Batmobile"
        },
        {
          "dep": "dobj",
          "governor": 9,
          "governorGloss": "fehlt",
          "dependent": 8,
          "dependentGloss": "Modelle"
        },
        {
          "dep": "ccomp",
          "governor": 2,
          "governorGloss": "behauptet",
          "dependent": 9,
          "dependentGloss": "fehlt"
        },
        {
          "dep": "punct",
          "governor": 2,
          "governorGloss": "behauptet",
          "dependent": 10,
          "dependentGloss": "!"
        }
      ],
      "enhancedPlusPlusDependencies": [
        {
          "dep": "ROOT",
          "governor": 0,
          "governorGloss": "ROOT",
          "dependent": 2,
          "dependentGloss": "behauptet"
        },
        {
          "dep": "nsubj",
          "governor": 2,
          "governorGloss": "behauptet",
          "dependent": 1,
          "dependentGloss": "Bericht"
        },
        {
          "dep": "punct",
          "governor": 2,
          "governorGloss": "behauptet",
          "dependent": 3,
          "dependentGloss": ","
        },
        {
          "dep": "mark",
          "governor": 9,
          "governorGloss": "fehlt",
          "dependent": 4,
          "dependentGloss": "dass"
        },
        {
          "dep": "iobj",
          "governor": 9,
          "governorGloss": "fehlt",
          "dependent": 5,
          "dependentGloss": "einer"
        },
        {
          "dep": "det",
          "governor": 7,
          "governorGloss": "Batmobile",
          "dependent": 6,
          "dependentGloss": "der"
        },
        {
          "dep": "nsubj",
          "governor": 9,
          "governorGloss": "fehlt",
          "dependent": 7,
          "dependentGloss": "Batmobile"
        },
        {
          "dep": "dobj",
          "governor": 9,
          "governorGloss": "fehlt",
          "dependent": 8,
          "dependentGloss": "Modelle"
        },
        {
          "dep": "ccomp",
          "governor": 2,
          "governorGloss": "behauptet",
          "dependent": 9,
          "dependentGloss": "fehlt"
        },
        {
          "dep": "punct",
          "governor": 2,
          "governorGloss": "behauptet",
          "dependent": 10,
          "dependentGloss": "!"
        }
      ],
      "tokens": [
        {
          "index": 1,
          "word": "Bericht",
          "originalText": "Bericht",
          "characterOffsetBegin": 78,
          "characterOffsetEnd": 85,
          "pos": "NN",
          "before": " ",
          "after": " "
        },
        {
          "index": 2,
          "word": "behauptet",
          "originalText": "behauptet",
          "characterOffsetBegin": 86,
          "characterOffsetEnd": 95,
          "pos": "VVFIN",
          "before": " ",
          "after": ""
        },
        {
          "index": 3,
          "word": ",",
          "originalText": ",",
          "characterOffsetBegin": 95,
          "characterOffsetEnd": 96,
          "pos": "$,",
          "before": "",
          "after": " "
        },
        {
          "index": 4,
          "word": "dass",
          "originalText": "dass",
          "characterOffsetBegin": 97,
          "characterOffsetEnd": 101,
          "pos": "KOUS",
          "before": " ",
          "after": " "
        },
        {
          "index": 5,
          "word": "einer",
          "originalText": "einer",
          "characterOffsetBegin": 102,
          "characterOffsetEnd": 107,
          "pos": "PIS",
          "before": " ",
          "after": " "
        },
        {
          "index": 6,
          "word": "der",
          "originalText": "der",
          "characterOffsetBegin": 108,
          "characterOffsetEnd": 111,
          "pos": "ART",
          "before": " ",
          "after": " "
        },
        {
          "index": 7,
          "word": "Batmobile",
          "originalText": "Batmobile",
          "characterOffsetBegin": 112,
          "characterOffsetEnd": 121,
          "pos": "NN",
          "before": " ",
          "after": " "
        },
        {
          "index": 8,
          "word": "Modelle",
          "originalText": "Modelle",
          "characterOffsetBegin": 122,
          "characterOffsetEnd": 129,
          "pos": "NN",
          "before": " ",
          "after": " "
        },
        {
          "index": 9,
          "word": "fehlt",
          "originalText": "fehlt",
          "characterOffsetBegin": 130,
          "characterOffsetEnd": 135,
          "pos": "VVFIN",
          "before": " ",
          "after": ""
        },
        {
          "index": 10,
          "word": "!",
          "originalText": "!",
          "characterOffsetBegin": 135,
          "characterOffsetEnd": 136,
          "pos": "$.",
          "before": "",
          "after": " "
        }
      ]
    },
    {
      "index": 2,
      "basicDependencies": [
        {
          "dep": "ROOT",
          "governor": 0,
          "governorGloss": "ROOT",
          "dependent": 3,
          "dependentGloss": "Verantwortlich"
        },
        {
          "dep": "name",
          "governor": 2,
          "governorGloss": "Einheimische",
          "dependent": 1,
          "dependentGloss": "Detroit"
        },
        {
          "dep": "nsubj",
          "governor": 3,
          "governorGloss": "Verantwortlich",
          "dependent": 2,
          "dependentGloss": "Einheimische"
        },
        {
          "dep": "punct",
          "governor": 3,
          "governorGloss": "Verantwortlich",
          "dependent": 4,
          "dependentGloss": "?"
        }
      ],
      "enhancedDependencies": [
        {
          "dep": "ROOT",
          "governor": 0,
          "governorGloss": "ROOT",
          "dependent": 3,
          "dependentGloss": "Verantwortlich"
        },
        {
          "dep": "name",
          "governor": 2,
          "governorGloss": "Einheimische",
          "dependent": 1,
          "dependentGloss": "Detroit"
        },
        {
          "dep": "nsubj",
          "governor": 3,
          "governorGloss": "Verantwortlich",
          "dependent": 2,
          "dependentGloss": "Einheimische"
        },
        {
          "dep": "punct",
          "governor": 3,
          "governorGloss": "Verantwortlich",
          "dependent": 4,
          "dependentGloss": "?"
        }
      ],
      "enhancedPlusPlusDependencies": [
        {
          "dep": "ROOT",
          "governor": 0,
          "governorGloss": "ROOT",
          "dependent": 3,
          "dependentGloss": "Verantwortlich"
        },
        {
          "dep": "name",
          "governor": 2,
          "governorGloss": "Einheimische",
          "dependent": 1,
          "dependentGloss": "Detroit"
        },
        {
          "dep": "nsubj",
          "governor": 3,
          "governorGloss": "Verantwortlich",
          "dependent": 2,
          "dependentGloss": "Einheimische"
        },
        {
          "dep": "punct",
          "governor": 3,
          "governorGloss": "Verantwortlich",
          "dependent": 4,
          "dependentGloss": "?"
        }
      ],
      "tokens": [
        {
          "index": 1,
          "word": "Detroit",
          "originalText": "Detroit",
          "characterOffsetBegin": 137,
          "characterOffsetEnd": 144,
          "pos": "NE",
          "before": " ",
          "after": " "
        },
        {
          "index": 2,
          "word": "Einheimische",
          "originalText": "Einheimische",
          "characterOffsetBegin": 145,
          "characterOffsetEnd": 157,
          "pos": "ADJA",
          "before": " ",
          "after": " "
        },
        {
          "index": 3,
          "word": "Verantwortlich",
          "originalText": "Verantwortlich",
          "characterOffsetBegin": 158,
          "characterOffsetEnd": 172,
          "pos": "ADJD",
          "before": " ",
          "after": ""
        },
        {
          "index": 4,
          "word": "?",
          "originalText": "?",
          "characterOffsetBegin": 172,
          "characterOffsetEnd": 173,
          "pos": "$.",
          "before": "",
          "after": ""
        }
      ]
    }
  ]
}