{
  "sentences": [
    {
      "index": 0,
      "basicDependencies": [
        {
          "dep": "ROOT",
          "governor": 0,
          "governorGloss": "ROOT",
          "dependent": 4,
          "dependentGloss": "1795"
        },
        {
          "dep": "name",
          "governor": 2,
          "governorGloss": "Revere",
          "dependent": 1,
          "dependentGloss": "Paul"
        },
        {
          "dep": "det",
          "governor": 4,
          "governorGloss": "1795",
          "dependent": 2,
          "dependentGloss": "Revere"
        },
        {
          "dep": "case",
          "governor": 2,
          "governorGloss": "Revere",
          "dependent": 3,
          "dependentGloss": "'s"
        },
        {
          "dep": "amod",
          "governor": 6,
          "governorGloss": "ausgegraben",
          "dependent": 5,
          "dependentGloss": "Zeitkapsel"
        },
        {
          "dep": "det",
          "governor": 4,
          "governorGloss": "1795",
          "dependent": 6,
          "dependentGloss": "ausgegraben"
        }
      ],
      "enhancedDependencies": [
        {
          "dep": "ROOT",
          "governor": 0,
          "governorGloss": "ROOT",
          "dependent": 4,
          "dependentGloss": "1795"
        },
        {
          "dep": "name",
          "governor": 2,
          "governorGloss": "Revere",
          "dependent": 1,
          "dependentGloss": "Paul"
        },
        {
          "dep": "det",
          "governor": 4,
          "governorGloss": "1795",
          "dependent": 2,
          "dependentGloss": "Revere"
        },
        {
          "dep": "case",
          "governor": 2,
          "governorGloss": "Revere",
          "dependent": 3,
          "dependentGloss": "'s"
        },
        {
          "dep": "amod",
          "governor": 6,
          "governorGloss": "ausgegraben",
          "dependent": 5,
          "dependentGloss": "Zeitkapsel"
        },
        {
          "dep": "det",
          "governor": 4,
          "governorGloss": "1795",
          "dependent": 6,
          "dependentGloss": "ausgegraben"
        }
      ],
      "enhancedPlusPlusDependencies": [
        {
          "dep": "ROOT",
          "governor": 0,
          "governorGloss": "ROOT",
          "dependent": 4,
          "dependentGloss": "1795"
        },
        {
          "dep": "name",
          "governor": 2,
          "governorGloss": "Revere",
          "dependent": 1,
          "dependentGloss": "Paul"
        },
        {
          "dep": "det",
          "governor": 4,
          "governorGloss": "1795",
          "dependent": 2,
          "dependentGloss": "Revere"
        },
        {
          "dep": "case",
          "governor": 2,
          "governorGloss": "Revere",
          "dependent": 3,
          "dependentGloss": "'s"
        },
        {
          "dep": "amod",
          "governor": 6,
          "governorGloss": "ausgegraben",
          "dependent": 5,
          "dependentGloss": "Zeitkapsel"
        },
        {
          "dep": "det",
          "governor": 4,
          "governorGloss": "1795",
          "dependent": 6,
          "dependentGloss": "ausgegraben"
        }
      ],
      "tokens": [
        {
          "index": 1,
          "word": "Paul",
          "originalText": "Paul",
          "characterOffsetBegin": 0,
          "characterOffsetEnd": 4,
          "pos": "NE",
          "before": "",
          "after": " "
        },
        {
          "index": 2,
          "word": "Revere",
          "originalText": "Revere",
          "characterOffsetBegin": 5,
          "characterOffsetEnd": 11,
          "pos": "NE",
          "before": " ",
          "after": ""
        },
        {
          "index": 3,
          "word": "'s",
          "originalText": "'s",
          "characterOffsetBegin": 11,
          "characterOffsetEnd": 13,
          "pos": "PPER",
          "before": "",
          "after": " "
        },
        {
          "index": 4,
          "word": "1795",
          "originalText": "1795",
          "characterOffsetBegin": 14,
          "characterOffsetEnd": 18,
          "pos": "CARD",
          "before": " ",
          "after": " "
        },
        {
          "index": 5,
          "word": "Zeitkapsel",
          "originalText": "Zeitkapsel",
          "characterOffsetBegin": 19,
          "characterOffsetEnd": 29,
          "pos": "NN",
          "before": " ",
          "after": " "
        },
        {
          "index": 6,
          "word": "ausgegraben",
          "originalText": "ausgegraben",
          "characterOffsetBegin": 30,
          "characterOffsetEnd": 41,
          "pos": "VVPP",
          "before": " ",
          "after": ""
        }
      ]
    }
  ]
}