{
  "sentences": [
    {
      "index": 0,
      "basicDependencies": [
        {
          "dep": "ROOT",
          "governor": 0,
          "governorGloss": "ROOT",
          "dependent": 3,
          "dependentGloss": "enthauptet"
        },
        {
          "dep": "name",
          "governor": 2,
          "governorGloss": "Haines",
          "dependent": 1,
          "dependentGloss": "David"
        },
        {
          "dep": "nsubj",
          "governor": 3,
          "governorGloss": "enthauptet",
          "dependent": 2,
          "dependentGloss": "Haines"
        },
        {
          "dep": "case",
          "governor": 5,
          "governorGloss": "ISIS",
          "dependent": 4,
          "dependentGloss": "von"
        },
        {
          "dep": "nmod",
          "governor": 3,
          "governorGloss": "enthauptet",
          "dependent": 5,
          "dependentGloss": "ISIS"
        },
        {
          "dep": "punct",
          "governor": 5,
          "governorGloss": "ISIS",
          "dependent": 6,
          "dependentGloss": ","
        },
        {
          "dep": "name",
          "governor": 8,
          "governorGloss": "Video",
          "dependent": 7,
          "dependentGloss": "Execution"
        },
        {
          "dep": "nsubj",
          "governor": 9,
          "governorGloss": "enthält",
          "dependent": 8,
          "dependentGloss": "Video"
        },
        {
          "dep": "acl",
          "governor": 5,
          "governorGloss": "ISIS",
          "dependent": 9,
          "dependentGloss": "enthält"
        },
        {
          "dep": "dobj",
          "governor": 9,
          "governorGloss": "enthält",
          "dependent": 10,
          "dependentGloss": "Bedrohungen"
        },
        {
          "dep": "case",
          "governor": 12,
          "governorGloss": "Großbritannien",
          "dependent": 11,
          "dependentGloss": "gegen"
        },
        {
          "dep": "nmod",
          "governor": 10,
          "governorGloss": "Bedrohungen",
          "dependent": 12,
          "dependentGloss": "Großbritannien"
        },
        {
          "dep": "punct",
          "governor": 3,
          "governorGloss": "enthauptet",
          "dependent": 13,
          "dependentGloss": ":"
        },
        {
          "dep": "dep",
          "governor": 3,
          "governorGloss": "enthauptet",
          "dependent": 14,
          "dependentGloss": "Berichte"
        }
      ],
      "enhancedDependencies": [
        {
          "dep": "ROOT",
          "governor": 0,
          "governorGloss": "ROOT",
          "dependent": 3,
          "dependentGloss": "enthauptet"
        },
        {
          "dep": "name",
          "governor": 2,
          "governorGloss": "Haines",
          "dependent": 1,
          "dependentGloss": "David"
        },
        {
          "dep": "nsubj",
          "governor": 3,
          "governorGloss": "enthauptet",
          "dependent": 2,
          "dependentGloss": "Haines"
        },
        {
          "dep": "case",
          "governor": 5,
          "governorGloss": "ISIS",
          "dependent": 4,
          "dependentGloss": "von"
        },
        {
          "dep": "nmod",
          "governor": 3,
          "governorGloss": "enthauptet",
          "dependent": 5,
          "dependentGloss": "ISIS"
        },
        {
          "dep": "punct",
          "governor": 5,
          "governorGloss": "ISIS",
          "dependent": 6,
          "dependentGloss": ","
        },
        {
          "dep": "name",
          "governor": 8,
          "governorGloss": "Video",
          "dependent": 7,
          "dependentGloss": "Execution"
        },
        {
          "dep": "nsubj",
          "governor": 9,
          "governorGloss": "enthält",
          "dependent": 8,
          "dependentGloss": "Video"
        },
        {
          "dep": "acl",
          "governor": 5,
          "governorGloss": "ISIS",
          "dependent": 9,
          "dependentGloss": "enthält"
        },
        {
          "dep": "dobj",
          "governor": 9,
          "governorGloss": "enthält",
          "dependent": 10,
          "dependentGloss": "Bedrohungen"
        },
        {
          "dep": "case",
          "governor": 12,
          "governorGloss": "Großbritannien",
          "dependent": 11,
          "dependentGloss": "gegen"
        },
        {
          "dep": "nmod",
          "governor": 10,
          "governorGloss": "Bedrohungen",
          "dependent": 12,
          "dependentGloss": "Großbritannien"
        },
        {
          "dep": "punct",
          "governor": 3,
          "governorGloss": "enthauptet",
          "dependent": 13,
          "dependentGloss": ":"
        },
        {
          "dep": "dep",
          "governor": 3,
          "governorGloss": "enthauptet",
          "dependent": 14,
          "dependentGloss": "Berichte"
        }
      ],
      "enhancedPlusPlusDependencies": [
        {
          "dep": "ROOT",
          "governor": 0,
          "governorGloss": "ROOT",
          "dependent": 3,
          "dependentGloss": "enthauptet"
        },
        {
          "dep": "name",
          "governor": 2,
          "governorGloss": "Haines",
          "dependent": 1,
          "dependentGloss": "David"
        },
        {
          "dep": "nsubj",
          "governor": 3,
          "governorGloss": "enthauptet",
          "dependent": 2,
          "dependentGloss": "Haines"
        },
        {
          "dep": "case",
          "governor": 5,
          "governorGloss": "ISIS",
          "dependent": 4,
          "dependentGloss": "von"
        },
        {
          "dep": "nmod",
          "governor": 3,
          "governorGloss": "enthauptet",
          "dependent": 5,
          "dependentGloss": "ISIS"
        },
        {
          "dep": "punct",
          "governor": 5,
          "governorGloss": "ISIS",
          "dependent": 6,
          "dependentGloss": ","
        },
        {
          "dep": "name",
          "governor": 8,
          "governorGloss": "Video",
          "dependent": 7,
          "dependentGloss": "Execution"
        },
        {
          "dep": "nsubj",
          "governor": 9,
          "governorGloss": "enthält",
          "dependent": 8,
          "dependentGloss": "Video"
        },
        {
          "dep": "acl",
          "governor": 5,
          "governorGloss": "ISIS",
          "dependent": 9,
          "dependentGloss": "enthält"
        },
        {
          "dep": "dobj",
          "governor": 9,
          "governorGloss": "enthält",
          "dependent": 10,
          "dependentGloss": "Bedrohungen"
        },
        {
          "dep": "case",
          "governor": 12,
          "governorGloss": "Großbritannien",
          "dependent": 11,
          "dependentGloss": "gegen"
        },
        {
          "dep": "nmod",
          "governor": 10,
          "governorGloss": "Bedrohungen",
          "dependent": 12,
          "dependentGloss": "Großbritannien"
        },
        {
          "dep": "punct",
          "governor": 3,
          "governorGloss": "enthauptet",
          "dependent": 13,
          "dependentGloss": ":"
        },
        {
          "dep": "dep",
          "governor": 3,
          "governorGloss": "enthauptet",
          "dependent": 14,
          "dependentGloss": "Berichte"
        }
      ],
      "tokens": [
        {
          "index": 1,
          "word": "David",
          "originalText": "David",
          "characterOffsetBegin": 0,
          "characterOffsetEnd": 5,
          "pos": "NE",
          "before": "",
          "after": " "
        },
        {
          "index": 2,
          "word": "Haines",
          "originalText": "Haines",
          "characterOffsetBegin": 6,
          "characterOffsetEnd": 12,
          "pos": "NE",
          "before": " ",
          "after": " "
        },
        {
          "index": 3,
          "word": "enthauptet",
          "originalText": "enthauptet",
          "characterOffsetBegin": 13,
          "characterOffsetEnd": 23,
          "pos": "VVPP",
          "before": " ",
          "after": " "
        },
        {
          "index": 4,
          "word": "von",
          "originalText": "von",
          "characterOffsetBegin": 24,
          "characterOffsetEnd": 27,
          "pos": "APPR",
          "before": " ",
          "after": " "
        },
        {
          "index": 5,
          "word": "ISIS",
          "originalText": "ISIS",
          "characterOffsetBegin": 28,
          "characterOffsetEnd": 32,
          "pos": "NE",
          "before": " ",
          "after": ""
        },
        {
          "index": 6,
          "word": ",",
          "originalText": ",",
          "characterOffsetBegin": 32,
          "characterOffsetEnd": 33,
          "pos": "$,",
          "before": "",
          "after": " "
        },
        {
          "index": 7,
          "word": "Execution",
          "originalText": "Execution",
          "characterOffsetBegin": 34,
          "characterOffsetEnd": 43,
          "pos": "NE",
          "before": " ",
          "after": " "
        },
        {
          "index": 8,
          "word": "Video",
          "originalText": "Video",
          "characterOffsetBegin": 44,
          "characterOffsetEnd": 49,
          "pos": "NN",
          "before": " ",
          "after": " "
        },
        {
          "index": 9,
          "word": "enthält",
          "originalText": "enthält",
          "characterOffsetBegin": 50,
          "characterOffsetEnd": 57,
          "pos": "VVFIN",
          "before": " ",
          "after": " "
        },
        {
          "index": 10,
          "word": "Bedrohungen",
          "originalText": "Bedrohungen",
          "characterOffsetBegin": 58,
          "characterOffsetEnd": 69,
          "pos": "NN",
          "before": " ",
          "after": " "
        },
        {
          "index": 11,
          "word": "gegen",
          "originalText": "gegen",
          "characterOffsetBegin": 70,
          "characterOffsetEnd": 75,
          "pos": "APPR",
          "before": " ",
          "after": " "
        },
        {
          "index": 12,
          "word": "Großbritannien",
          "originalText": "Großbritannien",
          "characterOffsetBegin": 76,
          "characterOffsetEnd": 90,
          "pos": "NE",
          "before": " ",
          "after": ""
        },
        {
          "index": 13,
          "word": ":",
          "originalText": ":",
          "characterOffsetBegin": 90,
          "characterOffsetEnd": 91,
          "pos": "$.",
          "before": "",
          "after": " "
        },
        {
          "index": 14,
          "word": "Berichte",
          "originalText": "Berichte",
          "characterOffsetBegin": 92,
          "characterOffsetEnd": 100,
          "pos": "NN",
          "before": " ",
          "after": ""
        }
      ]
    }
  ]
}