{
  "sentences": [
    {
      "index": 0,
      "basicDependencies": [
        {
          "dep": "ROOT",
          "governor": 0,
          "governorGloss": "ROOT",
          "dependent": 2,
          "dependentGloss": "Krieg"
        },
        {
          "dep": "amod",
          "governor": 2,
          "governorGloss": "Krieg",
          "dependent": 1,
          "dependentGloss": "Biologischer"
        },
        {
          "dep": "amod",
          "governor": 4,
          "governorGloss": "Horizont",
          "dependent": 3,
          "dependentGloss": "am"
        },
        {
          "dep": "det",
          "governor": 2,
          "governorGloss": "Krieg",
          "dependent": 4,
          "dependentGloss": "Horizont"
        },
        {
          "dep": "punct",
          "governor": 2,
          "governorGloss": "Krieg",
          "dependent": 5,
          "dependentGloss": "?"
        }
      ],
      "enhancedDependencies": [
        {
          "dep": "ROOT",
          "governor": 0,
          "governorGloss": "ROOT",
          "dependent": 2,
          "dependentGloss": "Krieg"
        },
        {
          "dep": "amod",
          "governor": 2,
          "governorGloss": "Krieg",
          "dependent": 1,
          "dependentGloss": "Biologischer"
        },
        {
          "dep": "amod",
          "governor": 4,
          "governorGloss": "Horizont",
          "dependent": 3,
          "dependentGloss": "am"
        },
        {
          "dep": "det",
          "governor": 2,
          "governorGloss": "Krieg",
          "dependent": 4,
          "dependentGloss": "Horizont"
        },
        {
          "dep": "punct",
          "governor": 2,
          "governorGloss": "Krieg",
          "dependent": 5,
          "dependentGloss": "?"
        }
      ],
      "enhancedPlusPlusDependencies": [
        {
          "dep": "ROOT",
          "governor": 0,
          "governorGloss": "ROOT",
          "dependent": 2,
          "dependentGloss": "Krieg"
        },
        {
          "dep": "amod",
          "governor": 2,
          "governorGloss": "Krieg",
          "dependent": 1,
          "dependentGloss": "Biologischer"
        },
        {
          "dep": "amod",
          "governor": 4,
          "governorGloss": "Horizont",
          "dependent": 3,
          "dependentGloss": "am"
        },
        {
          "dep": "det",
          "governor": 2,
          "governorGloss": "Krieg",
          "dependent": 4,
          "dependentGloss": "Horizont"
        },
        {
          "dep": "punct",
          "governor": 2,
          "governorGloss": "Krieg",
          "dependent": 5,
          "dependentGloss": "?"
        }
      ],
      "tokens": [
        {
          "index": 1,
          "word": "Biologischer",
          "originalText": "Biologischer",
          "characterOffsetBegin": 0,
          "characterOffsetEnd": 12,
          "pos": "ADJA",
          "before": "",
          "after": " "
        },
        {
          "index": 2,
          "word": "Krieg",
          "originalText": "Krieg",
          "characterOffsetBegin": 13,
          "characterOffsetEnd": 18,
          "pos": "NN",
          "before": " ",
          "after": " "
        },
        {
          "index": 3,
          "word": "am",
          "originalText": "am",
          "characterOffsetBegin": 19,
          "characterOffsetEnd": 21,
          "pos": "APPRART",
          "before": " ",
          "after": " "
        },
        {
          "index": 4,
          "word": "Horizont",
          "originalText": "Horizont",
          "characterOffsetBegin": 22,
          "characterOffsetEnd": 30,
          "pos": "NN",
          "before": " ",
          "after": ""
        },
        {
          "index": 5,
          "word": "?",
          "originalText": "?",
          "characterOffsetBegin": 30,
          "characterOffsetEnd": 31,
          "pos": "$.",
          "before": "",
          "after": " "
        }
      ]
    },
    {
      "index": 1,
      "basicDependencies": [
        {
          "dep": "ROOT",
          "governor": 0,
          "governorGloss": "ROOT",
          "dependent": 6,
          "dependentGloss": "infiziert"
        },
        {
          "dep": "amod",
          "governor": 2,
          "governorGloss": "Soldaten",
          "dependent": 1,
          "dependentGloss": "ISIS"
        },
        {
          "dep": "nsubjpass",
          "governor": 6,
          "governorGloss": "infiziert",
          "dependent": 2,
          "dependentGloss": "Soldaten"
        },
        {
          "dep": "aux",
          "governor": 6,
          "governorGloss": "infiziert",
          "dependent": 3,
          "dependentGloss": "können"
        },
        {
          "dep": "case",
          "governor": 5,
          "governorGloss": "Ebola",
          "dependent": 4,
          "dependentGloss": "mit"
        },
        {
          "dep": "nmod",
          "governor": 6,
          "governorGloss": "infiziert",
          "dependent": 5,
          "dependentGloss": "Ebola"
        },
        {
          "dep": "auxpass",
          "governor": 6,
          "governorGloss": "infiziert",
          "dependent": 7,
          "dependentGloss": "werden"
        }
      ],
      "enhancedDependencies": [
        {
          "dep": "ROOT",
          "governor": 0,
          "governorGloss": "ROOT",
          "dependent": 6,
          "dependentGloss": "infiziert"
        },
        {
          "dep": "amod",
          "governor": 2,
          "governorGloss": "Soldaten",
          "dependent": 1,
          "dependentGloss": "ISIS"
        },
        {
          "dep": "nsubjpass",
          "governor": 6,
          "governorGloss": "infiziert",
          "dependent": 2,
          "dependentGloss": "Soldaten"
        },
        {
          "dep": "aux",
          "governor": 6,
          "governorGloss": "infiziert",
          "dependent": 3,
          "dependentGloss": "können"
        },
        {
          "dep": "case",
          "governor": 5,
          "governorGloss": "Ebola",
          "dependent": 4,
          "dependentGloss": "mit"
        },
        {
          "dep": "nmod",
          "governor": 6,
          "governorGloss": "infiziert",
          "dependent": 5,
          "dependentGloss": "Ebola"
        },
        {
          "dep": "auxpass",
          "governor": 6,
          "governorGloss": "infiziert",
          "dependent": 7,
          "dependentGloss": "werden"
        }
      ],
      "enhancedPlusPlusDependencies": [
        {
          "dep": "ROOT",
          "governor": 0,
          "governorGloss": "ROOT",
          "dependent": 6,
          "dependentGloss": "infiziert"
        },
        {
          "dep": "amod",
          "governor": 2,
          "governorGloss": "Soldaten",
          "dependent": 1,
          "dependentGloss": "ISIS"
        },
        {
          "dep": "nsubjpass",
          "governor": 6,
          "governorGloss": "infiziert",
          "dependent": 2,
          "dependentGloss": "Soldaten"
        },
        {
          "dep": "aux",
          "governor": 6,
          "governorGloss": "infiziert",
          "dependent": 3,
          "dependentGloss": "können"
        },
        {
          "dep": "case",
          "governor": 5,
          "governorGloss": "Ebola",
          "dependent": 4,
          "dependentGloss": "mit"
        },
        {
          "dep": "nmod",
          "governor": 6,
          "governorGloss": "infiziert",
          "dependent": 5,
          "dependentGloss": "Ebola"
        },
        {
          "dep": "auxpass",
          "governor": 6,
          "governorGloss": "infiziert",
          "dependent": 7,
          "dependentGloss": "werden"
        }
      ],
      "tokens": [
        {
          "index": 1,
          "word": "ISIS",
          "originalText": "ISIS",
          "characterOffsetBegin": 32,
          "characterOffsetEnd": 36,
          "pos": "NE",
          "before": " ",
          "after": " "
        },
        {
          "index": 2,
          "word": "Soldaten",
          "originalText": "Soldaten",
          "characterOffsetBegin": 37,
          "characterOffsetEnd": 45,
          "pos": "NN",
          "before": " ",
          "after": " "
        },
        {
          "index": 3,
          "word": "können",
          "originalText": "können",
          "characterOffsetBegin": 46,
          "characterOffsetEnd": 52,
          "pos": "VMFIN",
          "before": " ",
          "after": " "
        },
        {
          "index": 4,
          "word": "mit",
          "originalText": "mit",
          "characterOffsetBegin": 53,
          "characterOffsetEnd": 56,
          "pos": "APPR",
          "before": " ",
          "after": " "
        },
        {
          "index": 5,
          "word": "Ebola",
          "originalText": "Ebola",
          "characterOffsetBegin": 57,
          "characterOffsetEnd": 62,
          "pos": "NE",
          "before": " ",
          "after": " "
        },
        {
          "index": 6,
          "word": "infiziert",
          "originalText": "infiziert",
          "characterOffsetBegin": 63,
          "characterOffsetEnd": 72,
          "pos": "VVPP",
          "before": " ",
          "after": " "
        },
        {
          "index": 7,
          "word": "werden",
          "originalText": "werden",
          "characterOffsetBegin": 73,
          "characterOffsetEnd": 79,
          "pos": "VAINF",
          "before": " ",
          "after": ""
        }
      ]
    }
  ]
}