{
  "sentences": [
    {
      "index": 0,
      "basicDependencies": [
        {
          "dep": "ROOT",
          "governor": 0,
          "governorGloss": "ROOT",
          "dependent": 3,
          "dependentGloss": "sagt"
        },
        {
          "dep": "nsubj",
          "governor": 3,
          "governorGloss": "sagt",
          "dependent": 1,
          "dependentGloss": "Homeland"
        },
        {
          "dep": "cop",
          "governor": 3,
          "governorGloss": "sagt",
          "dependent": 2,
          "dependentGloss": "Security"
        },
        {
          "dep": "punct",
          "governor": 3,
          "governorGloss": "sagt",
          "dependent": 4,
          "dependentGloss": ","
        },
        {
          "dep": "mark",
          "governor": 10,
          "governorGloss": "überschritten",
          "dependent": 5,
          "dependentGloss": "dass"
        },
        {
          "dep": "nsubj",
          "governor": 10,
          "governorGloss": "überschritten",
          "dependent": 6,
          "dependentGloss": "Terroristen"
        },
        {
          "dep": "det",
          "governor": 8,
          "governorGloss": "U.S-Mexiko-Grenze",
          "dependent": 7,
          "dependentGloss": "die"
        },
        {
          "dep": "dobj",
          "governor": 10,
          "governorGloss": "überschritten",
          "dependent": 8,
          "dependentGloss": "U.S-Mexiko-Grenze"
        },
        {
          "dep": "neg",
          "governor": 10,
          "governorGloss": "überschritten",
          "dependent": 9,
          "dependentGloss": "nicht"
        },
        {
          "dep": "ccomp",
          "governor": 3,
          "governorGloss": "sagt",
          "dependent": 10,
          "dependentGloss": "überschritten"
        },
        {
          "dep": "aux",
          "governor": 10,
          "governorGloss": "überschritten",
          "dependent": 11,
          "dependentGloss": "haben"
        }
      ],
      "enhancedDependencies": [
        {
          "dep": "ROOT",
          "governor": 0,
          "governorGloss": "ROOT",
          "dependent": 3,
          "dependentGloss": "sagt"
        },
        {
          "dep": "nsubj",
          "governor": 3,
          "governorGloss": "sagt",
          "dependent": 1,
          "dependentGloss": "Homeland"
        },
        {
          "dep": "cop",
          "governor": 3,
          "governorGloss": "sagt",
          "dependent": 2,
          "dependentGloss": "Security"
        },
        {
          "dep": "punct",
          "governor": 3,
          "governorGloss": "sagt",
          "dependent": 4,
          "dependentGloss": ","
        },
        {
          "dep": "mark",
          "governor": 10,
          "governorGloss": "überschritten",
          "dependent": 5,
          "dependentGloss": "dass"
        },
        {
          "dep": "nsubj",
          "governor": 10,
          "governorGloss": "überschritten",
          "dependent": 6,
          "dependentGloss": "Terroristen"
        },
        {
          "dep": "det",
          "governor": 8,
          "governorGloss": "U.S-Mexiko-Grenze",
          "dependent": 7,
          "dependentGloss": "die"
        },
        {
          "dep": "dobj",
          "governor": 10,
          "governorGloss": "überschritten",
          "dependent": 8,
          "dependentGloss": "U.S-Mexiko-Grenze"
        },
        {
          "dep": "neg",
          "governor": 10,
          "governorGloss": "überschritten",
          "dependent": 9,
          "dependentGloss": "nicht"
        },
        {
          "dep": "ccomp",
          "governor": 3,
          "governorGloss": "sagt",
          "dependent": 10,
          "dependentGloss": "überschritten"
        },
        {
          "dep": "aux",
          "governor": 10,
          "governorGloss": "überschritten",
          "dependent": 11,
          "dependentGloss": "haben"
        }
      ],
      "enhancedPlusPlusDependencies": [
        {
          "dep": "ROOT",
          "governor": 0,
          "governorGloss": "ROOT",
          "dependent": 3,
          "dependentGloss": "sagt"
        },
        {
          "dep": "nsubj",
          "governor": 3,
          "governorGloss": "sagt",
          "dependent": 1,
          "dependentGloss": "Homeland"
        },
        {
          "dep": "cop",
          "governor": 3,
          "governorGloss": "sagt",
          "dependent": 2,
          "dependentGloss": "Security"
        },
        {
          "dep": "punct",
          "governor": 3,
          "governorGloss": "sagt",
          "dependent": 4,
          "dependentGloss": ","
        },
        {
          "dep": "mark",
          "governor": 10,
          "governorGloss": "überschritten",
          "dependent": 5,
          "dependentGloss": "dass"
        },
        {
          "dep": "nsubj",
          "governor": 10,
          "governorGloss": "überschritten",
          "dependent": 6,
          "dependentGloss": "Terroristen"
        },
        {
          "dep": "det",
          "governor": 8,
          "governorGloss": "U.S-Mexiko-Grenze",
          "dependent": 7,
          "dependentGloss": "die"
        },
        {
          "dep": "dobj",
          "governor": 10,
          "governorGloss": "überschritten",
          "dependent": 8,
          "dependentGloss": "U.S-Mexiko-Grenze"
        },
        {
          "dep": "neg",
          "governor": 10,
          "governorGloss": "überschritten",
          "dependent": 9,
          "dependentGloss": "nicht"
        },
        {
          "dep": "ccomp",
          "governor": 3,
          "governorGloss": "sagt",
          "dependent": 10,
          "dependentGloss": "überschritten"
        },
        {
          "dep": "aux",
          "governor": 10,
          "governorGloss": "überschritten",
          "dependent": 11,
          "dependentGloss": "haben"
        }
      ],
      "tokens": [
        {
          "index": 1,
          "word": "Homeland",
          "originalText": "Homeland",
          "characterOffsetBegin": 0,
          "characterOffsetEnd": 8,
          "pos": "NE",
          "before": "",
          "after": " "
        },
        {
          "index": 2,
          "word": "Security",
          "originalText": "Security",
          "characterOffsetBegin": 9,
          "characterOffsetEnd": 17,
          "pos": "NE",
          "before": " ",
          "after": " "
        },
        {
          "index": 3,
          "word": "sagt",
          "originalText": "sagt",
          "characterOffsetBegin": 18,
          "characterOffsetEnd": 22,
          "pos": "VVFIN",
          "before": " ",
          "after": ""
        },
        {
          "index": 4,
          "word": ",",
          "originalText": ",",
          "characterOffsetBegin": 22,
          "characterOffsetEnd": 23,
          "pos": "$,",
          "before": "",
          "after": " "
        },
        {
          "index": 5,
          "word": "dass",
          "originalText": "dass",
          "characterOffsetBegin": 24,
          "characterOffsetEnd": 28,
          "pos": "KOUS",
          "before": " ",
          "after": " "
        },
        {
          "index": 6,
          "word": "Terroristen",
          "originalText": "Terroristen",
          "characterOffsetBegin": 29,
          "characterOffsetEnd": 40,
          "pos": "NN",
          "before": " ",
          "after": " "
        },
        {
          "index": 7,
          "word": "die",
          "originalText": "die",
          "characterOffsetBegin": 41,
          "characterOffsetEnd": 44,
          "pos": "ART",
          "before": " ",
          "after": " "
        },
        {
          "index": 8,
          "word": "U.S-Mexiko-Grenze",
          "originalText": "U.S-Mexiko-Grenze",
          "characterOffsetBegin": 45,
          "characterOffsetEnd": 62,
          "pos": "NN",
          "before": " ",
          "after": " "
        },
        {
          "index": 9,
          "word": "nicht",
          "originalText": "nicht",
          "characterOffsetBegin": 63,
          "characterOffsetEnd": 68,
          "pos": "PTKNEG",
          "before": " ",
          "after": " "
        },
        {
          "index": 10,
          "word": "überschritten",
          "originalText": "überschritten",
          "characterOffsetBegin": 69,
          "characterOffsetEnd": 82,
          "pos": "VVPP",
          "before": " ",
          "after": " "
        },
        {
          "index": 11,
          "word": "haben",
          "originalText": "haben",
          "characterOffsetBegin": 83,
          "characterOffsetEnd": 88,
          "pos": "VAINF",
          "before": " ",
          "after": ""
        }
      ]
    }
  ]
}