{
  "sentences": [
    {
      "index": 0,
      "basicDependencies": [
        {
          "dep": "ROOT",
          "governor": 0,
          "governorGloss": "ROOT",
          "dependent": 3,
          "dependentGloss": "Kämpfer"
        },
        {
          "dep": "det",
          "governor": 3,
          "governorGloss": "Kämpfer",
          "dependent": 1,
          "dependentGloss": "Berichte"
        },
        {
          "dep": "amod",
          "governor": 3,
          "governorGloss": "Kämpfer",
          "dependent": 2,
          "dependentGloss": "Isis"
        },
        {
          "dep": "acl",
          "governor": 3,
          "governorGloss": "Kämpfer",
          "dependent": 4,
          "dependentGloss": "haben"
        },
        {
          "dep": "dobj",
          "governor": 4,
          "governorGloss": "haben",
          "dependent": 5,
          "dependentGloss": "Vertrag"
        },
        {
          "dep": "amod",
          "governor": 7,
          "governorGloss": "Ebola",
          "dependent": 6,
          "dependentGloss": "vergeben"
        },
        {
          "dep": "nsubj",
          "governor": 10,
          "governorGloss": "falsch",
          "dependent": 7,
          "dependentGloss": "Ebola"
        },
        {
          "dep": "cop",
          "governor": 10,
          "governorGloss": "falsch",
          "dependent": 8,
          "dependentGloss": "sind"
        },
        {
          "dep": "punct",
          "governor": 10,
          "governorGloss": "falsch",
          "dependent": 9,
          "dependentGloss": "``"
        },
        {
          "dep": "parataxis",
          "governor": 5,
          "governorGloss": "Vertrag",
          "dependent": 10,
          "dependentGloss": "falsch"
        },
        {
          "dep": "punct",
          "governor": 10,
          "governorGloss": "falsch",
          "dependent": 11,
          "dependentGloss": "``"
        },
        {
          "dep": "punct",
          "governor": 10,
          "governorGloss": "falsch",
          "dependent": 12,
          "dependentGloss": ","
        },
        {
          "dep": "conj",
          "governor": 10,
          "governorGloss": "falsch",
          "dependent": 13,
          "dependentGloss": "sagt"
        },
        {
          "dep": "amod",
          "governor": 15,
          "governorGloss": "Gesundheitsministerium",
          "dependent": 14,
          "dependentGloss": "irakischen"
        },
        {
          "dep": "dobj",
          "governor": 13,
          "governorGloss": "sagt",
          "dependent": 15,
          "dependentGloss": "Gesundheitsministerium"
        }
      ],
      "enhancedDependencies": [
        {
          "dep": "ROOT",
          "governor": 0,
          "governorGloss": "ROOT",
          "dependent": 3,
          "dependentGloss": "Kämpfer"
        },
        {
          "dep": "det",
          "governor": 3,
          "governorGloss": "Kämpfer",
          "dependent": 1,
          "dependentGloss": "Berichte"
        },
        {
          "dep": "amod",
          "governor": 3,
          "governorGloss": "Kämpfer",
          "dependent": 2,
          "dependentGloss": "Isis"
        },
        {
          "dep": "acl",
          "governor": 3,
          "governorGloss": "Kämpfer",
          "dependent": 4,
          "dependentGloss": "haben"
        },
        {
          "dep": "dobj",
          "governor": 4,
          "governorGloss": "haben",
          "dependent": 5,
          "dependentGloss": "Vertrag"
        },
        {
          "dep": "amod",
          "governor": 7,
          "governorGloss": "Ebola",
          "dependent": 6,
          "dependentGloss": "vergeben"
        },
        {
          "dep": "nsubj",
          "governor": 10,
          "governorGloss": "falsch",
          "dependent": 7,
          "dependentGloss": "Ebola"
        },
        {
          "dep": "cop",
          "governor": 10,
          "governorGloss": "falsch",
          "dependent": 8,
          "dependentGloss": "sind"
        },
        {
          "dep": "punct",
          "governor": 10,
          "governorGloss": "falsch",
          "dependent": 9,
          "dependentGloss": "``"
        },
        {
          "dep": "parataxis",
          "governor": 5,
          "governorGloss": "Vertrag",
          "dependent": 10,
          "dependentGloss": "falsch"
        },
        {
          "dep": "punct",
          "governor": 10,
          "governorGloss": "falsch",
          "dependent": 11,
          "dependentGloss": "``"
        },
        {
          "dep": "punct",
          "governor": 10,
          "governorGloss": "falsch",
          "dependent": 12,
          "dependentGloss": ","
        },
        {
          "dep": "conj",
          "governor": 10,
          "governorGloss": "falsch",
          "dependent": 13,
          "dependentGloss": "sagt"
        },
        {
          "dep": "amod",
          "governor": 15,
          "governorGloss": "Gesundheitsministerium",
          "dependent": 14,
          "dependentGloss": "irakischen"
        },
        {
          "dep": "dobj",
          "governor": 13,
          "governorGloss": "sagt",
          "dependent": 15,
          "dependentGloss": "Gesundheitsministerium"
        }
      ],
      "enhancedPlusPlusDependencies": [
        {
          "dep": "ROOT",
          "governor": 0,
          "governorGloss": "ROOT",
          "dependent": 3,
          "dependentGloss": "Kämpfer"
        },
        {
          "dep": "det",
          "governor": 3,
          "governorGloss": "Kämpfer",
          "dependent": 1,
          "dependentGloss": "Berichte"
        },
        {
          "dep": "amod",
          "governor": 3,
          "governorGloss": "Kämpfer",
          "dependent": 2,
          "dependentGloss": "Isis"
        },
        {
          "dep": "acl",
          "governor": 3,
          "governorGloss": "Kämpfer",
          "dependent": 4,
          "dependentGloss": "haben"
        },
        {
          "dep": "dobj",
          "governor": 4,
          "governorGloss": "haben",
          "dependent": 5,
          "dependentGloss": "Vertrag"
        },
        {
          "dep": "amod",
          "governor": 7,
          "governorGloss": "Ebola",
          "dependent": 6,
          "dependentGloss": "vergeben"
        },
        {
          "dep": "nsubj",
          "governor": 10,
          "governorGloss": "falsch",
          "dependent": 7,
          "dependentGloss": "Ebola"
        },
        {
          "dep": "cop",
          "governor": 10,
          "governorGloss": "falsch",
          "dependent": 8,
          "dependentGloss": "sind"
        },
        {
          "dep": "punct",
          "governor": 10,
          "governorGloss": "falsch",
          "dependent": 9,
          "dependentGloss": "``"
        },
        {
          "dep": "parataxis",
          "governor": 5,
          "governorGloss": "Vertrag",
          "dependent": 10,
          "dependentGloss": "falsch"
        },
        {
          "dep": "punct",
          "governor": 10,
          "governorGloss": "falsch",
          "dependent": 11,
          "dependentGloss": "``"
        },
        {
          "dep": "punct",
          "governor": 10,
          "governorGloss": "falsch",
          "dependent": 12,
          "dependentGloss": ","
        },
        {
          "dep": "conj",
          "governor": 10,
          "governorGloss": "falsch",
          "dependent": 13,
          "dependentGloss": "sagt"
        },
        {
          "dep": "amod",
          "governor": 15,
          "governorGloss": "Gesundheitsministerium",
          "dependent": 14,
          "dependentGloss": "irakischen"
        },
        {
          "dep": "dobj",
          "governor": 13,
          "governorGloss": "sagt",
          "dependent": 15,
          "dependentGloss": "Gesundheitsministerium"
        }
      ],
      "tokens": [
        {
          "index": 1,
          "word": "Berichte",
          "originalText": "Berichte",
          "characterOffsetBegin": 0,
          "characterOffsetEnd": 8,
          "pos": "NN",
          "before": "",
          "after": " "
        },
        {
          "index": 2,
          "word": "Isis",
          "originalText": "Isis",
          "characterOffsetBegin": 9,
          "characterOffsetEnd": 13,
          "pos": "NE",
          "before": " ",
          "after": " "
        },
        {
          "index": 3,
          "word": "Kämpfer",
          "originalText": "Kämpfer",
          "characterOffsetBegin": 14,
          "characterOffsetEnd": 21,
          "pos": "NN",
          "before": " ",
          "after": " "
        },
        {
          "index": 4,
          "word": "haben",
          "originalText": "haben",
          "characterOffsetBegin": 22,
          "characterOffsetEnd": 27,
          "pos": "VAFIN",
          "before": " ",
          "after": " "
        },
        {
          "index": 5,
          "word": "Vertrag",
          "originalText": "Vertrag",
          "characterOffsetBegin": 28,
          "characterOffsetEnd": 35,
          "pos": "NN",
          "before": " ",
          "after": " "
        },
        {
          "index": 6,
          "word": "vergeben",
          "originalText": "vergeben",
          "characterOffsetBegin": 36,
          "characterOffsetEnd": 44,
          "pos": "VVPP",
          "before": " ",
          "after": " "
        },
        {
          "index": 7,
          "word": "Ebola",
          "originalText": "Ebola",
          "characterOffsetBegin": 45,
          "characterOffsetEnd": 50,
          "pos": "NE",
          "before": " ",
          "after": " "
        },
        {
          "index": 8,
          "word": "sind",
          "originalText": "sind",
          "characterOffsetBegin": 51,
          "characterOffsetEnd": 55,
          "pos": "VAFIN",
          "before": " ",
          "after": " "
        },
        {
          "index": 9,
          "word": "``",
          "originalText": "“",
          "characterOffsetBegin": 56,
          "characterOffsetEnd": 57,
          "pos": "ADJD",
          "before": " ",
          "after": ""
        },
        {
          "index": 10,
          "word": "falsch",
          "originalText": "falsch",
          "characterOffsetBegin": 57,
          "characterOffsetEnd": 63,
          "pos": "ADJD",
          "before": "",
          "after": ""
        },
        {
          "index": 11,
          "word": "``",
          "originalText": "“",
          "characterOffsetBegin": 63,
          "characterOffsetEnd": 64,
          "pos": "VVFIN",
          "before": "",
          "after": ""
        },
        {
          "index": 12,
          "word": ",",
          "originalText": ",",
          "characterOffsetBegin": 64,
          "characterOffsetEnd": 65,
          "pos": "$,",
          "before": "",
          "after": " "
        },
        {
          "index": 13,
          "word": "sagt",
          "originalText": "sagt",
          "characterOffsetBegin": 66,
          "characterOffsetEnd": 70,
          "pos": "VVFIN",
          "before": " ",
          "after": " "
        },
        {
          "index": 14,
          "word": "irakischen",
          "originalText": "irakischen",
          "characterOffsetBegin": 71,
          "characterOffsetEnd": 81,
          "pos": "ADJA",
          "before": " ",
          "after": " "
        },
        {
          "index": 15,
          "word": "Gesundheitsministerium",
          "originalText": "Gesundheitsministerium",
          "characterOffsetBegin": 82,
          "characterOffsetEnd": 104,
          "pos": "NN",
          "before": " ",
          "after": ""
        }
      ]
    }
  ]
}