{
  "sentences": [
    {
      "index": 0,
      "basicDependencies": [
        {
          "dep": "ROOT",
          "governor": 0,
          "governorGloss": "ROOT",
          "dependent": 4,
          "dependentGloss": "Manipulation"
        },
        {
          "dep": "name",
          "governor": 3,
          "governorGloss": "Store",
          "dependent": 1,
          "dependentGloss": "China"
        },
        {
          "dep": "name",
          "governor": 3,
          "governorGloss": "Store",
          "dependent": 2,
          "dependentGloss": "App"
        },
        {
          "dep": "nsubj",
          "governor": 4,
          "governorGloss": "Manipulation",
          "dependent": 3,
          "dependentGloss": "Store"
        },
        {
          "dep": "iobj",
          "governor": 4,
          "governorGloss": "Manipulation",
          "dependent": 5,
          "dependentGloss": "Foto"
        },
        {
          "dep": "dep",
          "governor": 4,
          "governorGloss": "Manipulation",
          "dependent": 6,
          "dependentGloss": "geht"
        },
        {
          "dep": "dobj",
          "governor": 6,
          "governorGloss": "geht",
          "dependent": 7,
          "dependentGloss": "Viral"
        },
        {
          "dep": "punct",
          "governor": 7,
          "governorGloss": "Viral",
          "dependent": 8,
          "dependentGloss": "-"
        },
        {
          "dep": "cc",
          "governor": 7,
          "governorGloss": "Viral",
          "dependent": 9,
          "dependentGloss": "aber"
        },
        {
          "dep": "conj",
          "governor": 7,
          "governorGloss": "Viral",
          "dependent": 10,
          "dependentGloss": "ist"
        },
        {
          "dep": "expl",
          "governor": 10,
          "governorGloss": "ist",
          "dependent": 11,
          "dependentGloss": "es"
        },
        {
          "dep": "amod",
          "governor": 11,
          "governorGloss": "es",
          "dependent": 12,
          "dependentGloss": "wirklich"
        },
        {
          "dep": "punct",
          "governor": 12,
          "governorGloss": "wirklich",
          "dependent": 13,
          "dependentGloss": "?"
        }
      ],
      "enhancedDependencies": [
        {
          "dep": "ROOT",
          "governor": 0,
          "governorGloss": "ROOT",
          "dependent": 4,
          "dependentGloss": "Manipulation"
        },
        {
          "dep": "name",
          "governor": 3,
          "governorGloss": "Store",
          "dependent": 1,
          "dependentGloss": "China"
        },
        {
          "dep": "name",
          "governor": 3,
          "governorGloss": "Store",
          "dependent": 2,
          "dependentGloss": "App"
        },
        {
          "dep": "nsubj",
          "governor": 4,
          "governorGloss": "Manipulation",
          "dependent": 3,
          "dependentGloss": "Store"
        },
        {
          "dep": "iobj",
          "governor": 4,
          "governorGloss": "Manipulation",
          "dependent": 5,
          "dependentGloss": "Foto"
        },
        {
          "dep": "dep",
          "governor": 4,
          "governorGloss": "Manipulation",
          "dependent": 6,
          "dependentGloss": "geht"
        },
        {
          "dep": "dobj",
          "governor": 6,
          "governorGloss": "geht",
          "dependent": 7,
          "dependentGloss": "Viral"
        },
        {
          "dep": "punct",
          "governor": 7,
          "governorGloss": "Viral",
          "dependent": 8,
          "dependentGloss": "-"
        },
        {
          "dep": "cc",
          "governor": 7,
          "governorGloss": "Viral",
          "dependent": 9,
          "dependentGloss": "aber"
        },
        {
          "dep": "dobj",
          "governor": 6,
          "governorGloss": "geht",
          "dependent": 10,
          "dependentGloss": "ist"
        },
        {
          "dep": "conj:aber",
          "governor": 7,
          "governorGloss": "Viral",
          "dependent": 10,
          "dependentGloss": "ist"
        },
        {
          "dep": "expl",
          "governor": 10,
          "governorGloss": "ist",
          "dependent": 11,
          "dependentGloss": "es"
        },
        {
          "dep": "amod",
          "governor": 11,
          "governorGloss": "es",
          "dependent": 12,
          "dependentGloss": "wirklich"
        },
        {
          "dep": "punct",
          "governor": 12,
          "governorGloss": "wirklich",
          "dependent": 13,
          "dependentGloss": "?"
        }
      ],
      "enhancedPlusPlusDependencies": [
        {
          "dep": "ROOT",
          "governor": 0,
          "governorGloss": "ROOT",
          "dependent": 4,
          "dependentGloss": "Manipulation"
        },
        {
          "dep": "name",
          "governor": 3,
          "governorGloss": "Store",
          "dependent": 1,
          "dependentGloss": "China"
        },
        {
          "dep": "name",
          "governor": 3,
          "governorGloss": "Store",
          "dependent": 2,
          "dependentGloss": "App"
        },
        {
          "dep": "nsubj",
          "governor": 4,
          "governorGloss": "Manipulation",
          "dependent": 3,
          "dependentGloss": "Store"
        },
        {
          "dep": "iobj",
          "governor": 4,
          "governorGloss": "Manipulation",
          "dependent": 5,
          "dependentGloss": "Foto"
        },
        {
          "dep": "dep",
          "governor": 4,
          "governorGloss": "Manipulation",
          "dependent": 6,
          "dependentGloss": "geht"
        },
        {
          "dep": "dobj",
          "governor": 6,
          "governorGloss": "geht",
          "dependent": 7,
          "dependentGloss": "Viral"
        },
        {
          "dep": "punct",
          "governor": 7,
          "governorGloss": "Viral",
          "dependent": 8,
          "dependentGloss": "-"
        },
        {
          "dep": "cc",
          "governor": 7,
          "governorGloss": "Viral",
          "dependent": 9,
          "dependentGloss": "aber"
        },
        {
          "dep": "dobj",
          "governor": 6,
          "governorGloss": "geht",
          "dependent": 10,
          "dependentGloss": "ist"
        },
        {
          "dep": "conj:aber",
          "governor": 7,
          "governorGloss": "Viral",
          "dependent": 10,
          "dependentGloss": "ist"
        },
        {
          "dep": "expl",
          "governor": 10,
          "governorGloss": "ist",
          "dependent": 11,
          "dependentGloss": "es"
        },
        {
          "dep": "amod",
          "governor": 11,
          "governorGloss": "es",
          "dependent": 12,
          "dependentGloss": "wirklich"
        },
        {
          "dep": "punct",
          "governor": 12,
          "governorGloss": "wirklich",
          "dependent": 13,
          "dependentGloss": "?"
        }
      ],
      "tokens": [
        {
          "index": 1,
          "word": "China",
          "originalText": "China",
          "characterOffsetBegin": 0,
          "characterOffsetEnd": 5,
          "pos": "NE",
          "before": "",
          "after": " "
        },
        {
          "index": 2,
          "word": "App",
          "originalText": "App",
          "characterOffsetBegin": 6,
          "characterOffsetEnd": 9,
          "pos": "NE",
          "before": " ",
          "after": " "
        },
        {
          "index": 3,
          "word": "Store",
          "originalText": "Store",
          "characterOffsetBegin": 10,
          "characterOffsetEnd": 15,
          "pos": "NE",
          "before": " ",
          "after": " "
        },
        {
          "index": 4,
          "word": "Manipulation",
          "originalText": "Manipulation",
          "characterOffsetBegin": 16,
          "characterOffsetEnd": 28,
          "pos": "NN",
          "before": " ",
          "after": " "
        },
        {
          "index": 5,
          "word": "Foto",
          "originalText": "Foto",
          "characterOffsetBegin": 29,
          "characterOffsetEnd": 33,
          "pos": "NN",
          "before": " ",
          "after": " "
        },
        {
          "index": 6,
          "word": "geht",
          "originalText": "geht",
          "characterOffsetBegin": 34,
          "characterOffsetEnd": 38,
          "pos": "VVFIN",
          "before": " ",
          "after": " "
        },
        {
          "index": 7,
          "word": "Viral",
          "originalText": "Viral",
          "characterOffsetBegin": 39,
          "characterOffsetEnd": 44,
          "pos": "NE",
          "before": " ",
          "after": " "
        },
        {
          "index": 8,
          "word": "-",
          "originalText": "-",
          "characterOffsetBegin": 45,
          "characterOffsetEnd": 46,
          "pos": "$[",
          "before": " ",
          "after": " "
        },
        {
          "index": 9,
          "word": "aber",
          "originalText": "aber",
          "characterOffsetBegin": 47,
          "characterOffsetEnd": 51,
          "pos": "ADV",
          "before": " ",
          "after": " "
        },
        {
          "index": 10,
          "word": "ist",
          "originalText": "ist",
          "characterOffsetBegin": 52,
          "characterOffsetEnd": 55,
          "pos": "VAFIN",
          "before": " ",
          "after": " "
        },
        {
          "index": 11,
          "word": "es",
          "originalText": "es",
          "characterOffsetBegin": 56,
          "characterOffsetEnd": 58,
          "pos": "PPER",
          "before": " ",
          "after": " "
        },
        {
          "index": 12,
          "word": "wirklich",
          "originalText": "wirklich",
          "characterOffsetBegin": 59,
          "characterOffsetEnd": 67,
          "pos": "ADJD",
          "before": " ",
          "after": ""
        },
        {
          "index": 13,
          "word": "?",
          "originalText": "?",
          "characterOffsetBegin": 67,
          "characterOffsetEnd": 68,
          "pos": "$.",
          "before": "",
          "after": ""
        }
      ]
    }
  ]
}