{
  "sentences": [
    {
      "index": 0,
      "basicDependencies": [
        {
          "dep": "ROOT",
          "governor": 0,
          "governorGloss": "ROOT",
          "dependent": 3,
          "dependentGloss": "spielt"
        },
        {
          "dep": "name",
          "governor": 2,
          "governorGloss": "Rogen",
          "dependent": 1,
          "dependentGloss": "Seth"
        },
        {
          "dep": "nsubj",
          "governor": 3,
          "governorGloss": "spielt",
          "dependent": 2,
          "dependentGloss": "Rogen"
        },
        {
          "dep": "nmod",
          "governor": 3,
          "governorGloss": "spielt",
          "dependent": 4,
          "dependentGloss": "Woz"
        },
        {
          "dep": "case",
          "governor": 6,
          "governorGloss": "Jobs",
          "dependent": 5,
          "dependentGloss": "in"
        },
        {
          "dep": "nmod",
          "governor": 3,
          "governorGloss": "spielt",
          "dependent": 6,
          "dependentGloss": "Jobs"
        },
        {
          "dep": "advmod",
          "governor": 3,
          "governorGloss": "spielt",
          "dependent": 7,
          "dependentGloss": "biopic"
        }
      ],
      "enhancedDependencies": [
        {
          "dep": "ROOT",
          "governor": 0,
          "governorGloss": "ROOT",
          "dependent": 3,
          "dependentGloss": "spielt"
        },
        {
          "dep": "name",
          "governor": 2,
          "governorGloss": "Rogen",
          "dependent": 1,
          "dependentGloss": "Seth"
        },
        {
          "dep": "nsubj",
          "governor": 3,
          "governorGloss": "spielt",
          "dependent": 2,
          "dependentGloss": "Rogen"
        },
        {
          "dep": "nmod",
          "governor": 3,
          "governorGloss": "spielt",
          "dependent": 4,
          "dependentGloss": "Woz"
        },
        {
          "dep": "case",
          "governor": 6,
          "governorGloss": "Jobs",
          "dependent": 5,
          "dependentGloss": "in"
        },
        {
          "dep": "nmod",
          "governor": 3,
          "governorGloss": "spielt",
          "dependent": 6,
          "dependentGloss": "Jobs"
        },
        {
          "dep": "advmod",
          "governor": 3,
          "governorGloss": "spielt",
          "dependent": 7,
          "dependentGloss": "biopic"
        }
      ],
      "enhancedPlusPlusDependencies": [
        {
          "dep": "ROOT",
          "governor": 0,
          "governorGloss": "ROOT",
          "dependent": 3,
          "dependentGloss": "spielt"
        },
        {
          "dep": "name",
          "governor": 2,
          "governorGloss": "Rogen",
          "dependent": 1,
          "dependentGloss": "Seth"
        },
        {
          "dep": "nsubj",
          "governor": 3,
          "governorGloss": "spielt",
          "dependent": 2,
          "dependentGloss": "Rogen"
        },
        {
          "dep": "nmod",
          "governor": 3,
          "governorGloss": "spielt",
          "dependent": 4,
          "dependentGloss": "Woz"
        },
        {
          "dep": "case",
          "governor": 6,
          "governorGloss": "Jobs",
          "dependent": 5,
          "dependentGloss": "in"
        },
        {
          "dep": "nmod",
          "governor": 3,
          "governorGloss": "spielt",
          "dependent": 6,
          "dependentGloss": "Jobs"
        },
        {
          "dep": "advmod",
          "governor": 3,
          "governorGloss": "spielt",
          "dependent": 7,
          "dependentGloss": "biopic"
        }
      ],
      "tokens": [
        {
          "index": 1,
          "word": "Seth",
          "originalText": "Seth",
          "characterOffsetBegin": 0,
          "characterOffsetEnd": 4,
          "pos": "NE",
          "before": "",
          "after": " "
        },
        {
          "index": 2,
          "word": "Rogen",
          "originalText": "Rogen",
          "characterOffsetBegin": 5,
          "characterOffsetEnd": 10,
          "pos": "NN",
          "before": " ",
          "after": " "
        },
        {
          "index": 3,
          "word": "spielt",
          "originalText": "spielt",
          "characterOffsetBegin": 11,
          "characterOffsetEnd": 17,
          "pos": "VVFIN",
          "before": " ",
          "after": " "
        },
        {
          "index": 4,
          "word": "Woz",
          "originalText": "Woz",
          "characterOffsetBegin": 18,
          "characterOffsetEnd": 21,
          "pos": "NE",
          "before": " ",
          "after": " "
        },
        {
          "index": 5,
          "word": "in",
          "originalText": "in",
          "characterOffsetBegin": 22,
          "characterOffsetEnd": 24,
          "pos": "APPR",
          "before": " ",
          "after": " "
        },
        {
          "index": 6,
          "word": "Jobs",
          "originalText": "Jobs",
          "characterOffsetBegin": 25,
          "characterOffsetEnd": 29,
          "pos": "NN",
          "before": " ",
          "after": " "
        },
        {
          "index": 7,
          "word": "biopic",
          "originalText": "biopic",
          "characterOffsetBegin": 30,
          "characterOffsetEnd": 36,
          "pos": "NE",
          "before": " ",
          "after": ""
        }
      ]
    }
  ]
}