{
  "sentences": [
    {
      "index": 0,
      "basicDependencies": [
        {
          "dep": "ROOT",
          "governor": 0,
          "governorGloss": "ROOT",
          "dependent": 9,
          "dependentGloss": "kommen"
        },
        {
          "dep": "advmod",
          "governor": 9,
          "governorGloss": "kommen",
          "dependent": 1,
          "dependentGloss": "Bald"
        },
        {
          "dep": "aux",
          "governor": 9,
          "governorGloss": "kommen",
          "dependent": 2,
          "dependentGloss": "kann"
        },
        {
          "dep": "nsubj",
          "governor": 9,
          "governorGloss": "kommen",
          "dependent": 3,
          "dependentGloss": "Marijuana"
        },
        {
          "dep": "case",
          "governor": 6,
          "governorGloss": "York",
          "dependent": 4,
          "dependentGloss": "in"
        },
        {
          "dep": "name",
          "governor": 6,
          "governorGloss": "York",
          "dependent": 5,
          "dependentGloss": "New"
        },
        {
          "dep": "nmod",
          "governor": 9,
          "governorGloss": "kommen",
          "dependent": 6,
          "dependentGloss": "York"
        },
        {
          "dep": "case",
          "governor": 8,
          "governorGloss": "Ticket",
          "dependent": 7,
          "dependentGloss": "zu"
        },
        {
          "dep": "nmod",
          "governor": 9,
          "governorGloss": "kommen",
          "dependent": 8,
          "dependentGloss": "Ticket"
        },
        {
          "dep": "punct",
          "governor": 9,
          "governorGloss": "kommen",
          "dependent": 10,
          "dependentGloss": ","
        },
        {
          "dep": "neg",
          "governor": 12,
          "governorGloss": "verhaften",
          "dependent": 11,
          "dependentGloss": "nicht"
        },
        {
          "dep": "conj",
          "governor": 9,
          "governorGloss": "kommen",
          "dependent": 12,
          "dependentGloss": "verhaften"
        }
      ],
      "enhancedDependencies": [
        {
          "dep": "ROOT",
          "governor": 0,
          "governorGloss": "ROOT",
          "dependent": 9,
          "dependentGloss": "kommen"
        },
        {
          "dep": "advmod",
          "governor": 9,
          "governorGloss": "kommen",
          "dependent": 1,
          "dependentGloss": "Bald"
        },
        {
          "dep": "aux",
          "governor": 9,
          "governorGloss": "kommen",
          "dependent": 2,
          "dependentGloss": "kann"
        },
        {
          "dep": "nsubj",
          "governor": 9,
          "governorGloss": "kommen",
          "dependent": 3,
          "dependentGloss": "Marijuana"
        },
        {
          "dep": "case",
          "governor": 6,
          "governorGloss": "York",
          "dependent": 4,
          "dependentGloss": "in"
        },
        {
          "dep": "name",
          "governor": 6,
          "governorGloss": "York",
          "dependent": 5,
          "dependentGloss": "New"
        },
        {
          "dep": "nmod",
          "governor": 9,
          "governorGloss": "kommen",
          "dependent": 6,
          "dependentGloss": "York"
        },
        {
          "dep": "case",
          "governor": 8,
          "governorGloss": "Ticket",
          "dependent": 7,
          "dependentGloss": "zu"
        },
        {
          "dep": "nmod",
          "governor": 9,
          "governorGloss": "kommen",
          "dependent": 8,
          "dependentGloss": "Ticket"
        },
        {
          "dep": "punct",
          "governor": 9,
          "governorGloss": "kommen",
          "dependent": 10,
          "dependentGloss": ","
        },
        {
          "dep": "neg",
          "governor": 12,
          "governorGloss": "verhaften",
          "dependent": 11,
          "dependentGloss": "nicht"
        },
        {
          "dep": "conj",
          "governor": 9,
          "governorGloss": "kommen",
          "dependent": 12,
          "dependentGloss": "verhaften"
        }
      ],
      "enhancedPlusPlusDependencies": [
        {
          "dep": "ROOT",
          "governor": 0,
          "governorGloss": "ROOT",
          "dependent": 9,
          "dependentGloss": "kommen"
        },
        {
          "dep": "advmod",
          "governor": 9,
          "governorGloss": "kommen",
          "dependent": 1,
          "dependentGloss": "Bald"
        },
        {
          "dep": "aux",
          "governor": 9,
          "governorGloss": "kommen",
          "dependent": 2,
          "dependentGloss": "kann"
        },
        {
          "dep": "nsubj",
          "governor": 9,
          "governorGloss": "kommen",
          "dependent": 3,
          "dependentGloss": "Marijuana"
        },
        {
          "dep": "case",
          "governor": 6,
          "governorGloss": "York",
          "dependent": 4,
          "dependentGloss": "in"
        },
        {
          "dep": "name",
          "governor": 6,
          "governorGloss": "York",
          "dependent": 5,
          "dependentGloss": "New"
        },
        {
          "dep": "nmod",
          "governor": 9,
          "governorGloss": "kommen",
          "dependent": 6,
          "dependentGloss": "York"
        },
        {
          "dep": "case",
          "governor": 8,
          "governorGloss": "Ticket",
          "dependent": 7,
          "dependentGloss": "zu"
        },
        {
          "dep": "nmod",
          "governor": 9,
          "governorGloss": "kommen",
          "dependent": 8,
          "dependentGloss": "Ticket"
        },
        {
          "dep": "punct",
          "governor": 9,
          "governorGloss": "kommen",
          "dependent": 10,
          "dependentGloss": ","
        },
        {
          "dep": "neg",
          "governor": 12,
          "governorGloss": "verhaften",
          "dependent": 11,
          "dependentGloss": "nicht"
        },
        {
          "dep": "conj",
          "governor": 9,
          "governorGloss": "kommen",
          "dependent": 12,
          "dependentGloss": "verhaften"
        }
      ],
      "tokens": [
        {
          "index": 1,
          "word": "Bald",
          "originalText": "Bald",
          "characterOffsetBegin": 0,
          "characterOffsetEnd": 4,
          "pos": "ADV",
          "before": "",
          "after": " "
        },
        {
          "index": 2,
          "word": "kann",
          "originalText": "kann",
          "characterOffsetBegin": 5,
          "characterOffsetEnd": 9,
          "pos": "VMFIN",
          "before": " ",
          "after": " "
        },
        {
          "index": 3,
          "word": "Marijuana",
          "originalText": "Marijuana",
          "characterOffsetBegin": 10,
          "characterOffsetEnd": 19,
          "pos": "NE",
          "before": " ",
          "after": " "
        },
        {
          "index": 4,
          "word": "in",
          "originalText": "in",
          "characterOffsetBegin": 20,
          "characterOffsetEnd": 22,
          "pos": "APPR",
          "before": " ",
          "after": " "
        },
        {
          "index": 5,
          "word": "New",
          "originalText": "New",
          "characterOffsetBegin": 23,
          "characterOffsetEnd": 26,
          "pos": "NE",
          "before": " ",
          "after": " "
        },
        {
          "index": 6,
          "word": "York",
          "originalText": "York",
          "characterOffsetBegin": 27,
          "characterOffsetEnd": 31,
          "pos": "NE",
          "before": " ",
          "after": " "
        },
        {
          "index": 7,
          "word": "zu",
          "originalText": "zu",
          "characterOffsetBegin": 32,
          "characterOffsetEnd": 34,
          "pos": "PTKZU",
          "before": " ",
          "after": " "
        },
        {
          "index": 8,
          "word": "Ticket",
          "originalText": "Ticket",
          "characterOffsetBegin": 35,
          "characterOffsetEnd": 41,
          "pos": "NN",
          "before": " ",
          "after": " "
        },
        {
          "index": 9,
          "word": "kommen",
          "originalText": "kommen",
          "characterOffsetBegin": 42,
          "characterOffsetEnd": 48,
          "pos": "VVFIN",
          "before": " ",
          "after": ""
        },
        {
          "index": 10,
          "word": ",",
          "originalText": ",",
          "characterOffsetBegin": 48,
          "characterOffsetEnd": 49,
          "pos": "$,",
          "before": "",
          "after": " "
        },
        {
          "index": 11,
          "word": "nicht",
          "originalText": "nicht",
          "characterOffsetBegin": 50,
          "characterOffsetEnd": 55,
          "pos": "PTKNEG",
          "before": " ",
          "after": " "
        },
        {
          "index": 12,
          "word": "verhaften",
          "originalText": "verhaften",
          "characterOffsetBegin": 56,
          "characterOffsetEnd": 65,
          "pos": "VVINF",
          "before": " ",
          "after": ""
        }
      ]
    }
  ]
}