{
  "sentences": [
    {
      "index": 0,
      "basicDependencies": [
        {
          "dep": "ROOT",
          "governor": 0,
          "governorGloss": "ROOT",
          "dependent": 1,
          "dependentGloss": "ADVISORY-islamistischer"
        },
        {
          "dep": "nsubj",
          "governor": 1,
          "governorGloss": "ADVISORY-islamistischer",
          "dependent": 2,
          "dependentGloss": "Rebellenführer"
        },
        {
          "dep": "amod",
          "governor": 8,
          "governorGloss": "Regierung",
          "dependent": 3,
          "dependentGloss": "im"
        },
        {
          "dep": "amod",
          "governor": 8,
          "governorGloss": "Regierung",
          "dependent": 4,
          "dependentGloss": "U.S.-Streik"
        },
        {
          "dep": "compound",
          "governor": 7,
          "governorGloss": "somalische",
          "dependent": 5,
          "dependentGloss": "getötet"
        },
        {
          "dep": "punct",
          "governor": 7,
          "governorGloss": "somalische",
          "dependent": 6,
          "dependentGloss": "-"
        },
        {
          "dep": "amod",
          "governor": 8,
          "governorGloss": "Regierung",
          "dependent": 7,
          "dependentGloss": "somalische"
        },
        {
          "dep": "det",
          "governor": 2,
          "governorGloss": "Rebellenführer",
          "dependent": 8,
          "dependentGloss": "Regierung"
        }
      ],
      "enhancedDependencies": [
        {
          "dep": "ROOT",
          "governor": 0,
          "governorGloss": "ROOT",
          "dependent": 1,
          "dependentGloss": "ADVISORY-islamistischer"
        },
        {
          "dep": "nsubj",
          "governor": 1,
          "governorGloss": "ADVISORY-islamistischer",
          "dependent": 2,
          "dependentGloss": "Rebellenführer"
        },
        {
          "dep": "amod",
          "governor": 8,
          "governorGloss": "Regierung",
          "dependent": 3,
          "dependentGloss": "im"
        },
        {
          "dep": "amod",
          "governor": 8,
          "governorGloss": "Regierung",
          "dependent": 4,
          "dependentGloss": "U.S.-Streik"
        },
        {
          "dep": "compound",
          "governor": 7,
          "governorGloss": "somalische",
          "dependent": 5,
          "dependentGloss": "getötet"
        },
        {
          "dep": "punct",
          "governor": 7,
          "governorGloss": "somalische",
          "dependent": 6,
          "dependentGloss": "-"
        },
        {
          "dep": "amod",
          "governor": 8,
          "governorGloss": "Regierung",
          "dependent": 7,
          "dependentGloss": "somalische"
        },
        {
          "dep": "det",
          "governor": 2,
          "governorGloss": "Rebellenführer",
          "dependent": 8,
          "dependentGloss": "Regierung"
        }
      ],
      "enhancedPlusPlusDependencies": [
        {
          "dep": "ROOT",
          "governor": 0,
          "governorGloss": "ROOT",
          "dependent": 1,
          "dependentGloss": "ADVISORY-islamistischer"
        },
        {
          "dep": "nsubj",
          "governor": 1,
          "governorGloss": "ADVISORY-islamistischer",
          "dependent": 2,
          "dependentGloss": "Rebellenführer"
        },
        {
          "dep": "amod",
          "governor": 8,
          "governorGloss": "Regierung",
          "dependent": 3,
          "dependentGloss": "im"
        },
        {
          "dep": "amod",
          "governor": 8,
          "governorGloss": "Regierung",
          "dependent": 4,
          "dependentGloss": "U.S.-Streik"
        },
        {
          "dep": "compound",
          "governor": 7,
          "governorGloss": "somalische",
          "dependent": 5,
          "dependentGloss": "getötet"
        },
        {
          "dep": "punct",
          "governor": 7,
          "governorGloss": "somalische",
          "dependent": 6,
          "dependentGloss": "-"
        },
        {
          "dep": "amod",
          "governor": 8,
          "governorGloss": "Regierung",
          "dependent": 7,
          "dependentGloss": "somalische"
        },
        {
          "dep": "det",
          "governor": 2,
          "governorGloss": "Rebellenführer",
          "dependent": 8,
          "dependentGloss": "Regierung"
        }
      ],
      "tokens": [
        {
          "index": 1,
          "word": "ADVISORY-islamistischer",
          "originalText": "ADVISORY-islamistischer",
          "characterOffsetBegin": 0,
          "characterOffsetEnd": 23,
          "pos": "ADJA",
          "before": "",
          "after": " "
        },
        {
          "index": 2,
          "word": "Rebellenführer",
          "originalText": "Rebellenführer",
          "characterOffsetBegin": 24,
          "characterOffsetEnd": 38,
          "pos": "NN",
          "before": " ",
          "after": " "
        },
        {
          "index": 3,
          "word": "im",
          "originalText": "im",
          "characterOffsetBegin": 39,
          "characterOffsetEnd": 41,
          "pos": "APPRART",
          "before": " ",
          "after": " "
        },
        {
          "index": 4,
          "word": "U.S.-Streik",
          "originalText": "U.S.-Streik",
          "characterOffsetBegin": 42,
          "characterOffsetEnd": 53,
          "pos": "NN",
          "before": " ",
          "after": " "
        },
        {
          "index": 5,
          "word": "getötet",
          "originalText": "getötet",
          "characterOffsetBegin": 54,
          "characterOffsetEnd": 61,
          "pos": "VVPP",
          "before": " ",
          "after": " "
        },
        {
          "index": 6,
          "word": "-",
          "originalText": "-",
          "characterOffsetBegin": 62,
          "characterOffsetEnd": 63,
          "pos": "$[",
          "before": " ",
          "after": " "
        },
        {
          "index": 7,
          "word": "somalische",
          "originalText": "somalische",
          "characterOffsetBegin": 64,
          "characterOffsetEnd": 74,
          "pos": "ADJA",
          "before": " ",
          "after": " "
        },
        {
          "index": 8,
          "word": "Regierung",
          "originalText": "Regierung",
          "characterOffsetBegin": 75,
          "characterOffsetEnd": 84,
          "pos": "NN",
          "before": " ",
          "after": ""
        }
      ]
    }
  ]
}