{
  "sentences": [
    {
      "index": 0,
      "basicDependencies": [
        {
          "dep": "ROOT",
          "governor": 0,
          "governorGloss": "ROOT",
          "dependent": 7,
          "dependentGloss": "spielen"
        },
        {
          "dep": "name",
          "governor": 2,
          "governorGloss": "Bale",
          "dependent": 1,
          "dependentGloss": "Christian"
        },
        {
          "dep": "dobj",
          "governor": 7,
          "governorGloss": "spielen",
          "dependent": 2,
          "dependentGloss": "Bale"
        },
        {
          "dep": "aux",
          "governor": 7,
          "governorGloss": "spielen",
          "dependent": 3,
          "dependentGloss": "wird"
        },
        {
          "dep": "name",
          "governor": 5,
          "governorGloss": "Jobs",
          "dependent": 4,
          "dependentGloss": "Steve"
        },
        {
          "dep": "nsubj",
          "governor": 7,
          "governorGloss": "spielen",
          "dependent": 5,
          "dependentGloss": "Jobs"
        },
        {
          "dep": "neg",
          "governor": 7,
          "governorGloss": "spielen",
          "dependent": 6,
          "dependentGloss": "nicht"
        }
      ],
      "enhancedDependencies": [
        {
          "dep": "ROOT",
          "governor": 0,
          "governorGloss": "ROOT",
          "dependent": 7,
          "dependentGloss": "spielen"
        },
        {
          "dep": "name",
          "governor": 2,
          "governorGloss": "Bale",
          "dependent": 1,
          "dependentGloss": "Christian"
        },
        {
          "dep": "dobj",
          "governor": 7,
          "governorGloss": "spielen",
          "dependent": 2,
          "dependentGloss": "Bale"
        },
        {
          "dep": "aux",
          "governor": 7,
          "governorGloss": "spielen",
          "dependent": 3,
          "dependentGloss": "wird"
        },
        {
          "dep": "name",
          "governor": 5,
          "governorGloss": "Jobs",
          "dependent": 4,
          "dependentGloss": "Steve"
        },
        {
          "dep": "nsubj",
          "governor": 7,
          "governorGloss": "spielen",
          "dependent": 5,
          "dependentGloss": "Jobs"
        },
        {
          "dep": "neg",
          "governor": 7,
          "governorGloss": "spielen",
          "dependent": 6,
          "dependentGloss": "nicht"
        }
      ],
      "enhancedPlusPlusDependencies": [
        {
          "dep": "ROOT",
          "governor": 0,
          "governorGloss": "ROOT",
          "dependent": 7,
          "dependentGloss": "spielen"
        },
        {
          "dep": "name",
          "governor": 2,
          "governorGloss": "Bale",
          "dependent": 1,
          "dependentGloss": "Christian"
        },
        {
          "dep": "dobj",
          "governor": 7,
          "governorGloss": "spielen",
          "dependent": 2,
          "dependentGloss": "Bale"
        },
        {
          "dep": "aux",
          "governor": 7,
          "governorGloss": "spielen",
          "dependent": 3,
          "dependentGloss": "wird"
        },
        {
          "dep": "name",
          "governor": 5,
          "governorGloss": "Jobs",
          "dependent": 4,
          "dependentGloss": "Steve"
        },
        {
          "dep": "nsubj",
          "governor": 7,
          "governorGloss": "spielen",
          "dependent": 5,
          "dependentGloss": "Jobs"
        },
        {
          "dep": "neg",
          "governor": 7,
          "governorGloss": "spielen",
          "dependent": 6,
          "dependentGloss": "nicht"
        }
      ],
      "tokens": [
        {
          "index": 1,
          "word": "Christian",
          "originalText": "Christian",
          "characterOffsetBegin": 0,
          "characterOffsetEnd": 9,
          "pos": "NE",
          "before": "",
          "after": " "
        },
        {
          "index": 2,
          "word": "Bale",
          "originalText": "Bale",
          "characterOffsetBegin": 10,
          "characterOffsetEnd": 14,
          "pos": "NE",
          "before": " ",
          "after": " "
        },
        {
          "index": 3,
          "word": "wird",
          "originalText": "wird",
          "characterOffsetBegin": 15,
          "characterOffsetEnd": 19,
          "pos": "VAFIN",
          "before": " ",
          "after": " "
        },
        {
          "index": 4,
          "word": "Steve",
          "originalText": "Steve",
          "characterOffsetBegin": 20,
          "characterOffsetEnd": 25,
          "pos": "NE",
          "before": " ",
          "after": " "
        },
        {
          "index": 5,
          "word": "Jobs",
          "originalText": "Jobs",
          "characterOffsetBegin": 26,
          "characterOffsetEnd": 30,
          "pos": "NN",
          "before": " ",
          "after": " "
        },
        {
          "index": 6,
          "word": "nicht",
          "originalText": "nicht",
          "characterOffsetBegin": 31,
          "characterOffsetEnd": 36,
          "pos": "PTKNEG",
          "before": " ",
          "after": " "
        },
        {
          "index": 7,
          "word": "spielen",
          "originalText": "spielen",
          "characterOffsetBegin": 37,
          "characterOffsetEnd": 44,
          "pos": "VVINF",
          "before": " ",
          "after": ""
        }
      ]
    }
  ]
}