{
  "sentences": [
    {
      "index": 0,
      "basicDependencies": [
        {
          "dep": "ROOT",
          "governor": 0,
          "governorGloss": "ROOT",
          "dependent": 4,
          "dependentGloss": "bekannt"
        },
        {
          "dep": "nsubj",
          "governor": 4,
          "governorGloss": "bekannt",
          "dependent": 1,
          "dependentGloss": "Identität"
        },
        {
          "dep": "det",
          "governor": 3,
          "governorGloss": "ISIS-Terroristen",
          "dependent": 2,
          "dependentGloss": "der"
        },
        {
          "dep": "det",
          "governor": 1,
          "governorGloss": "Identität",
          "dependent": 3,
          "dependentGloss": "ISIS-Terroristen"
        },
        {
          "dep": "case",
          "governor": 4,
          "governorGloss": "bekannt",
          "dependent": 5,
          "dependentGloss": "als"
        },
        {
          "dep": "dep",
          "governor": 5,
          "governorGloss": "als",
          "dependent": 6,
          "dependentGloss": "`"
        },
        {
          "dep": "conj",
          "governor": 6,
          "governorGloss": "`",
          "dependent": 7,
          "dependentGloss": "Jihadi"
        },
        {
          "dep": "det",
          "governor": 11,
          "governorGloss": "enthüllt",
          "dependent": 8,
          "dependentGloss": "John"
        },
        {
          "dep": "case",
          "governor": 8,
          "governorGloss": "John",
          "dependent": 9,
          "dependentGloss": "'"
        },
        {
          "dep": "advmod",
          "governor": 11,
          "governorGloss": "enthüllt",
          "dependent": 10,
          "dependentGloss": "angeblich"
        },
        {
          "dep": "dobj",
          "governor": 7,
          "governorGloss": "Jihadi",
          "dependent": 11,
          "dependentGloss": "enthüllt"
        }
      ],
      "enhancedDependencies": [
        {
          "dep": "ROOT",
          "governor": 0,
          "governorGloss": "ROOT",
          "dependent": 4,
          "dependentGloss": "bekannt"
        },
        {
          "dep": "nsubj",
          "governor": 4,
          "governorGloss": "bekannt",
          "dependent": 1,
          "dependentGloss": "Identität"
        },
        {
          "dep": "det",
          "governor": 3,
          "governorGloss": "ISIS-Terroristen",
          "dependent": 2,
          "dependentGloss": "der"
        },
        {
          "dep": "det",
          "governor": 1,
          "governorGloss": "Identität",
          "dependent": 3,
          "dependentGloss": "ISIS-Terroristen"
        },
        {
          "dep": "case",
          "governor": 4,
          "governorGloss": "bekannt",
          "dependent": 5,
          "dependentGloss": "als"
        },
        {
          "dep": "dep",
          "governor": 5,
          "governorGloss": "als",
          "dependent": 6,
          "dependentGloss": "`"
        },
        {
          "dep": "conj",
          "governor": 6,
          "governorGloss": "`",
          "dependent": 7,
          "dependentGloss": "Jihadi"
        },
        {
          "dep": "det",
          "governor": 11,
          "governorGloss": "enthüllt",
          "dependent": 8,
          "dependentGloss": "John"
        },
        {
          "dep": "case",
          "governor": 8,
          "governorGloss": "John",
          "dependent": 9,
          "dependentGloss": "'"
        },
        {
          "dep": "advmod",
          "governor": 11,
          "governorGloss": "enthüllt",
          "dependent": 10,
          "dependentGloss": "angeblich"
        },
        {
          "dep": "dobj",
          "governor": 7,
          "governorGloss": "Jihadi",
          "dependent": 11,
          "dependentGloss": "enthüllt"
        }
      ],
      "enhancedPlusPlusDependencies": [
        {
          "dep": "ROOT",
          "governor": 0,
          "governorGloss": "ROOT",
          "dependent": 4,
          "dependentGloss": "bekannt"
        },
        {
          "dep": "nsubj",
          "governor": 4,
          "governorGloss": "bekannt",
          "dependent": 1,
          "dependentGloss": "Identität"
        },
        {
          "dep": "det",
          "governor": 3,
          "governorGloss": "ISIS-Terroristen",
          "dependent": 2,
          "dependentGloss": "der"
        },
        {
          "dep": "det",
          "governor": 1,
          "governorGloss": "Identität",
          "dependent": 3,
          "dependentGloss": "ISIS-Terroristen"
        },
        {
          "dep": "case",
          "governor": 4,
          "governorGloss": "bekannt",
          "dependent": 5,
          "dependentGloss": "als"
        },
        {
          "dep": "dep",
          "governor": 5,
          "governorGloss": "als",
          "dependent": 6,
          "dependentGloss": "`"
        },
        {
          "dep": "conj",
          "governor": 6,
          "governorGloss": "`",
          "dependent": 7,
          "dependentGloss": "Jihadi"
        },
        {
          "dep": "det",
          "governor": 11,
          "governorGloss": "enthüllt",
          "dependent": 8,
          "dependentGloss": "John"
        },
        {
          "dep": "case",
          "governor": 8,
          "governorGloss": "John",
          "dependent": 9,
          "dependentGloss": "'"
        },
        {
          "dep": "advmod",
          "governor": 11,
          "governorGloss": "enthüllt",
          "dependent": 10,
          "dependentGloss": "angeblich"
        },
        {
          "dep": "dobj",
          "governor": 7,
          "governorGloss": "Jihadi",
          "dependent": 11,
          "dependentGloss": "enthüllt"
        }
      ],
      "tokens": [
        {
          "index": 1,
          "word": "Identität",
          "originalText": "Identität",
          "characterOffsetBegin": 0,
          "characterOffsetEnd": 9,
          "pos": "NN",
          "before": "",
          "after": " "
        },
        {
          "index": 2,
          "word": "der",
          "originalText": "der",
          "characterOffsetBegin": 10,
          "characterOffsetEnd": 13,
          "pos": "ART",
          "before": " ",
          "after": " "
        },
        {
          "index": 3,
          "word": "ISIS-Terroristen",
          "originalText": "ISIS-Terroristen",
          "characterOffsetBegin": 14,
          "characterOffsetEnd": 30,
          "pos": "NN",
          "before": " ",
          "after": " "
        },
        {
          "index": 4,
          "word": "bekannt",
          "originalText": "bekannt",
          "characterOffsetBegin": 31,
          "characterOffsetEnd": 38,
          "pos": "ADJD",
          "before": " ",
          "after": " "
        },
        {
          "index": 5,
          "word": "als",
          "originalText": "als",
          "characterOffsetBegin": 39,
          "characterOffsetEnd": 42,
          "pos": "APPR",
          "before": " ",
          "after": " "
        },
        {
          "index": 6,
          "word": "`",
          "originalText": "'",
          "characterOffsetBegin": 43,
          "characterOffsetEnd": 44,
          "pos": "ADJA",
          "before": " ",
          "after": ""
        },
        {
          "index": 7,
          "word": "Jihadi",
          "originalText": "Jihadi",
          "characterOffsetBegin": 44,
          "characterOffsetEnd": 50,
          "pos": "NN",
          "before": "",
          "after": " "
        },
        {
          "index": 8,
          "word": "John",
          "originalText": "John",
          "characterOffsetBegin": 51,
          "characterOffsetEnd": 55,
          "pos": "NE",
          "before": " ",
          "after": ""
        },
        {
          "index": 9,
          "word": "'",
          "originalText": "'",
          "characterOffsetBegin": 55,
          "characterOffsetEnd": 56,
          "pos": "$[",
          "before": "",
          "after": " "
        },
        {
          "index": 10,
          "word": "angeblich",
          "originalText": "angeblich",
          "characterOffsetBegin": 57,
          "characterOffsetEnd": 66,
          "pos": "ADJD",
          "before": " ",
          "after": " "
        },
        {
          "index": 11,
          "word": "enthüllt",
          "originalText": "enthüllt",
          "characterOffsetBegin": 67,
          "characterOffsetEnd": 75,
          "pos": "VVPP",
          "before": " ",
          "after": ""
        }
      ]
    }
  ]
}