{
  "sentences": [
    {
      "index": 0,
      "basicDependencies": [
        {
          "dep": "ROOT",
          "governor": 0,
          "governorGloss": "ROOT",
          "dependent": 5,
          "dependentGloss": "Bank"
        },
        {
          "dep": "name",
          "governor": 2,
          "governorGloss": "Gang",
          "dependent": 1,
          "dependentGloss": "Sugarhill"
        },
        {
          "dep": "name",
          "governor": 5,
          "governorGloss": "Bank",
          "dependent": 2,
          "dependentGloss": "Gang"
        },
        {
          "dep": "name",
          "governor": 5,
          "governorGloss": "Bank",
          "dependent": 3,
          "dependentGloss": "Rapper"
        },
        {
          "dep": "amod",
          "governor": 5,
          "governorGloss": "Bank",
          "dependent": 4,
          "dependentGloss": "Big"
        },
        {
          "dep": "nmod",
          "governor": 5,
          "governorGloss": "Bank",
          "dependent": 6,
          "dependentGloss": "Hank"
        },
        {
          "dep": "appos",
          "governor": 6,
          "governorGloss": "Hank",
          "dependent": 7,
          "dependentGloss": "stirbt"
        },
        {
          "dep": "amod",
          "governor": 9,
          "governorGloss": "Alter",
          "dependent": 8,
          "dependentGloss": "im"
        },
        {
          "dep": "dobj",
          "governor": 7,
          "governorGloss": "stirbt",
          "dependent": 9,
          "dependentGloss": "Alter"
        },
        {
          "dep": "case",
          "governor": 12,
          "governorGloss": "Jahren",
          "dependent": 10,
          "dependentGloss": "von"
        },
        {
          "dep": "nummod",
          "governor": 12,
          "governorGloss": "Jahren",
          "dependent": 11,
          "dependentGloss": "57"
        },
        {
          "dep": "nmod",
          "governor": 9,
          "governorGloss": "Alter",
          "dependent": 12,
          "dependentGloss": "Jahren"
        }
      ],
      "enhancedDependencies": [
        {
          "dep": "ROOT",
          "governor": 0,
          "governorGloss": "ROOT",
          "dependent": 5,
          "dependentGloss": "Bank"
        },
        {
          "dep": "name",
          "governor": 2,
          "governorGloss": "Gang",
          "dependent": 1,
          "dependentGloss": "Sugarhill"
        },
        {
          "dep": "name",
          "governor": 5,
          "governorGloss": "Bank",
          "dependent": 2,
          "dependentGloss": "Gang"
        },
        {
          "dep": "name",
          "governor": 5,
          "governorGloss": "Bank",
          "dependent": 3,
          "dependentGloss": "Rapper"
        },
        {
          "dep": "amod",
          "governor": 5,
          "governorGloss": "Bank",
          "dependent": 4,
          "dependentGloss": "Big"
        },
        {
          "dep": "nmod",
          "governor": 5,
          "governorGloss": "Bank",
          "dependent": 6,
          "dependentGloss": "Hank"
        },
        {
          "dep": "appos",
          "governor": 6,
          "governorGloss": "Hank",
          "dependent": 7,
          "dependentGloss": "stirbt"
        },
        {
          "dep": "amod",
          "governor": 9,
          "governorGloss": "Alter",
          "dependent": 8,
          "dependentGloss": "im"
        },
        {
          "dep": "dobj",
          "governor": 7,
          "governorGloss": "stirbt",
          "dependent": 9,
          "dependentGloss": "Alter"
        },
        {
          "dep": "case",
          "governor": 12,
          "governorGloss": "Jahren",
          "dependent": 10,
          "dependentGloss": "von"
        },
        {
          "dep": "nummod",
          "governor": 12,
          "governorGloss": "Jahren",
          "dependent": 11,
          "dependentGloss": "57"
        },
        {
          "dep": "nmod",
          "governor": 9,
          "governorGloss": "Alter",
          "dependent": 12,
          "dependentGloss": "Jahren"
        }
      ],
      "enhancedPlusPlusDependencies": [
        {
          "dep": "ROOT",
          "governor": 0,
          "governorGloss": "ROOT",
          "dependent": 5,
          "dependentGloss": "Bank"
        },
        {
          "dep": "name",
          "governor": 2,
          "governorGloss": "Gang",
          "dependent": 1,
          "dependentGloss": "Sugarhill"
        },
        {
          "dep": "name",
          "governor": 5,
          "governorGloss": "Bank",
          "dependent": 2,
          "dependentGloss": "Gang"
        },
        {
          "dep": "name",
          "governor": 5,
          "governorGloss": "Bank",
          "dependent": 3,
          "dependentGloss": "Rapper"
        },
        {
          "dep": "amod",
          "governor": 5,
          "governorGloss": "Bank",
          "dependent": 4,
          "dependentGloss": "Big"
        },
        {
          "dep": "nmod",
          "governor": 5,
          "governorGloss": "Bank",
          "dependent": 6,
          "dependentGloss": "Hank"
        },
        {
          "dep": "appos",
          "governor": 6,
          "governorGloss": "Hank",
          "dependent": 7,
          "dependentGloss": "stirbt"
        },
        {
          "dep": "amod",
          "governor": 9,
          "governorGloss": "Alter",
          "dependent": 8,
          "dependentGloss": "im"
        },
        {
          "dep": "dobj",
          "governor": 7,
          "governorGloss": "stirbt",
          "dependent": 9,
          "dependentGloss": "Alter"
        },
        {
          "dep": "case",
          "governor": 12,
          "governorGloss": "Jahren",
          "dependent": 10,
          "dependentGloss": "von"
        },
        {
          "dep": "nummod",
          "governor": 12,
          "governorGloss": "Jahren",
          "dependent": 11,
          "dependentGloss": "57"
        },
        {
          "dep": "nmod",
          "governor": 9,
          "governorGloss": "Alter",
          "dependent": 12,
          "dependentGloss": "Jahren"
        }
      ],
      "tokens": [
        {
          "index": 1,
          "word": "Sugarhill",
          "originalText": "Sugarhill",
          "characterOffsetBegin": 0,
          "characterOffsetEnd": 9,
          "pos": "ADV",
          "before": "",
          "after": " "
        },
        {
          "index": 2,
          "word": "Gang",
          "originalText": "Gang",
          "characterOffsetBegin": 10,
          "characterOffsetEnd": 14,
          "pos": "NN",
          "before": " ",
          "after": " "
        },
        {
          "index": 3,
          "word": "Rapper",
          "originalText": "Rapper",
          "characterOffsetBegin": 15,
          "characterOffsetEnd": 21,
          "pos": "NN",
          "before": " ",
          "after": " "
        },
        {
          "index": 4,
          "word": "Big",
          "originalText": "Big",
          "characterOffsetBegin": 22,
          "characterOffsetEnd": 25,
          "pos": "NE",
          "before": " ",
          "after": " "
        },
        {
          "index": 5,
          "word": "Bank",
          "originalText": "Bank",
          "characterOffsetBegin": 26,
          "characterOffsetEnd": 30,
          "pos": "NN",
          "before": " ",
          "after": " "
        },
        {
          "index": 6,
          "word": "Hank",
          "originalText": "Hank",
          "characterOffsetBegin": 31,
          "characterOffsetEnd": 35,
          "pos": "NE",
          "before": " ",
          "after": " "
        },
        {
          "index": 7,
          "word": "stirbt",
          "originalText": "stirbt",
          "characterOffsetBegin": 36,
          "characterOffsetEnd": 42,
          "pos": "VVFIN",
          "before": " ",
          "after": " "
        },
        {
          "index": 8,
          "word": "im",
          "originalText": "im",
          "characterOffsetBegin": 43,
          "characterOffsetEnd": 45,
          "pos": "APPRART",
          "before": " ",
          "after": " "
        },
        {
          "index": 9,
          "word": "Alter",
          "originalText": "Alter",
          "characterOffsetBegin": 46,
          "characterOffsetEnd": 51,
          "pos": "NN",
          "before": " ",
          "after": " "
        },
        {
          "index": 10,
          "word": "von",
          "originalText": "von",
          "characterOffsetBegin": 52,
          "characterOffsetEnd": 55,
          "pos": "APPR",
          "before": " ",
          "after": " "
        },
        {
          "index": 11,
          "word": "57",
          "originalText": "57",
          "characterOffsetBegin": 56,
          "characterOffsetEnd": 58,
          "pos": "CARD",
          "before": " ",
          "after": " "
        },
        {
          "index": 12,
          "word": "Jahren",
          "originalText": "Jahren",
          "characterOffsetBegin": 59,
          "characterOffsetEnd": 65,
          "pos": "NN",
          "before": " ",
          "after": ""
        }
      ]
    }
  ]
}