{
  "sentences": [
    {
      "index": 0,
      "basicDependencies": [
        {
          "dep": "ROOT",
          "governor": 0,
          "governorGloss": "ROOT",
          "dependent": 6,
          "dependentGloss": "Ahnung"
        },
        {
          "dep": "advmod",
          "governor": 6,
          "governorGloss": "Ahnung",
          "dependent": 1,
          "dependentGloss": "Nun"
        },
        {
          "dep": "punct",
          "governor": 6,
          "governorGloss": "Ahnung",
          "dependent": 2,
          "dependentGloss": ","
        },
        {
          "dep": "nsubj",
          "governor": 6,
          "governorGloss": "Ahnung",
          "dependent": 3,
          "dependentGloss": "wer"
        },
        {
          "dep": "aux",
          "governor": 6,
          "governorGloss": "Ahnung",
          "dependent": 4,
          "dependentGloss": "hatte"
        },
        {
          "dep": "neg",
          "governor": 6,
          "governorGloss": "Ahnung",
          "dependent": 5,
          "dependentGloss": "keine"
        },
        {
          "dep": "punct",
          "governor": 6,
          "governorGloss": "Ahnung",
          "dependent": 7,
          "dependentGloss": ","
        },
        {
          "dep": "mark",
          "governor": 10,
          "governorGloss": "schwanger",
          "dependent": 8,
          "dependentGloss": "dass"
        },
        {
          "dep": "nsubj",
          "governor": 10,
          "governorGloss": "schwanger",
          "dependent": 9,
          "dependentGloss": "sie"
        },
        {
          "dep": "ccomp",
          "governor": 6,
          "governorGloss": "Ahnung",
          "dependent": 10,
          "dependentGloss": "schwanger"
        },
        {
          "dep": "cop",
          "governor": 10,
          "governorGloss": "schwanger",
          "dependent": 11,
          "dependentGloss": "war"
        },
        {
          "dep": "punct",
          "governor": 6,
          "governorGloss": "Ahnung",
          "dependent": 12,
          "dependentGloss": ","
        },
        {
          "dep": "dep",
          "governor": 6,
          "governorGloss": "Ahnung",
          "dependent": 13,
          "dependentGloss": "gebiert"
        },
        {
          "dep": "punct",
          "governor": 13,
          "governorGloss": "gebiert",
          "dependent": 14,
          "dependentGloss": ","
        },
        {
          "dep": "mark",
          "governor": 21,
          "governorGloss": "gegangen",
          "dependent": 15,
          "dependentGloss": "nachdem"
        },
        {
          "dep": "nsubj",
          "governor": 21,
          "governorGloss": "gegangen",
          "dependent": 16,
          "dependentGloss": "sie"
        },
        {
          "dep": "amod",
          "governor": 18,
          "governorGloss": "Krankenhaus",
          "dependent": 17,
          "dependentGloss": "ins"
        },
        {
          "dep": "dobj",
          "governor": 21,
          "governorGloss": "gegangen",
          "dependent": 18,
          "dependentGloss": "Krankenhaus"
        },
        {
          "dep": "case",
          "governor": 20,
          "governorGloss": "Magenschmerzen",
          "dependent": 19,
          "dependentGloss": "mit"
        },
        {
          "dep": "nmod",
          "governor": 21,
          "governorGloss": "gegangen",
          "dependent": 20,
          "dependentGloss": "Magenschmerzen"
        },
        {
          "dep": "advcl",
          "governor": 13,
          "governorGloss": "gebiert",
          "dependent": 21,
          "dependentGloss": "gegangen"
        },
        {
          "dep": "aux",
          "governor": 21,
          "governorGloss": "gegangen",
          "dependent": 22,
          "dependentGloss": "ist"
        }
      ],
      "enhancedDependencies": [
        {
          "dep": "ROOT",
          "governor": 0,
          "governorGloss": "ROOT",
          "dependent": 6,
          "dependentGloss": "Ahnung"
        },
        {
          "dep": "advmod",
          "governor": 6,
          "governorGloss": "Ahnung",
          "dependent": 1,
          "dependentGloss": "Nun"
        },
        {
          "dep": "punct",
          "governor": 6,
          "governorGloss": "Ahnung",
          "dependent": 2,
          "dependentGloss": ","
        },
        {
          "dep": "nsubj",
          "governor": 6,
          "governorGloss": "Ahnung",
          "dependent": 3,
          "dependentGloss": "wer"
        },
        {
          "dep": "aux",
          "governor": 6,
          "governorGloss": "Ahnung",
          "dependent": 4,
          "dependentGloss": "hatte"
        },
        {
          "dep": "neg",
          "governor": 6,
          "governorGloss": "Ahnung",
          "dependent": 5,
          "dependentGloss": "keine"
        },
        {
          "dep": "punct",
          "governor": 6,
          "governorGloss": "Ahnung",
          "dependent": 7,
          "dependentGloss": ","
        },
        {
          "dep": "mark",
          "governor": 10,
          "governorGloss": "schwanger",
          "dependent": 8,
          "dependentGloss": "dass"
        },
        {
          "dep": "nsubj",
          "governor": 10,
          "governorGloss": "schwanger",
          "dependent": 9,
          "dependentGloss": "sie"
        },
        {
          "dep": "ccomp",
          "governor": 6,
          "governorGloss": "Ahnung",
          "dependent": 10,
          "dependentGloss": "schwanger"
        },
        {
          "dep": "cop",
          "governor": 10,
          "governorGloss": "schwanger",
          "dependent": 11,
          "dependentGloss": "war"
        },
        {
          "dep": "punct",
          "governor": 6,
          "governorGloss": "Ahnung",
          "dependent": 12,
          "dependentGloss": ","
        },
        {
          "dep": "dep",
          "governor": 6,
          "governorGloss": "Ahnung",
          "dependent": 13,
          "dependentGloss": "gebiert"
        },
        {
          "dep": "punct",
          "governor": 13,
          "governorGloss": "gebiert",
          "dependent": 14,
          "dependentGloss": ","
        },
        {
          "dep": "mark",
          "governor": 21,
          "governorGloss": "gegangen",
          "dependent": 15,
          "dependentGloss": "nachdem"
        },
        {
          "dep": "nsubj",
          "governor": 21,
          "governorGloss": "gegangen",
          "dependent": 16,
          "dependentGloss": "sie"
        },
        {
          "dep": "amod",
          "governor": 18,
          "governorGloss": "Krankenhaus",
          "dependent": 17,
          "dependentGloss": "ins"
        },
        {
          "dep": "dobj",
          "governor": 21,
          "governorGloss": "gegangen",
          "dependent": 18,
          "dependentGloss": "Krankenhaus"
        },
        {
          "dep": "case",
          "governor": 20,
          "governorGloss": "Magenschmerzen",
          "dependent": 19,
          "dependentGloss": "mit"
        },
        {
          "dep": "nmod",
          "governor": 21,
          "governorGloss": "gegangen",
          "dependent": 20,
          "dependentGloss": "Magenschmerzen"
        },
        {
          "dep": "advcl",
          "governor": 13,
          "governorGloss": "gebiert",
          "dependent": 21,
          "dependentGloss": "gegangen"
        },
        {
          "dep": "aux",
          "governor": 21,
          "governorGloss": "gegangen",
          "dependent": 22,
          "dependentGloss": "ist"
        }
      ],
      "enhancedPlusPlusDependencies": [
        {
          "dep": "ROOT",
          "governor": 0,
          "governorGloss": "ROOT",
          "dependent": 6,
          "dependentGloss": "Ahnung"
        },
        {
          "dep": "advmod",
          "governor": 6,
          "governorGloss": "Ahnung",
          "dependent": 1,
          "dependentGloss": "Nun"
        },
        {
          "dep": "punct",
          "governor": 6,
          "governorGloss": "Ahnung",
          "dependent": 2,
          "dependentGloss": ","
        },
        {
          "dep": "nsubj",
          "governor": 6,
          "governorGloss": "Ahnung",
          "dependent": 3,
          "dependentGloss": "wer"
        },
        {
          "dep": "aux",
          "governor": 6,
          "governorGloss": "Ahnung",
          "dependent": 4,
          "dependentGloss": "hatte"
        },
        {
          "dep": "neg",
          "governor": 6,
          "governorGloss": "Ahnung",
          "dependent": 5,
          "dependentGloss": "keine"
        },
        {
          "dep": "punct",
          "governor": 6,
          "governorGloss": "Ahnung",
          "dependent": 7,
          "dependentGloss": ","
        },
        {
          "dep": "mark",
          "governor": 10,
          "governorGloss": "schwanger",
          "dependent": 8,
          "dependentGloss": "dass"
        },
        {
          "dep": "nsubj",
          "governor": 10,
          "governorGloss": "schwanger",
          "dependent": 9,
          "dependentGloss": "sie"
        },
        {
          "dep": "ccomp",
          "governor": 6,
          "governorGloss": "Ahnung",
          "dependent": 10,
          "dependentGloss": "schwanger"
        },
        {
          "dep": "cop",
          "governor": 10,
          "governorGloss": "schwanger",
          "dependent": 11,
          "dependentGloss": "war"
        },
        {
          "dep": "punct",
          "governor": 6,
          "governorGloss": "Ahnung",
          "dependent": 12,
          "dependentGloss": ","
        },
        {
          "dep": "dep",
          "governor": 6,
          "governorGloss": "Ahnung",
          "dependent": 13,
          "dependentGloss": "gebiert"
        },
        {
          "dep": "punct",
          "governor": 13,
          "governorGloss": "gebiert",
          "dependent": 14,
          "dependentGloss": ","
        },
        {
          "dep": "mark",
          "governor": 21,
          "governorGloss": "gegangen",
          "dependent": 15,
          "dependentGloss": "nachdem"
        },
        {
          "dep": "nsubj",
          "governor": 21,
          "governorGloss": "gegangen",
          "dependent": 16,
          "dependentGloss": "sie"
        },
        {
          "dep": "amod",
          "governor": 18,
          "governorGloss": "Krankenhaus",
          "dependent": 17,
          "dependentGloss": "ins"
        },
        {
          "dep": "dobj",
          "governor": 21,
          "governorGloss": "gegangen",
          "dependent": 18,
          "dependentGloss": "Krankenhaus"
        },
        {
          "dep": "case",
          "governor": 20,
          "governorGloss": "Magenschmerzen",
          "dependent": 19,
          "dependentGloss": "mit"
        },
        {
          "dep": "nmod",
          "governor": 21,
          "governorGloss": "gegangen",
          "dependent": 20,
          "dependentGloss": "Magenschmerzen"
        },
        {
          "dep": "advcl",
          "governor": 13,
          "governorGloss": "gebiert",
          "dependent": 21,
          "dependentGloss": "gegangen"
        },
        {
          "dep": "aux",
          "governor": 21,
          "governorGloss": "gegangen",
          "dependent": 22,
          "dependentGloss": "ist"
        }
      ],
      "tokens": [
        {
          "index": 1,
          "word": "Nun",
          "originalText": "Nun",
          "characterOffsetBegin": 0,
          "characterOffsetEnd": 3,
          "pos": "ADV",
          "before": "",
          "after": ""
        },
        {
          "index": 2,
          "word": ",",
          "originalText": ",",
          "characterOffsetBegin": 3,
          "characterOffsetEnd": 4,
          "pos": "$,",
          "before": "",
          "after": " "
        },
        {
          "index": 3,
          "word": "wer",
          "originalText": "wer",
          "characterOffsetBegin": 5,
          "characterOffsetEnd": 8,
          "pos": "PWS",
          "before": " ",
          "after": " "
        },
        {
          "index": 4,
          "word": "hatte",
          "originalText": "hatte",
          "characterOffsetBegin": 9,
          "characterOffsetEnd": 14,
          "pos": "VAFIN",
          "before": " ",
          "after": " "
        },
        {
          "index": 5,
          "word": "keine",
          "originalText": "keine",
          "characterOffsetBegin": 15,
          "characterOffsetEnd": 20,
          "pos": "PIAT",
          "before": " ",
          "after": " "
        },
        {
          "index": 6,
          "word": "Ahnung",
          "originalText": "Ahnung",
          "characterOffsetBegin": 21,
          "characterOffsetEnd": 27,
          "pos": "NN",
          "before": " ",
          "after": ""
        },
        {
          "index": 7,
          "word": ",",
          "originalText": ",",
          "characterOffsetBegin": 27,
          "characterOffsetEnd": 28,
          "pos": "$,",
          "before": "",
          "after": " "
        },
        {
          "index": 8,
          "word": "dass",
          "originalText": "dass",
          "characterOffsetBegin": 29,
          "characterOffsetEnd": 33,
          "pos": "KOUS",
          "before": " ",
          "after": " "
        },
        {
          "index": 9,
          "word": "sie",
          "originalText": "sie",
          "characterOffsetBegin": 34,
          "characterOffsetEnd": 37,
          "pos": "PPER",
          "before": " ",
          "after": " "
        },
        {
          "index": 10,
          "word": "schwanger",
          "originalText": "schwanger",
          "characterOffsetBegin": 38,
          "characterOffsetEnd": 47,
          "pos": "ADJD",
          "before": " ",
          "after": " "
        },
        {
          "index": 11,
          "word": "war",
          "originalText": "war",
          "characterOffsetBegin": 48,
          "characterOffsetEnd": 51,
          "pos": "VAFIN",
          "before": " ",
          "after": ""
        },
        {
          "index": 12,
          "word": ",",
          "originalText": ",",
          "characterOffsetBegin": 51,
          "characterOffsetEnd": 52,
          "pos": "$,",
          "before": "",
          "after": " "
        },
        {
          "index": 13,
          "word": "gebiert",
          "originalText": "gebiert",
          "characterOffsetBegin": 53,
          "characterOffsetEnd": 60,
          "pos": "VVFIN",
          "before": " ",
          "after": ""
        },
        {
          "index": 14,
          "word": ",",
          "originalText": ",",
          "characterOffsetBegin": 60,
          "characterOffsetEnd": 61,
          "pos": "$,",
          "before": "",
          "after": " "
        },
        {
          "index": 15,
          "word": "nachdem",
          "originalText": "nachdem",
          "characterOffsetBegin": 62,
          "characterOffsetEnd": 69,
          "pos": "KOUS",
          "before": " ",
          "after": " "
        },
        {
          "index": 16,
          "word": "sie",
          "originalText": "sie",
          "characterOffsetBegin": 70,
          "characterOffsetEnd": 73,
          "pos": "PPER",
          "before": " ",
          "after": " "
        },
        {
          "index": 17,
          "word": "ins",
          "originalText": "ins",
          "characterOffsetBegin": 74,
          "characterOffsetEnd": 77,
          "pos": "APPRART",
          "before": " ",
          "after": " "
        },
        {
          "index": 18,
          "word": "Krankenhaus",
          "originalText": "Krankenhaus",
          "characterOffsetBegin": 78,
          "characterOffsetEnd": 89,
          "pos": "NN",
          "before": " ",
          "after": " "
        },
        {
          "index": 19,
          "word": "mit",
          "originalText": "mit",
          "characterOffsetBegin": 90,
          "characterOffsetEnd": 93,
          "pos": "APPR",
          "before": " ",
          "after": " "
        },
        {
          "index": 20,
          "word": "Magenschmerzen",
          "originalText": "Magenschmerzen",
          "characterOffsetBegin": 94,
          "characterOffsetEnd": 108,
          "pos": "NN",
          "before": " ",
          "after": " "
        },
        {
          "index": 21,
          "word": "gegangen",
          "originalText": "gegangen",
          "characterOffsetBegin": 109,
          "characterOffsetEnd": 117,
          "pos": "VVPP",
          "before": " ",
          "after": " "
        },
        {
          "index": 22,
          "word": "ist",
          "originalText": "ist",
          "characterOffsetBegin": 118,
          "characterOffsetEnd": 121,
          "pos": "VAFIN",
          "before": " ",
          "after": ""
        }
      ]
    }
  ]
}