{
  "sentences": [
    {
      "index": 0,
      "basicDependencies": [
        {
          "dep": "ROOT",
          "governor": 0,
          "governorGloss": "ROOT",
          "dependent": 4,
          "dependentGloss": "nehmen"
        },
        {
          "dep": "mark",
          "governor": 4,
          "governorGloss": "nehmen",
          "dependent": 1,
          "dependentGloss": "Beobachten"
        },
        {
          "dep": "nsubj",
          "governor": 4,
          "governorGloss": "nehmen",
          "dependent": 2,
          "dependentGloss": "Sie"
        },
        {
          "dep": "nmod",
          "governor": 4,
          "governorGloss": "nehmen",
          "dependent": 3,
          "dependentGloss": "Marine"
        },
        {
          "dep": "dobj",
          "governor": 4,
          "governorGloss": "nehmen",
          "dependent": 5,
          "dependentGloss": "Sie"
        },
        {
          "dep": "amod",
          "governor": 7,
          "governorGloss": "Schuss",
          "dependent": 6,
          "dependentGloss": "Scharfschütze"
        },
        {
          "dep": "appos",
          "governor": 5,
          "governorGloss": "Sie",
          "dependent": 7,
          "dependentGloss": "Schuss"
        },
        {
          "dep": "case",
          "governor": 10,
          "governorGloss": "Kopf",
          "dependent": 8,
          "dependentGloss": "auf"
        },
        {
          "dep": "det",
          "governor": 10,
          "governorGloss": "Kopf",
          "dependent": 9,
          "dependentGloss": "den"
        },
        {
          "dep": "nmod",
          "governor": 7,
          "governorGloss": "Schuss",
          "dependent": 10,
          "dependentGloss": "Kopf"
        },
        {
          "dep": "cc",
          "governor": 7,
          "governorGloss": "Schuss",
          "dependent": 11,
          "dependentGloss": "und"
        },
        {
          "dep": "conj",
          "governor": 7,
          "governorGloss": "Schuss",
          "dependent": 12,
          "dependentGloss": "leben"
        }
      ],
      "enhancedDependencies": [
        {
          "dep": "ROOT",
          "governor": 0,
          "governorGloss": "ROOT",
          "dependent": 4,
          "dependentGloss": "nehmen"
        },
        {
          "dep": "mark",
          "governor": 4,
          "governorGloss": "nehmen",
          "dependent": 1,
          "dependentGloss": "Beobachten"
        },
        {
          "dep": "nsubj",
          "governor": 4,
          "governorGloss": "nehmen",
          "dependent": 2,
          "dependentGloss": "Sie"
        },
        {
          "dep": "nmod",
          "governor": 4,
          "governorGloss": "nehmen",
          "dependent": 3,
          "dependentGloss": "Marine"
        },
        {
          "dep": "dobj",
          "governor": 4,
          "governorGloss": "nehmen",
          "dependent": 5,
          "dependentGloss": "Sie"
        },
        {
          "dep": "amod",
          "governor": 7,
          "governorGloss": "Schuss",
          "dependent": 6,
          "dependentGloss": "Scharfschütze"
        },
        {
          "dep": "appos",
          "governor": 5,
          "governorGloss": "Sie",
          "dependent": 7,
          "dependentGloss": "Schuss"
        },
        {
          "dep": "case",
          "governor": 10,
          "governorGloss": "Kopf",
          "dependent": 8,
          "dependentGloss": "auf"
        },
        {
          "dep": "det",
          "governor": 10,
          "governorGloss": "Kopf",
          "dependent": 9,
          "dependentGloss": "den"
        },
        {
          "dep": "nmod",
          "governor": 7,
          "governorGloss": "Schuss",
          "dependent": 10,
          "dependentGloss": "Kopf"
        },
        {
          "dep": "cc",
          "governor": 7,
          "governorGloss": "Schuss",
          "dependent": 11,
          "dependentGloss": "und"
        },
        {
          "dep": "appos",
          "governor": 5,
          "governorGloss": "Sie",
          "dependent": 12,
          "dependentGloss": "leben"
        },
        {
          "dep": "conj:und",
          "governor": 7,
          "governorGloss": "Schuss",
          "dependent": 12,
          "dependentGloss": "leben"
        }
      ],
      "enhancedPlusPlusDependencies": [
        {
          "dep": "ROOT",
          "governor": 0,
          "governorGloss": "ROOT",
          "dependent": 4,
          "dependentGloss": "nehmen"
        },
        {
          "dep": "mark",
          "governor": 4,
          "governorGloss": "nehmen",
          "dependent": 1,
          "dependentGloss": "Beobachten"
        },
        {
          "dep": "nsubj",
          "governor": 4,
          "governorGloss": "nehmen",
          "dependent": 2,
          "dependentGloss": "Sie"
        },
        {
          "dep": "nmod",
          "governor": 4,
          "governorGloss": "nehmen",
          "dependent": 3,
          "dependentGloss": "Marine"
        },
        {
          "dep": "dobj",
          "governor": 4,
          "governorGloss": "nehmen",
          "dependent": 5,
          "dependentGloss": "Sie"
        },
        {
          "dep": "amod",
          "governor": 7,
          "governorGloss": "Schuss",
          "dependent": 6,
          "dependentGloss": "Scharfschütze"
        },
        {
          "dep": "appos",
          "governor": 5,
          "governorGloss": "Sie",
          "dependent": 7,
          "dependentGloss": "Schuss"
        },
        {
          "dep": "case",
          "governor": 10,
          "governorGloss": "Kopf",
          "dependent": 8,
          "dependentGloss": "auf"
        },
        {
          "dep": "det",
          "governor": 10,
          "governorGloss": "Kopf",
          "dependent": 9,
          "dependentGloss": "den"
        },
        {
          "dep": "nmod",
          "governor": 7,
          "governorGloss": "Schuss",
          "dependent": 10,
          "dependentGloss": "Kopf"
        },
        {
          "dep": "cc",
          "governor": 7,
          "governorGloss": "Schuss",
          "dependent": 11,
          "dependentGloss": "und"
        },
        {
          "dep": "appos",
          "governor": 5,
          "governorGloss": "Sie",
          "dependent": 12,
          "dependentGloss": "leben"
        },
        {
          "dep": "conj:und",
          "governor": 7,
          "governorGloss": "Schuss",
          "dependent": 12,
          "dependentGloss": "leben"
        }
      ],
      "tokens": [
        {
          "index": 1,
          "word": "Beobachten",
          "originalText": "Beobachten",
          "characterOffsetBegin": 0,
          "characterOffsetEnd": 10,
          "pos": "ADJA",
          "before": "",
          "after": " "
        },
        {
          "index": 2,
          "word": "Sie",
          "originalText": "Sie",
          "characterOffsetBegin": 11,
          "characterOffsetEnd": 14,
          "pos": "PPER",
          "before": " ",
          "after": " "
        },
        {
          "index": 3,
          "word": "Marine",
          "originalText": "Marine",
          "characterOffsetBegin": 15,
          "characterOffsetEnd": 21,
          "pos": "NN",
          "before": " ",
          "after": " "
        },
        {
          "index": 4,
          "word": "nehmen",
          "originalText": "nehmen",
          "characterOffsetBegin": 22,
          "characterOffsetEnd": 28,
          "pos": "VVFIN",
          "before": " ",
          "after": " "
        },
        {
          "index": 5,
          "word": "Sie",
          "originalText": "Sie",
          "characterOffsetBegin": 29,
          "characterOffsetEnd": 32,
          "pos": "PPER",
          "before": " ",
          "after": " "
        },
        {
          "index": 6,
          "word": "Scharfschütze",
          "originalText": "Scharfschütze",
          "characterOffsetBegin": 33,
          "characterOffsetEnd": 46,
          "pos": "NN",
          "before": " ",
          "after": " "
        },
        {
          "index": 7,
          "word": "Schuss",
          "originalText": "Schuss",
          "characterOffsetBegin": 47,
          "characterOffsetEnd": 53,
          "pos": "NE",
          "before": " ",
          "after": " "
        },
        {
          "index": 8,
          "word": "auf",
          "originalText": "auf",
          "characterOffsetBegin": 54,
          "characterOffsetEnd": 57,
          "pos": "APPR",
          "before": " ",
          "after": " "
        },
        {
          "index": 9,
          "word": "den",
          "originalText": "den",
          "characterOffsetBegin": 58,
          "characterOffsetEnd": 61,
          "pos": "ART",
          "before": " ",
          "after": " "
        },
        {
          "index": 10,
          "word": "Kopf",
          "originalText": "Kopf",
          "characterOffsetBegin": 62,
          "characterOffsetEnd": 66,
          "pos": "NN",
          "before": " ",
          "after": " "
        },
        {
          "index": 11,
          "word": "und",
          "originalText": "und",
          "characterOffsetBegin": 67,
          "characterOffsetEnd": 70,
          "pos": "KON",
          "before": " ",
          "after": " "
        },
        {
          "index": 12,
          "word": "leben",
          "originalText": "leben",
          "characterOffsetBegin": 71,
          "characterOffsetEnd": 76,
          "pos": "VVFIN",
          "before": " ",
          "after": ""
        }
      ]
    }
  ]
}