{
  "sentences": [
    {
      "index": 0,
      "basicDependencies": [
        {
          "dep": "ROOT",
          "governor": 0,
          "governorGloss": "ROOT",
          "dependent": 8,
          "dependentGloss": "teilnehmen"
        },
        {
          "dep": "name",
          "governor": 2,
          "governorGloss": "König",
          "dependent": 1,
          "dependentGloss": "Jordanien"
        },
        {
          "dep": "nsubj",
          "governor": 8,
          "governorGloss": "teilnehmen",
          "dependent": 2,
          "dependentGloss": "König"
        },
        {
          "dep": "aux",
          "governor": 8,
          "governorGloss": "teilnehmen",
          "dependent": 3,
          "dependentGloss": "kann"
        },
        {
          "dep": "advmod",
          "governor": 8,
          "governorGloss": "teilnehmen",
          "dependent": 4,
          "dependentGloss": "persönlich"
        },
        {
          "dep": "case",
          "governor": 7,
          "governorGloss": "Raids",
          "dependent": 5,
          "dependentGloss": "in"
        },
        {
          "dep": "amod",
          "governor": 7,
          "governorGloss": "Raids",
          "dependent": 6,
          "dependentGloss": "ISIS"
        },
        {
          "dep": "nmod",
          "governor": 8,
          "governorGloss": "teilnehmen",
          "dependent": 7,
          "dependentGloss": "Raids"
        }
      ],
      "enhancedDependencies": [
        {
          "dep": "ROOT",
          "governor": 0,
          "governorGloss": "ROOT",
          "dependent": 8,
          "dependentGloss": "teilnehmen"
        },
        {
          "dep": "name",
          "governor": 2,
          "governorGloss": "König",
          "dependent": 1,
          "dependentGloss": "Jordanien"
        },
        {
          "dep": "nsubj",
          "governor": 8,
          "governorGloss": "teilnehmen",
          "dependent": 2,
          "dependentGloss": "König"
        },
        {
          "dep": "aux",
          "governor": 8,
          "governorGloss": "teilnehmen",
          "dependent": 3,
          "dependentGloss": "kann"
        },
        {
          "dep": "advmod",
          "governor": 8,
          "governorGloss": "teilnehmen",
          "dependent": 4,
          "dependentGloss": "persönlich"
        },
        {
          "dep": "case",
          "governor": 7,
          "governorGloss": "Raids",
          "dependent": 5,
          "dependentGloss": "in"
        },
        {
          "dep": "amod",
          "governor": 7,
          "governorGloss": "Raids",
          "dependent": 6,
          "dependentGloss": "ISIS"
        },
        {
          "dep": "nmod",
          "governor": 8,
          "governorGloss": "teilnehmen",
          "dependent": 7,
          "dependentGloss": "Raids"
        }
      ],
      "enhancedPlusPlusDependencies": [
        {
          "dep": "ROOT",
          "governor": 0,
          "governorGloss": "ROOT",
          "dependent": 8,
          "dependentGloss": "teilnehmen"
        },
        {
          "dep": "name",
          "governor": 2,
          "governorGloss": "König",
          "dependent": 1,
          "dependentGloss": "Jordanien"
        },
        {
          "dep": "nsubj",
          "governor": 8,
          "governorGloss": "teilnehmen",
          "dependent": 2,
          "dependentGloss": "König"
        },
        {
          "dep": "aux",
          "governor": 8,
          "governorGloss": "teilnehmen",
          "dependent": 3,
          "dependentGloss": "kann"
        },
        {
          "dep": "advmod",
          "governor": 8,
          "governorGloss": "teilnehmen",
          "dependent": 4,
          "dependentGloss": "persönlich"
        },
        {
          "dep": "case",
          "governor": 7,
          "governorGloss": "Raids",
          "dependent": 5,
          "dependentGloss": "in"
        },
        {
          "dep": "amod",
          "governor": 7,
          "governorGloss": "Raids",
          "dependent": 6,
          "dependentGloss": "ISIS"
        },
        {
          "dep": "nmod",
          "governor": 8,
          "governorGloss": "teilnehmen",
          "dependent": 7,
          "dependentGloss": "Raids"
        }
      ],
      "tokens": [
        {
          "index": 1,
          "word": "Jordanien",
          "originalText": "Jordanien",
          "characterOffsetBegin": 0,
          "characterOffsetEnd": 9,
          "pos": "NE",
          "before": "",
          "after": " "
        },
        {
          "index": 2,
          "word": "König",
          "originalText": "König",
          "characterOffsetBegin": 10,
          "characterOffsetEnd": 15,
          "pos": "NE",
          "before": " ",
          "after": " "
        },
        {
          "index": 3,
          "word": "kann",
          "originalText": "kann",
          "characterOffsetBegin": 16,
          "characterOffsetEnd": 20,
          "pos": "VMFIN",
          "before": " ",
          "after": " "
        },
        {
          "index": 4,
          "word": "persönlich",
          "originalText": "persönlich",
          "characterOffsetBegin": 21,
          "characterOffsetEnd": 31,
          "pos": "ADJD",
          "before": " ",
          "after": " "
        },
        {
          "index": 5,
          "word": "in",
          "originalText": "in",
          "characterOffsetBegin": 32,
          "characterOffsetEnd": 34,
          "pos": "APPR",
          "before": " ",
          "after": " "
        },
        {
          "index": 6,
          "word": "ISIS",
          "originalText": "ISIS",
          "characterOffsetBegin": 35,
          "characterOffsetEnd": 39,
          "pos": "NE",
          "before": " ",
          "after": " "
        },
        {
          "index": 7,
          "word": "Raids",
          "originalText": "Raids",
          "characterOffsetBegin": 40,
          "characterOffsetEnd": 45,
          "pos": "NE",
          "before": " ",
          "after": " "
        },
        {
          "index": 8,
          "word": "teilnehmen",
          "originalText": "teilnehmen",
          "characterOffsetBegin": 46,
          "characterOffsetEnd": 56,
          "pos": "VVINF",
          "before": " ",
          "after": ""
        }
      ]
    }
  ]
}