{
  "sentences": [
    {
      "index": 0,
      "basicDependencies": [
        {
          "dep": "ROOT",
          "governor": 0,
          "governorGloss": "ROOT",
          "dependent": 1,
          "dependentGloss": "CNN"
        },
        {
          "dep": "dobj",
          "governor": 1,
          "governorGloss": "CNN",
          "dependent": 2,
          "dependentGloss": "Broadcasts"
        },
        {
          "dep": "amod",
          "governor": 4,
          "governorGloss": "Audio",
          "dependent": 3,
          "dependentGloss": "Ausgezeichnete"
        },
        {
          "dep": "dobj",
          "governor": 2,
          "governorGloss": "Broadcasts",
          "dependent": 4,
          "dependentGloss": "Audio"
        },
        {
          "dep": "case",
          "governor": 6,
          "governorGloss": "Gunshots",
          "dependent": 5,
          "dependentGloss": "mit"
        },
        {
          "dep": "nmod",
          "governor": 4,
          "governorGloss": "Audio",
          "dependent": 6,
          "dependentGloss": "Gunshots"
        },
        {
          "dep": "punct",
          "governor": 6,
          "governorGloss": "Gunshots",
          "dependent": 7,
          "dependentGloss": ","
        },
        {
          "dep": "dobj",
          "governor": 11,
          "governorGloss": "Jr.",
          "dependent": 8,
          "dependentGloss": "die"
        },
        {
          "dep": "name",
          "governor": 10,
          "governorGloss": "Brown",
          "dependent": 9,
          "dependentGloss": "Michael"
        },
        {
          "dep": "nsubj",
          "governor": 11,
          "governorGloss": "Jr.",
          "dependent": 10,
          "dependentGloss": "Brown"
        },
        {
          "dep": "acl",
          "governor": 6,
          "governorGloss": "Gunshots",
          "dependent": 11,
          "dependentGloss": "Jr."
        },
        {
          "dep": "punct",
          "governor": 1,
          "governorGloss": "CNN",
          "dependent": 12,
          "dependentGloss": "."
        }
      ],
      "enhancedDependencies": [
        {
          "dep": "ROOT",
          "governor": 0,
          "governorGloss": "ROOT",
          "dependent": 1,
          "dependentGloss": "CNN"
        },
        {
          "dep": "dobj",
          "governor": 1,
          "governorGloss": "CNN",
          "dependent": 2,
          "dependentGloss": "Broadcasts"
        },
        {
          "dep": "amod",
          "governor": 4,
          "governorGloss": "Audio",
          "dependent": 3,
          "dependentGloss": "Ausgezeichnete"
        },
        {
          "dep": "dobj",
          "governor": 2,
          "governorGloss": "Broadcasts",
          "dependent": 4,
          "dependentGloss": "Audio"
        },
        {
          "dep": "case",
          "governor": 6,
          "governorGloss": "Gunshots",
          "dependent": 5,
          "dependentGloss": "mit"
        },
        {
          "dep": "nmod",
          "governor": 4,
          "governorGloss": "Audio",
          "dependent": 6,
          "dependentGloss": "Gunshots"
        },
        {
          "dep": "punct",
          "governor": 6,
          "governorGloss": "Gunshots",
          "dependent": 7,
          "dependentGloss": ","
        },
        {
          "dep": "dobj",
          "governor": 11,
          "governorGloss": "Jr.",
          "dependent": 8,
          "dependentGloss": "die"
        },
        {
          "dep": "name",
          "governor": 10,
          "governorGloss": "Brown",
          "dependent": 9,
          "dependentGloss": "Michael"
        },
        {
          "dep": "nsubj",
          "governor": 11,
          "governorGloss": "Jr.",
          "dependent": 10,
          "dependentGloss": "Brown"
        },
        {
          "dep": "acl",
          "governor": 6,
          "governorGloss": "Gunshots",
          "dependent": 11,
          "dependentGloss": "Jr."
        },
        {
          "dep": "punct",
          "governor": 1,
          "governorGloss": "CNN",
          "dependent": 12,
          "dependentGloss": "."
        }
      ],
      "enhancedPlusPlusDependencies": [
        {
          "dep": "ROOT",
          "governor": 0,
          "governorGloss": "ROOT",
          "dependent": 1,
          "dependentGloss": "CNN"
        },
        {
          "dep": "dobj",
          "governor": 1,
          "governorGloss": "CNN",
          "dependent": 2,
          "dependentGloss": "Broadcasts"
        },
        {
          "dep": "amod",
          "governor": 4,
          "governorGloss": "Audio",
          "dependent": 3,
          "dependentGloss": "Ausgezeichnete"
        },
        {
          "dep": "dobj",
          "governor": 2,
          "governorGloss": "Broadcasts",
          "dependent": 4,
          "dependentGloss": "Audio"
        },
        {
          "dep": "case",
          "governor": 6,
          "governorGloss": "Gunshots",
          "dependent": 5,
          "dependentGloss": "mit"
        },
        {
          "dep": "nmod",
          "governor": 4,
          "governorGloss": "Audio",
          "dependent": 6,
          "dependentGloss": "Gunshots"
        },
        {
          "dep": "punct",
          "governor": 6,
          "governorGloss": "Gunshots",
          "dependent": 7,
          "dependentGloss": ","
        },
        {
          "dep": "dobj",
          "governor": 11,
          "governorGloss": "Jr.",
          "dependent": 8,
          "dependentGloss": "die"
        },
        {
          "dep": "name",
          "governor": 10,
          "governorGloss": "Brown",
          "dependent": 9,
          "dependentGloss": "Michael"
        },
        {
          "dep": "nsubj",
          "governor": 11,
          "governorGloss": "Jr.",
          "dependent": 10,
          "dependentGloss": "Brown"
        },
        {
          "dep": "acl",
          "governor": 6,
          "governorGloss": "Gunshots",
          "dependent": 11,
          "dependentGloss": "Jr."
        },
        {
          "dep": "punct",
          "governor": 1,
          "governorGloss": "CNN",
          "dependent": 12,
          "dependentGloss": "."
        }
      ],
      "tokens": [
        {
          "index": 1,
          "word": "CNN",
          "originalText": "CNN",
          "characterOffsetBegin": 0,
          "characterOffsetEnd": 3,
          "pos": "NE",
          "before": "",
          "after": " "
        },
        {
          "index": 2,
          "word": "Broadcasts",
          "originalText": "Broadcasts",
          "characterOffsetBegin": 4,
          "characterOffsetEnd": 14,
          "pos": "NE",
          "before": " ",
          "after": " "
        },
        {
          "index": 3,
          "word": "Ausgezeichnete",
          "originalText": "Ausgezeichnete",
          "characterOffsetBegin": 15,
          "characterOffsetEnd": 29,
          "pos": "ADJA",
          "before": " ",
          "after": " "
        },
        {
          "index": 4,
          "word": "Audio",
          "originalText": "Audio",
          "characterOffsetBegin": 30,
          "characterOffsetEnd": 35,
          "pos": "NN",
          "before": " ",
          "after": " "
        },
        {
          "index": 5,
          "word": "mit",
          "originalText": "mit",
          "characterOffsetBegin": 36,
          "characterOffsetEnd": 39,
          "pos": "APPR",
          "before": " ",
          "after": " "
        },
        {
          "index": 6,
          "word": "Gunshots",
          "originalText": "Gunshots",
          "characterOffsetBegin": 40,
          "characterOffsetEnd": 48,
          "pos": "NE",
          "before": " ",
          "after": ""
        },
        {
          "index": 7,
          "word": ",",
          "originalText": ",",
          "characterOffsetBegin": 48,
          "characterOffsetEnd": 49,
          "pos": "$,",
          "before": "",
          "after": " "
        },
        {
          "index": 8,
          "word": "die",
          "originalText": "die",
          "characterOffsetBegin": 50,
          "characterOffsetEnd": 53,
          "pos": "ART",
          "before": " ",
          "after": " "
        },
        {
          "index": 9,
          "word": "Michael",
          "originalText": "Michael",
          "characterOffsetBegin": 54,
          "characterOffsetEnd": 61,
          "pos": "NE",
          "before": " ",
          "after": " "
        },
        {
          "index": 10,
          "word": "Brown",
          "originalText": "Brown",
          "characterOffsetBegin": 62,
          "characterOffsetEnd": 67,
          "pos": "NE",
          "before": " ",
          "after": " "
        },
        {
          "index": 11,
          "word": "Jr.",
          "originalText": "Jr",
          "characterOffsetBegin": 68,
          "characterOffsetEnd": 70,
          "pos": "NE",
          "before": " ",
          "after": ""
        },
        {
          "index": 12,
          "word": ".",
          "originalText": ".",
          "characterOffsetBegin": 70,
          "characterOffsetEnd": 71,
          "pos": "$.",
          "before": "",
          "after": " "
        }
      ]
    },
    {
      "index": 1,
      "basicDependencies": [
        {
          "dep": "ROOT",
          "governor": 0,
          "governorGloss": "ROOT",
          "dependent": 1,
          "dependentGloss": "Führer"
        },
        {
          "dep": "punct",
          "governor": 1,
          "governorGloss": "Führer",
          "dependent": 2,
          "dependentGloss": ","
        },
        {
          "dep": "amod",
          "governor": 5,
          "governorGloss": "Bänke",
          "dependent": 3,
          "dependentGloss": "Berühmtheiten"
        },
        {
          "dep": "amod",
          "governor": 5,
          "governorGloss": "Bänke",
          "dependent": 4,
          "dependentGloss": "füllen"
        },
        {
          "dep": "appos",
          "governor": 1,
          "governorGloss": "Führer",
          "dependent": 5,
          "dependentGloss": "Bänke"
        },
        {
          "dep": "case",
          "governor": 9,
          "governorGloss": "Funeral",
          "dependent": 6,
          "dependentGloss": "bei"
        },
        {
          "dep": "det",
          "governor": 9,
          "governorGloss": "Funeral",
          "dependent": 7,
          "dependentGloss": "Teen"
        },
        {
          "dep": "case",
          "governor": 7,
          "governorGloss": "Teen",
          "dependent": 8,
          "dependentGloss": "'s"
        },
        {
          "dep": "nmod",
          "governor": 5,
          "governorGloss": "Bänke",
          "dependent": 9,
          "dependentGloss": "Funeral"
        }
      ],
      "enhancedDependencies": [
        {
          "dep": "ROOT",
          "governor": 0,
          "governorGloss": "ROOT",
          "dependent": 1,
          "dependentGloss": "Führer"
        },
        {
          "dep": "punct",
          "governor": 1,
          "governorGloss": "Führer",
          "dependent": 2,
          "dependentGloss": ","
        },
        {
          "dep": "amod",
          "governor": 5,
          "governorGloss": "Bänke",
          "dependent": 3,
          "dependentGloss": "Berühmtheiten"
        },
        {
          "dep": "amod",
          "governor": 5,
          "governorGloss": "Bänke",
          "dependent": 4,
          "dependentGloss": "füllen"
        },
        {
          "dep": "appos",
          "governor": 1,
          "governorGloss": "Führer",
          "dependent": 5,
          "dependentGloss": "Bänke"
        },
        {
          "dep": "case",
          "governor": 9,
          "governorGloss": "Funeral",
          "dependent": 6,
          "dependentGloss": "bei"
        },
        {
          "dep": "det",
          "governor": 9,
          "governorGloss": "Funeral",
          "dependent": 7,
          "dependentGloss": "Teen"
        },
        {
          "dep": "case",
          "governor": 7,
          "governorGloss": "Teen",
          "dependent": 8,
          "dependentGloss": "'s"
        },
        {
          "dep": "nmod",
          "governor": 5,
          "governorGloss": "Bänke",
          "dependent": 9,
          "dependentGloss": "Funeral"
        }
      ],
      "enhancedPlusPlusDependencies": [
        {
          "dep": "ROOT",
          "governor": 0,
          "governorGloss": "ROOT",
          "dependent": 1,
          "dependentGloss": "Führer"
        },
        {
          "dep": "punct",
          "governor": 1,
          "governorGloss": "Führer",
          "dependent": 2,
          "dependentGloss": ","
        },
        {
          "dep": "amod",
          "governor": 5,
          "governorGloss": "Bänke",
          "dependent": 3,
          "dependentGloss": "Berühmtheiten"
        },
        {
          "dep": "amod",
          "governor": 5,
          "governorGloss": "Bänke",
          "dependent": 4,
          "dependentGloss": "füllen"
        },
        {
          "dep": "appos",
          "governor": 1,
          "governorGloss": "Führer",
          "dependent": 5,
          "dependentGloss": "Bänke"
        },
        {
          "dep": "case",
          "governor": 9,
          "governorGloss": "Funeral",
          "dependent": 6,
          "dependentGloss": "bei"
        },
        {
          "dep": "det",
          "governor": 9,
          "governorGloss": "Funeral",
          "dependent": 7,
          "dependentGloss": "Teen"
        },
        {
          "dep": "case",
          "governor": 7,
          "governorGloss": "Teen",
          "dependent": 8,
          "dependentGloss": "'s"
        },
        {
          "dep": "nmod",
          "governor": 5,
          "governorGloss": "Bänke",
          "dependent": 9,
          "dependentGloss": "Funeral"
        }
      ],
      "tokens": [
        {
          "index": 1,
          "word": "Führer",
          "originalText": "Führer",
          "characterOffsetBegin": 72,
          "characterOffsetEnd": 78,
          "pos": "NN",
          "before": " ",
          "after": ""
        },
        {
          "index": 2,
          "word": ",",
          "originalText": ",",
          "characterOffsetBegin": 78,
          "characterOffsetEnd": 79,
          "pos": "$,",
          "before": "",
          "after": " "
        },
        {
          "index": 3,
          "word": "Berühmtheiten",
          "originalText": "Berühmtheiten",
          "characterOffsetBegin": 80,
          "characterOffsetEnd": 93,
          "pos": "NN",
          "before": " ",
          "after": " "
        },
        {
          "index": 4,
          "word": "füllen",
          "originalText": "füllen",
          "characterOffsetBegin": 94,
          "characterOffsetEnd": 100,
          "pos": "VVFIN",
          "before": " ",
          "after": " "
        },
        {
          "index": 5,
          "word": "Bänke",
          "originalText": "Bänke",
          "characterOffsetBegin": 101,
          "characterOffsetEnd": 106,
          "pos": "NN",
          "before": " ",
          "after": " "
        },
        {
          "index": 6,
          "word": "bei",
          "originalText": "bei",
          "characterOffsetBegin": 107,
          "characterOffsetEnd": 110,
          "pos": "APPR",
          "before": " ",
          "after": " "
        },
        {
          "index": 7,
          "word": "Teen",
          "originalText": "Teen",
          "characterOffsetBegin": 111,
          "characterOffsetEnd": 115,
          "pos": "FM",
          "before": " ",
          "after": ""
        },
        {
          "index": 8,
          "word": "'s",
          "originalText": "'s",
          "characterOffsetBegin": 115,
          "characterOffsetEnd": 117,
          "pos": "PPER",
          "before": "",
          "after": " "
        },
        {
          "index": 9,
          "word": "Funeral",
          "originalText": "Funeral",
          "characterOffsetBegin": 118,
          "characterOffsetEnd": 125,
          "pos": "NN",
          "before": " ",
          "after": ""
        }
      ]
    }
  ]
}