{
  "sentences": [
    {
      "index": 0,
      "basicDependencies": [
        {
          "dep": "ROOT",
          "governor": 0,
          "governorGloss": "ROOT",
          "dependent": 2,
          "dependentGloss": "sagt"
        },
        {
          "dep": "nsubj",
          "governor": 2,
          "governorGloss": "sagt",
          "dependent": 1,
          "dependentGloss": "Comcast"
        },
        {
          "dep": "punct",
          "governor": 2,
          "governorGloss": "sagt",
          "dependent": 3,
          "dependentGloss": ","
        },
        {
          "dep": "nsubj",
          "governor": 8,
          "governorGloss": "halten",
          "dependent": 4,
          "dependentGloss": "du"
        },
        {
          "dep": "aux",
          "governor": 8,
          "governorGloss": "halten",
          "dependent": 5,
          "dependentGloss": "kannst"
        },
        {
          "dep": "det",
          "governor": 7,
          "governorGloss": "Tor",
          "dependent": 6,
          "dependentGloss": "dein"
        },
        {
          "dep": "dobj",
          "governor": 8,
          "governorGloss": "halten",
          "dependent": 7,
          "dependentGloss": "Tor"
        },
        {
          "dep": "ccomp",
          "governor": 2,
          "governorGloss": "sagt",
          "dependent": 8,
          "dependentGloss": "halten"
        }
      ],
      "enhancedDependencies": [
        {
          "dep": "ROOT",
          "governor": 0,
          "governorGloss": "ROOT",
          "dependent": 2,
          "dependentGloss": "sagt"
        },
        {
          "dep": "nsubj",
          "governor": 2,
          "governorGloss": "sagt",
          "dependent": 1,
          "dependentGloss": "Comcast"
        },
        {
          "dep": "punct",
          "governor": 2,
          "governorGloss": "sagt",
          "dependent": 3,
          "dependentGloss": ","
        },
        {
          "dep": "nsubj",
          "governor": 8,
          "governorGloss": "halten",
          "dependent": 4,
          "dependentGloss": "du"
        },
        {
          "dep": "aux",
          "governor": 8,
          "governorGloss": "halten",
          "dependent": 5,
          "dependentGloss": "kannst"
        },
        {
          "dep": "det",
          "governor": 7,
          "governorGloss": "Tor",
          "dependent": 6,
          "dependentGloss": "dein"
        },
        {
          "dep": "dobj",
          "governor": 8,
          "governorGloss": "halten",
          "dependent": 7,
          "dependentGloss": "Tor"
        },
        {
          "dep": "ccomp",
          "governor": 2,
          "governorGloss": "sagt",
          "dependent": 8,
          "dependentGloss": "halten"
        }
      ],
      "enhancedPlusPlusDependencies": [
        {
          "dep": "ROOT",
          "governor": 0,
          "governorGloss": "ROOT",
          "dependent": 2,
          "dependentGloss": "sagt"
        },
        {
          "dep": "nsubj",
          "governor": 2,
          "governorGloss": "sagt",
          "dependent": 1,
          "dependentGloss": "Comcast"
        },
        {
          "dep": "punct",
          "governor": 2,
          "governorGloss": "sagt",
          "dependent": 3,
          "dependentGloss": ","
        },
        {
          "dep": "nsubj",
          "governor": 8,
          "governorGloss": "halten",
          "dependent": 4,
          "dependentGloss": "du"
        },
        {
          "dep": "aux",
          "governor": 8,
          "governorGloss": "halten",
          "dependent": 5,
          "dependentGloss": "kannst"
        },
        {
          "dep": "det",
          "governor": 7,
          "governorGloss": "Tor",
          "dependent": 6,
          "dependentGloss": "dein"
        },
        {
          "dep": "dobj",
          "governor": 8,
          "governorGloss": "halten",
          "dependent": 7,
          "dependentGloss": "Tor"
        },
        {
          "dep": "ccomp",
          "governor": 2,
          "governorGloss": "sagt",
          "dependent": 8,
          "dependentGloss": "halten"
        }
      ],
      "tokens": [
        {
          "index": 1,
          "word": "Comcast",
          "originalText": "Comcast",
          "characterOffsetBegin": 0,
          "characterOffsetEnd": 7,
          "pos": "NE",
          "before": "",
          "after": " "
        },
        {
          "index": 2,
          "word": "sagt",
          "originalText": "sagt",
          "characterOffsetBegin": 8,
          "characterOffsetEnd": 12,
          "pos": "VVFIN",
          "before": " ",
          "after": ""
        },
        {
          "index": 3,
          "word": ",",
          "originalText": ",",
          "characterOffsetBegin": 12,
          "characterOffsetEnd": 13,
          "pos": "$,",
          "before": "",
          "after": " "
        },
        {
          "index": 4,
          "word": "du",
          "originalText": "du",
          "characterOffsetBegin": 14,
          "characterOffsetEnd": 16,
          "pos": "PPER",
          "before": " ",
          "after": " "
        },
        {
          "index": 5,
          "word": "kannst",
          "originalText": "kannst",
          "characterOffsetBegin": 17,
          "characterOffsetEnd": 23,
          "pos": "VMFIN",
          "before": " ",
          "after": " "
        },
        {
          "index": 6,
          "word": "dein",
          "originalText": "dein",
          "characterOffsetBegin": 24,
          "characterOffsetEnd": 28,
          "pos": "PPOSAT",
          "before": " ",
          "after": " "
        },
        {
          "index": 7,
          "word": "Tor",
          "originalText": "Tor",
          "characterOffsetBegin": 29,
          "characterOffsetEnd": 32,
          "pos": "NN",
          "before": " ",
          "after": " "
        },
        {
          "index": 8,
          "word": "halten",
          "originalText": "halten",
          "characterOffsetBegin": 33,
          "characterOffsetEnd": 39,
          "pos": "VVINF",
          "before": " ",
          "after": ""
        }
      ]
    }
  ]
}