{
  "sentences": [
    {
      "index": 0,
      "basicDependencies": [
        {
          "dep": "ROOT",
          "governor": 0,
          "governorGloss": "ROOT",
          "dependent": 2,
          "dependentGloss": "Phelps"
        },
        {
          "dep": "name",
          "governor": 2,
          "governorGloss": "Phelps",
          "dependent": 1,
          "dependentGloss": "Michael"
        },
        {
          "dep": "punct",
          "governor": 2,
          "governorGloss": "Phelps",
          "dependent": 3,
          "dependentGloss": "`"
        },
        {
          "dep": "advmod",
          "governor": 5,
          "governorGloss": "verkündigte",
          "dependent": 4,
          "dependentGloss": "selbst"
        },
        {
          "dep": "root",
          "governor": 3,
          "governorGloss": "`",
          "dependent": 5,
          "dependentGloss": "verkündigte"
        },
        {
          "dep": "punct",
          "governor": 7,
          "governorGloss": "Freundin",
          "dependent": 6,
          "dependentGloss": "``"
        },
        {
          "dep": "nsubj",
          "governor": 5,
          "governorGloss": "verkündigte",
          "dependent": 7,
          "dependentGloss": "Freundin"
        },
        {
          "dep": "punct",
          "governor": 7,
          "governorGloss": "Freundin",
          "dependent": 8,
          "dependentGloss": "``"
        },
        {
          "dep": "punct",
          "governor": 7,
          "governorGloss": "Freundin",
          "dependent": 9,
          "dependentGloss": ","
        },
        {
          "dep": "conj",
          "governor": 7,
          "governorGloss": "Freundin",
          "dependent": 10,
          "dependentGloss": "41"
        },
        {
          "dep": "punct",
          "governor": 7,
          "governorGloss": "Freundin",
          "dependent": 11,
          "dependentGloss": ","
        },
        {
          "dep": "conj",
          "governor": 7,
          "governorGloss": "Freundin",
          "dependent": 12,
          "dependentGloss": "zeigt"
        },
        {
          "dep": "punct",
          "governor": 7,
          "governorGloss": "Freundin",
          "dependent": 13,
          "dependentGloss": ","
        },
        {
          "dep": "mark",
          "governor": 18,
          "governorGloss": "geboren",
          "dependent": 14,
          "dependentGloss": "dass"
        },
        {
          "dep": "nsubj",
          "governor": 18,
          "governorGloss": "geboren",
          "dependent": 15,
          "dependentGloss": "sie"
        },
        {
          "dep": "det",
          "governor": 17,
          "governorGloss": "Mann",
          "dependent": 16,
          "dependentGloss": "ein"
        },
        {
          "dep": "nsubjpass",
          "governor": 18,
          "governorGloss": "geboren",
          "dependent": 17,
          "dependentGloss": "Mann"
        },
        {
          "dep": "ccomp",
          "governor": 7,
          "governorGloss": "Freundin",
          "dependent": 18,
          "dependentGloss": "geboren"
        },
        {
          "dep": "aux",
          "governor": 18,
          "governorGloss": "geboren",
          "dependent": 19,
          "dependentGloss": "wurde"
        },
        {
          "dep": "punct",
          "governor": 18,
          "governorGloss": "geboren",
          "dependent": 20,
          "dependentGloss": ","
        },
        {
          "dep": "mark",
          "governor": 31,
          "governorGloss": "beschreibt",
          "dependent": 21,
          "dependentGloss": "wie"
        },
        {
          "dep": "nsubj",
          "governor": 31,
          "governorGloss": "beschreibt",
          "dependent": 22,
          "dependentGloss": "sie"
        },
        {
          "dep": "det",
          "governor": 26,
          "governorGloss": "Intimität",
          "dependent": 23,
          "dependentGloss": "ihre"
        },
        {
          "dep": "punct",
          "governor": 26,
          "governorGloss": "Intimität",
          "dependent": 24,
          "dependentGloss": "``"
        },
        {
          "dep": "amod",
          "governor": 26,
          "governorGloss": "Intimität",
          "dependent": 25,
          "dependentGloss": "erstaunliche"
        },
        {
          "dep": "dobj",
          "governor": 31,
          "governorGloss": "beschreibt",
          "dependent": 26,
          "dependentGloss": "Intimität"
        },
        {
          "dep": "punct",
          "governor": 31,
          "governorGloss": "beschreibt",
          "dependent": 27,
          "dependentGloss": "``"
        },
        {
          "dep": "case",
          "governor": 30,
          "governorGloss": "Schwimmer",
          "dependent": 28,
          "dependentGloss": "mit"
        },
        {
          "dep": "amod",
          "governor": 30,
          "governorGloss": "Schwimmer",
          "dependent": 29,
          "dependentGloss": "olympischen"
        },
        {
          "dep": "nmod",
          "governor": 31,
          "governorGloss": "beschreibt",
          "dependent": 30,
          "dependentGloss": "Schwimmer"
        },
        {
          "dep": "advcl",
          "governor": 18,
          "governorGloss": "geboren",
          "dependent": 31,
          "dependentGloss": "beschreibt"
        }
      ],
      "enhancedDependencies": [
        {
          "dep": "ROOT",
          "governor": 0,
          "governorGloss": "ROOT",
          "dependent": 2,
          "dependentGloss": "Phelps"
        },
        {
          "dep": "name",
          "governor": 2,
          "governorGloss": "Phelps",
          "dependent": 1,
          "dependentGloss": "Michael"
        },
        {
          "dep": "punct",
          "governor": 2,
          "governorGloss": "Phelps",
          "dependent": 3,
          "dependentGloss": "`"
        },
        {
          "dep": "advmod",
          "governor": 5,
          "governorGloss": "verkündigte",
          "dependent": 4,
          "dependentGloss": "selbst"
        },
        {
          "dep": "root",
          "governor": 3,
          "governorGloss": "`",
          "dependent": 5,
          "dependentGloss": "verkündigte"
        },
        {
          "dep": "punct",
          "governor": 7,
          "governorGloss": "Freundin",
          "dependent": 6,
          "dependentGloss": "``"
        },
        {
          "dep": "nsubj",
          "governor": 5,
          "governorGloss": "verkündigte",
          "dependent": 7,
          "dependentGloss": "Freundin"
        },
        {
          "dep": "punct",
          "governor": 7,
          "governorGloss": "Freundin",
          "dependent": 8,
          "dependentGloss": "``"
        },
        {
          "dep": "punct",
          "governor": 7,
          "governorGloss": "Freundin",
          "dependent": 9,
          "dependentGloss": ","
        },
        {
          "dep": "conj",
          "governor": 7,
          "governorGloss": "Freundin",
          "dependent": 10,
          "dependentGloss": "41"
        },
        {
          "dep": "punct",
          "governor": 7,
          "governorGloss": "Freundin",
          "dependent": 11,
          "dependentGloss": ","
        },
        {
          "dep": "conj",
          "governor": 7,
          "governorGloss": "Freundin",
          "dependent": 12,
          "dependentGloss": "zeigt"
        },
        {
          "dep": "punct",
          "governor": 7,
          "governorGloss": "Freundin",
          "dependent": 13,
          "dependentGloss": ","
        },
        {
          "dep": "mark",
          "governor": 18,
          "governorGloss": "geboren",
          "dependent": 14,
          "dependentGloss": "dass"
        },
        {
          "dep": "nsubj",
          "governor": 18,
          "governorGloss": "geboren",
          "dependent": 15,
          "dependentGloss": "sie"
        },
        {
          "dep": "det",
          "governor": 17,
          "governorGloss": "Mann",
          "dependent": 16,
          "dependentGloss": "ein"
        },
        {
          "dep": "nsubjpass",
          "governor": 18,
          "governorGloss": "geboren",
          "dependent": 17,
          "dependentGloss": "Mann"
        },
        {
          "dep": "ccomp",
          "governor": 7,
          "governorGloss": "Freundin",
          "dependent": 18,
          "dependentGloss": "geboren"
        },
        {
          "dep": "aux",
          "governor": 18,
          "governorGloss": "geboren",
          "dependent": 19,
          "dependentGloss": "wurde"
        },
        {
          "dep": "punct",
          "governor": 18,
          "governorGloss": "geboren",
          "dependent": 20,
          "dependentGloss": ","
        },
        {
          "dep": "mark",
          "governor": 31,
          "governorGloss": "beschreibt",
          "dependent": 21,
          "dependentGloss": "wie"
        },
        {
          "dep": "nsubj",
          "governor": 31,
          "governorGloss": "beschreibt",
          "dependent": 22,
          "dependentGloss": "sie"
        },
        {
          "dep": "det",
          "governor": 26,
          "governorGloss": "Intimität",
          "dependent": 23,
          "dependentGloss": "ihre"
        },
        {
          "dep": "punct",
          "governor": 26,
          "governorGloss": "Intimität",
          "dependent": 24,
          "dependentGloss": "``"
        },
        {
          "dep": "amod",
          "governor": 26,
          "governorGloss": "Intimität",
          "dependent": 25,
          "dependentGloss": "erstaunliche"
        },
        {
          "dep": "dobj",
          "governor": 31,
          "governorGloss": "beschreibt",
          "dependent": 26,
          "dependentGloss": "Intimität"
        },
        {
          "dep": "punct",
          "governor": 31,
          "governorGloss": "beschreibt",
          "dependent": 27,
          "dependentGloss": "``"
        },
        {
          "dep": "case",
          "governor": 30,
          "governorGloss": "Schwimmer",
          "dependent": 28,
          "dependentGloss": "mit"
        },
        {
          "dep": "amod",
          "governor": 30,
          "governorGloss": "Schwimmer",
          "dependent": 29,
          "dependentGloss": "olympischen"
        },
        {
          "dep": "nmod",
          "governor": 31,
          "governorGloss": "beschreibt",
          "dependent": 30,
          "dependentGloss": "Schwimmer"
        },
        {
          "dep": "advcl",
          "governor": 18,
          "governorGloss": "geboren",
          "dependent": 31,
          "dependentGloss": "beschreibt"
        }
      ],
      "enhancedPlusPlusDependencies": [
        {
          "dep": "ROOT",
          "governor": 0,
          "governorGloss": "ROOT",
          "dependent": 2,
          "dependentGloss": "Phelps"
        },
        {
          "dep": "name",
          "governor": 2,
          "governorGloss": "Phelps",
          "dependent": 1,
          "dependentGloss": "Michael"
        },
        {
          "dep": "punct",
          "governor": 2,
          "governorGloss": "Phelps",
          "dependent": 3,
          "dependentGloss": "`"
        },
        {
          "dep": "advmod",
          "governor": 5,
          "governorGloss": "verkündigte",
          "dependent": 4,
          "dependentGloss": "selbst"
        },
        {
          "dep": "root",
          "governor": 3,
          "governorGloss": "`",
          "dependent": 5,
          "dependentGloss": "verkündigte"
        },
        {
          "dep": "punct",
          "governor": 7,
          "governorGloss": "Freundin",
          "dependent": 6,
          "dependentGloss": "``"
        },
        {
          "dep": "nsubj",
          "governor": 5,
          "governorGloss": "verkündigte",
          "dependent": 7,
          "dependentGloss": "Freundin"
        },
        {
          "dep": "punct",
          "governor": 7,
          "governorGloss": "Freundin",
          "dependent": 8,
          "dependentGloss": "``"
        },
        {
          "dep": "punct",
          "governor": 7,
          "governorGloss": "Freundin",
          "dependent": 9,
          "dependentGloss": ","
        },
        {
          "dep": "conj",
          "governor": 7,
          "governorGloss": "Freundin",
          "dependent": 10,
          "dependentGloss": "41"
        },
        {
          "dep": "punct",
          "governor": 7,
          "governorGloss": "Freundin",
          "dependent": 11,
          "dependentGloss": ","
        },
        {
          "dep": "conj",
          "governor": 7,
          "governorGloss": "Freundin",
          "dependent": 12,
          "dependentGloss": "zeigt"
        },
        {
          "dep": "punct",
          "governor": 7,
          "governorGloss": "Freundin",
          "dependent": 13,
          "dependentGloss": ","
        },
        {
          "dep": "mark",
          "governor": 18,
          "governorGloss": "geboren",
          "dependent": 14,
          "dependentGloss": "dass"
        },
        {
          "dep": "nsubj",
          "governor": 18,
          "governorGloss": "geboren",
          "dependent": 15,
          "dependentGloss": "sie"
        },
        {
          "dep": "det",
          "governor": 17,
          "governorGloss": "Mann",
          "dependent": 16,
          "dependentGloss": "ein"
        },
        {
          "dep": "nsubjpass",
          "governor": 18,
          "governorGloss": "geboren",
          "dependent": 17,
          "dependentGloss": "Mann"
        },
        {
          "dep": "ccomp",
          "governor": 7,
          "governorGloss": "Freundin",
          "dependent": 18,
          "dependentGloss": "geboren"
        },
        {
          "dep": "aux",
          "governor": 18,
          "governorGloss": "geboren",
          "dependent": 19,
          "dependentGloss": "wurde"
        },
        {
          "dep": "punct",
          "governor": 18,
          "governorGloss": "geboren",
          "dependent": 20,
          "dependentGloss": ","
        },
        {
          "dep": "mark",
          "governor": 31,
          "governorGloss": "beschreibt",
          "dependent": 21,
          "dependentGloss": "wie"
        },
        {
          "dep": "nsubj",
          "governor": 31,
          "governorGloss": "beschreibt",
          "dependent": 22,
          "dependentGloss": "sie"
        },
        {
          "dep": "det",
          "governor": 26,
          "governorGloss": "Intimität",
          "dependent": 23,
          "dependentGloss": "ihre"
        },
        {
          "dep": "punct",
          "governor": 26,
          "governorGloss": "Intimität",
          "dependent": 24,
          "dependentGloss": "``"
        },
        {
          "dep": "amod",
          "governor": 26,
          "governorGloss": "Intimität",
          "dependent": 25,
          "dependentGloss": "erstaunliche"
        },
        {
          "dep": "dobj",
          "governor": 31,
          "governorGloss": "beschreibt",
          "dependent": 26,
          "dependentGloss": "Intimität"
        },
        {
          "dep": "punct",
          "governor": 31,
          "governorGloss": "beschreibt",
          "dependent": 27,
          "dependentGloss": "``"
        },
        {
          "dep": "case",
          "governor": 30,
          "governorGloss": "Schwimmer",
          "dependent": 28,
          "dependentGloss": "mit"
        },
        {
          "dep": "amod",
          "governor": 30,
          "governorGloss": "Schwimmer",
          "dependent": 29,
          "dependentGloss": "olympischen"
        },
        {
          "dep": "nmod",
          "governor": 31,
          "governorGloss": "beschreibt",
          "dependent": 30,
          "dependentGloss": "Schwimmer"
        },
        {
          "dep": "advcl",
          "governor": 18,
          "governorGloss": "geboren",
          "dependent": 31,
          "dependentGloss": "beschreibt"
        }
      ],
      "tokens": [
        {
          "index": 1,
          "word": "Michael",
          "originalText": "Michael",
          "characterOffsetBegin": 0,
          "characterOffsetEnd": 7,
          "pos": "NE",
          "before": "",
          "after": " "
        },
        {
          "index": 2,
          "word": "Phelps",
          "originalText": "Phelps",
          "characterOffsetBegin": 8,
          "characterOffsetEnd": 14,
          "pos": "NE",
          "before": " ",
          "after": " "
        },
        {
          "index": 3,
          "word": "`",
          "originalText": "'",
          "characterOffsetBegin": 15,
          "characterOffsetEnd": 16,
          "pos": "CARD",
          "before": " ",
          "after": ""
        },
        {
          "index": 4,
          "word": "selbst",
          "originalText": "selbst",
          "characterOffsetBegin": 16,
          "characterOffsetEnd": 22,
          "pos": "ADV",
          "before": "",
          "after": " "
        },
        {
          "index": 5,
          "word": "verkündigte",
          "originalText": "verkündigte",
          "characterOffsetBegin": 23,
          "characterOffsetEnd": 34,
          "pos": "ADJA",
          "before": " ",
          "after": " "
        },
        {
          "index": 6,
          "word": "``",
          "originalText": "“",
          "characterOffsetBegin": 35,
          "characterOffsetEnd": 36,
          "pos": "CARD",
          "before": " ",
          "after": ""
        },
        {
          "index": 7,
          "word": "Freundin",
          "originalText": "Freundin",
          "characterOffsetBegin": 36,
          "characterOffsetEnd": 44,
          "pos": "NN",
          "before": "",
          "after": ""
        },
        {
          "index": 8,
          "word": "``",
          "originalText": "“",
          "characterOffsetBegin": 44,
          "characterOffsetEnd": 45,
          "pos": "VVFIN",
          "before": "",
          "after": ""
        },
        {
          "index": 9,
          "word": ",",
          "originalText": ",",
          "characterOffsetBegin": 45,
          "characterOffsetEnd": 46,
          "pos": "$,",
          "before": "",
          "after": " "
        },
        {
          "index": 10,
          "word": "41",
          "originalText": "41",
          "characterOffsetBegin": 47,
          "characterOffsetEnd": 49,
          "pos": "CARD",
          "before": " ",
          "after": ""
        },
        {
          "index": 11,
          "word": ",",
          "originalText": ",",
          "characterOffsetBegin": 49,
          "characterOffsetEnd": 50,
          "pos": "$,",
          "before": "",
          "after": " "
        },
        {
          "index": 12,
          "word": "zeigt",
          "originalText": "zeigt",
          "characterOffsetBegin": 51,
          "characterOffsetEnd": 56,
          "pos": "VVFIN",
          "before": " ",
          "after": ""
        },
        {
          "index": 13,
          "word": ",",
          "originalText": ",",
          "characterOffsetBegin": 56,
          "characterOffsetEnd": 57,
          "pos": "$,",
          "before": "",
          "after": " "
        },
        {
          "index": 14,
          "word": "dass",
          "originalText": "dass",
          "characterOffsetBegin": 58,
          "characterOffsetEnd": 62,
          "pos": "KOUS",
          "before": " ",
          "after": " "
        },
        {
          "index": 15,
          "word": "sie",
          "originalText": "sie",
          "characterOffsetBegin": 63,
          "characterOffsetEnd": 66,
          "pos": "PPER",
          "before": " ",
          "after": " "
        },
        {
          "index": 16,
          "word": "ein",
          "originalText": "ein",
          "characterOffsetBegin": 67,
          "characterOffsetEnd": 70,
          "pos": "ART",
          "before": " ",
          "after": " "
        },
        {
          "index": 17,
          "word": "Mann",
          "originalText": "Mann",
          "characterOffsetBegin": 71,
          "characterOffsetEnd": 75,
          "pos": "NN",
          "before": " ",
          "after": " "
        },
        {
          "index": 18,
          "word": "geboren",
          "originalText": "geboren",
          "characterOffsetBegin": 76,
          "characterOffsetEnd": 83,
          "pos": "VVPP",
          "before": " ",
          "after": " "
        },
        {
          "index": 19,
          "word": "wurde",
          "originalText": "wurde",
          "characterOffsetBegin": 84,
          "characterOffsetEnd": 89,
          "pos": "VAFIN",
          "before": " ",
          "after": ""
        },
        {
          "index": 20,
          "word": ",",
          "originalText": ",",
          "characterOffsetBegin": 89,
          "characterOffsetEnd": 90,
          "pos": "$,",
          "before": "",
          "after": " "
        },
        {
          "index": 21,
          "word": "wie",
          "originalText": "wie",
          "characterOffsetBegin": 91,
          "characterOffsetEnd": 94,
          "pos": "PWAV",
          "before": " ",
          "after": " "
        },
        {
          "index": 22,
          "word": "sie",
          "originalText": "sie",
          "characterOffsetBegin": 95,
          "characterOffsetEnd": 98,
          "pos": "PPER",
          "before": " ",
          "after": " "
        },
        {
          "index": 23,
          "word": "ihre",
          "originalText": "ihre",
          "characterOffsetBegin": 99,
          "characterOffsetEnd": 103,
          "pos": "PPOSAT",
          "before": " ",
          "after": " "
        },
        {
          "index": 24,
          "word": "``",
          "originalText": "“",
          "characterOffsetBegin": 104,
          "characterOffsetEnd": 105,
          "pos": "NN",
          "before": " ",
          "after": ""
        },
        {
          "index": 25,
          "word": "erstaunliche",
          "originalText": "erstaunliche",
          "characterOffsetBegin": 105,
          "characterOffsetEnd": 117,
          "pos": "ADJA",
          "before": "",
          "after": " "
        },
        {
          "index": 26,
          "word": "Intimität",
          "originalText": "Intimität",
          "characterOffsetBegin": 118,
          "characterOffsetEnd": 127,
          "pos": "NN",
          "before": " ",
          "after": ""
        },
        {
          "index": 27,
          "word": "``",
          "originalText": "“",
          "characterOffsetBegin": 127,
          "characterOffsetEnd": 128,
          "pos": "CARD",
          "before": "",
          "after": " "
        },
        {
          "index": 28,
          "word": "mit",
          "originalText": "mit",
          "characterOffsetBegin": 129,
          "characterOffsetEnd": 132,
          "pos": "APPR",
          "before": " ",
          "after": " "
        },
        {
          "index": 29,
          "word": "olympischen",
          "originalText": "olympischen",
          "characterOffsetBegin": 133,
          "characterOffsetEnd": 144,
          "pos": "ADJA",
          "before": " ",
          "after": " "
        },
        {
          "index": 30,
          "word": "Schwimmer",
          "originalText": "Schwimmer",
          "characterOffsetBegin": 145,
          "characterOffsetEnd": 154,
          "pos": "NN",
          "before": " ",
          "after": " "
        },
        {
          "index": 31,
          "word": "beschreibt",
          "originalText": "beschreibt",
          "characterOffsetBegin": 155,
          "characterOffsetEnd": 165,
          "pos": "VVFIN",
          "before": " ",
          "after": ""
        }
      ]
    }
  ]
}