{
  "sentences": [
    {
      "index": 0,
      "basicDependencies": [
        {
          "dep": "ROOT",
          "governor": 0,
          "governorGloss": "ROOT",
          "dependent": 11,
          "dependentGloss": "wurden"
        },
        {
          "dep": "nummod",
          "governor": 3,
          "governorGloss": "Militanten",
          "dependent": 1,
          "dependentGloss": "6"
        },
        {
          "dep": "amod",
          "governor": 3,
          "governorGloss": "Militanten",
          "dependent": 2,
          "dependentGloss": "islamistische"
        },
        {
          "dep": "nsubj",
          "governor": 11,
          "governorGloss": "wurden",
          "dependent": 3,
          "dependentGloss": "Militanten"
        },
        {
          "dep": "punct",
          "governor": 3,
          "governorGloss": "Militanten",
          "dependent": 4,
          "dependentGloss": ","
        },
        {
          "dep": "det",
          "governor": 7,
          "governorGloss": "US-Angriff",
          "dependent": 5,
          "dependentGloss": "die"
        },
        {
          "dep": "amod",
          "governor": 7,
          "governorGloss": "US-Angriff",
          "dependent": 6,
          "dependentGloss": "im"
        },
        {
          "dep": "nsubjpass",
          "governor": 10,
          "governorGloss": "getötet",
          "dependent": 7,
          "dependentGloss": "US-Angriff"
        },
        {
          "dep": "case",
          "governor": 9,
          "governorGloss": "Somalia",
          "dependent": 8,
          "dependentGloss": "in"
        },
        {
          "dep": "nmod",
          "governor": 10,
          "governorGloss": "getötet",
          "dependent": 9,
          "dependentGloss": "Somalia"
        },
        {
          "dep": "acl",
          "governor": 3,
          "governorGloss": "Militanten",
          "dependent": 10,
          "dependentGloss": "getötet"
        }
      ],
      "enhancedDependencies": [
        {
          "dep": "ROOT",
          "governor": 0,
          "governorGloss": "ROOT",
          "dependent": 11,
          "dependentGloss": "wurden"
        },
        {
          "dep": "nummod",
          "governor": 3,
          "governorGloss": "Militanten",
          "dependent": 1,
          "dependentGloss": "6"
        },
        {
          "dep": "amod",
          "governor": 3,
          "governorGloss": "Militanten",
          "dependent": 2,
          "dependentGloss": "islamistische"
        },
        {
          "dep": "nsubj",
          "governor": 11,
          "governorGloss": "wurden",
          "dependent": 3,
          "dependentGloss": "Militanten"
        },
        {
          "dep": "punct",
          "governor": 3,
          "governorGloss": "Militanten",
          "dependent": 4,
          "dependentGloss": ","
        },
        {
          "dep": "det",
          "governor": 7,
          "governorGloss": "US-Angriff",
          "dependent": 5,
          "dependentGloss": "die"
        },
        {
          "dep": "amod",
          "governor": 7,
          "governorGloss": "US-Angriff",
          "dependent": 6,
          "dependentGloss": "im"
        },
        {
          "dep": "nsubjpass",
          "governor": 10,
          "governorGloss": "getötet",
          "dependent": 7,
          "dependentGloss": "US-Angriff"
        },
        {
          "dep": "case",
          "governor": 9,
          "governorGloss": "Somalia",
          "dependent": 8,
          "dependentGloss": "in"
        },
        {
          "dep": "nmod",
          "governor": 10,
          "governorGloss": "getötet",
          "dependent": 9,
          "dependentGloss": "Somalia"
        },
        {
          "dep": "acl",
          "governor": 3,
          "governorGloss": "Militanten",
          "dependent": 10,
          "dependentGloss": "getötet"
        }
      ],
      "enhancedPlusPlusDependencies": [
        {
          "dep": "ROOT",
          "governor": 0,
          "governorGloss": "ROOT",
          "dependent": 11,
          "dependentGloss": "wurden"
        },
        {
          "dep": "nummod",
          "governor": 3,
          "governorGloss": "Militanten",
          "dependent": 1,
          "dependentGloss": "6"
        },
        {
          "dep": "amod",
          "governor": 3,
          "governorGloss": "Militanten",
          "dependent": 2,
          "dependentGloss": "islamistische"
        },
        {
          "dep": "nsubj",
          "governor": 11,
          "governorGloss": "wurden",
          "dependent": 3,
          "dependentGloss": "Militanten"
        },
        {
          "dep": "punct",
          "governor": 3,
          "governorGloss": "Militanten",
          "dependent": 4,
          "dependentGloss": ","
        },
        {
          "dep": "det",
          "governor": 7,
          "governorGloss": "US-Angriff",
          "dependent": 5,
          "dependentGloss": "die"
        },
        {
          "dep": "amod",
          "governor": 7,
          "governorGloss": "US-Angriff",
          "dependent": 6,
          "dependentGloss": "im"
        },
        {
          "dep": "nsubjpass",
          "governor": 10,
          "governorGloss": "getötet",
          "dependent": 7,
          "dependentGloss": "US-Angriff"
        },
        {
          "dep": "case",
          "governor": 9,
          "governorGloss": "Somalia",
          "dependent": 8,
          "dependentGloss": "in"
        },
        {
          "dep": "nmod",
          "governor": 10,
          "governorGloss": "getötet",
          "dependent": 9,
          "dependentGloss": "Somalia"
        },
        {
          "dep": "acl",
          "governor": 3,
          "governorGloss": "Militanten",
          "dependent": 10,
          "dependentGloss": "getötet"
        }
      ],
      "tokens": [
        {
          "index": 1,
          "word": "6",
          "originalText": "6",
          "characterOffsetBegin": 0,
          "characterOffsetEnd": 1,
          "pos": "CARD",
          "before": "",
          "after": " "
        },
        {
          "index": 2,
          "word": "islamistische",
          "originalText": "islamistische",
          "characterOffsetBegin": 2,
          "characterOffsetEnd": 15,
          "pos": "ADJA",
          "before": " ",
          "after": " "
        },
        {
          "index": 3,
          "word": "Militanten",
          "originalText": "Militanten",
          "characterOffsetBegin": 16,
          "characterOffsetEnd": 26,
          "pos": "NN",
          "before": " ",
          "after": ""
        },
        {
          "index": 4,
          "word": ",",
          "originalText": ",",
          "characterOffsetBegin": 26,
          "characterOffsetEnd": 27,
          "pos": "$,",
          "before": "",
          "after": " "
        },
        {
          "index": 5,
          "word": "die",
          "originalText": "die",
          "characterOffsetBegin": 28,
          "characterOffsetEnd": 31,
          "pos": "PRELS",
          "before": " ",
          "after": " "
        },
        {
          "index": 6,
          "word": "im",
          "originalText": "im",
          "characterOffsetBegin": 32,
          "characterOffsetEnd": 34,
          "pos": "APPRART",
          "before": " ",
          "after": " "
        },
        {
          "index": 7,
          "word": "US-Angriff",
          "originalText": "US-Angriff",
          "characterOffsetBegin": 35,
          "characterOffsetEnd": 45,
          "pos": "NN",
          "before": " ",
          "after": " "
        },
        {
          "index": 8,
          "word": "in",
          "originalText": "in",
          "characterOffsetBegin": 46,
          "characterOffsetEnd": 48,
          "pos": "APPR",
          "before": " ",
          "after": " "
        },
        {
          "index": 9,
          "word": "Somalia",
          "originalText": "Somalia",
          "characterOffsetBegin": 49,
          "characterOffsetEnd": 56,
          "pos": "NE",
          "before": " ",
          "after": " "
        },
        {
          "index": 10,
          "word": "getötet",
          "originalText": "getötet",
          "characterOffsetBegin": 57,
          "characterOffsetEnd": 64,
          "pos": "VVPP",
          "before": " ",
          "after": " "
        },
        {
          "index": 11,
          "word": "wurden",
          "originalText": "wurden",
          "characterOffsetBegin": 65,
          "characterOffsetEnd": 71,
          "pos": "VAFIN",
          "before": " ",
          "after": ""
        }
      ]
    }
  ]
}