{
  "sentences": [
    {
      "index": 0,
      "basicDependencies": [
        {
          "dep": "ROOT",
          "governor": 0,
          "governorGloss": "ROOT",
          "dependent": 2,
          "dependentGloss": "AKTUALISIERT"
        },
        {
          "dep": "name",
          "governor": 2,
          "governorGloss": "AKTUALISIERT",
          "dependent": 1,
          "dependentGloss": "BREAKING"
        },
        {
          "dep": "punct",
          "governor": 2,
          "governorGloss": "AKTUALISIERT",
          "dependent": 3,
          "dependentGloss": ":"
        },
        {
          "dep": "amod",
          "governor": 5,
          "governorGloss": "BERÜCKSICHTIGT",
          "dependent": 4,
          "dependentGloss": "ISIS"
        },
        {
          "dep": "dobj",
          "governor": 8,
          "governorGloss": "IN",
          "dependent": 5,
          "dependentGloss": "BERÜCKSICHTIGT"
        },
        {
          "dep": "amod",
          "governor": 7,
          "governorGloss": "WAFFEN",
          "dependent": 6,
          "dependentGloss": "CHEMISCHE"
        },
        {
          "dep": "det",
          "governor": 5,
          "governorGloss": "BERÜCKSICHTIGT",
          "dependent": 7,
          "dependentGloss": "WAFFEN"
        },
        {
          "dep": "parataxis",
          "governor": 2,
          "governorGloss": "AKTUALISIERT",
          "dependent": 8,
          "dependentGloss": "IN"
        },
        {
          "dep": "nsubj",
          "governor": 8,
          "governorGloss": "IN",
          "dependent": 9,
          "dependentGloss": "KOBANE"
        }
      ],
      "enhancedDependencies": [
        {
          "dep": "ROOT",
          "governor": 0,
          "governorGloss": "ROOT",
          "dependent": 2,
          "dependentGloss": "AKTUALISIERT"
        },
        {
          "dep": "name",
          "governor": 2,
          "governorGloss": "AKTUALISIERT",
          "dependent": 1,
          "dependentGloss": "BREAKING"
        },
        {
          "dep": "punct",
          "governor": 2,
          "governorGloss": "AKTUALISIERT",
          "dependent": 3,
          "dependentGloss": ":"
        },
        {
          "dep": "amod",
          "governor": 5,
          "governorGloss": "BERÜCKSICHTIGT",
          "dependent": 4,
          "dependentGloss": "ISIS"
        },
        {
          "dep": "dobj",
          "governor": 8,
          "governorGloss": "IN",
          "dependent": 5,
          "dependentGloss": "BERÜCKSICHTIGT"
        },
        {
          "dep": "amod",
          "governor": 7,
          "governorGloss": "WAFFEN",
          "dependent": 6,
          "dependentGloss": "CHEMISCHE"
        },
        {
          "dep": "det",
          "governor": 5,
          "governorGloss": "BERÜCKSICHTIGT",
          "dependent": 7,
          "dependentGloss": "WAFFEN"
        },
        {
          "dep": "parataxis",
          "governor": 2,
          "governorGloss": "AKTUALISIERT",
          "dependent": 8,
          "dependentGloss": "IN"
        },
        {
          "dep": "nsubj",
          "governor": 8,
          "governorGloss": "IN",
          "dependent": 9,
          "dependentGloss": "KOBANE"
        }
      ],
      "enhancedPlusPlusDependencies": [
        {
          "dep": "ROOT",
          "governor": 0,
          "governorGloss": "ROOT",
          "dependent": 2,
          "dependentGloss": "AKTUALISIERT"
        },
        {
          "dep": "name",
          "governor": 2,
          "governorGloss": "AKTUALISIERT",
          "dependent": 1,
          "dependentGloss": "BREAKING"
        },
        {
          "dep": "punct",
          "governor": 2,
          "governorGloss": "AKTUALISIERT",
          "dependent": 3,
          "dependentGloss": ":"
        },
        {
          "dep": "amod",
          "governor": 5,
          "governorGloss": "BERÜCKSICHTIGT",
          "dependent": 4,
          "dependentGloss": "ISIS"
        },
        {
          "dep": "dobj",
          "governor": 8,
          "governorGloss": "IN",
          "dependent": 5,
          "dependentGloss": "BERÜCKSICHTIGT"
        },
        {
          "dep": "amod",
          "governor": 7,
          "governorGloss": "WAFFEN",
          "dependent": 6,
          "dependentGloss": "CHEMISCHE"
        },
        {
          "dep": "det",
          "governor": 5,
          "governorGloss": "BERÜCKSICHTIGT",
          "dependent": 7,
          "dependentGloss": "WAFFEN"
        },
        {
          "dep": "parataxis",
          "governor": 2,
          "governorGloss": "AKTUALISIERT",
          "dependent": 8,
          "dependentGloss": "IN"
        },
        {
          "dep": "nsubj",
          "governor": 8,
          "governorGloss": "IN",
          "dependent": 9,
          "dependentGloss": "KOBANE"
        }
      ],
      "tokens": [
        {
          "index": 1,
          "word": "BREAKING",
          "originalText": "BREAKING",
          "characterOffsetBegin": 0,
          "characterOffsetEnd": 8,
          "pos": "NE",
          "before": "",
          "after": " "
        },
        {
          "index": 2,
          "word": "AKTUALISIERT",
          "originalText": "AKTUALISIERT",
          "characterOffsetBegin": 9,
          "characterOffsetEnd": 21,
          "pos": "NN",
          "before": " ",
          "after": ""
        },
        {
          "index": 3,
          "word": ":",
          "originalText": ":",
          "characterOffsetBegin": 21,
          "characterOffsetEnd": 22,
          "pos": "$.",
          "before": "",
          "after": " "
        },
        {
          "index": 4,
          "word": "ISIS",
          "originalText": "ISIS",
          "characterOffsetBegin": 23,
          "characterOffsetEnd": 27,
          "pos": "NE",
          "before": " ",
          "after": " "
        },
        {
          "index": 5,
          "word": "BERÜCKSICHTIGT",
          "originalText": "BERÜCKSICHTIGT",
          "characterOffsetBegin": 28,
          "characterOffsetEnd": 42,
          "pos": "NE",
          "before": " ",
          "after": " "
        },
        {
          "index": 6,
          "word": "CHEMISCHE",
          "originalText": "CHEMISCHE",
          "characterOffsetBegin": 43,
          "characterOffsetEnd": 52,
          "pos": "ADJA",
          "before": " ",
          "after": " "
        },
        {
          "index": 7,
          "word": "WAFFEN",
          "originalText": "WAFFEN",
          "characterOffsetBegin": 53,
          "characterOffsetEnd": 59,
          "pos": "NN",
          "before": " ",
          "after": " "
        },
        {
          "index": 8,
          "word": "IN",
          "originalText": "IN",
          "characterOffsetBegin": 60,
          "characterOffsetEnd": 62,
          "pos": "NN",
          "before": " ",
          "after": " "
        },
        {
          "index": 9,
          "word": "KOBANE",
          "originalText": "KOBANE",
          "characterOffsetBegin": 63,
          "characterOffsetEnd": 69,
          "pos": "NE",
          "before": " ",
          "after": ""
        }
      ]
    }
  ]
}