{
  "sentences": [
    {
      "index": 0,
      "basicDependencies": [
        {
          "dep": "ROOT",
          "governor": 0,
          "governorGloss": "ROOT",
          "dependent": 6,
          "dependentGloss": "ins"
        },
        {
          "dep": "name",
          "governor": 2,
          "governorGloss": "Eierlot",
          "dependent": 1,
          "dependentGloss": "Tausend"
        },
        {
          "dep": "nsubj",
          "governor": 6,
          "governorGloss": "ins",
          "dependent": 2,
          "dependentGloss": "Eierlot"
        },
        {
          "dep": "name",
          "governor": 5,
          "governorGloss": "Mann",
          "dependent": 3,
          "dependentGloss": "sendet"
        },
        {
          "dep": "name",
          "governor": 5,
          "governorGloss": "Mann",
          "dependent": 4,
          "dependentGloss": "Utah"
        },
        {
          "dep": "appos",
          "governor": 2,
          "governorGloss": "Eierlot",
          "dependent": 5,
          "dependentGloss": "Mann"
        },
        {
          "dep": "dep",
          "governor": 6,
          "governorGloss": "ins",
          "dependent": 7,
          "dependentGloss": "Krankenhaus"
        }
      ],
      "enhancedDependencies": [
        {
          "dep": "ROOT",
          "governor": 0,
          "governorGloss": "ROOT",
          "dependent": 6,
          "dependentGloss": "ins"
        },
        {
          "dep": "name",
          "governor": 2,
          "governorGloss": "Eierlot",
          "dependent": 1,
          "dependentGloss": "Tausend"
        },
        {
          "dep": "nsubj",
          "governor": 6,
          "governorGloss": "ins",
          "dependent": 2,
          "dependentGloss": "Eierlot"
        },
        {
          "dep": "name",
          "governor": 5,
          "governorGloss": "Mann",
          "dependent": 3,
          "dependentGloss": "sendet"
        },
        {
          "dep": "name",
          "governor": 5,
          "governorGloss": "Mann",
          "dependent": 4,
          "dependentGloss": "Utah"
        },
        {
          "dep": "appos",
          "governor": 2,
          "governorGloss": "Eierlot",
          "dependent": 5,
          "dependentGloss": "Mann"
        },
        {
          "dep": "dep",
          "governor": 6,
          "governorGloss": "ins",
          "dependent": 7,
          "dependentGloss": "Krankenhaus"
        }
      ],
      "enhancedPlusPlusDependencies": [
        {
          "dep": "ROOT",
          "governor": 0,
          "governorGloss": "ROOT",
          "dependent": 6,
          "dependentGloss": "ins"
        },
        {
          "dep": "name",
          "governor": 2,
          "governorGloss": "Eierlot",
          "dependent": 1,
          "dependentGloss": "Tausend"
        },
        {
          "dep": "nsubj",
          "governor": 6,
          "governorGloss": "ins",
          "dependent": 2,
          "dependentGloss": "Eierlot"
        },
        {
          "dep": "name",
          "governor": 5,
          "governorGloss": "Mann",
          "dependent": 3,
          "dependentGloss": "sendet"
        },
        {
          "dep": "name",
          "governor": 5,
          "governorGloss": "Mann",
          "dependent": 4,
          "dependentGloss": "Utah"
        },
        {
          "dep": "appos",
          "governor": 2,
          "governorGloss": "Eierlot",
          "dependent": 5,
          "dependentGloss": "Mann"
        },
        {
          "dep": "dep",
          "governor": 6,
          "governorGloss": "ins",
          "dependent": 7,
          "dependentGloss": "Krankenhaus"
        }
      ],
      "tokens": [
        {
          "index": 1,
          "word": "Tausend",
          "originalText": "Tausend",
          "characterOffsetBegin": 0,
          "characterOffsetEnd": 7,
          "pos": "NE",
          "before": "",
          "after": " "
        },
        {
          "index": 2,
          "word": "Eierlot",
          "originalText": "Eierlot",
          "characterOffsetBegin": 8,
          "characterOffsetEnd": 15,
          "pos": "NE",
          "before": " ",
          "after": " "
        },
        {
          "index": 3,
          "word": "sendet",
          "originalText": "sendet",
          "characterOffsetBegin": 16,
          "characterOffsetEnd": 22,
          "pos": "VVFIN",
          "before": " ",
          "after": " "
        },
        {
          "index": 4,
          "word": "Utah",
          "originalText": "Utah",
          "characterOffsetBegin": 23,
          "characterOffsetEnd": 27,
          "pos": "NE",
          "before": " ",
          "after": " "
        },
        {
          "index": 5,
          "word": "Mann",
          "originalText": "Mann",
          "characterOffsetBegin": 28,
          "characterOffsetEnd": 32,
          "pos": "NN",
          "before": " ",
          "after": " "
        },
        {
          "index": 6,
          "word": "ins",
          "originalText": "ins",
          "characterOffsetBegin": 33,
          "characterOffsetEnd": 36,
          "pos": "APPRART",
          "before": " ",
          "after": " "
        },
        {
          "index": 7,
          "word": "Krankenhaus",
          "originalText": "Krankenhaus",
          "characterOffsetBegin": 37,
          "characterOffsetEnd": 48,
          "pos": "NN",
          "before": " ",
          "after": ""
        }
      ]
    }
  ]
}