{
  "sentences": [
    {
      "index": 0,
      "basicDependencies": [
        {
          "dep": "ROOT",
          "governor": 0,
          "governorGloss": "ROOT",
          "dependent": 4,
          "dependentGloss": "wacht"
        },
        {
          "dep": "det",
          "governor": 3,
          "governorGloss": "TV-Schauspieler",
          "dependent": 1,
          "dependentGloss": "Der"
        },
        {
          "dep": "amod",
          "governor": 3,
          "governorGloss": "TV-Schauspieler",
          "dependent": 2,
          "dependentGloss": "russische"
        },
        {
          "dep": "nsubj",
          "governor": 4,
          "governorGloss": "wacht",
          "dependent": 3,
          "dependentGloss": "TV-Schauspieler"
        },
        {
          "dep": "mark",
          "governor": 4,
          "governorGloss": "wacht",
          "dependent": 5,
          "dependentGloss": "auf"
        },
        {
          "dep": "punct",
          "governor": 4,
          "governorGloss": "wacht",
          "dependent": 6,
          "dependentGloss": ","
        },
        {
          "dep": "mark",
          "governor": 11,
          "governorGloss": "finden",
          "dependent": 7,
          "dependentGloss": "um"
        },
        {
          "dep": "det",
          "governor": 9,
          "governorGloss": "Hoden",
          "dependent": 8,
          "dependentGloss": "seine"
        },
        {
          "dep": "dobj",
          "governor": 11,
          "governorGloss": "finden",
          "dependent": 9,
          "dependentGloss": "Hoden"
        },
        {
          "dep": "aux",
          "governor": 11,
          "governorGloss": "finden",
          "dependent": 10,
          "dependentGloss": "zu"
        },
        {
          "dep": "advcl",
          "governor": 4,
          "governorGloss": "wacht",
          "dependent": 11,
          "dependentGloss": "finden"
        }
      ],
      "enhancedDependencies": [
        {
          "dep": "ROOT",
          "governor": 0,
          "governorGloss": "ROOT",
          "dependent": 4,
          "dependentGloss": "wacht"
        },
        {
          "dep": "det",
          "governor": 3,
          "governorGloss": "TV-Schauspieler",
          "dependent": 1,
          "dependentGloss": "Der"
        },
        {
          "dep": "amod",
          "governor": 3,
          "governorGloss": "TV-Schauspieler",
          "dependent": 2,
          "dependentGloss": "russische"
        },
        {
          "dep": "nsubj",
          "governor": 4,
          "governorGloss": "wacht",
          "dependent": 3,
          "dependentGloss": "TV-Schauspieler"
        },
        {
          "dep": "mark",
          "governor": 4,
          "governorGloss": "wacht",
          "dependent": 5,
          "dependentGloss": "auf"
        },
        {
          "dep": "punct",
          "governor": 4,
          "governorGloss": "wacht",
          "dependent": 6,
          "dependentGloss": ","
        },
        {
          "dep": "mark",
          "governor": 11,
          "governorGloss": "finden",
          "dependent": 7,
          "dependentGloss": "um"
        },
        {
          "dep": "det",
          "governor": 9,
          "governorGloss": "Hoden",
          "dependent": 8,
          "dependentGloss": "seine"
        },
        {
          "dep": "dobj",
          "governor": 11,
          "governorGloss": "finden",
          "dependent": 9,
          "dependentGloss": "Hoden"
        },
        {
          "dep": "aux",
          "governor": 11,
          "governorGloss": "finden",
          "dependent": 10,
          "dependentGloss": "zu"
        },
        {
          "dep": "advcl",
          "governor": 4,
          "governorGloss": "wacht",
          "dependent": 11,
          "dependentGloss": "finden"
        }
      ],
      "enhancedPlusPlusDependencies": [
        {
          "dep": "ROOT",
          "governor": 0,
          "governorGloss": "ROOT",
          "dependent": 4,
          "dependentGloss": "wacht"
        },
        {
          "dep": "det",
          "governor": 3,
          "governorGloss": "TV-Schauspieler",
          "dependent": 1,
          "dependentGloss": "Der"
        },
        {
          "dep": "amod",
          "governor": 3,
          "governorGloss": "TV-Schauspieler",
          "dependent": 2,
          "dependentGloss": "russische"
        },
        {
          "dep": "nsubj",
          "governor": 4,
          "governorGloss": "wacht",
          "dependent": 3,
          "dependentGloss": "TV-Schauspieler"
        },
        {
          "dep": "mark",
          "governor": 4,
          "governorGloss": "wacht",
          "dependent": 5,
          "dependentGloss": "auf"
        },
        {
          "dep": "punct",
          "governor": 4,
          "governorGloss": "wacht",
          "dependent": 6,
          "dependentGloss": ","
        },
        {
          "dep": "mark",
          "governor": 11,
          "governorGloss": "finden",
          "dependent": 7,
          "dependentGloss": "um"
        },
        {
          "dep": "det",
          "governor": 9,
          "governorGloss": "Hoden",
          "dependent": 8,
          "dependentGloss": "seine"
        },
        {
          "dep": "dobj",
          "governor": 11,
          "governorGloss": "finden",
          "dependent": 9,
          "dependentGloss": "Hoden"
        },
        {
          "dep": "aux",
          "governor": 11,
          "governorGloss": "finden",
          "dependent": 10,
          "dependentGloss": "zu"
        },
        {
          "dep": "advcl",
          "governor": 4,
          "governorGloss": "wacht",
          "dependent": 11,
          "dependentGloss": "finden"
        }
      ],
      "tokens": [
        {
          "index": 1,
          "word": "Der",
          "originalText": "Der",
          "characterOffsetBegin": 0,
          "characterOffsetEnd": 3,
          "pos": "ART",
          "before": "",
          "after": " "
        },
        {
          "index": 2,
          "word": "russische",
          "originalText": "russische",
          "characterOffsetBegin": 4,
          "characterOffsetEnd": 13,
          "pos": "ADJA",
          "before": " ",
          "after": " "
        },
        {
          "index": 3,
          "word": "TV-Schauspieler",
          "originalText": "TV-Schauspieler",
          "characterOffsetBegin": 14,
          "characterOffsetEnd": 29,
          "pos": "NN",
          "before": " ",
          "after": " "
        },
        {
          "index": 4,
          "word": "wacht",
          "originalText": "wacht",
          "characterOffsetBegin": 30,
          "characterOffsetEnd": 35,
          "pos": "VVFIN",
          "before": " ",
          "after": " "
        },
        {
          "index": 5,
          "word": "auf",
          "originalText": "auf",
          "characterOffsetBegin": 36,
          "characterOffsetEnd": 39,
          "pos": "PTKVZ",
          "before": " ",
          "after": ""
        },
        {
          "index": 6,
          "word": ",",
          "originalText": ",",
          "characterOffsetBegin": 39,
          "characterOffsetEnd": 40,
          "pos": "$,",
          "before": "",
          "after": " "
        },
        {
          "index": 7,
          "word": "um",
          "originalText": "um",
          "characterOffsetBegin": 41,
          "characterOffsetEnd": 43,
          "pos": "KOUI",
          "before": " ",
          "after": " "
        },
        {
          "index": 8,
          "word": "seine",
          "originalText": "seine",
          "characterOffsetBegin": 44,
          "characterOffsetEnd": 49,
          "pos": "PPOSAT",
          "before": " ",
          "after": " "
        },
        {
          "index": 9,
          "word": "Hoden",
          "originalText": "Hoden",
          "characterOffsetBegin": 50,
          "characterOffsetEnd": 55,
          "pos": "NN",
          "before": " ",
          "after": " "
        },
        {
          "index": 10,
          "word": "zu",
          "originalText": "zu",
          "characterOffsetBegin": 56,
          "characterOffsetEnd": 58,
          "pos": "PTKZU",
          "before": " ",
          "after": " "
        },
        {
          "index": 11,
          "word": "finden",
          "originalText": "finden",
          "characterOffsetBegin": 59,
          "characterOffsetEnd": 65,
          "pos": "VVINF",
          "before": " ",
          "after": ""
        }
      ]
    }
  ]
}