{
  "sentences": [
    {
      "index": 0,
      "basicDependencies": [
        {
          "dep": "ROOT",
          "governor": 0,
          "governorGloss": "ROOT",
          "dependent": 2,
          "dependentGloss": "Syrien"
        },
        {
          "dep": "nsubj",
          "governor": 2,
          "governorGloss": "Syrien",
          "dependent": 1,
          "dependentGloss": "Isis"
        },
        {
          "dep": "dobj",
          "governor": 2,
          "governorGloss": "Syrien",
          "dependent": 3,
          "dependentGloss": "Nachrichten"
        },
        {
          "dep": "punct",
          "governor": 3,
          "governorGloss": "Nachrichten",
          "dependent": 4,
          "dependentGloss": ":"
        },
        {
          "dep": "nsubj",
          "governor": 6,
          "governorGloss": "zeigt",
          "dependent": 5,
          "dependentGloss": "Video"
        },
        {
          "dep": "parataxis",
          "governor": 3,
          "governorGloss": "Nachrichten",
          "dependent": 6,
          "dependentGloss": "zeigt"
        },
        {
          "dep": "nmod",
          "governor": 6,
          "governorGloss": "zeigt",
          "dependent": 7,
          "dependentGloss": "US"
        },
        {
          "dep": "amod",
          "governor": 9,
          "governorGloss": "Waffen",
          "dependent": 8,
          "dependentGloss": "Airdropped"
        },
        {
          "dep": "root",
          "governor": 7,
          "governorGloss": "US",
          "dependent": 9,
          "dependentGloss": "Waffen"
        },
        {
          "dep": "cc",
          "governor": 9,
          "governorGloss": "Waffen",
          "dependent": 10,
          "dependentGloss": "und"
        },
        {
          "dep": "conj",
          "governor": 9,
          "governorGloss": "Waffen",
          "dependent": 11,
          "dependentGloss": "Granaten"
        },
        {
          "dep": "punct",
          "governor": 9,
          "governorGloss": "Waffen",
          "dependent": 12,
          "dependentGloss": "`"
        },
        {
          "dep": "root",
          "governor": 12,
          "governorGloss": "`",
          "dependent": 13,
          "dependentGloss": "gefangen"
        },
        {
          "dep": "case",
          "governor": 16,
          "governorGloss": "Staat",
          "dependent": 14,
          "dependentGloss": "von"
        },
        {
          "dep": "amod",
          "governor": 16,
          "governorGloss": "Staat",
          "dependent": 15,
          "dependentGloss": "islamischen"
        },
        {
          "dep": "nmod",
          "governor": 13,
          "governorGloss": "gefangen",
          "dependent": 16,
          "dependentGloss": "Staat"
        },
        {
          "dep": "case",
          "governor": 13,
          "governorGloss": "gefangen",
          "dependent": 17,
          "dependentGloss": "'"
        }
      ],
      "enhancedDependencies": [
        {
          "dep": "ROOT",
          "governor": 0,
          "governorGloss": "ROOT",
          "dependent": 2,
          "dependentGloss": "Syrien"
        },
        {
          "dep": "nsubj",
          "governor": 2,
          "governorGloss": "Syrien",
          "dependent": 1,
          "dependentGloss": "Isis"
        },
        {
          "dep": "dobj",
          "governor": 2,
          "governorGloss": "Syrien",
          "dependent": 3,
          "dependentGloss": "Nachrichten"
        },
        {
          "dep": "punct",
          "governor": 3,
          "governorGloss": "Nachrichten",
          "dependent": 4,
          "dependentGloss": ":"
        },
        {
          "dep": "nsubj",
          "governor": 6,
          "governorGloss": "zeigt",
          "dependent": 5,
          "dependentGloss": "Video"
        },
        {
          "dep": "parataxis",
          "governor": 3,
          "governorGloss": "Nachrichten",
          "dependent": 6,
          "dependentGloss": "zeigt"
        },
        {
          "dep": "nmod",
          "governor": 6,
          "governorGloss": "zeigt",
          "dependent": 7,
          "dependentGloss": "US"
        },
        {
          "dep": "amod",
          "governor": 9,
          "governorGloss": "Waffen",
          "dependent": 8,
          "dependentGloss": "Airdropped"
        },
        {
          "dep": "root",
          "governor": 7,
          "governorGloss": "US",
          "dependent": 9,
          "dependentGloss": "Waffen"
        },
        {
          "dep": "cc",
          "governor": 9,
          "governorGloss": "Waffen",
          "dependent": 10,
          "dependentGloss": "und"
        },
        {
          "dep": "root",
          "governor": 7,
          "governorGloss": "US",
          "dependent": 11,
          "dependentGloss": "Granaten"
        },
        {
          "dep": "conj:und",
          "governor": 9,
          "governorGloss": "Waffen",
          "dependent": 11,
          "dependentGloss": "Granaten"
        },
        {
          "dep": "punct",
          "governor": 9,
          "governorGloss": "Waffen",
          "dependent": 12,
          "dependentGloss": "`"
        },
        {
          "dep": "root",
          "governor": 12,
          "governorGloss": "`",
          "dependent": 13,
          "dependentGloss": "gefangen"
        },
        {
          "dep": "case",
          "governor": 16,
          "governorGloss": "Staat",
          "dependent": 14,
          "dependentGloss": "von"
        },
        {
          "dep": "amod",
          "governor": 16,
          "governorGloss": "Staat",
          "dependent": 15,
          "dependentGloss": "islamischen"
        },
        {
          "dep": "nmod",
          "governor": 13,
          "governorGloss": "gefangen",
          "dependent": 16,
          "dependentGloss": "Staat"
        },
        {
          "dep": "case",
          "governor": 13,
          "governorGloss": "gefangen",
          "dependent": 17,
          "dependentGloss": "'"
        }
      ],
      "enhancedPlusPlusDependencies": [
        {
          "dep": "ROOT",
          "governor": 0,
          "governorGloss": "ROOT",
          "dependent": 2,
          "dependentGloss": "Syrien"
        },
        {
          "dep": "nsubj",
          "governor": 2,
          "governorGloss": "Syrien",
          "dependent": 1,
          "dependentGloss": "Isis"
        },
        {
          "dep": "dobj",
          "governor": 2,
          "governorGloss": "Syrien",
          "dependent": 3,
          "dependentGloss": "Nachrichten"
        },
        {
          "dep": "punct",
          "governor": 3,
          "governorGloss": "Nachrichten",
          "dependent": 4,
          "dependentGloss": ":"
        },
        {
          "dep": "nsubj",
          "governor": 6,
          "governorGloss": "zeigt",
          "dependent": 5,
          "dependentGloss": "Video"
        },
        {
          "dep": "parataxis",
          "governor": 3,
          "governorGloss": "Nachrichten",
          "dependent": 6,
          "dependentGloss": "zeigt"
        },
        {
          "dep": "nmod",
          "governor": 6,
          "governorGloss": "zeigt",
          "dependent": 7,
          "dependentGloss": "US"
        },
        {
          "dep": "amod",
          "governor": 9,
          "governorGloss": "Waffen",
          "dependent": 8,
          "dependentGloss": "Airdropped"
        },
        {
          "dep": "root",
          "governor": 7,
          "governorGloss": "US",
          "dependent": 9,
          "dependentGloss": "Waffen"
        },
        {
          "dep": "cc",
          "governor": 9,
          "governorGloss": "Waffen",
          "dependent": 10,
          "dependentGloss": "und"
        },
        {
          "dep": "root",
          "governor": 7,
          "governorGloss": "US",
          "dependent": 11,
          "dependentGloss": "Granaten"
        },
        {
          "dep": "conj:und",
          "governor": 9,
          "governorGloss": "Waffen",
          "dependent": 11,
          "dependentGloss": "Granaten"
        },
        {
          "dep": "punct",
          "governor": 9,
          "governorGloss": "Waffen",
          "dependent": 12,
          "dependentGloss": "`"
        },
        {
          "dep": "root",
          "governor": 12,
          "governorGloss": "`",
          "dependent": 13,
          "dependentGloss": "gefangen"
        },
        {
          "dep": "case",
          "governor": 16,
          "governorGloss": "Staat",
          "dependent": 14,
          "dependentGloss": "von"
        },
        {
          "dep": "amod",
          "governor": 16,
          "governorGloss": "Staat",
          "dependent": 15,
          "dependentGloss": "islamischen"
        },
        {
          "dep": "nmod",
          "governor": 13,
          "governorGloss": "gefangen",
          "dependent": 16,
          "dependentGloss": "Staat"
        },
        {
          "dep": "case",
          "governor": 13,
          "governorGloss": "gefangen",
          "dependent": 17,
          "dependentGloss": "'"
        }
      ],
      "tokens": [
        {
          "index": 1,
          "word": "Isis",
          "originalText": "Isis",
          "characterOffsetBegin": 0,
          "characterOffsetEnd": 4,
          "pos": "NE",
          "before": "",
          "after": " "
        },
        {
          "index": 2,
          "word": "Syrien",
          "originalText": "Syrien",
          "characterOffsetBegin": 5,
          "characterOffsetEnd": 11,
          "pos": "NE",
          "before": " ",
          "after": " "
        },
        {
          "index": 3,
          "word": "Nachrichten",
          "originalText": "Nachrichten",
          "characterOffsetBegin": 12,
          "characterOffsetEnd": 23,
          "pos": "NN",
          "before": " ",
          "after": ""
        },
        {
          "index": 4,
          "word": ":",
          "originalText": ":",
          "characterOffsetBegin": 23,
          "characterOffsetEnd": 24,
          "pos": "$.",
          "before": "",
          "after": " "
        },
        {
          "index": 5,
          "word": "Video",
          "originalText": "Video",
          "characterOffsetBegin": 25,
          "characterOffsetEnd": 30,
          "pos": "NN",
          "before": " ",
          "after": " "
        },
        {
          "index": 6,
          "word": "zeigt",
          "originalText": "zeigt",
          "characterOffsetBegin": 31,
          "characterOffsetEnd": 36,
          "pos": "VVFIN",
          "before": " ",
          "after": " "
        },
        {
          "index": 7,
          "word": "US",
          "originalText": "US",
          "characterOffsetBegin": 37,
          "characterOffsetEnd": 39,
          "pos": "NE",
          "before": " ",
          "after": " "
        },
        {
          "index": 8,
          "word": "Airdropped",
          "originalText": "Airdropped",
          "characterOffsetBegin": 40,
          "characterOffsetEnd": 50,
          "pos": "NE",
          "before": " ",
          "after": " "
        },
        {
          "index": 9,
          "word": "Waffen",
          "originalText": "Waffen",
          "characterOffsetBegin": 51,
          "characterOffsetEnd": 57,
          "pos": "NN",
          "before": " ",
          "after": " "
        },
        {
          "index": 10,
          "word": "und",
          "originalText": "und",
          "characterOffsetBegin": 58,
          "characterOffsetEnd": 61,
          "pos": "KON",
          "before": " ",
          "after": " "
        },
        {
          "index": 11,
          "word": "Granaten",
          "originalText": "Granaten",
          "characterOffsetBegin": 62,
          "characterOffsetEnd": 70,
          "pos": "NN",
          "before": " ",
          "after": " "
        },
        {
          "index": 12,
          "word": "`",
          "originalText": "'",
          "characterOffsetBegin": 71,
          "characterOffsetEnd": 72,
          "pos": "CARD",
          "before": " ",
          "after": ""
        },
        {
          "index": 13,
          "word": "gefangen",
          "originalText": "gefangen",
          "characterOffsetBegin": 72,
          "characterOffsetEnd": 80,
          "pos": "VVPP",
          "before": "",
          "after": " "
        },
        {
          "index": 14,
          "word": "von",
          "originalText": "von",
          "characterOffsetBegin": 81,
          "characterOffsetEnd": 84,
          "pos": "APPR",
          "before": " ",
          "after": " "
        },
        {
          "index": 15,
          "word": "islamischen",
          "originalText": "islamischen",
          "characterOffsetBegin": 85,
          "characterOffsetEnd": 96,
          "pos": "ADJA",
          "before": " ",
          "after": " "
        },
        {
          "index": 16,
          "word": "Staat",
          "originalText": "Staat",
          "characterOffsetBegin": 97,
          "characterOffsetEnd": 102,
          "pos": "NN",
          "before": " ",
          "after": ""
        },
        {
          "index": 17,
          "word": "'",
          "originalText": "'",
          "characterOffsetBegin": 102,
          "characterOffsetEnd": 103,
          "pos": "$[",
          "before": "",
          "after": ""
        }
      ]
    }
  ]
}