{
  "sentences": [
    {
      "index": 0,
      "basicDependencies": [
        {
          "dep": "ROOT",
          "governor": 0,
          "governorGloss": "ROOT",
          "dependent": 8,
          "dependentGloss": "reagiert"
        },
        {
          "dep": "advmod",
          "governor": 8,
          "governorGloss": "reagiert",
          "dependent": 1,
          "dependentGloss": "Nein"
        },
        {
          "dep": "punct",
          "governor": 1,
          "governorGloss": "Nein",
          "dependent": 2,
          "dependentGloss": "-"
        },
        {
          "dep": "det",
          "governor": 5,
          "governorGloss": "News",
          "dependent": 3,
          "dependentGloss": "ein"
        },
        {
          "dep": "name",
          "governor": 5,
          "governorGloss": "News",
          "dependent": 4,
          "dependentGloss": "Fox"
        },
        {
          "dep": "nsubj",
          "governor": 8,
          "governorGloss": "reagiert",
          "dependent": 5,
          "dependentGloss": "News"
        },
        {
          "dep": "amod",
          "governor": 7,
          "governorGloss": "Account",
          "dependent": 6,
          "dependentGloss": "Twitter"
        },
        {
          "dep": "nsubj",
          "governor": 8,
          "governorGloss": "reagiert",
          "dependent": 7,
          "dependentGloss": "Account"
        },
        {
          "dep": "neg",
          "governor": 8,
          "governorGloss": "reagiert",
          "dependent": 9,
          "dependentGloss": "nicht"
        },
        {
          "dep": "case",
          "governor": 11,
          "governorGloss": "Tweets",
          "dependent": 10,
          "dependentGloss": "auf"
        },
        {
          "dep": "nmod",
          "governor": 8,
          "governorGloss": "reagiert",
          "dependent": 11,
          "dependentGloss": "Tweets"
        },
        {
          "dep": "case",
          "governor": 14,
          "governorGloss": "#FoxNewsFacts",
          "dependent": 12,
          "dependentGloss": "auf"
        },
        {
          "dep": "det",
          "governor": 14,
          "governorGloss": "#FoxNewsFacts",
          "dependent": 13,
          "dependentGloss": "dem"
        },
        {
          "dep": "nmod",
          "governor": 8,
          "governorGloss": "reagiert",
          "dependent": 14,
          "dependentGloss": "#FoxNewsFacts"
        },
        {
          "dep": "advmod",
          "governor": 8,
          "governorGloss": "reagiert",
          "dependent": 15,
          "dependentGloss": "hashtag"
        }
      ],
      "enhancedDependencies": [
        {
          "dep": "ROOT",
          "governor": 0,
          "governorGloss": "ROOT",
          "dependent": 8,
          "dependentGloss": "reagiert"
        },
        {
          "dep": "advmod",
          "governor": 8,
          "governorGloss": "reagiert",
          "dependent": 1,
          "dependentGloss": "Nein"
        },
        {
          "dep": "punct",
          "governor": 1,
          "governorGloss": "Nein",
          "dependent": 2,
          "dependentGloss": "-"
        },
        {
          "dep": "det",
          "governor": 5,
          "governorGloss": "News",
          "dependent": 3,
          "dependentGloss": "ein"
        },
        {
          "dep": "name",
          "governor": 5,
          "governorGloss": "News",
          "dependent": 4,
          "dependentGloss": "Fox"
        },
        {
          "dep": "nsubj",
          "governor": 8,
          "governorGloss": "reagiert",
          "dependent": 5,
          "dependentGloss": "News"
        },
        {
          "dep": "amod",
          "governor": 7,
          "governorGloss": "Account",
          "dependent": 6,
          "dependentGloss": "Twitter"
        },
        {
          "dep": "nsubj",
          "governor": 8,
          "governorGloss": "reagiert",
          "dependent": 7,
          "dependentGloss": "Account"
        },
        {
          "dep": "neg",
          "governor": 8,
          "governorGloss": "reagiert",
          "dependent": 9,
          "dependentGloss": "nicht"
        },
        {
          "dep": "case",
          "governor": 11,
          "governorGloss": "Tweets",
          "dependent": 10,
          "dependentGloss": "auf"
        },
        {
          "dep": "nmod",
          "governor": 8,
          "governorGloss": "reagiert",
          "dependent": 11,
          "dependentGloss": "Tweets"
        },
        {
          "dep": "case",
          "governor": 14,
          "governorGloss": "#FoxNewsFacts",
          "dependent": 12,
          "dependentGloss": "auf"
        },
        {
          "dep": "det",
          "governor": 14,
          "governorGloss": "#FoxNewsFacts",
          "dependent": 13,
          "dependentGloss": "dem"
        },
        {
          "dep": "nmod",
          "governor": 8,
          "governorGloss": "reagiert",
          "dependent": 14,
          "dependentGloss": "#FoxNewsFacts"
        },
        {
          "dep": "advmod",
          "governor": 8,
          "governorGloss": "reagiert",
          "dependent": 15,
          "dependentGloss": "hashtag"
        }
      ],
      "enhancedPlusPlusDependencies": [
        {
          "dep": "ROOT",
          "governor": 0,
          "governorGloss": "ROOT",
          "dependent": 8,
          "dependentGloss": "reagiert"
        },
        {
          "dep": "advmod",
          "governor": 8,
          "governorGloss": "reagiert",
          "dependent": 1,
          "dependentGloss": "Nein"
        },
        {
          "dep": "punct",
          "governor": 1,
          "governorGloss": "Nein",
          "dependent": 2,
          "dependentGloss": "-"
        },
        {
          "dep": "det",
          "governor": 5,
          "governorGloss": "News",
          "dependent": 3,
          "dependentGloss": "ein"
        },
        {
          "dep": "name",
          "governor": 5,
          "governorGloss": "News",
          "dependent": 4,
          "dependentGloss": "Fox"
        },
        {
          "dep": "nsubj",
          "governor": 8,
          "governorGloss": "reagiert",
          "dependent": 5,
          "dependentGloss": "News"
        },
        {
          "dep": "amod",
          "governor": 7,
          "governorGloss": "Account",
          "dependent": 6,
          "dependentGloss": "Twitter"
        },
        {
          "dep": "nsubj",
          "governor": 8,
          "governorGloss": "reagiert",
          "dependent": 7,
          "dependentGloss": "Account"
        },
        {
          "dep": "neg",
          "governor": 8,
          "governorGloss": "reagiert",
          "dependent": 9,
          "dependentGloss": "nicht"
        },
        {
          "dep": "case",
          "governor": 11,
          "governorGloss": "Tweets",
          "dependent": 10,
          "dependentGloss": "auf"
        },
        {
          "dep": "nmod",
          "governor": 8,
          "governorGloss": "reagiert",
          "dependent": 11,
          "dependentGloss": "Tweets"
        },
        {
          "dep": "case",
          "governor": 14,
          "governorGloss": "#FoxNewsFacts",
          "dependent": 12,
          "dependentGloss": "auf"
        },
        {
          "dep": "det",
          "governor": 14,
          "governorGloss": "#FoxNewsFacts",
          "dependent": 13,
          "dependentGloss": "dem"
        },
        {
          "dep": "nmod",
          "governor": 8,
          "governorGloss": "reagiert",
          "dependent": 14,
          "dependentGloss": "#FoxNewsFacts"
        },
        {
          "dep": "advmod",
          "governor": 8,
          "governorGloss": "reagiert",
          "dependent": 15,
          "dependentGloss": "hashtag"
        }
      ],
      "tokens": [
        {
          "index": 1,
          "word": "Nein",
          "originalText": "Nein",
          "characterOffsetBegin": 0,
          "characterOffsetEnd": 4,
          "pos": "PTKANT",
          "before": "",
          "after": " "
        },
        {
          "index": 2,
          "word": "-",
          "originalText": "-",
          "characterOffsetBegin": 5,
          "characterOffsetEnd": 6,
          "pos": "$[",
          "before": " ",
          "after": " "
        },
        {
          "index": 3,
          "word": "ein",
          "originalText": "ein",
          "characterOffsetBegin": 7,
          "characterOffsetEnd": 10,
          "pos": "ART",
          "before": " ",
          "after": " "
        },
        {
          "index": 4,
          "word": "Fox",
          "originalText": "Fox",
          "characterOffsetBegin": 11,
          "characterOffsetEnd": 14,
          "pos": "NE",
          "before": " ",
          "after": " "
        },
        {
          "index": 5,
          "word": "News",
          "originalText": "News",
          "characterOffsetBegin": 15,
          "characterOffsetEnd": 19,
          "pos": "FM",
          "before": " ",
          "after": " "
        },
        {
          "index": 6,
          "word": "Twitter",
          "originalText": "Twitter",
          "characterOffsetBegin": 20,
          "characterOffsetEnd": 27,
          "pos": "NE",
          "before": " ",
          "after": " "
        },
        {
          "index": 7,
          "word": "Account",
          "originalText": "Account",
          "characterOffsetBegin": 28,
          "characterOffsetEnd": 35,
          "pos": "FM",
          "before": " ",
          "after": " "
        },
        {
          "index": 8,
          "word": "reagiert",
          "originalText": "reagiert",
          "characterOffsetBegin": 36,
          "characterOffsetEnd": 44,
          "pos": "VVFIN",
          "before": " ",
          "after": " "
        },
        {
          "index": 9,
          "word": "nicht",
          "originalText": "nicht",
          "characterOffsetBegin": 45,
          "characterOffsetEnd": 50,
          "pos": "PTKNEG",
          "before": " ",
          "after": " "
        },
        {
          "index": 10,
          "word": "auf",
          "originalText": "auf",
          "characterOffsetBegin": 51,
          "characterOffsetEnd": 54,
          "pos": "APPR",
          "before": " ",
          "after": " "
        },
        {
          "index": 11,
          "word": "Tweets",
          "originalText": "Tweets",
          "characterOffsetBegin": 55,
          "characterOffsetEnd": 61,
          "pos": "NN",
          "before": " ",
          "after": " "
        },
        {
          "index": 12,
          "word": "auf",
          "originalText": "auf",
          "characterOffsetBegin": 62,
          "characterOffsetEnd": 65,
          "pos": "APPR",
          "before": " ",
          "after": " "
        },
        {
          "index": 13,
          "word": "dem",
          "originalText": "dem",
          "characterOffsetBegin": 66,
          "characterOffsetEnd": 69,
          "pos": "ART",
          "before": " ",
          "after": " "
        },
        {
          "index": 14,
          "word": "#FoxNewsFacts",
          "originalText": "#FoxNewsFacts",
          "characterOffsetBegin": 70,
          "characterOffsetEnd": 83,
          "pos": "NN",
          "before": " ",
          "after": " "
        },
        {
          "index": 15,
          "word": "hashtag",
          "originalText": "hashtag",
          "characterOffsetBegin": 84,
          "characterOffsetEnd": 91,
          "pos": "ADJD",
          "before": " ",
          "after": ""
        }
      ]
    }
  ]
}