{
  "sentences": [
    {
      "index": 0,
      "basicDependencies": [
        {
          "dep": "ROOT",
          "governor": 0,
          "governorGloss": "ROOT",
          "dependent": 6,
          "dependentGloss": "kroch"
        },
        {
          "dep": "advmod",
          "governor": 4,
          "governorGloss": "gegraben",
          "dependent": 1,
          "dependentGloss": "Spinne"
        },
        {
          "dep": "case",
          "governor": 3,
          "governorGloss": "Appendix-Narbe",
          "dependent": 2,
          "dependentGloss": "in"
        },
        {
          "dep": "nmod",
          "governor": 4,
          "governorGloss": "gegraben",
          "dependent": 3,
          "dependentGloss": "Appendix-Narbe"
        },
        {
          "dep": "csubj",
          "governor": 6,
          "governorGloss": "kroch",
          "dependent": 4,
          "dependentGloss": "gegraben"
        },
        {
          "dep": "punct",
          "governor": 6,
          "governorGloss": "kroch",
          "dependent": 5,
          "dependentGloss": ","
        },
        {
          "dep": "case",
          "governor": 9,
          "governorGloss": "Körper",
          "dependent": 7,
          "dependentGloss": "durch"
        },
        {
          "dep": "det",
          "governor": 9,
          "governorGloss": "Körper",
          "dependent": 8,
          "dependentGloss": "den"
        },
        {
          "dep": "nmod",
          "governor": 6,
          "governorGloss": "kroch",
          "dependent": 9,
          "dependentGloss": "Körper"
        },
        {
          "dep": "det",
          "governor": 11,
          "governorGloss": "WA-Mannes",
          "dependent": 10,
          "dependentGloss": "des"
        },
        {
          "dep": "det",
          "governor": 9,
          "governorGloss": "Körper",
          "dependent": 11,
          "dependentGloss": "WA-Mannes"
        }
      ],
      "enhancedDependencies": [
        {
          "dep": "ROOT",
          "governor": 0,
          "governorGloss": "ROOT",
          "dependent": 6,
          "dependentGloss": "kroch"
        },
        {
          "dep": "advmod",
          "governor": 4,
          "governorGloss": "gegraben",
          "dependent": 1,
          "dependentGloss": "Spinne"
        },
        {
          "dep": "case",
          "governor": 3,
          "governorGloss": "Appendix-Narbe",
          "dependent": 2,
          "dependentGloss": "in"
        },
        {
          "dep": "nmod",
          "governor": 4,
          "governorGloss": "gegraben",
          "dependent": 3,
          "dependentGloss": "Appendix-Narbe"
        },
        {
          "dep": "csubj",
          "governor": 6,
          "governorGloss": "kroch",
          "dependent": 4,
          "dependentGloss": "gegraben"
        },
        {
          "dep": "punct",
          "governor": 6,
          "governorGloss": "kroch",
          "dependent": 5,
          "dependentGloss": ","
        },
        {
          "dep": "case",
          "governor": 9,
          "governorGloss": "Körper",
          "dependent": 7,
          "dependentGloss": "durch"
        },
        {
          "dep": "det",
          "governor": 9,
          "governorGloss": "Körper",
          "dependent": 8,
          "dependentGloss": "den"
        },
        {
          "dep": "nmod",
          "governor": 6,
          "governorGloss": "kroch",
          "dependent": 9,
          "dependentGloss": "Körper"
        },
        {
          "dep": "det",
          "governor": 11,
          "governorGloss": "WA-Mannes",
          "dependent": 10,
          "dependentGloss": "des"
        },
        {
          "dep": "det",
          "governor": 9,
          "governorGloss": "Körper",
          "dependent": 11,
          "dependentGloss": "WA-Mannes"
        }
      ],
      "enhancedPlusPlusDependencies": [
        {
          "dep": "ROOT",
          "governor": 0,
          "governorGloss": "ROOT",
          "dependent": 6,
          "dependentGloss": "kroch"
        },
        {
          "dep": "advmod",
          "governor": 4,
          "governorGloss": "gegraben",
          "dependent": 1,
          "dependentGloss": "Spinne"
        },
        {
          "dep": "case",
          "governor": 3,
          "governorGloss": "Appendix-Narbe",
          "dependent": 2,
          "dependentGloss": "in"
        },
        {
          "dep": "nmod",
          "governor": 4,
          "governorGloss": "gegraben",
          "dependent": 3,
          "dependentGloss": "Appendix-Narbe"
        },
        {
          "dep": "csubj",
          "governor": 6,
          "governorGloss": "kroch",
          "dependent": 4,
          "dependentGloss": "gegraben"
        },
        {
          "dep": "punct",
          "governor": 6,
          "governorGloss": "kroch",
          "dependent": 5,
          "dependentGloss": ","
        },
        {
          "dep": "case",
          "governor": 9,
          "governorGloss": "Körper",
          "dependent": 7,
          "dependentGloss": "durch"
        },
        {
          "dep": "det",
          "governor": 9,
          "governorGloss": "Körper",
          "dependent": 8,
          "dependentGloss": "den"
        },
        {
          "dep": "nmod",
          "governor": 6,
          "governorGloss": "kroch",
          "dependent": 9,
          "dependentGloss": "Körper"
        },
        {
          "dep": "det",
          "governor": 11,
          "governorGloss": "WA-Mannes",
          "dependent": 10,
          "dependentGloss": "des"
        },
        {
          "dep": "det",
          "governor": 9,
          "governorGloss": "Körper",
          "dependent": 11,
          "dependentGloss": "WA-Mannes"
        }
      ],
      "tokens": [
        {
          "index": 1,
          "word": "Spinne",
          "originalText": "Spinne",
          "characterOffsetBegin": 0,
          "characterOffsetEnd": 6,
          "pos": "NN",
          "before": "",
          "after": " "
        },
        {
          "index": 2,
          "word": "in",
          "originalText": "in",
          "characterOffsetBegin": 7,
          "characterOffsetEnd": 9,
          "pos": "APPR",
          "before": " ",
          "after": " "
        },
        {
          "index": 3,
          "word": "Appendix-Narbe",
          "originalText": "Appendix-Narbe",
          "characterOffsetBegin": 10,
          "characterOffsetEnd": 24,
          "pos": "NN",
          "before": " ",
          "after": " "
        },
        {
          "index": 4,
          "word": "gegraben",
          "originalText": "gegraben",
          "characterOffsetBegin": 25,
          "characterOffsetEnd": 33,
          "pos": "VVPP",
          "before": " ",
          "after": ""
        },
        {
          "index": 5,
          "word": ",",
          "originalText": ",",
          "characterOffsetBegin": 33,
          "characterOffsetEnd": 34,
          "pos": "$,",
          "before": "",
          "after": " "
        },
        {
          "index": 6,
          "word": "kroch",
          "originalText": "kroch",
          "characterOffsetBegin": 35,
          "characterOffsetEnd": 40,
          "pos": "VVFIN",
          "before": " ",
          "after": " "
        },
        {
          "index": 7,
          "word": "durch",
          "originalText": "durch",
          "characterOffsetBegin": 41,
          "characterOffsetEnd": 46,
          "pos": "APPR",
          "before": " ",
          "after": " "
        },
        {
          "index": 8,
          "word": "den",
          "originalText": "den",
          "characterOffsetBegin": 47,
          "characterOffsetEnd": 50,
          "pos": "ART",
          "before": " ",
          "after": " "
        },
        {
          "index": 9,
          "word": "Körper",
          "originalText": "Körper",
          "characterOffsetBegin": 51,
          "characterOffsetEnd": 57,
          "pos": "NN",
          "before": " ",
          "after": " "
        },
        {
          "index": 10,
          "word": "des",
          "originalText": "des",
          "characterOffsetBegin": 58,
          "characterOffsetEnd": 61,
          "pos": "ART",
          "before": " ",
          "after": " "
        },
        {
          "index": 11,
          "word": "WA-Mannes",
          "originalText": "WA-Mannes",
          "characterOffsetBegin": 62,
          "characterOffsetEnd": 71,
          "pos": "NN",
          "before": " ",
          "after": ""
        }
      ]
    }
  ]
}