{
  "sentences": [
    {
      "index": 0,
      "basicDependencies": [
        {
          "dep": "ROOT",
          "governor": 0,
          "governorGloss": "ROOT",
          "dependent": 2,
          "dependentGloss": "NEWS"
        },
        {
          "dep": "name",
          "governor": 2,
          "governorGloss": "NEWS",
          "dependent": 1,
          "dependentGloss": "BREAKING"
        },
        {
          "dep": "punct",
          "governor": 2,
          "governorGloss": "NEWS",
          "dependent": 3,
          "dependentGloss": ":"
        },
        {
          "dep": "name",
          "governor": 6,
          "governorGloss": "Canseco",
          "dependent": 4,
          "dependentGloss": "Baseball-Star"
        },
        {
          "dep": "name",
          "governor": 6,
          "governorGloss": "Canseco",
          "dependent": 5,
          "dependentGloss": "Jose"
        },
        {
          "dep": "nsubj",
          "governor": 7,
          "governorGloss": "verletzt",
          "dependent": 6,
          "dependentGloss": "Canseco"
        },
        {
          "dep": "parataxis",
          "governor": 2,
          "governorGloss": "NEWS",
          "dependent": 7,
          "dependentGloss": "verletzt"
        },
        {
          "dep": "amod",
          "governor": 9,
          "governorGloss": "versehentlichen",
          "dependent": 8,
          "dependentGloss": "im"
        },
        {
          "dep": "dobj",
          "governor": 7,
          "governorGloss": "verletzt",
          "dependent": 9,
          "dependentGloss": "versehentlichen"
        },
        {
          "dep": "punct",
          "governor": 2,
          "governorGloss": "NEWS",
          "dependent": 10,
          "dependentGloss": "Schießen"
        }
      ],
      "enhancedDependencies": [
        {
          "dep": "ROOT",
          "governor": 0,
          "governorGloss": "ROOT",
          "dependent": 2,
          "dependentGloss": "NEWS"
        },
        {
          "dep": "name",
          "governor": 2,
          "governorGloss": "NEWS",
          "dependent": 1,
          "dependentGloss": "BREAKING"
        },
        {
          "dep": "punct",
          "governor": 2,
          "governorGloss": "NEWS",
          "dependent": 3,
          "dependentGloss": ":"
        },
        {
          "dep": "name",
          "governor": 6,
          "governorGloss": "Canseco",
          "dependent": 4,
          "dependentGloss": "Baseball-Star"
        },
        {
          "dep": "name",
          "governor": 6,
          "governorGloss": "Canseco",
          "dependent": 5,
          "dependentGloss": "Jose"
        },
        {
          "dep": "nsubj",
          "governor": 7,
          "governorGloss": "verletzt",
          "dependent": 6,
          "dependentGloss": "Canseco"
        },
        {
          "dep": "parataxis",
          "governor": 2,
          "governorGloss": "NEWS",
          "dependent": 7,
          "dependentGloss": "verletzt"
        },
        {
          "dep": "amod",
          "governor": 9,
          "governorGloss": "versehentlichen",
          "dependent": 8,
          "dependentGloss": "im"
        },
        {
          "dep": "dobj",
          "governor": 7,
          "governorGloss": "verletzt",
          "dependent": 9,
          "dependentGloss": "versehentlichen"
        },
        {
          "dep": "punct",
          "governor": 2,
          "governorGloss": "NEWS",
          "dependent": 10,
          "dependentGloss": "Schießen"
        }
      ],
      "enhancedPlusPlusDependencies": [
        {
          "dep": "ROOT",
          "governor": 0,
          "governorGloss": "ROOT",
          "dependent": 2,
          "dependentGloss": "NEWS"
        },
        {
          "dep": "name",
          "governor": 2,
          "governorGloss": "NEWS",
          "dependent": 1,
          "dependentGloss": "BREAKING"
        },
        {
          "dep": "punct",
          "governor": 2,
          "governorGloss": "NEWS",
          "dependent": 3,
          "dependentGloss": ":"
        },
        {
          "dep": "name",
          "governor": 6,
          "governorGloss": "Canseco",
          "dependent": 4,
          "dependentGloss": "Baseball-Star"
        },
        {
          "dep": "name",
          "governor": 6,
          "governorGloss": "Canseco",
          "dependent": 5,
          "dependentGloss": "Jose"
        },
        {
          "dep": "nsubj",
          "governor": 7,
          "governorGloss": "verletzt",
          "dependent": 6,
          "dependentGloss": "Canseco"
        },
        {
          "dep": "parataxis",
          "governor": 2,
          "governorGloss": "NEWS",
          "dependent": 7,
          "dependentGloss": "verletzt"
        },
        {
          "dep": "amod",
          "governor": 9,
          "governorGloss": "versehentlichen",
          "dependent": 8,
          "dependentGloss": "im"
        },
        {
          "dep": "dobj",
          "governor": 7,
          "governorGloss": "verletzt",
          "dependent": 9,
          "dependentGloss": "versehentlichen"
        },
        {
          "dep": "punct",
          "governor": 2,
          "governorGloss": "NEWS",
          "dependent": 10,
          "dependentGloss": "Schießen"
        }
      ],
      "tokens": [
        {
          "index": 1,
          "word": "BREAKING",
          "originalText": "BREAKING",
          "characterOffsetBegin": 0,
          "characterOffsetEnd": 8,
          "pos": "NE",
          "before": "",
          "after": " "
        },
        {
          "index": 2,
          "word": "NEWS",
          "originalText": "NEWS",
          "characterOffsetBegin": 9,
          "characterOffsetEnd": 13,
          "pos": "NE",
          "before": " ",
          "after": ""
        },
        {
          "index": 3,
          "word": ":",
          "originalText": ":",
          "characterOffsetBegin": 13,
          "characterOffsetEnd": 14,
          "pos": "$.",
          "before": "",
          "after": " "
        },
        {
          "index": 4,
          "word": "Baseball-Star",
          "originalText": "Baseball-Star",
          "characterOffsetBegin": 15,
          "characterOffsetEnd": 28,
          "pos": "NE",
          "before": " ",
          "after": " "
        },
        {
          "index": 5,
          "word": "Jose",
          "originalText": "Jose",
          "characterOffsetBegin": 29,
          "characterOffsetEnd": 33,
          "pos": "NE",
          "before": " ",
          "after": " "
        },
        {
          "index": 6,
          "word": "Canseco",
          "originalText": "Canseco",
          "characterOffsetBegin": 34,
          "characterOffsetEnd": 41,
          "pos": "NE",
          "before": " ",
          "after": " "
        },
        {
          "index": 7,
          "word": "verletzt",
          "originalText": "verletzt",
          "characterOffsetBegin": 42,
          "characterOffsetEnd": 50,
          "pos": "VVPP",
          "before": " ",
          "after": " "
        },
        {
          "index": 8,
          "word": "im",
          "originalText": "im",
          "characterOffsetBegin": 51,
          "characterOffsetEnd": 53,
          "pos": "APPRART",
          "before": " ",
          "after": " "
        },
        {
          "index": 9,
          "word": "versehentlichen",
          "originalText": "versehentlichen",
          "characterOffsetBegin": 54,
          "characterOffsetEnd": 69,
          "pos": "ADJA",
          "before": " ",
          "after": " "
        },
        {
          "index": 10,
          "word": "Schießen",
          "originalText": "Schießen",
          "characterOffsetBegin": 70,
          "characterOffsetEnd": 78,
          "pos": "VVINF",
          "before": " ",
          "after": ""
        }
      ]
    }
  ]
}