{
  "sentences": [
    {
      "index": 0,
      "basicDependencies": [
        {
          "dep": "ROOT",
          "governor": 0,
          "governorGloss": "ROOT",
          "dependent": 3,
          "dependentGloss": "drohte"
        },
        {
          "dep": "name",
          "governor": 2,
          "governorGloss": "Klempner",
          "dependent": 1,
          "dependentGloss": "Texas"
        },
        {
          "dep": "nsubj",
          "governor": 3,
          "governorGloss": "drohte",
          "dependent": 2,
          "dependentGloss": "Klempner"
        },
        {
          "dep": "case",
          "governor": 5,
          "governorGloss": "Jihadis",
          "dependent": 4,
          "dependentGloss": "über"
        },
        {
          "dep": "nmod",
          "governor": 3,
          "governorGloss": "drohte",
          "dependent": 5,
          "dependentGloss": "Jihadis"
        },
        {
          "dep": "case",
          "governor": 9,
          "governorGloss": "LKW",
          "dependent": 6,
          "dependentGloss": "mit"
        },
        {
          "dep": "det",
          "governor": 9,
          "governorGloss": "LKW",
          "dependent": 7,
          "dependentGloss": "seinem"
        },
        {
          "dep": "amod",
          "governor": 9,
          "governorGloss": "LKW",
          "dependent": 8,
          "dependentGloss": "alten"
        },
        {
          "dep": "nmod",
          "governor": 3,
          "governorGloss": "drohte",
          "dependent": 9,
          "dependentGloss": "LKW"
        }
      ],
      "enhancedDependencies": [
        {
          "dep": "ROOT",
          "governor": 0,
          "governorGloss": "ROOT",
          "dependent": 3,
          "dependentGloss": "drohte"
        },
        {
          "dep": "name",
          "governor": 2,
          "governorGloss": "Klempner",
          "dependent": 1,
          "dependentGloss": "Texas"
        },
        {
          "dep": "nsubj",
          "governor": 3,
          "governorGloss": "drohte",
          "dependent": 2,
          "dependentGloss": "Klempner"
        },
        {
          "dep": "case",
          "governor": 5,
          "governorGloss": "Jihadis",
          "dependent": 4,
          "dependentGloss": "über"
        },
        {
          "dep": "nmod",
          "governor": 3,
          "governorGloss": "drohte",
          "dependent": 5,
          "dependentGloss": "Jihadis"
        },
        {
          "dep": "case",
          "governor": 9,
          "governorGloss": "LKW",
          "dependent": 6,
          "dependentGloss": "mit"
        },
        {
          "dep": "det",
          "governor": 9,
          "governorGloss": "LKW",
          "dependent": 7,
          "dependentGloss": "seinem"
        },
        {
          "dep": "amod",
          "governor": 9,
          "governorGloss": "LKW",
          "dependent": 8,
          "dependentGloss": "alten"
        },
        {
          "dep": "nmod",
          "governor": 3,
          "governorGloss": "drohte",
          "dependent": 9,
          "dependentGloss": "LKW"
        }
      ],
      "enhancedPlusPlusDependencies": [
        {
          "dep": "ROOT",
          "governor": 0,
          "governorGloss": "ROOT",
          "dependent": 3,
          "dependentGloss": "drohte"
        },
        {
          "dep": "name",
          "governor": 2,
          "governorGloss": "Klempner",
          "dependent": 1,
          "dependentGloss": "Texas"
        },
        {
          "dep": "nsubj",
          "governor": 3,
          "governorGloss": "drohte",
          "dependent": 2,
          "dependentGloss": "Klempner"
        },
        {
          "dep": "case",
          "governor": 5,
          "governorGloss": "Jihadis",
          "dependent": 4,
          "dependentGloss": "über"
        },
        {
          "dep": "nmod",
          "governor": 3,
          "governorGloss": "drohte",
          "dependent": 5,
          "dependentGloss": "Jihadis"
        },
        {
          "dep": "case",
          "governor": 9,
          "governorGloss": "LKW",
          "dependent": 6,
          "dependentGloss": "mit"
        },
        {
          "dep": "det",
          "governor": 9,
          "governorGloss": "LKW",
          "dependent": 7,
          "dependentGloss": "seinem"
        },
        {
          "dep": "amod",
          "governor": 9,
          "governorGloss": "LKW",
          "dependent": 8,
          "dependentGloss": "alten"
        },
        {
          "dep": "nmod",
          "governor": 3,
          "governorGloss": "drohte",
          "dependent": 9,
          "dependentGloss": "LKW"
        }
      ],
      "tokens": [
        {
          "index": 1,
          "word": "Texas",
          "originalText": "Texas",
          "characterOffsetBegin": 0,
          "characterOffsetEnd": 5,
          "pos": "NE",
          "before": "",
          "after": " "
        },
        {
          "index": 2,
          "word": "Klempner",
          "originalText": "Klempner",
          "characterOffsetBegin": 6,
          "characterOffsetEnd": 14,
          "pos": "NN",
          "before": " ",
          "after": " "
        },
        {
          "index": 3,
          "word": "drohte",
          "originalText": "drohte",
          "characterOffsetBegin": 15,
          "characterOffsetEnd": 21,
          "pos": "VVFIN",
          "before": " ",
          "after": " "
        },
        {
          "index": 4,
          "word": "über",
          "originalText": "über",
          "characterOffsetBegin": 22,
          "characterOffsetEnd": 26,
          "pos": "APPR",
          "before": " ",
          "after": " "
        },
        {
          "index": 5,
          "word": "Jihadis",
          "originalText": "Jihadis",
          "characterOffsetBegin": 27,
          "characterOffsetEnd": 34,
          "pos": "NE",
          "before": " ",
          "after": " "
        },
        {
          "index": 6,
          "word": "mit",
          "originalText": "mit",
          "characterOffsetBegin": 35,
          "characterOffsetEnd": 38,
          "pos": "APPR",
          "before": " ",
          "after": " "
        },
        {
          "index": 7,
          "word": "seinem",
          "originalText": "seinem",
          "characterOffsetBegin": 39,
          "characterOffsetEnd": 45,
          "pos": "PPOSAT",
          "before": " ",
          "after": " "
        },
        {
          "index": 8,
          "word": "alten",
          "originalText": "alten",
          "characterOffsetBegin": 46,
          "characterOffsetEnd": 51,
          "pos": "ADJA",
          "before": " ",
          "after": " "
        },
        {
          "index": 9,
          "word": "LKW",
          "originalText": "LKW",
          "characterOffsetBegin": 52,
          "characterOffsetEnd": 55,
          "pos": "NN",
          "before": " ",
          "after": ""
        }
      ]
    }
  ]
}