{
  "sentences": [
    {
      "index": 0,
      "basicDependencies": [
        {
          "dep": "ROOT",
          "governor": 0,
          "governorGloss": "ROOT",
          "dependent": 4,
          "dependentGloss": "versucht"
        },
        {
          "dep": "appos",
          "governor": 4,
          "governorGloss": "versucht",
          "dependent": 1,
          "dependentGloss": "Rajasthan"
        },
        {
          "dep": "punct",
          "governor": 1,
          "governorGloss": "Rajasthan",
          "dependent": 2,
          "dependentGloss": ":"
        },
        {
          "dep": "nsubj",
          "governor": 4,
          "governorGloss": "versucht",
          "dependent": 3,
          "dependentGloss": "Man"
        },
        {
          "dep": "punct",
          "governor": 4,
          "governorGloss": "versucht",
          "dependent": 5,
          "dependentGloss": ","
        },
        {
          "dep": "dobj",
          "governor": 8,
          "governorGloss": "verziehen",
          "dependent": 6,
          "dependentGloss": "Teenager"
        },
        {
          "dep": "aux",
          "governor": 8,
          "governorGloss": "verziehen",
          "dependent": 7,
          "dependentGloss": "zu"
        },
        {
          "dep": "xcomp",
          "governor": 4,
          "governorGloss": "versucht",
          "dependent": 8,
          "dependentGloss": "verziehen"
        },
        {
          "dep": "punct",
          "governor": 4,
          "governorGloss": "versucht",
          "dependent": 9,
          "dependentGloss": ","
        },
        {
          "dep": "conj",
          "governor": 4,
          "governorGloss": "versucht",
          "dependent": 10,
          "dependentGloss": "Angry"
        },
        {
          "dep": "amod",
          "governor": 12,
          "governorGloss": "kackt",
          "dependent": 11,
          "dependentGloss": "Mob"
        },
        {
          "dep": "dobj",
          "governor": 10,
          "governorGloss": "Angry",
          "dependent": 12,
          "dependentGloss": "kackt"
        },
        {
          "dep": "nmod:poss",
          "governor": 14,
          "governorGloss": "Penis",
          "dependent": 13,
          "dependentGloss": "seinen"
        },
        {
          "dep": "dobj",
          "governor": 10,
          "governorGloss": "Angry",
          "dependent": 14,
          "dependentGloss": "Penis"
        },
        {
          "dep": "mark",
          "governor": 10,
          "governorGloss": "Angry",
          "dependent": 15,
          "dependentGloss": "aus"
        }
      ],
      "enhancedDependencies": [
        {
          "dep": "ROOT",
          "governor": 0,
          "governorGloss": "ROOT",
          "dependent": 4,
          "dependentGloss": "versucht"
        },
        {
          "dep": "appos",
          "governor": 4,
          "governorGloss": "versucht",
          "dependent": 1,
          "dependentGloss": "Rajasthan"
        },
        {
          "dep": "punct",
          "governor": 1,
          "governorGloss": "Rajasthan",
          "dependent": 2,
          "dependentGloss": ":"
        },
        {
          "dep": "nsubj",
          "governor": 4,
          "governorGloss": "versucht",
          "dependent": 3,
          "dependentGloss": "Man"
        },
        {
          "dep": "punct",
          "governor": 4,
          "governorGloss": "versucht",
          "dependent": 5,
          "dependentGloss": ","
        },
        {
          "dep": "dobj",
          "governor": 8,
          "governorGloss": "verziehen",
          "dependent": 6,
          "dependentGloss": "Teenager"
        },
        {
          "dep": "aux",
          "governor": 8,
          "governorGloss": "verziehen",
          "dependent": 7,
          "dependentGloss": "zu"
        },
        {
          "dep": "xcomp",
          "governor": 4,
          "governorGloss": "versucht",
          "dependent": 8,
          "dependentGloss": "verziehen"
        },
        {
          "dep": "punct",
          "governor": 4,
          "governorGloss": "versucht",
          "dependent": 9,
          "dependentGloss": ","
        },
        {
          "dep": "conj",
          "governor": 4,
          "governorGloss": "versucht",
          "dependent": 10,
          "dependentGloss": "Angry"
        },
        {
          "dep": "amod",
          "governor": 12,
          "governorGloss": "kackt",
          "dependent": 11,
          "dependentGloss": "Mob"
        },
        {
          "dep": "dobj",
          "governor": 10,
          "governorGloss": "Angry",
          "dependent": 12,
          "dependentGloss": "kackt"
        },
        {
          "dep": "nmod:poss",
          "governor": 14,
          "governorGloss": "Penis",
          "dependent": 13,
          "dependentGloss": "seinen"
        },
        {
          "dep": "dobj",
          "governor": 10,
          "governorGloss": "Angry",
          "dependent": 14,
          "dependentGloss": "Penis"
        },
        {
          "dep": "mark",
          "governor": 10,
          "governorGloss": "Angry",
          "dependent": 15,
          "dependentGloss": "aus"
        }
      ],
      "enhancedPlusPlusDependencies": [
        {
          "dep": "ROOT",
          "governor": 0,
          "governorGloss": "ROOT",
          "dependent": 4,
          "dependentGloss": "versucht"
        },
        {
          "dep": "appos",
          "governor": 4,
          "governorGloss": "versucht",
          "dependent": 1,
          "dependentGloss": "Rajasthan"
        },
        {
          "dep": "punct",
          "governor": 1,
          "governorGloss": "Rajasthan",
          "dependent": 2,
          "dependentGloss": ":"
        },
        {
          "dep": "nsubj",
          "governor": 4,
          "governorGloss": "versucht",
          "dependent": 3,
          "dependentGloss": "Man"
        },
        {
          "dep": "punct",
          "governor": 4,
          "governorGloss": "versucht",
          "dependent": 5,
          "dependentGloss": ","
        },
        {
          "dep": "dobj",
          "governor": 8,
          "governorGloss": "verziehen",
          "dependent": 6,
          "dependentGloss": "Teenager"
        },
        {
          "dep": "aux",
          "governor": 8,
          "governorGloss": "verziehen",
          "dependent": 7,
          "dependentGloss": "zu"
        },
        {
          "dep": "xcomp",
          "governor": 4,
          "governorGloss": "versucht",
          "dependent": 8,
          "dependentGloss": "verziehen"
        },
        {
          "dep": "punct",
          "governor": 4,
          "governorGloss": "versucht",
          "dependent": 9,
          "dependentGloss": ","
        },
        {
          "dep": "conj",
          "governor": 4,
          "governorGloss": "versucht",
          "dependent": 10,
          "dependentGloss": "Angry"
        },
        {
          "dep": "amod",
          "governor": 12,
          "governorGloss": "kackt",
          "dependent": 11,
          "dependentGloss": "Mob"
        },
        {
          "dep": "dobj",
          "governor": 10,
          "governorGloss": "Angry",
          "dependent": 12,
          "dependentGloss": "kackt"
        },
        {
          "dep": "nmod:poss",
          "governor": 14,
          "governorGloss": "Penis",
          "dependent": 13,
          "dependentGloss": "seinen"
        },
        {
          "dep": "dobj",
          "governor": 10,
          "governorGloss": "Angry",
          "dependent": 14,
          "dependentGloss": "Penis"
        },
        {
          "dep": "mark",
          "governor": 10,
          "governorGloss": "Angry",
          "dependent": 15,
          "dependentGloss": "aus"
        }
      ],
      "tokens": [
        {
          "index": 1,
          "word": "Rajasthan",
          "originalText": "Rajasthan",
          "characterOffsetBegin": 0,
          "characterOffsetEnd": 9,
          "pos": "NE",
          "before": "",
          "after": ""
        },
        {
          "index": 2,
          "word": ":",
          "originalText": ":",
          "characterOffsetBegin": 9,
          "characterOffsetEnd": 10,
          "pos": "$.",
          "before": "",
          "after": " "
        },
        {
          "index": 3,
          "word": "Man",
          "originalText": "Man",
          "characterOffsetBegin": 11,
          "characterOffsetEnd": 14,
          "pos": "PIS",
          "before": " ",
          "after": " "
        },
        {
          "index": 4,
          "word": "versucht",
          "originalText": "versucht",
          "characterOffsetBegin": 15,
          "characterOffsetEnd": 23,
          "pos": "VVFIN",
          "before": " ",
          "after": ""
        },
        {
          "index": 5,
          "word": ",",
          "originalText": ",",
          "characterOffsetBegin": 23,
          "characterOffsetEnd": 24,
          "pos": "$,",
          "before": "",
          "after": " "
        },
        {
          "index": 6,
          "word": "Teenager",
          "originalText": "Teenager",
          "characterOffsetBegin": 25,
          "characterOffsetEnd": 33,
          "pos": "NN",
          "before": " ",
          "after": " "
        },
        {
          "index": 7,
          "word": "zu",
          "originalText": "zu",
          "characterOffsetBegin": 34,
          "characterOffsetEnd": 36,
          "pos": "APPR",
          "before": " ",
          "after": " "
        },
        {
          "index": 8,
          "word": "verziehen",
          "originalText": "verziehen",
          "characterOffsetBegin": 37,
          "characterOffsetEnd": 46,
          "pos": "VVPP",
          "before": " ",
          "after": ""
        },
        {
          "index": 9,
          "word": ",",
          "originalText": ",",
          "characterOffsetBegin": 46,
          "characterOffsetEnd": 47,
          "pos": "$,",
          "before": "",
          "after": " "
        },
        {
          "index": 10,
          "word": "Angry",
          "originalText": "Angry",
          "characterOffsetBegin": 48,
          "characterOffsetEnd": 53,
          "pos": "NE",
          "before": " ",
          "after": " "
        },
        {
          "index": 11,
          "word": "Mob",
          "originalText": "Mob",
          "characterOffsetBegin": 54,
          "characterOffsetEnd": 57,
          "pos": "NE",
          "before": " ",
          "after": " "
        },
        {
          "index": 12,
          "word": "kackt",
          "originalText": "kackt",
          "characterOffsetBegin": 58,
          "characterOffsetEnd": 63,
          "pos": "VVFIN",
          "before": " ",
          "after": " "
        },
        {
          "index": 13,
          "word": "seinen",
          "originalText": "seinen",
          "characterOffsetBegin": 64,
          "characterOffsetEnd": 70,
          "pos": "PPOSAT",
          "before": " ",
          "after": " "
        },
        {
          "index": 14,
          "word": "Penis",
          "originalText": "Penis",
          "characterOffsetBegin": 71,
          "characterOffsetEnd": 76,
          "pos": "NN",
          "before": " ",
          "after": " "
        },
        {
          "index": 15,
          "word": "aus",
          "originalText": "aus",
          "characterOffsetBegin": 77,
          "characterOffsetEnd": 80,
          "pos": "PTKVZ",
          "before": " ",
          "after": ""
        }
      ]
    }
  ]
}