{
  "sentences": [
    {
      "index": 0,
      "basicDependencies": [
        {
          "dep": "ROOT",
          "governor": 0,
          "governorGloss": "ROOT",
          "dependent": 19,
          "dependentGloss": "begrüßt"
        },
        {
          "dep": "amod",
          "governor": 2,
          "governorGloss": "Sergeant-at-arms",
          "dependent": 1,
          "dependentGloss": "Emotionaler"
        },
        {
          "dep": "nmod",
          "governor": 19,
          "governorGloss": "begrüßt",
          "dependent": 2,
          "dependentGloss": "Sergeant-at-arms"
        },
        {
          "dep": "auxpass",
          "governor": 19,
          "governorGloss": "begrüßt",
          "dependent": 3,
          "dependentGloss": "wird"
        },
        {
          "dep": "amod",
          "governor": 5,
          "governorGloss": "Parlament",
          "dependent": 4,
          "dependentGloss": "zum"
        },
        {
          "dep": "nsubjpass",
          "governor": 19,
          "governorGloss": "begrüßt",
          "dependent": 5,
          "dependentGloss": "Parlament"
        },
        {
          "dep": "case",
          "governor": 10,
          "governorGloss": "Ovation",
          "dependent": 6,
          "dependentGloss": "mit"
        },
        {
          "dep": "det",
          "governor": 10,
          "governorGloss": "Ovation",
          "dependent": 7,
          "dependentGloss": "einer"
        },
        {
          "dep": "amod",
          "governor": 10,
          "governorGloss": "Ovation",
          "dependent": 8,
          "dependentGloss": "aufregenden"
        },
        {
          "dep": "amod",
          "governor": 10,
          "governorGloss": "Ovation",
          "dependent": 9,
          "dependentGloss": "stehenden"
        },
        {
          "dep": "nmod",
          "governor": 19,
          "governorGloss": "begrüßt",
          "dependent": 10,
          "dependentGloss": "Ovation"
        },
        {
          "dep": "name",
          "governor": 12,
          "governorGloss": "Tag",
          "dependent": 11,
          "dependentGloss": "am"
        },
        {
          "dep": "appos",
          "governor": 10,
          "governorGloss": "Ovation",
          "dependent": 12,
          "dependentGloss": "Tag"
        },
        {
          "dep": "case",
          "governor": 16,
          "governorGloss": "erschossenen",
          "dependent": 13,
          "dependentGloss": "nach"
        },
        {
          "dep": "det",
          "governor": 16,
          "governorGloss": "erschossenen",
          "dependent": 14,
          "dependentGloss": "dem"
        },
        {
          "dep": "amod",
          "governor": 16,
          "governorGloss": "erschossenen",
          "dependent": 15,
          "dependentGloss": "eroisch"
        },
        {
          "dep": "nmod",
          "governor": 19,
          "governorGloss": "begrüßt",
          "dependent": 16,
          "dependentGloss": "erschossenen"
        },
        {
          "dep": "amod",
          "governor": 18,
          "governorGloss": "Terroristen",
          "dependent": 17,
          "dependentGloss": "toten"
        },
        {
          "dep": "dobj",
          "governor": 19,
          "governorGloss": "begrüßt",
          "dependent": 18,
          "dependentGloss": "Terroristen"
        },
        {
          "dep": "punct",
          "governor": 19,
          "governorGloss": "begrüßt",
          "dependent": 20,
          "dependentGloss": "-"
        },
        {
          "dep": "det",
          "governor": 23,
          "governorGloss": "Mal",
          "dependent": 21,
          "dependentGloss": "das"
        },
        {
          "dep": "amod",
          "governor": 23,
          "governorGloss": "Mal",
          "dependent": 22,
          "dependentGloss": "erste"
        },
        {
          "dep": "nmod",
          "governor": 19,
          "governorGloss": "begrüßt",
          "dependent": 23,
          "dependentGloss": "Mal"
        },
        {
          "dep": "punct",
          "governor": 23,
          "governorGloss": "Mal",
          "dependent": 24,
          "dependentGloss": ","
        },
        {
          "dep": "mark",
          "governor": 27,
          "governorGloss": "Waffe",
          "dependent": 25,
          "dependentGloss": "dass"
        },
        {
          "dep": "nsubj",
          "governor": 27,
          "governorGloss": "Waffe",
          "dependent": 26,
          "dependentGloss": "er"
        },
        {
          "dep": "ccomp",
          "governor": 23,
          "governorGloss": "Mal",
          "dependent": 27,
          "dependentGloss": "Waffe"
        },
        {
          "dep": "case",
          "governor": 30,
          "governorGloss": "Karriere",
          "dependent": 28,
          "dependentGloss": "in"
        },
        {
          "dep": "amod",
          "governor": 30,
          "governorGloss": "Karriere",
          "dependent": 29,
          "dependentGloss": "30-jähriger"
        },
        {
          "dep": "nmod",
          "governor": 27,
          "governorGloss": "Waffe",
          "dependent": 30,
          "dependentGloss": "Karriere"
        },
        {
          "dep": "mark",
          "governor": 19,
          "governorGloss": "begrüßt",
          "dependent": 31,
          "dependentGloss": "verwendete"
        }
      ],
      "enhancedDependencies": [
        {
          "dep": "ROOT",
          "governor": 0,
          "governorGloss": "ROOT",
          "dependent": 19,
          "dependentGloss": "begrüßt"
        },
        {
          "dep": "amod",
          "governor": 2,
          "governorGloss": "Sergeant-at-arms",
          "dependent": 1,
          "dependentGloss": "Emotionaler"
        },
        {
          "dep": "nmod",
          "governor": 19,
          "governorGloss": "begrüßt",
          "dependent": 2,
          "dependentGloss": "Sergeant-at-arms"
        },
        {
          "dep": "auxpass",
          "governor": 19,
          "governorGloss": "begrüßt",
          "dependent": 3,
          "dependentGloss": "wird"
        },
        {
          "dep": "amod",
          "governor": 5,
          "governorGloss": "Parlament",
          "dependent": 4,
          "dependentGloss": "zum"
        },
        {
          "dep": "nsubjpass",
          "governor": 19,
          "governorGloss": "begrüßt",
          "dependent": 5,
          "dependentGloss": "Parlament"
        },
        {
          "dep": "case",
          "governor": 10,
          "governorGloss": "Ovation",
          "dependent": 6,
          "dependentGloss": "mit"
        },
        {
          "dep": "det",
          "governor": 10,
          "governorGloss": "Ovation",
          "dependent": 7,
          "dependentGloss": "einer"
        },
        {
          "dep": "amod",
          "governor": 10,
          "governorGloss": "Ovation",
          "dependent": 8,
          "dependentGloss": "aufregenden"
        },
        {
          "dep": "amod",
          "governor": 10,
          "governorGloss": "Ovation",
          "dependent": 9,
          "dependentGloss": "stehenden"
        },
        {
          "dep": "nmod",
          "governor": 19,
          "governorGloss": "begrüßt",
          "dependent": 10,
          "dependentGloss": "Ovation"
        },
        {
          "dep": "name",
          "governor": 12,
          "governorGloss": "Tag",
          "dependent": 11,
          "dependentGloss": "am"
        },
        {
          "dep": "appos",
          "governor": 10,
          "governorGloss": "Ovation",
          "dependent": 12,
          "dependentGloss": "Tag"
        },
        {
          "dep": "case",
          "governor": 16,
          "governorGloss": "erschossenen",
          "dependent": 13,
          "dependentGloss": "nach"
        },
        {
          "dep": "det",
          "governor": 16,
          "governorGloss": "erschossenen",
          "dependent": 14,
          "dependentGloss": "dem"
        },
        {
          "dep": "amod",
          "governor": 16,
          "governorGloss": "erschossenen",
          "dependent": 15,
          "dependentGloss": "eroisch"
        },
        {
          "dep": "nmod",
          "governor": 19,
          "governorGloss": "begrüßt",
          "dependent": 16,
          "dependentGloss": "erschossenen"
        },
        {
          "dep": "amod",
          "governor": 18,
          "governorGloss": "Terroristen",
          "dependent": 17,
          "dependentGloss": "toten"
        },
        {
          "dep": "dobj",
          "governor": 19,
          "governorGloss": "begrüßt",
          "dependent": 18,
          "dependentGloss": "Terroristen"
        },
        {
          "dep": "punct",
          "governor": 19,
          "governorGloss": "begrüßt",
          "dependent": 20,
          "dependentGloss": "-"
        },
        {
          "dep": "det",
          "governor": 23,
          "governorGloss": "Mal",
          "dependent": 21,
          "dependentGloss": "das"
        },
        {
          "dep": "amod",
          "governor": 23,
          "governorGloss": "Mal",
          "dependent": 22,
          "dependentGloss": "erste"
        },
        {
          "dep": "nmod",
          "governor": 19,
          "governorGloss": "begrüßt",
          "dependent": 23,
          "dependentGloss": "Mal"
        },
        {
          "dep": "punct",
          "governor": 23,
          "governorGloss": "Mal",
          "dependent": 24,
          "dependentGloss": ","
        },
        {
          "dep": "mark",
          "governor": 27,
          "governorGloss": "Waffe",
          "dependent": 25,
          "dependentGloss": "dass"
        },
        {
          "dep": "nsubj",
          "governor": 27,
          "governorGloss": "Waffe",
          "dependent": 26,
          "dependentGloss": "er"
        },
        {
          "dep": "ccomp",
          "governor": 23,
          "governorGloss": "Mal",
          "dependent": 27,
          "dependentGloss": "Waffe"
        },
        {
          "dep": "case",
          "governor": 30,
          "governorGloss": "Karriere",
          "dependent": 28,
          "dependentGloss": "in"
        },
        {
          "dep": "amod",
          "governor": 30,
          "governorGloss": "Karriere",
          "dependent": 29,
          "dependentGloss": "30-jähriger"
        },
        {
          "dep": "nmod",
          "governor": 27,
          "governorGloss": "Waffe",
          "dependent": 30,
          "dependentGloss": "Karriere"
        },
        {
          "dep": "mark",
          "governor": 19,
          "governorGloss": "begrüßt",
          "dependent": 31,
          "dependentGloss": "verwendete"
        }
      ],
      "enhancedPlusPlusDependencies": [
        {
          "dep": "ROOT",
          "governor": 0,
          "governorGloss": "ROOT",
          "dependent": 19,
          "dependentGloss": "begrüßt"
        },
        {
          "dep": "amod",
          "governor": 2,
          "governorGloss": "Sergeant-at-arms",
          "dependent": 1,
          "dependentGloss": "Emotionaler"
        },
        {
          "dep": "nmod",
          "governor": 19,
          "governorGloss": "begrüßt",
          "dependent": 2,
          "dependentGloss": "Sergeant-at-arms"
        },
        {
          "dep": "auxpass",
          "governor": 19,
          "governorGloss": "begrüßt",
          "dependent": 3,
          "dependentGloss": "wird"
        },
        {
          "dep": "amod",
          "governor": 5,
          "governorGloss": "Parlament",
          "dependent": 4,
          "dependentGloss": "zum"
        },
        {
          "dep": "nsubjpass",
          "governor": 19,
          "governorGloss": "begrüßt",
          "dependent": 5,
          "dependentGloss": "Parlament"
        },
        {
          "dep": "case",
          "governor": 10,
          "governorGloss": "Ovation",
          "dependent": 6,
          "dependentGloss": "mit"
        },
        {
          "dep": "det",
          "governor": 10,
          "governorGloss": "Ovation",
          "dependent": 7,
          "dependentGloss": "einer"
        },
        {
          "dep": "amod",
          "governor": 10,
          "governorGloss": "Ovation",
          "dependent": 8,
          "dependentGloss": "aufregenden"
        },
        {
          "dep": "amod",
          "governor": 10,
          "governorGloss": "Ovation",
          "dependent": 9,
          "dependentGloss": "stehenden"
        },
        {
          "dep": "nmod",
          "governor": 19,
          "governorGloss": "begrüßt",
          "dependent": 10,
          "dependentGloss": "Ovation"
        },
        {
          "dep": "name",
          "governor": 12,
          "governorGloss": "Tag",
          "dependent": 11,
          "dependentGloss": "am"
        },
        {
          "dep": "appos",
          "governor": 10,
          "governorGloss": "Ovation",
          "dependent": 12,
          "dependentGloss": "Tag"
        },
        {
          "dep": "case",
          "governor": 16,
          "governorGloss": "erschossenen",
          "dependent": 13,
          "dependentGloss": "nach"
        },
        {
          "dep": "det",
          "governor": 16,
          "governorGloss": "erschossenen",
          "dependent": 14,
          "dependentGloss": "dem"
        },
        {
          "dep": "amod",
          "governor": 16,
          "governorGloss": "erschossenen",
          "dependent": 15,
          "dependentGloss": "eroisch"
        },
        {
          "dep": "nmod",
          "governor": 19,
          "governorGloss": "begrüßt",
          "dependent": 16,
          "dependentGloss": "erschossenen"
        },
        {
          "dep": "amod",
          "governor": 18,
          "governorGloss": "Terroristen",
          "dependent": 17,
          "dependentGloss": "toten"
        },
        {
          "dep": "dobj",
          "governor": 19,
          "governorGloss": "begrüßt",
          "dependent": 18,
          "dependentGloss": "Terroristen"
        },
        {
          "dep": "punct",
          "governor": 19,
          "governorGloss": "begrüßt",
          "dependent": 20,
          "dependentGloss": "-"
        },
        {
          "dep": "det",
          "governor": 23,
          "governorGloss": "Mal",
          "dependent": 21,
          "dependentGloss": "das"
        },
        {
          "dep": "amod",
          "governor": 23,
          "governorGloss": "Mal",
          "dependent": 22,
          "dependentGloss": "erste"
        },
        {
          "dep": "nmod",
          "governor": 19,
          "governorGloss": "begrüßt",
          "dependent": 23,
          "dependentGloss": "Mal"
        },
        {
          "dep": "punct",
          "governor": 23,
          "governorGloss": "Mal",
          "dependent": 24,
          "dependentGloss": ","
        },
        {
          "dep": "mark",
          "governor": 27,
          "governorGloss": "Waffe",
          "dependent": 25,
          "dependentGloss": "dass"
        },
        {
          "dep": "nsubj",
          "governor": 27,
          "governorGloss": "Waffe",
          "dependent": 26,
          "dependentGloss": "er"
        },
        {
          "dep": "ccomp",
          "governor": 23,
          "governorGloss": "Mal",
          "dependent": 27,
          "dependentGloss": "Waffe"
        },
        {
          "dep": "case",
          "governor": 30,
          "governorGloss": "Karriere",
          "dependent": 28,
          "dependentGloss": "in"
        },
        {
          "dep": "amod",
          "governor": 30,
          "governorGloss": "Karriere",
          "dependent": 29,
          "dependentGloss": "30-jähriger"
        },
        {
          "dep": "nmod",
          "governor": 27,
          "governorGloss": "Waffe",
          "dependent": 30,
          "dependentGloss": "Karriere"
        },
        {
          "dep": "mark",
          "governor": 19,
          "governorGloss": "begrüßt",
          "dependent": 31,
          "dependentGloss": "verwendete"
        }
      ],
      "tokens": [
        {
          "index": 1,
          "word": "Emotionaler",
          "originalText": "Emotionaler",
          "characterOffsetBegin": 0,
          "characterOffsetEnd": 11,
          "pos": "ADJA",
          "before": "",
          "after": " "
        },
        {
          "index": 2,
          "word": "Sergeant-at-arms",
          "originalText": "Sergeant-at-arms",
          "characterOffsetBegin": 12,
          "characterOffsetEnd": 28,
          "pos": "NN",
          "before": " ",
          "after": " "
        },
        {
          "index": 3,
          "word": "wird",
          "originalText": "wird",
          "characterOffsetBegin": 29,
          "characterOffsetEnd": 33,
          "pos": "VAFIN",
          "before": " ",
          "after": " "
        },
        {
          "index": 4,
          "word": "zum",
          "originalText": "zum",
          "characterOffsetBegin": 34,
          "characterOffsetEnd": 37,
          "pos": "APPRART",
          "before": " ",
          "after": " "
        },
        {
          "index": 5,
          "word": "Parlament",
          "originalText": "Parlament",
          "characterOffsetBegin": 38,
          "characterOffsetEnd": 47,
          "pos": "NN",
          "before": " ",
          "after": " "
        },
        {
          "index": 6,
          "word": "mit",
          "originalText": "mit",
          "characterOffsetBegin": 48,
          "characterOffsetEnd": 51,
          "pos": "APPR",
          "before": " ",
          "after": " "
        },
        {
          "index": 7,
          "word": "einer",
          "originalText": "einer",
          "characterOffsetBegin": 52,
          "characterOffsetEnd": 57,
          "pos": "ART",
          "before": " ",
          "after": " "
        },
        {
          "index": 8,
          "word": "aufregenden",
          "originalText": "aufregenden",
          "characterOffsetBegin": 58,
          "characterOffsetEnd": 69,
          "pos": "ADJA",
          "before": " ",
          "after": " "
        },
        {
          "index": 9,
          "word": "stehenden",
          "originalText": "stehenden",
          "characterOffsetBegin": 70,
          "characterOffsetEnd": 79,
          "pos": "ADJA",
          "before": " ",
          "after": " "
        },
        {
          "index": 10,
          "word": "Ovation",
          "originalText": "Ovation",
          "characterOffsetBegin": 80,
          "characterOffsetEnd": 87,
          "pos": "NN",
          "before": " ",
          "after": " "
        },
        {
          "index": 11,
          "word": "am",
          "originalText": "am",
          "characterOffsetBegin": 88,
          "characterOffsetEnd": 90,
          "pos": "APPRART",
          "before": " ",
          "after": " "
        },
        {
          "index": 12,
          "word": "Tag",
          "originalText": "Tag",
          "characterOffsetBegin": 91,
          "characterOffsetEnd": 94,
          "pos": "NN",
          "before": " ",
          "after": " "
        },
        {
          "index": 13,
          "word": "nach",
          "originalText": "nach",
          "characterOffsetBegin": 95,
          "characterOffsetEnd": 99,
          "pos": "APPR",
          "before": " ",
          "after": " "
        },
        {
          "index": 14,
          "word": "dem",
          "originalText": "dem",
          "characterOffsetBegin": 100,
          "characterOffsetEnd": 103,
          "pos": "ART",
          "before": " ",
          "after": " "
        },
        {
          "index": 15,
          "word": "eroisch",
          "originalText": "eroisch",
          "characterOffsetBegin": 104,
          "characterOffsetEnd": 111,
          "pos": "ADJD",
          "before": " ",
          "after": " "
        },
        {
          "index": 16,
          "word": "erschossenen",
          "originalText": "erschossenen",
          "characterOffsetBegin": 112,
          "characterOffsetEnd": 124,
          "pos": "ADJA",
          "before": " ",
          "after": " "
        },
        {
          "index": 17,
          "word": "toten",
          "originalText": "toten",
          "characterOffsetBegin": 125,
          "characterOffsetEnd": 130,
          "pos": "ADJA",
          "before": " ",
          "after": " "
        },
        {
          "index": 18,
          "word": "Terroristen",
          "originalText": "Terroristen",
          "characterOffsetBegin": 131,
          "characterOffsetEnd": 142,
          "pos": "NN",
          "before": " ",
          "after": " "
        },
        {
          "index": 19,
          "word": "begrüßt",
          "originalText": "begrüßt",
          "characterOffsetBegin": 143,
          "characterOffsetEnd": 150,
          "pos": "VVPP",
          "before": " ",
          "after": " "
        },
        {
          "index": 20,
          "word": "-",
          "originalText": "-",
          "characterOffsetBegin": 151,
          "characterOffsetEnd": 152,
          "pos": "$[",
          "before": " ",
          "after": " "
        },
        {
          "index": 21,
          "word": "das",
          "originalText": "das",
          "characterOffsetBegin": 153,
          "characterOffsetEnd": 156,
          "pos": "ART",
          "before": " ",
          "after": " "
        },
        {
          "index": 22,
          "word": "erste",
          "originalText": "erste",
          "characterOffsetBegin": 157,
          "characterOffsetEnd": 162,
          "pos": "ADJA",
          "before": " ",
          "after": " "
        },
        {
          "index": 23,
          "word": "Mal",
          "originalText": "Mal",
          "characterOffsetBegin": 163,
          "characterOffsetEnd": 166,
          "pos": "NN",
          "before": " ",
          "after": ""
        },
        {
          "index": 24,
          "word": ",",
          "originalText": ",",
          "characterOffsetBegin": 166,
          "characterOffsetEnd": 167,
          "pos": "$,",
          "before": "",
          "after": " "
        },
        {
          "index": 25,
          "word": "dass",
          "originalText": "dass",
          "characterOffsetBegin": 168,
          "characterOffsetEnd": 172,
          "pos": "KOUS",
          "before": " ",
          "after": " "
        },
        {
          "index": 26,
          "word": "er",
          "originalText": "er",
          "characterOffsetBegin": 173,
          "characterOffsetEnd": 175,
          "pos": "PPER",
          "before": " ",
          "after": " "
        },
        {
          "index": 27,
          "word": "Waffe",
          "originalText": "Waffe",
          "characterOffsetBegin": 176,
          "characterOffsetEnd": 181,
          "pos": "NN",
          "before": " ",
          "after": " "
        },
        {
          "index": 28,
          "word": "in",
          "originalText": "in",
          "characterOffsetBegin": 182,
          "characterOffsetEnd": 184,
          "pos": "APPR",
          "before": " ",
          "after": " "
        },
        {
          "index": 29,
          "word": "30-jähriger",
          "originalText": "30-jähriger",
          "characterOffsetBegin": 185,
          "characterOffsetEnd": 196,
          "pos": "ADJA",
          "before": " ",
          "after": " "
        },
        {
          "index": 30,
          "word": "Karriere",
          "originalText": "Karriere",
          "characterOffsetBegin": 197,
          "characterOffsetEnd": 205,
          "pos": "NN",
          "before": " ",
          "after": " "
        },
        {
          "index": 31,
          "word": "verwendete",
          "originalText": "verwendete",
          "characterOffsetBegin": 206,
          "characterOffsetEnd": 216,
          "pos": "ADJA",
          "before": " ",
          "after": ""
        }
      ]
    }
  ]
}