{
  "sentences": [
    {
      "index": 0,
      "basicDependencies": [
        {
          "dep": "ROOT",
          "governor": 0,
          "governorGloss": "ROOT",
          "dependent": 2,
          "dependentGloss": "Haram"
        },
        {
          "dep": "nsubj",
          "governor": 2,
          "governorGloss": "Haram",
          "dependent": 1,
          "dependentGloss": "Boko"
        },
        {
          "dep": "amod",
          "governor": 4,
          "governorGloss": "Waffenstillstand",
          "dependent": 3,
          "dependentGloss": "verweigert"
        },
        {
          "dep": "dobj",
          "governor": 2,
          "governorGloss": "Haram",
          "dependent": 4,
          "dependentGloss": "Waffenstillstand"
        },
        {
          "dep": "punct",
          "governor": 2,
          "governorGloss": "Haram",
          "dependent": 5,
          "dependentGloss": ","
        },
        {
          "dep": "nsubj",
          "governor": 11,
          "governorGloss": "verheiratet",
          "dependent": 6,
          "dependentGloss": "sagt"
        },
        {
          "dep": "amod",
          "governor": 8,
          "governorGloss": "Girls",
          "dependent": 7,
          "dependentGloss": "Kidnapped"
        },
        {
          "dep": "det",
          "governor": 6,
          "governorGloss": "sagt",
          "dependent": 8,
          "dependentGloss": "Girls"
        },
        {
          "dep": "cop",
          "governor": 11,
          "governorGloss": "verheiratet",
          "dependent": 9,
          "dependentGloss": "sind"
        },
        {
          "dep": "advmod",
          "governor": 11,
          "governorGloss": "verheiratet",
          "dependent": 10,
          "dependentGloss": "jetzt"
        },
        {
          "dep": "conj",
          "governor": 2,
          "governorGloss": "Haram",
          "dependent": 11,
          "dependentGloss": "verheiratet"
        }
      ],
      "enhancedDependencies": [
        {
          "dep": "ROOT",
          "governor": 0,
          "governorGloss": "ROOT",
          "dependent": 2,
          "dependentGloss": "Haram"
        },
        {
          "dep": "nsubj",
          "governor": 2,
          "governorGloss": "Haram",
          "dependent": 1,
          "dependentGloss": "Boko"
        },
        {
          "dep": "amod",
          "governor": 4,
          "governorGloss": "Waffenstillstand",
          "dependent": 3,
          "dependentGloss": "verweigert"
        },
        {
          "dep": "dobj",
          "governor": 2,
          "governorGloss": "Haram",
          "dependent": 4,
          "dependentGloss": "Waffenstillstand"
        },
        {
          "dep": "punct",
          "governor": 2,
          "governorGloss": "Haram",
          "dependent": 5,
          "dependentGloss": ","
        },
        {
          "dep": "nsubj",
          "governor": 11,
          "governorGloss": "verheiratet",
          "dependent": 6,
          "dependentGloss": "sagt"
        },
        {
          "dep": "amod",
          "governor": 8,
          "governorGloss": "Girls",
          "dependent": 7,
          "dependentGloss": "Kidnapped"
        },
        {
          "dep": "det",
          "governor": 6,
          "governorGloss": "sagt",
          "dependent": 8,
          "dependentGloss": "Girls"
        },
        {
          "dep": "cop",
          "governor": 11,
          "governorGloss": "verheiratet",
          "dependent": 9,
          "dependentGloss": "sind"
        },
        {
          "dep": "advmod",
          "governor": 11,
          "governorGloss": "verheiratet",
          "dependent": 10,
          "dependentGloss": "jetzt"
        },
        {
          "dep": "conj",
          "governor": 2,
          "governorGloss": "Haram",
          "dependent": 11,
          "dependentGloss": "verheiratet"
        }
      ],
      "enhancedPlusPlusDependencies": [
        {
          "dep": "ROOT",
          "governor": 0,
          "governorGloss": "ROOT",
          "dependent": 2,
          "dependentGloss": "Haram"
        },
        {
          "dep": "nsubj",
          "governor": 2,
          "governorGloss": "Haram",
          "dependent": 1,
          "dependentGloss": "Boko"
        },
        {
          "dep": "amod",
          "governor": 4,
          "governorGloss": "Waffenstillstand",
          "dependent": 3,
          "dependentGloss": "verweigert"
        },
        {
          "dep": "dobj",
          "governor": 2,
          "governorGloss": "Haram",
          "dependent": 4,
          "dependentGloss": "Waffenstillstand"
        },
        {
          "dep": "punct",
          "governor": 2,
          "governorGloss": "Haram",
          "dependent": 5,
          "dependentGloss": ","
        },
        {
          "dep": "nsubj",
          "governor": 11,
          "governorGloss": "verheiratet",
          "dependent": 6,
          "dependentGloss": "sagt"
        },
        {
          "dep": "amod",
          "governor": 8,
          "governorGloss": "Girls",
          "dependent": 7,
          "dependentGloss": "Kidnapped"
        },
        {
          "dep": "det",
          "governor": 6,
          "governorGloss": "sagt",
          "dependent": 8,
          "dependentGloss": "Girls"
        },
        {
          "dep": "cop",
          "governor": 11,
          "governorGloss": "verheiratet",
          "dependent": 9,
          "dependentGloss": "sind"
        },
        {
          "dep": "advmod",
          "governor": 11,
          "governorGloss": "verheiratet",
          "dependent": 10,
          "dependentGloss": "jetzt"
        },
        {
          "dep": "conj",
          "governor": 2,
          "governorGloss": "Haram",
          "dependent": 11,
          "dependentGloss": "verheiratet"
        }
      ],
      "tokens": [
        {
          "index": 1,
          "word": "Boko",
          "originalText": "Boko",
          "characterOffsetBegin": 0,
          "characterOffsetEnd": 4,
          "pos": "NE",
          "before": "",
          "after": " "
        },
        {
          "index": 2,
          "word": "Haram",
          "originalText": "Haram",
          "characterOffsetBegin": 5,
          "characterOffsetEnd": 10,
          "pos": "NE",
          "before": " ",
          "after": " "
        },
        {
          "index": 3,
          "word": "verweigert",
          "originalText": "verweigert",
          "characterOffsetBegin": 11,
          "characterOffsetEnd": 21,
          "pos": "VVFIN",
          "before": " ",
          "after": " "
        },
        {
          "index": 4,
          "word": "Waffenstillstand",
          "originalText": "Waffenstillstand",
          "characterOffsetBegin": 22,
          "characterOffsetEnd": 38,
          "pos": "NN",
          "before": " ",
          "after": ""
        },
        {
          "index": 5,
          "word": ",",
          "originalText": ",",
          "characterOffsetBegin": 38,
          "characterOffsetEnd": 39,
          "pos": "$,",
          "before": "",
          "after": " "
        },
        {
          "index": 6,
          "word": "sagt",
          "originalText": "sagt",
          "characterOffsetBegin": 40,
          "characterOffsetEnd": 44,
          "pos": "VVFIN",
          "before": " ",
          "after": " "
        },
        {
          "index": 7,
          "word": "Kidnapped",
          "originalText": "Kidnapped",
          "characterOffsetBegin": 45,
          "characterOffsetEnd": 54,
          "pos": "NE",
          "before": " ",
          "after": " "
        },
        {
          "index": 8,
          "word": "Girls",
          "originalText": "Girls",
          "characterOffsetBegin": 55,
          "characterOffsetEnd": 60,
          "pos": "NE",
          "before": " ",
          "after": " "
        },
        {
          "index": 9,
          "word": "sind",
          "originalText": "sind",
          "characterOffsetBegin": 61,
          "characterOffsetEnd": 65,
          "pos": "VAFIN",
          "before": " ",
          "after": " "
        },
        {
          "index": 10,
          "word": "jetzt",
          "originalText": "jetzt",
          "characterOffsetBegin": 66,
          "characterOffsetEnd": 71,
          "pos": "ADV",
          "before": " ",
          "after": " "
        },
        {
          "index": 11,
          "word": "verheiratet",
          "originalText": "verheiratet",
          "characterOffsetBegin": 72,
          "characterOffsetEnd": 83,
          "pos": "VVPP",
          "before": " ",
          "after": ""
        }
      ]
    }
  ]
}