{
  "sentences": [
    {
      "index": 0,
      "basicDependencies": [
        {
          "dep": "ROOT",
          "governor": 0,
          "governorGloss": "ROOT",
          "dependent": 2,
          "dependentGloss": "trauern"
        },
        {
          "dep": "amod",
          "governor": 2,
          "governorGloss": "trauern",
          "dependent": 1,
          "dependentGloss": "ISIS-Anhänger"
        },
        {
          "dep": "case",
          "governor": 5,
          "governorGloss": "Tod",
          "dependent": 3,
          "dependentGloss": "um"
        },
        {
          "dep": "det",
          "governor": 5,
          "governorGloss": "Tod",
          "dependent": 4,
          "dependentGloss": "den"
        },
        {
          "dep": "nmod",
          "governor": 2,
          "governorGloss": "trauern",
          "dependent": 5,
          "dependentGloss": "Tod"
        },
        {
          "dep": "det",
          "governor": 9,
          "governorGloss": "Kämpfers",
          "dependent": 6,
          "dependentGloss": "des"
        },
        {
          "dep": "punct",
          "governor": 9,
          "governorGloss": "Kämpfers",
          "dependent": 7,
          "dependentGloss": "``"
        },
        {
          "dep": "amod",
          "governor": 9,
          "governorGloss": "Kämpfers",
          "dependent": 8,
          "dependentGloss": "jüngsten"
        },
        {
          "dep": "det",
          "governor": 5,
          "governorGloss": "Tod",
          "dependent": 9,
          "dependentGloss": "Kämpfers"
        },
        {
          "dep": "punct",
          "governor": 2,
          "governorGloss": "trauern",
          "dependent": 10,
          "dependentGloss": "``"
        }
      ],
      "enhancedDependencies": [
        {
          "dep": "ROOT",
          "governor": 0,
          "governorGloss": "ROOT",
          "dependent": 2,
          "dependentGloss": "trauern"
        },
        {
          "dep": "amod",
          "governor": 2,
          "governorGloss": "trauern",
          "dependent": 1,
          "dependentGloss": "ISIS-Anhänger"
        },
        {
          "dep": "case",
          "governor": 5,
          "governorGloss": "Tod",
          "dependent": 3,
          "dependentGloss": "um"
        },
        {
          "dep": "det",
          "governor": 5,
          "governorGloss": "Tod",
          "dependent": 4,
          "dependentGloss": "den"
        },
        {
          "dep": "nmod",
          "governor": 2,
          "governorGloss": "trauern",
          "dependent": 5,
          "dependentGloss": "Tod"
        },
        {
          "dep": "det",
          "governor": 9,
          "governorGloss": "Kämpfers",
          "dependent": 6,
          "dependentGloss": "des"
        },
        {
          "dep": "punct",
          "governor": 9,
          "governorGloss": "Kämpfers",
          "dependent": 7,
          "dependentGloss": "``"
        },
        {
          "dep": "amod",
          "governor": 9,
          "governorGloss": "Kämpfers",
          "dependent": 8,
          "dependentGloss": "jüngsten"
        },
        {
          "dep": "det",
          "governor": 5,
          "governorGloss": "Tod",
          "dependent": 9,
          "dependentGloss": "Kämpfers"
        },
        {
          "dep": "punct",
          "governor": 2,
          "governorGloss": "trauern",
          "dependent": 10,
          "dependentGloss": "``"
        }
      ],
      "enhancedPlusPlusDependencies": [
        {
          "dep": "ROOT",
          "governor": 0,
          "governorGloss": "ROOT",
          "dependent": 2,
          "dependentGloss": "trauern"
        },
        {
          "dep": "amod",
          "governor": 2,
          "governorGloss": "trauern",
          "dependent": 1,
          "dependentGloss": "ISIS-Anhänger"
        },
        {
          "dep": "case",
          "governor": 5,
          "governorGloss": "Tod",
          "dependent": 3,
          "dependentGloss": "um"
        },
        {
          "dep": "det",
          "governor": 5,
          "governorGloss": "Tod",
          "dependent": 4,
          "dependentGloss": "den"
        },
        {
          "dep": "nmod",
          "governor": 2,
          "governorGloss": "trauern",
          "dependent": 5,
          "dependentGloss": "Tod"
        },
        {
          "dep": "det",
          "governor": 9,
          "governorGloss": "Kämpfers",
          "dependent": 6,
          "dependentGloss": "des"
        },
        {
          "dep": "punct",
          "governor": 9,
          "governorGloss": "Kämpfers",
          "dependent": 7,
          "dependentGloss": "``"
        },
        {
          "dep": "amod",
          "governor": 9,
          "governorGloss": "Kämpfers",
          "dependent": 8,
          "dependentGloss": "jüngsten"
        },
        {
          "dep": "det",
          "governor": 5,
          "governorGloss": "Tod",
          "dependent": 9,
          "dependentGloss": "Kämpfers"
        },
        {
          "dep": "punct",
          "governor": 2,
          "governorGloss": "trauern",
          "dependent": 10,
          "dependentGloss": "``"
        }
      ],
      "tokens": [
        {
          "index": 1,
          "word": "ISIS-Anhänger",
          "originalText": "ISIS-Anhänger",
          "characterOffsetBegin": 0,
          "characterOffsetEnd": 13,
          "pos": "NN",
          "before": "",
          "after": " "
        },
        {
          "index": 2,
          "word": "trauern",
          "originalText": "trauern",
          "characterOffsetBegin": 14,
          "characterOffsetEnd": 21,
          "pos": "VVFIN",
          "before": " ",
          "after": " "
        },
        {
          "index": 3,
          "word": "um",
          "originalText": "um",
          "characterOffsetBegin": 22,
          "characterOffsetEnd": 24,
          "pos": "APPR",
          "before": " ",
          "after": " "
        },
        {
          "index": 4,
          "word": "den",
          "originalText": "den",
          "characterOffsetBegin": 25,
          "characterOffsetEnd": 28,
          "pos": "ART",
          "before": " ",
          "after": " "
        },
        {
          "index": 5,
          "word": "Tod",
          "originalText": "Tod",
          "characterOffsetBegin": 29,
          "characterOffsetEnd": 32,
          "pos": "NN",
          "before": " ",
          "after": " "
        },
        {
          "index": 6,
          "word": "des",
          "originalText": "des",
          "characterOffsetBegin": 33,
          "characterOffsetEnd": 36,
          "pos": "ART",
          "before": " ",
          "after": " "
        },
        {
          "index": 7,
          "word": "``",
          "originalText": "“",
          "characterOffsetBegin": 37,
          "characterOffsetEnd": 38,
          "pos": "NN",
          "before": " ",
          "after": ""
        },
        {
          "index": 8,
          "word": "jüngsten",
          "originalText": "jüngsten",
          "characterOffsetBegin": 38,
          "characterOffsetEnd": 46,
          "pos": "ADJA",
          "before": "",
          "after": " "
        },
        {
          "index": 9,
          "word": "Kämpfers",
          "originalText": "Kämpfers",
          "characterOffsetBegin": 47,
          "characterOffsetEnd": 55,
          "pos": "NN",
          "before": " ",
          "after": ""
        },
        {
          "index": 10,
          "word": "``",
          "originalText": "“",
          "characterOffsetBegin": 55,
          "characterOffsetEnd": 56,
          "pos": "CARD",
          "before": "",
          "after": ""
        }
      ]
    }
  ]
}