{
  "sentences": [
    {
      "index": 0,
      "basicDependencies": [
        {
          "dep": "ROOT",
          "governor": 0,
          "governorGloss": "ROOT",
          "dependent": 3,
          "dependentGloss": "Klempner"
        },
        {
          "dep": "name",
          "governor": 2,
          "governorGloss": "City",
          "dependent": 1,
          "dependentGloss": "Texas"
        },
        {
          "dep": "nsubj",
          "governor": 3,
          "governorGloss": "Klempner",
          "dependent": 2,
          "dependentGloss": "City"
        },
        {
          "dep": "amod",
          "governor": 6,
          "governorGloss": "im",
          "dependent": 4,
          "dependentGloss": "LKW"
        },
        {
          "dep": "amod",
          "governor": 6,
          "governorGloss": "im",
          "dependent": 5,
          "dependentGloss": "endet"
        },
        {
          "dep": "dobj",
          "governor": 3,
          "governorGloss": "Klempner",
          "dependent": 6,
          "dependentGloss": "im"
        },
        {
          "dep": "amod",
          "governor": 8,
          "governorGloss": "Krieg",
          "dependent": 7,
          "dependentGloss": "syrischen"
        },
        {
          "dep": "det",
          "governor": 6,
          "governorGloss": "im",
          "dependent": 8,
          "dependentGloss": "Krieg"
        }
      ],
      "enhancedDependencies": [
        {
          "dep": "ROOT",
          "governor": 0,
          "governorGloss": "ROOT",
          "dependent": 3,
          "dependentGloss": "Klempner"
        },
        {
          "dep": "name",
          "governor": 2,
          "governorGloss": "City",
          "dependent": 1,
          "dependentGloss": "Texas"
        },
        {
          "dep": "nsubj",
          "governor": 3,
          "governorGloss": "Klempner",
          "dependent": 2,
          "dependentGloss": "City"
        },
        {
          "dep": "amod",
          "governor": 6,
          "governorGloss": "im",
          "dependent": 4,
          "dependentGloss": "LKW"
        },
        {
          "dep": "amod",
          "governor": 6,
          "governorGloss": "im",
          "dependent": 5,
          "dependentGloss": "endet"
        },
        {
          "dep": "dobj",
          "governor": 3,
          "governorGloss": "Klempner",
          "dependent": 6,
          "dependentGloss": "im"
        },
        {
          "dep": "amod",
          "governor": 8,
          "governorGloss": "Krieg",
          "dependent": 7,
          "dependentGloss": "syrischen"
        },
        {
          "dep": "det",
          "governor": 6,
          "governorGloss": "im",
          "dependent": 8,
          "dependentGloss": "Krieg"
        }
      ],
      "enhancedPlusPlusDependencies": [
        {
          "dep": "ROOT",
          "governor": 0,
          "governorGloss": "ROOT",
          "dependent": 3,
          "dependentGloss": "Klempner"
        },
        {
          "dep": "name",
          "governor": 2,
          "governorGloss": "City",
          "dependent": 1,
          "dependentGloss": "Texas"
        },
        {
          "dep": "nsubj",
          "governor": 3,
          "governorGloss": "Klempner",
          "dependent": 2,
          "dependentGloss": "City"
        },
        {
          "dep": "amod",
          "governor": 6,
          "governorGloss": "im",
          "dependent": 4,
          "dependentGloss": "LKW"
        },
        {
          "dep": "amod",
          "governor": 6,
          "governorGloss": "im",
          "dependent": 5,
          "dependentGloss": "endet"
        },
        {
          "dep": "dobj",
          "governor": 3,
          "governorGloss": "Klempner",
          "dependent": 6,
          "dependentGloss": "im"
        },
        {
          "dep": "amod",
          "governor": 8,
          "governorGloss": "Krieg",
          "dependent": 7,
          "dependentGloss": "syrischen"
        },
        {
          "dep": "det",
          "governor": 6,
          "governorGloss": "im",
          "dependent": 8,
          "dependentGloss": "Krieg"
        }
      ],
      "tokens": [
        {
          "index": 1,
          "word": "Texas",
          "originalText": "Texas",
          "characterOffsetBegin": 0,
          "characterOffsetEnd": 5,
          "pos": "NE",
          "before": "",
          "after": " "
        },
        {
          "index": 2,
          "word": "City",
          "originalText": "City",
          "characterOffsetBegin": 6,
          "characterOffsetEnd": 10,
          "pos": "NE",
          "before": " ",
          "after": " "
        },
        {
          "index": 3,
          "word": "Klempner",
          "originalText": "Klempner",
          "characterOffsetBegin": 11,
          "characterOffsetEnd": 19,
          "pos": "NN",
          "before": " ",
          "after": " "
        },
        {
          "index": 4,
          "word": "LKW",
          "originalText": "LKW",
          "characterOffsetBegin": 20,
          "characterOffsetEnd": 23,
          "pos": "NE",
          "before": " ",
          "after": " "
        },
        {
          "index": 5,
          "word": "endet",
          "originalText": "endet",
          "characterOffsetBegin": 24,
          "characterOffsetEnd": 29,
          "pos": "VVFIN",
          "before": " ",
          "after": " "
        },
        {
          "index": 6,
          "word": "im",
          "originalText": "im",
          "characterOffsetBegin": 30,
          "characterOffsetEnd": 32,
          "pos": "APPRART",
          "before": " ",
          "after": " "
        },
        {
          "index": 7,
          "word": "syrischen",
          "originalText": "syrischen",
          "characterOffsetBegin": 33,
          "characterOffsetEnd": 42,
          "pos": "ADJA",
          "before": " ",
          "after": " "
        },
        {
          "index": 8,
          "word": "Krieg",
          "originalText": "Krieg",
          "characterOffsetBegin": 43,
          "characterOffsetEnd": 48,
          "pos": "NN",
          "before": " ",
          "after": ""
        }
      ]
    }
  ]
}