{
  "sentences": [
    {
      "index": 0,
      "basicDependencies": [
        {
          "dep": "ROOT",
          "governor": 0,
          "governorGloss": "ROOT",
          "dependent": 4,
          "dependentGloss": "spielen"
        },
        {
          "dep": "name",
          "governor": 2,
          "governorGloss": "Bale",
          "dependent": 1,
          "dependentGloss": "Christian"
        },
        {
          "dep": "nsubj",
          "governor": 4,
          "governorGloss": "spielen",
          "dependent": 2,
          "dependentGloss": "Bale"
        },
        {
          "dep": "aux",
          "governor": 4,
          "governorGloss": "spielen",
          "dependent": 3,
          "dependentGloss": "zu"
        },
        {
          "dep": "name",
          "governor": 6,
          "governorGloss": "Jobs",
          "dependent": 5,
          "dependentGloss": "Steve"
        },
        {
          "dep": "dobj",
          "governor": 4,
          "governorGloss": "spielen",
          "dependent": 6,
          "dependentGloss": "Jobs"
        },
        {
          "dep": "case",
          "governor": 9,
          "governorGloss": "Movie",
          "dependent": 7,
          "dependentGloss": "in"
        },
        {
          "dep": "name",
          "governor": 9,
          "governorGloss": "Movie",
          "dependent": 8,
          "dependentGloss": "New"
        },
        {
          "dep": "nmod",
          "governor": 6,
          "governorGloss": "Jobs",
          "dependent": 9,
          "dependentGloss": "Movie"
        }
      ],
      "enhancedDependencies": [
        {
          "dep": "ROOT",
          "governor": 0,
          "governorGloss": "ROOT",
          "dependent": 4,
          "dependentGloss": "spielen"
        },
        {
          "dep": "name",
          "governor": 2,
          "governorGloss": "Bale",
          "dependent": 1,
          "dependentGloss": "Christian"
        },
        {
          "dep": "nsubj",
          "governor": 4,
          "governorGloss": "spielen",
          "dependent": 2,
          "dependentGloss": "Bale"
        },
        {
          "dep": "aux",
          "governor": 4,
          "governorGloss": "spielen",
          "dependent": 3,
          "dependentGloss": "zu"
        },
        {
          "dep": "name",
          "governor": 6,
          "governorGloss": "Jobs",
          "dependent": 5,
          "dependentGloss": "Steve"
        },
        {
          "dep": "dobj",
          "governor": 4,
          "governorGloss": "spielen",
          "dependent": 6,
          "dependentGloss": "Jobs"
        },
        {
          "dep": "case",
          "governor": 9,
          "governorGloss": "Movie",
          "dependent": 7,
          "dependentGloss": "in"
        },
        {
          "dep": "name",
          "governor": 9,
          "governorGloss": "Movie",
          "dependent": 8,
          "dependentGloss": "New"
        },
        {
          "dep": "nmod",
          "governor": 6,
          "governorGloss": "Jobs",
          "dependent": 9,
          "dependentGloss": "Movie"
        }
      ],
      "enhancedPlusPlusDependencies": [
        {
          "dep": "ROOT",
          "governor": 0,
          "governorGloss": "ROOT",
          "dependent": 4,
          "dependentGloss": "spielen"
        },
        {
          "dep": "name",
          "governor": 2,
          "governorGloss": "Bale",
          "dependent": 1,
          "dependentGloss": "Christian"
        },
        {
          "dep": "nsubj",
          "governor": 4,
          "governorGloss": "spielen",
          "dependent": 2,
          "dependentGloss": "Bale"
        },
        {
          "dep": "aux",
          "governor": 4,
          "governorGloss": "spielen",
          "dependent": 3,
          "dependentGloss": "zu"
        },
        {
          "dep": "name",
          "governor": 6,
          "governorGloss": "Jobs",
          "dependent": 5,
          "dependentGloss": "Steve"
        },
        {
          "dep": "dobj",
          "governor": 4,
          "governorGloss": "spielen",
          "dependent": 6,
          "dependentGloss": "Jobs"
        },
        {
          "dep": "case",
          "governor": 9,
          "governorGloss": "Movie",
          "dependent": 7,
          "dependentGloss": "in"
        },
        {
          "dep": "name",
          "governor": 9,
          "governorGloss": "Movie",
          "dependent": 8,
          "dependentGloss": "New"
        },
        {
          "dep": "nmod",
          "governor": 6,
          "governorGloss": "Jobs",
          "dependent": 9,
          "dependentGloss": "Movie"
        }
      ],
      "tokens": [
        {
          "index": 1,
          "word": "Christian",
          "originalText": "Christian",
          "characterOffsetBegin": 0,
          "characterOffsetEnd": 9,
          "pos": "NE",
          "before": "",
          "after": " "
        },
        {
          "index": 2,
          "word": "Bale",
          "originalText": "Bale",
          "characterOffsetBegin": 10,
          "characterOffsetEnd": 14,
          "pos": "NE",
          "before": " ",
          "after": " "
        },
        {
          "index": 3,
          "word": "zu",
          "originalText": "zu",
          "characterOffsetBegin": 15,
          "characterOffsetEnd": 17,
          "pos": "PTKZU",
          "before": " ",
          "after": " "
        },
        {
          "index": 4,
          "word": "spielen",
          "originalText": "spielen",
          "characterOffsetBegin": 18,
          "characterOffsetEnd": 25,
          "pos": "VVINF",
          "before": " ",
          "after": " "
        },
        {
          "index": 5,
          "word": "Steve",
          "originalText": "Steve",
          "characterOffsetBegin": 26,
          "characterOffsetEnd": 31,
          "pos": "NE",
          "before": " ",
          "after": " "
        },
        {
          "index": 6,
          "word": "Jobs",
          "originalText": "Jobs",
          "characterOffsetBegin": 32,
          "characterOffsetEnd": 36,
          "pos": "NN",
          "before": " ",
          "after": " "
        },
        {
          "index": 7,
          "word": "in",
          "originalText": "in",
          "characterOffsetBegin": 37,
          "characterOffsetEnd": 39,
          "pos": "APPR",
          "before": " ",
          "after": " "
        },
        {
          "index": 8,
          "word": "New",
          "originalText": "New",
          "characterOffsetBegin": 40,
          "characterOffsetEnd": 43,
          "pos": "NE",
          "before": " ",
          "after": " "
        },
        {
          "index": 9,
          "word": "Movie",
          "originalText": "Movie",
          "characterOffsetBegin": 44,
          "characterOffsetEnd": 49,
          "pos": "NE",
          "before": " ",
          "after": ""
        }
      ]
    }
  ]
}