{
  "sentences": [
    {
      "index": 0,
      "basicDependencies": [
        {
          "dep": "ROOT",
          "governor": 0,
          "governorGloss": "ROOT",
          "dependent": 2,
          "dependentGloss": "Watch"
        },
        {
          "dep": "det",
          "governor": 2,
          "governorGloss": "Watch",
          "dependent": 1,
          "dependentGloss": "Apple"
        },
        {
          "dep": "case",
          "governor": 4,
          "governorGloss": "Feature",
          "dependent": 3,
          "dependentGloss": "zu"
        },
        {
          "dep": "nmod",
          "governor": 5,
          "governorGloss": "Time-Only",
          "dependent": 4,
          "dependentGloss": "Feature"
        },
        {
          "dep": "appos",
          "governor": 2,
          "governorGloss": "Watch",
          "dependent": 5,
          "dependentGloss": "Time-Only"
        },
        {
          "dep": "punct",
          "governor": 10,
          "governorGloss": "Mode",
          "dependent": 6,
          "dependentGloss": "`"
        },
        {
          "dep": "name",
          "governor": 8,
          "governorGloss": "Reserve",
          "dependent": 7,
          "dependentGloss": "Power"
        },
        {
          "dep": "name",
          "governor": 10,
          "governorGloss": "Mode",
          "dependent": 8,
          "dependentGloss": "Reserve"
        },
        {
          "dep": "punct",
          "governor": 10,
          "governorGloss": "Mode",
          "dependent": 9,
          "dependentGloss": "'"
        },
        {
          "dep": "appos",
          "governor": 5,
          "governorGloss": "Time-Only",
          "dependent": 10,
          "dependentGloss": "Mode"
        },
        {
          "dep": "punct",
          "governor": 10,
          "governorGloss": "Mode",
          "dependent": 11,
          "dependentGloss": ","
        },
        {
          "dep": "appos",
          "governor": 10,
          "governorGloss": "Mode",
          "dependent": 12,
          "dependentGloss": "Prototypen"
        },
        {
          "dep": "appos",
          "governor": 12,
          "governorGloss": "Prototypen",
          "dependent": 13,
          "dependentGloss": "verkleidet"
        },
        {
          "dep": "case",
          "governor": 16,
          "governorGloss": "Uhren",
          "dependent": 14,
          "dependentGloss": "als"
        },
        {
          "dep": "name",
          "governor": 16,
          "governorGloss": "Uhren",
          "dependent": 15,
          "dependentGloss": "Samsung"
        },
        {
          "dep": "nmod",
          "governor": 13,
          "governorGloss": "verkleidet",
          "dependent": 16,
          "dependentGloss": "Uhren"
        }
      ],
      "enhancedDependencies": [
        {
          "dep": "ROOT",
          "governor": 0,
          "governorGloss": "ROOT",
          "dependent": 2,
          "dependentGloss": "Watch"
        },
        {
          "dep": "det",
          "governor": 2,
          "governorGloss": "Watch",
          "dependent": 1,
          "dependentGloss": "Apple"
        },
        {
          "dep": "case",
          "governor": 4,
          "governorGloss": "Feature",
          "dependent": 3,
          "dependentGloss": "zu"
        },
        {
          "dep": "nmod",
          "governor": 5,
          "governorGloss": "Time-Only",
          "dependent": 4,
          "dependentGloss": "Feature"
        },
        {
          "dep": "appos",
          "governor": 2,
          "governorGloss": "Watch",
          "dependent": 5,
          "dependentGloss": "Time-Only"
        },
        {
          "dep": "punct",
          "governor": 10,
          "governorGloss": "Mode",
          "dependent": 6,
          "dependentGloss": "`"
        },
        {
          "dep": "name",
          "governor": 8,
          "governorGloss": "Reserve",
          "dependent": 7,
          "dependentGloss": "Power"
        },
        {
          "dep": "name",
          "governor": 10,
          "governorGloss": "Mode",
          "dependent": 8,
          "dependentGloss": "Reserve"
        },
        {
          "dep": "punct",
          "governor": 10,
          "governorGloss": "Mode",
          "dependent": 9,
          "dependentGloss": "'"
        },
        {
          "dep": "appos",
          "governor": 5,
          "governorGloss": "Time-Only",
          "dependent": 10,
          "dependentGloss": "Mode"
        },
        {
          "dep": "punct",
          "governor": 10,
          "governorGloss": "Mode",
          "dependent": 11,
          "dependentGloss": ","
        },
        {
          "dep": "appos",
          "governor": 10,
          "governorGloss": "Mode",
          "dependent": 12,
          "dependentGloss": "Prototypen"
        },
        {
          "dep": "appos",
          "governor": 12,
          "governorGloss": "Prototypen",
          "dependent": 13,
          "dependentGloss": "verkleidet"
        },
        {
          "dep": "case",
          "governor": 16,
          "governorGloss": "Uhren",
          "dependent": 14,
          "dependentGloss": "als"
        },
        {
          "dep": "name",
          "governor": 16,
          "governorGloss": "Uhren",
          "dependent": 15,
          "dependentGloss": "Samsung"
        },
        {
          "dep": "nmod",
          "governor": 13,
          "governorGloss": "verkleidet",
          "dependent": 16,
          "dependentGloss": "Uhren"
        }
      ],
      "enhancedPlusPlusDependencies": [
        {
          "dep": "ROOT",
          "governor": 0,
          "governorGloss": "ROOT",
          "dependent": 2,
          "dependentGloss": "Watch"
        },
        {
          "dep": "det",
          "governor": 2,
          "governorGloss": "Watch",
          "dependent": 1,
          "dependentGloss": "Apple"
        },
        {
          "dep": "case",
          "governor": 4,
          "governorGloss": "Feature",
          "dependent": 3,
          "dependentGloss": "zu"
        },
        {
          "dep": "nmod",
          "governor": 5,
          "governorGloss": "Time-Only",
          "dependent": 4,
          "dependentGloss": "Feature"
        },
        {
          "dep": "appos",
          "governor": 2,
          "governorGloss": "Watch",
          "dependent": 5,
          "dependentGloss": "Time-Only"
        },
        {
          "dep": "punct",
          "governor": 10,
          "governorGloss": "Mode",
          "dependent": 6,
          "dependentGloss": "`"
        },
        {
          "dep": "name",
          "governor": 8,
          "governorGloss": "Reserve",
          "dependent": 7,
          "dependentGloss": "Power"
        },
        {
          "dep": "name",
          "governor": 10,
          "governorGloss": "Mode",
          "dependent": 8,
          "dependentGloss": "Reserve"
        },
        {
          "dep": "punct",
          "governor": 10,
          "governorGloss": "Mode",
          "dependent": 9,
          "dependentGloss": "'"
        },
        {
          "dep": "appos",
          "governor": 5,
          "governorGloss": "Time-Only",
          "dependent": 10,
          "dependentGloss": "Mode"
        },
        {
          "dep": "punct",
          "governor": 10,
          "governorGloss": "Mode",
          "dependent": 11,
          "dependentGloss": ","
        },
        {
          "dep": "appos",
          "governor": 10,
          "governorGloss": "Mode",
          "dependent": 12,
          "dependentGloss": "Prototypen"
        },
        {
          "dep": "appos",
          "governor": 12,
          "governorGloss": "Prototypen",
          "dependent": 13,
          "dependentGloss": "verkleidet"
        },
        {
          "dep": "case",
          "governor": 16,
          "governorGloss": "Uhren",
          "dependent": 14,
          "dependentGloss": "als"
        },
        {
          "dep": "name",
          "governor": 16,
          "governorGloss": "Uhren",
          "dependent": 15,
          "dependentGloss": "Samsung"
        },
        {
          "dep": "nmod",
          "governor": 13,
          "governorGloss": "verkleidet",
          "dependent": 16,
          "dependentGloss": "Uhren"
        }
      ],
      "tokens": [
        {
          "index": 1,
          "word": "Apple",
          "originalText": "Apple",
          "characterOffsetBegin": 0,
          "characterOffsetEnd": 5,
          "pos": "NE",
          "before": "",
          "after": " "
        },
        {
          "index": 2,
          "word": "Watch",
          "originalText": "Watch",
          "characterOffsetBegin": 6,
          "characterOffsetEnd": 11,
          "pos": "NE",
          "before": " ",
          "after": " "
        },
        {
          "index": 3,
          "word": "zu",
          "originalText": "zu",
          "characterOffsetBegin": 12,
          "characterOffsetEnd": 14,
          "pos": "APPR",
          "before": " ",
          "after": " "
        },
        {
          "index": 4,
          "word": "Feature",
          "originalText": "Feature",
          "characterOffsetBegin": 15,
          "characterOffsetEnd": 22,
          "pos": "NN",
          "before": " ",
          "after": " "
        },
        {
          "index": 5,
          "word": "Time-Only",
          "originalText": "Time-Only",
          "characterOffsetBegin": 23,
          "characterOffsetEnd": 32,
          "pos": "NE",
          "before": " ",
          "after": " "
        },
        {
          "index": 6,
          "word": "`",
          "originalText": "'",
          "characterOffsetBegin": 33,
          "characterOffsetEnd": 34,
          "pos": "CARD",
          "before": " ",
          "after": ""
        },
        {
          "index": 7,
          "word": "Power",
          "originalText": "Power",
          "characterOffsetBegin": 34,
          "characterOffsetEnd": 39,
          "pos": "NN",
          "before": "",
          "after": " "
        },
        {
          "index": 8,
          "word": "Reserve",
          "originalText": "Reserve",
          "characterOffsetBegin": 40,
          "characterOffsetEnd": 47,
          "pos": "NN",
          "before": " ",
          "after": ""
        },
        {
          "index": 9,
          "word": "'",
          "originalText": "'",
          "characterOffsetBegin": 47,
          "characterOffsetEnd": 48,
          "pos": "$[",
          "before": "",
          "after": " "
        },
        {
          "index": 10,
          "word": "Mode",
          "originalText": "Mode",
          "characterOffsetBegin": 49,
          "characterOffsetEnd": 53,
          "pos": "NN",
          "before": " ",
          "after": ""
        },
        {
          "index": 11,
          "word": ",",
          "originalText": ",",
          "characterOffsetBegin": 53,
          "characterOffsetEnd": 54,
          "pos": "$,",
          "before": "",
          "after": " "
        },
        {
          "index": 12,
          "word": "Prototypen",
          "originalText": "Prototypen",
          "characterOffsetBegin": 55,
          "characterOffsetEnd": 65,
          "pos": "NN",
          "before": " ",
          "after": " "
        },
        {
          "index": 13,
          "word": "verkleidet",
          "originalText": "verkleidet",
          "characterOffsetBegin": 66,
          "characterOffsetEnd": 76,
          "pos": "VVPP",
          "before": " ",
          "after": " "
        },
        {
          "index": 14,
          "word": "als",
          "originalText": "als",
          "characterOffsetBegin": 77,
          "characterOffsetEnd": 80,
          "pos": "KOKOM",
          "before": " ",
          "after": " "
        },
        {
          "index": 15,
          "word": "Samsung",
          "originalText": "Samsung",
          "characterOffsetBegin": 81,
          "characterOffsetEnd": 88,
          "pos": "NN",
          "before": " ",
          "after": " "
        },
        {
          "index": 16,
          "word": "Uhren",
          "originalText": "Uhren",
          "characterOffsetBegin": 89,
          "characterOffsetEnd": 94,
          "pos": "NN",
          "before": " ",
          "after": ""
        }
      ]
    }
  ]
}