{
  "sentences": [
    {
      "index": 0,
      "basicDependencies": [
        {
          "dep": "ROOT",
          "governor": 0,
          "governorGloss": "ROOT",
          "dependent": 1,
          "dependentGloss": "Kevin"
        },
        {
          "dep": "nsubj",
          "governor": 1,
          "governorGloss": "Kevin",
          "dependent": 2,
          "dependentGloss": "Vickers"
        },
        {
          "dep": "punct",
          "governor": 2,
          "governorGloss": "Vickers",
          "dependent": 3,
          "dependentGloss": ","
        },
        {
          "dep": "conj",
          "governor": 2,
          "governorGloss": "Vickers",
          "dependent": 4,
          "dependentGloss": "Sergeant-at-Arms"
        },
        {
          "dep": "punct",
          "governor": 2,
          "governorGloss": "Vickers",
          "dependent": 5,
          "dependentGloss": ","
        },
        {
          "dep": "conj",
          "governor": 2,
          "governorGloss": "Vickers",
          "dependent": 6,
          "dependentGloss": "schießt"
        },
        {
          "dep": "det",
          "governor": 8,
          "governorGloss": "Schuss-Verdächtigen",
          "dependent": 7,
          "dependentGloss": "einen"
        },
        {
          "dep": "appos",
          "governor": 2,
          "governorGloss": "Vickers",
          "dependent": 8,
          "dependentGloss": "Schuss-Verdächtigen"
        },
        {
          "dep": "case",
          "governor": 10,
          "governorGloss": "Ottawa",
          "dependent": 9,
          "dependentGloss": "in"
        },
        {
          "dep": "nmod",
          "governor": 8,
          "governorGloss": "Schuss-Verdächtigen",
          "dependent": 10,
          "dependentGloss": "Ottawa"
        },
        {
          "dep": "punct",
          "governor": 8,
          "governorGloss": "Schuss-Verdächtigen",
          "dependent": 11,
          "dependentGloss": ";"
        },
        {
          "dep": "det",
          "governor": 14,
          "governorGloss": "Held",
          "dependent": 12,
          "dependentGloss": "Ein"
        },
        {
          "dep": "punct",
          "governor": 14,
          "governorGloss": "Held",
          "dependent": 13,
          "dependentGloss": "``"
        },
        {
          "dep": "dobj",
          "governor": 16,
          "governorGloss": "genannt",
          "dependent": 14,
          "dependentGloss": "Held"
        },
        {
          "dep": "punct",
          "governor": 14,
          "governorGloss": "Held",
          "dependent": 15,
          "dependentGloss": "``"
        },
        {
          "dep": "acl",
          "governor": 8,
          "governorGloss": "Schuss-Verdächtigen",
          "dependent": 16,
          "dependentGloss": "genannt"
        }
      ],
      "enhancedDependencies": [
        {
          "dep": "ROOT",
          "governor": 0,
          "governorGloss": "ROOT",
          "dependent": 1,
          "dependentGloss": "Kevin"
        },
        {
          "dep": "nsubj",
          "governor": 1,
          "governorGloss": "Kevin",
          "dependent": 2,
          "dependentGloss": "Vickers"
        },
        {
          "dep": "punct",
          "governor": 2,
          "governorGloss": "Vickers",
          "dependent": 3,
          "dependentGloss": ","
        },
        {
          "dep": "conj",
          "governor": 2,
          "governorGloss": "Vickers",
          "dependent": 4,
          "dependentGloss": "Sergeant-at-Arms"
        },
        {
          "dep": "punct",
          "governor": 2,
          "governorGloss": "Vickers",
          "dependent": 5,
          "dependentGloss": ","
        },
        {
          "dep": "conj",
          "governor": 2,
          "governorGloss": "Vickers",
          "dependent": 6,
          "dependentGloss": "schießt"
        },
        {
          "dep": "det",
          "governor": 8,
          "governorGloss": "Schuss-Verdächtigen",
          "dependent": 7,
          "dependentGloss": "einen"
        },
        {
          "dep": "appos",
          "governor": 2,
          "governorGloss": "Vickers",
          "dependent": 8,
          "dependentGloss": "Schuss-Verdächtigen"
        },
        {
          "dep": "case",
          "governor": 10,
          "governorGloss": "Ottawa",
          "dependent": 9,
          "dependentGloss": "in"
        },
        {
          "dep": "nmod",
          "governor": 8,
          "governorGloss": "Schuss-Verdächtigen",
          "dependent": 10,
          "dependentGloss": "Ottawa"
        },
        {
          "dep": "punct",
          "governor": 8,
          "governorGloss": "Schuss-Verdächtigen",
          "dependent": 11,
          "dependentGloss": ";"
        },
        {
          "dep": "det",
          "governor": 14,
          "governorGloss": "Held",
          "dependent": 12,
          "dependentGloss": "Ein"
        },
        {
          "dep": "punct",
          "governor": 14,
          "governorGloss": "Held",
          "dependent": 13,
          "dependentGloss": "``"
        },
        {
          "dep": "dobj",
          "governor": 16,
          "governorGloss": "genannt",
          "dependent": 14,
          "dependentGloss": "Held"
        },
        {
          "dep": "punct",
          "governor": 14,
          "governorGloss": "Held",
          "dependent": 15,
          "dependentGloss": "``"
        },
        {
          "dep": "acl",
          "governor": 8,
          "governorGloss": "Schuss-Verdächtigen",
          "dependent": 16,
          "dependentGloss": "genannt"
        }
      ],
      "enhancedPlusPlusDependencies": [
        {
          "dep": "ROOT",
          "governor": 0,
          "governorGloss": "ROOT",
          "dependent": 1,
          "dependentGloss": "Kevin"
        },
        {
          "dep": "nsubj",
          "governor": 1,
          "governorGloss": "Kevin",
          "dependent": 2,
          "dependentGloss": "Vickers"
        },
        {
          "dep": "punct",
          "governor": 2,
          "governorGloss": "Vickers",
          "dependent": 3,
          "dependentGloss": ","
        },
        {
          "dep": "conj",
          "governor": 2,
          "governorGloss": "Vickers",
          "dependent": 4,
          "dependentGloss": "Sergeant-at-Arms"
        },
        {
          "dep": "punct",
          "governor": 2,
          "governorGloss": "Vickers",
          "dependent": 5,
          "dependentGloss": ","
        },
        {
          "dep": "conj",
          "governor": 2,
          "governorGloss": "Vickers",
          "dependent": 6,
          "dependentGloss": "schießt"
        },
        {
          "dep": "det",
          "governor": 8,
          "governorGloss": "Schuss-Verdächtigen",
          "dependent": 7,
          "dependentGloss": "einen"
        },
        {
          "dep": "appos",
          "governor": 2,
          "governorGloss": "Vickers",
          "dependent": 8,
          "dependentGloss": "Schuss-Verdächtigen"
        },
        {
          "dep": "case",
          "governor": 10,
          "governorGloss": "Ottawa",
          "dependent": 9,
          "dependentGloss": "in"
        },
        {
          "dep": "nmod",
          "governor": 8,
          "governorGloss": "Schuss-Verdächtigen",
          "dependent": 10,
          "dependentGloss": "Ottawa"
        },
        {
          "dep": "punct",
          "governor": 8,
          "governorGloss": "Schuss-Verdächtigen",
          "dependent": 11,
          "dependentGloss": ";"
        },
        {
          "dep": "det",
          "governor": 14,
          "governorGloss": "Held",
          "dependent": 12,
          "dependentGloss": "Ein"
        },
        {
          "dep": "punct",
          "governor": 14,
          "governorGloss": "Held",
          "dependent": 13,
          "dependentGloss": "``"
        },
        {
          "dep": "dobj",
          "governor": 16,
          "governorGloss": "genannt",
          "dependent": 14,
          "dependentGloss": "Held"
        },
        {
          "dep": "punct",
          "governor": 14,
          "governorGloss": "Held",
          "dependent": 15,
          "dependentGloss": "``"
        },
        {
          "dep": "acl",
          "governor": 8,
          "governorGloss": "Schuss-Verdächtigen",
          "dependent": 16,
          "dependentGloss": "genannt"
        }
      ],
      "tokens": [
        {
          "index": 1,
          "word": "Kevin",
          "originalText": "Kevin",
          "characterOffsetBegin": 0,
          "characterOffsetEnd": 5,
          "pos": "NE",
          "before": "",
          "after": " "
        },
        {
          "index": 2,
          "word": "Vickers",
          "originalText": "Vickers",
          "characterOffsetBegin": 6,
          "characterOffsetEnd": 13,
          "pos": "NE",
          "before": " ",
          "after": ""
        },
        {
          "index": 3,
          "word": ",",
          "originalText": ",",
          "characterOffsetBegin": 13,
          "characterOffsetEnd": 14,
          "pos": "$,",
          "before": "",
          "after": " "
        },
        {
          "index": 4,
          "word": "Sergeant-at-Arms",
          "originalText": "Sergeant-at-Arms",
          "characterOffsetBegin": 15,
          "characterOffsetEnd": 31,
          "pos": "NN",
          "before": " ",
          "after": ""
        },
        {
          "index": 5,
          "word": ",",
          "originalText": ",",
          "characterOffsetBegin": 31,
          "characterOffsetEnd": 32,
          "pos": "$,",
          "before": "",
          "after": " "
        },
        {
          "index": 6,
          "word": "schießt",
          "originalText": "schießt",
          "characterOffsetBegin": 33,
          "characterOffsetEnd": 40,
          "pos": "VVFIN",
          "before": " ",
          "after": " "
        },
        {
          "index": 7,
          "word": "einen",
          "originalText": "einen",
          "characterOffsetBegin": 41,
          "characterOffsetEnd": 46,
          "pos": "ART",
          "before": " ",
          "after": " "
        },
        {
          "index": 8,
          "word": "Schuss-Verdächtigen",
          "originalText": "Schuss-Verdächtigen",
          "characterOffsetBegin": 47,
          "characterOffsetEnd": 66,
          "pos": "NN",
          "before": " ",
          "after": " "
        },
        {
          "index": 9,
          "word": "in",
          "originalText": "in",
          "characterOffsetBegin": 67,
          "characterOffsetEnd": 69,
          "pos": "APPR",
          "before": " ",
          "after": " "
        },
        {
          "index": 10,
          "word": "Ottawa",
          "originalText": "Ottawa",
          "characterOffsetBegin": 70,
          "characterOffsetEnd": 76,
          "pos": "NE",
          "before": " ",
          "after": ""
        },
        {
          "index": 11,
          "word": ";",
          "originalText": ";",
          "characterOffsetBegin": 76,
          "characterOffsetEnd": 77,
          "pos": "$.",
          "before": "",
          "after": " "
        },
        {
          "index": 12,
          "word": "Ein",
          "originalText": "Ein",
          "characterOffsetBegin": 78,
          "characterOffsetEnd": 81,
          "pos": "ART",
          "before": " ",
          "after": " "
        },
        {
          "index": 13,
          "word": "``",
          "originalText": "“",
          "characterOffsetBegin": 82,
          "characterOffsetEnd": 83,
          "pos": "CARD",
          "before": " ",
          "after": ""
        },
        {
          "index": 14,
          "word": "Held",
          "originalText": "Held",
          "characterOffsetBegin": 83,
          "characterOffsetEnd": 87,
          "pos": "NN",
          "before": "",
          "after": ""
        },
        {
          "index": 15,
          "word": "``",
          "originalText": "“",
          "characterOffsetBegin": 87,
          "characterOffsetEnd": 88,
          "pos": "CARD",
          "before": "",
          "after": " "
        },
        {
          "index": 16,
          "word": "genannt",
          "originalText": "genannt",
          "characterOffsetBegin": 89,
          "characterOffsetEnd": 96,
          "pos": "VVPP",
          "before": " ",
          "after": ""
        }
      ]
    }
  ]
}