{
  "sentences": [
    {
      "index": 0,
      "basicDependencies": [
        {
          "dep": "ROOT",
          "governor": 0,
          "governorGloss": "ROOT",
          "dependent": 4,
          "dependentGloss": "vermutete"
        },
        {
          "dep": "nummod",
          "governor": 3,
          "governorGloss": "sagen",
          "dependent": 1,
          "dependentGloss": "Zwei"
        },
        {
          "dep": "amod",
          "governor": 3,
          "governorGloss": "sagen",
          "dependent": 2,
          "dependentGloss": "GOP-Kongressabgeordnete"
        },
        {
          "dep": "nsubj",
          "governor": 4,
          "governorGloss": "vermutete",
          "dependent": 3,
          "dependentGloss": "sagen"
        },
        {
          "dep": "nmod",
          "governor": 4,
          "governorGloss": "vermutete",
          "dependent": 5,
          "dependentGloss": "Terroristen"
        },
        {
          "dep": "punct",
          "governor": 4,
          "governorGloss": "vermutete",
          "dependent": 6,
          "dependentGloss": ","
        },
        {
          "dep": "det",
          "governor": 9,
          "governorGloss": "U.S.-Mexiko",
          "dependent": 7,
          "dependentGloss": "die"
        },
        {
          "dep": "amod",
          "governor": 9,
          "governorGloss": "U.S.-Mexiko",
          "dependent": 8,
          "dependentGloss": "überquerte"
        },
        {
          "dep": "dobj",
          "governor": 4,
          "governorGloss": "vermutete",
          "dependent": 9,
          "dependentGloss": "U.S.-Mexiko"
        },
        {
          "dep": "appos",
          "governor": 9,
          "governorGloss": "U.S.-Mexiko",
          "dependent": 10,
          "dependentGloss": "Grenze"
        }
      ],
      "enhancedDependencies": [
        {
          "dep": "ROOT",
          "governor": 0,
          "governorGloss": "ROOT",
          "dependent": 4,
          "dependentGloss": "vermutete"
        },
        {
          "dep": "nummod",
          "governor": 3,
          "governorGloss": "sagen",
          "dependent": 1,
          "dependentGloss": "Zwei"
        },
        {
          "dep": "amod",
          "governor": 3,
          "governorGloss": "sagen",
          "dependent": 2,
          "dependentGloss": "GOP-Kongressabgeordnete"
        },
        {
          "dep": "nsubj",
          "governor": 4,
          "governorGloss": "vermutete",
          "dependent": 3,
          "dependentGloss": "sagen"
        },
        {
          "dep": "nmod",
          "governor": 4,
          "governorGloss": "vermutete",
          "dependent": 5,
          "dependentGloss": "Terroristen"
        },
        {
          "dep": "punct",
          "governor": 4,
          "governorGloss": "vermutete",
          "dependent": 6,
          "dependentGloss": ","
        },
        {
          "dep": "det",
          "governor": 9,
          "governorGloss": "U.S.-Mexiko",
          "dependent": 7,
          "dependentGloss": "die"
        },
        {
          "dep": "amod",
          "governor": 9,
          "governorGloss": "U.S.-Mexiko",
          "dependent": 8,
          "dependentGloss": "überquerte"
        },
        {
          "dep": "dobj",
          "governor": 4,
          "governorGloss": "vermutete",
          "dependent": 9,
          "dependentGloss": "U.S.-Mexiko"
        },
        {
          "dep": "appos",
          "governor": 9,
          "governorGloss": "U.S.-Mexiko",
          "dependent": 10,
          "dependentGloss": "Grenze"
        }
      ],
      "enhancedPlusPlusDependencies": [
        {
          "dep": "ROOT",
          "governor": 0,
          "governorGloss": "ROOT",
          "dependent": 4,
          "dependentGloss": "vermutete"
        },
        {
          "dep": "nummod",
          "governor": 3,
          "governorGloss": "sagen",
          "dependent": 1,
          "dependentGloss": "Zwei"
        },
        {
          "dep": "amod",
          "governor": 3,
          "governorGloss": "sagen",
          "dependent": 2,
          "dependentGloss": "GOP-Kongressabgeordnete"
        },
        {
          "dep": "nsubj",
          "governor": 4,
          "governorGloss": "vermutete",
          "dependent": 3,
          "dependentGloss": "sagen"
        },
        {
          "dep": "nmod",
          "governor": 4,
          "governorGloss": "vermutete",
          "dependent": 5,
          "dependentGloss": "Terroristen"
        },
        {
          "dep": "punct",
          "governor": 4,
          "governorGloss": "vermutete",
          "dependent": 6,
          "dependentGloss": ","
        },
        {
          "dep": "det",
          "governor": 9,
          "governorGloss": "U.S.-Mexiko",
          "dependent": 7,
          "dependentGloss": "die"
        },
        {
          "dep": "amod",
          "governor": 9,
          "governorGloss": "U.S.-Mexiko",
          "dependent": 8,
          "dependentGloss": "überquerte"
        },
        {
          "dep": "dobj",
          "governor": 4,
          "governorGloss": "vermutete",
          "dependent": 9,
          "dependentGloss": "U.S.-Mexiko"
        },
        {
          "dep": "appos",
          "governor": 9,
          "governorGloss": "U.S.-Mexiko",
          "dependent": 10,
          "dependentGloss": "Grenze"
        }
      ],
      "tokens": [
        {
          "index": 1,
          "word": "Zwei",
          "originalText": "Zwei",
          "characterOffsetBegin": 0,
          "characterOffsetEnd": 4,
          "pos": "CARD",
          "before": "",
          "after": " "
        },
        {
          "index": 2,
          "word": "GOP-Kongressabgeordnete",
          "originalText": "GOP-Kongressabgeordnete",
          "characterOffsetBegin": 5,
          "characterOffsetEnd": 28,
          "pos": "NN",
          "before": " ",
          "after": " "
        },
        {
          "index": 3,
          "word": "sagen",
          "originalText": "sagen",
          "characterOffsetBegin": 29,
          "characterOffsetEnd": 34,
          "pos": "VVFIN",
          "before": " ",
          "after": " "
        },
        {
          "index": 4,
          "word": "vermutete",
          "originalText": "vermutete",
          "characterOffsetBegin": 35,
          "characterOffsetEnd": 44,
          "pos": "ADJA",
          "before": " ",
          "after": " "
        },
        {
          "index": 5,
          "word": "Terroristen",
          "originalText": "Terroristen",
          "characterOffsetBegin": 45,
          "characterOffsetEnd": 56,
          "pos": "NN",
          "before": " ",
          "after": ""
        },
        {
          "index": 6,
          "word": ",",
          "originalText": ",",
          "characterOffsetBegin": 56,
          "characterOffsetEnd": 57,
          "pos": "$,",
          "before": "",
          "after": " "
        },
        {
          "index": 7,
          "word": "die",
          "originalText": "die",
          "characterOffsetBegin": 58,
          "characterOffsetEnd": 61,
          "pos": "ART",
          "before": " ",
          "after": " "
        },
        {
          "index": 8,
          "word": "überquerte",
          "originalText": "überquerte",
          "characterOffsetBegin": 62,
          "characterOffsetEnd": 72,
          "pos": "ADJA",
          "before": " ",
          "after": " "
        },
        {
          "index": 9,
          "word": "U.S.-Mexiko",
          "originalText": "U.S.-Mexiko",
          "characterOffsetBegin": 73,
          "characterOffsetEnd": 84,
          "pos": "NN",
          "before": " ",
          "after": " "
        },
        {
          "index": 10,
          "word": "Grenze",
          "originalText": "Grenze",
          "characterOffsetBegin": 85,
          "characterOffsetEnd": 91,
          "pos": "NN",
          "before": " ",
          "after": ""
        }
      ]
    }
  ]
}