{
  "sentences": [
    {
      "index": 0,
      "basicDependencies": [
        {
          "dep": "ROOT",
          "governor": 0,
          "governorGloss": "ROOT",
          "dependent": 8,
          "dependentGloss": "kosten"
        },
        {
          "dep": "advmod",
          "governor": 8,
          "governorGloss": "kosten",
          "dependent": 1,
          "dependentGloss": "Edelstahl"
        },
        {
          "dep": "det",
          "governor": 3,
          "governorGloss": "Watch",
          "dependent": 2,
          "dependentGloss": "Apple"
        },
        {
          "dep": "dobj",
          "governor": 8,
          "governorGloss": "kosten",
          "dependent": 3,
          "dependentGloss": "Watch"
        },
        {
          "dep": "aux",
          "governor": 8,
          "governorGloss": "kosten",
          "dependent": 4,
          "dependentGloss": "könnte"
        },
        {
          "dep": "advmod",
          "governor": 8,
          "governorGloss": "kosten",
          "dependent": 5,
          "dependentGloss": "nur"
        },
        {
          "dep": "nsubj",
          "governor": 8,
          "governorGloss": "kosten",
          "dependent": 6,
          "dependentGloss": "$"
        },
        {
          "dep": "dobj",
          "governor": 8,
          "governorGloss": "kosten",
          "dependent": 7,
          "dependentGloss": "499"
        },
        {
          "dep": "punct",
          "governor": 8,
          "governorGloss": "kosten",
          "dependent": 9,
          "dependentGloss": ","
        },
        {
          "dep": "cc",
          "governor": 8,
          "governorGloss": "kosten",
          "dependent": 10,
          "dependentGloss": "aber"
        },
        {
          "dep": "nsubj",
          "governor": 16,
          "governorGloss": "teuer",
          "dependent": 11,
          "dependentGloss": "Gold"
        },
        {
          "dep": "cop",
          "governor": 16,
          "governorGloss": "teuer",
          "dependent": 12,
          "dependentGloss": "wird"
        },
        {
          "dep": "nummod",
          "governor": 14,
          "governorGloss": "mal",
          "dependent": 13,
          "dependentGloss": "10"
        },
        {
          "dep": "advmod",
          "governor": 16,
          "governorGloss": "teuer",
          "dependent": 14,
          "dependentGloss": "mal"
        },
        {
          "dep": "advmod",
          "governor": 16,
          "governorGloss": "teuer",
          "dependent": 15,
          "dependentGloss": "so"
        },
        {
          "dep": "conj",
          "governor": 8,
          "governorGloss": "kosten",
          "dependent": 16,
          "dependentGloss": "teuer"
        },
        {
          "dep": "punct",
          "governor": 16,
          "governorGloss": "teuer",
          "dependent": 17,
          "dependentGloss": "sein"
        }
      ],
      "enhancedDependencies": [
        {
          "dep": "ROOT",
          "governor": 0,
          "governorGloss": "ROOT",
          "dependent": 8,
          "dependentGloss": "kosten"
        },
        {
          "dep": "advmod",
          "governor": 8,
          "governorGloss": "kosten",
          "dependent": 1,
          "dependentGloss": "Edelstahl"
        },
        {
          "dep": "det",
          "governor": 3,
          "governorGloss": "Watch",
          "dependent": 2,
          "dependentGloss": "Apple"
        },
        {
          "dep": "dobj",
          "governor": 8,
          "governorGloss": "kosten",
          "dependent": 3,
          "dependentGloss": "Watch"
        },
        {
          "dep": "aux",
          "governor": 8,
          "governorGloss": "kosten",
          "dependent": 4,
          "dependentGloss": "könnte"
        },
        {
          "dep": "advmod",
          "governor": 8,
          "governorGloss": "kosten",
          "dependent": 5,
          "dependentGloss": "nur"
        },
        {
          "dep": "nsubj",
          "governor": 8,
          "governorGloss": "kosten",
          "dependent": 6,
          "dependentGloss": "$"
        },
        {
          "dep": "dobj",
          "governor": 8,
          "governorGloss": "kosten",
          "dependent": 7,
          "dependentGloss": "499"
        },
        {
          "dep": "punct",
          "governor": 8,
          "governorGloss": "kosten",
          "dependent": 9,
          "dependentGloss": ","
        },
        {
          "dep": "cc",
          "governor": 8,
          "governorGloss": "kosten",
          "dependent": 10,
          "dependentGloss": "aber"
        },
        {
          "dep": "nsubj",
          "governor": 16,
          "governorGloss": "teuer",
          "dependent": 11,
          "dependentGloss": "Gold"
        },
        {
          "dep": "cop",
          "governor": 16,
          "governorGloss": "teuer",
          "dependent": 12,
          "dependentGloss": "wird"
        },
        {
          "dep": "nummod",
          "governor": 14,
          "governorGloss": "mal",
          "dependent": 13,
          "dependentGloss": "10"
        },
        {
          "dep": "advmod",
          "governor": 16,
          "governorGloss": "teuer",
          "dependent": 14,
          "dependentGloss": "mal"
        },
        {
          "dep": "advmod",
          "governor": 16,
          "governorGloss": "teuer",
          "dependent": 15,
          "dependentGloss": "so"
        },
        {
          "dep": "conj:aber",
          "governor": 8,
          "governorGloss": "kosten",
          "dependent": 16,
          "dependentGloss": "teuer"
        },
        {
          "dep": "punct",
          "governor": 16,
          "governorGloss": "teuer",
          "dependent": 17,
          "dependentGloss": "sein"
        }
      ],
      "enhancedPlusPlusDependencies": [
        {
          "dep": "ROOT",
          "governor": 0,
          "governorGloss": "ROOT",
          "dependent": 8,
          "dependentGloss": "kosten"
        },
        {
          "dep": "advmod",
          "governor": 8,
          "governorGloss": "kosten",
          "dependent": 1,
          "dependentGloss": "Edelstahl"
        },
        {
          "dep": "det",
          "governor": 3,
          "governorGloss": "Watch",
          "dependent": 2,
          "dependentGloss": "Apple"
        },
        {
          "dep": "dobj",
          "governor": 8,
          "governorGloss": "kosten",
          "dependent": 3,
          "dependentGloss": "Watch"
        },
        {
          "dep": "aux",
          "governor": 8,
          "governorGloss": "kosten",
          "dependent": 4,
          "dependentGloss": "könnte"
        },
        {
          "dep": "advmod",
          "governor": 8,
          "governorGloss": "kosten",
          "dependent": 5,
          "dependentGloss": "nur"
        },
        {
          "dep": "nsubj",
          "governor": 8,
          "governorGloss": "kosten",
          "dependent": 6,
          "dependentGloss": "$"
        },
        {
          "dep": "dobj",
          "governor": 8,
          "governorGloss": "kosten",
          "dependent": 7,
          "dependentGloss": "499"
        },
        {
          "dep": "punct",
          "governor": 8,
          "governorGloss": "kosten",
          "dependent": 9,
          "dependentGloss": ","
        },
        {
          "dep": "cc",
          "governor": 8,
          "governorGloss": "kosten",
          "dependent": 10,
          "dependentGloss": "aber"
        },
        {
          "dep": "nsubj",
          "governor": 16,
          "governorGloss": "teuer",
          "dependent": 11,
          "dependentGloss": "Gold"
        },
        {
          "dep": "cop",
          "governor": 16,
          "governorGloss": "teuer",
          "dependent": 12,
          "dependentGloss": "wird"
        },
        {
          "dep": "nummod",
          "governor": 14,
          "governorGloss": "mal",
          "dependent": 13,
          "dependentGloss": "10"
        },
        {
          "dep": "advmod",
          "governor": 16,
          "governorGloss": "teuer",
          "dependent": 14,
          "dependentGloss": "mal"
        },
        {
          "dep": "advmod",
          "governor": 16,
          "governorGloss": "teuer",
          "dependent": 15,
          "dependentGloss": "so"
        },
        {
          "dep": "conj:aber",
          "governor": 8,
          "governorGloss": "kosten",
          "dependent": 16,
          "dependentGloss": "teuer"
        },
        {
          "dep": "punct",
          "governor": 16,
          "governorGloss": "teuer",
          "dependent": 17,
          "dependentGloss": "sein"
        }
      ],
      "tokens": [
        {
          "index": 1,
          "word": "Edelstahl",
          "originalText": "Edelstahl",
          "characterOffsetBegin": 0,
          "characterOffsetEnd": 9,
          "pos": "NN",
          "before": "",
          "after": " "
        },
        {
          "index": 2,
          "word": "Apple",
          "originalText": "Apple",
          "characterOffsetBegin": 10,
          "characterOffsetEnd": 15,
          "pos": "NE",
          "before": " ",
          "after": " "
        },
        {
          "index": 3,
          "word": "Watch",
          "originalText": "Watch",
          "characterOffsetBegin": 16,
          "characterOffsetEnd": 21,
          "pos": "NE",
          "before": " ",
          "after": " "
        },
        {
          "index": 4,
          "word": "könnte",
          "originalText": "könnte",
          "characterOffsetBegin": 22,
          "characterOffsetEnd": 28,
          "pos": "VMFIN",
          "before": " ",
          "after": " "
        },
        {
          "index": 5,
          "word": "nur",
          "originalText": "nur",
          "characterOffsetBegin": 29,
          "characterOffsetEnd": 32,
          "pos": "ADV",
          "before": " ",
          "after": " "
        },
        {
          "index": 6,
          "word": "$",
          "originalText": "$",
          "characterOffsetBegin": 33,
          "characterOffsetEnd": 34,
          "pos": "CARD",
          "before": " ",
          "after": " "
        },
        {
          "index": 7,
          "word": "499",
          "originalText": "499",
          "characterOffsetBegin": 35,
          "characterOffsetEnd": 38,
          "pos": "CARD",
          "before": " ",
          "after": " "
        },
        {
          "index": 8,
          "word": "kosten",
          "originalText": "kosten",
          "characterOffsetBegin": 39,
          "characterOffsetEnd": 45,
          "pos": "VVINF",
          "before": " ",
          "after": ""
        },
        {
          "index": 9,
          "word": ",",
          "originalText": ",",
          "characterOffsetBegin": 45,
          "characterOffsetEnd": 46,
          "pos": "$,",
          "before": "",
          "after": " "
        },
        {
          "index": 10,
          "word": "aber",
          "originalText": "aber",
          "characterOffsetBegin": 47,
          "characterOffsetEnd": 51,
          "pos": "KON",
          "before": " ",
          "after": " "
        },
        {
          "index": 11,
          "word": "Gold",
          "originalText": "Gold",
          "characterOffsetBegin": 52,
          "characterOffsetEnd": 56,
          "pos": "NN",
          "before": " ",
          "after": " "
        },
        {
          "index": 12,
          "word": "wird",
          "originalText": "wird",
          "characterOffsetBegin": 57,
          "characterOffsetEnd": 61,
          "pos": "VAFIN",
          "before": " ",
          "after": " "
        },
        {
          "index": 13,
          "word": "10",
          "originalText": "10",
          "characterOffsetBegin": 62,
          "characterOffsetEnd": 64,
          "pos": "CARD",
          "before": " ",
          "after": " "
        },
        {
          "index": 14,
          "word": "mal",
          "originalText": "mal",
          "characterOffsetBegin": 65,
          "characterOffsetEnd": 68,
          "pos": "ADV",
          "before": " ",
          "after": " "
        },
        {
          "index": 15,
          "word": "so",
          "originalText": "so",
          "characterOffsetBegin": 69,
          "characterOffsetEnd": 71,
          "pos": "ADV",
          "before": " ",
          "after": " "
        },
        {
          "index": 16,
          "word": "teuer",
          "originalText": "teuer",
          "characterOffsetBegin": 72,
          "characterOffsetEnd": 77,
          "pos": "ADJD",
          "before": " ",
          "after": " "
        },
        {
          "index": 17,
          "word": "sein",
          "originalText": "sein",
          "characterOffsetBegin": 78,
          "characterOffsetEnd": 82,
          "pos": "VAINF",
          "before": " ",
          "after": ""
        }
      ]
    }
  ]
}