{
  "sentences": [
    {
      "index": 0,
      "basicDependencies": [
        {
          "dep": "ROOT",
          "governor": 0,
          "governorGloss": "ROOT",
          "dependent": 9,
          "dependentGloss": "-RRB-"
        },
        {
          "dep": "name",
          "governor": 2,
          "governorGloss": "Bale",
          "dependent": 1,
          "dependentGloss": "Christian"
        },
        {
          "dep": "det",
          "governor": 3,
          "governorGloss": "Exits",
          "dependent": 2,
          "dependentGloss": "Bale"
        },
        {
          "dep": "nsubj",
          "governor": 9,
          "governorGloss": "-RRB-",
          "dependent": 3,
          "dependentGloss": "Exits"
        },
        {
          "dep": "name",
          "governor": 5,
          "governorGloss": "Jobs",
          "dependent": 4,
          "dependentGloss": "Steve"
        },
        {
          "dep": "det",
          "governor": 6,
          "governorGloss": "Film",
          "dependent": 5,
          "dependentGloss": "Jobs"
        },
        {
          "dep": "det",
          "governor": 3,
          "governorGloss": "Exits",
          "dependent": 6,
          "dependentGloss": "Film"
        },
        {
          "dep": "amod",
          "governor": 8,
          "governorGloss": "Exklusiv",
          "dependent": 7,
          "dependentGloss": "-LRB-"
        },
        {
          "dep": "det",
          "governor": 6,
          "governorGloss": "Film",
          "dependent": 8,
          "dependentGloss": "Exklusiv"
        }
      ],
      "enhancedDependencies": [
        {
          "dep": "ROOT",
          "governor": 0,
          "governorGloss": "ROOT",
          "dependent": 9,
          "dependentGloss": "-RRB-"
        },
        {
          "dep": "name",
          "governor": 2,
          "governorGloss": "Bale",
          "dependent": 1,
          "dependentGloss": "Christian"
        },
        {
          "dep": "det",
          "governor": 3,
          "governorGloss": "Exits",
          "dependent": 2,
          "dependentGloss": "Bale"
        },
        {
          "dep": "nsubj",
          "governor": 9,
          "governorGloss": "-RRB-",
          "dependent": 3,
          "dependentGloss": "Exits"
        },
        {
          "dep": "name",
          "governor": 5,
          "governorGloss": "Jobs",
          "dependent": 4,
          "dependentGloss": "Steve"
        },
        {
          "dep": "det",
          "governor": 6,
          "governorGloss": "Film",
          "dependent": 5,
          "dependentGloss": "Jobs"
        },
        {
          "dep": "det",
          "governor": 3,
          "governorGloss": "Exits",
          "dependent": 6,
          "dependentGloss": "Film"
        },
        {
          "dep": "amod",
          "governor": 8,
          "governorGloss": "Exklusiv",
          "dependent": 7,
          "dependentGloss": "-LRB-"
        },
        {
          "dep": "det",
          "governor": 6,
          "governorGloss": "Film",
          "dependent": 8,
          "dependentGloss": "Exklusiv"
        }
      ],
      "enhancedPlusPlusDependencies": [
        {
          "dep": "ROOT",
          "governor": 0,
          "governorGloss": "ROOT",
          "dependent": 9,
          "dependentGloss": "-RRB-"
        },
        {
          "dep": "name",
          "governor": 2,
          "governorGloss": "Bale",
          "dependent": 1,
          "dependentGloss": "Christian"
        },
        {
          "dep": "det",
          "governor": 3,
          "governorGloss": "Exits",
          "dependent": 2,
          "dependentGloss": "Bale"
        },
        {
          "dep": "nsubj",
          "governor": 9,
          "governorGloss": "-RRB-",
          "dependent": 3,
          "dependentGloss": "Exits"
        },
        {
          "dep": "name",
          "governor": 5,
          "governorGloss": "Jobs",
          "dependent": 4,
          "dependentGloss": "Steve"
        },
        {
          "dep": "det",
          "governor": 6,
          "governorGloss": "Film",
          "dependent": 5,
          "dependentGloss": "Jobs"
        },
        {
          "dep": "det",
          "governor": 3,
          "governorGloss": "Exits",
          "dependent": 6,
          "dependentGloss": "Film"
        },
        {
          "dep": "amod",
          "governor": 8,
          "governorGloss": "Exklusiv",
          "dependent": 7,
          "dependentGloss": "-LRB-"
        },
        {
          "dep": "det",
          "governor": 6,
          "governorGloss": "Film",
          "dependent": 8,
          "dependentGloss": "Exklusiv"
        }
      ],
      "tokens": [
        {
          "index": 1,
          "word": "Christian",
          "originalText": "Christian",
          "characterOffsetBegin": 0,
          "characterOffsetEnd": 9,
          "pos": "NE",
          "before": "",
          "after": " "
        },
        {
          "index": 2,
          "word": "Bale",
          "originalText": "Bale",
          "characterOffsetBegin": 10,
          "characterOffsetEnd": 14,
          "pos": "NE",
          "before": " ",
          "after": " "
        },
        {
          "index": 3,
          "word": "Exits",
          "originalText": "Exits",
          "characterOffsetBegin": 15,
          "characterOffsetEnd": 20,
          "pos": "NE",
          "before": " ",
          "after": " "
        },
        {
          "index": 4,
          "word": "Steve",
          "originalText": "Steve",
          "characterOffsetBegin": 21,
          "characterOffsetEnd": 26,
          "pos": "NE",
          "before": " ",
          "after": " "
        },
        {
          "index": 5,
          "word": "Jobs",
          "originalText": "Jobs",
          "characterOffsetBegin": 27,
          "characterOffsetEnd": 31,
          "pos": "NN",
          "before": " ",
          "after": " "
        },
        {
          "index": 6,
          "word": "Film",
          "originalText": "Film",
          "characterOffsetBegin": 32,
          "characterOffsetEnd": 36,
          "pos": "NN",
          "before": " ",
          "after": " "
        },
        {
          "index": 7,
          "word": "-LRB-",
          "originalText": "(",
          "characterOffsetBegin": 37,
          "characterOffsetEnd": 38,
          "pos": "TRUNC",
          "before": " ",
          "after": ""
        },
        {
          "index": 8,
          "word": "Exklusiv",
          "originalText": "Exklusiv",
          "characterOffsetBegin": 38,
          "characterOffsetEnd": 46,
          "pos": "NN",
          "before": "",
          "after": ""
        },
        {
          "index": 9,
          "word": "-RRB-",
          "originalText": ")",
          "characterOffsetBegin": 46,
          "characterOffsetEnd": 47,
          "pos": "TRUNC",
          "before": "",
          "after": ""
        }
      ]
    }
  ]
}