{
  "sentences": [
    {
      "index": 0,
      "basicDependencies": [
        {
          "dep": "ROOT",
          "governor": 0,
          "governorGloss": "ROOT",
          "dependent": 8,
          "dependentGloss": "verlassen"
        },
        {
          "dep": "dobj",
          "governor": 8,
          "governorGloss": "verlassen",
          "dependent": 1,
          "dependentGloss": "Hund"
        },
        {
          "dep": "case",
          "governor": 3,
          "governorGloss": "Ayr-Station",
          "dependent": 2,
          "dependentGloss": "auf"
        },
        {
          "dep": "nmod",
          "governor": 1,
          "governorGloss": "Hund",
          "dependent": 3,
          "dependentGloss": "Ayr-Station"
        },
        {
          "dep": "case",
          "governor": 5,
          "governorGloss": "Sachen",
          "dependent": 4,
          "dependentGloss": "mit"
        },
        {
          "dep": "nmod",
          "governor": 6,
          "governorGloss": "im",
          "dependent": 5,
          "dependentGloss": "Sachen"
        },
        {
          "dep": "amod",
          "governor": 7,
          "governorGloss": "Koffer",
          "dependent": 6,
          "dependentGloss": "im"
        },
        {
          "dep": "det",
          "governor": 3,
          "governorGloss": "Ayr-Station",
          "dependent": 7,
          "dependentGloss": "Koffer"
        }
      ],
      "enhancedDependencies": [
        {
          "dep": "ROOT",
          "governor": 0,
          "governorGloss": "ROOT",
          "dependent": 8,
          "dependentGloss": "verlassen"
        },
        {
          "dep": "dobj",
          "governor": 8,
          "governorGloss": "verlassen",
          "dependent": 1,
          "dependentGloss": "Hund"
        },
        {
          "dep": "case",
          "governor": 3,
          "governorGloss": "Ayr-Station",
          "dependent": 2,
          "dependentGloss": "auf"
        },
        {
          "dep": "nmod",
          "governor": 1,
          "governorGloss": "Hund",
          "dependent": 3,
          "dependentGloss": "Ayr-Station"
        },
        {
          "dep": "case",
          "governor": 5,
          "governorGloss": "Sachen",
          "dependent": 4,
          "dependentGloss": "mit"
        },
        {
          "dep": "nmod",
          "governor": 6,
          "governorGloss": "im",
          "dependent": 5,
          "dependentGloss": "Sachen"
        },
        {
          "dep": "amod",
          "governor": 7,
          "governorGloss": "Koffer",
          "dependent": 6,
          "dependentGloss": "im"
        },
        {
          "dep": "det",
          "governor": 3,
          "governorGloss": "Ayr-Station",
          "dependent": 7,
          "dependentGloss": "Koffer"
        }
      ],
      "enhancedPlusPlusDependencies": [
        {
          "dep": "ROOT",
          "governor": 0,
          "governorGloss": "ROOT",
          "dependent": 8,
          "dependentGloss": "verlassen"
        },
        {
          "dep": "dobj",
          "governor": 8,
          "governorGloss": "verlassen",
          "dependent": 1,
          "dependentGloss": "Hund"
        },
        {
          "dep": "case",
          "governor": 3,
          "governorGloss": "Ayr-Station",
          "dependent": 2,
          "dependentGloss": "auf"
        },
        {
          "dep": "nmod",
          "governor": 1,
          "governorGloss": "Hund",
          "dependent": 3,
          "dependentGloss": "Ayr-Station"
        },
        {
          "dep": "case",
          "governor": 5,
          "governorGloss": "Sachen",
          "dependent": 4,
          "dependentGloss": "mit"
        },
        {
          "dep": "nmod",
          "governor": 6,
          "governorGloss": "im",
          "dependent": 5,
          "dependentGloss": "Sachen"
        },
        {
          "dep": "amod",
          "governor": 7,
          "governorGloss": "Koffer",
          "dependent": 6,
          "dependentGloss": "im"
        },
        {
          "dep": "det",
          "governor": 3,
          "governorGloss": "Ayr-Station",
          "dependent": 7,
          "dependentGloss": "Koffer"
        }
      ],
      "tokens": [
        {
          "index": 1,
          "word": "Hund",
          "originalText": "Hund",
          "characterOffsetBegin": 0,
          "characterOffsetEnd": 4,
          "pos": "NN",
          "before": "",
          "after": " "
        },
        {
          "index": 2,
          "word": "auf",
          "originalText": "auf",
          "characterOffsetBegin": 5,
          "characterOffsetEnd": 8,
          "pos": "APPR",
          "before": " ",
          "after": " "
        },
        {
          "index": 3,
          "word": "Ayr-Station",
          "originalText": "Ayr-Station",
          "characterOffsetBegin": 9,
          "characterOffsetEnd": 20,
          "pos": "NN",
          "before": " ",
          "after": " "
        },
        {
          "index": 4,
          "word": "mit",
          "originalText": "mit",
          "characterOffsetBegin": 21,
          "characterOffsetEnd": 24,
          "pos": "APPR",
          "before": " ",
          "after": " "
        },
        {
          "index": 5,
          "word": "Sachen",
          "originalText": "Sachen",
          "characterOffsetBegin": 25,
          "characterOffsetEnd": 31,
          "pos": "NN",
          "before": " ",
          "after": " "
        },
        {
          "index": 6,
          "word": "im",
          "originalText": "im",
          "characterOffsetBegin": 32,
          "characterOffsetEnd": 34,
          "pos": "APPRART",
          "before": " ",
          "after": " "
        },
        {
          "index": 7,
          "word": "Koffer",
          "originalText": "Koffer",
          "characterOffsetBegin": 35,
          "characterOffsetEnd": 41,
          "pos": "NN",
          "before": " ",
          "after": " "
        },
        {
          "index": 8,
          "word": "verlassen",
          "originalText": "verlassen",
          "characterOffsetBegin": 42,
          "characterOffsetEnd": 51,
          "pos": "VVINF",
          "before": " ",
          "after": ""
        }
      ]
    }
  ]
}