{
  "sentences": [
    {
      "index": 0,
      "basicDependencies": [
        {
          "dep": "ROOT",
          "governor": 0,
          "governorGloss": "ROOT",
          "dependent": 1,
          "dependentGloss": "Kanada-Sonden"
        },
        {
          "dep": "name",
          "governor": 3,
          "governorGloss": "Zehaf-Bibeau",
          "dependent": 2,
          "dependentGloss": "Michael"
        },
        {
          "dep": "appos",
          "governor": 1,
          "governorGloss": "Kanada-Sonden",
          "dependent": 3,
          "dependentGloss": "Zehaf-Bibeau"
        },
        {
          "dep": "case",
          "governor": 6,
          "governorGloss": "Verdächtiger",
          "dependent": 4,
          "dependentGloss": "wie"
        },
        {
          "dep": "amod",
          "governor": 6,
          "governorGloss": "Verdächtiger",
          "dependent": 5,
          "dependentGloss": "möglich"
        },
        {
          "dep": "nmod",
          "governor": 3,
          "governorGloss": "Zehaf-Bibeau",
          "dependent": 6,
          "dependentGloss": "Verdächtiger"
        },
        {
          "dep": "case",
          "governor": 8,
          "governorGloss": "Ottawa",
          "dependent": 7,
          "dependentGloss": "in"
        },
        {
          "dep": "nmod",
          "governor": 6,
          "governorGloss": "Verdächtiger",
          "dependent": 8,
          "dependentGloss": "Ottawa"
        },
        {
          "dep": "name",
          "governor": 11,
          "governorGloss": "Quelle",
          "dependent": 9,
          "dependentGloss": "Schießen"
        },
        {
          "dep": "punct",
          "governor": 11,
          "governorGloss": "Quelle",
          "dependent": 10,
          "dependentGloss": "-"
        },
        {
          "dep": "appos",
          "governor": 8,
          "governorGloss": "Ottawa",
          "dependent": 11,
          "dependentGloss": "Quelle"
        }
      ],
      "enhancedDependencies": [
        {
          "dep": "ROOT",
          "governor": 0,
          "governorGloss": "ROOT",
          "dependent": 1,
          "dependentGloss": "Kanada-Sonden"
        },
        {
          "dep": "name",
          "governor": 3,
          "governorGloss": "Zehaf-Bibeau",
          "dependent": 2,
          "dependentGloss": "Michael"
        },
        {
          "dep": "appos",
          "governor": 1,
          "governorGloss": "Kanada-Sonden",
          "dependent": 3,
          "dependentGloss": "Zehaf-Bibeau"
        },
        {
          "dep": "case",
          "governor": 6,
          "governorGloss": "Verdächtiger",
          "dependent": 4,
          "dependentGloss": "wie"
        },
        {
          "dep": "amod",
          "governor": 6,
          "governorGloss": "Verdächtiger",
          "dependent": 5,
          "dependentGloss": "möglich"
        },
        {
          "dep": "nmod",
          "governor": 3,
          "governorGloss": "Zehaf-Bibeau",
          "dependent": 6,
          "dependentGloss": "Verdächtiger"
        },
        {
          "dep": "case",
          "governor": 8,
          "governorGloss": "Ottawa",
          "dependent": 7,
          "dependentGloss": "in"
        },
        {
          "dep": "nmod",
          "governor": 6,
          "governorGloss": "Verdächtiger",
          "dependent": 8,
          "dependentGloss": "Ottawa"
        },
        {
          "dep": "name",
          "governor": 11,
          "governorGloss": "Quelle",
          "dependent": 9,
          "dependentGloss": "Schießen"
        },
        {
          "dep": "punct",
          "governor": 11,
          "governorGloss": "Quelle",
          "dependent": 10,
          "dependentGloss": "-"
        },
        {
          "dep": "appos",
          "governor": 8,
          "governorGloss": "Ottawa",
          "dependent": 11,
          "dependentGloss": "Quelle"
        }
      ],
      "enhancedPlusPlusDependencies": [
        {
          "dep": "ROOT",
          "governor": 0,
          "governorGloss": "ROOT",
          "dependent": 1,
          "dependentGloss": "Kanada-Sonden"
        },
        {
          "dep": "name",
          "governor": 3,
          "governorGloss": "Zehaf-Bibeau",
          "dependent": 2,
          "dependentGloss": "Michael"
        },
        {
          "dep": "appos",
          "governor": 1,
          "governorGloss": "Kanada-Sonden",
          "dependent": 3,
          "dependentGloss": "Zehaf-Bibeau"
        },
        {
          "dep": "case",
          "governor": 6,
          "governorGloss": "Verdächtiger",
          "dependent": 4,
          "dependentGloss": "wie"
        },
        {
          "dep": "amod",
          "governor": 6,
          "governorGloss": "Verdächtiger",
          "dependent": 5,
          "dependentGloss": "möglich"
        },
        {
          "dep": "nmod",
          "governor": 3,
          "governorGloss": "Zehaf-Bibeau",
          "dependent": 6,
          "dependentGloss": "Verdächtiger"
        },
        {
          "dep": "case",
          "governor": 8,
          "governorGloss": "Ottawa",
          "dependent": 7,
          "dependentGloss": "in"
        },
        {
          "dep": "nmod",
          "governor": 6,
          "governorGloss": "Verdächtiger",
          "dependent": 8,
          "dependentGloss": "Ottawa"
        },
        {
          "dep": "name",
          "governor": 11,
          "governorGloss": "Quelle",
          "dependent": 9,
          "dependentGloss": "Schießen"
        },
        {
          "dep": "punct",
          "governor": 11,
          "governorGloss": "Quelle",
          "dependent": 10,
          "dependentGloss": "-"
        },
        {
          "dep": "appos",
          "governor": 8,
          "governorGloss": "Ottawa",
          "dependent": 11,
          "dependentGloss": "Quelle"
        }
      ],
      "tokens": [
        {
          "index": 1,
          "word": "Kanada-Sonden",
          "originalText": "Kanada-Sonden",
          "characterOffsetBegin": 0,
          "characterOffsetEnd": 13,
          "pos": "NN",
          "before": "",
          "after": " "
        },
        {
          "index": 2,
          "word": "Michael",
          "originalText": "Michael",
          "characterOffsetBegin": 14,
          "characterOffsetEnd": 21,
          "pos": "NE",
          "before": " ",
          "after": " "
        },
        {
          "index": 3,
          "word": "Zehaf-Bibeau",
          "originalText": "Zehaf-Bibeau",
          "characterOffsetBegin": 22,
          "characterOffsetEnd": 34,
          "pos": "NE",
          "before": " ",
          "after": " "
        },
        {
          "index": 4,
          "word": "wie",
          "originalText": "wie",
          "characterOffsetBegin": 35,
          "characterOffsetEnd": 38,
          "pos": "KOKOM",
          "before": " ",
          "after": " "
        },
        {
          "index": 5,
          "word": "möglich",
          "originalText": "möglich",
          "characterOffsetBegin": 39,
          "characterOffsetEnd": 46,
          "pos": "ADJD",
          "before": " ",
          "after": " "
        },
        {
          "index": 6,
          "word": "Verdächtiger",
          "originalText": "Verdächtiger",
          "characterOffsetBegin": 47,
          "characterOffsetEnd": 59,
          "pos": "NN",
          "before": " ",
          "after": " "
        },
        {
          "index": 7,
          "word": "in",
          "originalText": "in",
          "characterOffsetBegin": 60,
          "characterOffsetEnd": 62,
          "pos": "APPR",
          "before": " ",
          "after": " "
        },
        {
          "index": 8,
          "word": "Ottawa",
          "originalText": "Ottawa",
          "characterOffsetBegin": 63,
          "characterOffsetEnd": 69,
          "pos": "NE",
          "before": " ",
          "after": " "
        },
        {
          "index": 9,
          "word": "Schießen",
          "originalText": "Schießen",
          "characterOffsetBegin": 70,
          "characterOffsetEnd": 78,
          "pos": "VVINF",
          "before": " ",
          "after": " "
        },
        {
          "index": 10,
          "word": "-",
          "originalText": "-",
          "characterOffsetBegin": 79,
          "characterOffsetEnd": 80,
          "pos": "$[",
          "before": " ",
          "after": " "
        },
        {
          "index": 11,
          "word": "Quelle",
          "originalText": "Quelle",
          "characterOffsetBegin": 81,
          "characterOffsetEnd": 87,
          "pos": "NN",
          "before": " ",
          "after": ""
        }
      ]
    }
  ]
}