{
  "sentences": [
    {
      "index": 0,
      "basicDependencies": [
        {
          "dep": "ROOT",
          "governor": 0,
          "governorGloss": "ROOT",
          "dependent": 4,
          "dependentGloss": "Geisel"
        },
        {
          "dep": "det",
          "governor": 4,
          "governorGloss": "Geisel",
          "dependent": 1,
          "dependentGloss": "Eine"
        },
        {
          "dep": "amod",
          "governor": 4,
          "governorGloss": "Geisel",
          "dependent": 2,
          "dependentGloss": "andere"
        },
        {
          "dep": "amod",
          "governor": 4,
          "governorGloss": "Geisel",
          "dependent": 3,
          "dependentGloss": "amerikanische"
        },
        {
          "dep": "punct",
          "governor": 4,
          "governorGloss": "Geisel",
          "dependent": 5,
          "dependentGloss": ","
        },
        {
          "dep": "det",
          "governor": 9,
          "governorGloss": "Staat",
          "dependent": 6,
          "dependentGloss": "die"
        },
        {
          "dep": "amod",
          "governor": 9,
          "governorGloss": "Staat",
          "dependent": 7,
          "dependentGloss": "vom"
        },
        {
          "dep": "amod",
          "governor": 9,
          "governorGloss": "Staat",
          "dependent": 8,
          "dependentGloss": "islamischen"
        },
        {
          "dep": "nsubj",
          "governor": 10,
          "governorGloss": "gefährdet",
          "dependent": 9,
          "dependentGloss": "Staat"
        },
        {
          "dep": "acl",
          "governor": 4,
          "governorGloss": "Geisel",
          "dependent": 10,
          "dependentGloss": "gefährdet"
        },
        {
          "dep": "cop",
          "governor": 10,
          "governorGloss": "gefährdet",
          "dependent": 11,
          "dependentGloss": "ist"
        }
      ],
      "enhancedDependencies": [
        {
          "dep": "ROOT",
          "governor": 0,
          "governorGloss": "ROOT",
          "dependent": 4,
          "dependentGloss": "Geisel"
        },
        {
          "dep": "det",
          "governor": 4,
          "governorGloss": "Geisel",
          "dependent": 1,
          "dependentGloss": "Eine"
        },
        {
          "dep": "amod",
          "governor": 4,
          "governorGloss": "Geisel",
          "dependent": 2,
          "dependentGloss": "andere"
        },
        {
          "dep": "amod",
          "governor": 4,
          "governorGloss": "Geisel",
          "dependent": 3,
          "dependentGloss": "amerikanische"
        },
        {
          "dep": "punct",
          "governor": 4,
          "governorGloss": "Geisel",
          "dependent": 5,
          "dependentGloss": ","
        },
        {
          "dep": "det",
          "governor": 9,
          "governorGloss": "Staat",
          "dependent": 6,
          "dependentGloss": "die"
        },
        {
          "dep": "amod",
          "governor": 9,
          "governorGloss": "Staat",
          "dependent": 7,
          "dependentGloss": "vom"
        },
        {
          "dep": "amod",
          "governor": 9,
          "governorGloss": "Staat",
          "dependent": 8,
          "dependentGloss": "islamischen"
        },
        {
          "dep": "nsubj",
          "governor": 10,
          "governorGloss": "gefährdet",
          "dependent": 9,
          "dependentGloss": "Staat"
        },
        {
          "dep": "acl",
          "governor": 4,
          "governorGloss": "Geisel",
          "dependent": 10,
          "dependentGloss": "gefährdet"
        },
        {
          "dep": "cop",
          "governor": 10,
          "governorGloss": "gefährdet",
          "dependent": 11,
          "dependentGloss": "ist"
        }
      ],
      "enhancedPlusPlusDependencies": [
        {
          "dep": "ROOT",
          "governor": 0,
          "governorGloss": "ROOT",
          "dependent": 4,
          "dependentGloss": "Geisel"
        },
        {
          "dep": "det",
          "governor": 4,
          "governorGloss": "Geisel",
          "dependent": 1,
          "dependentGloss": "Eine"
        },
        {
          "dep": "amod",
          "governor": 4,
          "governorGloss": "Geisel",
          "dependent": 2,
          "dependentGloss": "andere"
        },
        {
          "dep": "amod",
          "governor": 4,
          "governorGloss": "Geisel",
          "dependent": 3,
          "dependentGloss": "amerikanische"
        },
        {
          "dep": "punct",
          "governor": 4,
          "governorGloss": "Geisel",
          "dependent": 5,
          "dependentGloss": ","
        },
        {
          "dep": "det",
          "governor": 9,
          "governorGloss": "Staat",
          "dependent": 6,
          "dependentGloss": "die"
        },
        {
          "dep": "amod",
          "governor": 9,
          "governorGloss": "Staat",
          "dependent": 7,
          "dependentGloss": "vom"
        },
        {
          "dep": "amod",
          "governor": 9,
          "governorGloss": "Staat",
          "dependent": 8,
          "dependentGloss": "islamischen"
        },
        {
          "dep": "nsubj",
          "governor": 10,
          "governorGloss": "gefährdet",
          "dependent": 9,
          "dependentGloss": "Staat"
        },
        {
          "dep": "acl",
          "governor": 4,
          "governorGloss": "Geisel",
          "dependent": 10,
          "dependentGloss": "gefährdet"
        },
        {
          "dep": "cop",
          "governor": 10,
          "governorGloss": "gefährdet",
          "dependent": 11,
          "dependentGloss": "ist"
        }
      ],
      "tokens": [
        {
          "index": 1,
          "word": "Eine",
          "originalText": "Eine",
          "characterOffsetBegin": 0,
          "characterOffsetEnd": 4,
          "pos": "ART",
          "before": "",
          "after": " "
        },
        {
          "index": 2,
          "word": "andere",
          "originalText": "andere",
          "characterOffsetBegin": 5,
          "characterOffsetEnd": 11,
          "pos": "ADJA",
          "before": " ",
          "after": " "
        },
        {
          "index": 3,
          "word": "amerikanische",
          "originalText": "amerikanische",
          "characterOffsetBegin": 12,
          "characterOffsetEnd": 25,
          "pos": "ADJA",
          "before": " ",
          "after": " "
        },
        {
          "index": 4,
          "word": "Geisel",
          "originalText": "Geisel",
          "characterOffsetBegin": 26,
          "characterOffsetEnd": 32,
          "pos": "NN",
          "before": " ",
          "after": ""
        },
        {
          "index": 5,
          "word": ",",
          "originalText": ",",
          "characterOffsetBegin": 32,
          "characterOffsetEnd": 33,
          "pos": "$,",
          "before": "",
          "after": " "
        },
        {
          "index": 6,
          "word": "die",
          "originalText": "die",
          "characterOffsetBegin": 34,
          "characterOffsetEnd": 37,
          "pos": "PRELS",
          "before": " ",
          "after": " "
        },
        {
          "index": 7,
          "word": "vom",
          "originalText": "vom",
          "characterOffsetBegin": 38,
          "characterOffsetEnd": 41,
          "pos": "APPRART",
          "before": " ",
          "after": " "
        },
        {
          "index": 8,
          "word": "islamischen",
          "originalText": "islamischen",
          "characterOffsetBegin": 42,
          "characterOffsetEnd": 53,
          "pos": "ADJA",
          "before": " ",
          "after": " "
        },
        {
          "index": 9,
          "word": "Staat",
          "originalText": "Staat",
          "characterOffsetBegin": 54,
          "characterOffsetEnd": 59,
          "pos": "NN",
          "before": " ",
          "after": " "
        },
        {
          "index": 10,
          "word": "gefährdet",
          "originalText": "gefährdet",
          "characterOffsetBegin": 60,
          "characterOffsetEnd": 69,
          "pos": "VVPP",
          "before": " ",
          "after": " "
        },
        {
          "index": 11,
          "word": "ist",
          "originalText": "ist",
          "characterOffsetBegin": 70,
          "characterOffsetEnd": 73,
          "pos": "VAFIN",
          "before": " ",
          "after": ""
        }
      ]
    }
  ]
}