{
  "sentences": [
    {
      "index": 0,
      "basicDependencies": [
        {
          "dep": "ROOT",
          "governor": 0,
          "governorGloss": "ROOT",
          "dependent": 16,
          "dependentGloss": "sagt"
        },
        {
          "dep": "nsubj",
          "governor": 16,
          "governorGloss": "sagt",
          "dependent": 1,
          "dependentGloss": "Nigeria"
        },
        {
          "dep": "punct",
          "governor": 1,
          "governorGloss": "Nigeria",
          "dependent": 2,
          "dependentGloss": ","
        },
        {
          "dep": "appos",
          "governor": 1,
          "governorGloss": "Nigeria",
          "dependent": 3,
          "dependentGloss": "Boko"
        },
        {
          "dep": "dobj",
          "governor": 5,
          "governorGloss": "erreichen",
          "dependent": 4,
          "dependentGloss": "Haram"
        },
        {
          "dep": "acl",
          "governor": 3,
          "governorGloss": "Boko",
          "dependent": 5,
          "dependentGloss": "erreichen"
        },
        {
          "dep": "nsubj",
          "governor": 5,
          "governorGloss": "erreichen",
          "dependent": 6,
          "dependentGloss": "Waffenstillstand"
        },
        {
          "dep": "punct",
          "governor": 5,
          "governorGloss": "erreichen",
          "dependent": 7,
          "dependentGloss": ","
        },
        {
          "dep": "amod",
          "governor": 9,
          "governorGloss": "Mädchen",
          "dependent": 8,
          "dependentGloss": "entführt"
        },
        {
          "dep": "conj",
          "governor": 5,
          "governorGloss": "erreichen",
          "dependent": 9,
          "dependentGloss": "Mädchen"
        },
        {
          "dep": "punct",
          "governor": 5,
          "governorGloss": "erreichen",
          "dependent": 10,
          "dependentGloss": ","
        },
        {
          "dep": "mark",
          "governor": 14,
          "governorGloss": "gehen",
          "dependent": 11,
          "dependentGloss": "um"
        },
        {
          "dep": "advmod",
          "governor": 14,
          "governorGloss": "gehen",
          "dependent": 12,
          "dependentGloss": "frei"
        },
        {
          "dep": "aux",
          "governor": 14,
          "governorGloss": "gehen",
          "dependent": 13,
          "dependentGloss": "zu"
        },
        {
          "dep": "advcl",
          "governor": 5,
          "governorGloss": "erreichen",
          "dependent": 14,
          "dependentGloss": "gehen"
        },
        {
          "dep": "punct",
          "governor": 5,
          "governorGloss": "erreichen",
          "dependent": 15,
          "dependentGloss": ","
        },
        {
          "dep": "advmod",
          "governor": 16,
          "governorGloss": "sagt",
          "dependent": 17,
          "dependentGloss": "offiziell"
        }
      ],
      "enhancedDependencies": [
        {
          "dep": "ROOT",
          "governor": 0,
          "governorGloss": "ROOT",
          "dependent": 16,
          "dependentGloss": "sagt"
        },
        {
          "dep": "nsubj",
          "governor": 16,
          "governorGloss": "sagt",
          "dependent": 1,
          "dependentGloss": "Nigeria"
        },
        {
          "dep": "punct",
          "governor": 1,
          "governorGloss": "Nigeria",
          "dependent": 2,
          "dependentGloss": ","
        },
        {
          "dep": "appos",
          "governor": 1,
          "governorGloss": "Nigeria",
          "dependent": 3,
          "dependentGloss": "Boko"
        },
        {
          "dep": "dobj",
          "governor": 5,
          "governorGloss": "erreichen",
          "dependent": 4,
          "dependentGloss": "Haram"
        },
        {
          "dep": "acl",
          "governor": 3,
          "governorGloss": "Boko",
          "dependent": 5,
          "dependentGloss": "erreichen"
        },
        {
          "dep": "nsubj",
          "governor": 5,
          "governorGloss": "erreichen",
          "dependent": 6,
          "dependentGloss": "Waffenstillstand"
        },
        {
          "dep": "punct",
          "governor": 5,
          "governorGloss": "erreichen",
          "dependent": 7,
          "dependentGloss": ","
        },
        {
          "dep": "amod",
          "governor": 9,
          "governorGloss": "Mädchen",
          "dependent": 8,
          "dependentGloss": "entführt"
        },
        {
          "dep": "conj",
          "governor": 5,
          "governorGloss": "erreichen",
          "dependent": 9,
          "dependentGloss": "Mädchen"
        },
        {
          "dep": "punct",
          "governor": 5,
          "governorGloss": "erreichen",
          "dependent": 10,
          "dependentGloss": ","
        },
        {
          "dep": "mark",
          "governor": 14,
          "governorGloss": "gehen",
          "dependent": 11,
          "dependentGloss": "um"
        },
        {
          "dep": "advmod",
          "governor": 14,
          "governorGloss": "gehen",
          "dependent": 12,
          "dependentGloss": "frei"
        },
        {
          "dep": "aux",
          "governor": 14,
          "governorGloss": "gehen",
          "dependent": 13,
          "dependentGloss": "zu"
        },
        {
          "dep": "advcl",
          "governor": 5,
          "governorGloss": "erreichen",
          "dependent": 14,
          "dependentGloss": "gehen"
        },
        {
          "dep": "punct",
          "governor": 5,
          "governorGloss": "erreichen",
          "dependent": 15,
          "dependentGloss": ","
        },
        {
          "dep": "advmod",
          "governor": 16,
          "governorGloss": "sagt",
          "dependent": 17,
          "dependentGloss": "offiziell"
        }
      ],
      "enhancedPlusPlusDependencies": [
        {
          "dep": "ROOT",
          "governor": 0,
          "governorGloss": "ROOT",
          "dependent": 16,
          "dependentGloss": "sagt"
        },
        {
          "dep": "nsubj",
          "governor": 16,
          "governorGloss": "sagt",
          "dependent": 1,
          "dependentGloss": "Nigeria"
        },
        {
          "dep": "punct",
          "governor": 1,
          "governorGloss": "Nigeria",
          "dependent": 2,
          "dependentGloss": ","
        },
        {
          "dep": "appos",
          "governor": 1,
          "governorGloss": "Nigeria",
          "dependent": 3,
          "dependentGloss": "Boko"
        },
        {
          "dep": "dobj",
          "governor": 5,
          "governorGloss": "erreichen",
          "dependent": 4,
          "dependentGloss": "Haram"
        },
        {
          "dep": "acl",
          "governor": 3,
          "governorGloss": "Boko",
          "dependent": 5,
          "dependentGloss": "erreichen"
        },
        {
          "dep": "nsubj",
          "governor": 5,
          "governorGloss": "erreichen",
          "dependent": 6,
          "dependentGloss": "Waffenstillstand"
        },
        {
          "dep": "punct",
          "governor": 5,
          "governorGloss": "erreichen",
          "dependent": 7,
          "dependentGloss": ","
        },
        {
          "dep": "amod",
          "governor": 9,
          "governorGloss": "Mädchen",
          "dependent": 8,
          "dependentGloss": "entführt"
        },
        {
          "dep": "conj",
          "governor": 5,
          "governorGloss": "erreichen",
          "dependent": 9,
          "dependentGloss": "Mädchen"
        },
        {
          "dep": "punct",
          "governor": 5,
          "governorGloss": "erreichen",
          "dependent": 10,
          "dependentGloss": ","
        },
        {
          "dep": "mark",
          "governor": 14,
          "governorGloss": "gehen",
          "dependent": 11,
          "dependentGloss": "um"
        },
        {
          "dep": "advmod",
          "governor": 14,
          "governorGloss": "gehen",
          "dependent": 12,
          "dependentGloss": "frei"
        },
        {
          "dep": "aux",
          "governor": 14,
          "governorGloss": "gehen",
          "dependent": 13,
          "dependentGloss": "zu"
        },
        {
          "dep": "advcl",
          "governor": 5,
          "governorGloss": "erreichen",
          "dependent": 14,
          "dependentGloss": "gehen"
        },
        {
          "dep": "punct",
          "governor": 5,
          "governorGloss": "erreichen",
          "dependent": 15,
          "dependentGloss": ","
        },
        {
          "dep": "advmod",
          "governor": 16,
          "governorGloss": "sagt",
          "dependent": 17,
          "dependentGloss": "offiziell"
        }
      ],
      "tokens": [
        {
          "index": 1,
          "word": "Nigeria",
          "originalText": "Nigeria",
          "characterOffsetBegin": 0,
          "characterOffsetEnd": 7,
          "pos": "NE",
          "before": "",
          "after": ""
        },
        {
          "index": 2,
          "word": ",",
          "originalText": ",",
          "characterOffsetBegin": 7,
          "characterOffsetEnd": 8,
          "pos": "$,",
          "before": "",
          "after": " "
        },
        {
          "index": 3,
          "word": "Boko",
          "originalText": "Boko",
          "characterOffsetBegin": 9,
          "characterOffsetEnd": 13,
          "pos": "NE",
          "before": " ",
          "after": " "
        },
        {
          "index": 4,
          "word": "Haram",
          "originalText": "Haram",
          "characterOffsetBegin": 14,
          "characterOffsetEnd": 19,
          "pos": "NE",
          "before": " ",
          "after": " "
        },
        {
          "index": 5,
          "word": "erreichen",
          "originalText": "erreichen",
          "characterOffsetBegin": 20,
          "characterOffsetEnd": 29,
          "pos": "VVFIN",
          "before": " ",
          "after": " "
        },
        {
          "index": 6,
          "word": "Waffenstillstand",
          "originalText": "Waffenstillstand",
          "characterOffsetBegin": 30,
          "characterOffsetEnd": 46,
          "pos": "NN",
          "before": " ",
          "after": ""
        },
        {
          "index": 7,
          "word": ",",
          "originalText": ",",
          "characterOffsetBegin": 46,
          "characterOffsetEnd": 47,
          "pos": "$,",
          "before": "",
          "after": " "
        },
        {
          "index": 8,
          "word": "entführt",
          "originalText": "entführt",
          "characterOffsetBegin": 48,
          "characterOffsetEnd": 56,
          "pos": "VVFIN",
          "before": " ",
          "after": " "
        },
        {
          "index": 9,
          "word": "Mädchen",
          "originalText": "Mädchen",
          "characterOffsetBegin": 57,
          "characterOffsetEnd": 64,
          "pos": "NN",
          "before": " ",
          "after": ""
        },
        {
          "index": 10,
          "word": ",",
          "originalText": ",",
          "characterOffsetBegin": 64,
          "characterOffsetEnd": 65,
          "pos": "$,",
          "before": "",
          "after": " "
        },
        {
          "index": 11,
          "word": "um",
          "originalText": "um",
          "characterOffsetBegin": 66,
          "characterOffsetEnd": 68,
          "pos": "KOUI",
          "before": " ",
          "after": " "
        },
        {
          "index": 12,
          "word": "frei",
          "originalText": "frei",
          "characterOffsetBegin": 69,
          "characterOffsetEnd": 73,
          "pos": "ADJD",
          "before": " ",
          "after": " "
        },
        {
          "index": 13,
          "word": "zu",
          "originalText": "zu",
          "characterOffsetBegin": 74,
          "characterOffsetEnd": 76,
          "pos": "PTKZU",
          "before": " ",
          "after": " "
        },
        {
          "index": 14,
          "word": "gehen",
          "originalText": "gehen",
          "characterOffsetBegin": 77,
          "characterOffsetEnd": 82,
          "pos": "VVINF",
          "before": " ",
          "after": ""
        },
        {
          "index": 15,
          "word": ",",
          "originalText": ",",
          "characterOffsetBegin": 82,
          "characterOffsetEnd": 83,
          "pos": "$,",
          "before": "",
          "after": " "
        },
        {
          "index": 16,
          "word": "sagt",
          "originalText": "sagt",
          "characterOffsetBegin": 84,
          "characterOffsetEnd": 88,
          "pos": "VVFIN",
          "before": " ",
          "after": " "
        },
        {
          "index": 17,
          "word": "offiziell",
          "originalText": "offiziell",
          "characterOffsetBegin": 89,
          "characterOffsetEnd": 98,
          "pos": "ADJD",
          "before": " ",
          "after": ""
        }
      ]
    }
  ]
}