{
  "sentences": [
    {
      "index": 0,
      "basicDependencies": [
        {
          "dep": "ROOT",
          "governor": 0,
          "governorGloss": "ROOT",
          "dependent": 2,
          "dependentGloss": "beschleunigt"
        },
        {
          "dep": "nsubj",
          "governor": 2,
          "governorGloss": "beschleunigt",
          "dependent": 1,
          "dependentGloss": "TBS"
        },
        {
          "dep": "nmod",
          "governor": 2,
          "governorGloss": "beschleunigt",
          "dependent": 3,
          "dependentGloss": "Seinfeld"
        },
        {
          "dep": "case",
          "governor": 11,
          "governorGloss": "Beweis",
          "dependent": 4,
          "dependentGloss": "um"
        },
        {
          "dep": "nummod",
          "governor": 6,
          "governorGloss": "Prozent",
          "dependent": 5,
          "dependentGloss": "7,5"
        },
        {
          "dep": "compound",
          "governor": 11,
          "governorGloss": "Beweis",
          "dependent": 6,
          "dependentGloss": "Prozent"
        },
        {
          "dep": "punct",
          "governor": 11,
          "governorGloss": "Beweis",
          "dependent": 7,
          "dependentGloss": "-"
        },
        {
          "dep": "advmod",
          "governor": 11,
          "governorGloss": "Beweis",
          "dependent": 8,
          "dependentGloss": "hier"
        },
        {
          "dep": "cop",
          "governor": 11,
          "governorGloss": "Beweis",
          "dependent": 9,
          "dependentGloss": "ist"
        },
        {
          "dep": "det",
          "governor": 11,
          "governorGloss": "Beweis",
          "dependent": 10,
          "dependentGloss": "der"
        },
        {
          "dep": "nmod",
          "governor": 2,
          "governorGloss": "beschleunigt",
          "dependent": 11,
          "dependentGloss": "Beweis"
        }
      ],
      "enhancedDependencies": [
        {
          "dep": "ROOT",
          "governor": 0,
          "governorGloss": "ROOT",
          "dependent": 2,
          "dependentGloss": "beschleunigt"
        },
        {
          "dep": "nsubj",
          "governor": 2,
          "governorGloss": "beschleunigt",
          "dependent": 1,
          "dependentGloss": "TBS"
        },
        {
          "dep": "nmod",
          "governor": 2,
          "governorGloss": "beschleunigt",
          "dependent": 3,
          "dependentGloss": "Seinfeld"
        },
        {
          "dep": "case",
          "governor": 11,
          "governorGloss": "Beweis",
          "dependent": 4,
          "dependentGloss": "um"
        },
        {
          "dep": "nummod",
          "governor": 6,
          "governorGloss": "Prozent",
          "dependent": 5,
          "dependentGloss": "7,5"
        },
        {
          "dep": "compound",
          "governor": 11,
          "governorGloss": "Beweis",
          "dependent": 6,
          "dependentGloss": "Prozent"
        },
        {
          "dep": "punct",
          "governor": 11,
          "governorGloss": "Beweis",
          "dependent": 7,
          "dependentGloss": "-"
        },
        {
          "dep": "advmod",
          "governor": 11,
          "governorGloss": "Beweis",
          "dependent": 8,
          "dependentGloss": "hier"
        },
        {
          "dep": "cop",
          "governor": 11,
          "governorGloss": "Beweis",
          "dependent": 9,
          "dependentGloss": "ist"
        },
        {
          "dep": "det",
          "governor": 11,
          "governorGloss": "Beweis",
          "dependent": 10,
          "dependentGloss": "der"
        },
        {
          "dep": "nmod",
          "governor": 2,
          "governorGloss": "beschleunigt",
          "dependent": 11,
          "dependentGloss": "Beweis"
        }
      ],
      "enhancedPlusPlusDependencies": [
        {
          "dep": "ROOT",
          "governor": 0,
          "governorGloss": "ROOT",
          "dependent": 2,
          "dependentGloss": "beschleunigt"
        },
        {
          "dep": "nsubj",
          "governor": 2,
          "governorGloss": "beschleunigt",
          "dependent": 1,
          "dependentGloss": "TBS"
        },
        {
          "dep": "nmod",
          "governor": 2,
          "governorGloss": "beschleunigt",
          "dependent": 3,
          "dependentGloss": "Seinfeld"
        },
        {
          "dep": "case",
          "governor": 11,
          "governorGloss": "Beweis",
          "dependent": 4,
          "dependentGloss": "um"
        },
        {
          "dep": "nummod",
          "governor": 6,
          "governorGloss": "Prozent",
          "dependent": 5,
          "dependentGloss": "7,5"
        },
        {
          "dep": "compound",
          "governor": 11,
          "governorGloss": "Beweis",
          "dependent": 6,
          "dependentGloss": "Prozent"
        },
        {
          "dep": "punct",
          "governor": 11,
          "governorGloss": "Beweis",
          "dependent": 7,
          "dependentGloss": "-"
        },
        {
          "dep": "advmod",
          "governor": 11,
          "governorGloss": "Beweis",
          "dependent": 8,
          "dependentGloss": "hier"
        },
        {
          "dep": "cop",
          "governor": 11,
          "governorGloss": "Beweis",
          "dependent": 9,
          "dependentGloss": "ist"
        },
        {
          "dep": "det",
          "governor": 11,
          "governorGloss": "Beweis",
          "dependent": 10,
          "dependentGloss": "der"
        },
        {
          "dep": "nmod",
          "governor": 2,
          "governorGloss": "beschleunigt",
          "dependent": 11,
          "dependentGloss": "Beweis"
        }
      ],
      "tokens": [
        {
          "index": 1,
          "word": "TBS",
          "originalText": "TBS",
          "characterOffsetBegin": 0,
          "characterOffsetEnd": 3,
          "pos": "NE",
          "before": "",
          "after": " "
        },
        {
          "index": 2,
          "word": "beschleunigt",
          "originalText": "beschleunigt",
          "characterOffsetBegin": 4,
          "characterOffsetEnd": 16,
          "pos": "VVFIN",
          "before": " ",
          "after": " "
        },
        {
          "index": 3,
          "word": "Seinfeld",
          "originalText": "Seinfeld",
          "characterOffsetBegin": 17,
          "characterOffsetEnd": 25,
          "pos": "NE",
          "before": " ",
          "after": " "
        },
        {
          "index": 4,
          "word": "um",
          "originalText": "um",
          "characterOffsetBegin": 26,
          "characterOffsetEnd": 28,
          "pos": "APPR",
          "before": " ",
          "after": " "
        },
        {
          "index": 5,
          "word": "7,5",
          "originalText": "7,5",
          "characterOffsetBegin": 29,
          "characterOffsetEnd": 32,
          "pos": "CARD",
          "before": " ",
          "after": " "
        },
        {
          "index": 6,
          "word": "Prozent",
          "originalText": "Prozent",
          "characterOffsetBegin": 33,
          "characterOffsetEnd": 40,
          "pos": "NN",
          "before": " ",
          "after": " "
        },
        {
          "index": 7,
          "word": "-",
          "originalText": "-",
          "characterOffsetBegin": 41,
          "characterOffsetEnd": 42,
          "pos": "$[",
          "before": " ",
          "after": " "
        },
        {
          "index": 8,
          "word": "hier",
          "originalText": "hier",
          "characterOffsetBegin": 43,
          "characterOffsetEnd": 47,
          "pos": "ADV",
          "before": " ",
          "after": " "
        },
        {
          "index": 9,
          "word": "ist",
          "originalText": "ist",
          "characterOffsetBegin": 48,
          "characterOffsetEnd": 51,
          "pos": "VAFIN",
          "before": " ",
          "after": " "
        },
        {
          "index": 10,
          "word": "der",
          "originalText": "der",
          "characterOffsetBegin": 52,
          "characterOffsetEnd": 55,
          "pos": "ART",
          "before": " ",
          "after": " "
        },
        {
          "index": 11,
          "word": "Beweis",
          "originalText": "Beweis",
          "characterOffsetBegin": 56,
          "characterOffsetEnd": 62,
          "pos": "NN",
          "before": " ",
          "after": ""
        }
      ]
    }
  ]
}