{
  "sentences": [
    {
      "index": 0,
      "basicDependencies": [
        {
          "dep": "ROOT",
          "governor": 0,
          "governorGloss": "ROOT",
          "dependent": 2,
          "dependentGloss": "verwandelte"
        },
        {
          "dep": "nsubj",
          "governor": 2,
          "governorGloss": "verwandelte",
          "dependent": 1,
          "dependentGloss": "Omsk-Schuljunge"
        },
        {
          "dep": "dobj",
          "governor": 2,
          "governorGloss": "verwandelte",
          "dependent": 3,
          "dependentGloss": "sich"
        },
        {
          "dep": "case",
          "governor": 6,
          "governorGloss": "Schock",
          "dependent": 4,
          "dependentGloss": "nach"
        },
        {
          "dep": "det",
          "governor": 6,
          "governorGloss": "Schock",
          "dependent": 5,
          "dependentGloss": "dem"
        },
        {
          "dep": "nmod",
          "governor": 2,
          "governorGloss": "verwandelte",
          "dependent": 6,
          "dependentGloss": "Schock"
        },
        {
          "dep": "case",
          "governor": 9,
          "governorGloss": "Mann-Magneten",
          "dependent": 7,
          "dependentGloss": "in"
        },
        {
          "dep": "det",
          "governor": 9,
          "governorGloss": "Mann-Magneten",
          "dependent": 8,
          "dependentGloss": "einen"
        },
        {
          "dep": "nmod",
          "governor": 6,
          "governorGloss": "Schock",
          "dependent": 9,
          "dependentGloss": "Mann-Magneten"
        }
      ],
      "enhancedDependencies": [
        {
          "dep": "ROOT",
          "governor": 0,
          "governorGloss": "ROOT",
          "dependent": 2,
          "dependentGloss": "verwandelte"
        },
        {
          "dep": "nsubj",
          "governor": 2,
          "governorGloss": "verwandelte",
          "dependent": 1,
          "dependentGloss": "Omsk-Schuljunge"
        },
        {
          "dep": "dobj",
          "governor": 2,
          "governorGloss": "verwandelte",
          "dependent": 3,
          "dependentGloss": "sich"
        },
        {
          "dep": "case",
          "governor": 6,
          "governorGloss": "Schock",
          "dependent": 4,
          "dependentGloss": "nach"
        },
        {
          "dep": "det",
          "governor": 6,
          "governorGloss": "Schock",
          "dependent": 5,
          "dependentGloss": "dem"
        },
        {
          "dep": "nmod",
          "governor": 2,
          "governorGloss": "verwandelte",
          "dependent": 6,
          "dependentGloss": "Schock"
        },
        {
          "dep": "case",
          "governor": 9,
          "governorGloss": "Mann-Magneten",
          "dependent": 7,
          "dependentGloss": "in"
        },
        {
          "dep": "det",
          "governor": 9,
          "governorGloss": "Mann-Magneten",
          "dependent": 8,
          "dependentGloss": "einen"
        },
        {
          "dep": "nmod",
          "governor": 6,
          "governorGloss": "Schock",
          "dependent": 9,
          "dependentGloss": "Mann-Magneten"
        }
      ],
      "enhancedPlusPlusDependencies": [
        {
          "dep": "ROOT",
          "governor": 0,
          "governorGloss": "ROOT",
          "dependent": 2,
          "dependentGloss": "verwandelte"
        },
        {
          "dep": "nsubj",
          "governor": 2,
          "governorGloss": "verwandelte",
          "dependent": 1,
          "dependentGloss": "Omsk-Schuljunge"
        },
        {
          "dep": "dobj",
          "governor": 2,
          "governorGloss": "verwandelte",
          "dependent": 3,
          "dependentGloss": "sich"
        },
        {
          "dep": "case",
          "governor": 6,
          "governorGloss": "Schock",
          "dependent": 4,
          "dependentGloss": "nach"
        },
        {
          "dep": "det",
          "governor": 6,
          "governorGloss": "Schock",
          "dependent": 5,
          "dependentGloss": "dem"
        },
        {
          "dep": "nmod",
          "governor": 2,
          "governorGloss": "verwandelte",
          "dependent": 6,
          "dependentGloss": "Schock"
        },
        {
          "dep": "case",
          "governor": 9,
          "governorGloss": "Mann-Magneten",
          "dependent": 7,
          "dependentGloss": "in"
        },
        {
          "dep": "det",
          "governor": 9,
          "governorGloss": "Mann-Magneten",
          "dependent": 8,
          "dependentGloss": "einen"
        },
        {
          "dep": "nmod",
          "governor": 6,
          "governorGloss": "Schock",
          "dependent": 9,
          "dependentGloss": "Mann-Magneten"
        }
      ],
      "tokens": [
        {
          "index": 1,
          "word": "Omsk-Schuljunge",
          "originalText": "Omsk-Schuljunge",
          "characterOffsetBegin": 0,
          "characterOffsetEnd": 15,
          "pos": "NN",
          "before": "",
          "after": " "
        },
        {
          "index": 2,
          "word": "verwandelte",
          "originalText": "verwandelte",
          "characterOffsetBegin": 16,
          "characterOffsetEnd": 27,
          "pos": "VVFIN",
          "before": " ",
          "after": " "
        },
        {
          "index": 3,
          "word": "sich",
          "originalText": "sich",
          "characterOffsetBegin": 28,
          "characterOffsetEnd": 32,
          "pos": "PRF",
          "before": " ",
          "after": " "
        },
        {
          "index": 4,
          "word": "nach",
          "originalText": "nach",
          "characterOffsetBegin": 33,
          "characterOffsetEnd": 37,
          "pos": "APPR",
          "before": " ",
          "after": " "
        },
        {
          "index": 5,
          "word": "dem",
          "originalText": "dem",
          "characterOffsetBegin": 38,
          "characterOffsetEnd": 41,
          "pos": "ART",
          "before": " ",
          "after": " "
        },
        {
          "index": 6,
          "word": "Schock",
          "originalText": "Schock",
          "characterOffsetBegin": 42,
          "characterOffsetEnd": 48,
          "pos": "NN",
          "before": " ",
          "after": " "
        },
        {
          "index": 7,
          "word": "in",
          "originalText": "in",
          "characterOffsetBegin": 49,
          "characterOffsetEnd": 51,
          "pos": "APPR",
          "before": " ",
          "after": " "
        },
        {
          "index": 8,
          "word": "einen",
          "originalText": "einen",
          "characterOffsetBegin": 52,
          "characterOffsetEnd": 57,
          "pos": "ART",
          "before": " ",
          "after": " "
        },
        {
          "index": 9,
          "word": "Mann-Magneten",
          "originalText": "Mann-Magneten",
          "characterOffsetBegin": 58,
          "characterOffsetEnd": 71,
          "pos": "NN",
          "before": " ",
          "after": ""
        }
      ]
    }
  ]
}