{
  "sentences": [
    {
      "index": 0,
      "basicDependencies": [
        {
          "dep": "ROOT",
          "governor": 0,
          "governorGloss": "ROOT",
          "dependent": 1,
          "dependentGloss": "Ottawa-Schießen"
        },
        {
          "dep": "punct",
          "governor": 1,
          "governorGloss": "Ottawa-Schießen",
          "dependent": 2,
          "dependentGloss": ":"
        },
        {
          "dep": "name",
          "governor": 5,
          "governorGloss": "Vickers",
          "dependent": 3,
          "dependentGloss": "Sergeant-at-arms"
        },
        {
          "dep": "name",
          "governor": 5,
          "governorGloss": "Vickers",
          "dependent": 4,
          "dependentGloss": "Kevin"
        },
        {
          "dep": "nsubj",
          "governor": 6,
          "governorGloss": "hagelte",
          "dependent": 5,
          "dependentGloss": "Vickers"
        },
        {
          "dep": "parataxis",
          "governor": 1,
          "governorGloss": "Ottawa-Schießen",
          "dependent": 6,
          "dependentGloss": "hagelte"
        },
        {
          "dep": "det",
          "governor": 8,
          "governorGloss": "Helden",
          "dependent": 7,
          "dependentGloss": "einen"
        },
        {
          "dep": "dobj",
          "governor": 6,
          "governorGloss": "hagelte",
          "dependent": 8,
          "dependentGloss": "Helden"
        },
        {
          "dep": "advmod",
          "governor": 10,
          "governorGloss": "Schießen",
          "dependent": 9,
          "dependentGloss": "zum"
        },
        {
          "dep": "appos",
          "governor": 8,
          "governorGloss": "Helden",
          "dependent": 10,
          "dependentGloss": "Schießen"
        },
        {
          "dep": "det",
          "governor": 12,
          "governorGloss": "rampaging",
          "dependent": 11,
          "dependentGloss": "des"
        },
        {
          "dep": "det",
          "governor": 10,
          "governorGloss": "Schießen",
          "dependent": 12,
          "dependentGloss": "rampaging"
        },
        {
          "dep": "appos",
          "governor": 12,
          "governorGloss": "rampaging",
          "dependent": 13,
          "dependentGloss": "gunman"
        }
      ],
      "enhancedDependencies": [
        {
          "dep": "ROOT",
          "governor": 0,
          "governorGloss": "ROOT",
          "dependent": 1,
          "dependentGloss": "Ottawa-Schießen"
        },
        {
          "dep": "punct",
          "governor": 1,
          "governorGloss": "Ottawa-Schießen",
          "dependent": 2,
          "dependentGloss": ":"
        },
        {
          "dep": "name",
          "governor": 5,
          "governorGloss": "Vickers",
          "dependent": 3,
          "dependentGloss": "Sergeant-at-arms"
        },
        {
          "dep": "name",
          "governor": 5,
          "governorGloss": "Vickers",
          "dependent": 4,
          "dependentGloss": "Kevin"
        },
        {
          "dep": "nsubj",
          "governor": 6,
          "governorGloss": "hagelte",
          "dependent": 5,
          "dependentGloss": "Vickers"
        },
        {
          "dep": "parataxis",
          "governor": 1,
          "governorGloss": "Ottawa-Schießen",
          "dependent": 6,
          "dependentGloss": "hagelte"
        },
        {
          "dep": "det",
          "governor": 8,
          "governorGloss": "Helden",
          "dependent": 7,
          "dependentGloss": "einen"
        },
        {
          "dep": "dobj",
          "governor": 6,
          "governorGloss": "hagelte",
          "dependent": 8,
          "dependentGloss": "Helden"
        },
        {
          "dep": "advmod",
          "governor": 10,
          "governorGloss": "Schießen",
          "dependent": 9,
          "dependentGloss": "zum"
        },
        {
          "dep": "appos",
          "governor": 8,
          "governorGloss": "Helden",
          "dependent": 10,
          "dependentGloss": "Schießen"
        },
        {
          "dep": "det",
          "governor": 12,
          "governorGloss": "rampaging",
          "dependent": 11,
          "dependentGloss": "des"
        },
        {
          "dep": "det",
          "governor": 10,
          "governorGloss": "Schießen",
          "dependent": 12,
          "dependentGloss": "rampaging"
        },
        {
          "dep": "appos",
          "governor": 12,
          "governorGloss": "rampaging",
          "dependent": 13,
          "dependentGloss": "gunman"
        }
      ],
      "enhancedPlusPlusDependencies": [
        {
          "dep": "ROOT",
          "governor": 0,
          "governorGloss": "ROOT",
          "dependent": 1,
          "dependentGloss": "Ottawa-Schießen"
        },
        {
          "dep": "punct",
          "governor": 1,
          "governorGloss": "Ottawa-Schießen",
          "dependent": 2,
          "dependentGloss": ":"
        },
        {
          "dep": "name",
          "governor": 5,
          "governorGloss": "Vickers",
          "dependent": 3,
          "dependentGloss": "Sergeant-at-arms"
        },
        {
          "dep": "name",
          "governor": 5,
          "governorGloss": "Vickers",
          "dependent": 4,
          "dependentGloss": "Kevin"
        },
        {
          "dep": "nsubj",
          "governor": 6,
          "governorGloss": "hagelte",
          "dependent": 5,
          "dependentGloss": "Vickers"
        },
        {
          "dep": "parataxis",
          "governor": 1,
          "governorGloss": "Ottawa-Schießen",
          "dependent": 6,
          "dependentGloss": "hagelte"
        },
        {
          "dep": "det",
          "governor": 8,
          "governorGloss": "Helden",
          "dependent": 7,
          "dependentGloss": "einen"
        },
        {
          "dep": "dobj",
          "governor": 6,
          "governorGloss": "hagelte",
          "dependent": 8,
          "dependentGloss": "Helden"
        },
        {
          "dep": "advmod",
          "governor": 10,
          "governorGloss": "Schießen",
          "dependent": 9,
          "dependentGloss": "zum"
        },
        {
          "dep": "appos",
          "governor": 8,
          "governorGloss": "Helden",
          "dependent": 10,
          "dependentGloss": "Schießen"
        },
        {
          "dep": "det",
          "governor": 12,
          "governorGloss": "rampaging",
          "dependent": 11,
          "dependentGloss": "des"
        },
        {
          "dep": "det",
          "governor": 10,
          "governorGloss": "Schießen",
          "dependent": 12,
          "dependentGloss": "rampaging"
        },
        {
          "dep": "appos",
          "governor": 12,
          "governorGloss": "rampaging",
          "dependent": 13,
          "dependentGloss": "gunman"
        }
      ],
      "tokens": [
        {
          "index": 1,
          "word": "Ottawa-Schießen",
          "originalText": "Ottawa-Schießen",
          "characterOffsetBegin": 0,
          "characterOffsetEnd": 15,
          "pos": "NN",
          "before": "",
          "after": ""
        },
        {
          "index": 2,
          "word": ":",
          "originalText": ":",
          "characterOffsetBegin": 15,
          "characterOffsetEnd": 16,
          "pos": "$.",
          "before": "",
          "after": " "
        },
        {
          "index": 3,
          "word": "Sergeant-at-arms",
          "originalText": "Sergeant-at-arms",
          "characterOffsetBegin": 17,
          "characterOffsetEnd": 33,
          "pos": "NN",
          "before": " ",
          "after": " "
        },
        {
          "index": 4,
          "word": "Kevin",
          "originalText": "Kevin",
          "characterOffsetBegin": 34,
          "characterOffsetEnd": 39,
          "pos": "NE",
          "before": " ",
          "after": " "
        },
        {
          "index": 5,
          "word": "Vickers",
          "originalText": "Vickers",
          "characterOffsetBegin": 40,
          "characterOffsetEnd": 47,
          "pos": "NE",
          "before": " ",
          "after": " "
        },
        {
          "index": 6,
          "word": "hagelte",
          "originalText": "hagelte",
          "characterOffsetBegin": 48,
          "characterOffsetEnd": 55,
          "pos": "VVFIN",
          "before": " ",
          "after": " "
        },
        {
          "index": 7,
          "word": "einen",
          "originalText": "einen",
          "characterOffsetBegin": 56,
          "characterOffsetEnd": 61,
          "pos": "ART",
          "before": " ",
          "after": " "
        },
        {
          "index": 8,
          "word": "Helden",
          "originalText": "Helden",
          "characterOffsetBegin": 62,
          "characterOffsetEnd": 68,
          "pos": "NN",
          "before": " ",
          "after": " "
        },
        {
          "index": 9,
          "word": "zum",
          "originalText": "zum",
          "characterOffsetBegin": 69,
          "characterOffsetEnd": 72,
          "pos": "PTKZU",
          "before": " ",
          "after": " "
        },
        {
          "index": 10,
          "word": "Schießen",
          "originalText": "Schießen",
          "characterOffsetBegin": 73,
          "characterOffsetEnd": 81,
          "pos": "VVINF",
          "before": " ",
          "after": " "
        },
        {
          "index": 11,
          "word": "des",
          "originalText": "des",
          "characterOffsetBegin": 82,
          "characterOffsetEnd": 85,
          "pos": "ART",
          "before": " ",
          "after": " "
        },
        {
          "index": 12,
          "word": "rampaging",
          "originalText": "rampaging",
          "characterOffsetBegin": 86,
          "characterOffsetEnd": 95,
          "pos": "ADJD",
          "before": " ",
          "after": " "
        },
        {
          "index": 13,
          "word": "gunman",
          "originalText": "gunman",
          "characterOffsetBegin": 96,
          "characterOffsetEnd": 102,
          "pos": "ADJD",
          "before": " ",
          "after": ""
        }
      ]
    }
  ]
}