{
  "sentences": [
    {
      "index": 0,
      "basicDependencies": [
        {
          "dep": "ROOT",
          "governor": 0,
          "governorGloss": "ROOT",
          "dependent": 1,
          "dependentGloss": "BREAKING"
        },
        {
          "dep": "punct",
          "governor": 1,
          "governorGloss": "BREAKING",
          "dependent": 2,
          "dependentGloss": ":"
        },
        {
          "dep": "appos",
          "governor": 1,
          "governorGloss": "BREAKING",
          "dependent": 3,
          "dependentGloss": "ISIS"
        },
        {
          "dep": "appos",
          "governor": 3,
          "governorGloss": "ISIS",
          "dependent": 4,
          "dependentGloss": "Beheads"
        },
        {
          "dep": "amod",
          "governor": 6,
          "governorGloss": "Journalist",
          "dependent": 5,
          "dependentGloss": "Amerikanischer"
        },
        {
          "dep": "dobj",
          "governor": 4,
          "governorGloss": "Beheads",
          "dependent": 6,
          "dependentGloss": "Journalist"
        },
        {
          "dep": "name",
          "governor": 8,
          "governorGloss": "Wright",
          "dependent": 7,
          "dependentGloss": "James"
        },
        {
          "dep": "appos",
          "governor": 6,
          "governorGloss": "Journalist",
          "dependent": 8,
          "dependentGloss": "Wright"
        },
        {
          "dep": "dep",
          "governor": 1,
          "governorGloss": "BREAKING",
          "dependent": 9,
          "dependentGloss": "Foley"
        }
      ],
      "enhancedDependencies": [
        {
          "dep": "ROOT",
          "governor": 0,
          "governorGloss": "ROOT",
          "dependent": 1,
          "dependentGloss": "BREAKING"
        },
        {
          "dep": "punct",
          "governor": 1,
          "governorGloss": "BREAKING",
          "dependent": 2,
          "dependentGloss": ":"
        },
        {
          "dep": "appos",
          "governor": 1,
          "governorGloss": "BREAKING",
          "dependent": 3,
          "dependentGloss": "ISIS"
        },
        {
          "dep": "appos",
          "governor": 3,
          "governorGloss": "ISIS",
          "dependent": 4,
          "dependentGloss": "Beheads"
        },
        {
          "dep": "amod",
          "governor": 6,
          "governorGloss": "Journalist",
          "dependent": 5,
          "dependentGloss": "Amerikanischer"
        },
        {
          "dep": "dobj",
          "governor": 4,
          "governorGloss": "Beheads",
          "dependent": 6,
          "dependentGloss": "Journalist"
        },
        {
          "dep": "name",
          "governor": 8,
          "governorGloss": "Wright",
          "dependent": 7,
          "dependentGloss": "James"
        },
        {
          "dep": "appos",
          "governor": 6,
          "governorGloss": "Journalist",
          "dependent": 8,
          "dependentGloss": "Wright"
        },
        {
          "dep": "dep",
          "governor": 1,
          "governorGloss": "BREAKING",
          "dependent": 9,
          "dependentGloss": "Foley"
        }
      ],
      "enhancedPlusPlusDependencies": [
        {
          "dep": "ROOT",
          "governor": 0,
          "governorGloss": "ROOT",
          "dependent": 1,
          "dependentGloss": "BREAKING"
        },
        {
          "dep": "punct",
          "governor": 1,
          "governorGloss": "BREAKING",
          "dependent": 2,
          "dependentGloss": ":"
        },
        {
          "dep": "appos",
          "governor": 1,
          "governorGloss": "BREAKING",
          "dependent": 3,
          "dependentGloss": "ISIS"
        },
        {
          "dep": "appos",
          "governor": 3,
          "governorGloss": "ISIS",
          "dependent": 4,
          "dependentGloss": "Beheads"
        },
        {
          "dep": "amod",
          "governor": 6,
          "governorGloss": "Journalist",
          "dependent": 5,
          "dependentGloss": "Amerikanischer"
        },
        {
          "dep": "dobj",
          "governor": 4,
          "governorGloss": "Beheads",
          "dependent": 6,
          "dependentGloss": "Journalist"
        },
        {
          "dep": "name",
          "governor": 8,
          "governorGloss": "Wright",
          "dependent": 7,
          "dependentGloss": "James"
        },
        {
          "dep": "appos",
          "governor": 6,
          "governorGloss": "Journalist",
          "dependent": 8,
          "dependentGloss": "Wright"
        },
        {
          "dep": "dep",
          "governor": 1,
          "governorGloss": "BREAKING",
          "dependent": 9,
          "dependentGloss": "Foley"
        }
      ],
      "tokens": [
        {
          "index": 1,
          "word": "BREAKING",
          "originalText": "BREAKING",
          "characterOffsetBegin": 0,
          "characterOffsetEnd": 8,
          "pos": "NE",
          "before": "",
          "after": ""
        },
        {
          "index": 2,
          "word": ":",
          "originalText": ":",
          "characterOffsetBegin": 8,
          "characterOffsetEnd": 9,
          "pos": "$.",
          "before": "",
          "after": " "
        },
        {
          "index": 3,
          "word": "ISIS",
          "originalText": "ISIS",
          "characterOffsetBegin": 10,
          "characterOffsetEnd": 14,
          "pos": "NE",
          "before": " ",
          "after": " "
        },
        {
          "index": 4,
          "word": "Beheads",
          "originalText": "Beheads",
          "characterOffsetBegin": 15,
          "characterOffsetEnd": 22,
          "pos": "NE",
          "before": " ",
          "after": " "
        },
        {
          "index": 5,
          "word": "Amerikanischer",
          "originalText": "Amerikanischer",
          "characterOffsetBegin": 23,
          "characterOffsetEnd": 37,
          "pos": "ADJA",
          "before": " ",
          "after": " "
        },
        {
          "index": 6,
          "word": "Journalist",
          "originalText": "Journalist",
          "characterOffsetBegin": 38,
          "characterOffsetEnd": 48,
          "pos": "NN",
          "before": " ",
          "after": " "
        },
        {
          "index": 7,
          "word": "James",
          "originalText": "James",
          "characterOffsetBegin": 49,
          "characterOffsetEnd": 54,
          "pos": "NE",
          "before": " ",
          "after": " "
        },
        {
          "index": 8,
          "word": "Wright",
          "originalText": "Wright",
          "characterOffsetBegin": 55,
          "characterOffsetEnd": 61,
          "pos": "NE",
          "before": " ",
          "after": " "
        },
        {
          "index": 9,
          "word": "Foley",
          "originalText": "Foley",
          "characterOffsetBegin": 62,
          "characterOffsetEnd": 67,
          "pos": "NE",
          "before": " ",
          "after": ""
        }
      ]
    }
  ]
}