{
  "sentences": [
    {
      "index": 0,
      "basicDependencies": [
        {
          "dep": "ROOT",
          "governor": 0,
          "governorGloss": "ROOT",
          "dependent": 6,
          "dependentGloss": "abgebrochen"
        },
        {
          "dep": "punct",
          "governor": 6,
          "governorGloss": "abgebrochen",
          "dependent": 1,
          "dependentGloss": "``"
        },
        {
          "dep": "nsubj",
          "governor": 6,
          "governorGloss": "abgebrochen",
          "dependent": 2,
          "dependentGloss": "Ich"
        },
        {
          "dep": "aux",
          "governor": 6,
          "governorGloss": "abgebrochen",
          "dependent": 3,
          "dependentGloss": "habe"
        },
        {
          "dep": "det",
          "governor": 5,
          "governorGloss": "Baby",
          "dependent": 4,
          "dependentGloss": "mein"
        },
        {
          "dep": "dobj",
          "governor": 6,
          "governorGloss": "abgebrochen",
          "dependent": 5,
          "dependentGloss": "Baby"
        },
        {
          "dep": "punct",
          "governor": 6,
          "governorGloss": "abgebrochen",
          "dependent": 7,
          "dependentGloss": ","
        },
        {
          "dep": "mark",
          "governor": 11,
          "governorGloss": "Junge",
          "dependent": 8,
          "dependentGloss": "weil"
        },
        {
          "dep": "nsubj",
          "governor": 11,
          "governorGloss": "Junge",
          "dependent": 9,
          "dependentGloss": "es"
        },
        {
          "dep": "det",
          "governor": 11,
          "governorGloss": "Junge",
          "dependent": 10,
          "dependentGloss": "ein"
        },
        {
          "dep": "advcl",
          "governor": 21,
          "governorGloss": "behauptet",
          "dependent": 11,
          "dependentGloss": "Junge"
        },
        {
          "dep": "cop",
          "governor": 11,
          "governorGloss": "Junge",
          "dependent": 12,
          "dependentGloss": "war"
        },
        {
          "dep": "punct",
          "governor": 15,
          "governorGloss": "Empörung",
          "dependent": 13,
          "dependentGloss": "``"
        },
        {
          "dep": "punct",
          "governor": 15,
          "governorGloss": "Empörung",
          "dependent": 14,
          "dependentGloss": ":"
        },
        {
          "dep": "nmod",
          "governor": 21,
          "governorGloss": "behauptet",
          "dependent": 15,
          "dependentGloss": "Empörung"
        },
        {
          "dep": "case",
          "governor": 18,
          "governorGloss": "feministischem",
          "dependent": 16,
          "dependentGloss": "nach"
        },
        {
          "dep": "punct",
          "governor": 18,
          "governorGloss": "feministischem",
          "dependent": 17,
          "dependentGloss": "``"
        },
        {
          "dep": "nmod",
          "governor": 21,
          "governorGloss": "behauptet",
          "dependent": 18,
          "dependentGloss": "feministischem"
        },
        {
          "dep": "punct",
          "governor": 20,
          "governorGloss": "Blogger",
          "dependent": 19,
          "dependentGloss": "``"
        },
        {
          "dep": "nsubj",
          "governor": 21,
          "governorGloss": "behauptet",
          "dependent": 20,
          "dependentGloss": "Blogger"
        },
        {
          "dep": "ccomp",
          "governor": 6,
          "governorGloss": "abgebrochen",
          "dependent": 21,
          "dependentGloss": "behauptet"
        },
        {
          "dep": "punct",
          "governor": 21,
          "governorGloss": "behauptet",
          "dependent": 22,
          "dependentGloss": ","
        },
        {
          "dep": "mark",
          "governor": 28,
          "governorGloss": "aufgefordert",
          "dependent": 23,
          "dependentGloss": "dass"
        },
        {
          "dep": "det",
          "governor": 25,
          "governorGloss": "Geschlecht",
          "dependent": 24,
          "dependentGloss": "das"
        },
        {
          "dep": "nsubj",
          "governor": 28,
          "governorGloss": "aufgefordert",
          "dependent": 25,
          "dependentGloss": "Geschlecht"
        },
        {
          "dep": "det",
          "governor": 27,
          "governorGloss": "Kündigung",
          "dependent": 26,
          "dependentGloss": "die"
        },
        {
          "dep": "dobj",
          "governor": 28,
          "governorGloss": "aufgefordert",
          "dependent": 27,
          "dependentGloss": "Kündigung"
        },
        {
          "dep": "ccomp",
          "governor": 21,
          "governorGloss": "behauptet",
          "dependent": 28,
          "dependentGloss": "aufgefordert"
        },
        {
          "dep": "aux",
          "governor": 28,
          "governorGloss": "aufgefordert",
          "dependent": 29,
          "dependentGloss": "hat"
        }
      ],
      "enhancedDependencies": [
        {
          "dep": "ROOT",
          "governor": 0,
          "governorGloss": "ROOT",
          "dependent": 6,
          "dependentGloss": "abgebrochen"
        },
        {
          "dep": "punct",
          "governor": 6,
          "governorGloss": "abgebrochen",
          "dependent": 1,
          "dependentGloss": "``"
        },
        {
          "dep": "nsubj",
          "governor": 6,
          "governorGloss": "abgebrochen",
          "dependent": 2,
          "dependentGloss": "Ich"
        },
        {
          "dep": "aux",
          "governor": 6,
          "governorGloss": "abgebrochen",
          "dependent": 3,
          "dependentGloss": "habe"
        },
        {
          "dep": "det",
          "governor": 5,
          "governorGloss": "Baby",
          "dependent": 4,
          "dependentGloss": "mein"
        },
        {
          "dep": "dobj",
          "governor": 6,
          "governorGloss": "abgebrochen",
          "dependent": 5,
          "dependentGloss": "Baby"
        },
        {
          "dep": "punct",
          "governor": 6,
          "governorGloss": "abgebrochen",
          "dependent": 7,
          "dependentGloss": ","
        },
        {
          "dep": "mark",
          "governor": 11,
          "governorGloss": "Junge",
          "dependent": 8,
          "dependentGloss": "weil"
        },
        {
          "dep": "nsubj",
          "governor": 11,
          "governorGloss": "Junge",
          "dependent": 9,
          "dependentGloss": "es"
        },
        {
          "dep": "det",
          "governor": 11,
          "governorGloss": "Junge",
          "dependent": 10,
          "dependentGloss": "ein"
        },
        {
          "dep": "advcl",
          "governor": 21,
          "governorGloss": "behauptet",
          "dependent": 11,
          "dependentGloss": "Junge"
        },
        {
          "dep": "cop",
          "governor": 11,
          "governorGloss": "Junge",
          "dependent": 12,
          "dependentGloss": "war"
        },
        {
          "dep": "punct",
          "governor": 15,
          "governorGloss": "Empörung",
          "dependent": 13,
          "dependentGloss": "``"
        },
        {
          "dep": "punct",
          "governor": 15,
          "governorGloss": "Empörung",
          "dependent": 14,
          "dependentGloss": ":"
        },
        {
          "dep": "nmod",
          "governor": 21,
          "governorGloss": "behauptet",
          "dependent": 15,
          "dependentGloss": "Empörung"
        },
        {
          "dep": "case",
          "governor": 18,
          "governorGloss": "feministischem",
          "dependent": 16,
          "dependentGloss": "nach"
        },
        {
          "dep": "punct",
          "governor": 18,
          "governorGloss": "feministischem",
          "dependent": 17,
          "dependentGloss": "``"
        },
        {
          "dep": "nmod",
          "governor": 21,
          "governorGloss": "behauptet",
          "dependent": 18,
          "dependentGloss": "feministischem"
        },
        {
          "dep": "punct",
          "governor": 20,
          "governorGloss": "Blogger",
          "dependent": 19,
          "dependentGloss": "``"
        },
        {
          "dep": "nsubj",
          "governor": 21,
          "governorGloss": "behauptet",
          "dependent": 20,
          "dependentGloss": "Blogger"
        },
        {
          "dep": "ccomp",
          "governor": 6,
          "governorGloss": "abgebrochen",
          "dependent": 21,
          "dependentGloss": "behauptet"
        },
        {
          "dep": "punct",
          "governor": 21,
          "governorGloss": "behauptet",
          "dependent": 22,
          "dependentGloss": ","
        },
        {
          "dep": "mark",
          "governor": 28,
          "governorGloss": "aufgefordert",
          "dependent": 23,
          "dependentGloss": "dass"
        },
        {
          "dep": "det",
          "governor": 25,
          "governorGloss": "Geschlecht",
          "dependent": 24,
          "dependentGloss": "das"
        },
        {
          "dep": "nsubj",
          "governor": 28,
          "governorGloss": "aufgefordert",
          "dependent": 25,
          "dependentGloss": "Geschlecht"
        },
        {
          "dep": "det",
          "governor": 27,
          "governorGloss": "Kündigung",
          "dependent": 26,
          "dependentGloss": "die"
        },
        {
          "dep": "dobj",
          "governor": 28,
          "governorGloss": "aufgefordert",
          "dependent": 27,
          "dependentGloss": "Kündigung"
        },
        {
          "dep": "ccomp",
          "governor": 21,
          "governorGloss": "behauptet",
          "dependent": 28,
          "dependentGloss": "aufgefordert"
        },
        {
          "dep": "aux",
          "governor": 28,
          "governorGloss": "aufgefordert",
          "dependent": 29,
          "dependentGloss": "hat"
        }
      ],
      "enhancedPlusPlusDependencies": [
        {
          "dep": "ROOT",
          "governor": 0,
          "governorGloss": "ROOT",
          "dependent": 6,
          "dependentGloss": "abgebrochen"
        },
        {
          "dep": "punct",
          "governor": 6,
          "governorGloss": "abgebrochen",
          "dependent": 1,
          "dependentGloss": "``"
        },
        {
          "dep": "nsubj",
          "governor": 6,
          "governorGloss": "abgebrochen",
          "dependent": 2,
          "dependentGloss": "Ich"
        },
        {
          "dep": "aux",
          "governor": 6,
          "governorGloss": "abgebrochen",
          "dependent": 3,
          "dependentGloss": "habe"
        },
        {
          "dep": "det",
          "governor": 5,
          "governorGloss": "Baby",
          "dependent": 4,
          "dependentGloss": "mein"
        },
        {
          "dep": "dobj",
          "governor": 6,
          "governorGloss": "abgebrochen",
          "dependent": 5,
          "dependentGloss": "Baby"
        },
        {
          "dep": "punct",
          "governor": 6,
          "governorGloss": "abgebrochen",
          "dependent": 7,
          "dependentGloss": ","
        },
        {
          "dep": "mark",
          "governor": 11,
          "governorGloss": "Junge",
          "dependent": 8,
          "dependentGloss": "weil"
        },
        {
          "dep": "nsubj",
          "governor": 11,
          "governorGloss": "Junge",
          "dependent": 9,
          "dependentGloss": "es"
        },
        {
          "dep": "det",
          "governor": 11,
          "governorGloss": "Junge",
          "dependent": 10,
          "dependentGloss": "ein"
        },
        {
          "dep": "advcl",
          "governor": 21,
          "governorGloss": "behauptet",
          "dependent": 11,
          "dependentGloss": "Junge"
        },
        {
          "dep": "cop",
          "governor": 11,
          "governorGloss": "Junge",
          "dependent": 12,
          "dependentGloss": "war"
        },
        {
          "dep": "punct",
          "governor": 15,
          "governorGloss": "Empörung",
          "dependent": 13,
          "dependentGloss": "``"
        },
        {
          "dep": "punct",
          "governor": 15,
          "governorGloss": "Empörung",
          "dependent": 14,
          "dependentGloss": ":"
        },
        {
          "dep": "nmod",
          "governor": 21,
          "governorGloss": "behauptet",
          "dependent": 15,
          "dependentGloss": "Empörung"
        },
        {
          "dep": "case",
          "governor": 18,
          "governorGloss": "feministischem",
          "dependent": 16,
          "dependentGloss": "nach"
        },
        {
          "dep": "punct",
          "governor": 18,
          "governorGloss": "feministischem",
          "dependent": 17,
          "dependentGloss": "``"
        },
        {
          "dep": "nmod",
          "governor": 21,
          "governorGloss": "behauptet",
          "dependent": 18,
          "dependentGloss": "feministischem"
        },
        {
          "dep": "punct",
          "governor": 20,
          "governorGloss": "Blogger",
          "dependent": 19,
          "dependentGloss": "``"
        },
        {
          "dep": "nsubj",
          "governor": 21,
          "governorGloss": "behauptet",
          "dependent": 20,
          "dependentGloss": "Blogger"
        },
        {
          "dep": "ccomp",
          "governor": 6,
          "governorGloss": "abgebrochen",
          "dependent": 21,
          "dependentGloss": "behauptet"
        },
        {
          "dep": "punct",
          "governor": 21,
          "governorGloss": "behauptet",
          "dependent": 22,
          "dependentGloss": ","
        },
        {
          "dep": "mark",
          "governor": 28,
          "governorGloss": "aufgefordert",
          "dependent": 23,
          "dependentGloss": "dass"
        },
        {
          "dep": "det",
          "governor": 25,
          "governorGloss": "Geschlecht",
          "dependent": 24,
          "dependentGloss": "das"
        },
        {
          "dep": "nsubj",
          "governor": 28,
          "governorGloss": "aufgefordert",
          "dependent": 25,
          "dependentGloss": "Geschlecht"
        },
        {
          "dep": "det",
          "governor": 27,
          "governorGloss": "Kündigung",
          "dependent": 26,
          "dependentGloss": "die"
        },
        {
          "dep": "dobj",
          "governor": 28,
          "governorGloss": "aufgefordert",
          "dependent": 27,
          "dependentGloss": "Kündigung"
        },
        {
          "dep": "ccomp",
          "governor": 21,
          "governorGloss": "behauptet",
          "dependent": 28,
          "dependentGloss": "aufgefordert"
        },
        {
          "dep": "aux",
          "governor": 28,
          "governorGloss": "aufgefordert",
          "dependent": 29,
          "dependentGloss": "hat"
        }
      ],
      "tokens": [
        {
          "index": 1,
          "word": "``",
          "originalText": "“",
          "characterOffsetBegin": 0,
          "characterOffsetEnd": 1,
          "pos": "XY",
          "before": "",
          "after": ""
        },
        {
          "index": 2,
          "word": "Ich",
          "originalText": "Ich",
          "characterOffsetBegin": 1,
          "characterOffsetEnd": 4,
          "pos": "PPER",
          "before": "",
          "after": " "
        },
        {
          "index": 3,
          "word": "habe",
          "originalText": "habe",
          "characterOffsetBegin": 5,
          "characterOffsetEnd": 9,
          "pos": "VAFIN",
          "before": " ",
          "after": " "
        },
        {
          "index": 4,
          "word": "mein",
          "originalText": "mein",
          "characterOffsetBegin": 10,
          "characterOffsetEnd": 14,
          "pos": "PPOSAT",
          "before": " ",
          "after": " "
        },
        {
          "index": 5,
          "word": "Baby",
          "originalText": "Baby",
          "characterOffsetBegin": 15,
          "characterOffsetEnd": 19,
          "pos": "NN",
          "before": " ",
          "after": " "
        },
        {
          "index": 6,
          "word": "abgebrochen",
          "originalText": "abgebrochen",
          "characterOffsetBegin": 20,
          "characterOffsetEnd": 31,
          "pos": "VVPP",
          "before": " ",
          "after": ""
        },
        {
          "index": 7,
          "word": ",",
          "originalText": ",",
          "characterOffsetBegin": 31,
          "characterOffsetEnd": 32,
          "pos": "$,",
          "before": "",
          "after": " "
        },
        {
          "index": 8,
          "word": "weil",
          "originalText": "weil",
          "characterOffsetBegin": 33,
          "characterOffsetEnd": 37,
          "pos": "KOUS",
          "before": " ",
          "after": " "
        },
        {
          "index": 9,
          "word": "es",
          "originalText": "es",
          "characterOffsetBegin": 38,
          "characterOffsetEnd": 40,
          "pos": "PPER",
          "before": " ",
          "after": " "
        },
        {
          "index": 10,
          "word": "ein",
          "originalText": "ein",
          "characterOffsetBegin": 41,
          "characterOffsetEnd": 44,
          "pos": "ART",
          "before": " ",
          "after": " "
        },
        {
          "index": 11,
          "word": "Junge",
          "originalText": "Junge",
          "characterOffsetBegin": 45,
          "characterOffsetEnd": 50,
          "pos": "NN",
          "before": " ",
          "after": " "
        },
        {
          "index": 12,
          "word": "war",
          "originalText": "war",
          "characterOffsetBegin": 51,
          "characterOffsetEnd": 54,
          "pos": "VAFIN",
          "before": " ",
          "after": ""
        },
        {
          "index": 13,
          "word": "``",
          "originalText": "“",
          "characterOffsetBegin": 54,
          "characterOffsetEnd": 55,
          "pos": "CARD",
          "before": "",
          "after": ""
        },
        {
          "index": 14,
          "word": ":",
          "originalText": ":",
          "characterOffsetBegin": 55,
          "characterOffsetEnd": 56,
          "pos": "$.",
          "before": "",
          "after": " "
        },
        {
          "index": 15,
          "word": "Empörung",
          "originalText": "Empörung",
          "characterOffsetBegin": 57,
          "characterOffsetEnd": 65,
          "pos": "NN",
          "before": " ",
          "after": " "
        },
        {
          "index": 16,
          "word": "nach",
          "originalText": "nach",
          "characterOffsetBegin": 66,
          "characterOffsetEnd": 70,
          "pos": "APPR",
          "before": " ",
          "after": " "
        },
        {
          "index": 17,
          "word": "``",
          "originalText": "“",
          "characterOffsetBegin": 71,
          "characterOffsetEnd": 72,
          "pos": "CARD",
          "before": " ",
          "after": ""
        },
        {
          "index": 18,
          "word": "feministischem",
          "originalText": "feministischem",
          "characterOffsetBegin": 72,
          "characterOffsetEnd": 86,
          "pos": "ADJA",
          "before": "",
          "after": ""
        },
        {
          "index": 19,
          "word": "``",
          "originalText": "“",
          "characterOffsetBegin": 86,
          "characterOffsetEnd": 87,
          "pos": "ADJA",
          "before": "",
          "after": " "
        },
        {
          "index": 20,
          "word": "Blogger",
          "originalText": "Blogger",
          "characterOffsetBegin": 88,
          "characterOffsetEnd": 95,
          "pos": "NN",
          "before": " ",
          "after": " "
        },
        {
          "index": 21,
          "word": "behauptet",
          "originalText": "behauptet",
          "characterOffsetBegin": 96,
          "characterOffsetEnd": 105,
          "pos": "VVFIN",
          "before": " ",
          "after": ""
        },
        {
          "index": 22,
          "word": ",",
          "originalText": ",",
          "characterOffsetBegin": 105,
          "characterOffsetEnd": 106,
          "pos": "$,",
          "before": "",
          "after": " "
        },
        {
          "index": 23,
          "word": "dass",
          "originalText": "dass",
          "characterOffsetBegin": 107,
          "characterOffsetEnd": 111,
          "pos": "KOUS",
          "before": " ",
          "after": " "
        },
        {
          "index": 24,
          "word": "das",
          "originalText": "das",
          "characterOffsetBegin": 112,
          "characterOffsetEnd": 115,
          "pos": "ART",
          "before": " ",
          "after": " "
        },
        {
          "index": 25,
          "word": "Geschlecht",
          "originalText": "Geschlecht",
          "characterOffsetBegin": 116,
          "characterOffsetEnd": 126,
          "pos": "NN",
          "before": " ",
          "after": " "
        },
        {
          "index": 26,
          "word": "die",
          "originalText": "die",
          "characterOffsetBegin": 127,
          "characterOffsetEnd": 130,
          "pos": "ART",
          "before": " ",
          "after": " "
        },
        {
          "index": 27,
          "word": "Kündigung",
          "originalText": "Kündigung",
          "characterOffsetBegin": 131,
          "characterOffsetEnd": 140,
          "pos": "NN",
          "before": " ",
          "after": " "
        },
        {
          "index": 28,
          "word": "aufgefordert",
          "originalText": "aufgefordert",
          "characterOffsetBegin": 141,
          "characterOffsetEnd": 153,
          "pos": "VVPP",
          "before": " ",
          "after": " "
        },
        {
          "index": 29,
          "word": "hat",
          "originalText": "hat",
          "characterOffsetBegin": 154,
          "characterOffsetEnd": 157,
          "pos": "VAFIN",
          "before": " ",
          "after": ""
        }
      ]
    }
  ]
}