{
  "sentences": [
    {
      "index": 0,
      "basicDependencies": [
        {
          "dep": "ROOT",
          "governor": 0,
          "governorGloss": "ROOT",
          "dependent": 1,
          "dependentGloss": "Ist"
        },
        {
          "dep": "det",
          "governor": 4,
          "governorGloss": "Audio",
          "dependent": 2,
          "dependentGloss": "das"
        },
        {
          "dep": "amod",
          "governor": 4,
          "governorGloss": "Audio",
          "dependent": 3,
          "dependentGloss": "angebliche"
        },
        {
          "dep": "nsubj",
          "governor": 1,
          "governorGloss": "Ist",
          "dependent": 4,
          "dependentGloss": "Audio"
        },
        {
          "dep": "det",
          "governor": 6,
          "governorGloss": "Schüsse",
          "dependent": 5,
          "dependentGloss": "der"
        },
        {
          "dep": "det",
          "governor": 4,
          "governorGloss": "Audio",
          "dependent": 6,
          "dependentGloss": "Schüsse"
        },
        {
          "dep": "punct",
          "governor": 4,
          "governorGloss": "Audio",
          "dependent": 7,
          "dependentGloss": ","
        },
        {
          "dep": "det",
          "governor": 10,
          "governorGloss": "Brown",
          "dependent": 8,
          "dependentGloss": "die"
        },
        {
          "dep": "name",
          "governor": 10,
          "governorGloss": "Brown",
          "dependent": 9,
          "dependentGloss": "Michael"
        },
        {
          "dep": "nsubj",
          "governor": 13,
          "governorGloss": "getötet",
          "dependent": 10,
          "dependentGloss": "Brown"
        },
        {
          "dep": "det",
          "governor": 12,
          "governorGloss": "Hoax",
          "dependent": 11,
          "dependentGloss": "einen"
        },
        {
          "dep": "dobj",
          "governor": 13,
          "governorGloss": "getötet",
          "dependent": 12,
          "dependentGloss": "Hoax"
        },
        {
          "dep": "acl",
          "governor": 4,
          "governorGloss": "Audio",
          "dependent": 13,
          "dependentGloss": "getötet"
        },
        {
          "dep": "aux",
          "governor": 13,
          "governorGloss": "getötet",
          "dependent": 14,
          "dependentGloss": "haben"
        },
        {
          "dep": "punct",
          "governor": 1,
          "governorGloss": "Ist",
          "dependent": 15,
          "dependentGloss": "?"
        }
      ],
      "enhancedDependencies": [
        {
          "dep": "ROOT",
          "governor": 0,
          "governorGloss": "ROOT",
          "dependent": 1,
          "dependentGloss": "Ist"
        },
        {
          "dep": "det",
          "governor": 4,
          "governorGloss": "Audio",
          "dependent": 2,
          "dependentGloss": "das"
        },
        {
          "dep": "amod",
          "governor": 4,
          "governorGloss": "Audio",
          "dependent": 3,
          "dependentGloss": "angebliche"
        },
        {
          "dep": "nsubj",
          "governor": 1,
          "governorGloss": "Ist",
          "dependent": 4,
          "dependentGloss": "Audio"
        },
        {
          "dep": "det",
          "governor": 6,
          "governorGloss": "Schüsse",
          "dependent": 5,
          "dependentGloss": "der"
        },
        {
          "dep": "det",
          "governor": 4,
          "governorGloss": "Audio",
          "dependent": 6,
          "dependentGloss": "Schüsse"
        },
        {
          "dep": "punct",
          "governor": 4,
          "governorGloss": "Audio",
          "dependent": 7,
          "dependentGloss": ","
        },
        {
          "dep": "det",
          "governor": 10,
          "governorGloss": "Brown",
          "dependent": 8,
          "dependentGloss": "die"
        },
        {
          "dep": "name",
          "governor": 10,
          "governorGloss": "Brown",
          "dependent": 9,
          "dependentGloss": "Michael"
        },
        {
          "dep": "nsubj",
          "governor": 13,
          "governorGloss": "getötet",
          "dependent": 10,
          "dependentGloss": "Brown"
        },
        {
          "dep": "det",
          "governor": 12,
          "governorGloss": "Hoax",
          "dependent": 11,
          "dependentGloss": "einen"
        },
        {
          "dep": "dobj",
          "governor": 13,
          "governorGloss": "getötet",
          "dependent": 12,
          "dependentGloss": "Hoax"
        },
        {
          "dep": "acl",
          "governor": 4,
          "governorGloss": "Audio",
          "dependent": 13,
          "dependentGloss": "getötet"
        },
        {
          "dep": "aux",
          "governor": 13,
          "governorGloss": "getötet",
          "dependent": 14,
          "dependentGloss": "haben"
        },
        {
          "dep": "punct",
          "governor": 1,
          "governorGloss": "Ist",
          "dependent": 15,
          "dependentGloss": "?"
        }
      ],
      "enhancedPlusPlusDependencies": [
        {
          "dep": "ROOT",
          "governor": 0,
          "governorGloss": "ROOT",
          "dependent": 1,
          "dependentGloss": "Ist"
        },
        {
          "dep": "det",
          "governor": 4,
          "governorGloss": "Audio",
          "dependent": 2,
          "dependentGloss": "das"
        },
        {
          "dep": "amod",
          "governor": 4,
          "governorGloss": "Audio",
          "dependent": 3,
          "dependentGloss": "angebliche"
        },
        {
          "dep": "nsubj",
          "governor": 1,
          "governorGloss": "Ist",
          "dependent": 4,
          "dependentGloss": "Audio"
        },
        {
          "dep": "det",
          "governor": 6,
          "governorGloss": "Schüsse",
          "dependent": 5,
          "dependentGloss": "der"
        },
        {
          "dep": "det",
          "governor": 4,
          "governorGloss": "Audio",
          "dependent": 6,
          "dependentGloss": "Schüsse"
        },
        {
          "dep": "punct",
          "governor": 4,
          "governorGloss": "Audio",
          "dependent": 7,
          "dependentGloss": ","
        },
        {
          "dep": "det",
          "governor": 10,
          "governorGloss": "Brown",
          "dependent": 8,
          "dependentGloss": "die"
        },
        {
          "dep": "name",
          "governor": 10,
          "governorGloss": "Brown",
          "dependent": 9,
          "dependentGloss": "Michael"
        },
        {
          "dep": "nsubj",
          "governor": 13,
          "governorGloss": "getötet",
          "dependent": 10,
          "dependentGloss": "Brown"
        },
        {
          "dep": "det",
          "governor": 12,
          "governorGloss": "Hoax",
          "dependent": 11,
          "dependentGloss": "einen"
        },
        {
          "dep": "dobj",
          "governor": 13,
          "governorGloss": "getötet",
          "dependent": 12,
          "dependentGloss": "Hoax"
        },
        {
          "dep": "acl",
          "governor": 4,
          "governorGloss": "Audio",
          "dependent": 13,
          "dependentGloss": "getötet"
        },
        {
          "dep": "aux",
          "governor": 13,
          "governorGloss": "getötet",
          "dependent": 14,
          "dependentGloss": "haben"
        },
        {
          "dep": "punct",
          "governor": 1,
          "governorGloss": "Ist",
          "dependent": 15,
          "dependentGloss": "?"
        }
      ],
      "tokens": [
        {
          "index": 1,
          "word": "Ist",
          "originalText": "Ist",
          "characterOffsetBegin": 0,
          "characterOffsetEnd": 3,
          "pos": "VAFIN",
          "before": "",
          "after": " "
        },
        {
          "index": 2,
          "word": "das",
          "originalText": "das",
          "characterOffsetBegin": 4,
          "characterOffsetEnd": 7,
          "pos": "ART",
          "before": " ",
          "after": " "
        },
        {
          "index": 3,
          "word": "angebliche",
          "originalText": "angebliche",
          "characterOffsetBegin": 8,
          "characterOffsetEnd": 18,
          "pos": "ADJA",
          "before": " ",
          "after": " "
        },
        {
          "index": 4,
          "word": "Audio",
          "originalText": "Audio",
          "characterOffsetBegin": 19,
          "characterOffsetEnd": 24,
          "pos": "NN",
          "before": " ",
          "after": " "
        },
        {
          "index": 5,
          "word": "der",
          "originalText": "der",
          "characterOffsetBegin": 25,
          "characterOffsetEnd": 28,
          "pos": "ART",
          "before": " ",
          "after": " "
        },
        {
          "index": 6,
          "word": "Schüsse",
          "originalText": "Schüsse",
          "characterOffsetBegin": 29,
          "characterOffsetEnd": 36,
          "pos": "NN",
          "before": " ",
          "after": ""
        },
        {
          "index": 7,
          "word": ",",
          "originalText": ",",
          "characterOffsetBegin": 36,
          "characterOffsetEnd": 37,
          "pos": "$,",
          "before": "",
          "after": " "
        },
        {
          "index": 8,
          "word": "die",
          "originalText": "die",
          "characterOffsetBegin": 38,
          "characterOffsetEnd": 41,
          "pos": "ART",
          "before": " ",
          "after": " "
        },
        {
          "index": 9,
          "word": "Michael",
          "originalText": "Michael",
          "characterOffsetBegin": 42,
          "characterOffsetEnd": 49,
          "pos": "NE",
          "before": " ",
          "after": " "
        },
        {
          "index": 10,
          "word": "Brown",
          "originalText": "Brown",
          "characterOffsetBegin": 50,
          "characterOffsetEnd": 55,
          "pos": "NE",
          "before": " ",
          "after": " "
        },
        {
          "index": 11,
          "word": "einen",
          "originalText": "einen",
          "characterOffsetBegin": 56,
          "characterOffsetEnd": 61,
          "pos": "ART",
          "before": " ",
          "after": " "
        },
        {
          "index": 12,
          "word": "Hoax",
          "originalText": "Hoax",
          "characterOffsetBegin": 62,
          "characterOffsetEnd": 66,
          "pos": "NE",
          "before": " ",
          "after": " "
        },
        {
          "index": 13,
          "word": "getötet",
          "originalText": "getötet",
          "characterOffsetBegin": 67,
          "characterOffsetEnd": 74,
          "pos": "VVPP",
          "before": " ",
          "after": " "
        },
        {
          "index": 14,
          "word": "haben",
          "originalText": "haben",
          "characterOffsetBegin": 75,
          "characterOffsetEnd": 80,
          "pos": "VAFIN",
          "before": " ",
          "after": ""
        },
        {
          "index": 15,
          "word": "?",
          "originalText": "?",
          "characterOffsetBegin": 80,
          "characterOffsetEnd": 81,
          "pos": "$.",
          "before": "",
          "after": ""
        }
      ]
    }
  ]
}