{
  "sentences": [
    {
      "index": 0,
      "basicDependencies": [
        {
          "dep": "ROOT",
          "governor": 0,
          "governorGloss": "ROOT",
          "dependent": 3,
          "dependentGloss": "verwenden"
        },
        {
          "dep": "name",
          "governor": 2,
          "governorGloss": "Mob",
          "dependent": 1,
          "dependentGloss": "Lynch"
        },
        {
          "dep": "nsubj",
          "governor": 3,
          "governorGloss": "verwenden",
          "dependent": 2,
          "dependentGloss": "Mob"
        },
        {
          "dep": "advmod",
          "governor": 3,
          "governorGloss": "verwenden",
          "dependent": 4,
          "dependentGloss": "Metzger"
        },
        {
          "dep": "dobj",
          "governor": 3,
          "governorGloss": "verwenden",
          "dependent": 5,
          "dependentGloss": "Fleisch-Cleaver"
        },
        {
          "dep": "case",
          "governor": 7,
          "governorGloss": "Kastration",
          "dependent": 6,
          "dependentGloss": "zu"
        },
        {
          "dep": "nmod",
          "governor": 5,
          "governorGloss": "Fleisch-Cleaver",
          "dependent": 7,
          "dependentGloss": "Kastration"
        },
        {
          "dep": "case",
          "governor": 3,
          "governorGloss": "verwenden",
          "dependent": 8,
          "dependentGloss": "Vergewaltiger"
        },
        {
          "dep": "dobj",
          "governor": 8,
          "governorGloss": "Vergewaltiger",
          "dependent": 9,
          "dependentGloss": "sie"
        },
        {
          "dep": "appos",
          "governor": 9,
          "governorGloss": "sie",
          "dependent": 10,
          "dependentGloss": "gefangen"
        },
        {
          "dep": "amod",
          "governor": 12,
          "governorGloss": "Teenager-Mädchen",
          "dependent": 11,
          "dependentGloss": "Angriff"
        },
        {
          "dep": "det",
          "governor": 10,
          "governorGloss": "gefangen",
          "dependent": 12,
          "dependentGloss": "Teenager-Mädchen"
        },
        {
          "dep": "case",
          "governor": 14,
          "governorGloss": "Gasse",
          "dependent": 13,
          "dependentGloss": "in"
        },
        {
          "dep": "nmod",
          "governor": 12,
          "governorGloss": "Teenager-Mädchen",
          "dependent": 14,
          "dependentGloss": "Gasse"
        },
        {
          "dep": "case",
          "governor": 18,
          "governorGloss": "Stadt",
          "dependent": 15,
          "dependentGloss": "in"
        },
        {
          "dep": "det",
          "governor": 18,
          "governorGloss": "Stadt",
          "dependent": 16,
          "dependentGloss": "der"
        },
        {
          "dep": "amod",
          "governor": 18,
          "governorGloss": "Stadt",
          "dependent": 17,
          "dependentGloss": "indischen"
        },
        {
          "dep": "nmod",
          "governor": 14,
          "governorGloss": "Gasse",
          "dependent": 18,
          "dependentGloss": "Stadt"
        }
      ],
      "enhancedDependencies": [
        {
          "dep": "ROOT",
          "governor": 0,
          "governorGloss": "ROOT",
          "dependent": 3,
          "dependentGloss": "verwenden"
        },
        {
          "dep": "name",
          "governor": 2,
          "governorGloss": "Mob",
          "dependent": 1,
          "dependentGloss": "Lynch"
        },
        {
          "dep": "nsubj",
          "governor": 3,
          "governorGloss": "verwenden",
          "dependent": 2,
          "dependentGloss": "Mob"
        },
        {
          "dep": "advmod",
          "governor": 3,
          "governorGloss": "verwenden",
          "dependent": 4,
          "dependentGloss": "Metzger"
        },
        {
          "dep": "dobj",
          "governor": 3,
          "governorGloss": "verwenden",
          "dependent": 5,
          "dependentGloss": "Fleisch-Cleaver"
        },
        {
          "dep": "case",
          "governor": 7,
          "governorGloss": "Kastration",
          "dependent": 6,
          "dependentGloss": "zu"
        },
        {
          "dep": "nmod",
          "governor": 5,
          "governorGloss": "Fleisch-Cleaver",
          "dependent": 7,
          "dependentGloss": "Kastration"
        },
        {
          "dep": "case",
          "governor": 3,
          "governorGloss": "verwenden",
          "dependent": 8,
          "dependentGloss": "Vergewaltiger"
        },
        {
          "dep": "dobj",
          "governor": 8,
          "governorGloss": "Vergewaltiger",
          "dependent": 9,
          "dependentGloss": "sie"
        },
        {
          "dep": "appos",
          "governor": 9,
          "governorGloss": "sie",
          "dependent": 10,
          "dependentGloss": "gefangen"
        },
        {
          "dep": "amod",
          "governor": 12,
          "governorGloss": "Teenager-Mädchen",
          "dependent": 11,
          "dependentGloss": "Angriff"
        },
        {
          "dep": "det",
          "governor": 10,
          "governorGloss": "gefangen",
          "dependent": 12,
          "dependentGloss": "Teenager-Mädchen"
        },
        {
          "dep": "case",
          "governor": 14,
          "governorGloss": "Gasse",
          "dependent": 13,
          "dependentGloss": "in"
        },
        {
          "dep": "nmod",
          "governor": 12,
          "governorGloss": "Teenager-Mädchen",
          "dependent": 14,
          "dependentGloss": "Gasse"
        },
        {
          "dep": "case",
          "governor": 18,
          "governorGloss": "Stadt",
          "dependent": 15,
          "dependentGloss": "in"
        },
        {
          "dep": "det",
          "governor": 18,
          "governorGloss": "Stadt",
          "dependent": 16,
          "dependentGloss": "der"
        },
        {
          "dep": "amod",
          "governor": 18,
          "governorGloss": "Stadt",
          "dependent": 17,
          "dependentGloss": "indischen"
        },
        {
          "dep": "nmod",
          "governor": 14,
          "governorGloss": "Gasse",
          "dependent": 18,
          "dependentGloss": "Stadt"
        }
      ],
      "enhancedPlusPlusDependencies": [
        {
          "dep": "ROOT",
          "governor": 0,
          "governorGloss": "ROOT",
          "dependent": 3,
          "dependentGloss": "verwenden"
        },
        {
          "dep": "name",
          "governor": 2,
          "governorGloss": "Mob",
          "dependent": 1,
          "dependentGloss": "Lynch"
        },
        {
          "dep": "nsubj",
          "governor": 3,
          "governorGloss": "verwenden",
          "dependent": 2,
          "dependentGloss": "Mob"
        },
        {
          "dep": "advmod",
          "governor": 3,
          "governorGloss": "verwenden",
          "dependent": 4,
          "dependentGloss": "Metzger"
        },
        {
          "dep": "dobj",
          "governor": 3,
          "governorGloss": "verwenden",
          "dependent": 5,
          "dependentGloss": "Fleisch-Cleaver"
        },
        {
          "dep": "case",
          "governor": 7,
          "governorGloss": "Kastration",
          "dependent": 6,
          "dependentGloss": "zu"
        },
        {
          "dep": "nmod",
          "governor": 5,
          "governorGloss": "Fleisch-Cleaver",
          "dependent": 7,
          "dependentGloss": "Kastration"
        },
        {
          "dep": "case",
          "governor": 3,
          "governorGloss": "verwenden",
          "dependent": 8,
          "dependentGloss": "Vergewaltiger"
        },
        {
          "dep": "dobj",
          "governor": 8,
          "governorGloss": "Vergewaltiger",
          "dependent": 9,
          "dependentGloss": "sie"
        },
        {
          "dep": "appos",
          "governor": 9,
          "governorGloss": "sie",
          "dependent": 10,
          "dependentGloss": "gefangen"
        },
        {
          "dep": "amod",
          "governor": 12,
          "governorGloss": "Teenager-Mädchen",
          "dependent": 11,
          "dependentGloss": "Angriff"
        },
        {
          "dep": "det",
          "governor": 10,
          "governorGloss": "gefangen",
          "dependent": 12,
          "dependentGloss": "Teenager-Mädchen"
        },
        {
          "dep": "case",
          "governor": 14,
          "governorGloss": "Gasse",
          "dependent": 13,
          "dependentGloss": "in"
        },
        {
          "dep": "nmod",
          "governor": 12,
          "governorGloss": "Teenager-Mädchen",
          "dependent": 14,
          "dependentGloss": "Gasse"
        },
        {
          "dep": "case",
          "governor": 18,
          "governorGloss": "Stadt",
          "dependent": 15,
          "dependentGloss": "in"
        },
        {
          "dep": "det",
          "governor": 18,
          "governorGloss": "Stadt",
          "dependent": 16,
          "dependentGloss": "der"
        },
        {
          "dep": "amod",
          "governor": 18,
          "governorGloss": "Stadt",
          "dependent": 17,
          "dependentGloss": "indischen"
        },
        {
          "dep": "nmod",
          "governor": 14,
          "governorGloss": "Gasse",
          "dependent": 18,
          "dependentGloss": "Stadt"
        }
      ],
      "tokens": [
        {
          "index": 1,
          "word": "Lynch",
          "originalText": "Lynch",
          "characterOffsetBegin": 0,
          "characterOffsetEnd": 5,
          "pos": "NE",
          "before": "",
          "after": " "
        },
        {
          "index": 2,
          "word": "Mob",
          "originalText": "Mob",
          "characterOffsetBegin": 6,
          "characterOffsetEnd": 9,
          "pos": "NE",
          "before": " ",
          "after": " "
        },
        {
          "index": 3,
          "word": "verwenden",
          "originalText": "verwenden",
          "characterOffsetBegin": 10,
          "characterOffsetEnd": 19,
          "pos": "VVFIN",
          "before": " ",
          "after": " "
        },
        {
          "index": 4,
          "word": "Metzger",
          "originalText": "Metzger",
          "characterOffsetBegin": 20,
          "characterOffsetEnd": 27,
          "pos": "NE",
          "before": " ",
          "after": " "
        },
        {
          "index": 5,
          "word": "Fleisch-Cleaver",
          "originalText": "Fleisch-Cleaver",
          "characterOffsetBegin": 28,
          "characterOffsetEnd": 43,
          "pos": "NN",
          "before": " ",
          "after": " "
        },
        {
          "index": 6,
          "word": "zu",
          "originalText": "zu",
          "characterOffsetBegin": 44,
          "characterOffsetEnd": 46,
          "pos": "PTKZU",
          "before": " ",
          "after": " "
        },
        {
          "index": 7,
          "word": "Kastration",
          "originalText": "Kastration",
          "characterOffsetBegin": 47,
          "characterOffsetEnd": 57,
          "pos": "NN",
          "before": " ",
          "after": " "
        },
        {
          "index": 8,
          "word": "Vergewaltiger",
          "originalText": "Vergewaltiger",
          "characterOffsetBegin": 58,
          "characterOffsetEnd": 71,
          "pos": "NN",
          "before": " ",
          "after": " "
        },
        {
          "index": 9,
          "word": "sie",
          "originalText": "sie",
          "characterOffsetBegin": 72,
          "characterOffsetEnd": 75,
          "pos": "PPER",
          "before": " ",
          "after": " "
        },
        {
          "index": 10,
          "word": "gefangen",
          "originalText": "gefangen",
          "characterOffsetBegin": 76,
          "characterOffsetEnd": 84,
          "pos": "VVPP",
          "before": " ",
          "after": " "
        },
        {
          "index": 11,
          "word": "Angriff",
          "originalText": "Angriff",
          "characterOffsetBegin": 85,
          "characterOffsetEnd": 92,
          "pos": "NN",
          "before": " ",
          "after": " "
        },
        {
          "index": 12,
          "word": "Teenager-Mädchen",
          "originalText": "Teenager-Mädchen",
          "characterOffsetBegin": 93,
          "characterOffsetEnd": 109,
          "pos": "NN",
          "before": " ",
          "after": " "
        },
        {
          "index": 13,
          "word": "in",
          "originalText": "in",
          "characterOffsetBegin": 110,
          "characterOffsetEnd": 112,
          "pos": "APPR",
          "before": " ",
          "after": " "
        },
        {
          "index": 14,
          "word": "Gasse",
          "originalText": "Gasse",
          "characterOffsetBegin": 113,
          "characterOffsetEnd": 118,
          "pos": "NE",
          "before": " ",
          "after": " "
        },
        {
          "index": 15,
          "word": "in",
          "originalText": "in",
          "characterOffsetBegin": 119,
          "characterOffsetEnd": 121,
          "pos": "APPR",
          "before": " ",
          "after": " "
        },
        {
          "index": 16,
          "word": "der",
          "originalText": "der",
          "characterOffsetBegin": 122,
          "characterOffsetEnd": 125,
          "pos": "ART",
          "before": " ",
          "after": " "
        },
        {
          "index": 17,
          "word": "indischen",
          "originalText": "indischen",
          "characterOffsetBegin": 126,
          "characterOffsetEnd": 135,
          "pos": "ADJA",
          "before": " ",
          "after": " "
        },
        {
          "index": 18,
          "word": "Stadt",
          "originalText": "Stadt",
          "characterOffsetBegin": 136,
          "characterOffsetEnd": 141,
          "pos": "NN",
          "before": " ",
          "after": ""
        }
      ]
    }
  ]
}