{
  "sentences": [
    {
      "index": 0,
      "basicDependencies": [
        {
          "dep": "ROOT",
          "governor": 0,
          "governorGloss": "ROOT",
          "dependent": 4,
          "dependentGloss": "Schwester"
        },
        {
          "dep": "advmod",
          "governor": 4,
          "governorGloss": "Schwester",
          "dependent": 1,
          "dependentGloss": "App-Pinsel-Liste"
        },
        {
          "dep": "advmod",
          "governor": 4,
          "governorGloss": "Schwester",
          "dependent": 2,
          "dependentGloss": "tatsächlich"
        },
        {
          "dep": "advmod",
          "governor": 4,
          "governorGloss": "Schwester",
          "dependent": 3,
          "dependentGloss": "so"
        },
        {
          "dep": "nsubj",
          "governor": 4,
          "governorGloss": "Schwester",
          "dependent": 5,
          "dependentGloss": "Sie"
        },
        {
          "dep": "nsubj",
          "governor": 7,
          "governorGloss": "müde",
          "dependent": 6,
          "dependentGloss": "es"
        },
        {
          "dep": "xcomp",
          "governor": 4,
          "governorGloss": "Schwester",
          "dependent": 7,
          "dependentGloss": "müde"
        },
        {
          "dep": "punct",
          "governor": 4,
          "governorGloss": "Schwester",
          "dependent": 8,
          "dependentGloss": "?"
        }
      ],
      "enhancedDependencies": [
        {
          "dep": "ROOT",
          "governor": 0,
          "governorGloss": "ROOT",
          "dependent": 4,
          "dependentGloss": "Schwester"
        },
        {
          "dep": "advmod",
          "governor": 4,
          "governorGloss": "Schwester",
          "dependent": 1,
          "dependentGloss": "App-Pinsel-Liste"
        },
        {
          "dep": "advmod",
          "governor": 4,
          "governorGloss": "Schwester",
          "dependent": 2,
          "dependentGloss": "tatsächlich"
        },
        {
          "dep": "advmod",
          "governor": 4,
          "governorGloss": "Schwester",
          "dependent": 3,
          "dependentGloss": "so"
        },
        {
          "dep": "nsubj",
          "governor": 4,
          "governorGloss": "Schwester",
          "dependent": 5,
          "dependentGloss": "Sie"
        },
        {
          "dep": "nsubj",
          "governor": 7,
          "governorGloss": "müde",
          "dependent": 6,
          "dependentGloss": "es"
        },
        {
          "dep": "xcomp",
          "governor": 4,
          "governorGloss": "Schwester",
          "dependent": 7,
          "dependentGloss": "müde"
        },
        {
          "dep": "punct",
          "governor": 4,
          "governorGloss": "Schwester",
          "dependent": 8,
          "dependentGloss": "?"
        }
      ],
      "enhancedPlusPlusDependencies": [
        {
          "dep": "ROOT",
          "governor": 0,
          "governorGloss": "ROOT",
          "dependent": 4,
          "dependentGloss": "Schwester"
        },
        {
          "dep": "advmod",
          "governor": 4,
          "governorGloss": "Schwester",
          "dependent": 1,
          "dependentGloss": "App-Pinsel-Liste"
        },
        {
          "dep": "advmod",
          "governor": 4,
          "governorGloss": "Schwester",
          "dependent": 2,
          "dependentGloss": "tatsächlich"
        },
        {
          "dep": "advmod",
          "governor": 4,
          "governorGloss": "Schwester",
          "dependent": 3,
          "dependentGloss": "so"
        },
        {
          "dep": "nsubj",
          "governor": 4,
          "governorGloss": "Schwester",
          "dependent": 5,
          "dependentGloss": "Sie"
        },
        {
          "dep": "nsubj",
          "governor": 7,
          "governorGloss": "müde",
          "dependent": 6,
          "dependentGloss": "es"
        },
        {
          "dep": "xcomp",
          "governor": 4,
          "governorGloss": "Schwester",
          "dependent": 7,
          "dependentGloss": "müde"
        },
        {
          "dep": "punct",
          "governor": 4,
          "governorGloss": "Schwester",
          "dependent": 8,
          "dependentGloss": "?"
        }
      ],
      "tokens": [
        {
          "index": 1,
          "word": "App-Pinsel-Liste",
          "originalText": "App-Pinsel-Liste",
          "characterOffsetBegin": 0,
          "characterOffsetEnd": 16,
          "pos": "NN",
          "before": "",
          "after": " "
        },
        {
          "index": 2,
          "word": "tatsächlich",
          "originalText": "tatsächlich",
          "characterOffsetBegin": 17,
          "characterOffsetEnd": 28,
          "pos": "ADJD",
          "before": " ",
          "after": " "
        },
        {
          "index": 3,
          "word": "so",
          "originalText": "so",
          "characterOffsetBegin": 29,
          "characterOffsetEnd": 31,
          "pos": "ADV",
          "before": " ",
          "after": " "
        },
        {
          "index": 4,
          "word": "Schwester",
          "originalText": "Schwester",
          "characterOffsetBegin": 32,
          "characterOffsetEnd": 41,
          "pos": "NN",
          "before": " ",
          "after": " "
        },
        {
          "index": 5,
          "word": "Sie",
          "originalText": "Sie",
          "characterOffsetBegin": 42,
          "characterOffsetEnd": 45,
          "pos": "PPER",
          "before": " ",
          "after": " "
        },
        {
          "index": 6,
          "word": "es",
          "originalText": "es",
          "characterOffsetBegin": 46,
          "characterOffsetEnd": 48,
          "pos": "PPER",
          "before": " ",
          "after": " "
        },
        {
          "index": 7,
          "word": "müde",
          "originalText": "müde",
          "characterOffsetBegin": 49,
          "characterOffsetEnd": 53,
          "pos": "ADJD",
          "before": " ",
          "after": ""
        },
        {
          "index": 8,
          "word": "?",
          "originalText": "?",
          "characterOffsetBegin": 53,
          "characterOffsetEnd": 54,
          "pos": "$.",
          "before": "",
          "after": ""
        }
      ]
    }
  ]
}