{
  "sentences": [
    {
      "index": 0,
      "basicDependencies": [
        {
          "dep": "ROOT",
          "governor": 0,
          "governorGloss": "ROOT",
          "dependent": 2,
          "dependentGloss": "STAAT"
        },
        {
          "dep": "name",
          "governor": 2,
          "governorGloss": "STAAT",
          "dependent": 1,
          "dependentGloss": "ISLAMISCHER"
        },
        {
          "dep": "punct",
          "governor": 7,
          "governorGloss": "ZU",
          "dependent": 3,
          "dependentGloss": "``"
        },
        {
          "dep": "name",
          "governor": 7,
          "governorGloss": "ZU",
          "dependent": 4,
          "dependentGloss": "FED"
        },
        {
          "dep": "name",
          "governor": 7,
          "governorGloss": "ZU",
          "dependent": 5,
          "dependentGloss": "MURDERED"
        },
        {
          "dep": "name",
          "governor": 7,
          "governorGloss": "ZU",
          "dependent": 6,
          "dependentGloss": "MAN"
        },
        {
          "dep": "appos",
          "governor": 2,
          "governorGloss": "STAAT",
          "dependent": 7,
          "dependentGloss": "ZU"
        },
        {
          "dep": "amod",
          "governor": 10,
          "governorGloss": "MUTTER",
          "dependent": 8,
          "dependentGloss": "SEINER"
        },
        {
          "dep": "amod",
          "governor": 10,
          "governorGloss": "MUTTER",
          "dependent": 9,
          "dependentGloss": "EIGENEN"
        },
        {
          "dep": "det",
          "governor": 7,
          "governorGloss": "ZU",
          "dependent": 10,
          "dependentGloss": "MUTTER"
        },
        {
          "dep": "punct",
          "governor": 2,
          "governorGloss": "STAAT",
          "dependent": 11,
          "dependentGloss": "``"
        }
      ],
      "enhancedDependencies": [
        {
          "dep": "ROOT",
          "governor": 0,
          "governorGloss": "ROOT",
          "dependent": 2,
          "dependentGloss": "STAAT"
        },
        {
          "dep": "name",
          "governor": 2,
          "governorGloss": "STAAT",
          "dependent": 1,
          "dependentGloss": "ISLAMISCHER"
        },
        {
          "dep": "punct",
          "governor": 7,
          "governorGloss": "ZU",
          "dependent": 3,
          "dependentGloss": "``"
        },
        {
          "dep": "name",
          "governor": 7,
          "governorGloss": "ZU",
          "dependent": 4,
          "dependentGloss": "FED"
        },
        {
          "dep": "name",
          "governor": 7,
          "governorGloss": "ZU",
          "dependent": 5,
          "dependentGloss": "MURDERED"
        },
        {
          "dep": "name",
          "governor": 7,
          "governorGloss": "ZU",
          "dependent": 6,
          "dependentGloss": "MAN"
        },
        {
          "dep": "appos",
          "governor": 2,
          "governorGloss": "STAAT",
          "dependent": 7,
          "dependentGloss": "ZU"
        },
        {
          "dep": "amod",
          "governor": 10,
          "governorGloss": "MUTTER",
          "dependent": 8,
          "dependentGloss": "SEINER"
        },
        {
          "dep": "amod",
          "governor": 10,
          "governorGloss": "MUTTER",
          "dependent": 9,
          "dependentGloss": "EIGENEN"
        },
        {
          "dep": "det",
          "governor": 7,
          "governorGloss": "ZU",
          "dependent": 10,
          "dependentGloss": "MUTTER"
        },
        {
          "dep": "punct",
          "governor": 2,
          "governorGloss": "STAAT",
          "dependent": 11,
          "dependentGloss": "``"
        }
      ],
      "enhancedPlusPlusDependencies": [
        {
          "dep": "ROOT",
          "governor": 0,
          "governorGloss": "ROOT",
          "dependent": 2,
          "dependentGloss": "STAAT"
        },
        {
          "dep": "name",
          "governor": 2,
          "governorGloss": "STAAT",
          "dependent": 1,
          "dependentGloss": "ISLAMISCHER"
        },
        {
          "dep": "punct",
          "governor": 7,
          "governorGloss": "ZU",
          "dependent": 3,
          "dependentGloss": "``"
        },
        {
          "dep": "name",
          "governor": 7,
          "governorGloss": "ZU",
          "dependent": 4,
          "dependentGloss": "FED"
        },
        {
          "dep": "name",
          "governor": 7,
          "governorGloss": "ZU",
          "dependent": 5,
          "dependentGloss": "MURDERED"
        },
        {
          "dep": "name",
          "governor": 7,
          "governorGloss": "ZU",
          "dependent": 6,
          "dependentGloss": "MAN"
        },
        {
          "dep": "appos",
          "governor": 2,
          "governorGloss": "STAAT",
          "dependent": 7,
          "dependentGloss": "ZU"
        },
        {
          "dep": "amod",
          "governor": 10,
          "governorGloss": "MUTTER",
          "dependent": 8,
          "dependentGloss": "SEINER"
        },
        {
          "dep": "amod",
          "governor": 10,
          "governorGloss": "MUTTER",
          "dependent": 9,
          "dependentGloss": "EIGENEN"
        },
        {
          "dep": "det",
          "governor": 7,
          "governorGloss": "ZU",
          "dependent": 10,
          "dependentGloss": "MUTTER"
        },
        {
          "dep": "punct",
          "governor": 2,
          "governorGloss": "STAAT",
          "dependent": 11,
          "dependentGloss": "``"
        }
      ],
      "tokens": [
        {
          "index": 1,
          "word": "ISLAMISCHER",
          "originalText": "ISLAMISCHER",
          "characterOffsetBegin": 0,
          "characterOffsetEnd": 11,
          "pos": "NE",
          "before": "",
          "after": " "
        },
        {
          "index": 2,
          "word": "STAAT",
          "originalText": "STAAT",
          "characterOffsetBegin": 12,
          "characterOffsetEnd": 17,
          "pos": "NN",
          "before": " ",
          "after": " "
        },
        {
          "index": 3,
          "word": "``",
          "originalText": "“",
          "characterOffsetBegin": 18,
          "characterOffsetEnd": 19,
          "pos": "CARD",
          "before": " ",
          "after": ""
        },
        {
          "index": 4,
          "word": "FED",
          "originalText": "FED",
          "characterOffsetBegin": 19,
          "characterOffsetEnd": 22,
          "pos": "NE",
          "before": "",
          "after": " "
        },
        {
          "index": 5,
          "word": "MURDERED",
          "originalText": "MURDERED",
          "characterOffsetBegin": 23,
          "characterOffsetEnd": 31,
          "pos": "NE",
          "before": " ",
          "after": " "
        },
        {
          "index": 6,
          "word": "MAN",
          "originalText": "MAN",
          "characterOffsetBegin": 32,
          "characterOffsetEnd": 35,
          "pos": "NE",
          "before": " ",
          "after": " "
        },
        {
          "index": 7,
          "word": "ZU",
          "originalText": "ZU",
          "characterOffsetBegin": 36,
          "characterOffsetEnd": 38,
          "pos": "NE",
          "before": " ",
          "after": " "
        },
        {
          "index": 8,
          "word": "SEINER",
          "originalText": "SEINER",
          "characterOffsetBegin": 39,
          "characterOffsetEnd": 45,
          "pos": "NE",
          "before": " ",
          "after": " "
        },
        {
          "index": 9,
          "word": "EIGENEN",
          "originalText": "EIGENEN",
          "characterOffsetBegin": 46,
          "characterOffsetEnd": 53,
          "pos": "NE",
          "before": " ",
          "after": " "
        },
        {
          "index": 10,
          "word": "MUTTER",
          "originalText": "MUTTER",
          "characterOffsetBegin": 54,
          "characterOffsetEnd": 60,
          "pos": "NN",
          "before": " ",
          "after": ""
        },
        {
          "index": 11,
          "word": "``",
          "originalText": "“",
          "characterOffsetBegin": 60,
          "characterOffsetEnd": 61,
          "pos": "CARD",
          "before": "",
          "after": ""
        }
      ]
    }
  ]
}