{
  "sentences": [
    {
      "index": 0,
      "basicDependencies": [
        {
          "dep": "ROOT",
          "governor": 0,
          "governorGloss": "ROOT",
          "dependent": 1,
          "dependentGloss": "Bericht"
        },
        {
          "dep": "punct",
          "governor": 1,
          "governorGloss": "Bericht",
          "dependent": 2,
          "dependentGloss": ":"
        },
        {
          "dep": "nummod",
          "governor": 4,
          "governorGloss": "knallte",
          "dependent": 3,
          "dependentGloss": "Exec"
        },
        {
          "dep": "nmod",
          "governor": 8,
          "governorGloss": "Abendessen",
          "dependent": 4,
          "dependentGloss": "knallte"
        },
        {
          "dep": "case",
          "governor": 6,
          "governorGloss": "$",
          "dependent": 5,
          "dependentGloss": "für"
        },
        {
          "dep": "nmod",
          "governor": 7,
          "governorGloss": "300k",
          "dependent": 6,
          "dependentGloss": "$"
        },
        {
          "dep": "amod",
          "governor": 8,
          "governorGloss": "Abendessen",
          "dependent": 7,
          "dependentGloss": "300k"
        },
        {
          "dep": "parataxis",
          "governor": 1,
          "governorGloss": "Bericht",
          "dependent": 8,
          "dependentGloss": "Abendessen"
        },
        {
          "dep": "case",
          "governor": 10,
          "governorGloss": "laufen",
          "dependent": 9,
          "dependentGloss": "nach"
        },
        {
          "dep": "nmod",
          "governor": 8,
          "governorGloss": "Abendessen",
          "dependent": 10,
          "dependentGloss": "laufen"
        },
        {
          "dep": "case",
          "governor": 12,
          "governorGloss": "Blackjack",
          "dependent": 11,
          "dependentGloss": "bei"
        },
        {
          "dep": "nmod",
          "governor": 8,
          "governorGloss": "Abendessen",
          "dependent": 12,
          "dependentGloss": "Blackjack"
        }
      ],
      "enhancedDependencies": [
        {
          "dep": "ROOT",
          "governor": 0,
          "governorGloss": "ROOT",
          "dependent": 1,
          "dependentGloss": "Bericht"
        },
        {
          "dep": "punct",
          "governor": 1,
          "governorGloss": "Bericht",
          "dependent": 2,
          "dependentGloss": ":"
        },
        {
          "dep": "nummod",
          "governor": 4,
          "governorGloss": "knallte",
          "dependent": 3,
          "dependentGloss": "Exec"
        },
        {
          "dep": "nmod",
          "governor": 8,
          "governorGloss": "Abendessen",
          "dependent": 4,
          "dependentGloss": "knallte"
        },
        {
          "dep": "case",
          "governor": 6,
          "governorGloss": "$",
          "dependent": 5,
          "dependentGloss": "für"
        },
        {
          "dep": "nmod",
          "governor": 7,
          "governorGloss": "300k",
          "dependent": 6,
          "dependentGloss": "$"
        },
        {
          "dep": "amod",
          "governor": 8,
          "governorGloss": "Abendessen",
          "dependent": 7,
          "dependentGloss": "300k"
        },
        {
          "dep": "parataxis",
          "governor": 1,
          "governorGloss": "Bericht",
          "dependent": 8,
          "dependentGloss": "Abendessen"
        },
        {
          "dep": "case",
          "governor": 10,
          "governorGloss": "laufen",
          "dependent": 9,
          "dependentGloss": "nach"
        },
        {
          "dep": "nmod",
          "governor": 8,
          "governorGloss": "Abendessen",
          "dependent": 10,
          "dependentGloss": "laufen"
        },
        {
          "dep": "case",
          "governor": 12,
          "governorGloss": "Blackjack",
          "dependent": 11,
          "dependentGloss": "bei"
        },
        {
          "dep": "nmod",
          "governor": 8,
          "governorGloss": "Abendessen",
          "dependent": 12,
          "dependentGloss": "Blackjack"
        }
      ],
      "enhancedPlusPlusDependencies": [
        {
          "dep": "ROOT",
          "governor": 0,
          "governorGloss": "ROOT",
          "dependent": 1,
          "dependentGloss": "Bericht"
        },
        {
          "dep": "punct",
          "governor": 1,
          "governorGloss": "Bericht",
          "dependent": 2,
          "dependentGloss": ":"
        },
        {
          "dep": "nummod",
          "governor": 4,
          "governorGloss": "knallte",
          "dependent": 3,
          "dependentGloss": "Exec"
        },
        {
          "dep": "nmod",
          "governor": 8,
          "governorGloss": "Abendessen",
          "dependent": 4,
          "dependentGloss": "knallte"
        },
        {
          "dep": "case",
          "governor": 6,
          "governorGloss": "$",
          "dependent": 5,
          "dependentGloss": "für"
        },
        {
          "dep": "nmod",
          "governor": 7,
          "governorGloss": "300k",
          "dependent": 6,
          "dependentGloss": "$"
        },
        {
          "dep": "amod",
          "governor": 8,
          "governorGloss": "Abendessen",
          "dependent": 7,
          "dependentGloss": "300k"
        },
        {
          "dep": "parataxis",
          "governor": 1,
          "governorGloss": "Bericht",
          "dependent": 8,
          "dependentGloss": "Abendessen"
        },
        {
          "dep": "case",
          "governor": 10,
          "governorGloss": "laufen",
          "dependent": 9,
          "dependentGloss": "nach"
        },
        {
          "dep": "nmod",
          "governor": 8,
          "governorGloss": "Abendessen",
          "dependent": 10,
          "dependentGloss": "laufen"
        },
        {
          "dep": "case",
          "governor": 12,
          "governorGloss": "Blackjack",
          "dependent": 11,
          "dependentGloss": "bei"
        },
        {
          "dep": "nmod",
          "governor": 8,
          "governorGloss": "Abendessen",
          "dependent": 12,
          "dependentGloss": "Blackjack"
        }
      ],
      "tokens": [
        {
          "index": 1,
          "word": "Bericht",
          "originalText": "Bericht",
          "characterOffsetBegin": 0,
          "characterOffsetEnd": 7,
          "pos": "NN",
          "before": "",
          "after": ""
        },
        {
          "index": 2,
          "word": ":",
          "originalText": ":",
          "characterOffsetBegin": 7,
          "characterOffsetEnd": 8,
          "pos": "$.",
          "before": "",
          "after": " "
        },
        {
          "index": 3,
          "word": "Exec",
          "originalText": "Exec",
          "characterOffsetBegin": 9,
          "characterOffsetEnd": 13,
          "pos": "NE",
          "before": " ",
          "after": " "
        },
        {
          "index": 4,
          "word": "knallte",
          "originalText": "knallte",
          "characterOffsetBegin": 14,
          "characterOffsetEnd": 21,
          "pos": "VVFIN",
          "before": " ",
          "after": " "
        },
        {
          "index": 5,
          "word": "für",
          "originalText": "für",
          "characterOffsetBegin": 22,
          "characterOffsetEnd": 25,
          "pos": "APPR",
          "before": " ",
          "after": " "
        },
        {
          "index": 6,
          "word": "$",
          "originalText": "$",
          "characterOffsetBegin": 26,
          "characterOffsetEnd": 27,
          "pos": "CARD",
          "before": " ",
          "after": " "
        },
        {
          "index": 7,
          "word": "300k",
          "originalText": "300k",
          "characterOffsetBegin": 28,
          "characterOffsetEnd": 32,
          "pos": "CARD",
          "before": " ",
          "after": " "
        },
        {
          "index": 8,
          "word": "Abendessen",
          "originalText": "Abendessen",
          "characterOffsetBegin": 33,
          "characterOffsetEnd": 43,
          "pos": "NN",
          "before": " ",
          "after": " "
        },
        {
          "index": 9,
          "word": "nach",
          "originalText": "nach",
          "characterOffsetBegin": 44,
          "characterOffsetEnd": 48,
          "pos": "APPR",
          "before": " ",
          "after": " "
        },
        {
          "index": 10,
          "word": "laufen",
          "originalText": "laufen",
          "characterOffsetBegin": 49,
          "characterOffsetEnd": 55,
          "pos": "VVFIN",
          "before": " ",
          "after": " "
        },
        {
          "index": 11,
          "word": "bei",
          "originalText": "bei",
          "characterOffsetBegin": 56,
          "characterOffsetEnd": 59,
          "pos": "APPR",
          "before": " ",
          "after": " "
        },
        {
          "index": 12,
          "word": "Blackjack",
          "originalText": "Blackjack",
          "characterOffsetBegin": 60,
          "characterOffsetEnd": 69,
          "pos": "NN",
          "before": " ",
          "after": ""
        }
      ]
    }
  ]
}