{
  "sentences": [
    {
      "index": 0,
      "basicDependencies": [
        {
          "dep": "ROOT",
          "governor": 0,
          "governorGloss": "ROOT",
          "dependent": 1,
          "dependentGloss": "URGENT"
        },
        {
          "dep": "punct",
          "governor": 1,
          "governorGloss": "URGENT",
          "dependent": 2,
          "dependentGloss": ":"
        },
        {
          "dep": "advmod",
          "governor": 10,
          "governorGloss": "getötet",
          "dependent": 3,
          "dependentGloss": "ISIS-Chef"
        },
        {
          "dep": "advmod",
          "governor": 10,
          "governorGloss": "getötet",
          "dependent": 4,
          "dependentGloss": "Abu"
        },
        {
          "dep": "amod",
          "governor": 6,
          "governorGloss": "al-Baghdadi",
          "dependent": 5,
          "dependentGloss": "Bakr"
        },
        {
          "dep": "nsubjpass",
          "governor": 10,
          "governorGloss": "getötet",
          "dependent": 6,
          "dependentGloss": "al-Baghdadi"
        },
        {
          "dep": "advmod",
          "governor": 10,
          "governorGloss": "getötet",
          "dependent": 7,
          "dependentGloss": "angeblich"
        },
        {
          "dep": "case",
          "governor": 9,
          "governorGloss": "US-Luftangriffen",
          "dependent": 8,
          "dependentGloss": "von"
        },
        {
          "dep": "nmod",
          "governor": 10,
          "governorGloss": "getötet",
          "dependent": 9,
          "dependentGloss": "US-Luftangriffen"
        },
        {
          "dep": "parataxis",
          "governor": 1,
          "governorGloss": "URGENT",
          "dependent": 10,
          "dependentGloss": "getötet"
        }
      ],
      "enhancedDependencies": [
        {
          "dep": "ROOT",
          "governor": 0,
          "governorGloss": "ROOT",
          "dependent": 1,
          "dependentGloss": "URGENT"
        },
        {
          "dep": "punct",
          "governor": 1,
          "governorGloss": "URGENT",
          "dependent": 2,
          "dependentGloss": ":"
        },
        {
          "dep": "advmod",
          "governor": 10,
          "governorGloss": "getötet",
          "dependent": 3,
          "dependentGloss": "ISIS-Chef"
        },
        {
          "dep": "advmod",
          "governor": 10,
          "governorGloss": "getötet",
          "dependent": 4,
          "dependentGloss": "Abu"
        },
        {
          "dep": "amod",
          "governor": 6,
          "governorGloss": "al-Baghdadi",
          "dependent": 5,
          "dependentGloss": "Bakr"
        },
        {
          "dep": "nsubjpass",
          "governor": 10,
          "governorGloss": "getötet",
          "dependent": 6,
          "dependentGloss": "al-Baghdadi"
        },
        {
          "dep": "advmod",
          "governor": 10,
          "governorGloss": "getötet",
          "dependent": 7,
          "dependentGloss": "angeblich"
        },
        {
          "dep": "case",
          "governor": 9,
          "governorGloss": "US-Luftangriffen",
          "dependent": 8,
          "dependentGloss": "von"
        },
        {
          "dep": "nmod",
          "governor": 10,
          "governorGloss": "getötet",
          "dependent": 9,
          "dependentGloss": "US-Luftangriffen"
        },
        {
          "dep": "parataxis",
          "governor": 1,
          "governorGloss": "URGENT",
          "dependent": 10,
          "dependentGloss": "getötet"
        }
      ],
      "enhancedPlusPlusDependencies": [
        {
          "dep": "ROOT",
          "governor": 0,
          "governorGloss": "ROOT",
          "dependent": 1,
          "dependentGloss": "URGENT"
        },
        {
          "dep": "punct",
          "governor": 1,
          "governorGloss": "URGENT",
          "dependent": 2,
          "dependentGloss": ":"
        },
        {
          "dep": "advmod",
          "governor": 10,
          "governorGloss": "getötet",
          "dependent": 3,
          "dependentGloss": "ISIS-Chef"
        },
        {
          "dep": "advmod",
          "governor": 10,
          "governorGloss": "getötet",
          "dependent": 4,
          "dependentGloss": "Abu"
        },
        {
          "dep": "amod",
          "governor": 6,
          "governorGloss": "al-Baghdadi",
          "dependent": 5,
          "dependentGloss": "Bakr"
        },
        {
          "dep": "nsubjpass",
          "governor": 10,
          "governorGloss": "getötet",
          "dependent": 6,
          "dependentGloss": "al-Baghdadi"
        },
        {
          "dep": "advmod",
          "governor": 10,
          "governorGloss": "getötet",
          "dependent": 7,
          "dependentGloss": "angeblich"
        },
        {
          "dep": "case",
          "governor": 9,
          "governorGloss": "US-Luftangriffen",
          "dependent": 8,
          "dependentGloss": "von"
        },
        {
          "dep": "nmod",
          "governor": 10,
          "governorGloss": "getötet",
          "dependent": 9,
          "dependentGloss": "US-Luftangriffen"
        },
        {
          "dep": "parataxis",
          "governor": 1,
          "governorGloss": "URGENT",
          "dependent": 10,
          "dependentGloss": "getötet"
        }
      ],
      "tokens": [
        {
          "index": 1,
          "word": "URGENT",
          "originalText": "URGENT",
          "characterOffsetBegin": 0,
          "characterOffsetEnd": 6,
          "pos": "NE",
          "before": "",
          "after": ""
        },
        {
          "index": 2,
          "word": ":",
          "originalText": ":",
          "characterOffsetBegin": 6,
          "characterOffsetEnd": 7,
          "pos": "$.",
          "before": "",
          "after": " "
        },
        {
          "index": 3,
          "word": "ISIS-Chef",
          "originalText": "ISIS-Chef",
          "characterOffsetBegin": 8,
          "characterOffsetEnd": 17,
          "pos": "NN",
          "before": " ",
          "after": " "
        },
        {
          "index": 4,
          "word": "Abu",
          "originalText": "Abu",
          "characterOffsetBegin": 18,
          "characterOffsetEnd": 21,
          "pos": "NE",
          "before": " ",
          "after": " "
        },
        {
          "index": 5,
          "word": "Bakr",
          "originalText": "Bakr",
          "characterOffsetBegin": 22,
          "characterOffsetEnd": 26,
          "pos": "NE",
          "before": " ",
          "after": " "
        },
        {
          "index": 6,
          "word": "al-Baghdadi",
          "originalText": "al-Baghdadi",
          "characterOffsetBegin": 27,
          "characterOffsetEnd": 38,
          "pos": "NE",
          "before": " ",
          "after": " "
        },
        {
          "index": 7,
          "word": "angeblich",
          "originalText": "angeblich",
          "characterOffsetBegin": 39,
          "characterOffsetEnd": 48,
          "pos": "ADJD",
          "before": " ",
          "after": " "
        },
        {
          "index": 8,
          "word": "von",
          "originalText": "von",
          "characterOffsetBegin": 49,
          "characterOffsetEnd": 52,
          "pos": "APPR",
          "before": " ",
          "after": " "
        },
        {
          "index": 9,
          "word": "US-Luftangriffen",
          "originalText": "US-Luftangriffen",
          "characterOffsetBegin": 53,
          "characterOffsetEnd": 69,
          "pos": "NN",
          "before": " ",
          "after": " "
        },
        {
          "index": 10,
          "word": "getötet",
          "originalText": "getötet",
          "characterOffsetBegin": 70,
          "characterOffsetEnd": 77,
          "pos": "VVPP",
          "before": " ",
          "after": ""
        }
      ]
    }
  ]
}