{
  "sentences": [
    {
      "index": 0,
      "basicDependencies": [
        {
          "dep": "ROOT",
          "governor": 0,
          "governorGloss": "ROOT",
          "dependent": 1,
          "dependentGloss": "Bericht"
        },
        {
          "dep": "punct",
          "governor": 1,
          "governorGloss": "Bericht",
          "dependent": 2,
          "dependentGloss": ":"
        },
        {
          "dep": "appos",
          "governor": 1,
          "governorGloss": "Bericht",
          "dependent": 3,
          "dependentGloss": "HBO"
        },
        {
          "dep": "advmod",
          "governor": 5,
          "governorGloss": "komm",
          "dependent": 4,
          "dependentGloss": "Jetzt"
        },
        {
          "dep": "acl",
          "governor": 3,
          "governorGloss": "HBO",
          "dependent": 5,
          "dependentGloss": "komm"
        },
        {
          "dep": "advmod",
          "governor": 10,
          "governorGloss": "im",
          "dependent": 6,
          "dependentGloss": "schon"
        },
        {
          "dep": "case",
          "governor": 10,
          "governorGloss": "im",
          "dependent": 7,
          "dependentGloss": "nach"
        },
        {
          "dep": "det",
          "governor": 10,
          "governorGloss": "im",
          "dependent": 8,
          "dependentGloss": "Apple"
        },
        {
          "dep": "compound",
          "governor": 10,
          "governorGloss": "im",
          "dependent": 9,
          "dependentGloss": "TV"
        },
        {
          "dep": "nmod",
          "governor": 5,
          "governorGloss": "komm",
          "dependent": 10,
          "dependentGloss": "im"
        },
        {
          "dep": "amod",
          "governor": 12,
          "governorGloss": "Monat",
          "dependent": 11,
          "dependentGloss": "nächsten"
        },
        {
          "dep": "det",
          "governor": 10,
          "governorGloss": "im",
          "dependent": 12,
          "dependentGloss": "Monat"
        }
      ],
      "enhancedDependencies": [
        {
          "dep": "ROOT",
          "governor": 0,
          "governorGloss": "ROOT",
          "dependent": 1,
          "dependentGloss": "Bericht"
        },
        {
          "dep": "punct",
          "governor": 1,
          "governorGloss": "Bericht",
          "dependent": 2,
          "dependentGloss": ":"
        },
        {
          "dep": "appos",
          "governor": 1,
          "governorGloss": "Bericht",
          "dependent": 3,
          "dependentGloss": "HBO"
        },
        {
          "dep": "advmod",
          "governor": 5,
          "governorGloss": "komm",
          "dependent": 4,
          "dependentGloss": "Jetzt"
        },
        {
          "dep": "acl",
          "governor": 3,
          "governorGloss": "HBO",
          "dependent": 5,
          "dependentGloss": "komm"
        },
        {
          "dep": "advmod",
          "governor": 10,
          "governorGloss": "im",
          "dependent": 6,
          "dependentGloss": "schon"
        },
        {
          "dep": "case",
          "governor": 10,
          "governorGloss": "im",
          "dependent": 7,
          "dependentGloss": "nach"
        },
        {
          "dep": "det",
          "governor": 10,
          "governorGloss": "im",
          "dependent": 8,
          "dependentGloss": "Apple"
        },
        {
          "dep": "compound",
          "governor": 10,
          "governorGloss": "im",
          "dependent": 9,
          "dependentGloss": "TV"
        },
        {
          "dep": "nmod",
          "governor": 5,
          "governorGloss": "komm",
          "dependent": 10,
          "dependentGloss": "im"
        },
        {
          "dep": "amod",
          "governor": 12,
          "governorGloss": "Monat",
          "dependent": 11,
          "dependentGloss": "nächsten"
        },
        {
          "dep": "det",
          "governor": 10,
          "governorGloss": "im",
          "dependent": 12,
          "dependentGloss": "Monat"
        }
      ],
      "enhancedPlusPlusDependencies": [
        {
          "dep": "ROOT",
          "governor": 0,
          "governorGloss": "ROOT",
          "dependent": 1,
          "dependentGloss": "Bericht"
        },
        {
          "dep": "punct",
          "governor": 1,
          "governorGloss": "Bericht",
          "dependent": 2,
          "dependentGloss": ":"
        },
        {
          "dep": "appos",
          "governor": 1,
          "governorGloss": "Bericht",
          "dependent": 3,
          "dependentGloss": "HBO"
        },
        {
          "dep": "advmod",
          "governor": 5,
          "governorGloss": "komm",
          "dependent": 4,
          "dependentGloss": "Jetzt"
        },
        {
          "dep": "acl",
          "governor": 3,
          "governorGloss": "HBO",
          "dependent": 5,
          "dependentGloss": "komm"
        },
        {
          "dep": "advmod",
          "governor": 10,
          "governorGloss": "im",
          "dependent": 6,
          "dependentGloss": "schon"
        },
        {
          "dep": "case",
          "governor": 10,
          "governorGloss": "im",
          "dependent": 7,
          "dependentGloss": "nach"
        },
        {
          "dep": "det",
          "governor": 10,
          "governorGloss": "im",
          "dependent": 8,
          "dependentGloss": "Apple"
        },
        {
          "dep": "compound",
          "governor": 10,
          "governorGloss": "im",
          "dependent": 9,
          "dependentGloss": "TV"
        },
        {
          "dep": "nmod",
          "governor": 5,
          "governorGloss": "komm",
          "dependent": 10,
          "dependentGloss": "im"
        },
        {
          "dep": "amod",
          "governor": 12,
          "governorGloss": "Monat",
          "dependent": 11,
          "dependentGloss": "nächsten"
        },
        {
          "dep": "det",
          "governor": 10,
          "governorGloss": "im",
          "dependent": 12,
          "dependentGloss": "Monat"
        }
      ],
      "tokens": [
        {
          "index": 1,
          "word": "Bericht",
          "originalText": "Bericht",
          "characterOffsetBegin": 0,
          "characterOffsetEnd": 7,
          "pos": "NN",
          "before": "",
          "after": ""
        },
        {
          "index": 2,
          "word": ":",
          "originalText": ":",
          "characterOffsetBegin": 7,
          "characterOffsetEnd": 8,
          "pos": "$.",
          "before": "",
          "after": " "
        },
        {
          "index": 3,
          "word": "HBO",
          "originalText": "HBO",
          "characterOffsetBegin": 9,
          "characterOffsetEnd": 12,
          "pos": "NE",
          "before": " ",
          "after": " "
        },
        {
          "index": 4,
          "word": "Jetzt",
          "originalText": "Jetzt",
          "characterOffsetBegin": 13,
          "characterOffsetEnd": 18,
          "pos": "ADV",
          "before": " ",
          "after": " "
        },
        {
          "index": 5,
          "word": "komm",
          "originalText": "komm",
          "characterOffsetBegin": 19,
          "characterOffsetEnd": 23,
          "pos": "ADJD",
          "before": " ",
          "after": " "
        },
        {
          "index": 6,
          "word": "schon",
          "originalText": "schon",
          "characterOffsetBegin": 24,
          "characterOffsetEnd": 29,
          "pos": "ADV",
          "before": " ",
          "after": " "
        },
        {
          "index": 7,
          "word": "nach",
          "originalText": "nach",
          "characterOffsetBegin": 30,
          "characterOffsetEnd": 34,
          "pos": "APPR",
          "before": " ",
          "after": " "
        },
        {
          "index": 8,
          "word": "Apple",
          "originalText": "Apple",
          "characterOffsetBegin": 35,
          "characterOffsetEnd": 40,
          "pos": "NE",
          "before": " ",
          "after": " "
        },
        {
          "index": 9,
          "word": "TV",
          "originalText": "TV",
          "characterOffsetBegin": 41,
          "characterOffsetEnd": 43,
          "pos": "NN",
          "before": " ",
          "after": " "
        },
        {
          "index": 10,
          "word": "im",
          "originalText": "im",
          "characterOffsetBegin": 44,
          "characterOffsetEnd": 46,
          "pos": "APPRART",
          "before": " ",
          "after": " "
        },
        {
          "index": 11,
          "word": "nächsten",
          "originalText": "nächsten",
          "characterOffsetBegin": 47,
          "characterOffsetEnd": 55,
          "pos": "ADJA",
          "before": " ",
          "after": " "
        },
        {
          "index": 12,
          "word": "Monat",
          "originalText": "Monat",
          "characterOffsetBegin": 56,
          "characterOffsetEnd": 61,
          "pos": "NN",
          "before": " ",
          "after": ""
        }
      ]
    }
  ]
}