{
  "sentences": [
    {
      "index": 0,
      "basicDependencies": [
        {
          "dep": "ROOT",
          "governor": 0,
          "governorGloss": "ROOT",
          "dependent": 7,
          "dependentGloss": "Sache"
        },
        {
          "dep": "nsubj",
          "governor": 7,
          "governorGloss": "Sache",
          "dependent": 1,
          "dependentGloss": "Traurig"
        },
        {
          "dep": "punct",
          "governor": 1,
          "governorGloss": "Traurig",
          "dependent": 2,
          "dependentGloss": ","
        },
        {
          "dep": "conj",
          "governor": 1,
          "governorGloss": "Traurig",
          "dependent": 3,
          "dependentGloss": "Kürbis-Gewürz-Kondome"
        },
        {
          "dep": "cop",
          "governor": 7,
          "governorGloss": "Sache",
          "dependent": 4,
          "dependentGloss": "sind"
        },
        {
          "dep": "neg",
          "governor": 4,
          "governorGloss": "sind",
          "dependent": 5,
          "dependentGloss": "nicht"
        },
        {
          "dep": "det",
          "governor": 7,
          "governorGloss": "Sache",
          "dependent": 6,
          "dependentGloss": "eine"
        },
        {
          "dep": "case",
          "governor": 9,
          "governorGloss": "allem",
          "dependent": 8,
          "dependentGloss": "nach"
        },
        {
          "dep": "nmod",
          "governor": 7,
          "governorGloss": "Sache",
          "dependent": 9,
          "dependentGloss": "allem"
        }
      ],
      "enhancedDependencies": [
        {
          "dep": "ROOT",
          "governor": 0,
          "governorGloss": "ROOT",
          "dependent": 7,
          "dependentGloss": "Sache"
        },
        {
          "dep": "nsubj",
          "governor": 7,
          "governorGloss": "Sache",
          "dependent": 1,
          "dependentGloss": "Traurig"
        },
        {
          "dep": "punct",
          "governor": 1,
          "governorGloss": "Traurig",
          "dependent": 2,
          "dependentGloss": ","
        },
        {
          "dep": "conj",
          "governor": 1,
          "governorGloss": "Traurig",
          "dependent": 3,
          "dependentGloss": "Kürbis-Gewürz-Kondome"
        },
        {
          "dep": "cop",
          "governor": 7,
          "governorGloss": "Sache",
          "dependent": 4,
          "dependentGloss": "sind"
        },
        {
          "dep": "neg",
          "governor": 4,
          "governorGloss": "sind",
          "dependent": 5,
          "dependentGloss": "nicht"
        },
        {
          "dep": "det",
          "governor": 7,
          "governorGloss": "Sache",
          "dependent": 6,
          "dependentGloss": "eine"
        },
        {
          "dep": "case",
          "governor": 9,
          "governorGloss": "allem",
          "dependent": 8,
          "dependentGloss": "nach"
        },
        {
          "dep": "nmod",
          "governor": 7,
          "governorGloss": "Sache",
          "dependent": 9,
          "dependentGloss": "allem"
        }
      ],
      "enhancedPlusPlusDependencies": [
        {
          "dep": "ROOT",
          "governor": 0,
          "governorGloss": "ROOT",
          "dependent": 7,
          "dependentGloss": "Sache"
        },
        {
          "dep": "nsubj",
          "governor": 7,
          "governorGloss": "Sache",
          "dependent": 1,
          "dependentGloss": "Traurig"
        },
        {
          "dep": "punct",
          "governor": 1,
          "governorGloss": "Traurig",
          "dependent": 2,
          "dependentGloss": ","
        },
        {
          "dep": "conj",
          "governor": 1,
          "governorGloss": "Traurig",
          "dependent": 3,
          "dependentGloss": "Kürbis-Gewürz-Kondome"
        },
        {
          "dep": "cop",
          "governor": 7,
          "governorGloss": "Sache",
          "dependent": 4,
          "dependentGloss": "sind"
        },
        {
          "dep": "neg",
          "governor": 4,
          "governorGloss": "sind",
          "dependent": 5,
          "dependentGloss": "nicht"
        },
        {
          "dep": "det",
          "governor": 7,
          "governorGloss": "Sache",
          "dependent": 6,
          "dependentGloss": "eine"
        },
        {
          "dep": "case",
          "governor": 9,
          "governorGloss": "allem",
          "dependent": 8,
          "dependentGloss": "nach"
        },
        {
          "dep": "nmod",
          "governor": 7,
          "governorGloss": "Sache",
          "dependent": 9,
          "dependentGloss": "allem"
        }
      ],
      "tokens": [
        {
          "index": 1,
          "word": "Traurig",
          "originalText": "Traurig",
          "characterOffsetBegin": 0,
          "characterOffsetEnd": 7,
          "pos": "ADJD",
          "before": "",
          "after": ""
        },
        {
          "index": 2,
          "word": ",",
          "originalText": ",",
          "characterOffsetBegin": 7,
          "characterOffsetEnd": 8,
          "pos": "$,",
          "before": "",
          "after": " "
        },
        {
          "index": 3,
          "word": "Kürbis-Gewürz-Kondome",
          "originalText": "Kürbis-Gewürz-Kondome",
          "characterOffsetBegin": 9,
          "characterOffsetEnd": 30,
          "pos": "NN",
          "before": " ",
          "after": " "
        },
        {
          "index": 4,
          "word": "sind",
          "originalText": "sind",
          "characterOffsetBegin": 31,
          "characterOffsetEnd": 35,
          "pos": "VAFIN",
          "before": " ",
          "after": " "
        },
        {
          "index": 5,
          "word": "nicht",
          "originalText": "nicht",
          "characterOffsetBegin": 36,
          "characterOffsetEnd": 41,
          "pos": "PTKNEG",
          "before": " ",
          "after": " "
        },
        {
          "index": 6,
          "word": "eine",
          "originalText": "eine",
          "characterOffsetBegin": 42,
          "characterOffsetEnd": 46,
          "pos": "ART",
          "before": " ",
          "after": " "
        },
        {
          "index": 7,
          "word": "Sache",
          "originalText": "Sache",
          "characterOffsetBegin": 47,
          "characterOffsetEnd": 52,
          "pos": "NN",
          "before": " ",
          "after": " "
        },
        {
          "index": 8,
          "word": "nach",
          "originalText": "nach",
          "characterOffsetBegin": 53,
          "characterOffsetEnd": 57,
          "pos": "APPR",
          "before": " ",
          "after": " "
        },
        {
          "index": 9,
          "word": "allem",
          "originalText": "allem",
          "characterOffsetBegin": 58,
          "characterOffsetEnd": 63,
          "pos": "PIS",
          "before": " ",
          "after": ""
        }
      ]
    }
  ]
}