{
  "sentences": [
    {
      "index": 0,
      "basicDependencies": [
        {
          "dep": "ROOT",
          "governor": 0,
          "governorGloss": "ROOT",
          "dependent": 3,
          "dependentGloss": "Baby"
        },
        {
          "dep": "name",
          "governor": 3,
          "governorGloss": "Baby",
          "dependent": 1,
          "dependentGloss": "Feministische"
        },
        {
          "dep": "name",
          "governor": 3,
          "governorGloss": "Baby",
          "dependent": 2,
          "dependentGloss": "Abbrechen"
        },
        {
          "dep": "case",
          "governor": 5,
          "governorGloss": "Sein",
          "dependent": 4,
          "dependentGloss": "für"
        },
        {
          "dep": "nmod",
          "governor": 12,
          "governorGloss": "genehmigen",
          "dependent": 5,
          "dependentGloss": "Sein"
        },
        {
          "dep": "det",
          "governor": 7,
          "governorGloss": "Junge",
          "dependent": 6,
          "dependentGloss": "ein"
        },
        {
          "dep": "dobj",
          "governor": 12,
          "governorGloss": "genehmigen",
          "dependent": 7,
          "dependentGloss": "Junge"
        },
        {
          "dep": "punct",
          "governor": 7,
          "governorGloss": "Junge",
          "dependent": 8,
          "dependentGloss": ","
        },
        {
          "dep": "amod",
          "governor": 10,
          "governorGloss": "Leute",
          "dependent": 9,
          "dependentGloss": "schockiert"
        },
        {
          "dep": "conj",
          "governor": 7,
          "governorGloss": "Junge",
          "dependent": 10,
          "dependentGloss": "Leute"
        },
        {
          "dep": "neg",
          "governor": 12,
          "governorGloss": "genehmigen",
          "dependent": 11,
          "dependentGloss": "nicht"
        },
        {
          "dep": "acl",
          "governor": 3,
          "governorGloss": "Baby",
          "dependent": 12,
          "dependentGloss": "genehmigen"
        }
      ],
      "enhancedDependencies": [
        {
          "dep": "ROOT",
          "governor": 0,
          "governorGloss": "ROOT",
          "dependent": 3,
          "dependentGloss": "Baby"
        },
        {
          "dep": "name",
          "governor": 3,
          "governorGloss": "Baby",
          "dependent": 1,
          "dependentGloss": "Feministische"
        },
        {
          "dep": "name",
          "governor": 3,
          "governorGloss": "Baby",
          "dependent": 2,
          "dependentGloss": "Abbrechen"
        },
        {
          "dep": "case",
          "governor": 5,
          "governorGloss": "Sein",
          "dependent": 4,
          "dependentGloss": "für"
        },
        {
          "dep": "nmod",
          "governor": 12,
          "governorGloss": "genehmigen",
          "dependent": 5,
          "dependentGloss": "Sein"
        },
        {
          "dep": "det",
          "governor": 7,
          "governorGloss": "Junge",
          "dependent": 6,
          "dependentGloss": "ein"
        },
        {
          "dep": "dobj",
          "governor": 12,
          "governorGloss": "genehmigen",
          "dependent": 7,
          "dependentGloss": "Junge"
        },
        {
          "dep": "punct",
          "governor": 7,
          "governorGloss": "Junge",
          "dependent": 8,
          "dependentGloss": ","
        },
        {
          "dep": "amod",
          "governor": 10,
          "governorGloss": "Leute",
          "dependent": 9,
          "dependentGloss": "schockiert"
        },
        {
          "dep": "conj",
          "governor": 7,
          "governorGloss": "Junge",
          "dependent": 10,
          "dependentGloss": "Leute"
        },
        {
          "dep": "neg",
          "governor": 12,
          "governorGloss": "genehmigen",
          "dependent": 11,
          "dependentGloss": "nicht"
        },
        {
          "dep": "acl",
          "governor": 3,
          "governorGloss": "Baby",
          "dependent": 12,
          "dependentGloss": "genehmigen"
        }
      ],
      "enhancedPlusPlusDependencies": [
        {
          "dep": "ROOT",
          "governor": 0,
          "governorGloss": "ROOT",
          "dependent": 3,
          "dependentGloss": "Baby"
        },
        {
          "dep": "name",
          "governor": 3,
          "governorGloss": "Baby",
          "dependent": 1,
          "dependentGloss": "Feministische"
        },
        {
          "dep": "name",
          "governor": 3,
          "governorGloss": "Baby",
          "dependent": 2,
          "dependentGloss": "Abbrechen"
        },
        {
          "dep": "case",
          "governor": 5,
          "governorGloss": "Sein",
          "dependent": 4,
          "dependentGloss": "für"
        },
        {
          "dep": "nmod",
          "governor": 12,
          "governorGloss": "genehmigen",
          "dependent": 5,
          "dependentGloss": "Sein"
        },
        {
          "dep": "det",
          "governor": 7,
          "governorGloss": "Junge",
          "dependent": 6,
          "dependentGloss": "ein"
        },
        {
          "dep": "dobj",
          "governor": 12,
          "governorGloss": "genehmigen",
          "dependent": 7,
          "dependentGloss": "Junge"
        },
        {
          "dep": "punct",
          "governor": 7,
          "governorGloss": "Junge",
          "dependent": 8,
          "dependentGloss": ","
        },
        {
          "dep": "amod",
          "governor": 10,
          "governorGloss": "Leute",
          "dependent": 9,
          "dependentGloss": "schockiert"
        },
        {
          "dep": "conj",
          "governor": 7,
          "governorGloss": "Junge",
          "dependent": 10,
          "dependentGloss": "Leute"
        },
        {
          "dep": "neg",
          "governor": 12,
          "governorGloss": "genehmigen",
          "dependent": 11,
          "dependentGloss": "nicht"
        },
        {
          "dep": "acl",
          "governor": 3,
          "governorGloss": "Baby",
          "dependent": 12,
          "dependentGloss": "genehmigen"
        }
      ],
      "tokens": [
        {
          "index": 1,
          "word": "Feministische",
          "originalText": "Feministische",
          "characterOffsetBegin": 0,
          "characterOffsetEnd": 13,
          "pos": "ADJA",
          "before": "",
          "after": " "
        },
        {
          "index": 2,
          "word": "Abbrechen",
          "originalText": "Abbrechen",
          "characterOffsetBegin": 14,
          "characterOffsetEnd": 23,
          "pos": "NN",
          "before": " ",
          "after": " "
        },
        {
          "index": 3,
          "word": "Baby",
          "originalText": "Baby",
          "characterOffsetBegin": 24,
          "characterOffsetEnd": 28,
          "pos": "NN",
          "before": " ",
          "after": " "
        },
        {
          "index": 4,
          "word": "für",
          "originalText": "für",
          "characterOffsetBegin": 29,
          "characterOffsetEnd": 32,
          "pos": "APPR",
          "before": " ",
          "after": " "
        },
        {
          "index": 5,
          "word": "Sein",
          "originalText": "Sein",
          "characterOffsetBegin": 33,
          "characterOffsetEnd": 37,
          "pos": "PPOSAT",
          "before": " ",
          "after": " "
        },
        {
          "index": 6,
          "word": "ein",
          "originalText": "ein",
          "characterOffsetBegin": 38,
          "characterOffsetEnd": 41,
          "pos": "ART",
          "before": " ",
          "after": " "
        },
        {
          "index": 7,
          "word": "Junge",
          "originalText": "Junge",
          "characterOffsetBegin": 42,
          "characterOffsetEnd": 47,
          "pos": "NN",
          "before": " ",
          "after": ""
        },
        {
          "index": 8,
          "word": ",",
          "originalText": ",",
          "characterOffsetBegin": 47,
          "characterOffsetEnd": 48,
          "pos": "$,",
          "before": "",
          "after": " "
        },
        {
          "index": 9,
          "word": "schockiert",
          "originalText": "schockiert",
          "characterOffsetBegin": 49,
          "characterOffsetEnd": 59,
          "pos": "ADJD",
          "before": " ",
          "after": " "
        },
        {
          "index": 10,
          "word": "Leute",
          "originalText": "Leute",
          "characterOffsetBegin": 60,
          "characterOffsetEnd": 65,
          "pos": "NN",
          "before": " ",
          "after": " "
        },
        {
          "index": 11,
          "word": "nicht",
          "originalText": "nicht",
          "characterOffsetBegin": 66,
          "characterOffsetEnd": 71,
          "pos": "PTKNEG",
          "before": " ",
          "after": " "
        },
        {
          "index": 12,
          "word": "genehmigen",
          "originalText": "genehmigen",
          "characterOffsetBegin": 72,
          "characterOffsetEnd": 82,
          "pos": "VVINF",
          "before": " ",
          "after": ""
        }
      ]
    }
  ]
}