{
  "sentences": [
    {
      "index": 0,
      "basicDependencies": [
        {
          "dep": "ROOT",
          "governor": 0,
          "governorGloss": "ROOT",
          "dependent": 2,
          "dependentGloss": "Watch"
        },
        {
          "dep": "det",
          "governor": 2,
          "governorGloss": "Watch",
          "dependent": 1,
          "dependentGloss": "Apple"
        },
        {
          "dep": "nmod",
          "governor": 7,
          "governorGloss": "500",
          "dependent": 3,
          "dependentGloss": "Edelstahl-Variante"
        },
        {
          "dep": "advmod",
          "governor": 7,
          "governorGloss": "500",
          "dependent": 4,
          "dependentGloss": "angeblich"
        },
        {
          "dep": "case",
          "governor": 6,
          "governorGloss": "$",
          "dependent": 5,
          "dependentGloss": "bei"
        },
        {
          "dep": "nmod",
          "governor": 7,
          "governorGloss": "500",
          "dependent": 6,
          "dependentGloss": "$"
        },
        {
          "dep": "acl",
          "governor": 2,
          "governorGloss": "Watch",
          "dependent": 7,
          "dependentGloss": "500"
        },
        {
          "dep": "punct",
          "governor": 7,
          "governorGloss": "500",
          "dependent": 8,
          "dependentGloss": ","
        },
        {
          "dep": "nmod",
          "governor": 10,
          "governorGloss": "4.000",
          "dependent": 9,
          "dependentGloss": "$"
        },
        {
          "dep": "conj",
          "governor": 7,
          "governorGloss": "500",
          "dependent": 10,
          "dependentGloss": "4.000"
        },
        {
          "dep": "case",
          "governor": 13,
          "governorGloss": "Gold-Variante",
          "dependent": 11,
          "dependentGloss": "für"
        },
        {
          "dep": "det",
          "governor": 13,
          "governorGloss": "Gold-Variante",
          "dependent": 12,
          "dependentGloss": "die"
        },
        {
          "dep": "nmod",
          "governor": 10,
          "governorGloss": "4.000",
          "dependent": 13,
          "dependentGloss": "Gold-Variante"
        },
        {
          "dep": "punct",
          "governor": 7,
          "governorGloss": "500",
          "dependent": 14,
          "dependentGloss": "festgesetzt"
        }
      ],
      "enhancedDependencies": [
        {
          "dep": "ROOT",
          "governor": 0,
          "governorGloss": "ROOT",
          "dependent": 2,
          "dependentGloss": "Watch"
        },
        {
          "dep": "det",
          "governor": 2,
          "governorGloss": "Watch",
          "dependent": 1,
          "dependentGloss": "Apple"
        },
        {
          "dep": "nmod",
          "governor": 7,
          "governorGloss": "500",
          "dependent": 3,
          "dependentGloss": "Edelstahl-Variante"
        },
        {
          "dep": "advmod",
          "governor": 7,
          "governorGloss": "500",
          "dependent": 4,
          "dependentGloss": "angeblich"
        },
        {
          "dep": "case",
          "governor": 6,
          "governorGloss": "$",
          "dependent": 5,
          "dependentGloss": "bei"
        },
        {
          "dep": "nmod",
          "governor": 7,
          "governorGloss": "500",
          "dependent": 6,
          "dependentGloss": "$"
        },
        {
          "dep": "acl",
          "governor": 2,
          "governorGloss": "Watch",
          "dependent": 7,
          "dependentGloss": "500"
        },
        {
          "dep": "punct",
          "governor": 7,
          "governorGloss": "500",
          "dependent": 8,
          "dependentGloss": ","
        },
        {
          "dep": "nmod",
          "governor": 10,
          "governorGloss": "4.000",
          "dependent": 9,
          "dependentGloss": "$"
        },
        {
          "dep": "conj",
          "governor": 7,
          "governorGloss": "500",
          "dependent": 10,
          "dependentGloss": "4.000"
        },
        {
          "dep": "case",
          "governor": 13,
          "governorGloss": "Gold-Variante",
          "dependent": 11,
          "dependentGloss": "für"
        },
        {
          "dep": "det",
          "governor": 13,
          "governorGloss": "Gold-Variante",
          "dependent": 12,
          "dependentGloss": "die"
        },
        {
          "dep": "nmod",
          "governor": 10,
          "governorGloss": "4.000",
          "dependent": 13,
          "dependentGloss": "Gold-Variante"
        },
        {
          "dep": "punct",
          "governor": 7,
          "governorGloss": "500",
          "dependent": 14,
          "dependentGloss": "festgesetzt"
        }
      ],
      "enhancedPlusPlusDependencies": [
        {
          "dep": "ROOT",
          "governor": 0,
          "governorGloss": "ROOT",
          "dependent": 2,
          "dependentGloss": "Watch"
        },
        {
          "dep": "det",
          "governor": 2,
          "governorGloss": "Watch",
          "dependent": 1,
          "dependentGloss": "Apple"
        },
        {
          "dep": "nmod",
          "governor": 7,
          "governorGloss": "500",
          "dependent": 3,
          "dependentGloss": "Edelstahl-Variante"
        },
        {
          "dep": "advmod",
          "governor": 7,
          "governorGloss": "500",
          "dependent": 4,
          "dependentGloss": "angeblich"
        },
        {
          "dep": "case",
          "governor": 6,
          "governorGloss": "$",
          "dependent": 5,
          "dependentGloss": "bei"
        },
        {
          "dep": "nmod",
          "governor": 7,
          "governorGloss": "500",
          "dependent": 6,
          "dependentGloss": "$"
        },
        {
          "dep": "acl",
          "governor": 2,
          "governorGloss": "Watch",
          "dependent": 7,
          "dependentGloss": "500"
        },
        {
          "dep": "punct",
          "governor": 7,
          "governorGloss": "500",
          "dependent": 8,
          "dependentGloss": ","
        },
        {
          "dep": "nmod",
          "governor": 10,
          "governorGloss": "4.000",
          "dependent": 9,
          "dependentGloss": "$"
        },
        {
          "dep": "conj",
          "governor": 7,
          "governorGloss": "500",
          "dependent": 10,
          "dependentGloss": "4.000"
        },
        {
          "dep": "case",
          "governor": 13,
          "governorGloss": "Gold-Variante",
          "dependent": 11,
          "dependentGloss": "für"
        },
        {
          "dep": "det",
          "governor": 13,
          "governorGloss": "Gold-Variante",
          "dependent": 12,
          "dependentGloss": "die"
        },
        {
          "dep": "nmod",
          "governor": 10,
          "governorGloss": "4.000",
          "dependent": 13,
          "dependentGloss": "Gold-Variante"
        },
        {
          "dep": "punct",
          "governor": 7,
          "governorGloss": "500",
          "dependent": 14,
          "dependentGloss": "festgesetzt"
        }
      ],
      "tokens": [
        {
          "index": 1,
          "word": "Apple",
          "originalText": "Apple",
          "characterOffsetBegin": 0,
          "characterOffsetEnd": 5,
          "pos": "NE",
          "before": "",
          "after": " "
        },
        {
          "index": 2,
          "word": "Watch",
          "originalText": "Watch",
          "characterOffsetBegin": 6,
          "characterOffsetEnd": 11,
          "pos": "NE",
          "before": " ",
          "after": " "
        },
        {
          "index": 3,
          "word": "Edelstahl-Variante",
          "originalText": "Edelstahl-Variante",
          "characterOffsetBegin": 12,
          "characterOffsetEnd": 30,
          "pos": "NE",
          "before": " ",
          "after": " "
        },
        {
          "index": 4,
          "word": "angeblich",
          "originalText": "angeblich",
          "characterOffsetBegin": 31,
          "characterOffsetEnd": 40,
          "pos": "ADJD",
          "before": " ",
          "after": " "
        },
        {
          "index": 5,
          "word": "bei",
          "originalText": "bei",
          "characterOffsetBegin": 41,
          "characterOffsetEnd": 44,
          "pos": "APPR",
          "before": " ",
          "after": " "
        },
        {
          "index": 6,
          "word": "$",
          "originalText": "$",
          "characterOffsetBegin": 45,
          "characterOffsetEnd": 46,
          "pos": "CARD",
          "before": " ",
          "after": " "
        },
        {
          "index": 7,
          "word": "500",
          "originalText": "500",
          "characterOffsetBegin": 47,
          "characterOffsetEnd": 50,
          "pos": "CARD",
          "before": " ",
          "after": ""
        },
        {
          "index": 8,
          "word": ",",
          "originalText": ",",
          "characterOffsetBegin": 50,
          "characterOffsetEnd": 51,
          "pos": "$,",
          "before": "",
          "after": " "
        },
        {
          "index": 9,
          "word": "$",
          "originalText": "$",
          "characterOffsetBegin": 52,
          "characterOffsetEnd": 53,
          "pos": "CARD",
          "before": " ",
          "after": " "
        },
        {
          "index": 10,
          "word": "4.000",
          "originalText": "4.000",
          "characterOffsetBegin": 54,
          "characterOffsetEnd": 59,
          "pos": "CARD",
          "before": " ",
          "after": " "
        },
        {
          "index": 11,
          "word": "für",
          "originalText": "für",
          "characterOffsetBegin": 60,
          "characterOffsetEnd": 63,
          "pos": "APPR",
          "before": " ",
          "after": " "
        },
        {
          "index": 12,
          "word": "die",
          "originalText": "die",
          "characterOffsetBegin": 64,
          "characterOffsetEnd": 67,
          "pos": "ART",
          "before": " ",
          "after": " "
        },
        {
          "index": 13,
          "word": "Gold-Variante",
          "originalText": "Gold-Variante",
          "characterOffsetBegin": 68,
          "characterOffsetEnd": 81,
          "pos": "NN",
          "before": " ",
          "after": " "
        },
        {
          "index": 14,
          "word": "festgesetzt",
          "originalText": "festgesetzt",
          "characterOffsetBegin": 82,
          "characterOffsetEnd": 93,
          "pos": "VVPP",
          "before": " ",
          "after": ""
        }
      ]
    }
  ]
}