{
  "sentences": [
    {
      "index": 0,
      "basicDependencies": [
        {
          "dep": "ROOT",
          "governor": 0,
          "governorGloss": "ROOT",
          "dependent": 8,
          "dependentGloss": "sein"
        },
        {
          "dep": "advmod",
          "governor": 8,
          "governorGloss": "sein",
          "dependent": 1,
          "dependentGloss": "So"
        },
        {
          "dep": "aux",
          "governor": 8,
          "governorGloss": "sein",
          "dependent": 2,
          "dependentGloss": "könnte"
        },
        {
          "dep": "dobj",
          "governor": 8,
          "governorGloss": "sein",
          "dependent": 3,
          "dependentGloss": "es"
        },
        {
          "dep": "det",
          "governor": 5,
          "governorGloss": "Rattenbefall",
          "dependent": 4,
          "dependentGloss": "ein"
        },
        {
          "dep": "nsubj",
          "governor": 8,
          "governorGloss": "sein",
          "dependent": 5,
          "dependentGloss": "Rattenbefall"
        },
        {
          "dep": "case",
          "governor": 7,
          "governorGloss": "Vogue",
          "dependent": 6,
          "dependentGloss": "bei"
        },
        {
          "dep": "nmod",
          "governor": 8,
          "governorGloss": "sein",
          "dependent": 7,
          "dependentGloss": "Vogue"
        }
      ],
      "enhancedDependencies": [
        {
          "dep": "ROOT",
          "governor": 0,
          "governorGloss": "ROOT",
          "dependent": 8,
          "dependentGloss": "sein"
        },
        {
          "dep": "advmod",
          "governor": 8,
          "governorGloss": "sein",
          "dependent": 1,
          "dependentGloss": "So"
        },
        {
          "dep": "aux",
          "governor": 8,
          "governorGloss": "sein",
          "dependent": 2,
          "dependentGloss": "könnte"
        },
        {
          "dep": "dobj",
          "governor": 8,
          "governorGloss": "sein",
          "dependent": 3,
          "dependentGloss": "es"
        },
        {
          "dep": "det",
          "governor": 5,
          "governorGloss": "Rattenbefall",
          "dependent": 4,
          "dependentGloss": "ein"
        },
        {
          "dep": "nsubj",
          "governor": 8,
          "governorGloss": "sein",
          "dependent": 5,
          "dependentGloss": "Rattenbefall"
        },
        {
          "dep": "case",
          "governor": 7,
          "governorGloss": "Vogue",
          "dependent": 6,
          "dependentGloss": "bei"
        },
        {
          "dep": "nmod",
          "governor": 8,
          "governorGloss": "sein",
          "dependent": 7,
          "dependentGloss": "Vogue"
        }
      ],
      "enhancedPlusPlusDependencies": [
        {
          "dep": "ROOT",
          "governor": 0,
          "governorGloss": "ROOT",
          "dependent": 8,
          "dependentGloss": "sein"
        },
        {
          "dep": "advmod",
          "governor": 8,
          "governorGloss": "sein",
          "dependent": 1,
          "dependentGloss": "So"
        },
        {
          "dep": "aux",
          "governor": 8,
          "governorGloss": "sein",
          "dependent": 2,
          "dependentGloss": "könnte"
        },
        {
          "dep": "dobj",
          "governor": 8,
          "governorGloss": "sein",
          "dependent": 3,
          "dependentGloss": "es"
        },
        {
          "dep": "det",
          "governor": 5,
          "governorGloss": "Rattenbefall",
          "dependent": 4,
          "dependentGloss": "ein"
        },
        {
          "dep": "nsubj",
          "governor": 8,
          "governorGloss": "sein",
          "dependent": 5,
          "dependentGloss": "Rattenbefall"
        },
        {
          "dep": "case",
          "governor": 7,
          "governorGloss": "Vogue",
          "dependent": 6,
          "dependentGloss": "bei"
        },
        {
          "dep": "nmod",
          "governor": 8,
          "governorGloss": "sein",
          "dependent": 7,
          "dependentGloss": "Vogue"
        }
      ],
      "tokens": [
        {
          "index": 1,
          "word": "So",
          "originalText": "So",
          "characterOffsetBegin": 0,
          "characterOffsetEnd": 2,
          "pos": "ADV",
          "before": "",
          "after": " "
        },
        {
          "index": 2,
          "word": "könnte",
          "originalText": "könnte",
          "characterOffsetBegin": 3,
          "characterOffsetEnd": 9,
          "pos": "VMFIN",
          "before": " ",
          "after": " "
        },
        {
          "index": 3,
          "word": "es",
          "originalText": "es",
          "characterOffsetBegin": 10,
          "characterOffsetEnd": 12,
          "pos": "PPER",
          "before": " ",
          "after": " "
        },
        {
          "index": 4,
          "word": "ein",
          "originalText": "ein",
          "characterOffsetBegin": 13,
          "characterOffsetEnd": 16,
          "pos": "ART",
          "before": " ",
          "after": " "
        },
        {
          "index": 5,
          "word": "Rattenbefall",
          "originalText": "Rattenbefall",
          "characterOffsetBegin": 17,
          "characterOffsetEnd": 29,
          "pos": "NN",
          "before": " ",
          "after": " "
        },
        {
          "index": 6,
          "word": "bei",
          "originalText": "bei",
          "characterOffsetBegin": 30,
          "characterOffsetEnd": 33,
          "pos": "APPR",
          "before": " ",
          "after": " "
        },
        {
          "index": 7,
          "word": "Vogue",
          "originalText": "Vogue",
          "characterOffsetBegin": 34,
          "characterOffsetEnd": 39,
          "pos": "NE",
          "before": " ",
          "after": " "
        },
        {
          "index": 8,
          "word": "sein",
          "originalText": "sein",
          "characterOffsetBegin": 40,
          "characterOffsetEnd": 44,
          "pos": "PPOSAT",
          "before": " ",
          "after": ""
        }
      ]
    }
  ]
}