{
  "sentences": [
    {
      "index": 0,
      "basicDependencies": [
        {
          "dep": "ROOT",
          "governor": 0,
          "governorGloss": "ROOT",
          "dependent": 5,
          "dependentGloss": "sagte"
        },
        {
          "dep": "mark",
          "governor": 5,
          "governorGloss": "sagte",
          "dependent": 1,
          "dependentGloss": "Sick"
        },
        {
          "dep": "name",
          "governor": 3,
          "governorGloss": "City",
          "dependent": 2,
          "dependentGloss": "Kansas"
        },
        {
          "dep": "dobj",
          "governor": 5,
          "governorGloss": "sagte",
          "dependent": 3,
          "dependentGloss": "City"
        },
        {
          "dep": "nsubj",
          "governor": 5,
          "governorGloss": "sagte",
          "dependent": 4,
          "dependentGloss": "Mann"
        },
        {
          "dep": "punct",
          "governor": 5,
          "governorGloss": "sagte",
          "dependent": 6,
          "dependentGloss": ","
        },
        {
          "dep": "neg",
          "governor": 9,
          "governorGloss": "haben",
          "dependent": 7,
          "dependentGloss": "nicht"
        },
        {
          "dep": "aux",
          "governor": 9,
          "governorGloss": "haben",
          "dependent": 8,
          "dependentGloss": "zu"
        },
        {
          "dep": "csubj",
          "governor": 5,
          "governorGloss": "sagte",
          "dependent": 9,
          "dependentGloss": "haben"
        },
        {
          "dep": "punct",
          "governor": 9,
          "governorGloss": "haben",
          "dependent": 10,
          "dependentGloss": ","
        },
        {
          "dep": "conj",
          "governor": 9,
          "governorGloss": "haben",
          "dependent": 11,
          "dependentGloss": "Ebola"
        },
        {
          "dep": "punct",
          "governor": 11,
          "governorGloss": "Ebola",
          "dependent": 12,
          "dependentGloss": ","
        },
        {
          "dep": "name",
          "governor": 14,
          "governorGloss": "plant",
          "dependent": 13,
          "dependentGloss": "U.S."
        },
        {
          "dep": "conj",
          "governor": 11,
          "governorGloss": "Ebola",
          "dependent": 14,
          "dependentGloss": "plant"
        },
        {
          "dep": "amod",
          "governor": 16,
          "governorGloss": "Schritte",
          "dependent": 15,
          "dependentGloss": "neue"
        },
        {
          "dep": "det",
          "governor": 14,
          "governorGloss": "plant",
          "dependent": 16,
          "dependentGloss": "Schritte"
        },
        {
          "dep": "punct",
          "governor": 11,
          "governorGloss": "Ebola",
          "dependent": 17,
          "dependentGloss": ","
        },
        {
          "dep": "mark",
          "governor": 21,
          "governorGloss": "bekämpfen",
          "dependent": 18,
          "dependentGloss": "um"
        },
        {
          "dep": "dobj",
          "governor": 21,
          "governorGloss": "bekämpfen",
          "dependent": 19,
          "dependentGloss": "Viren"
        },
        {
          "dep": "aux",
          "governor": 21,
          "governorGloss": "bekämpfen",
          "dependent": 20,
          "dependentGloss": "zu"
        },
        {
          "dep": "advcl",
          "governor": 11,
          "governorGloss": "Ebola",
          "dependent": 21,
          "dependentGloss": "bekämpfen"
        }
      ],
      "enhancedDependencies": [
        {
          "dep": "ROOT",
          "governor": 0,
          "governorGloss": "ROOT",
          "dependent": 5,
          "dependentGloss": "sagte"
        },
        {
          "dep": "mark",
          "governor": 5,
          "governorGloss": "sagte",
          "dependent": 1,
          "dependentGloss": "Sick"
        },
        {
          "dep": "name",
          "governor": 3,
          "governorGloss": "City",
          "dependent": 2,
          "dependentGloss": "Kansas"
        },
        {
          "dep": "dobj",
          "governor": 5,
          "governorGloss": "sagte",
          "dependent": 3,
          "dependentGloss": "City"
        },
        {
          "dep": "nsubj",
          "governor": 5,
          "governorGloss": "sagte",
          "dependent": 4,
          "dependentGloss": "Mann"
        },
        {
          "dep": "punct",
          "governor": 5,
          "governorGloss": "sagte",
          "dependent": 6,
          "dependentGloss": ","
        },
        {
          "dep": "neg",
          "governor": 9,
          "governorGloss": "haben",
          "dependent": 7,
          "dependentGloss": "nicht"
        },
        {
          "dep": "aux",
          "governor": 9,
          "governorGloss": "haben",
          "dependent": 8,
          "dependentGloss": "zu"
        },
        {
          "dep": "csubj",
          "governor": 5,
          "governorGloss": "sagte",
          "dependent": 9,
          "dependentGloss": "haben"
        },
        {
          "dep": "punct",
          "governor": 9,
          "governorGloss": "haben",
          "dependent": 10,
          "dependentGloss": ","
        },
        {
          "dep": "conj",
          "governor": 9,
          "governorGloss": "haben",
          "dependent": 11,
          "dependentGloss": "Ebola"
        },
        {
          "dep": "punct",
          "governor": 11,
          "governorGloss": "Ebola",
          "dependent": 12,
          "dependentGloss": ","
        },
        {
          "dep": "name",
          "governor": 14,
          "governorGloss": "plant",
          "dependent": 13,
          "dependentGloss": "U.S."
        },
        {
          "dep": "conj",
          "governor": 11,
          "governorGloss": "Ebola",
          "dependent": 14,
          "dependentGloss": "plant"
        },
        {
          "dep": "amod",
          "governor": 16,
          "governorGloss": "Schritte",
          "dependent": 15,
          "dependentGloss": "neue"
        },
        {
          "dep": "det",
          "governor": 14,
          "governorGloss": "plant",
          "dependent": 16,
          "dependentGloss": "Schritte"
        },
        {
          "dep": "punct",
          "governor": 11,
          "governorGloss": "Ebola",
          "dependent": 17,
          "dependentGloss": ","
        },
        {
          "dep": "mark",
          "governor": 21,
          "governorGloss": "bekämpfen",
          "dependent": 18,
          "dependentGloss": "um"
        },
        {
          "dep": "dobj",
          "governor": 21,
          "governorGloss": "bekämpfen",
          "dependent": 19,
          "dependentGloss": "Viren"
        },
        {
          "dep": "aux",
          "governor": 21,
          "governorGloss": "bekämpfen",
          "dependent": 20,
          "dependentGloss": "zu"
        },
        {
          "dep": "advcl",
          "governor": 11,
          "governorGloss": "Ebola",
          "dependent": 21,
          "dependentGloss": "bekämpfen"
        }
      ],
      "enhancedPlusPlusDependencies": [
        {
          "dep": "ROOT",
          "governor": 0,
          "governorGloss": "ROOT",
          "dependent": 5,
          "dependentGloss": "sagte"
        },
        {
          "dep": "mark",
          "governor": 5,
          "governorGloss": "sagte",
          "dependent": 1,
          "dependentGloss": "Sick"
        },
        {
          "dep": "name",
          "governor": 3,
          "governorGloss": "City",
          "dependent": 2,
          "dependentGloss": "Kansas"
        },
        {
          "dep": "dobj",
          "governor": 5,
          "governorGloss": "sagte",
          "dependent": 3,
          "dependentGloss": "City"
        },
        {
          "dep": "nsubj",
          "governor": 5,
          "governorGloss": "sagte",
          "dependent": 4,
          "dependentGloss": "Mann"
        },
        {
          "dep": "punct",
          "governor": 5,
          "governorGloss": "sagte",
          "dependent": 6,
          "dependentGloss": ","
        },
        {
          "dep": "neg",
          "governor": 9,
          "governorGloss": "haben",
          "dependent": 7,
          "dependentGloss": "nicht"
        },
        {
          "dep": "aux",
          "governor": 9,
          "governorGloss": "haben",
          "dependent": 8,
          "dependentGloss": "zu"
        },
        {
          "dep": "csubj",
          "governor": 5,
          "governorGloss": "sagte",
          "dependent": 9,
          "dependentGloss": "haben"
        },
        {
          "dep": "punct",
          "governor": 9,
          "governorGloss": "haben",
          "dependent": 10,
          "dependentGloss": ","
        },
        {
          "dep": "conj",
          "governor": 9,
          "governorGloss": "haben",
          "dependent": 11,
          "dependentGloss": "Ebola"
        },
        {
          "dep": "punct",
          "governor": 11,
          "governorGloss": "Ebola",
          "dependent": 12,
          "dependentGloss": ","
        },
        {
          "dep": "name",
          "governor": 14,
          "governorGloss": "plant",
          "dependent": 13,
          "dependentGloss": "U.S."
        },
        {
          "dep": "conj",
          "governor": 11,
          "governorGloss": "Ebola",
          "dependent": 14,
          "dependentGloss": "plant"
        },
        {
          "dep": "amod",
          "governor": 16,
          "governorGloss": "Schritte",
          "dependent": 15,
          "dependentGloss": "neue"
        },
        {
          "dep": "det",
          "governor": 14,
          "governorGloss": "plant",
          "dependent": 16,
          "dependentGloss": "Schritte"
        },
        {
          "dep": "punct",
          "governor": 11,
          "governorGloss": "Ebola",
          "dependent": 17,
          "dependentGloss": ","
        },
        {
          "dep": "mark",
          "governor": 21,
          "governorGloss": "bekämpfen",
          "dependent": 18,
          "dependentGloss": "um"
        },
        {
          "dep": "dobj",
          "governor": 21,
          "governorGloss": "bekämpfen",
          "dependent": 19,
          "dependentGloss": "Viren"
        },
        {
          "dep": "aux",
          "governor": 21,
          "governorGloss": "bekämpfen",
          "dependent": 20,
          "dependentGloss": "zu"
        },
        {
          "dep": "advcl",
          "governor": 11,
          "governorGloss": "Ebola",
          "dependent": 21,
          "dependentGloss": "bekämpfen"
        }
      ],
      "tokens": [
        {
          "index": 1,
          "word": "Sick",
          "originalText": "Sick",
          "characterOffsetBegin": 0,
          "characterOffsetEnd": 4,
          "pos": "NE",
          "before": "",
          "after": " "
        },
        {
          "index": 2,
          "word": "Kansas",
          "originalText": "Kansas",
          "characterOffsetBegin": 5,
          "characterOffsetEnd": 11,
          "pos": "NE",
          "before": " ",
          "after": " "
        },
        {
          "index": 3,
          "word": "City",
          "originalText": "City",
          "characterOffsetBegin": 12,
          "characterOffsetEnd": 16,
          "pos": "NE",
          "before": " ",
          "after": " "
        },
        {
          "index": 4,
          "word": "Mann",
          "originalText": "Mann",
          "characterOffsetBegin": 17,
          "characterOffsetEnd": 21,
          "pos": "NN",
          "before": " ",
          "after": " "
        },
        {
          "index": 5,
          "word": "sagte",
          "originalText": "sagte",
          "characterOffsetBegin": 22,
          "characterOffsetEnd": 27,
          "pos": "VVFIN",
          "before": " ",
          "after": ""
        },
        {
          "index": 6,
          "word": ",",
          "originalText": ",",
          "characterOffsetBegin": 27,
          "characterOffsetEnd": 28,
          "pos": "$,",
          "before": "",
          "after": " "
        },
        {
          "index": 7,
          "word": "nicht",
          "originalText": "nicht",
          "characterOffsetBegin": 29,
          "characterOffsetEnd": 34,
          "pos": "PTKNEG",
          "before": " ",
          "after": " "
        },
        {
          "index": 8,
          "word": "zu",
          "originalText": "zu",
          "characterOffsetBegin": 35,
          "characterOffsetEnd": 37,
          "pos": "PTKZU",
          "before": " ",
          "after": " "
        },
        {
          "index": 9,
          "word": "haben",
          "originalText": "haben",
          "characterOffsetBegin": 38,
          "characterOffsetEnd": 43,
          "pos": "VAINF",
          "before": " ",
          "after": ""
        },
        {
          "index": 10,
          "word": ",",
          "originalText": ",",
          "characterOffsetBegin": 43,
          "characterOffsetEnd": 44,
          "pos": "$,",
          "before": "",
          "after": " "
        },
        {
          "index": 11,
          "word": "Ebola",
          "originalText": "Ebola",
          "characterOffsetBegin": 45,
          "characterOffsetEnd": 50,
          "pos": "NE",
          "before": " ",
          "after": ""
        },
        {
          "index": 12,
          "word": ",",
          "originalText": ",",
          "characterOffsetBegin": 50,
          "characterOffsetEnd": 51,
          "pos": "$,",
          "before": "",
          "after": " "
        },
        {
          "index": 13,
          "word": "U.S.",
          "originalText": "U.S.",
          "characterOffsetBegin": 52,
          "characterOffsetEnd": 56,
          "pos": "NE",
          "before": " ",
          "after": " "
        },
        {
          "index": 14,
          "word": "plant",
          "originalText": "plant",
          "characterOffsetBegin": 57,
          "characterOffsetEnd": 62,
          "pos": "VVFIN",
          "before": " ",
          "after": " "
        },
        {
          "index": 15,
          "word": "neue",
          "originalText": "neue",
          "characterOffsetBegin": 63,
          "characterOffsetEnd": 67,
          "pos": "ADJA",
          "before": " ",
          "after": " "
        },
        {
          "index": 16,
          "word": "Schritte",
          "originalText": "Schritte",
          "characterOffsetBegin": 68,
          "characterOffsetEnd": 76,
          "pos": "NN",
          "before": " ",
          "after": ""
        },
        {
          "index": 17,
          "word": ",",
          "originalText": ",",
          "characterOffsetBegin": 76,
          "characterOffsetEnd": 77,
          "pos": "$,",
          "before": "",
          "after": " "
        },
        {
          "index": 18,
          "word": "um",
          "originalText": "um",
          "characterOffsetBegin": 78,
          "characterOffsetEnd": 80,
          "pos": "KOUI",
          "before": " ",
          "after": " "
        },
        {
          "index": 19,
          "word": "Viren",
          "originalText": "Viren",
          "characterOffsetBegin": 81,
          "characterOffsetEnd": 86,
          "pos": "NN",
          "before": " ",
          "after": " "
        },
        {
          "index": 20,
          "word": "zu",
          "originalText": "zu",
          "characterOffsetBegin": 87,
          "characterOffsetEnd": 89,
          "pos": "PTKZU",
          "before": " ",
          "after": " "
        },
        {
          "index": 21,
          "word": "bekämpfen",
          "originalText": "bekämpfen",
          "characterOffsetBegin": 90,
          "characterOffsetEnd": 99,
          "pos": "VVINF",
          "before": " ",
          "after": ""
        }
      ]
    }
  ]
}