{
  "sentences": [
    {
      "index": 0,
      "basicDependencies": [
        {
          "dep": "ROOT",
          "governor": 0,
          "governorGloss": "ROOT",
          "dependent": 9,
          "dependentGloss": "erfasst"
        },
        {
          "dep": "name",
          "governor": 6,
          "governorGloss": "Rosenberg",
          "dependent": 1,
          "dependentGloss": "Unbestätigte"
        },
        {
          "dep": "name",
          "governor": 6,
          "governorGloss": "Rosenberg",
          "dependent": 2,
          "dependentGloss": "Berichte"
        },
        {
          "dep": "name",
          "governor": 6,
          "governorGloss": "Rosenberg",
          "dependent": 3,
          "dependentGloss": "behaupten"
        },
        {
          "dep": "name",
          "governor": 6,
          "governorGloss": "Rosenberg",
          "dependent": 4,
          "dependentGloss": "kanadisch-israelischen"
        },
        {
          "dep": "name",
          "governor": 6,
          "governorGloss": "Rosenberg",
          "dependent": 5,
          "dependentGloss": "Gill"
        },
        {
          "dep": "nsubj",
          "governor": 9,
          "governorGloss": "erfasst",
          "dependent": 6,
          "dependentGloss": "Rosenberg"
        },
        {
          "dep": "case",
          "governor": 8,
          "governorGloss": "ISIS",
          "dependent": 7,
          "dependentGloss": "von"
        },
        {
          "dep": "nmod",
          "governor": 6,
          "governorGloss": "Rosenberg",
          "dependent": 8,
          "dependentGloss": "ISIS"
        }
      ],
      "enhancedDependencies": [
        {
          "dep": "ROOT",
          "governor": 0,
          "governorGloss": "ROOT",
          "dependent": 9,
          "dependentGloss": "erfasst"
        },
        {
          "dep": "name",
          "governor": 6,
          "governorGloss": "Rosenberg",
          "dependent": 1,
          "dependentGloss": "Unbestätigte"
        },
        {
          "dep": "name",
          "governor": 6,
          "governorGloss": "Rosenberg",
          "dependent": 2,
          "dependentGloss": "Berichte"
        },
        {
          "dep": "name",
          "governor": 6,
          "governorGloss": "Rosenberg",
          "dependent": 3,
          "dependentGloss": "behaupten"
        },
        {
          "dep": "name",
          "governor": 6,
          "governorGloss": "Rosenberg",
          "dependent": 4,
          "dependentGloss": "kanadisch-israelischen"
        },
        {
          "dep": "name",
          "governor": 6,
          "governorGloss": "Rosenberg",
          "dependent": 5,
          "dependentGloss": "Gill"
        },
        {
          "dep": "nsubj",
          "governor": 9,
          "governorGloss": "erfasst",
          "dependent": 6,
          "dependentGloss": "Rosenberg"
        },
        {
          "dep": "case",
          "governor": 8,
          "governorGloss": "ISIS",
          "dependent": 7,
          "dependentGloss": "von"
        },
        {
          "dep": "nmod",
          "governor": 6,
          "governorGloss": "Rosenberg",
          "dependent": 8,
          "dependentGloss": "ISIS"
        }
      ],
      "enhancedPlusPlusDependencies": [
        {
          "dep": "ROOT",
          "governor": 0,
          "governorGloss": "ROOT",
          "dependent": 9,
          "dependentGloss": "erfasst"
        },
        {
          "dep": "name",
          "governor": 6,
          "governorGloss": "Rosenberg",
          "dependent": 1,
          "dependentGloss": "Unbestätigte"
        },
        {
          "dep": "name",
          "governor": 6,
          "governorGloss": "Rosenberg",
          "dependent": 2,
          "dependentGloss": "Berichte"
        },
        {
          "dep": "name",
          "governor": 6,
          "governorGloss": "Rosenberg",
          "dependent": 3,
          "dependentGloss": "behaupten"
        },
        {
          "dep": "name",
          "governor": 6,
          "governorGloss": "Rosenberg",
          "dependent": 4,
          "dependentGloss": "kanadisch-israelischen"
        },
        {
          "dep": "name",
          "governor": 6,
          "governorGloss": "Rosenberg",
          "dependent": 5,
          "dependentGloss": "Gill"
        },
        {
          "dep": "nsubj",
          "governor": 9,
          "governorGloss": "erfasst",
          "dependent": 6,
          "dependentGloss": "Rosenberg"
        },
        {
          "dep": "case",
          "governor": 8,
          "governorGloss": "ISIS",
          "dependent": 7,
          "dependentGloss": "von"
        },
        {
          "dep": "nmod",
          "governor": 6,
          "governorGloss": "Rosenberg",
          "dependent": 8,
          "dependentGloss": "ISIS"
        }
      ],
      "tokens": [
        {
          "index": 1,
          "word": "Unbestätigte",
          "originalText": "Unbestätigte",
          "characterOffsetBegin": 0,
          "characterOffsetEnd": 12,
          "pos": "ADJA",
          "before": "",
          "after": " "
        },
        {
          "index": 2,
          "word": "Berichte",
          "originalText": "Berichte",
          "characterOffsetBegin": 13,
          "characterOffsetEnd": 21,
          "pos": "NN",
          "before": " ",
          "after": " "
        },
        {
          "index": 3,
          "word": "behaupten",
          "originalText": "behaupten",
          "characterOffsetBegin": 22,
          "characterOffsetEnd": 31,
          "pos": "VVFIN",
          "before": " ",
          "after": " "
        },
        {
          "index": 4,
          "word": "kanadisch-israelischen",
          "originalText": "kanadisch-israelischen",
          "characterOffsetBegin": 32,
          "characterOffsetEnd": 54,
          "pos": "ADJA",
          "before": " ",
          "after": " "
        },
        {
          "index": 5,
          "word": "Gill",
          "originalText": "Gill",
          "characterOffsetBegin": 55,
          "characterOffsetEnd": 59,
          "pos": "NE",
          "before": " ",
          "after": " "
        },
        {
          "index": 6,
          "word": "Rosenberg",
          "originalText": "Rosenberg",
          "characterOffsetBegin": 60,
          "characterOffsetEnd": 69,
          "pos": "NE",
          "before": " ",
          "after": " "
        },
        {
          "index": 7,
          "word": "von",
          "originalText": "von",
          "characterOffsetBegin": 70,
          "characterOffsetEnd": 73,
          "pos": "APPR",
          "before": " ",
          "after": " "
        },
        {
          "index": 8,
          "word": "ISIS",
          "originalText": "ISIS",
          "characterOffsetBegin": 74,
          "characterOffsetEnd": 78,
          "pos": "NE",
          "before": " ",
          "after": " "
        },
        {
          "index": 9,
          "word": "erfasst",
          "originalText": "erfasst",
          "characterOffsetBegin": 79,
          "characterOffsetEnd": 86,
          "pos": "VVPP",
          "before": " ",
          "after": ""
        }
      ]
    }
  ]
}