{
  "sentences": [
    {
      "index": 0,
      "basicDependencies": [
        {
          "dep": "ROOT",
          "governor": 0,
          "governorGloss": "ROOT",
          "dependent": 2,
          "dependentGloss": "macht"
        },
        {
          "dep": "nsubj",
          "governor": 2,
          "governorGloss": "macht",
          "dependent": 1,
          "dependentGloss": "Durex"
        },
        {
          "dep": "neg",
          "governor": 2,
          "governorGloss": "macht",
          "dependent": 3,
          "dependentGloss": "nicht"
        },
        {
          "dep": "amod",
          "governor": 6,
          "governorGloss": "Kondome",
          "dependent": 4,
          "dependentGloss": "Kürbis"
        },
        {
          "dep": "amod",
          "governor": 6,
          "governorGloss": "Kondome",
          "dependent": 5,
          "dependentGloss": "Gewürz"
        },
        {
          "dep": "dobj",
          "governor": 2,
          "governorGloss": "macht",
          "dependent": 6,
          "dependentGloss": "Kondome"
        },
        {
          "dep": "case",
          "governor": 8,
          "governorGloss": "allem",
          "dependent": 7,
          "dependentGloss": "nach"
        },
        {
          "dep": "nmod",
          "governor": 2,
          "governorGloss": "macht",
          "dependent": 8,
          "dependentGloss": "allem"
        },
        {
          "dep": "punct",
          "governor": 2,
          "governorGloss": "macht",
          "dependent": 9,
          "dependentGloss": ":"
        },
        {
          "dep": "det",
          "governor": 11,
          "governorGloss": "Hoax",
          "dependent": 10,
          "dependentGloss": "Ein"
        },
        {
          "dep": "nsubj",
          "governor": 12,
          "governorGloss": "entlarvt",
          "dependent": 11,
          "dependentGloss": "Hoax"
        },
        {
          "dep": "ccomp",
          "governor": 2,
          "governorGloss": "macht",
          "dependent": 12,
          "dependentGloss": "entlarvt"
        }
      ],
      "enhancedDependencies": [
        {
          "dep": "ROOT",
          "governor": 0,
          "governorGloss": "ROOT",
          "dependent": 2,
          "dependentGloss": "macht"
        },
        {
          "dep": "nsubj",
          "governor": 2,
          "governorGloss": "macht",
          "dependent": 1,
          "dependentGloss": "Durex"
        },
        {
          "dep": "neg",
          "governor": 2,
          "governorGloss": "macht",
          "dependent": 3,
          "dependentGloss": "nicht"
        },
        {
          "dep": "amod",
          "governor": 6,
          "governorGloss": "Kondome",
          "dependent": 4,
          "dependentGloss": "Kürbis"
        },
        {
          "dep": "amod",
          "governor": 6,
          "governorGloss": "Kondome",
          "dependent": 5,
          "dependentGloss": "Gewürz"
        },
        {
          "dep": "dobj",
          "governor": 2,
          "governorGloss": "macht",
          "dependent": 6,
          "dependentGloss": "Kondome"
        },
        {
          "dep": "case",
          "governor": 8,
          "governorGloss": "allem",
          "dependent": 7,
          "dependentGloss": "nach"
        },
        {
          "dep": "nmod",
          "governor": 2,
          "governorGloss": "macht",
          "dependent": 8,
          "dependentGloss": "allem"
        },
        {
          "dep": "punct",
          "governor": 2,
          "governorGloss": "macht",
          "dependent": 9,
          "dependentGloss": ":"
        },
        {
          "dep": "det",
          "governor": 11,
          "governorGloss": "Hoax",
          "dependent": 10,
          "dependentGloss": "Ein"
        },
        {
          "dep": "nsubj",
          "governor": 12,
          "governorGloss": "entlarvt",
          "dependent": 11,
          "dependentGloss": "Hoax"
        },
        {
          "dep": "ccomp",
          "governor": 2,
          "governorGloss": "macht",
          "dependent": 12,
          "dependentGloss": "entlarvt"
        }
      ],
      "enhancedPlusPlusDependencies": [
        {
          "dep": "ROOT",
          "governor": 0,
          "governorGloss": "ROOT",
          "dependent": 2,
          "dependentGloss": "macht"
        },
        {
          "dep": "nsubj",
          "governor": 2,
          "governorGloss": "macht",
          "dependent": 1,
          "dependentGloss": "Durex"
        },
        {
          "dep": "neg",
          "governor": 2,
          "governorGloss": "macht",
          "dependent": 3,
          "dependentGloss": "nicht"
        },
        {
          "dep": "amod",
          "governor": 6,
          "governorGloss": "Kondome",
          "dependent": 4,
          "dependentGloss": "Kürbis"
        },
        {
          "dep": "amod",
          "governor": 6,
          "governorGloss": "Kondome",
          "dependent": 5,
          "dependentGloss": "Gewürz"
        },
        {
          "dep": "dobj",
          "governor": 2,
          "governorGloss": "macht",
          "dependent": 6,
          "dependentGloss": "Kondome"
        },
        {
          "dep": "case",
          "governor": 8,
          "governorGloss": "allem",
          "dependent": 7,
          "dependentGloss": "nach"
        },
        {
          "dep": "nmod",
          "governor": 2,
          "governorGloss": "macht",
          "dependent": 8,
          "dependentGloss": "allem"
        },
        {
          "dep": "punct",
          "governor": 2,
          "governorGloss": "macht",
          "dependent": 9,
          "dependentGloss": ":"
        },
        {
          "dep": "det",
          "governor": 11,
          "governorGloss": "Hoax",
          "dependent": 10,
          "dependentGloss": "Ein"
        },
        {
          "dep": "nsubj",
          "governor": 12,
          "governorGloss": "entlarvt",
          "dependent": 11,
          "dependentGloss": "Hoax"
        },
        {
          "dep": "ccomp",
          "governor": 2,
          "governorGloss": "macht",
          "dependent": 12,
          "dependentGloss": "entlarvt"
        }
      ],
      "tokens": [
        {
          "index": 1,
          "word": "Durex",
          "originalText": "Durex",
          "characterOffsetBegin": 0,
          "characterOffsetEnd": 5,
          "pos": "NE",
          "before": "",
          "after": " "
        },
        {
          "index": 2,
          "word": "macht",
          "originalText": "macht",
          "characterOffsetBegin": 6,
          "characterOffsetEnd": 11,
          "pos": "VVFIN",
          "before": " ",
          "after": " "
        },
        {
          "index": 3,
          "word": "nicht",
          "originalText": "nicht",
          "characterOffsetBegin": 12,
          "characterOffsetEnd": 17,
          "pos": "PTKNEG",
          "before": " ",
          "after": " "
        },
        {
          "index": 4,
          "word": "Kürbis",
          "originalText": "Kürbis",
          "characterOffsetBegin": 18,
          "characterOffsetEnd": 24,
          "pos": "NE",
          "before": " ",
          "after": " "
        },
        {
          "index": 5,
          "word": "Gewürz",
          "originalText": "Gewürz",
          "characterOffsetBegin": 25,
          "characterOffsetEnd": 31,
          "pos": "NE",
          "before": " ",
          "after": " "
        },
        {
          "index": 6,
          "word": "Kondome",
          "originalText": "Kondome",
          "characterOffsetBegin": 32,
          "characterOffsetEnd": 39,
          "pos": "NN",
          "before": " ",
          "after": " "
        },
        {
          "index": 7,
          "word": "nach",
          "originalText": "nach",
          "characterOffsetBegin": 40,
          "characterOffsetEnd": 44,
          "pos": "APPR",
          "before": " ",
          "after": " "
        },
        {
          "index": 8,
          "word": "allem",
          "originalText": "allem",
          "characterOffsetBegin": 45,
          "characterOffsetEnd": 50,
          "pos": "PIS",
          "before": " ",
          "after": ""
        },
        {
          "index": 9,
          "word": ":",
          "originalText": ":",
          "characterOffsetBegin": 50,
          "characterOffsetEnd": 51,
          "pos": "$.",
          "before": "",
          "after": " "
        },
        {
          "index": 10,
          "word": "Ein",
          "originalText": "Ein",
          "characterOffsetBegin": 52,
          "characterOffsetEnd": 55,
          "pos": "ART",
          "before": " ",
          "after": " "
        },
        {
          "index": 11,
          "word": "Hoax",
          "originalText": "Hoax",
          "characterOffsetBegin": 56,
          "characterOffsetEnd": 60,
          "pos": "NE",
          "before": " ",
          "after": " "
        },
        {
          "index": 12,
          "word": "entlarvt",
          "originalText": "entlarvt",
          "characterOffsetBegin": 61,
          "characterOffsetEnd": 69,
          "pos": "VVPP",
          "before": " ",
          "after": ""
        }
      ]
    }
  ]
}