{
  "sentences": [
    {
      "index": 0,
      "basicDependencies": [
        {
          "dep": "ROOT",
          "governor": 0,
          "governorGloss": "ROOT",
          "dependent": 15,
          "dependentGloss": "`"
        },
        {
          "dep": "name",
          "governor": 5,
          "governorGloss": "Student",
          "dependent": 1,
          "dependentGloss": "Canterbury"
        },
        {
          "dep": "name",
          "governor": 5,
          "governorGloss": "Student",
          "dependent": 2,
          "dependentGloss": "Christ"
        },
        {
          "dep": "name",
          "governor": 5,
          "governorGloss": "Student",
          "dependent": 3,
          "dependentGloss": "Church"
        },
        {
          "dep": "name",
          "governor": 5,
          "governorGloss": "Student",
          "dependent": 4,
          "dependentGloss": "University"
        },
        {
          "dep": "nsubj",
          "governor": 15,
          "governorGloss": "`",
          "dependent": 5,
          "dependentGloss": "Student"
        },
        {
          "dep": "name",
          "governor": 7,
          "governorGloss": "Smith",
          "dependent": 6,
          "dependentGloss": "Jess"
        },
        {
          "dep": "appos",
          "governor": 5,
          "governorGloss": "Student",
          "dependent": 7,
          "dependentGloss": "Smith"
        },
        {
          "dep": "punct",
          "governor": 5,
          "governorGloss": "Student",
          "dependent": 8,
          "dependentGloss": ","
        },
        {
          "dep": "case",
          "governor": 10,
          "governorGloss": "Chatham",
          "dependent": 9,
          "dependentGloss": "aus"
        },
        {
          "dep": "nmod",
          "governor": 15,
          "governorGloss": "`",
          "dependent": 10,
          "dependentGloss": "Chatham"
        },
        {
          "dep": "punct",
          "governor": 10,
          "governorGloss": "Chatham",
          "dependent": 11,
          "dependentGloss": ","
        },
        {
          "dep": "conj",
          "governor": 10,
          "governorGloss": "Chatham",
          "dependent": 12,
          "dependentGloss": "spielte"
        },
        {
          "dep": "case",
          "governor": 14,
          "governorGloss": "Teletubbies",
          "dependent": 13,
          "dependentGloss": "als"
        },
        {
          "dep": "nmod",
          "governor": 15,
          "governorGloss": "`",
          "dependent": 14,
          "dependentGloss": "Teletubbies"
        },
        {
          "dep": "dobj",
          "governor": 15,
          "governorGloss": "`",
          "dependent": 16,
          "dependentGloss": "Sonne"
        }
      ],
      "enhancedDependencies": [
        {
          "dep": "ROOT",
          "governor": 0,
          "governorGloss": "ROOT",
          "dependent": 15,
          "dependentGloss": "`"
        },
        {
          "dep": "name",
          "governor": 5,
          "governorGloss": "Student",
          "dependent": 1,
          "dependentGloss": "Canterbury"
        },
        {
          "dep": "name",
          "governor": 5,
          "governorGloss": "Student",
          "dependent": 2,
          "dependentGloss": "Christ"
        },
        {
          "dep": "name",
          "governor": 5,
          "governorGloss": "Student",
          "dependent": 3,
          "dependentGloss": "Church"
        },
        {
          "dep": "name",
          "governor": 5,
          "governorGloss": "Student",
          "dependent": 4,
          "dependentGloss": "University"
        },
        {
          "dep": "nsubj",
          "governor": 15,
          "governorGloss": "`",
          "dependent": 5,
          "dependentGloss": "Student"
        },
        {
          "dep": "name",
          "governor": 7,
          "governorGloss": "Smith",
          "dependent": 6,
          "dependentGloss": "Jess"
        },
        {
          "dep": "appos",
          "governor": 5,
          "governorGloss": "Student",
          "dependent": 7,
          "dependentGloss": "Smith"
        },
        {
          "dep": "punct",
          "governor": 5,
          "governorGloss": "Student",
          "dependent": 8,
          "dependentGloss": ","
        },
        {
          "dep": "case",
          "governor": 10,
          "governorGloss": "Chatham",
          "dependent": 9,
          "dependentGloss": "aus"
        },
        {
          "dep": "nmod",
          "governor": 15,
          "governorGloss": "`",
          "dependent": 10,
          "dependentGloss": "Chatham"
        },
        {
          "dep": "punct",
          "governor": 10,
          "governorGloss": "Chatham",
          "dependent": 11,
          "dependentGloss": ","
        },
        {
          "dep": "conj",
          "governor": 10,
          "governorGloss": "Chatham",
          "dependent": 12,
          "dependentGloss": "spielte"
        },
        {
          "dep": "case",
          "governor": 14,
          "governorGloss": "Teletubbies",
          "dependent": 13,
          "dependentGloss": "als"
        },
        {
          "dep": "nmod",
          "governor": 15,
          "governorGloss": "`",
          "dependent": 14,
          "dependentGloss": "Teletubbies"
        },
        {
          "dep": "dobj",
          "governor": 15,
          "governorGloss": "`",
          "dependent": 16,
          "dependentGloss": "Sonne"
        }
      ],
      "enhancedPlusPlusDependencies": [
        {
          "dep": "ROOT",
          "governor": 0,
          "governorGloss": "ROOT",
          "dependent": 15,
          "dependentGloss": "`"
        },
        {
          "dep": "name",
          "governor": 5,
          "governorGloss": "Student",
          "dependent": 1,
          "dependentGloss": "Canterbury"
        },
        {
          "dep": "name",
          "governor": 5,
          "governorGloss": "Student",
          "dependent": 2,
          "dependentGloss": "Christ"
        },
        {
          "dep": "name",
          "governor": 5,
          "governorGloss": "Student",
          "dependent": 3,
          "dependentGloss": "Church"
        },
        {
          "dep": "name",
          "governor": 5,
          "governorGloss": "Student",
          "dependent": 4,
          "dependentGloss": "University"
        },
        {
          "dep": "nsubj",
          "governor": 15,
          "governorGloss": "`",
          "dependent": 5,
          "dependentGloss": "Student"
        },
        {
          "dep": "name",
          "governor": 7,
          "governorGloss": "Smith",
          "dependent": 6,
          "dependentGloss": "Jess"
        },
        {
          "dep": "appos",
          "governor": 5,
          "governorGloss": "Student",
          "dependent": 7,
          "dependentGloss": "Smith"
        },
        {
          "dep": "punct",
          "governor": 5,
          "governorGloss": "Student",
          "dependent": 8,
          "dependentGloss": ","
        },
        {
          "dep": "case",
          "governor": 10,
          "governorGloss": "Chatham",
          "dependent": 9,
          "dependentGloss": "aus"
        },
        {
          "dep": "nmod",
          "governor": 15,
          "governorGloss": "`",
          "dependent": 10,
          "dependentGloss": "Chatham"
        },
        {
          "dep": "punct",
          "governor": 10,
          "governorGloss": "Chatham",
          "dependent": 11,
          "dependentGloss": ","
        },
        {
          "dep": "conj",
          "governor": 10,
          "governorGloss": "Chatham",
          "dependent": 12,
          "dependentGloss": "spielte"
        },
        {
          "dep": "case",
          "governor": 14,
          "governorGloss": "Teletubbies",
          "dependent": 13,
          "dependentGloss": "als"
        },
        {
          "dep": "nmod",
          "governor": 15,
          "governorGloss": "`",
          "dependent": 14,
          "dependentGloss": "Teletubbies"
        },
        {
          "dep": "dobj",
          "governor": 15,
          "governorGloss": "`",
          "dependent": 16,
          "dependentGloss": "Sonne"
        }
      ],
      "tokens": [
        {
          "index": 1,
          "word": "Canterbury",
          "originalText": "Canterbury",
          "characterOffsetBegin": 0,
          "characterOffsetEnd": 10,
          "pos": "NE",
          "before": "",
          "after": " "
        },
        {
          "index": 2,
          "word": "Christ",
          "originalText": "Christ",
          "characterOffsetBegin": 11,
          "characterOffsetEnd": 17,
          "pos": "NE",
          "before": " ",
          "after": " "
        },
        {
          "index": 3,
          "word": "Church",
          "originalText": "Church",
          "characterOffsetBegin": 18,
          "characterOffsetEnd": 24,
          "pos": "NE",
          "before": " ",
          "after": " "
        },
        {
          "index": 4,
          "word": "University",
          "originalText": "University",
          "characterOffsetBegin": 25,
          "characterOffsetEnd": 35,
          "pos": "NE",
          "before": " ",
          "after": " "
        },
        {
          "index": 5,
          "word": "Student",
          "originalText": "Student",
          "characterOffsetBegin": 36,
          "characterOffsetEnd": 43,
          "pos": "NN",
          "before": " ",
          "after": " "
        },
        {
          "index": 6,
          "word": "Jess",
          "originalText": "Jess",
          "characterOffsetBegin": 44,
          "characterOffsetEnd": 48,
          "pos": "NE",
          "before": " ",
          "after": " "
        },
        {
          "index": 7,
          "word": "Smith",
          "originalText": "Smith",
          "characterOffsetBegin": 49,
          "characterOffsetEnd": 54,
          "pos": "NE",
          "before": " ",
          "after": ""
        },
        {
          "index": 8,
          "word": ",",
          "originalText": ",",
          "characterOffsetBegin": 54,
          "characterOffsetEnd": 55,
          "pos": "$,",
          "before": "",
          "after": " "
        },
        {
          "index": 9,
          "word": "aus",
          "originalText": "aus",
          "characterOffsetBegin": 56,
          "characterOffsetEnd": 59,
          "pos": "APPR",
          "before": " ",
          "after": " "
        },
        {
          "index": 10,
          "word": "Chatham",
          "originalText": "Chatham",
          "characterOffsetBegin": 60,
          "characterOffsetEnd": 67,
          "pos": "NE",
          "before": " ",
          "after": ""
        },
        {
          "index": 11,
          "word": ",",
          "originalText": ",",
          "characterOffsetBegin": 67,
          "characterOffsetEnd": 68,
          "pos": "$,",
          "before": "",
          "after": " "
        },
        {
          "index": 12,
          "word": "spielte",
          "originalText": "spielte",
          "characterOffsetBegin": 69,
          "characterOffsetEnd": 76,
          "pos": "VVFIN",
          "before": " ",
          "after": " "
        },
        {
          "index": 13,
          "word": "als",
          "originalText": "als",
          "characterOffsetBegin": 77,
          "characterOffsetEnd": 80,
          "pos": "APPR",
          "before": " ",
          "after": " "
        },
        {
          "index": 14,
          "word": "Teletubbies",
          "originalText": "Teletubbies",
          "characterOffsetBegin": 81,
          "characterOffsetEnd": 92,
          "pos": "NN",
          "before": " ",
          "after": " "
        },
        {
          "index": 15,
          "word": "`",
          "originalText": "'",
          "characterOffsetBegin": 93,
          "characterOffsetEnd": 94,
          "pos": "CARD",
          "before": " ",
          "after": ""
        },
        {
          "index": 16,
          "word": "Sonne",
          "originalText": "Sonne",
          "characterOffsetBegin": 94,
          "characterOffsetEnd": 99,
          "pos": "NN",
          "before": "",
          "after": ""
        }
      ]
    }
  ]
}