{
  "sentences": [
    {
      "index": 0,
      "basicDependencies": [
        {
          "dep": "ROOT",
          "governor": 0,
          "governorGloss": "ROOT",
          "dependent": 4,
          "dependentGloss": "Hoax"
        },
        {
          "dep": "amod",
          "governor": 4,
          "governorGloss": "Hoax",
          "dependent": 1,
          "dependentGloss": "Lucita"
        },
        {
          "dep": "amod",
          "governor": 4,
          "governorGloss": "Hoax",
          "dependent": 2,
          "dependentGloss": "Sandoval"
        },
        {
          "dep": "amod",
          "governor": 4,
          "governorGloss": "Hoax",
          "dependent": 3,
          "dependentGloss": "Sex-Band"
        },
        {
          "dep": "punct",
          "governor": 4,
          "governorGloss": "Hoax",
          "dependent": 5,
          "dependentGloss": ":"
        },
        {
          "dep": "amod",
          "governor": 12,
          "governorGloss": "16-jährige",
          "dependent": 6,
          "dependentGloss": "Virale"
        },
        {
          "dep": "amod",
          "governor": 12,
          "governorGloss": "16-jährige",
          "dependent": 7,
          "dependentGloss": "Argentinische"
        },
        {
          "dep": "amod",
          "governor": 12,
          "governorGloss": "16-jährige",
          "dependent": 8,
          "dependentGloss": "Video-Features"
        },
        {
          "dep": "name",
          "governor": 12,
          "governorGloss": "16-jährige",
          "dependent": 9,
          "dependentGloss": "College-Student"
        },
        {
          "dep": "punct",
          "governor": 12,
          "governorGloss": "16-jährige",
          "dependent": 10,
          "dependentGloss": "-"
        },
        {
          "dep": "neg",
          "governor": 12,
          "governorGloss": "16-jährige",
          "dependent": 11,
          "dependentGloss": "nicht"
        },
        {
          "dep": "appos",
          "governor": 4,
          "governorGloss": "Hoax",
          "dependent": 12,
          "dependentGloss": "16-jährige"
        },
        {
          "dep": "appos",
          "governor": 12,
          "governorGloss": "16-jährige",
          "dependent": 13,
          "dependentGloss": "Junge"
        }
      ],
      "enhancedDependencies": [
        {
          "dep": "ROOT",
          "governor": 0,
          "governorGloss": "ROOT",
          "dependent": 4,
          "dependentGloss": "Hoax"
        },
        {
          "dep": "amod",
          "governor": 4,
          "governorGloss": "Hoax",
          "dependent": 1,
          "dependentGloss": "Lucita"
        },
        {
          "dep": "amod",
          "governor": 4,
          "governorGloss": "Hoax",
          "dependent": 2,
          "dependentGloss": "Sandoval"
        },
        {
          "dep": "amod",
          "governor": 4,
          "governorGloss": "Hoax",
          "dependent": 3,
          "dependentGloss": "Sex-Band"
        },
        {
          "dep": "punct",
          "governor": 4,
          "governorGloss": "Hoax",
          "dependent": 5,
          "dependentGloss": ":"
        },
        {
          "dep": "amod",
          "governor": 12,
          "governorGloss": "16-jährige",
          "dependent": 6,
          "dependentGloss": "Virale"
        },
        {
          "dep": "amod",
          "governor": 12,
          "governorGloss": "16-jährige",
          "dependent": 7,
          "dependentGloss": "Argentinische"
        },
        {
          "dep": "amod",
          "governor": 12,
          "governorGloss": "16-jährige",
          "dependent": 8,
          "dependentGloss": "Video-Features"
        },
        {
          "dep": "name",
          "governor": 12,
          "governorGloss": "16-jährige",
          "dependent": 9,
          "dependentGloss": "College-Student"
        },
        {
          "dep": "punct",
          "governor": 12,
          "governorGloss": "16-jährige",
          "dependent": 10,
          "dependentGloss": "-"
        },
        {
          "dep": "neg",
          "governor": 12,
          "governorGloss": "16-jährige",
          "dependent": 11,
          "dependentGloss": "nicht"
        },
        {
          "dep": "appos",
          "governor": 4,
          "governorGloss": "Hoax",
          "dependent": 12,
          "dependentGloss": "16-jährige"
        },
        {
          "dep": "appos",
          "governor": 12,
          "governorGloss": "16-jährige",
          "dependent": 13,
          "dependentGloss": "Junge"
        }
      ],
      "enhancedPlusPlusDependencies": [
        {
          "dep": "ROOT",
          "governor": 0,
          "governorGloss": "ROOT",
          "dependent": 4,
          "dependentGloss": "Hoax"
        },
        {
          "dep": "amod",
          "governor": 4,
          "governorGloss": "Hoax",
          "dependent": 1,
          "dependentGloss": "Lucita"
        },
        {
          "dep": "amod",
          "governor": 4,
          "governorGloss": "Hoax",
          "dependent": 2,
          "dependentGloss": "Sandoval"
        },
        {
          "dep": "amod",
          "governor": 4,
          "governorGloss": "Hoax",
          "dependent": 3,
          "dependentGloss": "Sex-Band"
        },
        {
          "dep": "punct",
          "governor": 4,
          "governorGloss": "Hoax",
          "dependent": 5,
          "dependentGloss": ":"
        },
        {
          "dep": "amod",
          "governor": 12,
          "governorGloss": "16-jährige",
          "dependent": 6,
          "dependentGloss": "Virale"
        },
        {
          "dep": "amod",
          "governor": 12,
          "governorGloss": "16-jährige",
          "dependent": 7,
          "dependentGloss": "Argentinische"
        },
        {
          "dep": "amod",
          "governor": 12,
          "governorGloss": "16-jährige",
          "dependent": 8,
          "dependentGloss": "Video-Features"
        },
        {
          "dep": "name",
          "governor": 12,
          "governorGloss": "16-jährige",
          "dependent": 9,
          "dependentGloss": "College-Student"
        },
        {
          "dep": "punct",
          "governor": 12,
          "governorGloss": "16-jährige",
          "dependent": 10,
          "dependentGloss": "-"
        },
        {
          "dep": "neg",
          "governor": 12,
          "governorGloss": "16-jährige",
          "dependent": 11,
          "dependentGloss": "nicht"
        },
        {
          "dep": "appos",
          "governor": 4,
          "governorGloss": "Hoax",
          "dependent": 12,
          "dependentGloss": "16-jährige"
        },
        {
          "dep": "appos",
          "governor": 12,
          "governorGloss": "16-jährige",
          "dependent": 13,
          "dependentGloss": "Junge"
        }
      ],
      "tokens": [
        {
          "index": 1,
          "word": "Lucita",
          "originalText": "Lucita",
          "characterOffsetBegin": 0,
          "characterOffsetEnd": 6,
          "pos": "NE",
          "before": "",
          "after": " "
        },
        {
          "index": 2,
          "word": "Sandoval",
          "originalText": "Sandoval",
          "characterOffsetBegin": 7,
          "characterOffsetEnd": 15,
          "pos": "NE",
          "before": " ",
          "after": " "
        },
        {
          "index": 3,
          "word": "Sex-Band",
          "originalText": "Sex-Band",
          "characterOffsetBegin": 16,
          "characterOffsetEnd": 24,
          "pos": "NE",
          "before": " ",
          "after": " "
        },
        {
          "index": 4,
          "word": "Hoax",
          "originalText": "Hoax",
          "characterOffsetBegin": 25,
          "characterOffsetEnd": 29,
          "pos": "NE",
          "before": " ",
          "after": ""
        },
        {
          "index": 5,
          "word": ":",
          "originalText": ":",
          "characterOffsetBegin": 29,
          "characterOffsetEnd": 30,
          "pos": "$.",
          "before": "",
          "after": " "
        },
        {
          "index": 6,
          "word": "Virale",
          "originalText": "Virale",
          "characterOffsetBegin": 31,
          "characterOffsetEnd": 37,
          "pos": "ADJA",
          "before": " ",
          "after": " "
        },
        {
          "index": 7,
          "word": "Argentinische",
          "originalText": "Argentinische",
          "characterOffsetBegin": 38,
          "characterOffsetEnd": 51,
          "pos": "ADJA",
          "before": " ",
          "after": " "
        },
        {
          "index": 8,
          "word": "Video-Features",
          "originalText": "Video-Features",
          "characterOffsetBegin": 52,
          "characterOffsetEnd": 66,
          "pos": "NN",
          "before": " ",
          "after": " "
        },
        {
          "index": 9,
          "word": "College-Student",
          "originalText": "College-Student",
          "characterOffsetBegin": 67,
          "characterOffsetEnd": 82,
          "pos": "NE",
          "before": " ",
          "after": " "
        },
        {
          "index": 10,
          "word": "-",
          "originalText": "-",
          "characterOffsetBegin": 83,
          "characterOffsetEnd": 84,
          "pos": "$[",
          "before": " ",
          "after": " "
        },
        {
          "index": 11,
          "word": "nicht",
          "originalText": "nicht",
          "characterOffsetBegin": 85,
          "characterOffsetEnd": 90,
          "pos": "PTKNEG",
          "before": " ",
          "after": " "
        },
        {
          "index": 12,
          "word": "16-jährige",
          "originalText": "16-jährige",
          "characterOffsetBegin": 91,
          "characterOffsetEnd": 101,
          "pos": "ADJA",
          "before": " ",
          "after": " "
        },
        {
          "index": 13,
          "word": "Junge",
          "originalText": "Junge",
          "characterOffsetBegin": 102,
          "characterOffsetEnd": 107,
          "pos": "NN",
          "before": " ",
          "after": ""
        }
      ]
    }
  ]
}