{
  "sentences": [
    {
      "index": 0,
      "basicDependencies": [
        {
          "dep": "ROOT",
          "governor": 0,
          "governorGloss": "ROOT",
          "dependent": 1,
          "dependentGloss": "Hat"
        },
        {
          "dep": "det",
          "governor": 3,
          "governorGloss": "Meteoritenwirkung",
          "dependent": 2,
          "dependentGloss": "ein"
        },
        {
          "dep": "dobj",
          "governor": 1,
          "governorGloss": "Hat",
          "dependent": 3,
          "dependentGloss": "Meteoritenwirkung"
        },
        {
          "dep": "case",
          "governor": 5,
          "governorGloss": "Nicaragua",
          "dependent": 4,
          "dependentGloss": "in"
        },
        {
          "dep": "nmod",
          "governor": 3,
          "governorGloss": "Meteoritenwirkung",
          "dependent": 5,
          "dependentGloss": "Nicaragua"
        },
        {
          "dep": "case",
          "governor": 8,
          "governorGloss": "Wochenende",
          "dependent": 6,
          "dependentGloss": "über"
        },
        {
          "dep": "det",
          "governor": 8,
          "governorGloss": "Wochenende",
          "dependent": 7,
          "dependentGloss": "das"
        },
        {
          "dep": "nmod",
          "governor": 3,
          "governorGloss": "Meteoritenwirkung",
          "dependent": 8,
          "dependentGloss": "Wochenende"
        },
        {
          "dep": "punct",
          "governor": 1,
          "governorGloss": "Hat",
          "dependent": 9,
          "dependentGloss": "?"
        }
      ],
      "enhancedDependencies": [
        {
          "dep": "ROOT",
          "governor": 0,
          "governorGloss": "ROOT",
          "dependent": 1,
          "dependentGloss": "Hat"
        },
        {
          "dep": "det",
          "governor": 3,
          "governorGloss": "Meteoritenwirkung",
          "dependent": 2,
          "dependentGloss": "ein"
        },
        {
          "dep": "dobj",
          "governor": 1,
          "governorGloss": "Hat",
          "dependent": 3,
          "dependentGloss": "Meteoritenwirkung"
        },
        {
          "dep": "case",
          "governor": 5,
          "governorGloss": "Nicaragua",
          "dependent": 4,
          "dependentGloss": "in"
        },
        {
          "dep": "nmod",
          "governor": 3,
          "governorGloss": "Meteoritenwirkung",
          "dependent": 5,
          "dependentGloss": "Nicaragua"
        },
        {
          "dep": "case",
          "governor": 8,
          "governorGloss": "Wochenende",
          "dependent": 6,
          "dependentGloss": "über"
        },
        {
          "dep": "det",
          "governor": 8,
          "governorGloss": "Wochenende",
          "dependent": 7,
          "dependentGloss": "das"
        },
        {
          "dep": "nmod",
          "governor": 3,
          "governorGloss": "Meteoritenwirkung",
          "dependent": 8,
          "dependentGloss": "Wochenende"
        },
        {
          "dep": "punct",
          "governor": 1,
          "governorGloss": "Hat",
          "dependent": 9,
          "dependentGloss": "?"
        }
      ],
      "enhancedPlusPlusDependencies": [
        {
          "dep": "ROOT",
          "governor": 0,
          "governorGloss": "ROOT",
          "dependent": 1,
          "dependentGloss": "Hat"
        },
        {
          "dep": "det",
          "governor": 3,
          "governorGloss": "Meteoritenwirkung",
          "dependent": 2,
          "dependentGloss": "ein"
        },
        {
          "dep": "dobj",
          "governor": 1,
          "governorGloss": "Hat",
          "dependent": 3,
          "dependentGloss": "Meteoritenwirkung"
        },
        {
          "dep": "case",
          "governor": 5,
          "governorGloss": "Nicaragua",
          "dependent": 4,
          "dependentGloss": "in"
        },
        {
          "dep": "nmod",
          "governor": 3,
          "governorGloss": "Meteoritenwirkung",
          "dependent": 5,
          "dependentGloss": "Nicaragua"
        },
        {
          "dep": "case",
          "governor": 8,
          "governorGloss": "Wochenende",
          "dependent": 6,
          "dependentGloss": "über"
        },
        {
          "dep": "det",
          "governor": 8,
          "governorGloss": "Wochenende",
          "dependent": 7,
          "dependentGloss": "das"
        },
        {
          "dep": "nmod",
          "governor": 3,
          "governorGloss": "Meteoritenwirkung",
          "dependent": 8,
          "dependentGloss": "Wochenende"
        },
        {
          "dep": "punct",
          "governor": 1,
          "governorGloss": "Hat",
          "dependent": 9,
          "dependentGloss": "?"
        }
      ],
      "tokens": [
        {
          "index": 1,
          "word": "Hat",
          "originalText": "Hat",
          "characterOffsetBegin": 0,
          "characterOffsetEnd": 3,
          "pos": "VAFIN",
          "before": "",
          "after": " "
        },
        {
          "index": 2,
          "word": "ein",
          "originalText": "ein",
          "characterOffsetBegin": 4,
          "characterOffsetEnd": 7,
          "pos": "ART",
          "before": " ",
          "after": " "
        },
        {
          "index": 3,
          "word": "Meteoritenwirkung",
          "originalText": "Meteoritenwirkung",
          "characterOffsetBegin": 8,
          "characterOffsetEnd": 25,
          "pos": "NN",
          "before": " ",
          "after": " "
        },
        {
          "index": 4,
          "word": "in",
          "originalText": "in",
          "characterOffsetBegin": 26,
          "characterOffsetEnd": 28,
          "pos": "APPR",
          "before": " ",
          "after": " "
        },
        {
          "index": 5,
          "word": "Nicaragua",
          "originalText": "Nicaragua",
          "characterOffsetBegin": 29,
          "characterOffsetEnd": 38,
          "pos": "NE",
          "before": " ",
          "after": " "
        },
        {
          "index": 6,
          "word": "über",
          "originalText": "über",
          "characterOffsetBegin": 39,
          "characterOffsetEnd": 43,
          "pos": "APPR",
          "before": " ",
          "after": " "
        },
        {
          "index": 7,
          "word": "das",
          "originalText": "das",
          "characterOffsetBegin": 44,
          "characterOffsetEnd": 47,
          "pos": "ART",
          "before": " ",
          "after": " "
        },
        {
          "index": 8,
          "word": "Wochenende",
          "originalText": "Wochenende",
          "characterOffsetBegin": 48,
          "characterOffsetEnd": 58,
          "pos": "NN",
          "before": " ",
          "after": ""
        },
        {
          "index": 9,
          "word": "?",
          "originalText": "?",
          "characterOffsetBegin": 58,
          "characterOffsetEnd": 59,
          "pos": "$.",
          "before": "",
          "after": ""
        }
      ]
    }
  ]
}