{
  "sentences": [
    {
      "index": 0,
      "basicDependencies": [
        {
          "dep": "ROOT",
          "governor": 0,
          "governorGloss": "ROOT",
          "dependent": 1,
          "dependentGloss": "ISIS"
        },
        {
          "dep": "nsubj",
          "governor": 1,
          "governorGloss": "ISIS",
          "dependent": 2,
          "dependentGloss": "Beheads"
        },
        {
          "dep": "amod",
          "governor": 4,
          "governorGloss": "Journalist",
          "dependent": 3,
          "dependentGloss": "American"
        },
        {
          "dep": "appos",
          "governor": 2,
          "governorGloss": "Beheads",
          "dependent": 4,
          "dependentGloss": "Journalist"
        },
        {
          "dep": "name",
          "governor": 6,
          "governorGloss": "Foley",
          "dependent": 5,
          "dependentGloss": "James"
        },
        {
          "dep": "appos",
          "governor": 4,
          "governorGloss": "Journalist",
          "dependent": 6,
          "dependentGloss": "Foley"
        },
        {
          "dep": "case",
          "governor": 9,
          "governorGloss": "Nachricht",
          "dependent": 7,
          "dependentGloss": "in"
        },
        {
          "dep": "compound",
          "governor": 9,
          "governorGloss": "Nachricht",
          "dependent": 8,
          "dependentGloss": "Video"
        },
        {
          "dep": "nmod",
          "governor": 4,
          "governorGloss": "Journalist",
          "dependent": 9,
          "dependentGloss": "Nachricht"
        },
        {
          "dep": "case",
          "governor": 11,
          "governorGloss": "U.S.",
          "dependent": 10,
          "dependentGloss": "an"
        },
        {
          "dep": "nmod",
          "governor": 9,
          "governorGloss": "Nachricht",
          "dependent": 11,
          "dependentGloss": "U.S."
        }
      ],
      "enhancedDependencies": [
        {
          "dep": "ROOT",
          "governor": 0,
          "governorGloss": "ROOT",
          "dependent": 1,
          "dependentGloss": "ISIS"
        },
        {
          "dep": "nsubj",
          "governor": 1,
          "governorGloss": "ISIS",
          "dependent": 2,
          "dependentGloss": "Beheads"
        },
        {
          "dep": "amod",
          "governor": 4,
          "governorGloss": "Journalist",
          "dependent": 3,
          "dependentGloss": "American"
        },
        {
          "dep": "appos",
          "governor": 2,
          "governorGloss": "Beheads",
          "dependent": 4,
          "dependentGloss": "Journalist"
        },
        {
          "dep": "name",
          "governor": 6,
          "governorGloss": "Foley",
          "dependent": 5,
          "dependentGloss": "James"
        },
        {
          "dep": "appos",
          "governor": 4,
          "governorGloss": "Journalist",
          "dependent": 6,
          "dependentGloss": "Foley"
        },
        {
          "dep": "case",
          "governor": 9,
          "governorGloss": "Nachricht",
          "dependent": 7,
          "dependentGloss": "in"
        },
        {
          "dep": "compound",
          "governor": 9,
          "governorGloss": "Nachricht",
          "dependent": 8,
          "dependentGloss": "Video"
        },
        {
          "dep": "nmod",
          "governor": 4,
          "governorGloss": "Journalist",
          "dependent": 9,
          "dependentGloss": "Nachricht"
        },
        {
          "dep": "case",
          "governor": 11,
          "governorGloss": "U.S.",
          "dependent": 10,
          "dependentGloss": "an"
        },
        {
          "dep": "nmod",
          "governor": 9,
          "governorGloss": "Nachricht",
          "dependent": 11,
          "dependentGloss": "U.S."
        }
      ],
      "enhancedPlusPlusDependencies": [
        {
          "dep": "ROOT",
          "governor": 0,
          "governorGloss": "ROOT",
          "dependent": 1,
          "dependentGloss": "ISIS"
        },
        {
          "dep": "nsubj",
          "governor": 1,
          "governorGloss": "ISIS",
          "dependent": 2,
          "dependentGloss": "Beheads"
        },
        {
          "dep": "amod",
          "governor": 4,
          "governorGloss": "Journalist",
          "dependent": 3,
          "dependentGloss": "American"
        },
        {
          "dep": "appos",
          "governor": 2,
          "governorGloss": "Beheads",
          "dependent": 4,
          "dependentGloss": "Journalist"
        },
        {
          "dep": "name",
          "governor": 6,
          "governorGloss": "Foley",
          "dependent": 5,
          "dependentGloss": "James"
        },
        {
          "dep": "appos",
          "governor": 4,
          "governorGloss": "Journalist",
          "dependent": 6,
          "dependentGloss": "Foley"
        },
        {
          "dep": "case",
          "governor": 9,
          "governorGloss": "Nachricht",
          "dependent": 7,
          "dependentGloss": "in"
        },
        {
          "dep": "compound",
          "governor": 9,
          "governorGloss": "Nachricht",
          "dependent": 8,
          "dependentGloss": "Video"
        },
        {
          "dep": "nmod",
          "governor": 4,
          "governorGloss": "Journalist",
          "dependent": 9,
          "dependentGloss": "Nachricht"
        },
        {
          "dep": "case",
          "governor": 11,
          "governorGloss": "U.S.",
          "dependent": 10,
          "dependentGloss": "an"
        },
        {
          "dep": "nmod",
          "governor": 9,
          "governorGloss": "Nachricht",
          "dependent": 11,
          "dependentGloss": "U.S."
        }
      ],
      "tokens": [
        {
          "index": 1,
          "word": "ISIS",
          "originalText": "ISIS",
          "characterOffsetBegin": 0,
          "characterOffsetEnd": 4,
          "pos": "NE",
          "before": "",
          "after": " "
        },
        {
          "index": 2,
          "word": "Beheads",
          "originalText": "Beheads",
          "characterOffsetBegin": 5,
          "characterOffsetEnd": 12,
          "pos": "NE",
          "before": " ",
          "after": " "
        },
        {
          "index": 3,
          "word": "American",
          "originalText": "American",
          "characterOffsetBegin": 13,
          "characterOffsetEnd": 21,
          "pos": "FM",
          "before": " ",
          "after": " "
        },
        {
          "index": 4,
          "word": "Journalist",
          "originalText": "Journalist",
          "characterOffsetBegin": 22,
          "characterOffsetEnd": 32,
          "pos": "NN",
          "before": " ",
          "after": " "
        },
        {
          "index": 5,
          "word": "James",
          "originalText": "James",
          "characterOffsetBegin": 33,
          "characterOffsetEnd": 38,
          "pos": "NE",
          "before": " ",
          "after": " "
        },
        {
          "index": 6,
          "word": "Foley",
          "originalText": "Foley",
          "characterOffsetBegin": 39,
          "characterOffsetEnd": 44,
          "pos": "NE",
          "before": " ",
          "after": " "
        },
        {
          "index": 7,
          "word": "in",
          "originalText": "in",
          "characterOffsetBegin": 45,
          "characterOffsetEnd": 47,
          "pos": "APPR",
          "before": " ",
          "after": " "
        },
        {
          "index": 8,
          "word": "Video",
          "originalText": "Video",
          "characterOffsetBegin": 48,
          "characterOffsetEnd": 53,
          "pos": "NN",
          "before": " ",
          "after": " "
        },
        {
          "index": 9,
          "word": "Nachricht",
          "originalText": "Nachricht",
          "characterOffsetBegin": 54,
          "characterOffsetEnd": 63,
          "pos": "NN",
          "before": " ",
          "after": " "
        },
        {
          "index": 10,
          "word": "an",
          "originalText": "an",
          "characterOffsetBegin": 64,
          "characterOffsetEnd": 66,
          "pos": "APPR",
          "before": " ",
          "after": " "
        },
        {
          "index": 11,
          "word": "U.S.",
          "originalText": "U.S.",
          "characterOffsetBegin": 67,
          "characterOffsetEnd": 71,
          "pos": "NE",
          "before": " ",
          "after": ""
        }
      ]
    }
  ]
}