{
  "sentences": [
    {
      "index": 0,
      "basicDependencies": [
        {
          "dep": "ROOT",
          "governor": 0,
          "governorGloss": "ROOT",
          "dependent": 3,
          "dependentGloss": "fliegt"
        },
        {
          "dep": "amod",
          "governor": 2,
          "governorGloss": "Staat",
          "dependent": 1,
          "dependentGloss": "Islamischer"
        },
        {
          "dep": "nsubj",
          "governor": 3,
          "governorGloss": "fliegt",
          "dependent": 2,
          "dependentGloss": "Staat"
        },
        {
          "dep": "nummod",
          "governor": 5,
          "governorGloss": "Jets",
          "dependent": 4,
          "dependentGloss": "drei"
        },
        {
          "dep": "dobj",
          "governor": 3,
          "governorGloss": "fliegt",
          "dependent": 5,
          "dependentGloss": "Jets"
        },
        {
          "dep": "case",
          "governor": 7,
          "governorGloss": "Syrien",
          "dependent": 6,
          "dependentGloss": "in"
        },
        {
          "dep": "nmod",
          "governor": 3,
          "governorGloss": "fliegt",
          "dependent": 7,
          "dependentGloss": "Syrien"
        },
        {
          "dep": "punct",
          "governor": 3,
          "governorGloss": "fliegt",
          "dependent": 8,
          "dependentGloss": ":"
        },
        {
          "dep": "nmod",
          "governor": 3,
          "governorGloss": "fliegt",
          "dependent": 9,
          "dependentGloss": "Monitor"
        }
      ],
      "enhancedDependencies": [
        {
          "dep": "ROOT",
          "governor": 0,
          "governorGloss": "ROOT",
          "dependent": 3,
          "dependentGloss": "fliegt"
        },
        {
          "dep": "amod",
          "governor": 2,
          "governorGloss": "Staat",
          "dependent": 1,
          "dependentGloss": "Islamischer"
        },
        {
          "dep": "nsubj",
          "governor": 3,
          "governorGloss": "fliegt",
          "dependent": 2,
          "dependentGloss": "Staat"
        },
        {
          "dep": "nummod",
          "governor": 5,
          "governorGloss": "Jets",
          "dependent": 4,
          "dependentGloss": "drei"
        },
        {
          "dep": "dobj",
          "governor": 3,
          "governorGloss": "fliegt",
          "dependent": 5,
          "dependentGloss": "Jets"
        },
        {
          "dep": "case",
          "governor": 7,
          "governorGloss": "Syrien",
          "dependent": 6,
          "dependentGloss": "in"
        },
        {
          "dep": "nmod",
          "governor": 3,
          "governorGloss": "fliegt",
          "dependent": 7,
          "dependentGloss": "Syrien"
        },
        {
          "dep": "punct",
          "governor": 3,
          "governorGloss": "fliegt",
          "dependent": 8,
          "dependentGloss": ":"
        },
        {
          "dep": "nmod",
          "governor": 3,
          "governorGloss": "fliegt",
          "dependent": 9,
          "dependentGloss": "Monitor"
        }
      ],
      "enhancedPlusPlusDependencies": [
        {
          "dep": "ROOT",
          "governor": 0,
          "governorGloss": "ROOT",
          "dependent": 3,
          "dependentGloss": "fliegt"
        },
        {
          "dep": "amod",
          "governor": 2,
          "governorGloss": "Staat",
          "dependent": 1,
          "dependentGloss": "Islamischer"
        },
        {
          "dep": "nsubj",
          "governor": 3,
          "governorGloss": "fliegt",
          "dependent": 2,
          "dependentGloss": "Staat"
        },
        {
          "dep": "nummod",
          "governor": 5,
          "governorGloss": "Jets",
          "dependent": 4,
          "dependentGloss": "drei"
        },
        {
          "dep": "dobj",
          "governor": 3,
          "governorGloss": "fliegt",
          "dependent": 5,
          "dependentGloss": "Jets"
        },
        {
          "dep": "case",
          "governor": 7,
          "governorGloss": "Syrien",
          "dependent": 6,
          "dependentGloss": "in"
        },
        {
          "dep": "nmod",
          "governor": 3,
          "governorGloss": "fliegt",
          "dependent": 7,
          "dependentGloss": "Syrien"
        },
        {
          "dep": "punct",
          "governor": 3,
          "governorGloss": "fliegt",
          "dependent": 8,
          "dependentGloss": ":"
        },
        {
          "dep": "nmod",
          "governor": 3,
          "governorGloss": "fliegt",
          "dependent": 9,
          "dependentGloss": "Monitor"
        }
      ],
      "tokens": [
        {
          "index": 1,
          "word": "Islamischer",
          "originalText": "Islamischer",
          "characterOffsetBegin": 0,
          "characterOffsetEnd": 11,
          "pos": "ADJA",
          "before": "",
          "after": " "
        },
        {
          "index": 2,
          "word": "Staat",
          "originalText": "Staat",
          "characterOffsetBegin": 12,
          "characterOffsetEnd": 17,
          "pos": "NN",
          "before": " ",
          "after": " "
        },
        {
          "index": 3,
          "word": "fliegt",
          "originalText": "fliegt",
          "characterOffsetBegin": 18,
          "characterOffsetEnd": 24,
          "pos": "VVFIN",
          "before": " ",
          "after": " "
        },
        {
          "index": 4,
          "word": "drei",
          "originalText": "drei",
          "characterOffsetBegin": 25,
          "characterOffsetEnd": 29,
          "pos": "CARD",
          "before": " ",
          "after": " "
        },
        {
          "index": 5,
          "word": "Jets",
          "originalText": "Jets",
          "characterOffsetBegin": 30,
          "characterOffsetEnd": 34,
          "pos": "NN",
          "before": " ",
          "after": " "
        },
        {
          "index": 6,
          "word": "in",
          "originalText": "in",
          "characterOffsetBegin": 35,
          "characterOffsetEnd": 37,
          "pos": "APPR",
          "before": " ",
          "after": " "
        },
        {
          "index": 7,
          "word": "Syrien",
          "originalText": "Syrien",
          "characterOffsetBegin": 38,
          "characterOffsetEnd": 44,
          "pos": "NE",
          "before": " ",
          "after": ""
        },
        {
          "index": 8,
          "word": ":",
          "originalText": ":",
          "characterOffsetBegin": 44,
          "characterOffsetEnd": 45,
          "pos": "$.",
          "before": "",
          "after": " "
        },
        {
          "index": 9,
          "word": "Monitor",
          "originalText": "Monitor",
          "characterOffsetBegin": 46,
          "characterOffsetEnd": 53,
          "pos": "NN",
          "before": " ",
          "after": ""
        }
      ]
    }
  ]
}