{
  "sentences": [
    {
      "index": 0,
      "basicDependencies": [
        {
          "dep": "ROOT",
          "governor": 0,
          "governorGloss": "ROOT",
          "dependent": 9,
          "dependentGloss": "Vertrag"
        },
        {
          "dep": "name",
          "governor": 2,
          "governorGloss": "Pflanze",
          "dependent": 1,
          "dependentGloss": "Robert"
        },
        {
          "dep": "nsubj",
          "governor": 9,
          "governorGloss": "Vertrag",
          "dependent": 2,
          "dependentGloss": "Pflanze"
        },
        {
          "dep": "advmod",
          "governor": 4,
          "governorGloss": "zerrissen",
          "dependent": 3,
          "dependentGloss": "buchstäblich"
        },
        {
          "dep": "advmod",
          "governor": 9,
          "governorGloss": "Vertrag",
          "dependent": 4,
          "dependentGloss": "zerrissen"
        },
        {
          "dep": "nummod",
          "governor": 6,
          "governorGloss": "$",
          "dependent": 5,
          "dependentGloss": "oben"
        },
        {
          "dep": "nmod",
          "governor": 9,
          "governorGloss": "Vertrag",
          "dependent": 6,
          "dependentGloss": "$"
        },
        {
          "dep": "nummod",
          "governor": 8,
          "governorGloss": "Million",
          "dependent": 7,
          "dependentGloss": "800"
        },
        {
          "dep": "nmod",
          "governor": 9,
          "governorGloss": "Vertrag",
          "dependent": 8,
          "dependentGloss": "Million"
        },
        {
          "dep": "punct",
          "governor": 9,
          "governorGloss": "Vertrag",
          "dependent": 10,
          "dependentGloss": ","
        },
        {
          "dep": "mark",
          "governor": 16,
          "governorGloss": "vereinigen",
          "dependent": 11,
          "dependentGloss": "um"
        },
        {
          "dep": "amod",
          "governor": 13,
          "governorGloss": "Zeppelin",
          "dependent": 12,
          "dependentGloss": "Led"
        },
        {
          "dep": "dobj",
          "governor": 16,
          "governorGloss": "vereinigen",
          "dependent": 13,
          "dependentGloss": "Zeppelin"
        },
        {
          "dep": "advmod",
          "governor": 16,
          "governorGloss": "vereinigen",
          "dependent": 14,
          "dependentGloss": "wieder"
        },
        {
          "dep": "aux",
          "governor": 16,
          "governorGloss": "vereinigen",
          "dependent": 15,
          "dependentGloss": "zu"
        },
        {
          "dep": "advcl",
          "governor": 9,
          "governorGloss": "Vertrag",
          "dependent": 16,
          "dependentGloss": "vereinigen"
        }
      ],
      "enhancedDependencies": [
        {
          "dep": "ROOT",
          "governor": 0,
          "governorGloss": "ROOT",
          "dependent": 9,
          "dependentGloss": "Vertrag"
        },
        {
          "dep": "name",
          "governor": 2,
          "governorGloss": "Pflanze",
          "dependent": 1,
          "dependentGloss": "Robert"
        },
        {
          "dep": "nsubj",
          "governor": 9,
          "governorGloss": "Vertrag",
          "dependent": 2,
          "dependentGloss": "Pflanze"
        },
        {
          "dep": "advmod",
          "governor": 4,
          "governorGloss": "zerrissen",
          "dependent": 3,
          "dependentGloss": "buchstäblich"
        },
        {
          "dep": "advmod",
          "governor": 9,
          "governorGloss": "Vertrag",
          "dependent": 4,
          "dependentGloss": "zerrissen"
        },
        {
          "dep": "nummod",
          "governor": 6,
          "governorGloss": "$",
          "dependent": 5,
          "dependentGloss": "oben"
        },
        {
          "dep": "nmod",
          "governor": 9,
          "governorGloss": "Vertrag",
          "dependent": 6,
          "dependentGloss": "$"
        },
        {
          "dep": "nummod",
          "governor": 8,
          "governorGloss": "Million",
          "dependent": 7,
          "dependentGloss": "800"
        },
        {
          "dep": "nmod",
          "governor": 9,
          "governorGloss": "Vertrag",
          "dependent": 8,
          "dependentGloss": "Million"
        },
        {
          "dep": "punct",
          "governor": 9,
          "governorGloss": "Vertrag",
          "dependent": 10,
          "dependentGloss": ","
        },
        {
          "dep": "mark",
          "governor": 16,
          "governorGloss": "vereinigen",
          "dependent": 11,
          "dependentGloss": "um"
        },
        {
          "dep": "amod",
          "governor": 13,
          "governorGloss": "Zeppelin",
          "dependent": 12,
          "dependentGloss": "Led"
        },
        {
          "dep": "dobj",
          "governor": 16,
          "governorGloss": "vereinigen",
          "dependent": 13,
          "dependentGloss": "Zeppelin"
        },
        {
          "dep": "advmod",
          "governor": 16,
          "governorGloss": "vereinigen",
          "dependent": 14,
          "dependentGloss": "wieder"
        },
        {
          "dep": "aux",
          "governor": 16,
          "governorGloss": "vereinigen",
          "dependent": 15,
          "dependentGloss": "zu"
        },
        {
          "dep": "advcl",
          "governor": 9,
          "governorGloss": "Vertrag",
          "dependent": 16,
          "dependentGloss": "vereinigen"
        }
      ],
      "enhancedPlusPlusDependencies": [
        {
          "dep": "ROOT",
          "governor": 0,
          "governorGloss": "ROOT",
          "dependent": 9,
          "dependentGloss": "Vertrag"
        },
        {
          "dep": "name",
          "governor": 2,
          "governorGloss": "Pflanze",
          "dependent": 1,
          "dependentGloss": "Robert"
        },
        {
          "dep": "nsubj",
          "governor": 9,
          "governorGloss": "Vertrag",
          "dependent": 2,
          "dependentGloss": "Pflanze"
        },
        {
          "dep": "advmod",
          "governor": 4,
          "governorGloss": "zerrissen",
          "dependent": 3,
          "dependentGloss": "buchstäblich"
        },
        {
          "dep": "advmod",
          "governor": 9,
          "governorGloss": "Vertrag",
          "dependent": 4,
          "dependentGloss": "zerrissen"
        },
        {
          "dep": "nummod",
          "governor": 6,
          "governorGloss": "$",
          "dependent": 5,
          "dependentGloss": "oben"
        },
        {
          "dep": "nmod",
          "governor": 9,
          "governorGloss": "Vertrag",
          "dependent": 6,
          "dependentGloss": "$"
        },
        {
          "dep": "nummod",
          "governor": 8,
          "governorGloss": "Million",
          "dependent": 7,
          "dependentGloss": "800"
        },
        {
          "dep": "nmod",
          "governor": 9,
          "governorGloss": "Vertrag",
          "dependent": 8,
          "dependentGloss": "Million"
        },
        {
          "dep": "punct",
          "governor": 9,
          "governorGloss": "Vertrag",
          "dependent": 10,
          "dependentGloss": ","
        },
        {
          "dep": "mark",
          "governor": 16,
          "governorGloss": "vereinigen",
          "dependent": 11,
          "dependentGloss": "um"
        },
        {
          "dep": "amod",
          "governor": 13,
          "governorGloss": "Zeppelin",
          "dependent": 12,
          "dependentGloss": "Led"
        },
        {
          "dep": "dobj",
          "governor": 16,
          "governorGloss": "vereinigen",
          "dependent": 13,
          "dependentGloss": "Zeppelin"
        },
        {
          "dep": "advmod",
          "governor": 16,
          "governorGloss": "vereinigen",
          "dependent": 14,
          "dependentGloss": "wieder"
        },
        {
          "dep": "aux",
          "governor": 16,
          "governorGloss": "vereinigen",
          "dependent": 15,
          "dependentGloss": "zu"
        },
        {
          "dep": "advcl",
          "governor": 9,
          "governorGloss": "Vertrag",
          "dependent": 16,
          "dependentGloss": "vereinigen"
        }
      ],
      "tokens": [
        {
          "index": 1,
          "word": "Robert",
          "originalText": "Robert",
          "characterOffsetBegin": 0,
          "characterOffsetEnd": 6,
          "pos": "NE",
          "before": "",
          "after": " "
        },
        {
          "index": 2,
          "word": "Pflanze",
          "originalText": "Pflanze",
          "characterOffsetBegin": 7,
          "characterOffsetEnd": 14,
          "pos": "NN",
          "before": " ",
          "after": " "
        },
        {
          "index": 3,
          "word": "buchstäblich",
          "originalText": "buchstäblich",
          "characterOffsetBegin": 15,
          "characterOffsetEnd": 27,
          "pos": "ADJD",
          "before": " ",
          "after": " "
        },
        {
          "index": 4,
          "word": "zerrissen",
          "originalText": "zerrissen",
          "characterOffsetBegin": 28,
          "characterOffsetEnd": 37,
          "pos": "VVPP",
          "before": " ",
          "after": " "
        },
        {
          "index": 5,
          "word": "oben",
          "originalText": "oben",
          "characterOffsetBegin": 38,
          "characterOffsetEnd": 42,
          "pos": "ADV",
          "before": " ",
          "after": " "
        },
        {
          "index": 6,
          "word": "$",
          "originalText": "$",
          "characterOffsetBegin": 43,
          "characterOffsetEnd": 44,
          "pos": "XY",
          "before": " ",
          "after": " "
        },
        {
          "index": 7,
          "word": "800",
          "originalText": "800",
          "characterOffsetBegin": 45,
          "characterOffsetEnd": 48,
          "pos": "CARD",
          "before": " ",
          "after": " "
        },
        {
          "index": 8,
          "word": "Million",
          "originalText": "Million",
          "characterOffsetBegin": 49,
          "characterOffsetEnd": 56,
          "pos": "NN",
          "before": " ",
          "after": " "
        },
        {
          "index": 9,
          "word": "Vertrag",
          "originalText": "Vertrag",
          "characterOffsetBegin": 57,
          "characterOffsetEnd": 64,
          "pos": "NN",
          "before": " ",
          "after": ""
        },
        {
          "index": 10,
          "word": ",",
          "originalText": ",",
          "characterOffsetBegin": 64,
          "characterOffsetEnd": 65,
          "pos": "$,",
          "before": "",
          "after": " "
        },
        {
          "index": 11,
          "word": "um",
          "originalText": "um",
          "characterOffsetBegin": 66,
          "characterOffsetEnd": 68,
          "pos": "KOUI",
          "before": " ",
          "after": " "
        },
        {
          "index": 12,
          "word": "Led",
          "originalText": "Led",
          "characterOffsetBegin": 69,
          "characterOffsetEnd": 72,
          "pos": "NE",
          "before": " ",
          "after": " "
        },
        {
          "index": 13,
          "word": "Zeppelin",
          "originalText": "Zeppelin",
          "characterOffsetBegin": 73,
          "characterOffsetEnd": 81,
          "pos": "NE",
          "before": " ",
          "after": " "
        },
        {
          "index": 14,
          "word": "wieder",
          "originalText": "wieder",
          "characterOffsetBegin": 82,
          "characterOffsetEnd": 88,
          "pos": "ADV",
          "before": " ",
          "after": " "
        },
        {
          "index": 15,
          "word": "zu",
          "originalText": "zu",
          "characterOffsetBegin": 89,
          "characterOffsetEnd": 91,
          "pos": "PTKZU",
          "before": " ",
          "after": " "
        },
        {
          "index": 16,
          "word": "vereinigen",
          "originalText": "vereinigen",
          "characterOffsetBegin": 92,
          "characterOffsetEnd": 102,
          "pos": "VVINF",
          "before": " ",
          "after": ""
        }
      ]
    }
  ]
}