{
  "sentences": [
    {
      "index": 0,
      "basicDependencies": [
        {
          "dep": "ROOT",
          "governor": 0,
          "governorGloss": "ROOT",
          "dependent": 1,
          "dependentGloss": "Audio"
        },
        {
          "dep": "case",
          "governor": 3,
          "governorGloss": "Schusswaffe",
          "dependent": 2,
          "dependentGloss": "von"
        },
        {
          "dep": "nmod",
          "governor": 7,
          "governorGloss": "Fall",
          "dependent": 3,
          "dependentGloss": "Schusswaffe"
        },
        {
          "dep": "case",
          "governor": 6,
          "governorGloss": "Brown",
          "dependent": 4,
          "dependentGloss": "in"
        },
        {
          "dep": "name",
          "governor": 6,
          "governorGloss": "Brown",
          "dependent": 5,
          "dependentGloss": "Michael"
        },
        {
          "dep": "nmod",
          "governor": 7,
          "governorGloss": "Fall",
          "dependent": 6,
          "dependentGloss": "Brown"
        },
        {
          "dep": "appos",
          "governor": 1,
          "governorGloss": "Audio",
          "dependent": 7,
          "dependentGloss": "Fall"
        },
        {
          "dep": "nsubj",
          "governor": 7,
          "governorGloss": "Fall",
          "dependent": 8,
          "dependentGloss": "authentifiziert"
        },
        {
          "dep": "case",
          "governor": 11,
          "governorGloss": "Unternehmen",
          "dependent": 9,
          "dependentGloss": "von"
        },
        {
          "dep": "amod",
          "governor": 11,
          "governorGloss": "Unternehmen",
          "dependent": 10,
          "dependentGloss": "app"
        },
        {
          "dep": "nmod",
          "governor": 7,
          "governorGloss": "Fall",
          "dependent": 11,
          "dependentGloss": "Unternehmen"
        }
      ],
      "enhancedDependencies": [
        {
          "dep": "ROOT",
          "governor": 0,
          "governorGloss": "ROOT",
          "dependent": 1,
          "dependentGloss": "Audio"
        },
        {
          "dep": "case",
          "governor": 3,
          "governorGloss": "Schusswaffe",
          "dependent": 2,
          "dependentGloss": "von"
        },
        {
          "dep": "nmod",
          "governor": 7,
          "governorGloss": "Fall",
          "dependent": 3,
          "dependentGloss": "Schusswaffe"
        },
        {
          "dep": "case",
          "governor": 6,
          "governorGloss": "Brown",
          "dependent": 4,
          "dependentGloss": "in"
        },
        {
          "dep": "name",
          "governor": 6,
          "governorGloss": "Brown",
          "dependent": 5,
          "dependentGloss": "Michael"
        },
        {
          "dep": "nmod",
          "governor": 7,
          "governorGloss": "Fall",
          "dependent": 6,
          "dependentGloss": "Brown"
        },
        {
          "dep": "appos",
          "governor": 1,
          "governorGloss": "Audio",
          "dependent": 7,
          "dependentGloss": "Fall"
        },
        {
          "dep": "nsubj",
          "governor": 7,
          "governorGloss": "Fall",
          "dependent": 8,
          "dependentGloss": "authentifiziert"
        },
        {
          "dep": "case",
          "governor": 11,
          "governorGloss": "Unternehmen",
          "dependent": 9,
          "dependentGloss": "von"
        },
        {
          "dep": "amod",
          "governor": 11,
          "governorGloss": "Unternehmen",
          "dependent": 10,
          "dependentGloss": "app"
        },
        {
          "dep": "nmod",
          "governor": 7,
          "governorGloss": "Fall",
          "dependent": 11,
          "dependentGloss": "Unternehmen"
        }
      ],
      "enhancedPlusPlusDependencies": [
        {
          "dep": "ROOT",
          "governor": 0,
          "governorGloss": "ROOT",
          "dependent": 1,
          "dependentGloss": "Audio"
        },
        {
          "dep": "case",
          "governor": 3,
          "governorGloss": "Schusswaffe",
          "dependent": 2,
          "dependentGloss": "von"
        },
        {
          "dep": "nmod",
          "governor": 7,
          "governorGloss": "Fall",
          "dependent": 3,
          "dependentGloss": "Schusswaffe"
        },
        {
          "dep": "case",
          "governor": 6,
          "governorGloss": "Brown",
          "dependent": 4,
          "dependentGloss": "in"
        },
        {
          "dep": "name",
          "governor": 6,
          "governorGloss": "Brown",
          "dependent": 5,
          "dependentGloss": "Michael"
        },
        {
          "dep": "nmod",
          "governor": 7,
          "governorGloss": "Fall",
          "dependent": 6,
          "dependentGloss": "Brown"
        },
        {
          "dep": "appos",
          "governor": 1,
          "governorGloss": "Audio",
          "dependent": 7,
          "dependentGloss": "Fall"
        },
        {
          "dep": "nsubj",
          "governor": 7,
          "governorGloss": "Fall",
          "dependent": 8,
          "dependentGloss": "authentifiziert"
        },
        {
          "dep": "case",
          "governor": 11,
          "governorGloss": "Unternehmen",
          "dependent": 9,
          "dependentGloss": "von"
        },
        {
          "dep": "amod",
          "governor": 11,
          "governorGloss": "Unternehmen",
          "dependent": 10,
          "dependentGloss": "app"
        },
        {
          "dep": "nmod",
          "governor": 7,
          "governorGloss": "Fall",
          "dependent": 11,
          "dependentGloss": "Unternehmen"
        }
      ],
      "tokens": [
        {
          "index": 1,
          "word": "Audio",
          "originalText": "Audio",
          "characterOffsetBegin": 0,
          "characterOffsetEnd": 5,
          "pos": "NN",
          "before": "",
          "after": " "
        },
        {
          "index": 2,
          "word": "von",
          "originalText": "von",
          "characterOffsetBegin": 6,
          "characterOffsetEnd": 9,
          "pos": "APPR",
          "before": " ",
          "after": " "
        },
        {
          "index": 3,
          "word": "Schusswaffe",
          "originalText": "Schusswaffe",
          "characterOffsetBegin": 10,
          "characterOffsetEnd": 21,
          "pos": "NN",
          "before": " ",
          "after": " "
        },
        {
          "index": 4,
          "word": "in",
          "originalText": "in",
          "characterOffsetBegin": 22,
          "characterOffsetEnd": 24,
          "pos": "APPR",
          "before": " ",
          "after": " "
        },
        {
          "index": 5,
          "word": "Michael",
          "originalText": "Michael",
          "characterOffsetBegin": 25,
          "characterOffsetEnd": 32,
          "pos": "NE",
          "before": " ",
          "after": " "
        },
        {
          "index": 6,
          "word": "Brown",
          "originalText": "Brown",
          "characterOffsetBegin": 33,
          "characterOffsetEnd": 38,
          "pos": "NE",
          "before": " ",
          "after": " "
        },
        {
          "index": 7,
          "word": "Fall",
          "originalText": "Fall",
          "characterOffsetBegin": 39,
          "characterOffsetEnd": 43,
          "pos": "NN",
          "before": " ",
          "after": " "
        },
        {
          "index": 8,
          "word": "authentifiziert",
          "originalText": "authentifiziert",
          "characterOffsetBegin": 44,
          "characterOffsetEnd": 59,
          "pos": "VVPP",
          "before": " ",
          "after": " "
        },
        {
          "index": 9,
          "word": "von",
          "originalText": "von",
          "characterOffsetBegin": 60,
          "characterOffsetEnd": 63,
          "pos": "APPR",
          "before": " ",
          "after": " "
        },
        {
          "index": 10,
          "word": "app",
          "originalText": "app",
          "characterOffsetBegin": 64,
          "characterOffsetEnd": 67,
          "pos": "NE",
          "before": " ",
          "after": " "
        },
        {
          "index": 11,
          "word": "Unternehmen",
          "originalText": "Unternehmen",
          "characterOffsetBegin": 68,
          "characterOffsetEnd": 79,
          "pos": "NN",
          "before": " ",
          "after": ""
        }
      ]
    }
  ]
}