{
  "sentences": [
    {
      "index": 0,
      "basicDependencies": [
        {
          "dep": "ROOT",
          "governor": 0,
          "governorGloss": "ROOT",
          "dependent": 3,
          "dependentGloss": "gehend"
        },
        {
          "dep": "nsubjpass",
          "governor": 3,
          "governorGloss": "gehend",
          "dependent": 1,
          "dependentGloss": "Amazon"
        },
        {
          "dep": "auxpass",
          "governor": 3,
          "governorGloss": "gehend",
          "dependent": 2,
          "dependentGloss": "wird"
        },
        {
          "dep": "punct",
          "governor": 3,
          "governorGloss": "gehend",
          "dependent": 4,
          "dependentGloss": ","
        },
        {
          "dep": "det",
          "governor": 7,
          "governorGloss": "Speicher",
          "dependent": 5,
          "dependentGloss": "einen"
        },
        {
          "dep": "amod",
          "governor": 7,
          "governorGloss": "Speicher",
          "dependent": 6,
          "dependentGloss": "körperlichen"
        },
        {
          "dep": "dobj",
          "governor": 9,
          "governorGloss": "öffnen",
          "dependent": 7,
          "dependentGloss": "Speicher"
        },
        {
          "dep": "aux",
          "governor": 9,
          "governorGloss": "öffnen",
          "dependent": 8,
          "dependentGloss": "zu"
        },
        {
          "dep": "xcomp",
          "governor": 3,
          "governorGloss": "gehend",
          "dependent": 9,
          "dependentGloss": "öffnen"
        },
        {
          "dep": "punct",
          "governor": 3,
          "governorGloss": "gehend",
          "dependent": 10,
          "dependentGloss": "!"
        }
      ],
      "enhancedDependencies": [
        {
          "dep": "ROOT",
          "governor": 0,
          "governorGloss": "ROOT",
          "dependent": 3,
          "dependentGloss": "gehend"
        },
        {
          "dep": "nsubjpass",
          "governor": 3,
          "governorGloss": "gehend",
          "dependent": 1,
          "dependentGloss": "Amazon"
        },
        {
          "dep": "auxpass",
          "governor": 3,
          "governorGloss": "gehend",
          "dependent": 2,
          "dependentGloss": "wird"
        },
        {
          "dep": "punct",
          "governor": 3,
          "governorGloss": "gehend",
          "dependent": 4,
          "dependentGloss": ","
        },
        {
          "dep": "det",
          "governor": 7,
          "governorGloss": "Speicher",
          "dependent": 5,
          "dependentGloss": "einen"
        },
        {
          "dep": "amod",
          "governor": 7,
          "governorGloss": "Speicher",
          "dependent": 6,
          "dependentGloss": "körperlichen"
        },
        {
          "dep": "dobj",
          "governor": 9,
          "governorGloss": "öffnen",
          "dependent": 7,
          "dependentGloss": "Speicher"
        },
        {
          "dep": "aux",
          "governor": 9,
          "governorGloss": "öffnen",
          "dependent": 8,
          "dependentGloss": "zu"
        },
        {
          "dep": "xcomp",
          "governor": 3,
          "governorGloss": "gehend",
          "dependent": 9,
          "dependentGloss": "öffnen"
        },
        {
          "dep": "punct",
          "governor": 3,
          "governorGloss": "gehend",
          "dependent": 10,
          "dependentGloss": "!"
        }
      ],
      "enhancedPlusPlusDependencies": [
        {
          "dep": "ROOT",
          "governor": 0,
          "governorGloss": "ROOT",
          "dependent": 3,
          "dependentGloss": "gehend"
        },
        {
          "dep": "nsubjpass",
          "governor": 3,
          "governorGloss": "gehend",
          "dependent": 1,
          "dependentGloss": "Amazon"
        },
        {
          "dep": "auxpass",
          "governor": 3,
          "governorGloss": "gehend",
          "dependent": 2,
          "dependentGloss": "wird"
        },
        {
          "dep": "punct",
          "governor": 3,
          "governorGloss": "gehend",
          "dependent": 4,
          "dependentGloss": ","
        },
        {
          "dep": "det",
          "governor": 7,
          "governorGloss": "Speicher",
          "dependent": 5,
          "dependentGloss": "einen"
        },
        {
          "dep": "amod",
          "governor": 7,
          "governorGloss": "Speicher",
          "dependent": 6,
          "dependentGloss": "körperlichen"
        },
        {
          "dep": "dobj",
          "governor": 9,
          "governorGloss": "öffnen",
          "dependent": 7,
          "dependentGloss": "Speicher"
        },
        {
          "dep": "aux",
          "governor": 9,
          "governorGloss": "öffnen",
          "dependent": 8,
          "dependentGloss": "zu"
        },
        {
          "dep": "xcomp",
          "governor": 3,
          "governorGloss": "gehend",
          "dependent": 9,
          "dependentGloss": "öffnen"
        },
        {
          "dep": "punct",
          "governor": 3,
          "governorGloss": "gehend",
          "dependent": 10,
          "dependentGloss": "!"
        }
      ],
      "tokens": [
        {
          "index": 1,
          "word": "Amazon",
          "originalText": "Amazon",
          "characterOffsetBegin": 0,
          "characterOffsetEnd": 6,
          "pos": "NE",
          "before": "",
          "after": " "
        },
        {
          "index": 2,
          "word": "wird",
          "originalText": "wird",
          "characterOffsetBegin": 7,
          "characterOffsetEnd": 11,
          "pos": "VAFIN",
          "before": " ",
          "after": " "
        },
        {
          "index": 3,
          "word": "gehend",
          "originalText": "gehend",
          "characterOffsetBegin": 12,
          "characterOffsetEnd": 18,
          "pos": "ADJD",
          "before": " ",
          "after": ""
        },
        {
          "index": 4,
          "word": ",",
          "originalText": ",",
          "characterOffsetBegin": 18,
          "characterOffsetEnd": 19,
          "pos": "$,",
          "before": "",
          "after": " "
        },
        {
          "index": 5,
          "word": "einen",
          "originalText": "einen",
          "characterOffsetBegin": 20,
          "characterOffsetEnd": 25,
          "pos": "ART",
          "before": " ",
          "after": " "
        },
        {
          "index": 6,
          "word": "körperlichen",
          "originalText": "körperlichen",
          "characterOffsetBegin": 26,
          "characterOffsetEnd": 38,
          "pos": "ADJA",
          "before": " ",
          "after": " "
        },
        {
          "index": 7,
          "word": "Speicher",
          "originalText": "Speicher",
          "characterOffsetBegin": 39,
          "characterOffsetEnd": 47,
          "pos": "NN",
          "before": " ",
          "after": " "
        },
        {
          "index": 8,
          "word": "zu",
          "originalText": "zu",
          "characterOffsetBegin": 48,
          "characterOffsetEnd": 50,
          "pos": "PTKZU",
          "before": " ",
          "after": " "
        },
        {
          "index": 9,
          "word": "öffnen",
          "originalText": "öffnen",
          "characterOffsetBegin": 51,
          "characterOffsetEnd": 57,
          "pos": "VVINF",
          "before": " ",
          "after": ""
        },
        {
          "index": 10,
          "word": "!",
          "originalText": "!",
          "characterOffsetBegin": 57,
          "characterOffsetEnd": 58,
          "pos": "$.",
          "before": "",
          "after": ""
        }
      ]
    }
  ]
}