{
  "sentences": [
    {
      "index": 0,
      "basicDependencies": [
        {
          "dep": "ROOT",
          "governor": 0,
          "governorGloss": "ROOT",
          "dependent": 2,
          "dependentGloss": "sagt"
        },
        {
          "dep": "nsubj",
          "governor": 2,
          "governorGloss": "sagt",
          "dependent": 1,
          "dependentGloss": "Saudi-Kleriker"
        },
        {
          "dep": "punct",
          "governor": 2,
          "governorGloss": "sagt",
          "dependent": 3,
          "dependentGloss": ","
        },
        {
          "dep": "mark",
          "governor": 6,
          "governorGloss": "anti-islamisch",
          "dependent": 4,
          "dependentGloss": "dass"
        },
        {
          "dep": "nsubj",
          "governor": 6,
          "governorGloss": "anti-islamisch",
          "dependent": 5,
          "dependentGloss": "Schneemänner"
        },
        {
          "dep": "ccomp",
          "governor": 2,
          "governorGloss": "sagt",
          "dependent": 6,
          "dependentGloss": "anti-islamisch"
        },
        {
          "dep": "cop",
          "governor": 6,
          "governorGloss": "anti-islamisch",
          "dependent": 7,
          "dependentGloss": "sind"
        }
      ],
      "enhancedDependencies": [
        {
          "dep": "ROOT",
          "governor": 0,
          "governorGloss": "ROOT",
          "dependent": 2,
          "dependentGloss": "sagt"
        },
        {
          "dep": "nsubj",
          "governor": 2,
          "governorGloss": "sagt",
          "dependent": 1,
          "dependentGloss": "Saudi-Kleriker"
        },
        {
          "dep": "punct",
          "governor": 2,
          "governorGloss": "sagt",
          "dependent": 3,
          "dependentGloss": ","
        },
        {
          "dep": "mark",
          "governor": 6,
          "governorGloss": "anti-islamisch",
          "dependent": 4,
          "dependentGloss": "dass"
        },
        {
          "dep": "nsubj",
          "governor": 6,
          "governorGloss": "anti-islamisch",
          "dependent": 5,
          "dependentGloss": "Schneemänner"
        },
        {
          "dep": "ccomp",
          "governor": 2,
          "governorGloss": "sagt",
          "dependent": 6,
          "dependentGloss": "anti-islamisch"
        },
        {
          "dep": "cop",
          "governor": 6,
          "governorGloss": "anti-islamisch",
          "dependent": 7,
          "dependentGloss": "sind"
        }
      ],
      "enhancedPlusPlusDependencies": [
        {
          "dep": "ROOT",
          "governor": 0,
          "governorGloss": "ROOT",
          "dependent": 2,
          "dependentGloss": "sagt"
        },
        {
          "dep": "nsubj",
          "governor": 2,
          "governorGloss": "sagt",
          "dependent": 1,
          "dependentGloss": "Saudi-Kleriker"
        },
        {
          "dep": "punct",
          "governor": 2,
          "governorGloss": "sagt",
          "dependent": 3,
          "dependentGloss": ","
        },
        {
          "dep": "mark",
          "governor": 6,
          "governorGloss": "anti-islamisch",
          "dependent": 4,
          "dependentGloss": "dass"
        },
        {
          "dep": "nsubj",
          "governor": 6,
          "governorGloss": "anti-islamisch",
          "dependent": 5,
          "dependentGloss": "Schneemänner"
        },
        {
          "dep": "ccomp",
          "governor": 2,
          "governorGloss": "sagt",
          "dependent": 6,
          "dependentGloss": "anti-islamisch"
        },
        {
          "dep": "cop",
          "governor": 6,
          "governorGloss": "anti-islamisch",
          "dependent": 7,
          "dependentGloss": "sind"
        }
      ],
      "tokens": [
        {
          "index": 1,
          "word": "Saudi-Kleriker",
          "originalText": "Saudi-Kleriker",
          "characterOffsetBegin": 0,
          "characterOffsetEnd": 14,
          "pos": "NN",
          "before": "",
          "after": " "
        },
        {
          "index": 2,
          "word": "sagt",
          "originalText": "sagt",
          "characterOffsetBegin": 15,
          "characterOffsetEnd": 19,
          "pos": "VVFIN",
          "before": " ",
          "after": ""
        },
        {
          "index": 3,
          "word": ",",
          "originalText": ",",
          "characterOffsetBegin": 19,
          "characterOffsetEnd": 20,
          "pos": "$,",
          "before": "",
          "after": " "
        },
        {
          "index": 4,
          "word": "dass",
          "originalText": "dass",
          "characterOffsetBegin": 21,
          "characterOffsetEnd": 25,
          "pos": "KOUS",
          "before": " ",
          "after": " "
        },
        {
          "index": 5,
          "word": "Schneemänner",
          "originalText": "Schneemänner",
          "characterOffsetBegin": 26,
          "characterOffsetEnd": 38,
          "pos": "NN",
          "before": " ",
          "after": " "
        },
        {
          "index": 6,
          "word": "anti-islamisch",
          "originalText": "anti-islamisch",
          "characterOffsetBegin": 39,
          "characterOffsetEnd": 53,
          "pos": "ADJD",
          "before": " ",
          "after": " "
        },
        {
          "index": 7,
          "word": "sind",
          "originalText": "sind",
          "characterOffsetBegin": 54,
          "characterOffsetEnd": 58,
          "pos": "VAFIN",
          "before": " ",
          "after": ""
        }
      ]
    }
  ]
}