{
  "sentences": [
    {
      "index": 0,
      "basicDependencies": [
        {
          "dep": "ROOT",
          "governor": 0,
          "governorGloss": "ROOT",
          "dependent": 2,
          "dependentGloss": "bezweifeln"
        },
        {
          "dep": "nsubj",
          "governor": 2,
          "governorGloss": "bezweifeln",
          "dependent": 1,
          "dependentGloss": "Nigerianer"
        },
        {
          "dep": "det",
          "governor": 4,
          "governorGloss": "Freilassung",
          "dependent": 3,
          "dependentGloss": "die"
        },
        {
          "dep": "dobj",
          "governor": 2,
          "governorGloss": "bezweifeln",
          "dependent": 4,
          "dependentGloss": "Freilassung"
        },
        {
          "dep": "det",
          "governor": 6,
          "governorGloss": "Mädchen",
          "dependent": 5,
          "dependentGloss": "der"
        },
        {
          "dep": "det",
          "governor": 4,
          "governorGloss": "Freilassung",
          "dependent": 6,
          "dependentGloss": "Mädchen"
        },
        {
          "dep": "case",
          "governor": 9,
          "governorGloss": "Haram",
          "dependent": 7,
          "dependentGloss": "nach"
        },
        {
          "dep": "amod",
          "governor": 9,
          "governorGloss": "Haram",
          "dependent": 8,
          "dependentGloss": "Boko"
        },
        {
          "dep": "nmod",
          "governor": 2,
          "governorGloss": "bezweifeln",
          "dependent": 9,
          "dependentGloss": "Haram"
        },
        {
          "dep": "punct",
          "governor": 11,
          "governorGloss": "Waffenstillstand",
          "dependent": 10,
          "dependentGloss": "`"
        },
        {
          "dep": "appos",
          "governor": 9,
          "governorGloss": "Haram",
          "dependent": 11,
          "dependentGloss": "Waffenstillstand"
        },
        {
          "dep": "punct",
          "governor": 11,
          "governorGloss": "Waffenstillstand",
          "dependent": 12,
          "dependentGloss": "'"
        },
        {
          "dep": "punct",
          "governor": 11,
          "governorGloss": "Waffenstillstand",
          "dependent": 13,
          "dependentGloss": "verletzt"
        }
      ],
      "enhancedDependencies": [
        {
          "dep": "ROOT",
          "governor": 0,
          "governorGloss": "ROOT",
          "dependent": 2,
          "dependentGloss": "bezweifeln"
        },
        {
          "dep": "nsubj",
          "governor": 2,
          "governorGloss": "bezweifeln",
          "dependent": 1,
          "dependentGloss": "Nigerianer"
        },
        {
          "dep": "det",
          "governor": 4,
          "governorGloss": "Freilassung",
          "dependent": 3,
          "dependentGloss": "die"
        },
        {
          "dep": "dobj",
          "governor": 2,
          "governorGloss": "bezweifeln",
          "dependent": 4,
          "dependentGloss": "Freilassung"
        },
        {
          "dep": "det",
          "governor": 6,
          "governorGloss": "Mädchen",
          "dependent": 5,
          "dependentGloss": "der"
        },
        {
          "dep": "det",
          "governor": 4,
          "governorGloss": "Freilassung",
          "dependent": 6,
          "dependentGloss": "Mädchen"
        },
        {
          "dep": "case",
          "governor": 9,
          "governorGloss": "Haram",
          "dependent": 7,
          "dependentGloss": "nach"
        },
        {
          "dep": "amod",
          "governor": 9,
          "governorGloss": "Haram",
          "dependent": 8,
          "dependentGloss": "Boko"
        },
        {
          "dep": "nmod",
          "governor": 2,
          "governorGloss": "bezweifeln",
          "dependent": 9,
          "dependentGloss": "Haram"
        },
        {
          "dep": "punct",
          "governor": 11,
          "governorGloss": "Waffenstillstand",
          "dependent": 10,
          "dependentGloss": "`"
        },
        {
          "dep": "appos",
          "governor": 9,
          "governorGloss": "Haram",
          "dependent": 11,
          "dependentGloss": "Waffenstillstand"
        },
        {
          "dep": "punct",
          "governor": 11,
          "governorGloss": "Waffenstillstand",
          "dependent": 12,
          "dependentGloss": "'"
        },
        {
          "dep": "punct",
          "governor": 11,
          "governorGloss": "Waffenstillstand",
          "dependent": 13,
          "dependentGloss": "verletzt"
        }
      ],
      "enhancedPlusPlusDependencies": [
        {
          "dep": "ROOT",
          "governor": 0,
          "governorGloss": "ROOT",
          "dependent": 2,
          "dependentGloss": "bezweifeln"
        },
        {
          "dep": "nsubj",
          "governor": 2,
          "governorGloss": "bezweifeln",
          "dependent": 1,
          "dependentGloss": "Nigerianer"
        },
        {
          "dep": "det",
          "governor": 4,
          "governorGloss": "Freilassung",
          "dependent": 3,
          "dependentGloss": "die"
        },
        {
          "dep": "dobj",
          "governor": 2,
          "governorGloss": "bezweifeln",
          "dependent": 4,
          "dependentGloss": "Freilassung"
        },
        {
          "dep": "det",
          "governor": 6,
          "governorGloss": "Mädchen",
          "dependent": 5,
          "dependentGloss": "der"
        },
        {
          "dep": "det",
          "governor": 4,
          "governorGloss": "Freilassung",
          "dependent": 6,
          "dependentGloss": "Mädchen"
        },
        {
          "dep": "case",
          "governor": 9,
          "governorGloss": "Haram",
          "dependent": 7,
          "dependentGloss": "nach"
        },
        {
          "dep": "amod",
          "governor": 9,
          "governorGloss": "Haram",
          "dependent": 8,
          "dependentGloss": "Boko"
        },
        {
          "dep": "nmod",
          "governor": 2,
          "governorGloss": "bezweifeln",
          "dependent": 9,
          "dependentGloss": "Haram"
        },
        {
          "dep": "punct",
          "governor": 11,
          "governorGloss": "Waffenstillstand",
          "dependent": 10,
          "dependentGloss": "`"
        },
        {
          "dep": "appos",
          "governor": 9,
          "governorGloss": "Haram",
          "dependent": 11,
          "dependentGloss": "Waffenstillstand"
        },
        {
          "dep": "punct",
          "governor": 11,
          "governorGloss": "Waffenstillstand",
          "dependent": 12,
          "dependentGloss": "'"
        },
        {
          "dep": "punct",
          "governor": 11,
          "governorGloss": "Waffenstillstand",
          "dependent": 13,
          "dependentGloss": "verletzt"
        }
      ],
      "tokens": [
        {
          "index": 1,
          "word": "Nigerianer",
          "originalText": "Nigerianer",
          "characterOffsetBegin": 0,
          "characterOffsetEnd": 10,
          "pos": "NN",
          "before": "",
          "after": " "
        },
        {
          "index": 2,
          "word": "bezweifeln",
          "originalText": "bezweifeln",
          "characterOffsetBegin": 11,
          "characterOffsetEnd": 21,
          "pos": "VVFIN",
          "before": " ",
          "after": " "
        },
        {
          "index": 3,
          "word": "die",
          "originalText": "die",
          "characterOffsetBegin": 22,
          "characterOffsetEnd": 25,
          "pos": "ART",
          "before": " ",
          "after": " "
        },
        {
          "index": 4,
          "word": "Freilassung",
          "originalText": "Freilassung",
          "characterOffsetBegin": 26,
          "characterOffsetEnd": 37,
          "pos": "NN",
          "before": " ",
          "after": " "
        },
        {
          "index": 5,
          "word": "der",
          "originalText": "der",
          "characterOffsetBegin": 38,
          "characterOffsetEnd": 41,
          "pos": "ART",
          "before": " ",
          "after": " "
        },
        {
          "index": 6,
          "word": "Mädchen",
          "originalText": "Mädchen",
          "characterOffsetBegin": 42,
          "characterOffsetEnd": 49,
          "pos": "NN",
          "before": " ",
          "after": " "
        },
        {
          "index": 7,
          "word": "nach",
          "originalText": "nach",
          "characterOffsetBegin": 50,
          "characterOffsetEnd": 54,
          "pos": "APPR",
          "before": " ",
          "after": " "
        },
        {
          "index": 8,
          "word": "Boko",
          "originalText": "Boko",
          "characterOffsetBegin": 55,
          "characterOffsetEnd": 59,
          "pos": "NE",
          "before": " ",
          "after": " "
        },
        {
          "index": 9,
          "word": "Haram",
          "originalText": "Haram",
          "characterOffsetBegin": 60,
          "characterOffsetEnd": 65,
          "pos": "NE",
          "before": " ",
          "after": " "
        },
        {
          "index": 10,
          "word": "`",
          "originalText": "'",
          "characterOffsetBegin": 66,
          "characterOffsetEnd": 67,
          "pos": "CARD",
          "before": " ",
          "after": ""
        },
        {
          "index": 11,
          "word": "Waffenstillstand",
          "originalText": "Waffenstillstand",
          "characterOffsetBegin": 67,
          "characterOffsetEnd": 83,
          "pos": "NN",
          "before": "",
          "after": ""
        },
        {
          "index": 12,
          "word": "'",
          "originalText": "'",
          "characterOffsetBegin": 83,
          "characterOffsetEnd": 84,
          "pos": "$[",
          "before": "",
          "after": " "
        },
        {
          "index": 13,
          "word": "verletzt",
          "originalText": "verletzt",
          "characterOffsetBegin": 85,
          "characterOffsetEnd": 93,
          "pos": "VVPP",
          "before": " ",
          "after": ""
        }
      ]
    }
  ]
}