{
  "sentences": [
    {
      "index": 0,
      "basicDependencies": [
        {
          "dep": "ROOT",
          "governor": 0,
          "governorGloss": "ROOT",
          "dependent": 2,
          "dependentGloss": "getötet"
        },
        {
          "dep": "nsubj",
          "governor": 2,
          "governorGloss": "getötet",
          "dependent": 1,
          "dependentGloss": "Al-Qaida-Geisel"
        },
        {
          "dep": "case",
          "governor": 4,
          "governorGloss": "Raid",
          "dependent": 3,
          "dependentGloss": "in"
        },
        {
          "dep": "nmod",
          "governor": 2,
          "governorGloss": "getötet",
          "dependent": 4,
          "dependentGloss": "Raid"
        }
      ],
      "enhancedDependencies": [
        {
          "dep": "ROOT",
          "governor": 0,
          "governorGloss": "ROOT",
          "dependent": 2,
          "dependentGloss": "getötet"
        },
        {
          "dep": "nsubj",
          "governor": 2,
          "governorGloss": "getötet",
          "dependent": 1,
          "dependentGloss": "Al-Qaida-Geisel"
        },
        {
          "dep": "case",
          "governor": 4,
          "governorGloss": "Raid",
          "dependent": 3,
          "dependentGloss": "in"
        },
        {
          "dep": "nmod",
          "governor": 2,
          "governorGloss": "getötet",
          "dependent": 4,
          "dependentGloss": "Raid"
        }
      ],
      "enhancedPlusPlusDependencies": [
        {
          "dep": "ROOT",
          "governor": 0,
          "governorGloss": "ROOT",
          "dependent": 2,
          "dependentGloss": "getötet"
        },
        {
          "dep": "nsubj",
          "governor": 2,
          "governorGloss": "getötet",
          "dependent": 1,
          "dependentGloss": "Al-Qaida-Geisel"
        },
        {
          "dep": "case",
          "governor": 4,
          "governorGloss": "Raid",
          "dependent": 3,
          "dependentGloss": "in"
        },
        {
          "dep": "nmod",
          "governor": 2,
          "governorGloss": "getötet",
          "dependent": 4,
          "dependentGloss": "Raid"
        }
      ],
      "tokens": [
        {
          "index": 1,
          "word": "Al-Qaida-Geisel",
          "originalText": "Al-Qaida-Geisel",
          "characterOffsetBegin": 0,
          "characterOffsetEnd": 15,
          "pos": "NN",
          "before": "",
          "after": " "
        },
        {
          "index": 2,
          "word": "getötet",
          "originalText": "getötet",
          "characterOffsetBegin": 16,
          "characterOffsetEnd": 23,
          "pos": "VVPP",
          "before": " ",
          "after": " "
        },
        {
          "index": 3,
          "word": "in",
          "originalText": "in",
          "characterOffsetBegin": 24,
          "characterOffsetEnd": 26,
          "pos": "APPR",
          "before": " ",
          "after": " "
        },
        {
          "index": 4,
          "word": "Raid",
          "originalText": "Raid",
          "characterOffsetBegin": 27,
          "characterOffsetEnd": 31,
          "pos": "NN",
          "before": " ",
          "after": ""
        }
      ]
    }
  ]
}