{
  "sentences": [
    {
      "index": 0,
      "basicDependencies": [
        {
          "dep": "ROOT",
          "governor": 0,
          "governorGloss": "ROOT",
          "dependent": 3,
          "dependentGloss": "verkauft"
        },
        {
          "dep": "name",
          "governor": 2,
          "governorGloss": "Woods",
          "dependent": 1,
          "dependentGloss": "Tiger"
        },
        {
          "dep": "nsubj",
          "governor": 3,
          "governorGloss": "verkauft",
          "dependent": 2,
          "dependentGloss": "Woods"
        },
        {
          "dep": "nmod:poss",
          "governor": 6,
          "governorGloss": "Island",
          "dependent": 4,
          "dependentGloss": "seine"
        },
        {
          "dep": "amod",
          "governor": 6,
          "governorGloss": "Island",
          "dependent": 5,
          "dependentGloss": "Private"
        },
        {
          "dep": "dobj",
          "governor": 3,
          "governorGloss": "verkauft",
          "dependent": 6,
          "dependentGloss": "Island"
        },
        {
          "dep": "case",
          "governor": 8,
          "governorGloss": "$",
          "dependent": 7,
          "dependentGloss": "für"
        },
        {
          "dep": "nmod",
          "governor": 3,
          "governorGloss": "verkauft",
          "dependent": 8,
          "dependentGloss": "$"
        },
        {
          "dep": "nummod",
          "governor": 10,
          "governorGloss": "Millionen",
          "dependent": 9,
          "dependentGloss": "7,1"
        },
        {
          "dep": "nummod",
          "governor": 8,
          "governorGloss": "$",
          "dependent": 10,
          "dependentGloss": "Millionen"
        }
      ],
      "enhancedDependencies": [
        {
          "dep": "ROOT",
          "governor": 0,
          "governorGloss": "ROOT",
          "dependent": 3,
          "dependentGloss": "verkauft"
        },
        {
          "dep": "name",
          "governor": 2,
          "governorGloss": "Woods",
          "dependent": 1,
          "dependentGloss": "Tiger"
        },
        {
          "dep": "nsubj",
          "governor": 3,
          "governorGloss": "verkauft",
          "dependent": 2,
          "dependentGloss": "Woods"
        },
        {
          "dep": "nmod:poss",
          "governor": 6,
          "governorGloss": "Island",
          "dependent": 4,
          "dependentGloss": "seine"
        },
        {
          "dep": "amod",
          "governor": 6,
          "governorGloss": "Island",
          "dependent": 5,
          "dependentGloss": "Private"
        },
        {
          "dep": "dobj",
          "governor": 3,
          "governorGloss": "verkauft",
          "dependent": 6,
          "dependentGloss": "Island"
        },
        {
          "dep": "case",
          "governor": 8,
          "governorGloss": "$",
          "dependent": 7,
          "dependentGloss": "für"
        },
        {
          "dep": "nmod",
          "governor": 3,
          "governorGloss": "verkauft",
          "dependent": 8,
          "dependentGloss": "$"
        },
        {
          "dep": "nummod",
          "governor": 10,
          "governorGloss": "Millionen",
          "dependent": 9,
          "dependentGloss": "7,1"
        },
        {
          "dep": "nummod",
          "governor": 8,
          "governorGloss": "$",
          "dependent": 10,
          "dependentGloss": "Millionen"
        }
      ],
      "enhancedPlusPlusDependencies": [
        {
          "dep": "ROOT",
          "governor": 0,
          "governorGloss": "ROOT",
          "dependent": 3,
          "dependentGloss": "verkauft"
        },
        {
          "dep": "name",
          "governor": 2,
          "governorGloss": "Woods",
          "dependent": 1,
          "dependentGloss": "Tiger"
        },
        {
          "dep": "nsubj",
          "governor": 3,
          "governorGloss": "verkauft",
          "dependent": 2,
          "dependentGloss": "Woods"
        },
        {
          "dep": "nmod:poss",
          "governor": 6,
          "governorGloss": "Island",
          "dependent": 4,
          "dependentGloss": "seine"
        },
        {
          "dep": "amod",
          "governor": 6,
          "governorGloss": "Island",
          "dependent": 5,
          "dependentGloss": "Private"
        },
        {
          "dep": "dobj",
          "governor": 3,
          "governorGloss": "verkauft",
          "dependent": 6,
          "dependentGloss": "Island"
        },
        {
          "dep": "case",
          "governor": 8,
          "governorGloss": "$",
          "dependent": 7,
          "dependentGloss": "für"
        },
        {
          "dep": "nmod",
          "governor": 3,
          "governorGloss": "verkauft",
          "dependent": 8,
          "dependentGloss": "$"
        },
        {
          "dep": "nummod",
          "governor": 10,
          "governorGloss": "Millionen",
          "dependent": 9,
          "dependentGloss": "7,1"
        },
        {
          "dep": "nummod",
          "governor": 8,
          "governorGloss": "$",
          "dependent": 10,
          "dependentGloss": "Millionen"
        }
      ],
      "tokens": [
        {
          "index": 1,
          "word": "Tiger",
          "originalText": "Tiger",
          "characterOffsetBegin": 0,
          "characterOffsetEnd": 5,
          "pos": "NE",
          "before": "",
          "after": " "
        },
        {
          "index": 2,
          "word": "Woods",
          "originalText": "Woods",
          "characterOffsetBegin": 6,
          "characterOffsetEnd": 11,
          "pos": "NE",
          "before": " ",
          "after": " "
        },
        {
          "index": 3,
          "word": "verkauft",
          "originalText": "verkauft",
          "characterOffsetBegin": 12,
          "characterOffsetEnd": 20,
          "pos": "VVFIN",
          "before": " ",
          "after": " "
        },
        {
          "index": 4,
          "word": "seine",
          "originalText": "seine",
          "characterOffsetBegin": 21,
          "characterOffsetEnd": 26,
          "pos": "PPOSAT",
          "before": " ",
          "after": " "
        },
        {
          "index": 5,
          "word": "Private",
          "originalText": "Private",
          "characterOffsetBegin": 27,
          "characterOffsetEnd": 34,
          "pos": "NN",
          "before": " ",
          "after": " "
        },
        {
          "index": 6,
          "word": "Island",
          "originalText": "Island",
          "characterOffsetBegin": 35,
          "characterOffsetEnd": 41,
          "pos": "NE",
          "before": " ",
          "after": " "
        },
        {
          "index": 7,
          "word": "für",
          "originalText": "für",
          "characterOffsetBegin": 42,
          "characterOffsetEnd": 45,
          "pos": "APPR",
          "before": " ",
          "after": " "
        },
        {
          "index": 8,
          "word": "$",
          "originalText": "$",
          "characterOffsetBegin": 46,
          "characterOffsetEnd": 47,
          "pos": "CARD",
          "before": " ",
          "after": " "
        },
        {
          "index": 9,
          "word": "7,1",
          "originalText": "7,1",
          "characterOffsetBegin": 48,
          "characterOffsetEnd": 51,
          "pos": "CARD",
          "before": " ",
          "after": " "
        },
        {
          "index": 10,
          "word": "Millionen",
          "originalText": "Millionen",
          "characterOffsetBegin": 52,
          "characterOffsetEnd": 61,
          "pos": "NN",
          "before": " ",
          "after": ""
        }
      ]
    }
  ]
}