{
  "sentences": [
    {
      "index": 0,
      "basicDependencies": [
        {
          "dep": "ROOT",
          "governor": 0,
          "governorGloss": "ROOT",
          "dependent": 3,
          "dependentGloss": "erzählt"
        },
        {
          "dep": "amod",
          "governor": 2,
          "governorGloss": "Franziskus",
          "dependent": 1,
          "dependentGloss": "Papst"
        },
        {
          "dep": "nsubj",
          "governor": 3,
          "governorGloss": "erzählt",
          "dependent": 2,
          "dependentGloss": "Franziskus"
        },
        {
          "dep": "det",
          "governor": 5,
          "governorGloss": "Jungen",
          "dependent": 4,
          "dependentGloss": "dem"
        },
        {
          "dep": "iobj",
          "governor": 3,
          "governorGloss": "erzählt",
          "dependent": 5,
          "dependentGloss": "Jungen"
        },
        {
          "dep": "punct",
          "governor": 3,
          "governorGloss": "erzählt",
          "dependent": 6,
          "dependentGloss": ","
        },
        {
          "dep": "det",
          "governor": 8,
          "governorGloss": "Hund",
          "dependent": 7,
          "dependentGloss": "dessen"
        },
        {
          "dep": "nsubj",
          "governor": 9,
          "governorGloss": "gestorben",
          "dependent": 8,
          "dependentGloss": "Hund"
        },
        {
          "dep": "ccomp",
          "governor": 3,
          "governorGloss": "erzählt",
          "dependent": 9,
          "dependentGloss": "gestorben"
        },
        {
          "dep": "cop",
          "governor": 9,
          "governorGloss": "gestorben",
          "dependent": 10,
          "dependentGloss": "ist"
        },
        {
          "dep": "punct",
          "governor": 9,
          "governorGloss": "gestorben",
          "dependent": 11,
          "dependentGloss": ","
        },
        {
          "dep": "mark",
          "governor": 18,
          "governorGloss": "ist",
          "dependent": 12,
          "dependentGloss": "dass"
        },
        {
          "dep": "det",
          "governor": 14,
          "governorGloss": "Himmel",
          "dependent": 13,
          "dependentGloss": "der"
        },
        {
          "dep": "nsubj",
          "governor": 18,
          "governorGloss": "ist",
          "dependent": 14,
          "dependentGloss": "Himmel"
        },
        {
          "dep": "case",
          "governor": 17,
          "governorGloss": "offen",
          "dependent": 15,
          "dependentGloss": "für"
        },
        {
          "dep": "det",
          "governor": 17,
          "governorGloss": "offen",
          "dependent": 16,
          "dependentGloss": "alle"
        },
        {
          "dep": "nmod",
          "governor": 18,
          "governorGloss": "ist",
          "dependent": 17,
          "dependentGloss": "offen"
        },
        {
          "dep": "ccomp",
          "governor": 9,
          "governorGloss": "gestorben",
          "dependent": 18,
          "dependentGloss": "ist"
        }
      ],
      "enhancedDependencies": [
        {
          "dep": "ROOT",
          "governor": 0,
          "governorGloss": "ROOT",
          "dependent": 3,
          "dependentGloss": "erzählt"
        },
        {
          "dep": "amod",
          "governor": 2,
          "governorGloss": "Franziskus",
          "dependent": 1,
          "dependentGloss": "Papst"
        },
        {
          "dep": "nsubj",
          "governor": 3,
          "governorGloss": "erzählt",
          "dependent": 2,
          "dependentGloss": "Franziskus"
        },
        {
          "dep": "det",
          "governor": 5,
          "governorGloss": "Jungen",
          "dependent": 4,
          "dependentGloss": "dem"
        },
        {
          "dep": "iobj",
          "governor": 3,
          "governorGloss": "erzählt",
          "dependent": 5,
          "dependentGloss": "Jungen"
        },
        {
          "dep": "punct",
          "governor": 3,
          "governorGloss": "erzählt",
          "dependent": 6,
          "dependentGloss": ","
        },
        {
          "dep": "det",
          "governor": 8,
          "governorGloss": "Hund",
          "dependent": 7,
          "dependentGloss": "dessen"
        },
        {
          "dep": "nsubj",
          "governor": 9,
          "governorGloss": "gestorben",
          "dependent": 8,
          "dependentGloss": "Hund"
        },
        {
          "dep": "ccomp",
          "governor": 3,
          "governorGloss": "erzählt",
          "dependent": 9,
          "dependentGloss": "gestorben"
        },
        {
          "dep": "cop",
          "governor": 9,
          "governorGloss": "gestorben",
          "dependent": 10,
          "dependentGloss": "ist"
        },
        {
          "dep": "punct",
          "governor": 9,
          "governorGloss": "gestorben",
          "dependent": 11,
          "dependentGloss": ","
        },
        {
          "dep": "mark",
          "governor": 18,
          "governorGloss": "ist",
          "dependent": 12,
          "dependentGloss": "dass"
        },
        {
          "dep": "det",
          "governor": 14,
          "governorGloss": "Himmel",
          "dependent": 13,
          "dependentGloss": "der"
        },
        {
          "dep": "nsubj",
          "governor": 18,
          "governorGloss": "ist",
          "dependent": 14,
          "dependentGloss": "Himmel"
        },
        {
          "dep": "case",
          "governor": 17,
          "governorGloss": "offen",
          "dependent": 15,
          "dependentGloss": "für"
        },
        {
          "dep": "det",
          "governor": 17,
          "governorGloss": "offen",
          "dependent": 16,
          "dependentGloss": "alle"
        },
        {
          "dep": "nmod",
          "governor": 18,
          "governorGloss": "ist",
          "dependent": 17,
          "dependentGloss": "offen"
        },
        {
          "dep": "ccomp",
          "governor": 9,
          "governorGloss": "gestorben",
          "dependent": 18,
          "dependentGloss": "ist"
        }
      ],
      "enhancedPlusPlusDependencies": [
        {
          "dep": "ROOT",
          "governor": 0,
          "governorGloss": "ROOT",
          "dependent": 3,
          "dependentGloss": "erzählt"
        },
        {
          "dep": "amod",
          "governor": 2,
          "governorGloss": "Franziskus",
          "dependent": 1,
          "dependentGloss": "Papst"
        },
        {
          "dep": "nsubj",
          "governor": 3,
          "governorGloss": "erzählt",
          "dependent": 2,
          "dependentGloss": "Franziskus"
        },
        {
          "dep": "det",
          "governor": 5,
          "governorGloss": "Jungen",
          "dependent": 4,
          "dependentGloss": "dem"
        },
        {
          "dep": "iobj",
          "governor": 3,
          "governorGloss": "erzählt",
          "dependent": 5,
          "dependentGloss": "Jungen"
        },
        {
          "dep": "punct",
          "governor": 3,
          "governorGloss": "erzählt",
          "dependent": 6,
          "dependentGloss": ","
        },
        {
          "dep": "det",
          "governor": 8,
          "governorGloss": "Hund",
          "dependent": 7,
          "dependentGloss": "dessen"
        },
        {
          "dep": "nsubj",
          "governor": 9,
          "governorGloss": "gestorben",
          "dependent": 8,
          "dependentGloss": "Hund"
        },
        {
          "dep": "ccomp",
          "governor": 3,
          "governorGloss": "erzählt",
          "dependent": 9,
          "dependentGloss": "gestorben"
        },
        {
          "dep": "cop",
          "governor": 9,
          "governorGloss": "gestorben",
          "dependent": 10,
          "dependentGloss": "ist"
        },
        {
          "dep": "punct",
          "governor": 9,
          "governorGloss": "gestorben",
          "dependent": 11,
          "dependentGloss": ","
        },
        {
          "dep": "mark",
          "governor": 18,
          "governorGloss": "ist",
          "dependent": 12,
          "dependentGloss": "dass"
        },
        {
          "dep": "det",
          "governor": 14,
          "governorGloss": "Himmel",
          "dependent": 13,
          "dependentGloss": "der"
        },
        {
          "dep": "nsubj",
          "governor": 18,
          "governorGloss": "ist",
          "dependent": 14,
          "dependentGloss": "Himmel"
        },
        {
          "dep": "case",
          "governor": 17,
          "governorGloss": "offen",
          "dependent": 15,
          "dependentGloss": "für"
        },
        {
          "dep": "det",
          "governor": 17,
          "governorGloss": "offen",
          "dependent": 16,
          "dependentGloss": "alle"
        },
        {
          "dep": "nmod",
          "governor": 18,
          "governorGloss": "ist",
          "dependent": 17,
          "dependentGloss": "offen"
        },
        {
          "dep": "ccomp",
          "governor": 9,
          "governorGloss": "gestorben",
          "dependent": 18,
          "dependentGloss": "ist"
        }
      ],
      "tokens": [
        {
          "index": 1,
          "word": "Papst",
          "originalText": "Papst",
          "characterOffsetBegin": 0,
          "characterOffsetEnd": 5,
          "pos": "NN",
          "before": "",
          "after": " "
        },
        {
          "index": 2,
          "word": "Franziskus",
          "originalText": "Franziskus",
          "characterOffsetBegin": 6,
          "characterOffsetEnd": 16,
          "pos": "NE",
          "before": " ",
          "after": " "
        },
        {
          "index": 3,
          "word": "erzählt",
          "originalText": "erzählt",
          "characterOffsetBegin": 17,
          "characterOffsetEnd": 24,
          "pos": "VVFIN",
          "before": " ",
          "after": " "
        },
        {
          "index": 4,
          "word": "dem",
          "originalText": "dem",
          "characterOffsetBegin": 25,
          "characterOffsetEnd": 28,
          "pos": "ART",
          "before": " ",
          "after": " "
        },
        {
          "index": 5,
          "word": "Jungen",
          "originalText": "Jungen",
          "characterOffsetBegin": 29,
          "characterOffsetEnd": 35,
          "pos": "NN",
          "before": " ",
          "after": ""
        },
        {
          "index": 6,
          "word": ",",
          "originalText": ",",
          "characterOffsetBegin": 35,
          "characterOffsetEnd": 36,
          "pos": "$,",
          "before": "",
          "after": " "
        },
        {
          "index": 7,
          "word": "dessen",
          "originalText": "dessen",
          "characterOffsetBegin": 37,
          "characterOffsetEnd": 43,
          "pos": "PRELAT",
          "before": " ",
          "after": " "
        },
        {
          "index": 8,
          "word": "Hund",
          "originalText": "Hund",
          "characterOffsetBegin": 44,
          "characterOffsetEnd": 48,
          "pos": "NN",
          "before": " ",
          "after": " "
        },
        {
          "index": 9,
          "word": "gestorben",
          "originalText": "gestorben",
          "characterOffsetBegin": 49,
          "characterOffsetEnd": 58,
          "pos": "VVPP",
          "before": " ",
          "after": " "
        },
        {
          "index": 10,
          "word": "ist",
          "originalText": "ist",
          "characterOffsetBegin": 59,
          "characterOffsetEnd": 62,
          "pos": "VAFIN",
          "before": " ",
          "after": ""
        },
        {
          "index": 11,
          "word": ",",
          "originalText": ",",
          "characterOffsetBegin": 62,
          "characterOffsetEnd": 63,
          "pos": "$,",
          "before": "",
          "after": " "
        },
        {
          "index": 12,
          "word": "dass",
          "originalText": "dass",
          "characterOffsetBegin": 64,
          "characterOffsetEnd": 68,
          "pos": "KOUS",
          "before": " ",
          "after": " "
        },
        {
          "index": 13,
          "word": "der",
          "originalText": "der",
          "characterOffsetBegin": 69,
          "characterOffsetEnd": 72,
          "pos": "ART",
          "before": " ",
          "after": " "
        },
        {
          "index": 14,
          "word": "Himmel",
          "originalText": "Himmel",
          "characterOffsetBegin": 73,
          "characterOffsetEnd": 79,
          "pos": "NN",
          "before": " ",
          "after": " "
        },
        {
          "index": 15,
          "word": "für",
          "originalText": "für",
          "characterOffsetBegin": 80,
          "characterOffsetEnd": 83,
          "pos": "APPR",
          "before": " ",
          "after": " "
        },
        {
          "index": 16,
          "word": "alle",
          "originalText": "alle",
          "characterOffsetBegin": 84,
          "characterOffsetEnd": 88,
          "pos": "PIDAT",
          "before": " ",
          "after": " "
        },
        {
          "index": 17,
          "word": "offen",
          "originalText": "offen",
          "characterOffsetBegin": 89,
          "characterOffsetEnd": 94,
          "pos": "ADJD",
          "before": " ",
          "after": " "
        },
        {
          "index": 18,
          "word": "ist",
          "originalText": "ist",
          "characterOffsetBegin": 95,
          "characterOffsetEnd": 98,
          "pos": "VAFIN",
          "before": " ",
          "after": ""
        }
      ]
    }
  ]
}