{
  "sentences": [
    {
      "index": 0,
      "basicDependencies": [
        {
          "dep": "ROOT",
          "governor": 0,
          "governorGloss": "ROOT",
          "dependent": 1,
          "dependentGloss": "Vergessen"
        },
        {
          "dep": "dobj",
          "governor": 1,
          "governorGloss": "Vergessen",
          "dependent": 2,
          "dependentGloss": "Sie"
        },
        {
          "dep": "neg",
          "governor": 1,
          "governorGloss": "Vergessen",
          "dependent": 3,
          "dependentGloss": "nicht"
        },
        {
          "dep": "punct",
          "governor": 1,
          "governorGloss": "Vergessen",
          "dependent": 4,
          "dependentGloss": ","
        },
        {
          "dep": "parataxis",
          "governor": 1,
          "governorGloss": "Vergessen",
          "dependent": 5,
          "dependentGloss": "Trinkgeld"
        },
        {
          "dep": "punct",
          "governor": 12,
          "governorGloss": "ausgeben",
          "dependent": 6,
          "dependentGloss": "..."
        },
        {
          "dep": "advmod",
          "governor": 8,
          "governorGloss": "wenn",
          "dependent": 7,
          "dependentGloss": "besonders"
        },
        {
          "dep": "mark",
          "governor": 12,
          "governorGloss": "ausgeben",
          "dependent": 8,
          "dependentGloss": "wenn"
        },
        {
          "dep": "nsubj",
          "governor": 12,
          "governorGloss": "ausgeben",
          "dependent": 9,
          "dependentGloss": "Sie"
        },
        {
          "dep": "aux",
          "governor": 12,
          "governorGloss": "ausgeben",
          "dependent": 10,
          "dependentGloss": "$"
        },
        {
          "dep": "advmod",
          "governor": 12,
          "governorGloss": "ausgeben",
          "dependent": 11,
          "dependentGloss": "300.000"
        },
        {
          "dep": "advcl",
          "governor": 5,
          "governorGloss": "Trinkgeld",
          "dependent": 12,
          "dependentGloss": "ausgeben"
        }
      ],
      "enhancedDependencies": [
        {
          "dep": "ROOT",
          "governor": 0,
          "governorGloss": "ROOT",
          "dependent": 1,
          "dependentGloss": "Vergessen"
        },
        {
          "dep": "dobj",
          "governor": 1,
          "governorGloss": "Vergessen",
          "dependent": 2,
          "dependentGloss": "Sie"
        },
        {
          "dep": "neg",
          "governor": 1,
          "governorGloss": "Vergessen",
          "dependent": 3,
          "dependentGloss": "nicht"
        },
        {
          "dep": "punct",
          "governor": 1,
          "governorGloss": "Vergessen",
          "dependent": 4,
          "dependentGloss": ","
        },
        {
          "dep": "parataxis",
          "governor": 1,
          "governorGloss": "Vergessen",
          "dependent": 5,
          "dependentGloss": "Trinkgeld"
        },
        {
          "dep": "punct",
          "governor": 12,
          "governorGloss": "ausgeben",
          "dependent": 6,
          "dependentGloss": "..."
        },
        {
          "dep": "advmod",
          "governor": 8,
          "governorGloss": "wenn",
          "dependent": 7,
          "dependentGloss": "besonders"
        },
        {
          "dep": "mark",
          "governor": 12,
          "governorGloss": "ausgeben",
          "dependent": 8,
          "dependentGloss": "wenn"
        },
        {
          "dep": "nsubj",
          "governor": 12,
          "governorGloss": "ausgeben",
          "dependent": 9,
          "dependentGloss": "Sie"
        },
        {
          "dep": "aux",
          "governor": 12,
          "governorGloss": "ausgeben",
          "dependent": 10,
          "dependentGloss": "$"
        },
        {
          "dep": "advmod",
          "governor": 12,
          "governorGloss": "ausgeben",
          "dependent": 11,
          "dependentGloss": "300.000"
        },
        {
          "dep": "advcl",
          "governor": 5,
          "governorGloss": "Trinkgeld",
          "dependent": 12,
          "dependentGloss": "ausgeben"
        }
      ],
      "enhancedPlusPlusDependencies": [
        {
          "dep": "ROOT",
          "governor": 0,
          "governorGloss": "ROOT",
          "dependent": 1,
          "dependentGloss": "Vergessen"
        },
        {
          "dep": "dobj",
          "governor": 1,
          "governorGloss": "Vergessen",
          "dependent": 2,
          "dependentGloss": "Sie"
        },
        {
          "dep": "neg",
          "governor": 1,
          "governorGloss": "Vergessen",
          "dependent": 3,
          "dependentGloss": "nicht"
        },
        {
          "dep": "punct",
          "governor": 1,
          "governorGloss": "Vergessen",
          "dependent": 4,
          "dependentGloss": ","
        },
        {
          "dep": "parataxis",
          "governor": 1,
          "governorGloss": "Vergessen",
          "dependent": 5,
          "dependentGloss": "Trinkgeld"
        },
        {
          "dep": "punct",
          "governor": 12,
          "governorGloss": "ausgeben",
          "dependent": 6,
          "dependentGloss": "..."
        },
        {
          "dep": "advmod",
          "governor": 8,
          "governorGloss": "wenn",
          "dependent": 7,
          "dependentGloss": "besonders"
        },
        {
          "dep": "mark",
          "governor": 12,
          "governorGloss": "ausgeben",
          "dependent": 8,
          "dependentGloss": "wenn"
        },
        {
          "dep": "nsubj",
          "governor": 12,
          "governorGloss": "ausgeben",
          "dependent": 9,
          "dependentGloss": "Sie"
        },
        {
          "dep": "aux",
          "governor": 12,
          "governorGloss": "ausgeben",
          "dependent": 10,
          "dependentGloss": "$"
        },
        {
          "dep": "advmod",
          "governor": 12,
          "governorGloss": "ausgeben",
          "dependent": 11,
          "dependentGloss": "300.000"
        },
        {
          "dep": "advcl",
          "governor": 5,
          "governorGloss": "Trinkgeld",
          "dependent": 12,
          "dependentGloss": "ausgeben"
        }
      ],
      "tokens": [
        {
          "index": 1,
          "word": "Vergessen",
          "originalText": "Vergessen",
          "characterOffsetBegin": 0,
          "characterOffsetEnd": 9,
          "pos": "VVPP",
          "before": "",
          "after": " "
        },
        {
          "index": 2,
          "word": "Sie",
          "originalText": "Sie",
          "characterOffsetBegin": 10,
          "characterOffsetEnd": 13,
          "pos": "PPER",
          "before": " ",
          "after": " "
        },
        {
          "index": 3,
          "word": "nicht",
          "originalText": "nicht",
          "characterOffsetBegin": 14,
          "characterOffsetEnd": 19,
          "pos": "PTKNEG",
          "before": " ",
          "after": ""
        },
        {
          "index": 4,
          "word": ",",
          "originalText": ",",
          "characterOffsetBegin": 19,
          "characterOffsetEnd": 20,
          "pos": "$,",
          "before": "",
          "after": " "
        },
        {
          "index": 5,
          "word": "Trinkgeld",
          "originalText": "Trinkgeld",
          "characterOffsetBegin": 21,
          "characterOffsetEnd": 30,
          "pos": "NN",
          "before": " ",
          "after": " "
        },
        {
          "index": 6,
          "word": "...",
          "originalText": "...",
          "characterOffsetBegin": 31,
          "characterOffsetEnd": 34,
          "pos": "$[",
          "before": " ",
          "after": " "
        },
        {
          "index": 7,
          "word": "besonders",
          "originalText": "besonders",
          "characterOffsetBegin": 35,
          "characterOffsetEnd": 44,
          "pos": "ADV",
          "before": " ",
          "after": " "
        },
        {
          "index": 8,
          "word": "wenn",
          "originalText": "wenn",
          "characterOffsetBegin": 45,
          "characterOffsetEnd": 49,
          "pos": "KOUS",
          "before": " ",
          "after": " "
        },
        {
          "index": 9,
          "word": "Sie",
          "originalText": "Sie",
          "characterOffsetBegin": 50,
          "characterOffsetEnd": 53,
          "pos": "PPER",
          "before": " ",
          "after": " "
        },
        {
          "index": 10,
          "word": "$",
          "originalText": "$",
          "characterOffsetBegin": 54,
          "characterOffsetEnd": 55,
          "pos": "XY",
          "before": " ",
          "after": " "
        },
        {
          "index": 11,
          "word": "300.000",
          "originalText": "300.000",
          "characterOffsetBegin": 56,
          "characterOffsetEnd": 63,
          "pos": "CARD",
          "before": " ",
          "after": " "
        },
        {
          "index": 12,
          "word": "ausgeben",
          "originalText": "ausgeben",
          "characterOffsetBegin": 64,
          "characterOffsetEnd": 72,
          "pos": "VVINF",
          "before": " ",
          "after": ""
        }
      ]
    }
  ]
}