{
  "sentences": [
    {
      "index": 0,
      "basicDependencies": [
        {
          "dep": "ROOT",
          "governor": 0,
          "governorGloss": "ROOT",
          "dependent": 2,
          "dependentGloss": "Haram"
        },
        {
          "dep": "nsubj",
          "governor": 2,
          "governorGloss": "Haram",
          "dependent": 1,
          "dependentGloss": "Boko"
        },
        {
          "dep": "amod",
          "governor": 4,
          "governorGloss": "Waffenstillstand",
          "dependent": 3,
          "dependentGloss": "verweigert"
        },
        {
          "dep": "dobj",
          "governor": 2,
          "governorGloss": "Haram",
          "dependent": 4,
          "dependentGloss": "Waffenstillstand"
        },
        {
          "dep": "punct",
          "governor": 2,
          "governorGloss": "Haram",
          "dependent": 5,
          "dependentGloss": ","
        },
        {
          "dep": "mark",
          "governor": 9,
          "governorGloss": "freizulassen",
          "dependent": 6,
          "dependentGloss": "um"
        },
        {
          "dep": "amod",
          "governor": 8,
          "governorGloss": "Schulmädchen",
          "dependent": 7,
          "dependentGloss": "entführte"
        },
        {
          "dep": "dobj",
          "governor": 9,
          "governorGloss": "freizulassen",
          "dependent": 8,
          "dependentGloss": "Schulmädchen"
        },
        {
          "dep": "advcl",
          "governor": 2,
          "governorGloss": "Haram",
          "dependent": 9,
          "dependentGloss": "freizulassen"
        }
      ],
      "enhancedDependencies": [
        {
          "dep": "ROOT",
          "governor": 0,
          "governorGloss": "ROOT",
          "dependent": 2,
          "dependentGloss": "Haram"
        },
        {
          "dep": "nsubj",
          "governor": 2,
          "governorGloss": "Haram",
          "dependent": 1,
          "dependentGloss": "Boko"
        },
        {
          "dep": "amod",
          "governor": 4,
          "governorGloss": "Waffenstillstand",
          "dependent": 3,
          "dependentGloss": "verweigert"
        },
        {
          "dep": "dobj",
          "governor": 2,
          "governorGloss": "Haram",
          "dependent": 4,
          "dependentGloss": "Waffenstillstand"
        },
        {
          "dep": "punct",
          "governor": 2,
          "governorGloss": "Haram",
          "dependent": 5,
          "dependentGloss": ","
        },
        {
          "dep": "mark",
          "governor": 9,
          "governorGloss": "freizulassen",
          "dependent": 6,
          "dependentGloss": "um"
        },
        {
          "dep": "amod",
          "governor": 8,
          "governorGloss": "Schulmädchen",
          "dependent": 7,
          "dependentGloss": "entführte"
        },
        {
          "dep": "dobj",
          "governor": 9,
          "governorGloss": "freizulassen",
          "dependent": 8,
          "dependentGloss": "Schulmädchen"
        },
        {
          "dep": "advcl",
          "governor": 2,
          "governorGloss": "Haram",
          "dependent": 9,
          "dependentGloss": "freizulassen"
        }
      ],
      "enhancedPlusPlusDependencies": [
        {
          "dep": "ROOT",
          "governor": 0,
          "governorGloss": "ROOT",
          "dependent": 2,
          "dependentGloss": "Haram"
        },
        {
          "dep": "nsubj",
          "governor": 2,
          "governorGloss": "Haram",
          "dependent": 1,
          "dependentGloss": "Boko"
        },
        {
          "dep": "amod",
          "governor": 4,
          "governorGloss": "Waffenstillstand",
          "dependent": 3,
          "dependentGloss": "verweigert"
        },
        {
          "dep": "dobj",
          "governor": 2,
          "governorGloss": "Haram",
          "dependent": 4,
          "dependentGloss": "Waffenstillstand"
        },
        {
          "dep": "punct",
          "governor": 2,
          "governorGloss": "Haram",
          "dependent": 5,
          "dependentGloss": ","
        },
        {
          "dep": "mark",
          "governor": 9,
          "governorGloss": "freizulassen",
          "dependent": 6,
          "dependentGloss": "um"
        },
        {
          "dep": "amod",
          "governor": 8,
          "governorGloss": "Schulmädchen",
          "dependent": 7,
          "dependentGloss": "entführte"
        },
        {
          "dep": "dobj",
          "governor": 9,
          "governorGloss": "freizulassen",
          "dependent": 8,
          "dependentGloss": "Schulmädchen"
        },
        {
          "dep": "advcl",
          "governor": 2,
          "governorGloss": "Haram",
          "dependent": 9,
          "dependentGloss": "freizulassen"
        }
      ],
      "tokens": [
        {
          "index": 1,
          "word": "Boko",
          "originalText": "Boko",
          "characterOffsetBegin": 0,
          "characterOffsetEnd": 4,
          "pos": "NE",
          "before": "",
          "after": " "
        },
        {
          "index": 2,
          "word": "Haram",
          "originalText": "Haram",
          "characterOffsetBegin": 5,
          "characterOffsetEnd": 10,
          "pos": "NE",
          "before": " ",
          "after": " "
        },
        {
          "index": 3,
          "word": "verweigert",
          "originalText": "verweigert",
          "characterOffsetBegin": 11,
          "characterOffsetEnd": 21,
          "pos": "VVFIN",
          "before": " ",
          "after": " "
        },
        {
          "index": 4,
          "word": "Waffenstillstand",
          "originalText": "Waffenstillstand",
          "characterOffsetBegin": 22,
          "characterOffsetEnd": 38,
          "pos": "NN",
          "before": " ",
          "after": ""
        },
        {
          "index": 5,
          "word": ",",
          "originalText": ",",
          "characterOffsetBegin": 38,
          "characterOffsetEnd": 39,
          "pos": "$,",
          "before": "",
          "after": " "
        },
        {
          "index": 6,
          "word": "um",
          "originalText": "um",
          "characterOffsetBegin": 40,
          "characterOffsetEnd": 42,
          "pos": "KOUI",
          "before": " ",
          "after": " "
        },
        {
          "index": 7,
          "word": "entführte",
          "originalText": "entführte",
          "characterOffsetBegin": 43,
          "characterOffsetEnd": 52,
          "pos": "ADJA",
          "before": " ",
          "after": " "
        },
        {
          "index": 8,
          "word": "Schulmädchen",
          "originalText": "Schulmädchen",
          "characterOffsetBegin": 53,
          "characterOffsetEnd": 65,
          "pos": "NN",
          "before": " ",
          "after": " "
        },
        {
          "index": 9,
          "word": "freizulassen",
          "originalText": "freizulassen",
          "characterOffsetBegin": 66,
          "characterOffsetEnd": 78,
          "pos": "VVIZU",
          "before": " ",
          "after": ""
        }
      ]
    }
  ]
}