{
  "sentences": [
    {
      "index": 0,
      "basicDependencies": [
        {
          "dep": "ROOT",
          "governor": 0,
          "governorGloss": "ROOT",
          "dependent": 1,
          "dependentGloss": "`"
        },
        {
          "dep": "det",
          "governor": 4,
          "governorGloss": "reagiert",
          "dependent": 2,
          "dependentGloss": "Banksy"
        },
        {
          "dep": "case",
          "governor": 2,
          "governorGloss": "Banksy",
          "dependent": 3,
          "dependentGloss": "'"
        },
        {
          "dep": "nsubj",
          "governor": 1,
          "governorGloss": "`",
          "dependent": 4,
          "dependentGloss": "reagiert"
        },
        {
          "dep": "case",
          "governor": 6,
          "governorGloss": "Paris",
          "dependent": 5,
          "dependentGloss": "auf"
        },
        {
          "dep": "nmod",
          "governor": 4,
          "governorGloss": "reagiert",
          "dependent": 6,
          "dependentGloss": "Paris"
        },
        {
          "dep": "appos",
          "governor": 4,
          "governorGloss": "reagiert",
          "dependent": 7,
          "dependentGloss": "Attack"
        },
        {
          "dep": "case",
          "governor": 10,
          "governorGloss": "Drawing",
          "dependent": 8,
          "dependentGloss": "mit"
        },
        {
          "dep": "amod",
          "governor": 10,
          "governorGloss": "Drawing",
          "dependent": 9,
          "dependentGloss": "Poignant"
        },
        {
          "dep": "nmod",
          "governor": 7,
          "governorGloss": "Attack",
          "dependent": 10,
          "dependentGloss": "Drawing"
        }
      ],
      "enhancedDependencies": [
        {
          "dep": "ROOT",
          "governor": 0,
          "governorGloss": "ROOT",
          "dependent": 1,
          "dependentGloss": "`"
        },
        {
          "dep": "det",
          "governor": 4,
          "governorGloss": "reagiert",
          "dependent": 2,
          "dependentGloss": "Banksy"
        },
        {
          "dep": "case",
          "governor": 2,
          "governorGloss": "Banksy",
          "dependent": 3,
          "dependentGloss": "'"
        },
        {
          "dep": "nsubj",
          "governor": 1,
          "governorGloss": "`",
          "dependent": 4,
          "dependentGloss": "reagiert"
        },
        {
          "dep": "case",
          "governor": 6,
          "governorGloss": "Paris",
          "dependent": 5,
          "dependentGloss": "auf"
        },
        {
          "dep": "nmod",
          "governor": 4,
          "governorGloss": "reagiert",
          "dependent": 6,
          "dependentGloss": "Paris"
        },
        {
          "dep": "appos",
          "governor": 4,
          "governorGloss": "reagiert",
          "dependent": 7,
          "dependentGloss": "Attack"
        },
        {
          "dep": "case",
          "governor": 10,
          "governorGloss": "Drawing",
          "dependent": 8,
          "dependentGloss": "mit"
        },
        {
          "dep": "amod",
          "governor": 10,
          "governorGloss": "Drawing",
          "dependent": 9,
          "dependentGloss": "Poignant"
        },
        {
          "dep": "nmod",
          "governor": 7,
          "governorGloss": "Attack",
          "dependent": 10,
          "dependentGloss": "Drawing"
        }
      ],
      "enhancedPlusPlusDependencies": [
        {
          "dep": "ROOT",
          "governor": 0,
          "governorGloss": "ROOT",
          "dependent": 1,
          "dependentGloss": "`"
        },
        {
          "dep": "det",
          "governor": 4,
          "governorGloss": "reagiert",
          "dependent": 2,
          "dependentGloss": "Banksy"
        },
        {
          "dep": "case",
          "governor": 2,
          "governorGloss": "Banksy",
          "dependent": 3,
          "dependentGloss": "'"
        },
        {
          "dep": "nsubj",
          "governor": 1,
          "governorGloss": "`",
          "dependent": 4,
          "dependentGloss": "reagiert"
        },
        {
          "dep": "case",
          "governor": 6,
          "governorGloss": "Paris",
          "dependent": 5,
          "dependentGloss": "auf"
        },
        {
          "dep": "nmod",
          "governor": 4,
          "governorGloss": "reagiert",
          "dependent": 6,
          "dependentGloss": "Paris"
        },
        {
          "dep": "appos",
          "governor": 4,
          "governorGloss": "reagiert",
          "dependent": 7,
          "dependentGloss": "Attack"
        },
        {
          "dep": "case",
          "governor": 10,
          "governorGloss": "Drawing",
          "dependent": 8,
          "dependentGloss": "mit"
        },
        {
          "dep": "amod",
          "governor": 10,
          "governorGloss": "Drawing",
          "dependent": 9,
          "dependentGloss": "Poignant"
        },
        {
          "dep": "nmod",
          "governor": 7,
          "governorGloss": "Attack",
          "dependent": 10,
          "dependentGloss": "Drawing"
        }
      ],
      "tokens": [
        {
          "index": 1,
          "word": "`",
          "originalText": "'",
          "characterOffsetBegin": 0,
          "characterOffsetEnd": 1,
          "pos": "XY",
          "before": "",
          "after": ""
        },
        {
          "index": 2,
          "word": "Banksy",
          "originalText": "Banksy",
          "characterOffsetBegin": 1,
          "characterOffsetEnd": 7,
          "pos": "NE",
          "before": "",
          "after": ""
        },
        {
          "index": 3,
          "word": "'",
          "originalText": "'",
          "characterOffsetBegin": 7,
          "characterOffsetEnd": 8,
          "pos": "$[",
          "before": "",
          "after": " "
        },
        {
          "index": 4,
          "word": "reagiert",
          "originalText": "reagiert",
          "characterOffsetBegin": 9,
          "characterOffsetEnd": 17,
          "pos": "VVFIN",
          "before": " ",
          "after": " "
        },
        {
          "index": 5,
          "word": "auf",
          "originalText": "auf",
          "characterOffsetBegin": 18,
          "characterOffsetEnd": 21,
          "pos": "APPR",
          "before": " ",
          "after": " "
        },
        {
          "index": 6,
          "word": "Paris",
          "originalText": "Paris",
          "characterOffsetBegin": 22,
          "characterOffsetEnd": 27,
          "pos": "NE",
          "before": " ",
          "after": " "
        },
        {
          "index": 7,
          "word": "Attack",
          "originalText": "Attack",
          "characterOffsetBegin": 28,
          "characterOffsetEnd": 34,
          "pos": "NE",
          "before": " ",
          "after": " "
        },
        {
          "index": 8,
          "word": "mit",
          "originalText": "mit",
          "characterOffsetBegin": 35,
          "characterOffsetEnd": 38,
          "pos": "APPR",
          "before": " ",
          "after": " "
        },
        {
          "index": 9,
          "word": "Poignant",
          "originalText": "Poignant",
          "characterOffsetBegin": 39,
          "characterOffsetEnd": 47,
          "pos": "NE",
          "before": " ",
          "after": " "
        },
        {
          "index": 10,
          "word": "Drawing",
          "originalText": "Drawing",
          "characterOffsetBegin": 48,
          "characterOffsetEnd": 55,
          "pos": "NE",
          "before": " ",
          "after": ""
        }
      ]
    }
  ]
}