{
  "sentences": [
    {
      "index": 0,
      "basicDependencies": [
        {
          "dep": "ROOT",
          "governor": 0,
          "governorGloss": "ROOT",
          "dependent": 1,
          "dependentGloss": "Frau"
        },
        {
          "dep": "punct",
          "governor": 1,
          "governorGloss": "Frau",
          "dependent": 2,
          "dependentGloss": ","
        },
        {
          "dep": "name",
          "governor": 4,
          "governorGloss": "Su",
          "dependent": 3,
          "dependentGloss": "Ting"
        },
        {
          "dep": "appos",
          "governor": 1,
          "governorGloss": "Frau",
          "dependent": 4,
          "dependentGloss": "Su"
        },
        {
          "dep": "punct",
          "governor": 1,
          "governorGloss": "Frau",
          "dependent": 5,
          "dependentGloss": ","
        },
        {
          "dep": "amod",
          "governor": 7,
          "governorGloss": "Ehemann",
          "dependent": 6,
          "dependentGloss": "findet"
        },
        {
          "dep": "appos",
          "governor": 1,
          "governorGloss": "Frau",
          "dependent": 7,
          "dependentGloss": "Ehemann"
        },
        {
          "dep": "appos",
          "governor": 7,
          "governorGloss": "Ehemann",
          "dependent": 8,
          "dependentGloss": "Betrug"
        },
        {
          "dep": "case",
          "governor": 12,
          "governorGloss": "Zwilling",
          "dependent": 9,
          "dependentGloss": "mit"
        },
        {
          "dep": "det",
          "governor": 12,
          "governorGloss": "Zwilling",
          "dependent": 10,
          "dependentGloss": "ihrem"
        },
        {
          "dep": "amod",
          "governor": 12,
          "governorGloss": "Zwilling",
          "dependent": 11,
          "dependentGloss": "eigenen"
        },
        {
          "dep": "nmod",
          "governor": 1,
          "governorGloss": "Frau",
          "dependent": 12,
          "dependentGloss": "Zwilling"
        },
        {
          "dep": "punct",
          "governor": 12,
          "governorGloss": "Zwilling",
          "dependent": 13,
          "dependentGloss": ","
        },
        {
          "dep": "conj",
          "governor": 12,
          "governorGloss": "Zwilling",
          "dependent": 14,
          "dependentGloss": "erhält"
        },
        {
          "dep": "amod",
          "governor": 16,
          "governorGloss": "Rache",
          "dependent": 15,
          "dependentGloss": "spektakuläre"
        },
        {
          "dep": "dobj",
          "governor": 14,
          "governorGloss": "erhält",
          "dependent": 16,
          "dependentGloss": "Rache"
        }
      ],
      "enhancedDependencies": [
        {
          "dep": "ROOT",
          "governor": 0,
          "governorGloss": "ROOT",
          "dependent": 1,
          "dependentGloss": "Frau"
        },
        {
          "dep": "punct",
          "governor": 1,
          "governorGloss": "Frau",
          "dependent": 2,
          "dependentGloss": ","
        },
        {
          "dep": "name",
          "governor": 4,
          "governorGloss": "Su",
          "dependent": 3,
          "dependentGloss": "Ting"
        },
        {
          "dep": "appos",
          "governor": 1,
          "governorGloss": "Frau",
          "dependent": 4,
          "dependentGloss": "Su"
        },
        {
          "dep": "punct",
          "governor": 1,
          "governorGloss": "Frau",
          "dependent": 5,
          "dependentGloss": ","
        },
        {
          "dep": "amod",
          "governor": 7,
          "governorGloss": "Ehemann",
          "dependent": 6,
          "dependentGloss": "findet"
        },
        {
          "dep": "appos",
          "governor": 1,
          "governorGloss": "Frau",
          "dependent": 7,
          "dependentGloss": "Ehemann"
        },
        {
          "dep": "appos",
          "governor": 7,
          "governorGloss": "Ehemann",
          "dependent": 8,
          "dependentGloss": "Betrug"
        },
        {
          "dep": "case",
          "governor": 12,
          "governorGloss": "Zwilling",
          "dependent": 9,
          "dependentGloss": "mit"
        },
        {
          "dep": "det",
          "governor": 12,
          "governorGloss": "Zwilling",
          "dependent": 10,
          "dependentGloss": "ihrem"
        },
        {
          "dep": "amod",
          "governor": 12,
          "governorGloss": "Zwilling",
          "dependent": 11,
          "dependentGloss": "eigenen"
        },
        {
          "dep": "nmod",
          "governor": 1,
          "governorGloss": "Frau",
          "dependent": 12,
          "dependentGloss": "Zwilling"
        },
        {
          "dep": "punct",
          "governor": 12,
          "governorGloss": "Zwilling",
          "dependent": 13,
          "dependentGloss": ","
        },
        {
          "dep": "conj",
          "governor": 12,
          "governorGloss": "Zwilling",
          "dependent": 14,
          "dependentGloss": "erhält"
        },
        {
          "dep": "amod",
          "governor": 16,
          "governorGloss": "Rache",
          "dependent": 15,
          "dependentGloss": "spektakuläre"
        },
        {
          "dep": "dobj",
          "governor": 14,
          "governorGloss": "erhält",
          "dependent": 16,
          "dependentGloss": "Rache"
        }
      ],
      "enhancedPlusPlusDependencies": [
        {
          "dep": "ROOT",
          "governor": 0,
          "governorGloss": "ROOT",
          "dependent": 1,
          "dependentGloss": "Frau"
        },
        {
          "dep": "punct",
          "governor": 1,
          "governorGloss": "Frau",
          "dependent": 2,
          "dependentGloss": ","
        },
        {
          "dep": "name",
          "governor": 4,
          "governorGloss": "Su",
          "dependent": 3,
          "dependentGloss": "Ting"
        },
        {
          "dep": "appos",
          "governor": 1,
          "governorGloss": "Frau",
          "dependent": 4,
          "dependentGloss": "Su"
        },
        {
          "dep": "punct",
          "governor": 1,
          "governorGloss": "Frau",
          "dependent": 5,
          "dependentGloss": ","
        },
        {
          "dep": "amod",
          "governor": 7,
          "governorGloss": "Ehemann",
          "dependent": 6,
          "dependentGloss": "findet"
        },
        {
          "dep": "appos",
          "governor": 1,
          "governorGloss": "Frau",
          "dependent": 7,
          "dependentGloss": "Ehemann"
        },
        {
          "dep": "appos",
          "governor": 7,
          "governorGloss": "Ehemann",
          "dependent": 8,
          "dependentGloss": "Betrug"
        },
        {
          "dep": "case",
          "governor": 12,
          "governorGloss": "Zwilling",
          "dependent": 9,
          "dependentGloss": "mit"
        },
        {
          "dep": "det",
          "governor": 12,
          "governorGloss": "Zwilling",
          "dependent": 10,
          "dependentGloss": "ihrem"
        },
        {
          "dep": "amod",
          "governor": 12,
          "governorGloss": "Zwilling",
          "dependent": 11,
          "dependentGloss": "eigenen"
        },
        {
          "dep": "nmod",
          "governor": 1,
          "governorGloss": "Frau",
          "dependent": 12,
          "dependentGloss": "Zwilling"
        },
        {
          "dep": "punct",
          "governor": 12,
          "governorGloss": "Zwilling",
          "dependent": 13,
          "dependentGloss": ","
        },
        {
          "dep": "conj",
          "governor": 12,
          "governorGloss": "Zwilling",
          "dependent": 14,
          "dependentGloss": "erhält"
        },
        {
          "dep": "amod",
          "governor": 16,
          "governorGloss": "Rache",
          "dependent": 15,
          "dependentGloss": "spektakuläre"
        },
        {
          "dep": "dobj",
          "governor": 14,
          "governorGloss": "erhält",
          "dependent": 16,
          "dependentGloss": "Rache"
        }
      ],
      "tokens": [
        {
          "index": 1,
          "word": "Frau",
          "originalText": "Frau",
          "characterOffsetBegin": 0,
          "characterOffsetEnd": 4,
          "pos": "NN",
          "before": "",
          "after": ""
        },
        {
          "index": 2,
          "word": ",",
          "originalText": ",",
          "characterOffsetBegin": 4,
          "characterOffsetEnd": 5,
          "pos": "$,",
          "before": "",
          "after": " "
        },
        {
          "index": 3,
          "word": "Ting",
          "originalText": "Ting",
          "characterOffsetBegin": 6,
          "characterOffsetEnd": 10,
          "pos": "NE",
          "before": " ",
          "after": " "
        },
        {
          "index": 4,
          "word": "Su",
          "originalText": "Su",
          "characterOffsetBegin": 11,
          "characterOffsetEnd": 13,
          "pos": "NE",
          "before": " ",
          "after": ""
        },
        {
          "index": 5,
          "word": ",",
          "originalText": ",",
          "characterOffsetBegin": 13,
          "characterOffsetEnd": 14,
          "pos": "$,",
          "before": "",
          "after": " "
        },
        {
          "index": 6,
          "word": "findet",
          "originalText": "findet",
          "characterOffsetBegin": 15,
          "characterOffsetEnd": 21,
          "pos": "VVFIN",
          "before": " ",
          "after": " "
        },
        {
          "index": 7,
          "word": "Ehemann",
          "originalText": "Ehemann",
          "characterOffsetBegin": 22,
          "characterOffsetEnd": 29,
          "pos": "NN",
          "before": " ",
          "after": " "
        },
        {
          "index": 8,
          "word": "Betrug",
          "originalText": "Betrug",
          "characterOffsetBegin": 30,
          "characterOffsetEnd": 36,
          "pos": "NN",
          "before": " ",
          "after": " "
        },
        {
          "index": 9,
          "word": "mit",
          "originalText": "mit",
          "characterOffsetBegin": 37,
          "characterOffsetEnd": 40,
          "pos": "APPR",
          "before": " ",
          "after": " "
        },
        {
          "index": 10,
          "word": "ihrem",
          "originalText": "ihrem",
          "characterOffsetBegin": 41,
          "characterOffsetEnd": 46,
          "pos": "PPOSAT",
          "before": " ",
          "after": " "
        },
        {
          "index": 11,
          "word": "eigenen",
          "originalText": "eigenen",
          "characterOffsetBegin": 47,
          "characterOffsetEnd": 54,
          "pos": "ADJA",
          "before": " ",
          "after": " "
        },
        {
          "index": 12,
          "word": "Zwilling",
          "originalText": "Zwilling",
          "characterOffsetBegin": 55,
          "characterOffsetEnd": 63,
          "pos": "NN",
          "before": " ",
          "after": ""
        },
        {
          "index": 13,
          "word": ",",
          "originalText": ",",
          "characterOffsetBegin": 63,
          "characterOffsetEnd": 64,
          "pos": "$,",
          "before": "",
          "after": " "
        },
        {
          "index": 14,
          "word": "erhält",
          "originalText": "erhält",
          "characterOffsetBegin": 65,
          "characterOffsetEnd": 71,
          "pos": "VVFIN",
          "before": " ",
          "after": " "
        },
        {
          "index": 15,
          "word": "spektakuläre",
          "originalText": "spektakuläre",
          "characterOffsetBegin": 72,
          "characterOffsetEnd": 84,
          "pos": "ADJA",
          "before": " ",
          "after": " "
        },
        {
          "index": 16,
          "word": "Rache",
          "originalText": "Rache",
          "characterOffsetBegin": 85,
          "characterOffsetEnd": 90,
          "pos": "NN",
          "before": " ",
          "after": ""
        }
      ]
    }
  ]
}