{
  "sentences": [
    {
      "index": 0,
      "basicDependencies": [
        {
          "dep": "ROOT",
          "governor": 0,
          "governorGloss": "ROOT",
          "dependent": 2,
          "dependentGloss": "hielt"
        },
        {
          "dep": "nsubj",
          "governor": 2,
          "governorGloss": "hielt",
          "dependent": 1,
          "dependentGloss": "Sergeant-at-Arms"
        },
        {
          "dep": "dobj",
          "governor": 2,
          "governorGloss": "hielt",
          "dependent": 3,
          "dependentGloss": "Shooter"
        },
        {
          "dep": "case",
          "governor": 6,
          "governorGloss": "Parliament",
          "dependent": 4,
          "dependentGloss": "auf"
        },
        {
          "dep": "det",
          "governor": 6,
          "governorGloss": "Parliament",
          "dependent": 5,
          "dependentGloss": "dem"
        },
        {
          "dep": "nmod",
          "governor": 2,
          "governorGloss": "hielt",
          "dependent": 6,
          "dependentGloss": "Parliament"
        },
        {
          "dep": "iobj",
          "governor": 2,
          "governorGloss": "hielt",
          "dependent": 7,
          "dependentGloss": "Hill"
        }
      ],
      "enhancedDependencies": [
        {
          "dep": "ROOT",
          "governor": 0,
          "governorGloss": "ROOT",
          "dependent": 2,
          "dependentGloss": "hielt"
        },
        {
          "dep": "nsubj",
          "governor": 2,
          "governorGloss": "hielt",
          "dependent": 1,
          "dependentGloss": "Sergeant-at-Arms"
        },
        {
          "dep": "dobj",
          "governor": 2,
          "governorGloss": "hielt",
          "dependent": 3,
          "dependentGloss": "Shooter"
        },
        {
          "dep": "case",
          "governor": 6,
          "governorGloss": "Parliament",
          "dependent": 4,
          "dependentGloss": "auf"
        },
        {
          "dep": "det",
          "governor": 6,
          "governorGloss": "Parliament",
          "dependent": 5,
          "dependentGloss": "dem"
        },
        {
          "dep": "nmod",
          "governor": 2,
          "governorGloss": "hielt",
          "dependent": 6,
          "dependentGloss": "Parliament"
        },
        {
          "dep": "iobj",
          "governor": 2,
          "governorGloss": "hielt",
          "dependent": 7,
          "dependentGloss": "Hill"
        }
      ],
      "enhancedPlusPlusDependencies": [
        {
          "dep": "ROOT",
          "governor": 0,
          "governorGloss": "ROOT",
          "dependent": 2,
          "dependentGloss": "hielt"
        },
        {
          "dep": "nsubj",
          "governor": 2,
          "governorGloss": "hielt",
          "dependent": 1,
          "dependentGloss": "Sergeant-at-Arms"
        },
        {
          "dep": "dobj",
          "governor": 2,
          "governorGloss": "hielt",
          "dependent": 3,
          "dependentGloss": "Shooter"
        },
        {
          "dep": "case",
          "governor": 6,
          "governorGloss": "Parliament",
          "dependent": 4,
          "dependentGloss": "auf"
        },
        {
          "dep": "det",
          "governor": 6,
          "governorGloss": "Parliament",
          "dependent": 5,
          "dependentGloss": "dem"
        },
        {
          "dep": "nmod",
          "governor": 2,
          "governorGloss": "hielt",
          "dependent": 6,
          "dependentGloss": "Parliament"
        },
        {
          "dep": "iobj",
          "governor": 2,
          "governorGloss": "hielt",
          "dependent": 7,
          "dependentGloss": "Hill"
        }
      ],
      "tokens": [
        {
          "index": 1,
          "word": "Sergeant-at-Arms",
          "originalText": "Sergeant-at-Arms",
          "characterOffsetBegin": 0,
          "characterOffsetEnd": 16,
          "pos": "NN",
          "before": "",
          "after": " "
        },
        {
          "index": 2,
          "word": "hielt",
          "originalText": "hielt",
          "characterOffsetBegin": 17,
          "characterOffsetEnd": 22,
          "pos": "VVFIN",
          "before": " ",
          "after": " "
        },
        {
          "index": 3,
          "word": "Shooter",
          "originalText": "Shooter",
          "characterOffsetBegin": 23,
          "characterOffsetEnd": 30,
          "pos": "NE",
          "before": " ",
          "after": " "
        },
        {
          "index": 4,
          "word": "auf",
          "originalText": "auf",
          "characterOffsetBegin": 31,
          "characterOffsetEnd": 34,
          "pos": "APPR",
          "before": " ",
          "after": " "
        },
        {
          "index": 5,
          "word": "dem",
          "originalText": "dem",
          "characterOffsetBegin": 35,
          "characterOffsetEnd": 38,
          "pos": "ART",
          "before": " ",
          "after": " "
        },
        {
          "index": 6,
          "word": "Parliament",
          "originalText": "Parliament",
          "characterOffsetBegin": 39,
          "characterOffsetEnd": 49,
          "pos": "NN",
          "before": " ",
          "after": " "
        },
        {
          "index": 7,
          "word": "Hill",
          "originalText": "Hill",
          "characterOffsetBegin": 50,
          "characterOffsetEnd": 54,
          "pos": "NE",
          "before": " ",
          "after": ""
        }
      ]
    }
  ]
}