{
  "sentences": [
    {
      "index": 0,
      "basicDependencies": [
        {
          "dep": "ROOT",
          "governor": 0,
          "governorGloss": "ROOT",
          "dependent": 2,
          "dependentGloss": "bleibt"
        },
        {
          "dep": "nsubj",
          "governor": 2,
          "governorGloss": "bleibt",
          "dependent": 1,
          "dependentGloss": "Frau"
        },
        {
          "dep": "case",
          "governor": 4,
          "governorGloss": "KFC",
          "dependent": 3,
          "dependentGloss": "in"
        },
        {
          "dep": "nmod",
          "governor": 2,
          "governorGloss": "bleibt",
          "dependent": 4,
          "dependentGloss": "KFC"
        },
        {
          "dep": "case",
          "governor": 7,
          "governorGloss": "Woche",
          "dependent": 5,
          "dependentGloss": "für"
        },
        {
          "dep": "det",
          "governor": 7,
          "governorGloss": "Woche",
          "dependent": 6,
          "dependentGloss": "eine"
        },
        {
          "dep": "nmod",
          "governor": 2,
          "governorGloss": "bleibt",
          "dependent": 7,
          "dependentGloss": "Woche"
        },
        {
          "dep": "punct",
          "governor": 2,
          "governorGloss": "bleibt",
          "dependent": 8,
          "dependentGloss": ","
        },
        {
          "dep": "mark",
          "governor": 14,
          "governorGloss": "bekommen",
          "dependent": 9,
          "dependentGloss": "um"
        },
        {
          "dep": "case",
          "governor": 12,
          "governorGloss": "Break-Up",
          "dependent": 10,
          "dependentGloss": "über"
        },
        {
          "dep": "det",
          "governor": 12,
          "governorGloss": "Break-Up",
          "dependent": 11,
          "dependentGloss": "ihre"
        },
        {
          "dep": "nmod",
          "governor": 14,
          "governorGloss": "bekommen",
          "dependent": 12,
          "dependentGloss": "Break-Up"
        },
        {
          "dep": "aux",
          "governor": 14,
          "governorGloss": "bekommen",
          "dependent": 13,
          "dependentGloss": "zu"
        },
        {
          "dep": "advcl",
          "governor": 2,
          "governorGloss": "bleibt",
          "dependent": 14,
          "dependentGloss": "bekommen"
        }
      ],
      "enhancedDependencies": [
        {
          "dep": "ROOT",
          "governor": 0,
          "governorGloss": "ROOT",
          "dependent": 2,
          "dependentGloss": "bleibt"
        },
        {
          "dep": "nsubj",
          "governor": 2,
          "governorGloss": "bleibt",
          "dependent": 1,
          "dependentGloss": "Frau"
        },
        {
          "dep": "case",
          "governor": 4,
          "governorGloss": "KFC",
          "dependent": 3,
          "dependentGloss": "in"
        },
        {
          "dep": "nmod",
          "governor": 2,
          "governorGloss": "bleibt",
          "dependent": 4,
          "dependentGloss": "KFC"
        },
        {
          "dep": "case",
          "governor": 7,
          "governorGloss": "Woche",
          "dependent": 5,
          "dependentGloss": "für"
        },
        {
          "dep": "det",
          "governor": 7,
          "governorGloss": "Woche",
          "dependent": 6,
          "dependentGloss": "eine"
        },
        {
          "dep": "nmod",
          "governor": 2,
          "governorGloss": "bleibt",
          "dependent": 7,
          "dependentGloss": "Woche"
        },
        {
          "dep": "punct",
          "governor": 2,
          "governorGloss": "bleibt",
          "dependent": 8,
          "dependentGloss": ","
        },
        {
          "dep": "mark",
          "governor": 14,
          "governorGloss": "bekommen",
          "dependent": 9,
          "dependentGloss": "um"
        },
        {
          "dep": "case",
          "governor": 12,
          "governorGloss": "Break-Up",
          "dependent": 10,
          "dependentGloss": "über"
        },
        {
          "dep": "det",
          "governor": 12,
          "governorGloss": "Break-Up",
          "dependent": 11,
          "dependentGloss": "ihre"
        },
        {
          "dep": "nmod",
          "governor": 14,
          "governorGloss": "bekommen",
          "dependent": 12,
          "dependentGloss": "Break-Up"
        },
        {
          "dep": "aux",
          "governor": 14,
          "governorGloss": "bekommen",
          "dependent": 13,
          "dependentGloss": "zu"
        },
        {
          "dep": "advcl",
          "governor": 2,
          "governorGloss": "bleibt",
          "dependent": 14,
          "dependentGloss": "bekommen"
        }
      ],
      "enhancedPlusPlusDependencies": [
        {
          "dep": "ROOT",
          "governor": 0,
          "governorGloss": "ROOT",
          "dependent": 2,
          "dependentGloss": "bleibt"
        },
        {
          "dep": "nsubj",
          "governor": 2,
          "governorGloss": "bleibt",
          "dependent": 1,
          "dependentGloss": "Frau"
        },
        {
          "dep": "case",
          "governor": 4,
          "governorGloss": "KFC",
          "dependent": 3,
          "dependentGloss": "in"
        },
        {
          "dep": "nmod",
          "governor": 2,
          "governorGloss": "bleibt",
          "dependent": 4,
          "dependentGloss": "KFC"
        },
        {
          "dep": "case",
          "governor": 7,
          "governorGloss": "Woche",
          "dependent": 5,
          "dependentGloss": "für"
        },
        {
          "dep": "det",
          "governor": 7,
          "governorGloss": "Woche",
          "dependent": 6,
          "dependentGloss": "eine"
        },
        {
          "dep": "nmod",
          "governor": 2,
          "governorGloss": "bleibt",
          "dependent": 7,
          "dependentGloss": "Woche"
        },
        {
          "dep": "punct",
          "governor": 2,
          "governorGloss": "bleibt",
          "dependent": 8,
          "dependentGloss": ","
        },
        {
          "dep": "mark",
          "governor": 14,
          "governorGloss": "bekommen",
          "dependent": 9,
          "dependentGloss": "um"
        },
        {
          "dep": "case",
          "governor": 12,
          "governorGloss": "Break-Up",
          "dependent": 10,
          "dependentGloss": "über"
        },
        {
          "dep": "det",
          "governor": 12,
          "governorGloss": "Break-Up",
          "dependent": 11,
          "dependentGloss": "ihre"
        },
        {
          "dep": "nmod",
          "governor": 14,
          "governorGloss": "bekommen",
          "dependent": 12,
          "dependentGloss": "Break-Up"
        },
        {
          "dep": "aux",
          "governor": 14,
          "governorGloss": "bekommen",
          "dependent": 13,
          "dependentGloss": "zu"
        },
        {
          "dep": "advcl",
          "governor": 2,
          "governorGloss": "bleibt",
          "dependent": 14,
          "dependentGloss": "bekommen"
        }
      ],
      "tokens": [
        {
          "index": 1,
          "word": "Frau",
          "originalText": "Frau",
          "characterOffsetBegin": 0,
          "characterOffsetEnd": 4,
          "pos": "NN",
          "before": "",
          "after": " "
        },
        {
          "index": 2,
          "word": "bleibt",
          "originalText": "bleibt",
          "characterOffsetBegin": 5,
          "characterOffsetEnd": 11,
          "pos": "VVFIN",
          "before": " ",
          "after": " "
        },
        {
          "index": 3,
          "word": "in",
          "originalText": "in",
          "characterOffsetBegin": 12,
          "characterOffsetEnd": 14,
          "pos": "APPR",
          "before": " ",
          "after": " "
        },
        {
          "index": 4,
          "word": "KFC",
          "originalText": "KFC",
          "characterOffsetBegin": 15,
          "characterOffsetEnd": 18,
          "pos": "NE",
          "before": " ",
          "after": " "
        },
        {
          "index": 5,
          "word": "für",
          "originalText": "für",
          "characterOffsetBegin": 19,
          "characterOffsetEnd": 22,
          "pos": "APPR",
          "before": " ",
          "after": " "
        },
        {
          "index": 6,
          "word": "eine",
          "originalText": "eine",
          "characterOffsetBegin": 23,
          "characterOffsetEnd": 27,
          "pos": "ART",
          "before": " ",
          "after": " "
        },
        {
          "index": 7,
          "word": "Woche",
          "originalText": "Woche",
          "characterOffsetBegin": 28,
          "characterOffsetEnd": 33,
          "pos": "NN",
          "before": " ",
          "after": ""
        },
        {
          "index": 8,
          "word": ",",
          "originalText": ",",
          "characterOffsetBegin": 33,
          "characterOffsetEnd": 34,
          "pos": "$,",
          "before": "",
          "after": " "
        },
        {
          "index": 9,
          "word": "um",
          "originalText": "um",
          "characterOffsetBegin": 35,
          "characterOffsetEnd": 37,
          "pos": "KOUI",
          "before": " ",
          "after": " "
        },
        {
          "index": 10,
          "word": "über",
          "originalText": "über",
          "characterOffsetBegin": 38,
          "characterOffsetEnd": 42,
          "pos": "APPR",
          "before": " ",
          "after": " "
        },
        {
          "index": 11,
          "word": "ihre",
          "originalText": "ihre",
          "characterOffsetBegin": 43,
          "characterOffsetEnd": 47,
          "pos": "PPOSAT",
          "before": " ",
          "after": " "
        },
        {
          "index": 12,
          "word": "Break-Up",
          "originalText": "Break-Up",
          "characterOffsetBegin": 48,
          "characterOffsetEnd": 56,
          "pos": "NN",
          "before": " ",
          "after": " "
        },
        {
          "index": 13,
          "word": "zu",
          "originalText": "zu",
          "characterOffsetBegin": 57,
          "characterOffsetEnd": 59,
          "pos": "PTKZU",
          "before": " ",
          "after": " "
        },
        {
          "index": 14,
          "word": "bekommen",
          "originalText": "bekommen",
          "characterOffsetBegin": 60,
          "characterOffsetEnd": 68,
          "pos": "VVINF",
          "before": " ",
          "after": ""
        }
      ]
    }
  ]
}