{
  "sentences": [
    {
      "index": 0,
      "basicDependencies": [
        {
          "dep": "ROOT",
          "governor": 0,
          "governorGloss": "ROOT",
          "dependent": 2,
          "dependentGloss": "patrouillieren"
        },
        {
          "dep": "nsubj",
          "governor": 2,
          "governorGloss": "patrouillieren",
          "dependent": 1,
          "dependentGloss": "Roboter-Sicherheitsbeamten"
        },
        {
          "dep": "advmod",
          "governor": 2,
          "governorGloss": "patrouillieren",
          "dependent": 3,
          "dependentGloss": "jetzt"
        },
        {
          "dep": "name",
          "governor": 6,
          "governorGloss": "Valley",
          "dependent": 4,
          "dependentGloss": "Microsofts"
        },
        {
          "dep": "name",
          "governor": 6,
          "governorGloss": "Valley",
          "dependent": 5,
          "dependentGloss": "Silicon"
        },
        {
          "dep": "dobj",
          "governor": 2,
          "governorGloss": "patrouillieren",
          "dependent": 6,
          "dependentGloss": "Valley"
        },
        {
          "dep": "punct",
          "governor": 2,
          "governorGloss": "patrouillieren",
          "dependent": 7,
          "dependentGloss": "Campus"
        }
      ],
      "enhancedDependencies": [
        {
          "dep": "ROOT",
          "governor": 0,
          "governorGloss": "ROOT",
          "dependent": 2,
          "dependentGloss": "patrouillieren"
        },
        {
          "dep": "nsubj",
          "governor": 2,
          "governorGloss": "patrouillieren",
          "dependent": 1,
          "dependentGloss": "Roboter-Sicherheitsbeamten"
        },
        {
          "dep": "advmod",
          "governor": 2,
          "governorGloss": "patrouillieren",
          "dependent": 3,
          "dependentGloss": "jetzt"
        },
        {
          "dep": "name",
          "governor": 6,
          "governorGloss": "Valley",
          "dependent": 4,
          "dependentGloss": "Microsofts"
        },
        {
          "dep": "name",
          "governor": 6,
          "governorGloss": "Valley",
          "dependent": 5,
          "dependentGloss": "Silicon"
        },
        {
          "dep": "dobj",
          "governor": 2,
          "governorGloss": "patrouillieren",
          "dependent": 6,
          "dependentGloss": "Valley"
        },
        {
          "dep": "punct",
          "governor": 2,
          "governorGloss": "patrouillieren",
          "dependent": 7,
          "dependentGloss": "Campus"
        }
      ],
      "enhancedPlusPlusDependencies": [
        {
          "dep": "ROOT",
          "governor": 0,
          "governorGloss": "ROOT",
          "dependent": 2,
          "dependentGloss": "patrouillieren"
        },
        {
          "dep": "nsubj",
          "governor": 2,
          "governorGloss": "patrouillieren",
          "dependent": 1,
          "dependentGloss": "Roboter-Sicherheitsbeamten"
        },
        {
          "dep": "advmod",
          "governor": 2,
          "governorGloss": "patrouillieren",
          "dependent": 3,
          "dependentGloss": "jetzt"
        },
        {
          "dep": "name",
          "governor": 6,
          "governorGloss": "Valley",
          "dependent": 4,
          "dependentGloss": "Microsofts"
        },
        {
          "dep": "name",
          "governor": 6,
          "governorGloss": "Valley",
          "dependent": 5,
          "dependentGloss": "Silicon"
        },
        {
          "dep": "dobj",
          "governor": 2,
          "governorGloss": "patrouillieren",
          "dependent": 6,
          "dependentGloss": "Valley"
        },
        {
          "dep": "punct",
          "governor": 2,
          "governorGloss": "patrouillieren",
          "dependent": 7,
          "dependentGloss": "Campus"
        }
      ],
      "tokens": [
        {
          "index": 1,
          "word": "Roboter-Sicherheitsbeamten",
          "originalText": "Roboter-Sicherheitsbeamten",
          "characterOffsetBegin": 0,
          "characterOffsetEnd": 26,
          "pos": "NN",
          "before": "",
          "after": " "
        },
        {
          "index": 2,
          "word": "patrouillieren",
          "originalText": "patrouillieren",
          "characterOffsetBegin": 27,
          "characterOffsetEnd": 41,
          "pos": "VVFIN",
          "before": " ",
          "after": " "
        },
        {
          "index": 3,
          "word": "jetzt",
          "originalText": "jetzt",
          "characterOffsetBegin": 42,
          "characterOffsetEnd": 47,
          "pos": "ADV",
          "before": " ",
          "after": " "
        },
        {
          "index": 4,
          "word": "Microsofts",
          "originalText": "Microsofts",
          "characterOffsetBegin": 48,
          "characterOffsetEnd": 58,
          "pos": "NE",
          "before": " ",
          "after": " "
        },
        {
          "index": 5,
          "word": "Silicon",
          "originalText": "Silicon",
          "characterOffsetBegin": 59,
          "characterOffsetEnd": 66,
          "pos": "NE",
          "before": " ",
          "after": " "
        },
        {
          "index": 6,
          "word": "Valley",
          "originalText": "Valley",
          "characterOffsetBegin": 67,
          "characterOffsetEnd": 73,
          "pos": "NE",
          "before": " ",
          "after": " "
        },
        {
          "index": 7,
          "word": "Campus",
          "originalText": "Campus",
          "characterOffsetBegin": 74,
          "characterOffsetEnd": 80,
          "pos": "NN",
          "before": " ",
          "after": ""
        }
      ]
    }
  ]
}