{
  "sentences": [
    {
      "index": 0,
      "basicDependencies": [
        {
          "dep": "ROOT",
          "governor": 0,
          "governorGloss": "ROOT",
          "dependent": 9,
          "dependentGloss": "Dinner"
        },
        {
          "dep": "case",
          "governor": 5,
          "governorGloss": "300K",
          "dependent": 1,
          "dependentGloss": "Vice"
        },
        {
          "dep": "name",
          "governor": 5,
          "governorGloss": "300K",
          "dependent": 2,
          "dependentGloss": "CEO"
        },
        {
          "dep": "nummod",
          "governor": 4,
          "governorGloss": "$",
          "dependent": 3,
          "dependentGloss": "wirft"
        },
        {
          "dep": "nmod",
          "governor": 5,
          "governorGloss": "300K",
          "dependent": 4,
          "dependentGloss": "$"
        },
        {
          "dep": "nmod",
          "governor": 9,
          "governorGloss": "Dinner",
          "dependent": 5,
          "dependentGloss": "300K"
        },
        {
          "dep": "case",
          "governor": 8,
          "governorGloss": "Vegas",
          "dependent": 6,
          "dependentGloss": "auf"
        },
        {
          "dep": "amod",
          "governor": 8,
          "governorGloss": "Vegas",
          "dependent": 7,
          "dependentGloss": "Lavish"
        },
        {
          "dep": "nmod",
          "governor": 5,
          "governorGloss": "300K",
          "dependent": 8,
          "dependentGloss": "Vegas"
        }
      ],
      "enhancedDependencies": [
        {
          "dep": "ROOT",
          "governor": 0,
          "governorGloss": "ROOT",
          "dependent": 9,
          "dependentGloss": "Dinner"
        },
        {
          "dep": "case",
          "governor": 5,
          "governorGloss": "300K",
          "dependent": 1,
          "dependentGloss": "Vice"
        },
        {
          "dep": "name",
          "governor": 5,
          "governorGloss": "300K",
          "dependent": 2,
          "dependentGloss": "CEO"
        },
        {
          "dep": "nummod",
          "governor": 4,
          "governorGloss": "$",
          "dependent": 3,
          "dependentGloss": "wirft"
        },
        {
          "dep": "nmod",
          "governor": 5,
          "governorGloss": "300K",
          "dependent": 4,
          "dependentGloss": "$"
        },
        {
          "dep": "nmod",
          "governor": 9,
          "governorGloss": "Dinner",
          "dependent": 5,
          "dependentGloss": "300K"
        },
        {
          "dep": "case",
          "governor": 8,
          "governorGloss": "Vegas",
          "dependent": 6,
          "dependentGloss": "auf"
        },
        {
          "dep": "amod",
          "governor": 8,
          "governorGloss": "Vegas",
          "dependent": 7,
          "dependentGloss": "Lavish"
        },
        {
          "dep": "nmod",
          "governor": 5,
          "governorGloss": "300K",
          "dependent": 8,
          "dependentGloss": "Vegas"
        }
      ],
      "enhancedPlusPlusDependencies": [
        {
          "dep": "ROOT",
          "governor": 0,
          "governorGloss": "ROOT",
          "dependent": 9,
          "dependentGloss": "Dinner"
        },
        {
          "dep": "case",
          "governor": 5,
          "governorGloss": "300K",
          "dependent": 1,
          "dependentGloss": "Vice"
        },
        {
          "dep": "name",
          "governor": 5,
          "governorGloss": "300K",
          "dependent": 2,
          "dependentGloss": "CEO"
        },
        {
          "dep": "nummod",
          "governor": 4,
          "governorGloss": "$",
          "dependent": 3,
          "dependentGloss": "wirft"
        },
        {
          "dep": "nmod",
          "governor": 5,
          "governorGloss": "300K",
          "dependent": 4,
          "dependentGloss": "$"
        },
        {
          "dep": "nmod",
          "governor": 9,
          "governorGloss": "Dinner",
          "dependent": 5,
          "dependentGloss": "300K"
        },
        {
          "dep": "case",
          "governor": 8,
          "governorGloss": "Vegas",
          "dependent": 6,
          "dependentGloss": "auf"
        },
        {
          "dep": "amod",
          "governor": 8,
          "governorGloss": "Vegas",
          "dependent": 7,
          "dependentGloss": "Lavish"
        },
        {
          "dep": "nmod",
          "governor": 5,
          "governorGloss": "300K",
          "dependent": 8,
          "dependentGloss": "Vegas"
        }
      ],
      "tokens": [
        {
          "index": 1,
          "word": "Vice",
          "originalText": "Vice",
          "characterOffsetBegin": 0,
          "characterOffsetEnd": 4,
          "pos": "NN",
          "before": "",
          "after": " "
        },
        {
          "index": 2,
          "word": "CEO",
          "originalText": "CEO",
          "characterOffsetBegin": 5,
          "characterOffsetEnd": 8,
          "pos": "NE",
          "before": " ",
          "after": " "
        },
        {
          "index": 3,
          "word": "wirft",
          "originalText": "wirft",
          "characterOffsetBegin": 9,
          "characterOffsetEnd": 14,
          "pos": "VVFIN",
          "before": " ",
          "after": " "
        },
        {
          "index": 4,
          "word": "$",
          "originalText": "$",
          "characterOffsetBegin": 15,
          "characterOffsetEnd": 16,
          "pos": "CARD",
          "before": " ",
          "after": " "
        },
        {
          "index": 5,
          "word": "300K",
          "originalText": "300K",
          "characterOffsetBegin": 17,
          "characterOffsetEnd": 21,
          "pos": "NN",
          "before": " ",
          "after": " "
        },
        {
          "index": 6,
          "word": "auf",
          "originalText": "auf",
          "characterOffsetBegin": 22,
          "characterOffsetEnd": 25,
          "pos": "APPR",
          "before": " ",
          "after": " "
        },
        {
          "index": 7,
          "word": "Lavish",
          "originalText": "Lavish",
          "characterOffsetBegin": 26,
          "characterOffsetEnd": 32,
          "pos": "NE",
          "before": " ",
          "after": " "
        },
        {
          "index": 8,
          "word": "Vegas",
          "originalText": "Vegas",
          "characterOffsetBegin": 33,
          "characterOffsetEnd": 38,
          "pos": "NE",
          "before": " ",
          "after": " "
        },
        {
          "index": 9,
          "word": "Dinner",
          "originalText": "Dinner",
          "characterOffsetBegin": 39,
          "characterOffsetEnd": 45,
          "pos": "NN",
          "before": " ",
          "after": ""
        }
      ]
    }
  ]
}