{
  "sentences": [
    {
      "index": 0,
      "basicDependencies": [
        {
          "dep": "ROOT",
          "governor": 0,
          "governorGloss": "ROOT",
          "dependent": 8,
          "dependentGloss": "verhaftet"
        },
        {
          "dep": "det",
          "governor": 2,
          "governorGloss": "Bündel",
          "dependent": 1,
          "dependentGloss": "Ein"
        },
        {
          "dep": "nsubj",
          "governor": 5,
          "governorGloss": "dachte",
          "dependent": 2,
          "dependentGloss": "Bündel"
        },
        {
          "dep": "case",
          "governor": 4,
          "governorGloss": "Menschen",
          "dependent": 3,
          "dependentGloss": "von"
        },
        {
          "dep": "nmod",
          "governor": 2,
          "governorGloss": "Bündel",
          "dependent": 4,
          "dependentGloss": "Menschen"
        },
        {
          "dep": "nsubjpass",
          "governor": 8,
          "governorGloss": "verhaftet",
          "dependent": 5,
          "dependentGloss": "dachte"
        },
        {
          "dep": "advmod",
          "governor": 5,
          "governorGloss": "dachte",
          "dependent": 6,
          "dependentGloss": "Banksy"
        },
        {
          "dep": "auxpass",
          "governor": 8,
          "governorGloss": "verhaftet",
          "dependent": 7,
          "dependentGloss": "wurde"
        },
        {
          "dep": "punct",
          "governor": 8,
          "governorGloss": "verhaftet",
          "dependent": 9,
          "dependentGloss": ","
        },
        {
          "dep": "cc",
          "governor": 8,
          "governorGloss": "verhaftet",
          "dependent": 10,
          "dependentGloss": "aber"
        },
        {
          "dep": "nsubj",
          "governor": 14,
          "governorGloss": "Hoax",
          "dependent": 11,
          "dependentGloss": "es"
        },
        {
          "dep": "cop",
          "governor": 14,
          "governorGloss": "Hoax",
          "dependent": 12,
          "dependentGloss": "war"
        },
        {
          "dep": "det",
          "governor": 14,
          "governorGloss": "Hoax",
          "dependent": 13,
          "dependentGloss": "ein"
        },
        {
          "dep": "conj",
          "governor": 8,
          "governorGloss": "verhaftet",
          "dependent": 14,
          "dependentGloss": "Hoax"
        }
      ],
      "enhancedDependencies": [
        {
          "dep": "ROOT",
          "governor": 0,
          "governorGloss": "ROOT",
          "dependent": 8,
          "dependentGloss": "verhaftet"
        },
        {
          "dep": "det",
          "governor": 2,
          "governorGloss": "Bündel",
          "dependent": 1,
          "dependentGloss": "Ein"
        },
        {
          "dep": "nsubj",
          "governor": 5,
          "governorGloss": "dachte",
          "dependent": 2,
          "dependentGloss": "Bündel"
        },
        {
          "dep": "case",
          "governor": 4,
          "governorGloss": "Menschen",
          "dependent": 3,
          "dependentGloss": "von"
        },
        {
          "dep": "nmod",
          "governor": 2,
          "governorGloss": "Bündel",
          "dependent": 4,
          "dependentGloss": "Menschen"
        },
        {
          "dep": "nsubjpass",
          "governor": 8,
          "governorGloss": "verhaftet",
          "dependent": 5,
          "dependentGloss": "dachte"
        },
        {
          "dep": "advmod",
          "governor": 5,
          "governorGloss": "dachte",
          "dependent": 6,
          "dependentGloss": "Banksy"
        },
        {
          "dep": "auxpass",
          "governor": 8,
          "governorGloss": "verhaftet",
          "dependent": 7,
          "dependentGloss": "wurde"
        },
        {
          "dep": "punct",
          "governor": 8,
          "governorGloss": "verhaftet",
          "dependent": 9,
          "dependentGloss": ","
        },
        {
          "dep": "cc",
          "governor": 8,
          "governorGloss": "verhaftet",
          "dependent": 10,
          "dependentGloss": "aber"
        },
        {
          "dep": "nsubj",
          "governor": 14,
          "governorGloss": "Hoax",
          "dependent": 11,
          "dependentGloss": "es"
        },
        {
          "dep": "cop",
          "governor": 14,
          "governorGloss": "Hoax",
          "dependent": 12,
          "dependentGloss": "war"
        },
        {
          "dep": "det",
          "governor": 14,
          "governorGloss": "Hoax",
          "dependent": 13,
          "dependentGloss": "ein"
        },
        {
          "dep": "conj:aber",
          "governor": 8,
          "governorGloss": "verhaftet",
          "dependent": 14,
          "dependentGloss": "Hoax"
        }
      ],
      "enhancedPlusPlusDependencies": [
        {
          "dep": "ROOT",
          "governor": 0,
          "governorGloss": "ROOT",
          "dependent": 8,
          "dependentGloss": "verhaftet"
        },
        {
          "dep": "det",
          "governor": 2,
          "governorGloss": "Bündel",
          "dependent": 1,
          "dependentGloss": "Ein"
        },
        {
          "dep": "nsubj",
          "governor": 5,
          "governorGloss": "dachte",
          "dependent": 2,
          "dependentGloss": "Bündel"
        },
        {
          "dep": "case",
          "governor": 4,
          "governorGloss": "Menschen",
          "dependent": 3,
          "dependentGloss": "von"
        },
        {
          "dep": "nmod",
          "governor": 2,
          "governorGloss": "Bündel",
          "dependent": 4,
          "dependentGloss": "Menschen"
        },
        {
          "dep": "nsubjpass",
          "governor": 8,
          "governorGloss": "verhaftet",
          "dependent": 5,
          "dependentGloss": "dachte"
        },
        {
          "dep": "advmod",
          "governor": 5,
          "governorGloss": "dachte",
          "dependent": 6,
          "dependentGloss": "Banksy"
        },
        {
          "dep": "auxpass",
          "governor": 8,
          "governorGloss": "verhaftet",
          "dependent": 7,
          "dependentGloss": "wurde"
        },
        {
          "dep": "punct",
          "governor": 8,
          "governorGloss": "verhaftet",
          "dependent": 9,
          "dependentGloss": ","
        },
        {
          "dep": "cc",
          "governor": 8,
          "governorGloss": "verhaftet",
          "dependent": 10,
          "dependentGloss": "aber"
        },
        {
          "dep": "nsubj",
          "governor": 14,
          "governorGloss": "Hoax",
          "dependent": 11,
          "dependentGloss": "es"
        },
        {
          "dep": "cop",
          "governor": 14,
          "governorGloss": "Hoax",
          "dependent": 12,
          "dependentGloss": "war"
        },
        {
          "dep": "det",
          "governor": 14,
          "governorGloss": "Hoax",
          "dependent": 13,
          "dependentGloss": "ein"
        },
        {
          "dep": "conj:aber",
          "governor": 8,
          "governorGloss": "verhaftet",
          "dependent": 14,
          "dependentGloss": "Hoax"
        }
      ],
      "tokens": [
        {
          "index": 1,
          "word": "Ein",
          "originalText": "Ein",
          "characterOffsetBegin": 0,
          "characterOffsetEnd": 3,
          "pos": "ART",
          "before": "",
          "after": " "
        },
        {
          "index": 2,
          "word": "Bündel",
          "originalText": "Bündel",
          "characterOffsetBegin": 4,
          "characterOffsetEnd": 10,
          "pos": "NN",
          "before": " ",
          "after": " "
        },
        {
          "index": 3,
          "word": "von",
          "originalText": "von",
          "characterOffsetBegin": 11,
          "characterOffsetEnd": 14,
          "pos": "APPR",
          "before": " ",
          "after": " "
        },
        {
          "index": 4,
          "word": "Menschen",
          "originalText": "Menschen",
          "characterOffsetBegin": 15,
          "characterOffsetEnd": 23,
          "pos": "NN",
          "before": " ",
          "after": " "
        },
        {
          "index": 5,
          "word": "dachte",
          "originalText": "dachte",
          "characterOffsetBegin": 24,
          "characterOffsetEnd": 30,
          "pos": "VVFIN",
          "before": " ",
          "after": " "
        },
        {
          "index": 6,
          "word": "Banksy",
          "originalText": "Banksy",
          "characterOffsetBegin": 31,
          "characterOffsetEnd": 37,
          "pos": "NE",
          "before": " ",
          "after": " "
        },
        {
          "index": 7,
          "word": "wurde",
          "originalText": "wurde",
          "characterOffsetBegin": 38,
          "characterOffsetEnd": 43,
          "pos": "VAFIN",
          "before": " ",
          "after": " "
        },
        {
          "index": 8,
          "word": "verhaftet",
          "originalText": "verhaftet",
          "characterOffsetBegin": 44,
          "characterOffsetEnd": 53,
          "pos": "VVPP",
          "before": " ",
          "after": ""
        },
        {
          "index": 9,
          "word": ",",
          "originalText": ",",
          "characterOffsetBegin": 53,
          "characterOffsetEnd": 54,
          "pos": "$,",
          "before": "",
          "after": " "
        },
        {
          "index": 10,
          "word": "aber",
          "originalText": "aber",
          "characterOffsetBegin": 55,
          "characterOffsetEnd": 59,
          "pos": "KON",
          "before": " ",
          "after": " "
        },
        {
          "index": 11,
          "word": "es",
          "originalText": "es",
          "characterOffsetBegin": 60,
          "characterOffsetEnd": 62,
          "pos": "PPER",
          "before": " ",
          "after": " "
        },
        {
          "index": 12,
          "word": "war",
          "originalText": "war",
          "characterOffsetBegin": 63,
          "characterOffsetEnd": 66,
          "pos": "VAFIN",
          "before": " ",
          "after": " "
        },
        {
          "index": 13,
          "word": "ein",
          "originalText": "ein",
          "characterOffsetBegin": 67,
          "characterOffsetEnd": 70,
          "pos": "ART",
          "before": " ",
          "after": " "
        },
        {
          "index": 14,
          "word": "Hoax",
          "originalText": "Hoax",
          "characterOffsetBegin": 71,
          "characterOffsetEnd": 75,
          "pos": "NE",
          "before": " ",
          "after": ""
        }
      ]
    }
  ]
}