{
  "sentences": [
    {
      "index": 0,
      "basicDependencies": [
        {
          "dep": "ROOT",
          "governor": 0,
          "governorGloss": "ROOT",
          "dependent": 2,
          "dependentGloss": "ist"
        },
        {
          "dep": "nsubj",
          "governor": 2,
          "governorGloss": "ist",
          "dependent": 1,
          "dependentGloss": "Dies"
        },
        {
          "dep": "punct",
          "governor": 2,
          "governorGloss": "ist",
          "dependent": 3,
          "dependentGloss": ","
        },
        {
          "dep": "dep",
          "governor": 2,
          "governorGloss": "ist",
          "dependent": 4,
          "dependentGloss": "was"
        },
        {
          "dep": "det",
          "governor": 6,
          "governorGloss": "Sonnenbaby",
          "dependent": 5,
          "dependentGloss": "das"
        },
        {
          "dep": "acl",
          "governor": 4,
          "governorGloss": "was",
          "dependent": 6,
          "dependentGloss": "Sonnenbaby"
        },
        {
          "dep": "case",
          "governor": 11,
          "governorGloss": "aussieht",
          "dependent": 7,
          "dependentGloss": "aus"
        },
        {
          "dep": "punct",
          "governor": 9,
          "governorGloss": "Teletubbies",
          "dependent": 8,
          "dependentGloss": "`"
        },
        {
          "dep": "det",
          "governor": 11,
          "governorGloss": "aussieht",
          "dependent": 9,
          "dependentGloss": "Teletubbies"
        },
        {
          "dep": "case",
          "governor": 9,
          "governorGloss": "Teletubbies",
          "dependent": 10,
          "dependentGloss": "'"
        },
        {
          "dep": "nmod",
          "governor": 6,
          "governorGloss": "Sonnenbaby",
          "dependent": 11,
          "dependentGloss": "aussieht"
        },
        {
          "dep": "case",
          "governor": 13,
          "governorGloss": "jetzt",
          "dependent": 12,
          "dependentGloss": "wie"
        },
        {
          "dep": "nmod",
          "governor": 11,
          "governorGloss": "aussieht",
          "dependent": 13,
          "dependentGloss": "jetzt"
        }
      ],
      "enhancedDependencies": [
        {
          "dep": "ROOT",
          "governor": 0,
          "governorGloss": "ROOT",
          "dependent": 2,
          "dependentGloss": "ist"
        },
        {
          "dep": "nsubj",
          "governor": 2,
          "governorGloss": "ist",
          "dependent": 1,
          "dependentGloss": "Dies"
        },
        {
          "dep": "punct",
          "governor": 2,
          "governorGloss": "ist",
          "dependent": 3,
          "dependentGloss": ","
        },
        {
          "dep": "dep",
          "governor": 2,
          "governorGloss": "ist",
          "dependent": 4,
          "dependentGloss": "was"
        },
        {
          "dep": "det",
          "governor": 6,
          "governorGloss": "Sonnenbaby",
          "dependent": 5,
          "dependentGloss": "das"
        },
        {
          "dep": "acl",
          "governor": 4,
          "governorGloss": "was",
          "dependent": 6,
          "dependentGloss": "Sonnenbaby"
        },
        {
          "dep": "case",
          "governor": 11,
          "governorGloss": "aussieht",
          "dependent": 7,
          "dependentGloss": "aus"
        },
        {
          "dep": "punct",
          "governor": 9,
          "governorGloss": "Teletubbies",
          "dependent": 8,
          "dependentGloss": "`"
        },
        {
          "dep": "det",
          "governor": 11,
          "governorGloss": "aussieht",
          "dependent": 9,
          "dependentGloss": "Teletubbies"
        },
        {
          "dep": "case",
          "governor": 9,
          "governorGloss": "Teletubbies",
          "dependent": 10,
          "dependentGloss": "'"
        },
        {
          "dep": "nmod",
          "governor": 6,
          "governorGloss": "Sonnenbaby",
          "dependent": 11,
          "dependentGloss": "aussieht"
        },
        {
          "dep": "case",
          "governor": 13,
          "governorGloss": "jetzt",
          "dependent": 12,
          "dependentGloss": "wie"
        },
        {
          "dep": "nmod",
          "governor": 11,
          "governorGloss": "aussieht",
          "dependent": 13,
          "dependentGloss": "jetzt"
        }
      ],
      "enhancedPlusPlusDependencies": [
        {
          "dep": "ROOT",
          "governor": 0,
          "governorGloss": "ROOT",
          "dependent": 2,
          "dependentGloss": "ist"
        },
        {
          "dep": "nsubj",
          "governor": 2,
          "governorGloss": "ist",
          "dependent": 1,
          "dependentGloss": "Dies"
        },
        {
          "dep": "punct",
          "governor": 2,
          "governorGloss": "ist",
          "dependent": 3,
          "dependentGloss": ","
        },
        {
          "dep": "dep",
          "governor": 2,
          "governorGloss": "ist",
          "dependent": 4,
          "dependentGloss": "was"
        },
        {
          "dep": "det",
          "governor": 6,
          "governorGloss": "Sonnenbaby",
          "dependent": 5,
          "dependentGloss": "das"
        },
        {
          "dep": "acl",
          "governor": 4,
          "governorGloss": "was",
          "dependent": 6,
          "dependentGloss": "Sonnenbaby"
        },
        {
          "dep": "case",
          "governor": 11,
          "governorGloss": "aussieht",
          "dependent": 7,
          "dependentGloss": "aus"
        },
        {
          "dep": "punct",
          "governor": 9,
          "governorGloss": "Teletubbies",
          "dependent": 8,
          "dependentGloss": "`"
        },
        {
          "dep": "det",
          "governor": 11,
          "governorGloss": "aussieht",
          "dependent": 9,
          "dependentGloss": "Teletubbies"
        },
        {
          "dep": "case",
          "governor": 9,
          "governorGloss": "Teletubbies",
          "dependent": 10,
          "dependentGloss": "'"
        },
        {
          "dep": "nmod",
          "governor": 6,
          "governorGloss": "Sonnenbaby",
          "dependent": 11,
          "dependentGloss": "aussieht"
        },
        {
          "dep": "case",
          "governor": 13,
          "governorGloss": "jetzt",
          "dependent": 12,
          "dependentGloss": "wie"
        },
        {
          "dep": "nmod",
          "governor": 11,
          "governorGloss": "aussieht",
          "dependent": 13,
          "dependentGloss": "jetzt"
        }
      ],
      "tokens": [
        {
          "index": 1,
          "word": "Dies",
          "originalText": "Dies",
          "characterOffsetBegin": 0,
          "characterOffsetEnd": 4,
          "pos": "PDS",
          "before": "",
          "after": " "
        },
        {
          "index": 2,
          "word": "ist",
          "originalText": "ist",
          "characterOffsetBegin": 5,
          "characterOffsetEnd": 8,
          "pos": "VAFIN",
          "before": " ",
          "after": ""
        },
        {
          "index": 3,
          "word": ",",
          "originalText": ",",
          "characterOffsetBegin": 8,
          "characterOffsetEnd": 9,
          "pos": "$,",
          "before": "",
          "after": " "
        },
        {
          "index": 4,
          "word": "was",
          "originalText": "was",
          "characterOffsetBegin": 10,
          "characterOffsetEnd": 13,
          "pos": "PWS",
          "before": " ",
          "after": " "
        },
        {
          "index": 5,
          "word": "das",
          "originalText": "das",
          "characterOffsetBegin": 14,
          "characterOffsetEnd": 17,
          "pos": "ART",
          "before": " ",
          "after": " "
        },
        {
          "index": 6,
          "word": "Sonnenbaby",
          "originalText": "Sonnenbaby",
          "characterOffsetBegin": 18,
          "characterOffsetEnd": 28,
          "pos": "NN",
          "before": " ",
          "after": " "
        },
        {
          "index": 7,
          "word": "aus",
          "originalText": "aus",
          "characterOffsetBegin": 29,
          "characterOffsetEnd": 32,
          "pos": "APPR",
          "before": " ",
          "after": " "
        },
        {
          "index": 8,
          "word": "`",
          "originalText": "'",
          "characterOffsetBegin": 33,
          "characterOffsetEnd": 34,
          "pos": "CARD",
          "before": " ",
          "after": ""
        },
        {
          "index": 9,
          "word": "Teletubbies",
          "originalText": "Teletubbies",
          "characterOffsetBegin": 34,
          "characterOffsetEnd": 45,
          "pos": "NN",
          "before": "",
          "after": ""
        },
        {
          "index": 10,
          "word": "'",
          "originalText": "'",
          "characterOffsetBegin": 45,
          "characterOffsetEnd": 46,
          "pos": "$[",
          "before": "",
          "after": " "
        },
        {
          "index": 11,
          "word": "aussieht",
          "originalText": "aussieht",
          "characterOffsetBegin": 47,
          "characterOffsetEnd": 55,
          "pos": "VVFIN",
          "before": " ",
          "after": " "
        },
        {
          "index": 12,
          "word": "wie",
          "originalText": "wie",
          "characterOffsetBegin": 56,
          "characterOffsetEnd": 59,
          "pos": "KOKOM",
          "before": " ",
          "after": " "
        },
        {
          "index": 13,
          "word": "jetzt",
          "originalText": "jetzt",
          "characterOffsetBegin": 60,
          "characterOffsetEnd": 65,
          "pos": "ADV",
          "before": " ",
          "after": ""
        }
      ]
    }
  ]
}