{
  "sentences": [
    {
      "index": 0,
      "basicDependencies": [
        {
          "dep": "ROOT",
          "governor": 0,
          "governorGloss": "ROOT",
          "dependent": 4,
          "dependentGloss": "erhöhen"
        },
        {
          "dep": "advmod",
          "governor": 4,
          "governorGloss": "erhöhen",
          "dependent": 1,
          "dependentGloss": "Fehlende"
        },
        {
          "dep": "amod",
          "governor": 3,
          "governorGloss": "Jetliner",
          "dependent": 2,
          "dependentGloss": "libysche"
        },
        {
          "dep": "dobj",
          "governor": 4,
          "governorGloss": "erhöhen",
          "dependent": 3,
          "dependentGloss": "Jetliner"
        },
        {
          "dep": "nsubj",
          "governor": 4,
          "governorGloss": "erhöhen",
          "dependent": 5,
          "dependentGloss": "Angst"
        },
        {
          "dep": "case",
          "governor": 8,
          "governorGloss": "am",
          "dependent": 6,
          "dependentGloss": "vor"
        },
        {
          "dep": "amod",
          "governor": 8,
          "governorGloss": "am",
          "dependent": 7,
          "dependentGloss": "Terrorangriffen"
        },
        {
          "dep": "nmod",
          "governor": 4,
          "governorGloss": "erhöhen",
          "dependent": 8,
          "dependentGloss": "am"
        },
        {
          "dep": "mark",
          "governor": 4,
          "governorGloss": "erhöhen",
          "dependent": 9,
          "dependentGloss": "11"
        },
        {
          "dep": "punct",
          "governor": 4,
          "governorGloss": "erhöhen",
          "dependent": 10,
          "dependentGloss": "."
        }
      ],
      "enhancedDependencies": [
        {
          "dep": "ROOT",
          "governor": 0,
          "governorGloss": "ROOT",
          "dependent": 4,
          "dependentGloss": "erhöhen"
        },
        {
          "dep": "advmod",
          "governor": 4,
          "governorGloss": "erhöhen",
          "dependent": 1,
          "dependentGloss": "Fehlende"
        },
        {
          "dep": "amod",
          "governor": 3,
          "governorGloss": "Jetliner",
          "dependent": 2,
          "dependentGloss": "libysche"
        },
        {
          "dep": "dobj",
          "governor": 4,
          "governorGloss": "erhöhen",
          "dependent": 3,
          "dependentGloss": "Jetliner"
        },
        {
          "dep": "nsubj",
          "governor": 4,
          "governorGloss": "erhöhen",
          "dependent": 5,
          "dependentGloss": "Angst"
        },
        {
          "dep": "case",
          "governor": 8,
          "governorGloss": "am",
          "dependent": 6,
          "dependentGloss": "vor"
        },
        {
          "dep": "amod",
          "governor": 8,
          "governorGloss": "am",
          "dependent": 7,
          "dependentGloss": "Terrorangriffen"
        },
        {
          "dep": "nmod",
          "governor": 4,
          "governorGloss": "erhöhen",
          "dependent": 8,
          "dependentGloss": "am"
        },
        {
          "dep": "mark",
          "governor": 4,
          "governorGloss": "erhöhen",
          "dependent": 9,
          "dependentGloss": "11"
        },
        {
          "dep": "punct",
          "governor": 4,
          "governorGloss": "erhöhen",
          "dependent": 10,
          "dependentGloss": "."
        }
      ],
      "enhancedPlusPlusDependencies": [
        {
          "dep": "ROOT",
          "governor": 0,
          "governorGloss": "ROOT",
          "dependent": 4,
          "dependentGloss": "erhöhen"
        },
        {
          "dep": "advmod",
          "governor": 4,
          "governorGloss": "erhöhen",
          "dependent": 1,
          "dependentGloss": "Fehlende"
        },
        {
          "dep": "amod",
          "governor": 3,
          "governorGloss": "Jetliner",
          "dependent": 2,
          "dependentGloss": "libysche"
        },
        {
          "dep": "dobj",
          "governor": 4,
          "governorGloss": "erhöhen",
          "dependent": 3,
          "dependentGloss": "Jetliner"
        },
        {
          "dep": "nsubj",
          "governor": 4,
          "governorGloss": "erhöhen",
          "dependent": 5,
          "dependentGloss": "Angst"
        },
        {
          "dep": "case",
          "governor": 8,
          "governorGloss": "am",
          "dependent": 6,
          "dependentGloss": "vor"
        },
        {
          "dep": "amod",
          "governor": 8,
          "governorGloss": "am",
          "dependent": 7,
          "dependentGloss": "Terrorangriffen"
        },
        {
          "dep": "nmod",
          "governor": 4,
          "governorGloss": "erhöhen",
          "dependent": 8,
          "dependentGloss": "am"
        },
        {
          "dep": "mark",
          "governor": 4,
          "governorGloss": "erhöhen",
          "dependent": 9,
          "dependentGloss": "11"
        },
        {
          "dep": "punct",
          "governor": 4,
          "governorGloss": "erhöhen",
          "dependent": 10,
          "dependentGloss": "."
        }
      ],
      "tokens": [
        {
          "index": 1,
          "word": "Fehlende",
          "originalText": "Fehlende",
          "characterOffsetBegin": 0,
          "characterOffsetEnd": 8,
          "pos": "ADJA",
          "before": "",
          "after": " "
        },
        {
          "index": 2,
          "word": "libysche",
          "originalText": "libysche",
          "characterOffsetBegin": 9,
          "characterOffsetEnd": 17,
          "pos": "ADJA",
          "before": " ",
          "after": " "
        },
        {
          "index": 3,
          "word": "Jetliner",
          "originalText": "Jetliner",
          "characterOffsetBegin": 18,
          "characterOffsetEnd": 26,
          "pos": "NN",
          "before": " ",
          "after": " "
        },
        {
          "index": 4,
          "word": "erhöhen",
          "originalText": "erhöhen",
          "characterOffsetBegin": 27,
          "characterOffsetEnd": 34,
          "pos": "VVFIN",
          "before": " ",
          "after": " "
        },
        {
          "index": 5,
          "word": "Angst",
          "originalText": "Angst",
          "characterOffsetBegin": 35,
          "characterOffsetEnd": 40,
          "pos": "NN",
          "before": " ",
          "after": " "
        },
        {
          "index": 6,
          "word": "vor",
          "originalText": "vor",
          "characterOffsetBegin": 41,
          "characterOffsetEnd": 44,
          "pos": "APPR",
          "before": " ",
          "after": " "
        },
        {
          "index": 7,
          "word": "Terrorangriffen",
          "originalText": "Terrorangriffen",
          "characterOffsetBegin": 45,
          "characterOffsetEnd": 60,
          "pos": "NN",
          "before": " ",
          "after": " "
        },
        {
          "index": 8,
          "word": "am",
          "originalText": "am",
          "characterOffsetBegin": 61,
          "characterOffsetEnd": 63,
          "pos": "APPRART",
          "before": " ",
          "after": " "
        },
        {
          "index": 9,
          "word": "11",
          "originalText": "11",
          "characterOffsetBegin": 64,
          "characterOffsetEnd": 66,
          "pos": "CARD",
          "before": " ",
          "after": ""
        },
        {
          "index": 10,
          "word": ".",
          "originalText": ".",
          "characterOffsetBegin": 66,
          "characterOffsetEnd": 67,
          "pos": "$.",
          "before": "",
          "after": " "
        }
      ]
    },
    {
      "index": 1,
      "basicDependencies": [
        {
          "dep": "ROOT",
          "governor": 0,
          "governorGloss": "ROOT",
          "dependent": 1,
          "dependentGloss": "September"
        }
      ],
      "enhancedDependencies": [
        {
          "dep": "ROOT",
          "governor": 0,
          "governorGloss": "ROOT",
          "dependent": 1,
          "dependentGloss": "September"
        }
      ],
      "enhancedPlusPlusDependencies": [
        {
          "dep": "ROOT",
          "governor": 0,
          "governorGloss": "ROOT",
          "dependent": 1,
          "dependentGloss": "September"
        }
      ],
      "tokens": [
        {
          "index": 1,
          "word": "September",
          "originalText": "September",
          "characterOffsetBegin": 68,
          "characterOffsetEnd": 77,
          "pos": "NN",
          "before": " ",
          "after": ""
        }
      ]
    }
  ]
}