{
  "sentences": [
    {
      "index": 0,
      "basicDependencies": [
        {
          "dep": "ROOT",
          "governor": 0,
          "governorGloss": "ROOT",
          "dependent": 1,
          "dependentGloss": "WATCH"
        },
        {
          "dep": "punct",
          "governor": 1,
          "governorGloss": "WATCH",
          "dependent": 2,
          "dependentGloss": ":"
        },
        {
          "dep": "name",
          "governor": 4,
          "governorGloss": "Beaton",
          "dependent": 3,
          "dependentGloss": "Stan"
        },
        {
          "dep": "appos",
          "governor": 1,
          "governorGloss": "WATCH",
          "dependent": 4,
          "dependentGloss": "Beaton"
        },
        {
          "dep": "amod",
          "governor": 6,
          "governorGloss": "Tränen",
          "dependent": 5,
          "dependentGloss": "weint"
        },
        {
          "dep": "appos",
          "governor": 4,
          "governorGloss": "Beaton",
          "dependent": 6,
          "dependentGloss": "Tränen"
        },
        {
          "dep": "det",
          "governor": 8,
          "governorGloss": "Freude",
          "dependent": 7,
          "dependentGloss": "der"
        },
        {
          "dep": "det",
          "governor": 6,
          "governorGloss": "Tränen",
          "dependent": 8,
          "dependentGloss": "Freude"
        },
        {
          "dep": "punct",
          "governor": 1,
          "governorGloss": "WATCH",
          "dependent": 9,
          "dependentGloss": ","
        },
        {
          "dep": "mark",
          "governor": 18,
          "governorGloss": "finden",
          "dependent": 10,
          "dependentGloss": "wenn"
        },
        {
          "dep": "nsubj",
          "governor": 18,
          "governorGloss": "finden",
          "dependent": 11,
          "dependentGloss": "Telefoningenieure"
        },
        {
          "dep": "det",
          "governor": 14,
          "governorGloss": "Voicemail-Aufnahme",
          "dependent": 12,
          "dependentGloss": "eine"
        },
        {
          "dep": "amod",
          "governor": 14,
          "governorGloss": "Voicemail-Aufnahme",
          "dependent": 13,
          "dependentGloss": "geschätzte"
        },
        {
          "dep": "dobj",
          "governor": 18,
          "governorGloss": "finden",
          "dependent": 14,
          "dependentGloss": "Voicemail-Aufnahme"
        },
        {
          "dep": "nmod:poss",
          "governor": 17,
          "governorGloss": "Frau",
          "dependent": 15,
          "dependentGloss": "seiner"
        },
        {
          "dep": "amod",
          "governor": 17,
          "governorGloss": "Frau",
          "dependent": 16,
          "dependentGloss": "verstorbenen"
        },
        {
          "dep": "det",
          "governor": 14,
          "governorGloss": "Voicemail-Aufnahme",
          "dependent": 17,
          "dependentGloss": "Frau"
        },
        {
          "dep": "advcl",
          "governor": 1,
          "governorGloss": "WATCH",
          "dependent": 18,
          "dependentGloss": "finden"
        },
        {
          "dep": "punct",
          "governor": 18,
          "governorGloss": "finden",
          "dependent": 19,
          "dependentGloss": ","
        },
        {
          "dep": "dobj",
          "governor": 25,
          "governorGloss": "hat",
          "dependent": 20,
          "dependentGloss": "die"
        },
        {
          "dep": "nsubj",
          "governor": 25,
          "governorGloss": "hat",
          "dependent": 21,
          "dependentGloss": "er"
        },
        {
          "dep": "case",
          "governor": 24,
          "governorGloss": "verloren",
          "dependent": 22,
          "dependentGloss": "für"
        },
        {
          "dep": "advmod",
          "governor": 24,
          "governorGloss": "verloren",
          "dependent": 23,
          "dependentGloss": "immer"
        },
        {
          "dep": "nmod",
          "governor": 25,
          "governorGloss": "hat",
          "dependent": 24,
          "dependentGloss": "verloren"
        },
        {
          "dep": "ccomp",
          "governor": 18,
          "governorGloss": "finden",
          "dependent": 25,
          "dependentGloss": "hat"
        }
      ],
      "enhancedDependencies": [
        {
          "dep": "ROOT",
          "governor": 0,
          "governorGloss": "ROOT",
          "dependent": 1,
          "dependentGloss": "WATCH"
        },
        {
          "dep": "punct",
          "governor": 1,
          "governorGloss": "WATCH",
          "dependent": 2,
          "dependentGloss": ":"
        },
        {
          "dep": "name",
          "governor": 4,
          "governorGloss": "Beaton",
          "dependent": 3,
          "dependentGloss": "Stan"
        },
        {
          "dep": "appos",
          "governor": 1,
          "governorGloss": "WATCH",
          "dependent": 4,
          "dependentGloss": "Beaton"
        },
        {
          "dep": "amod",
          "governor": 6,
          "governorGloss": "Tränen",
          "dependent": 5,
          "dependentGloss": "weint"
        },
        {
          "dep": "appos",
          "governor": 4,
          "governorGloss": "Beaton",
          "dependent": 6,
          "dependentGloss": "Tränen"
        },
        {
          "dep": "det",
          "governor": 8,
          "governorGloss": "Freude",
          "dependent": 7,
          "dependentGloss": "der"
        },
        {
          "dep": "det",
          "governor": 6,
          "governorGloss": "Tränen",
          "dependent": 8,
          "dependentGloss": "Freude"
        },
        {
          "dep": "punct",
          "governor": 1,
          "governorGloss": "WATCH",
          "dependent": 9,
          "dependentGloss": ","
        },
        {
          "dep": "mark",
          "governor": 18,
          "governorGloss": "finden",
          "dependent": 10,
          "dependentGloss": "wenn"
        },
        {
          "dep": "nsubj",
          "governor": 18,
          "governorGloss": "finden",
          "dependent": 11,
          "dependentGloss": "Telefoningenieure"
        },
        {
          "dep": "det",
          "governor": 14,
          "governorGloss": "Voicemail-Aufnahme",
          "dependent": 12,
          "dependentGloss": "eine"
        },
        {
          "dep": "amod",
          "governor": 14,
          "governorGloss": "Voicemail-Aufnahme",
          "dependent": 13,
          "dependentGloss": "geschätzte"
        },
        {
          "dep": "dobj",
          "governor": 18,
          "governorGloss": "finden",
          "dependent": 14,
          "dependentGloss": "Voicemail-Aufnahme"
        },
        {
          "dep": "nmod:poss",
          "governor": 17,
          "governorGloss": "Frau",
          "dependent": 15,
          "dependentGloss": "seiner"
        },
        {
          "dep": "amod",
          "governor": 17,
          "governorGloss": "Frau",
          "dependent": 16,
          "dependentGloss": "verstorbenen"
        },
        {
          "dep": "det",
          "governor": 14,
          "governorGloss": "Voicemail-Aufnahme",
          "dependent": 17,
          "dependentGloss": "Frau"
        },
        {
          "dep": "advcl",
          "governor": 1,
          "governorGloss": "WATCH",
          "dependent": 18,
          "dependentGloss": "finden"
        },
        {
          "dep": "punct",
          "governor": 18,
          "governorGloss": "finden",
          "dependent": 19,
          "dependentGloss": ","
        },
        {
          "dep": "dobj",
          "governor": 25,
          "governorGloss": "hat",
          "dependent": 20,
          "dependentGloss": "die"
        },
        {
          "dep": "nsubj",
          "governor": 25,
          "governorGloss": "hat",
          "dependent": 21,
          "dependentGloss": "er"
        },
        {
          "dep": "case",
          "governor": 24,
          "governorGloss": "verloren",
          "dependent": 22,
          "dependentGloss": "für"
        },
        {
          "dep": "advmod",
          "governor": 24,
          "governorGloss": "verloren",
          "dependent": 23,
          "dependentGloss": "immer"
        },
        {
          "dep": "nmod",
          "governor": 25,
          "governorGloss": "hat",
          "dependent": 24,
          "dependentGloss": "verloren"
        },
        {
          "dep": "ccomp",
          "governor": 18,
          "governorGloss": "finden",
          "dependent": 25,
          "dependentGloss": "hat"
        }
      ],
      "enhancedPlusPlusDependencies": [
        {
          "dep": "ROOT",
          "governor": 0,
          "governorGloss": "ROOT",
          "dependent": 1,
          "dependentGloss": "WATCH"
        },
        {
          "dep": "punct",
          "governor": 1,
          "governorGloss": "WATCH",
          "dependent": 2,
          "dependentGloss": ":"
        },
        {
          "dep": "name",
          "governor": 4,
          "governorGloss": "Beaton",
          "dependent": 3,
          "dependentGloss": "Stan"
        },
        {
          "dep": "appos",
          "governor": 1,
          "governorGloss": "WATCH",
          "dependent": 4,
          "dependentGloss": "Beaton"
        },
        {
          "dep": "amod",
          "governor": 6,
          "governorGloss": "Tränen",
          "dependent": 5,
          "dependentGloss": "weint"
        },
        {
          "dep": "appos",
          "governor": 4,
          "governorGloss": "Beaton",
          "dependent": 6,
          "dependentGloss": "Tränen"
        },
        {
          "dep": "det",
          "governor": 8,
          "governorGloss": "Freude",
          "dependent": 7,
          "dependentGloss": "der"
        },
        {
          "dep": "det",
          "governor": 6,
          "governorGloss": "Tränen",
          "dependent": 8,
          "dependentGloss": "Freude"
        },
        {
          "dep": "punct",
          "governor": 1,
          "governorGloss": "WATCH",
          "dependent": 9,
          "dependentGloss": ","
        },
        {
          "dep": "mark",
          "governor": 18,
          "governorGloss": "finden",
          "dependent": 10,
          "dependentGloss": "wenn"
        },
        {
          "dep": "nsubj",
          "governor": 18,
          "governorGloss": "finden",
          "dependent": 11,
          "dependentGloss": "Telefoningenieure"
        },
        {
          "dep": "det",
          "governor": 14,
          "governorGloss": "Voicemail-Aufnahme",
          "dependent": 12,
          "dependentGloss": "eine"
        },
        {
          "dep": "amod",
          "governor": 14,
          "governorGloss": "Voicemail-Aufnahme",
          "dependent": 13,
          "dependentGloss": "geschätzte"
        },
        {
          "dep": "dobj",
          "governor": 18,
          "governorGloss": "finden",
          "dependent": 14,
          "dependentGloss": "Voicemail-Aufnahme"
        },
        {
          "dep": "nmod:poss",
          "governor": 17,
          "governorGloss": "Frau",
          "dependent": 15,
          "dependentGloss": "seiner"
        },
        {
          "dep": "amod",
          "governor": 17,
          "governorGloss": "Frau",
          "dependent": 16,
          "dependentGloss": "verstorbenen"
        },
        {
          "dep": "det",
          "governor": 14,
          "governorGloss": "Voicemail-Aufnahme",
          "dependent": 17,
          "dependentGloss": "Frau"
        },
        {
          "dep": "advcl",
          "governor": 1,
          "governorGloss": "WATCH",
          "dependent": 18,
          "dependentGloss": "finden"
        },
        {
          "dep": "punct",
          "governor": 18,
          "governorGloss": "finden",
          "dependent": 19,
          "dependentGloss": ","
        },
        {
          "dep": "dobj",
          "governor": 25,
          "governorGloss": "hat",
          "dependent": 20,
          "dependentGloss": "die"
        },
        {
          "dep": "nsubj",
          "governor": 25,
          "governorGloss": "hat",
          "dependent": 21,
          "dependentGloss": "er"
        },
        {
          "dep": "case",
          "governor": 24,
          "governorGloss": "verloren",
          "dependent": 22,
          "dependentGloss": "für"
        },
        {
          "dep": "advmod",
          "governor": 24,
          "governorGloss": "verloren",
          "dependent": 23,
          "dependentGloss": "immer"
        },
        {
          "dep": "nmod",
          "governor": 25,
          "governorGloss": "hat",
          "dependent": 24,
          "dependentGloss": "verloren"
        },
        {
          "dep": "ccomp",
          "governor": 18,
          "governorGloss": "finden",
          "dependent": 25,
          "dependentGloss": "hat"
        }
      ],
      "tokens": [
        {
          "index": 1,
          "word": "WATCH",
          "originalText": "WATCH",
          "characterOffsetBegin": 0,
          "characterOffsetEnd": 5,
          "pos": "NE",
          "before": "",
          "after": ""
        },
        {
          "index": 2,
          "word": ":",
          "originalText": ":",
          "characterOffsetBegin": 5,
          "characterOffsetEnd": 6,
          "pos": "$.",
          "before": "",
          "after": " "
        },
        {
          "index": 3,
          "word": "Stan",
          "originalText": "Stan",
          "characterOffsetBegin": 7,
          "characterOffsetEnd": 11,
          "pos": "NE",
          "before": " ",
          "after": " "
        },
        {
          "index": 4,
          "word": "Beaton",
          "originalText": "Beaton",
          "characterOffsetBegin": 12,
          "characterOffsetEnd": 18,
          "pos": "NE",
          "before": " ",
          "after": " "
        },
        {
          "index": 5,
          "word": "weint",
          "originalText": "weint",
          "characterOffsetBegin": 19,
          "characterOffsetEnd": 24,
          "pos": "VVFIN",
          "before": " ",
          "after": " "
        },
        {
          "index": 6,
          "word": "Tränen",
          "originalText": "Tränen",
          "characterOffsetBegin": 25,
          "characterOffsetEnd": 31,
          "pos": "NN",
          "before": " ",
          "after": " "
        },
        {
          "index": 7,
          "word": "der",
          "originalText": "der",
          "characterOffsetBegin": 32,
          "characterOffsetEnd": 35,
          "pos": "ART",
          "before": " ",
          "after": " "
        },
        {
          "index": 8,
          "word": "Freude",
          "originalText": "Freude",
          "characterOffsetBegin": 36,
          "characterOffsetEnd": 42,
          "pos": "NN",
          "before": " ",
          "after": ""
        },
        {
          "index": 9,
          "word": ",",
          "originalText": ",",
          "characterOffsetBegin": 42,
          "characterOffsetEnd": 43,
          "pos": "$,",
          "before": "",
          "after": " "
        },
        {
          "index": 10,
          "word": "wenn",
          "originalText": "wenn",
          "characterOffsetBegin": 44,
          "characterOffsetEnd": 48,
          "pos": "KOUS",
          "before": " ",
          "after": " "
        },
        {
          "index": 11,
          "word": "Telefoningenieure",
          "originalText": "Telefoningenieure",
          "characterOffsetBegin": 49,
          "characterOffsetEnd": 66,
          "pos": "NN",
          "before": " ",
          "after": " "
        },
        {
          "index": 12,
          "word": "eine",
          "originalText": "eine",
          "characterOffsetBegin": 67,
          "characterOffsetEnd": 71,
          "pos": "ART",
          "before": " ",
          "after": " "
        },
        {
          "index": 13,
          "word": "geschätzte",
          "originalText": "geschätzte",
          "characterOffsetBegin": 72,
          "characterOffsetEnd": 82,
          "pos": "ADJA",
          "before": " ",
          "after": " "
        },
        {
          "index": 14,
          "word": "Voicemail-Aufnahme",
          "originalText": "Voicemail-Aufnahme",
          "characterOffsetBegin": 83,
          "characterOffsetEnd": 101,
          "pos": "NN",
          "before": " ",
          "after": " "
        },
        {
          "index": 15,
          "word": "seiner",
          "originalText": "seiner",
          "characterOffsetBegin": 102,
          "characterOffsetEnd": 108,
          "pos": "PPOSAT",
          "before": " ",
          "after": " "
        },
        {
          "index": 16,
          "word": "verstorbenen",
          "originalText": "verstorbenen",
          "characterOffsetBegin": 109,
          "characterOffsetEnd": 121,
          "pos": "ADJA",
          "before": " ",
          "after": " "
        },
        {
          "index": 17,
          "word": "Frau",
          "originalText": "Frau",
          "characterOffsetBegin": 122,
          "characterOffsetEnd": 126,
          "pos": "NN",
          "before": " ",
          "after": " "
        },
        {
          "index": 18,
          "word": "finden",
          "originalText": "finden",
          "characterOffsetBegin": 127,
          "characterOffsetEnd": 133,
          "pos": "VVINF",
          "before": " ",
          "after": ""
        },
        {
          "index": 19,
          "word": ",",
          "originalText": ",",
          "characterOffsetBegin": 133,
          "characterOffsetEnd": 134,
          "pos": "$,",
          "before": "",
          "after": " "
        },
        {
          "index": 20,
          "word": "die",
          "originalText": "die",
          "characterOffsetBegin": 135,
          "characterOffsetEnd": 138,
          "pos": "PRELS",
          "before": " ",
          "after": " "
        },
        {
          "index": 21,
          "word": "er",
          "originalText": "er",
          "characterOffsetBegin": 139,
          "characterOffsetEnd": 141,
          "pos": "PPER",
          "before": " ",
          "after": " "
        },
        {
          "index": 22,
          "word": "für",
          "originalText": "für",
          "characterOffsetBegin": 142,
          "characterOffsetEnd": 145,
          "pos": "APPR",
          "before": " ",
          "after": " "
        },
        {
          "index": 23,
          "word": "immer",
          "originalText": "immer",
          "characterOffsetBegin": 146,
          "characterOffsetEnd": 151,
          "pos": "ADV",
          "before": " ",
          "after": " "
        },
        {
          "index": 24,
          "word": "verloren",
          "originalText": "verloren",
          "characterOffsetBegin": 152,
          "characterOffsetEnd": 160,
          "pos": "VVPP",
          "before": " ",
          "after": " "
        },
        {
          "index": 25,
          "word": "hat",
          "originalText": "hat",
          "characterOffsetBegin": 161,
          "characterOffsetEnd": 164,
          "pos": "VAFIN",
          "before": " ",
          "after": ""
        }
      ]
    }
  ]
}