{
  "sentences": [
    {
      "index": 0,
      "basicDependencies": [
        {
          "dep": "ROOT",
          "governor": 0,
          "governorGloss": "ROOT",
          "dependent": 3,
          "dependentGloss": "Eyed"
        },
        {
          "dep": "name",
          "governor": 2,
          "governorGloss": "Rogen",
          "dependent": 1,
          "dependentGloss": "Seth"
        },
        {
          "dep": "nsubj",
          "governor": 3,
          "governorGloss": "Eyed",
          "dependent": 2,
          "dependentGloss": "Rogen"
        },
        {
          "dep": "aux",
          "governor": 5,
          "governorGloss": "spielen",
          "dependent": 4,
          "dependentGloss": "zu"
        },
        {
          "dep": "acl",
          "governor": 3,
          "governorGloss": "Eyed",
          "dependent": 5,
          "dependentGloss": "spielen"
        },
        {
          "dep": "name",
          "governor": 8,
          "governorGloss": "Wozniak",
          "dependent": 6,
          "dependentGloss": "Apples"
        },
        {
          "dep": "name",
          "governor": 8,
          "governorGloss": "Wozniak",
          "dependent": 7,
          "dependentGloss": "Steve"
        },
        {
          "dep": "dobj",
          "governor": 3,
          "governorGloss": "Eyed",
          "dependent": 8,
          "dependentGloss": "Wozniak"
        },
        {
          "dep": "case",
          "governor": 8,
          "governorGloss": "Wozniak",
          "dependent": 9,
          "dependentGloss": "in"
        },
        {
          "dep": "name",
          "governor": 11,
          "governorGloss": "Bale",
          "dependent": 10,
          "dependentGloss": "Christian"
        },
        {
          "dep": "det",
          "governor": 14,
          "governorGloss": "Jobs",
          "dependent": 11,
          "dependentGloss": "Bale"
        },
        {
          "dep": "case",
          "governor": 11,
          "governorGloss": "Bale",
          "dependent": 12,
          "dependentGloss": "'s"
        },
        {
          "dep": "name",
          "governor": 14,
          "governorGloss": "Jobs",
          "dependent": 13,
          "dependentGloss": "Steve"
        },
        {
          "dep": "det",
          "governor": 9,
          "governorGloss": "in",
          "dependent": 14,
          "dependentGloss": "Jobs"
        },
        {
          "dep": "appos",
          "governor": 14,
          "governorGloss": "Jobs",
          "dependent": 15,
          "dependentGloss": "Film"
        },
        {
          "dep": "amod",
          "governor": 18,
          "governorGloss": "-RRB-",
          "dependent": 16,
          "dependentGloss": "-LRB-"
        },
        {
          "dep": "amod",
          "governor": 18,
          "governorGloss": "-RRB-",
          "dependent": 17,
          "dependentGloss": "exklusiv"
        },
        {
          "dep": "det",
          "governor": 15,
          "governorGloss": "Film",
          "dependent": 18,
          "dependentGloss": "-RRB-"
        }
      ],
      "enhancedDependencies": [
        {
          "dep": "ROOT",
          "governor": 0,
          "governorGloss": "ROOT",
          "dependent": 3,
          "dependentGloss": "Eyed"
        },
        {
          "dep": "name",
          "governor": 2,
          "governorGloss": "Rogen",
          "dependent": 1,
          "dependentGloss": "Seth"
        },
        {
          "dep": "nsubj",
          "governor": 3,
          "governorGloss": "Eyed",
          "dependent": 2,
          "dependentGloss": "Rogen"
        },
        {
          "dep": "aux",
          "governor": 5,
          "governorGloss": "spielen",
          "dependent": 4,
          "dependentGloss": "zu"
        },
        {
          "dep": "acl",
          "governor": 3,
          "governorGloss": "Eyed",
          "dependent": 5,
          "dependentGloss": "spielen"
        },
        {
          "dep": "name",
          "governor": 8,
          "governorGloss": "Wozniak",
          "dependent": 6,
          "dependentGloss": "Apples"
        },
        {
          "dep": "name",
          "governor": 8,
          "governorGloss": "Wozniak",
          "dependent": 7,
          "dependentGloss": "Steve"
        },
        {
          "dep": "dobj",
          "governor": 3,
          "governorGloss": "Eyed",
          "dependent": 8,
          "dependentGloss": "Wozniak"
        },
        {
          "dep": "case",
          "governor": 8,
          "governorGloss": "Wozniak",
          "dependent": 9,
          "dependentGloss": "in"
        },
        {
          "dep": "name",
          "governor": 11,
          "governorGloss": "Bale",
          "dependent": 10,
          "dependentGloss": "Christian"
        },
        {
          "dep": "det",
          "governor": 14,
          "governorGloss": "Jobs",
          "dependent": 11,
          "dependentGloss": "Bale"
        },
        {
          "dep": "case",
          "governor": 11,
          "governorGloss": "Bale",
          "dependent": 12,
          "dependentGloss": "'s"
        },
        {
          "dep": "name",
          "governor": 14,
          "governorGloss": "Jobs",
          "dependent": 13,
          "dependentGloss": "Steve"
        },
        {
          "dep": "det",
          "governor": 9,
          "governorGloss": "in",
          "dependent": 14,
          "dependentGloss": "Jobs"
        },
        {
          "dep": "appos",
          "governor": 14,
          "governorGloss": "Jobs",
          "dependent": 15,
          "dependentGloss": "Film"
        },
        {
          "dep": "amod",
          "governor": 18,
          "governorGloss": "-RRB-",
          "dependent": 16,
          "dependentGloss": "-LRB-"
        },
        {
          "dep": "amod",
          "governor": 18,
          "governorGloss": "-RRB-",
          "dependent": 17,
          "dependentGloss": "exklusiv"
        },
        {
          "dep": "det",
          "governor": 15,
          "governorGloss": "Film",
          "dependent": 18,
          "dependentGloss": "-RRB-"
        }
      ],
      "enhancedPlusPlusDependencies": [
        {
          "dep": "ROOT",
          "governor": 0,
          "governorGloss": "ROOT",
          "dependent": 3,
          "dependentGloss": "Eyed"
        },
        {
          "dep": "name",
          "governor": 2,
          "governorGloss": "Rogen",
          "dependent": 1,
          "dependentGloss": "Seth"
        },
        {
          "dep": "nsubj",
          "governor": 3,
          "governorGloss": "Eyed",
          "dependent": 2,
          "dependentGloss": "Rogen"
        },
        {
          "dep": "aux",
          "governor": 5,
          "governorGloss": "spielen",
          "dependent": 4,
          "dependentGloss": "zu"
        },
        {
          "dep": "acl",
          "governor": 3,
          "governorGloss": "Eyed",
          "dependent": 5,
          "dependentGloss": "spielen"
        },
        {
          "dep": "name",
          "governor": 8,
          "governorGloss": "Wozniak",
          "dependent": 6,
          "dependentGloss": "Apples"
        },
        {
          "dep": "name",
          "governor": 8,
          "governorGloss": "Wozniak",
          "dependent": 7,
          "dependentGloss": "Steve"
        },
        {
          "dep": "dobj",
          "governor": 3,
          "governorGloss": "Eyed",
          "dependent": 8,
          "dependentGloss": "Wozniak"
        },
        {
          "dep": "case",
          "governor": 8,
          "governorGloss": "Wozniak",
          "dependent": 9,
          "dependentGloss": "in"
        },
        {
          "dep": "name",
          "governor": 11,
          "governorGloss": "Bale",
          "dependent": 10,
          "dependentGloss": "Christian"
        },
        {
          "dep": "det",
          "governor": 14,
          "governorGloss": "Jobs",
          "dependent": 11,
          "dependentGloss": "Bale"
        },
        {
          "dep": "case",
          "governor": 11,
          "governorGloss": "Bale",
          "dependent": 12,
          "dependentGloss": "'s"
        },
        {
          "dep": "name",
          "governor": 14,
          "governorGloss": "Jobs",
          "dependent": 13,
          "dependentGloss": "Steve"
        },
        {
          "dep": "det",
          "governor": 9,
          "governorGloss": "in",
          "dependent": 14,
          "dependentGloss": "Jobs"
        },
        {
          "dep": "appos",
          "governor": 14,
          "governorGloss": "Jobs",
          "dependent": 15,
          "dependentGloss": "Film"
        },
        {
          "dep": "amod",
          "governor": 18,
          "governorGloss": "-RRB-",
          "dependent": 16,
          "dependentGloss": "-LRB-"
        },
        {
          "dep": "amod",
          "governor": 18,
          "governorGloss": "-RRB-",
          "dependent": 17,
          "dependentGloss": "exklusiv"
        },
        {
          "dep": "det",
          "governor": 15,
          "governorGloss": "Film",
          "dependent": 18,
          "dependentGloss": "-RRB-"
        }
      ],
      "tokens": [
        {
          "index": 1,
          "word": "Seth",
          "originalText": "Seth",
          "characterOffsetBegin": 0,
          "characterOffsetEnd": 4,
          "pos": "NE",
          "before": "",
          "after": " "
        },
        {
          "index": 2,
          "word": "Rogen",
          "originalText": "Rogen",
          "characterOffsetBegin": 5,
          "characterOffsetEnd": 10,
          "pos": "NE",
          "before": " ",
          "after": " "
        },
        {
          "index": 3,
          "word": "Eyed",
          "originalText": "Eyed",
          "characterOffsetBegin": 11,
          "characterOffsetEnd": 15,
          "pos": "NE",
          "before": " ",
          "after": " "
        },
        {
          "index": 4,
          "word": "zu",
          "originalText": "zu",
          "characterOffsetBegin": 16,
          "characterOffsetEnd": 18,
          "pos": "PTKZU",
          "before": " ",
          "after": " "
        },
        {
          "index": 5,
          "word": "spielen",
          "originalText": "spielen",
          "characterOffsetBegin": 19,
          "characterOffsetEnd": 26,
          "pos": "VVINF",
          "before": " ",
          "after": " "
        },
        {
          "index": 6,
          "word": "Apples",
          "originalText": "Apples",
          "characterOffsetBegin": 27,
          "characterOffsetEnd": 33,
          "pos": "NE",
          "before": " ",
          "after": " "
        },
        {
          "index": 7,
          "word": "Steve",
          "originalText": "Steve",
          "characterOffsetBegin": 34,
          "characterOffsetEnd": 39,
          "pos": "NE",
          "before": " ",
          "after": " "
        },
        {
          "index": 8,
          "word": "Wozniak",
          "originalText": "Wozniak",
          "characterOffsetBegin": 40,
          "characterOffsetEnd": 47,
          "pos": "NE",
          "before": " ",
          "after": " "
        },
        {
          "index": 9,
          "word": "in",
          "originalText": "in",
          "characterOffsetBegin": 48,
          "characterOffsetEnd": 50,
          "pos": "APPR",
          "before": " ",
          "after": " "
        },
        {
          "index": 10,
          "word": "Christian",
          "originalText": "Christian",
          "characterOffsetBegin": 51,
          "characterOffsetEnd": 60,
          "pos": "NE",
          "before": " ",
          "after": " "
        },
        {
          "index": 11,
          "word": "Bale",
          "originalText": "Bale",
          "characterOffsetBegin": 61,
          "characterOffsetEnd": 65,
          "pos": "NE",
          "before": " ",
          "after": ""
        },
        {
          "index": 12,
          "word": "'s",
          "originalText": "'s",
          "characterOffsetBegin": 65,
          "characterOffsetEnd": 67,
          "pos": "PPER",
          "before": "",
          "after": " "
        },
        {
          "index": 13,
          "word": "Steve",
          "originalText": "Steve",
          "characterOffsetBegin": 68,
          "characterOffsetEnd": 73,
          "pos": "NE",
          "before": " ",
          "after": " "
        },
        {
          "index": 14,
          "word": "Jobs",
          "originalText": "Jobs",
          "characterOffsetBegin": 74,
          "characterOffsetEnd": 78,
          "pos": "NN",
          "before": " ",
          "after": " "
        },
        {
          "index": 15,
          "word": "Film",
          "originalText": "Film",
          "characterOffsetBegin": 79,
          "characterOffsetEnd": 83,
          "pos": "NN",
          "before": " ",
          "after": " "
        },
        {
          "index": 16,
          "word": "-LRB-",
          "originalText": "(",
          "characterOffsetBegin": 84,
          "characterOffsetEnd": 85,
          "pos": "TRUNC",
          "before": " ",
          "after": ""
        },
        {
          "index": 17,
          "word": "exklusiv",
          "originalText": "exklusiv",
          "characterOffsetBegin": 85,
          "characterOffsetEnd": 93,
          "pos": "ADJD",
          "before": "",
          "after": ""
        },
        {
          "index": 18,
          "word": "-RRB-",
          "originalText": ")",
          "characterOffsetBegin": 93,
          "characterOffsetEnd": 94,
          "pos": "TRUNC",
          "before": "",
          "after": ""
        }
      ]
    }
  ]
}