{
  "sentences": [
    {
      "index": 0,
      "basicDependencies": [
        {
          "dep": "ROOT",
          "governor": 0,
          "governorGloss": "ROOT",
          "dependent": 1,
          "dependentGloss": "Wollen"
        },
        {
          "dep": "nsubj",
          "governor": 1,
          "governorGloss": "Wollen",
          "dependent": 2,
          "dependentGloss": "Sie"
        },
        {
          "dep": "det",
          "governor": 6,
          "governorGloss": "Watch",
          "dependent": 3,
          "dependentGloss": "eine"
        },
        {
          "dep": "name",
          "governor": 6,
          "governorGloss": "Watch",
          "dependent": 4,
          "dependentGloss": "Gold"
        },
        {
          "dep": "name",
          "governor": 6,
          "governorGloss": "Watch",
          "dependent": 5,
          "dependentGloss": "Apple"
        },
        {
          "dep": "dobj",
          "governor": 1,
          "governorGloss": "Wollen",
          "dependent": 6,
          "dependentGloss": "Watch"
        },
        {
          "dep": "punct",
          "governor": 1,
          "governorGloss": "Wollen",
          "dependent": 7,
          "dependentGloss": "?"
        }
      ],
      "enhancedDependencies": [
        {
          "dep": "ROOT",
          "governor": 0,
          "governorGloss": "ROOT",
          "dependent": 1,
          "dependentGloss": "Wollen"
        },
        {
          "dep": "nsubj",
          "governor": 1,
          "governorGloss": "Wollen",
          "dependent": 2,
          "dependentGloss": "Sie"
        },
        {
          "dep": "det",
          "governor": 6,
          "governorGloss": "Watch",
          "dependent": 3,
          "dependentGloss": "eine"
        },
        {
          "dep": "name",
          "governor": 6,
          "governorGloss": "Watch",
          "dependent": 4,
          "dependentGloss": "Gold"
        },
        {
          "dep": "name",
          "governor": 6,
          "governorGloss": "Watch",
          "dependent": 5,
          "dependentGloss": "Apple"
        },
        {
          "dep": "dobj",
          "governor": 1,
          "governorGloss": "Wollen",
          "dependent": 6,
          "dependentGloss": "Watch"
        },
        {
          "dep": "punct",
          "governor": 1,
          "governorGloss": "Wollen",
          "dependent": 7,
          "dependentGloss": "?"
        }
      ],
      "enhancedPlusPlusDependencies": [
        {
          "dep": "ROOT",
          "governor": 0,
          "governorGloss": "ROOT",
          "dependent": 1,
          "dependentGloss": "Wollen"
        },
        {
          "dep": "nsubj",
          "governor": 1,
          "governorGloss": "Wollen",
          "dependent": 2,
          "dependentGloss": "Sie"
        },
        {
          "dep": "det",
          "governor": 6,
          "governorGloss": "Watch",
          "dependent": 3,
          "dependentGloss": "eine"
        },
        {
          "dep": "name",
          "governor": 6,
          "governorGloss": "Watch",
          "dependent": 4,
          "dependentGloss": "Gold"
        },
        {
          "dep": "name",
          "governor": 6,
          "governorGloss": "Watch",
          "dependent": 5,
          "dependentGloss": "Apple"
        },
        {
          "dep": "dobj",
          "governor": 1,
          "governorGloss": "Wollen",
          "dependent": 6,
          "dependentGloss": "Watch"
        },
        {
          "dep": "punct",
          "governor": 1,
          "governorGloss": "Wollen",
          "dependent": 7,
          "dependentGloss": "?"
        }
      ],
      "tokens": [
        {
          "index": 1,
          "word": "Wollen",
          "originalText": "Wollen",
          "characterOffsetBegin": 0,
          "characterOffsetEnd": 6,
          "pos": "VMFIN",
          "before": "",
          "after": " "
        },
        {
          "index": 2,
          "word": "Sie",
          "originalText": "Sie",
          "characterOffsetBegin": 7,
          "characterOffsetEnd": 10,
          "pos": "PPER",
          "before": " ",
          "after": " "
        },
        {
          "index": 3,
          "word": "eine",
          "originalText": "eine",
          "characterOffsetBegin": 11,
          "characterOffsetEnd": 15,
          "pos": "ART",
          "before": " ",
          "after": " "
        },
        {
          "index": 4,
          "word": "Gold",
          "originalText": "Gold",
          "characterOffsetBegin": 16,
          "characterOffsetEnd": 20,
          "pos": "NN",
          "before": " ",
          "after": " "
        },
        {
          "index": 5,
          "word": "Apple",
          "originalText": "Apple",
          "characterOffsetBegin": 21,
          "characterOffsetEnd": 26,
          "pos": "NE",
          "before": " ",
          "after": " "
        },
        {
          "index": 6,
          "word": "Watch",
          "originalText": "Watch",
          "characterOffsetBegin": 27,
          "characterOffsetEnd": 32,
          "pos": "NE",
          "before": " ",
          "after": ""
        },
        {
          "index": 7,
          "word": "?",
          "originalText": "?",
          "characterOffsetBegin": 32,
          "characterOffsetEnd": 33,
          "pos": "$.",
          "before": "",
          "after": " "
        }
      ]
    },
    {
      "index": 1,
      "basicDependencies": [
        {
          "dep": "ROOT",
          "governor": 0,
          "governorGloss": "ROOT",
          "dependent": 5,
          "dependentGloss": "brauchen"
        },
        {
          "dep": "nsubj",
          "governor": 5,
          "governorGloss": "brauchen",
          "dependent": 1,
          "dependentGloss": "Alles"
        },
        {
          "dep": "punct",
          "governor": 5,
          "governorGloss": "brauchen",
          "dependent": 2,
          "dependentGloss": ","
        },
        {
          "dep": "dobj",
          "governor": 5,
          "governorGloss": "brauchen",
          "dependent": 3,
          "dependentGloss": "was"
        },
        {
          "dep": "nsubj",
          "governor": 5,
          "governorGloss": "brauchen",
          "dependent": 4,
          "dependentGloss": "Sie"
        },
        {
          "dep": "punct",
          "governor": 5,
          "governorGloss": "brauchen",
          "dependent": 6,
          "dependentGloss": ","
        },
        {
          "dep": "cop",
          "governor": 8,
          "governorGloss": "$",
          "dependent": 7,
          "dependentGloss": "ist"
        },
        {
          "dep": "conj",
          "governor": 5,
          "governorGloss": "brauchen",
          "dependent": 8,
          "dependentGloss": "$"
        },
        {
          "dep": "punct",
          "governor": 8,
          "governorGloss": "$",
          "dependent": 9,
          "dependentGloss": "5.000"
        }
      ],
      "enhancedDependencies": [
        {
          "dep": "ROOT",
          "governor": 0,
          "governorGloss": "ROOT",
          "dependent": 5,
          "dependentGloss": "brauchen"
        },
        {
          "dep": "nsubj",
          "governor": 5,
          "governorGloss": "brauchen",
          "dependent": 1,
          "dependentGloss": "Alles"
        },
        {
          "dep": "punct",
          "governor": 5,
          "governorGloss": "brauchen",
          "dependent": 2,
          "dependentGloss": ","
        },
        {
          "dep": "dobj",
          "governor": 5,
          "governorGloss": "brauchen",
          "dependent": 3,
          "dependentGloss": "was"
        },
        {
          "dep": "nsubj",
          "governor": 5,
          "governorGloss": "brauchen",
          "dependent": 4,
          "dependentGloss": "Sie"
        },
        {
          "dep": "punct",
          "governor": 5,
          "governorGloss": "brauchen",
          "dependent": 6,
          "dependentGloss": ","
        },
        {
          "dep": "cop",
          "governor": 8,
          "governorGloss": "$",
          "dependent": 7,
          "dependentGloss": "ist"
        },
        {
          "dep": "conj",
          "governor": 5,
          "governorGloss": "brauchen",
          "dependent": 8,
          "dependentGloss": "$"
        },
        {
          "dep": "punct",
          "governor": 8,
          "governorGloss": "$",
          "dependent": 9,
          "dependentGloss": "5.000"
        }
      ],
      "enhancedPlusPlusDependencies": [
        {
          "dep": "ROOT",
          "governor": 0,
          "governorGloss": "ROOT",
          "dependent": 5,
          "dependentGloss": "brauchen"
        },
        {
          "dep": "nsubj",
          "governor": 5,
          "governorGloss": "brauchen",
          "dependent": 1,
          "dependentGloss": "Alles"
        },
        {
          "dep": "punct",
          "governor": 5,
          "governorGloss": "brauchen",
          "dependent": 2,
          "dependentGloss": ","
        },
        {
          "dep": "dobj",
          "governor": 5,
          "governorGloss": "brauchen",
          "dependent": 3,
          "dependentGloss": "was"
        },
        {
          "dep": "nsubj",
          "governor": 5,
          "governorGloss": "brauchen",
          "dependent": 4,
          "dependentGloss": "Sie"
        },
        {
          "dep": "punct",
          "governor": 5,
          "governorGloss": "brauchen",
          "dependent": 6,
          "dependentGloss": ","
        },
        {
          "dep": "cop",
          "governor": 8,
          "governorGloss": "$",
          "dependent": 7,
          "dependentGloss": "ist"
        },
        {
          "dep": "conj",
          "governor": 5,
          "governorGloss": "brauchen",
          "dependent": 8,
          "dependentGloss": "$"
        },
        {
          "dep": "punct",
          "governor": 8,
          "governorGloss": "$",
          "dependent": 9,
          "dependentGloss": "5.000"
        }
      ],
      "tokens": [
        {
          "index": 1,
          "word": "Alles",
          "originalText": "Alles",
          "characterOffsetBegin": 34,
          "characterOffsetEnd": 39,
          "pos": "PIS",
          "before": " ",
          "after": ""
        },
        {
          "index": 2,
          "word": ",",
          "originalText": ",",
          "characterOffsetBegin": 39,
          "characterOffsetEnd": 40,
          "pos": "$,",
          "before": "",
          "after": " "
        },
        {
          "index": 3,
          "word": "was",
          "originalText": "was",
          "characterOffsetBegin": 41,
          "characterOffsetEnd": 44,
          "pos": "PRELS",
          "before": " ",
          "after": " "
        },
        {
          "index": 4,
          "word": "Sie",
          "originalText": "Sie",
          "characterOffsetBegin": 45,
          "characterOffsetEnd": 48,
          "pos": "PPER",
          "before": " ",
          "after": " "
        },
        {
          "index": 5,
          "word": "brauchen",
          "originalText": "brauchen",
          "characterOffsetBegin": 49,
          "characterOffsetEnd": 57,
          "pos": "VVFIN",
          "before": " ",
          "after": ""
        },
        {
          "index": 6,
          "word": ",",
          "originalText": ",",
          "characterOffsetBegin": 57,
          "characterOffsetEnd": 58,
          "pos": "$,",
          "before": "",
          "after": " "
        },
        {
          "index": 7,
          "word": "ist",
          "originalText": "ist",
          "characterOffsetBegin": 59,
          "characterOffsetEnd": 62,
          "pos": "VAFIN",
          "before": " ",
          "after": " "
        },
        {
          "index": 8,
          "word": "$",
          "originalText": "$",
          "characterOffsetBegin": 63,
          "characterOffsetEnd": 64,
          "pos": "XY",
          "before": " ",
          "after": " "
        },
        {
          "index": 9,
          "word": "5.000",
          "originalText": "5.000",
          "characterOffsetBegin": 65,
          "characterOffsetEnd": 70,
          "pos": "CARD",
          "before": " ",
          "after": ""
        }
      ]
    }
  ]
}