{
  "sentences": [
    {
      "index": 0,
      "basicDependencies": [
        {
          "dep": "ROOT",
          "governor": 0,
          "governorGloss": "ROOT",
          "dependent": 2,
          "dependentGloss": "verhaftet"
        },
        {
          "dep": "nsubj",
          "governor": 2,
          "governorGloss": "verhaftet",
          "dependent": 1,
          "dependentGloss": "Banksy"
        },
        {
          "dep": "dobj",
          "governor": 2,
          "governorGloss": "verhaftet",
          "dependent": 3,
          "dependentGloss": "hoax"
        },
        {
          "dep": "punct",
          "governor": 3,
          "governorGloss": "hoax",
          "dependent": 4,
          "dependentGloss": ":"
        },
        {
          "dep": "appos",
          "governor": 3,
          "governorGloss": "hoax",
          "dependent": 5,
          "dependentGloss": "Internet"
        },
        {
          "dep": "punct",
          "governor": 5,
          "governorGloss": "Internet",
          "dependent": 6,
          "dependentGloss": ","
        },
        {
          "dep": "nsubjpass",
          "governor": 12,
          "governorGloss": "ausgegeben",
          "dependent": 7,
          "dependentGloss": "das"
        },
        {
          "dep": "case",
          "governor": 11,
          "governorGloss": "Bericht",
          "dependent": 8,
          "dependentGloss": "von"
        },
        {
          "dep": "det",
          "governor": 11,
          "governorGloss": "Bericht",
          "dependent": 9,
          "dependentGloss": "einem"
        },
        {
          "dep": "amod",
          "governor": 11,
          "governorGloss": "Bericht",
          "dependent": 10,
          "dependentGloss": "gefälschten"
        },
        {
          "dep": "nmod",
          "governor": 12,
          "governorGloss": "ausgegeben",
          "dependent": 11,
          "dependentGloss": "Bericht"
        },
        {
          "dep": "acl",
          "governor": 5,
          "governorGloss": "Internet",
          "dependent": 12,
          "dependentGloss": "ausgegeben"
        },
        {
          "dep": "auxpass",
          "governor": 12,
          "governorGloss": "ausgegeben",
          "dependent": 13,
          "dependentGloss": "wird"
        },
        {
          "dep": "punct",
          "governor": 12,
          "governorGloss": "ausgegeben",
          "dependent": 14,
          "dependentGloss": ","
        },
        {
          "dep": "det",
          "governor": 16,
          "governorGloss": "behauptet",
          "dependent": 15,
          "dependentGloss": "der"
        },
        {
          "dep": "nsubj",
          "governor": 25,
          "governorGloss": "ist",
          "dependent": 16,
          "dependentGloss": "behauptet"
        },
        {
          "dep": "punct",
          "governor": 16,
          "governorGloss": "behauptet",
          "dependent": 17,
          "dependentGloss": ","
        },
        {
          "dep": "mark",
          "governor": 23,
          "governorGloss": "offenbart",
          "dependent": 18,
          "dependentGloss": "dass"
        },
        {
          "dep": "det",
          "governor": 20,
          "governorGloss": "Identität",
          "dependent": 19,
          "dependentGloss": "die"
        },
        {
          "dep": "nsubjpass",
          "governor": 23,
          "governorGloss": "offenbart",
          "dependent": 20,
          "dependentGloss": "Identität"
        },
        {
          "dep": "det",
          "governor": 22,
          "governorGloss": "Straßenkünstlers",
          "dependent": 21,
          "dependentGloss": "des"
        },
        {
          "dep": "det",
          "governor": 20,
          "governorGloss": "Identität",
          "dependent": 22,
          "dependentGloss": "Straßenkünstlers"
        },
        {
          "dep": "ccomp",
          "governor": 16,
          "governorGloss": "behauptet",
          "dependent": 23,
          "dependentGloss": "offenbart"
        },
        {
          "dep": "auxpass",
          "governor": 23,
          "governorGloss": "offenbart",
          "dependent": 24,
          "dependentGloss": "worden"
        },
        {
          "dep": "conj",
          "governor": 12,
          "governorGloss": "ausgegeben",
          "dependent": 25,
          "dependentGloss": "ist"
        }
      ],
      "enhancedDependencies": [
        {
          "dep": "ROOT",
          "governor": 0,
          "governorGloss": "ROOT",
          "dependent": 2,
          "dependentGloss": "verhaftet"
        },
        {
          "dep": "nsubj",
          "governor": 2,
          "governorGloss": "verhaftet",
          "dependent": 1,
          "dependentGloss": "Banksy"
        },
        {
          "dep": "dobj",
          "governor": 2,
          "governorGloss": "verhaftet",
          "dependent": 3,
          "dependentGloss": "hoax"
        },
        {
          "dep": "punct",
          "governor": 3,
          "governorGloss": "hoax",
          "dependent": 4,
          "dependentGloss": ":"
        },
        {
          "dep": "appos",
          "governor": 3,
          "governorGloss": "hoax",
          "dependent": 5,
          "dependentGloss": "Internet"
        },
        {
          "dep": "punct",
          "governor": 5,
          "governorGloss": "Internet",
          "dependent": 6,
          "dependentGloss": ","
        },
        {
          "dep": "nsubjpass",
          "governor": 12,
          "governorGloss": "ausgegeben",
          "dependent": 7,
          "dependentGloss": "das"
        },
        {
          "dep": "case",
          "governor": 11,
          "governorGloss": "Bericht",
          "dependent": 8,
          "dependentGloss": "von"
        },
        {
          "dep": "det",
          "governor": 11,
          "governorGloss": "Bericht",
          "dependent": 9,
          "dependentGloss": "einem"
        },
        {
          "dep": "amod",
          "governor": 11,
          "governorGloss": "Bericht",
          "dependent": 10,
          "dependentGloss": "gefälschten"
        },
        {
          "dep": "nmod",
          "governor": 12,
          "governorGloss": "ausgegeben",
          "dependent": 11,
          "dependentGloss": "Bericht"
        },
        {
          "dep": "acl",
          "governor": 5,
          "governorGloss": "Internet",
          "dependent": 12,
          "dependentGloss": "ausgegeben"
        },
        {
          "dep": "auxpass",
          "governor": 12,
          "governorGloss": "ausgegeben",
          "dependent": 13,
          "dependentGloss": "wird"
        },
        {
          "dep": "punct",
          "governor": 12,
          "governorGloss": "ausgegeben",
          "dependent": 14,
          "dependentGloss": ","
        },
        {
          "dep": "det",
          "governor": 16,
          "governorGloss": "behauptet",
          "dependent": 15,
          "dependentGloss": "der"
        },
        {
          "dep": "nsubj",
          "governor": 25,
          "governorGloss": "ist",
          "dependent": 16,
          "dependentGloss": "behauptet"
        },
        {
          "dep": "punct",
          "governor": 16,
          "governorGloss": "behauptet",
          "dependent": 17,
          "dependentGloss": ","
        },
        {
          "dep": "mark",
          "governor": 23,
          "governorGloss": "offenbart",
          "dependent": 18,
          "dependentGloss": "dass"
        },
        {
          "dep": "det",
          "governor": 20,
          "governorGloss": "Identität",
          "dependent": 19,
          "dependentGloss": "die"
        },
        {
          "dep": "nsubjpass",
          "governor": 23,
          "governorGloss": "offenbart",
          "dependent": 20,
          "dependentGloss": "Identität"
        },
        {
          "dep": "det",
          "governor": 22,
          "governorGloss": "Straßenkünstlers",
          "dependent": 21,
          "dependentGloss": "des"
        },
        {
          "dep": "det",
          "governor": 20,
          "governorGloss": "Identität",
          "dependent": 22,
          "dependentGloss": "Straßenkünstlers"
        },
        {
          "dep": "ccomp",
          "governor": 16,
          "governorGloss": "behauptet",
          "dependent": 23,
          "dependentGloss": "offenbart"
        },
        {
          "dep": "auxpass",
          "governor": 23,
          "governorGloss": "offenbart",
          "dependent": 24,
          "dependentGloss": "worden"
        },
        {
          "dep": "conj",
          "governor": 12,
          "governorGloss": "ausgegeben",
          "dependent": 25,
          "dependentGloss": "ist"
        }
      ],
      "enhancedPlusPlusDependencies": [
        {
          "dep": "ROOT",
          "governor": 0,
          "governorGloss": "ROOT",
          "dependent": 2,
          "dependentGloss": "verhaftet"
        },
        {
          "dep": "nsubj",
          "governor": 2,
          "governorGloss": "verhaftet",
          "dependent": 1,
          "dependentGloss": "Banksy"
        },
        {
          "dep": "dobj",
          "governor": 2,
          "governorGloss": "verhaftet",
          "dependent": 3,
          "dependentGloss": "hoax"
        },
        {
          "dep": "punct",
          "governor": 3,
          "governorGloss": "hoax",
          "dependent": 4,
          "dependentGloss": ":"
        },
        {
          "dep": "appos",
          "governor": 3,
          "governorGloss": "hoax",
          "dependent": 5,
          "dependentGloss": "Internet"
        },
        {
          "dep": "punct",
          "governor": 5,
          "governorGloss": "Internet",
          "dependent": 6,
          "dependentGloss": ","
        },
        {
          "dep": "nsubjpass",
          "governor": 12,
          "governorGloss": "ausgegeben",
          "dependent": 7,
          "dependentGloss": "das"
        },
        {
          "dep": "case",
          "governor": 11,
          "governorGloss": "Bericht",
          "dependent": 8,
          "dependentGloss": "von"
        },
        {
          "dep": "det",
          "governor": 11,
          "governorGloss": "Bericht",
          "dependent": 9,
          "dependentGloss": "einem"
        },
        {
          "dep": "amod",
          "governor": 11,
          "governorGloss": "Bericht",
          "dependent": 10,
          "dependentGloss": "gefälschten"
        },
        {
          "dep": "nmod",
          "governor": 12,
          "governorGloss": "ausgegeben",
          "dependent": 11,
          "dependentGloss": "Bericht"
        },
        {
          "dep": "acl",
          "governor": 5,
          "governorGloss": "Internet",
          "dependent": 12,
          "dependentGloss": "ausgegeben"
        },
        {
          "dep": "auxpass",
          "governor": 12,
          "governorGloss": "ausgegeben",
          "dependent": 13,
          "dependentGloss": "wird"
        },
        {
          "dep": "punct",
          "governor": 12,
          "governorGloss": "ausgegeben",
          "dependent": 14,
          "dependentGloss": ","
        },
        {
          "dep": "det",
          "governor": 16,
          "governorGloss": "behauptet",
          "dependent": 15,
          "dependentGloss": "der"
        },
        {
          "dep": "nsubj",
          "governor": 25,
          "governorGloss": "ist",
          "dependent": 16,
          "dependentGloss": "behauptet"
        },
        {
          "dep": "punct",
          "governor": 16,
          "governorGloss": "behauptet",
          "dependent": 17,
          "dependentGloss": ","
        },
        {
          "dep": "mark",
          "governor": 23,
          "governorGloss": "offenbart",
          "dependent": 18,
          "dependentGloss": "dass"
        },
        {
          "dep": "det",
          "governor": 20,
          "governorGloss": "Identität",
          "dependent": 19,
          "dependentGloss": "die"
        },
        {
          "dep": "nsubjpass",
          "governor": 23,
          "governorGloss": "offenbart",
          "dependent": 20,
          "dependentGloss": "Identität"
        },
        {
          "dep": "det",
          "governor": 22,
          "governorGloss": "Straßenkünstlers",
          "dependent": 21,
          "dependentGloss": "des"
        },
        {
          "dep": "det",
          "governor": 20,
          "governorGloss": "Identität",
          "dependent": 22,
          "dependentGloss": "Straßenkünstlers"
        },
        {
          "dep": "ccomp",
          "governor": 16,
          "governorGloss": "behauptet",
          "dependent": 23,
          "dependentGloss": "offenbart"
        },
        {
          "dep": "auxpass",
          "governor": 23,
          "governorGloss": "offenbart",
          "dependent": 24,
          "dependentGloss": "worden"
        },
        {
          "dep": "conj",
          "governor": 12,
          "governorGloss": "ausgegeben",
          "dependent": 25,
          "dependentGloss": "ist"
        }
      ],
      "tokens": [
        {
          "index": 1,
          "word": "Banksy",
          "originalText": "Banksy",
          "characterOffsetBegin": 0,
          "characterOffsetEnd": 6,
          "pos": "NE",
          "before": "",
          "after": " "
        },
        {
          "index": 2,
          "word": "verhaftet",
          "originalText": "verhaftet",
          "characterOffsetBegin": 7,
          "characterOffsetEnd": 16,
          "pos": "VVPP",
          "before": " ",
          "after": " "
        },
        {
          "index": 3,
          "word": "hoax",
          "originalText": "hoax",
          "characterOffsetBegin": 17,
          "characterOffsetEnd": 21,
          "pos": "VAFIN",
          "before": " ",
          "after": ""
        },
        {
          "index": 4,
          "word": ":",
          "originalText": ":",
          "characterOffsetBegin": 21,
          "characterOffsetEnd": 22,
          "pos": "$.",
          "before": "",
          "after": " "
        },
        {
          "index": 5,
          "word": "Internet",
          "originalText": "Internet",
          "characterOffsetBegin": 23,
          "characterOffsetEnd": 31,
          "pos": "NN",
          "before": " ",
          "after": ""
        },
        {
          "index": 6,
          "word": ",",
          "originalText": ",",
          "characterOffsetBegin": 31,
          "characterOffsetEnd": 32,
          "pos": "$,",
          "before": "",
          "after": " "
        },
        {
          "index": 7,
          "word": "das",
          "originalText": "das",
          "characterOffsetBegin": 33,
          "characterOffsetEnd": 36,
          "pos": "PRELS",
          "before": " ",
          "after": " "
        },
        {
          "index": 8,
          "word": "von",
          "originalText": "von",
          "characterOffsetBegin": 37,
          "characterOffsetEnd": 40,
          "pos": "APPR",
          "before": " ",
          "after": " "
        },
        {
          "index": 9,
          "word": "einem",
          "originalText": "einem",
          "characterOffsetBegin": 41,
          "characterOffsetEnd": 46,
          "pos": "ART",
          "before": " ",
          "after": " "
        },
        {
          "index": 10,
          "word": "gefälschten",
          "originalText": "gefälschten",
          "characterOffsetBegin": 47,
          "characterOffsetEnd": 58,
          "pos": "ADJA",
          "before": " ",
          "after": " "
        },
        {
          "index": 11,
          "word": "Bericht",
          "originalText": "Bericht",
          "characterOffsetBegin": 59,
          "characterOffsetEnd": 66,
          "pos": "NN",
          "before": " ",
          "after": " "
        },
        {
          "index": 12,
          "word": "ausgegeben",
          "originalText": "ausgegeben",
          "characterOffsetBegin": 67,
          "characterOffsetEnd": 77,
          "pos": "VVPP",
          "before": " ",
          "after": " "
        },
        {
          "index": 13,
          "word": "wird",
          "originalText": "wird",
          "characterOffsetBegin": 78,
          "characterOffsetEnd": 82,
          "pos": "VAFIN",
          "before": " ",
          "after": ""
        },
        {
          "index": 14,
          "word": ",",
          "originalText": ",",
          "characterOffsetBegin": 82,
          "characterOffsetEnd": 83,
          "pos": "$,",
          "before": "",
          "after": " "
        },
        {
          "index": 15,
          "word": "der",
          "originalText": "der",
          "characterOffsetBegin": 84,
          "characterOffsetEnd": 87,
          "pos": "PRELS",
          "before": " ",
          "after": " "
        },
        {
          "index": 16,
          "word": "behauptet",
          "originalText": "behauptet",
          "characterOffsetBegin": 88,
          "characterOffsetEnd": 97,
          "pos": "VVFIN",
          "before": " ",
          "after": ""
        },
        {
          "index": 17,
          "word": ",",
          "originalText": ",",
          "characterOffsetBegin": 97,
          "characterOffsetEnd": 98,
          "pos": "$,",
          "before": "",
          "after": " "
        },
        {
          "index": 18,
          "word": "dass",
          "originalText": "dass",
          "characterOffsetBegin": 99,
          "characterOffsetEnd": 103,
          "pos": "KOUS",
          "before": " ",
          "after": " "
        },
        {
          "index": 19,
          "word": "die",
          "originalText": "die",
          "characterOffsetBegin": 104,
          "characterOffsetEnd": 107,
          "pos": "ART",
          "before": " ",
          "after": " "
        },
        {
          "index": 20,
          "word": "Identität",
          "originalText": "Identität",
          "characterOffsetBegin": 108,
          "characterOffsetEnd": 117,
          "pos": "NN",
          "before": " ",
          "after": " "
        },
        {
          "index": 21,
          "word": "des",
          "originalText": "des",
          "characterOffsetBegin": 118,
          "characterOffsetEnd": 121,
          "pos": "ART",
          "before": " ",
          "after": " "
        },
        {
          "index": 22,
          "word": "Straßenkünstlers",
          "originalText": "Straßenkünstlers",
          "characterOffsetBegin": 122,
          "characterOffsetEnd": 138,
          "pos": "NN",
          "before": " ",
          "after": " "
        },
        {
          "index": 23,
          "word": "offenbart",
          "originalText": "offenbart",
          "characterOffsetBegin": 139,
          "characterOffsetEnd": 148,
          "pos": "VVFIN",
          "before": " ",
          "after": " "
        },
        {
          "index": 24,
          "word": "worden",
          "originalText": "worden",
          "characterOffsetBegin": 149,
          "characterOffsetEnd": 155,
          "pos": "VAPP",
          "before": " ",
          "after": " "
        },
        {
          "index": 25,
          "word": "ist",
          "originalText": "ist",
          "characterOffsetBegin": 156,
          "characterOffsetEnd": 159,
          "pos": "VAFIN",
          "before": " ",
          "after": ""
        }
      ]
    }
  ]
}