{
  "sentences": [
    {
      "index": 0,
      "basicDependencies": [
        {
          "dep": "ROOT",
          "governor": 0,
          "governorGloss": "ROOT",
          "dependent": 6,
          "dependentGloss": "sagt"
        },
        {
          "dep": "name",
          "governor": 2,
          "governorGloss": "Phelps",
          "dependent": 1,
          "dependentGloss": "Michael"
        },
        {
          "dep": "nsubj",
          "governor": 6,
          "governorGloss": "sagt",
          "dependent": 2,
          "dependentGloss": "Phelps"
        },
        {
          "dep": "aux",
          "governor": 6,
          "governorGloss": "sagt",
          "dependent": 3,
          "dependentGloss": "`"
        },
        {
          "dep": "amod",
          "governor": 5,
          "governorGloss": "Freundin",
          "dependent": 4,
          "dependentGloss": "angebliche"
        },
        {
          "dep": "dobj",
          "governor": 6,
          "governorGloss": "sagt",
          "dependent": 5,
          "dependentGloss": "Freundin"
        },
        {
          "dep": "punct",
          "governor": 6,
          "governorGloss": "sagt",
          "dependent": 7,
          "dependentGloss": ","
        },
        {
          "dep": "nsubj",
          "governor": 10,
          "governorGloss": "intersexisch",
          "dependent": 8,
          "dependentGloss": "sie"
        },
        {
          "dep": "cop",
          "governor": 10,
          "governorGloss": "intersexisch",
          "dependent": 9,
          "dependentGloss": "sei"
        },
        {
          "dep": "ccomp",
          "governor": 6,
          "governorGloss": "sagt",
          "dependent": 10,
          "dependentGloss": "intersexisch"
        },
        {
          "dep": "punct",
          "governor": 6,
          "governorGloss": "sagt",
          "dependent": 11,
          "dependentGloss": "geboren"
        }
      ],
      "enhancedDependencies": [
        {
          "dep": "ROOT",
          "governor": 0,
          "governorGloss": "ROOT",
          "dependent": 6,
          "dependentGloss": "sagt"
        },
        {
          "dep": "name",
          "governor": 2,
          "governorGloss": "Phelps",
          "dependent": 1,
          "dependentGloss": "Michael"
        },
        {
          "dep": "nsubj",
          "governor": 6,
          "governorGloss": "sagt",
          "dependent": 2,
          "dependentGloss": "Phelps"
        },
        {
          "dep": "aux",
          "governor": 6,
          "governorGloss": "sagt",
          "dependent": 3,
          "dependentGloss": "`"
        },
        {
          "dep": "amod",
          "governor": 5,
          "governorGloss": "Freundin",
          "dependent": 4,
          "dependentGloss": "angebliche"
        },
        {
          "dep": "dobj",
          "governor": 6,
          "governorGloss": "sagt",
          "dependent": 5,
          "dependentGloss": "Freundin"
        },
        {
          "dep": "punct",
          "governor": 6,
          "governorGloss": "sagt",
          "dependent": 7,
          "dependentGloss": ","
        },
        {
          "dep": "nsubj",
          "governor": 10,
          "governorGloss": "intersexisch",
          "dependent": 8,
          "dependentGloss": "sie"
        },
        {
          "dep": "cop",
          "governor": 10,
          "governorGloss": "intersexisch",
          "dependent": 9,
          "dependentGloss": "sei"
        },
        {
          "dep": "ccomp",
          "governor": 6,
          "governorGloss": "sagt",
          "dependent": 10,
          "dependentGloss": "intersexisch"
        },
        {
          "dep": "punct",
          "governor": 6,
          "governorGloss": "sagt",
          "dependent": 11,
          "dependentGloss": "geboren"
        }
      ],
      "enhancedPlusPlusDependencies": [
        {
          "dep": "ROOT",
          "governor": 0,
          "governorGloss": "ROOT",
          "dependent": 6,
          "dependentGloss": "sagt"
        },
        {
          "dep": "name",
          "governor": 2,
          "governorGloss": "Phelps",
          "dependent": 1,
          "dependentGloss": "Michael"
        },
        {
          "dep": "nsubj",
          "governor": 6,
          "governorGloss": "sagt",
          "dependent": 2,
          "dependentGloss": "Phelps"
        },
        {
          "dep": "aux",
          "governor": 6,
          "governorGloss": "sagt",
          "dependent": 3,
          "dependentGloss": "`"
        },
        {
          "dep": "amod",
          "governor": 5,
          "governorGloss": "Freundin",
          "dependent": 4,
          "dependentGloss": "angebliche"
        },
        {
          "dep": "dobj",
          "governor": 6,
          "governorGloss": "sagt",
          "dependent": 5,
          "dependentGloss": "Freundin"
        },
        {
          "dep": "punct",
          "governor": 6,
          "governorGloss": "sagt",
          "dependent": 7,
          "dependentGloss": ","
        },
        {
          "dep": "nsubj",
          "governor": 10,
          "governorGloss": "intersexisch",
          "dependent": 8,
          "dependentGloss": "sie"
        },
        {
          "dep": "cop",
          "governor": 10,
          "governorGloss": "intersexisch",
          "dependent": 9,
          "dependentGloss": "sei"
        },
        {
          "dep": "ccomp",
          "governor": 6,
          "governorGloss": "sagt",
          "dependent": 10,
          "dependentGloss": "intersexisch"
        },
        {
          "dep": "punct",
          "governor": 6,
          "governorGloss": "sagt",
          "dependent": 11,
          "dependentGloss": "geboren"
        }
      ],
      "tokens": [
        {
          "index": 1,
          "word": "Michael",
          "originalText": "Michael",
          "characterOffsetBegin": 0,
          "characterOffsetEnd": 7,
          "pos": "NE",
          "before": "",
          "after": " "
        },
        {
          "index": 2,
          "word": "Phelps",
          "originalText": "Phelps",
          "characterOffsetBegin": 8,
          "characterOffsetEnd": 14,
          "pos": "NE",
          "before": " ",
          "after": " "
        },
        {
          "index": 3,
          "word": "`",
          "originalText": "'",
          "characterOffsetBegin": 15,
          "characterOffsetEnd": 16,
          "pos": "CARD",
          "before": " ",
          "after": ""
        },
        {
          "index": 4,
          "word": "angebliche",
          "originalText": "angebliche",
          "characterOffsetBegin": 16,
          "characterOffsetEnd": 26,
          "pos": "ADJA",
          "before": "",
          "after": " "
        },
        {
          "index": 5,
          "word": "Freundin",
          "originalText": "Freundin",
          "characterOffsetBegin": 27,
          "characterOffsetEnd": 35,
          "pos": "NN",
          "before": " ",
          "after": " "
        },
        {
          "index": 6,
          "word": "sagt",
          "originalText": "sagt",
          "characterOffsetBegin": 36,
          "characterOffsetEnd": 40,
          "pos": "VVFIN",
          "before": " ",
          "after": ""
        },
        {
          "index": 7,
          "word": ",",
          "originalText": ",",
          "characterOffsetBegin": 40,
          "characterOffsetEnd": 41,
          "pos": "$,",
          "before": "",
          "after": " "
        },
        {
          "index": 8,
          "word": "sie",
          "originalText": "sie",
          "characterOffsetBegin": 42,
          "characterOffsetEnd": 45,
          "pos": "PPER",
          "before": " ",
          "after": " "
        },
        {
          "index": 9,
          "word": "sei",
          "originalText": "sei",
          "characterOffsetBegin": 46,
          "characterOffsetEnd": 49,
          "pos": "VAFIN",
          "before": " ",
          "after": " "
        },
        {
          "index": 10,
          "word": "intersexisch",
          "originalText": "intersexisch",
          "characterOffsetBegin": 50,
          "characterOffsetEnd": 62,
          "pos": "ADJD",
          "before": " ",
          "after": " "
        },
        {
          "index": 11,
          "word": "geboren",
          "originalText": "geboren",
          "characterOffsetBegin": 63,
          "characterOffsetEnd": 70,
          "pos": "VVPP",
          "before": " ",
          "after": ""
        }
      ]
    }
  ]
}