{
  "sentences": [
    {
      "index": 0,
      "basicDependencies": [
        {
          "dep": "ROOT",
          "governor": 0,
          "governorGloss": "ROOT",
          "dependent": 4,
          "dependentGloss": "sagte"
        },
        {
          "dep": "amod",
          "governor": 3,
          "governorGloss": "Kämpfer",
          "dependent": 1,
          "dependentGloss": "Weibliche"
        },
        {
          "dep": "amod",
          "governor": 3,
          "governorGloss": "Kämpfer",
          "dependent": 2,
          "dependentGloss": "israelische"
        },
        {
          "dep": "nsubj",
          "governor": 4,
          "governorGloss": "sagte",
          "dependent": 3,
          "dependentGloss": "Kämpfer"
        },
        {
          "dep": "iobj",
          "governor": 4,
          "governorGloss": "sagte",
          "dependent": 5,
          "dependentGloss": "entführt"
        },
        {
          "dep": "case",
          "governor": 8,
          "governorGloss": "Staat",
          "dependent": 6,
          "dependentGloss": "durch"
        },
        {
          "dep": "amod",
          "governor": 8,
          "governorGloss": "Staat",
          "dependent": 7,
          "dependentGloss": "islamischen"
        },
        {
          "dep": "nmod",
          "governor": 4,
          "governorGloss": "sagte",
          "dependent": 8,
          "dependentGloss": "Staat"
        },
        {
          "dep": "dobj",
          "governor": 4,
          "governorGloss": "sagte",
          "dependent": 9,
          "dependentGloss": "Lesen"
        },
        {
          "dep": "dobj",
          "governor": 9,
          "governorGloss": "Lesen",
          "dependent": 10,
          "dependentGloss": "Sie"
        },
        {
          "dep": "advmod",
          "governor": 16,
          "governorGloss": "sagte",
          "dependent": 11,
          "dependentGloss": "mehr"
        },
        {
          "dep": "punct",
          "governor": 11,
          "governorGloss": "mehr",
          "dependent": 12,
          "dependentGloss": ":"
        },
        {
          "dep": "amod",
          "governor": 15,
          "governorGloss": "Kämpfer",
          "dependent": 13,
          "dependentGloss": "Weibliche"
        },
        {
          "dep": "amod",
          "governor": 15,
          "governorGloss": "Kämpfer",
          "dependent": 14,
          "dependentGloss": "israelische"
        },
        {
          "dep": "nsubj",
          "governor": 16,
          "governorGloss": "sagte",
          "dependent": 15,
          "dependentGloss": "Kämpfer"
        },
        {
          "dep": "acl",
          "governor": 10,
          "governorGloss": "Sie",
          "dependent": 16,
          "dependentGloss": "sagte"
        },
        {
          "dep": "dobj",
          "governor": 16,
          "governorGloss": "sagte",
          "dependent": 17,
          "dependentGloss": "entführt"
        },
        {
          "dep": "case",
          "governor": 20,
          "governorGloss": "Staat",
          "dependent": 18,
          "dependentGloss": "durch"
        },
        {
          "dep": "amod",
          "governor": 20,
          "governorGloss": "Staat",
          "dependent": 19,
          "dependentGloss": "islamischen"
        },
        {
          "dep": "nmod",
          "governor": 17,
          "governorGloss": "entführt",
          "dependent": 20,
          "dependentGloss": "Staat"
        }
      ],
      "enhancedDependencies": [
        {
          "dep": "ROOT",
          "governor": 0,
          "governorGloss": "ROOT",
          "dependent": 4,
          "dependentGloss": "sagte"
        },
        {
          "dep": "amod",
          "governor": 3,
          "governorGloss": "Kämpfer",
          "dependent": 1,
          "dependentGloss": "Weibliche"
        },
        {
          "dep": "amod",
          "governor": 3,
          "governorGloss": "Kämpfer",
          "dependent": 2,
          "dependentGloss": "israelische"
        },
        {
          "dep": "nsubj",
          "governor": 4,
          "governorGloss": "sagte",
          "dependent": 3,
          "dependentGloss": "Kämpfer"
        },
        {
          "dep": "iobj",
          "governor": 4,
          "governorGloss": "sagte",
          "dependent": 5,
          "dependentGloss": "entführt"
        },
        {
          "dep": "case",
          "governor": 8,
          "governorGloss": "Staat",
          "dependent": 6,
          "dependentGloss": "durch"
        },
        {
          "dep": "amod",
          "governor": 8,
          "governorGloss": "Staat",
          "dependent": 7,
          "dependentGloss": "islamischen"
        },
        {
          "dep": "nmod",
          "governor": 4,
          "governorGloss": "sagte",
          "dependent": 8,
          "dependentGloss": "Staat"
        },
        {
          "dep": "dobj",
          "governor": 4,
          "governorGloss": "sagte",
          "dependent": 9,
          "dependentGloss": "Lesen"
        },
        {
          "dep": "dobj",
          "governor": 9,
          "governorGloss": "Lesen",
          "dependent": 10,
          "dependentGloss": "Sie"
        },
        {
          "dep": "advmod",
          "governor": 16,
          "governorGloss": "sagte",
          "dependent": 11,
          "dependentGloss": "mehr"
        },
        {
          "dep": "punct",
          "governor": 11,
          "governorGloss": "mehr",
          "dependent": 12,
          "dependentGloss": ":"
        },
        {
          "dep": "amod",
          "governor": 15,
          "governorGloss": "Kämpfer",
          "dependent": 13,
          "dependentGloss": "Weibliche"
        },
        {
          "dep": "amod",
          "governor": 15,
          "governorGloss": "Kämpfer",
          "dependent": 14,
          "dependentGloss": "israelische"
        },
        {
          "dep": "nsubj",
          "governor": 16,
          "governorGloss": "sagte",
          "dependent": 15,
          "dependentGloss": "Kämpfer"
        },
        {
          "dep": "acl",
          "governor": 10,
          "governorGloss": "Sie",
          "dependent": 16,
          "dependentGloss": "sagte"
        },
        {
          "dep": "dobj",
          "governor": 16,
          "governorGloss": "sagte",
          "dependent": 17,
          "dependentGloss": "entführt"
        },
        {
          "dep": "case",
          "governor": 20,
          "governorGloss": "Staat",
          "dependent": 18,
          "dependentGloss": "durch"
        },
        {
          "dep": "amod",
          "governor": 20,
          "governorGloss": "Staat",
          "dependent": 19,
          "dependentGloss": "islamischen"
        },
        {
          "dep": "nmod",
          "governor": 17,
          "governorGloss": "entführt",
          "dependent": 20,
          "dependentGloss": "Staat"
        }
      ],
      "enhancedPlusPlusDependencies": [
        {
          "dep": "ROOT",
          "governor": 0,
          "governorGloss": "ROOT",
          "dependent": 4,
          "dependentGloss": "sagte"
        },
        {
          "dep": "amod",
          "governor": 3,
          "governorGloss": "Kämpfer",
          "dependent": 1,
          "dependentGloss": "Weibliche"
        },
        {
          "dep": "amod",
          "governor": 3,
          "governorGloss": "Kämpfer",
          "dependent": 2,
          "dependentGloss": "israelische"
        },
        {
          "dep": "nsubj",
          "governor": 4,
          "governorGloss": "sagte",
          "dependent": 3,
          "dependentGloss": "Kämpfer"
        },
        {
          "dep": "iobj",
          "governor": 4,
          "governorGloss": "sagte",
          "dependent": 5,
          "dependentGloss": "entführt"
        },
        {
          "dep": "case",
          "governor": 8,
          "governorGloss": "Staat",
          "dependent": 6,
          "dependentGloss": "durch"
        },
        {
          "dep": "amod",
          "governor": 8,
          "governorGloss": "Staat",
          "dependent": 7,
          "dependentGloss": "islamischen"
        },
        {
          "dep": "nmod",
          "governor": 4,
          "governorGloss": "sagte",
          "dependent": 8,
          "dependentGloss": "Staat"
        },
        {
          "dep": "dobj",
          "governor": 4,
          "governorGloss": "sagte",
          "dependent": 9,
          "dependentGloss": "Lesen"
        },
        {
          "dep": "dobj",
          "governor": 9,
          "governorGloss": "Lesen",
          "dependent": 10,
          "dependentGloss": "Sie"
        },
        {
          "dep": "advmod",
          "governor": 16,
          "governorGloss": "sagte",
          "dependent": 11,
          "dependentGloss": "mehr"
        },
        {
          "dep": "punct",
          "governor": 11,
          "governorGloss": "mehr",
          "dependent": 12,
          "dependentGloss": ":"
        },
        {
          "dep": "amod",
          "governor": 15,
          "governorGloss": "Kämpfer",
          "dependent": 13,
          "dependentGloss": "Weibliche"
        },
        {
          "dep": "amod",
          "governor": 15,
          "governorGloss": "Kämpfer",
          "dependent": 14,
          "dependentGloss": "israelische"
        },
        {
          "dep": "nsubj",
          "governor": 16,
          "governorGloss": "sagte",
          "dependent": 15,
          "dependentGloss": "Kämpfer"
        },
        {
          "dep": "acl",
          "governor": 10,
          "governorGloss": "Sie",
          "dependent": 16,
          "dependentGloss": "sagte"
        },
        {
          "dep": "dobj",
          "governor": 16,
          "governorGloss": "sagte",
          "dependent": 17,
          "dependentGloss": "entführt"
        },
        {
          "dep": "case",
          "governor": 20,
          "governorGloss": "Staat",
          "dependent": 18,
          "dependentGloss": "durch"
        },
        {
          "dep": "amod",
          "governor": 20,
          "governorGloss": "Staat",
          "dependent": 19,
          "dependentGloss": "islamischen"
        },
        {
          "dep": "nmod",
          "governor": 17,
          "governorGloss": "entführt",
          "dependent": 20,
          "dependentGloss": "Staat"
        }
      ],
      "tokens": [
        {
          "index": 1,
          "word": "Weibliche",
          "originalText": "Weibliche",
          "characterOffsetBegin": 0,
          "characterOffsetEnd": 9,
          "pos": "ADJA",
          "before": "",
          "after": " "
        },
        {
          "index": 2,
          "word": "israelische",
          "originalText": "israelische",
          "characterOffsetBegin": 10,
          "characterOffsetEnd": 21,
          "pos": "ADJA",
          "before": " ",
          "after": " "
        },
        {
          "index": 3,
          "word": "Kämpfer",
          "originalText": "Kämpfer",
          "characterOffsetBegin": 22,
          "characterOffsetEnd": 29,
          "pos": "NN",
          "before": " ",
          "after": " "
        },
        {
          "index": 4,
          "word": "sagte",
          "originalText": "sagte",
          "characterOffsetBegin": 30,
          "characterOffsetEnd": 35,
          "pos": "VVFIN",
          "before": " ",
          "after": " "
        },
        {
          "index": 5,
          "word": "entführt",
          "originalText": "entführt",
          "characterOffsetBegin": 36,
          "characterOffsetEnd": 44,
          "pos": "VVPP",
          "before": " ",
          "after": " "
        },
        {
          "index": 6,
          "word": "durch",
          "originalText": "durch",
          "characterOffsetBegin": 45,
          "characterOffsetEnd": 50,
          "pos": "APPR",
          "before": " ",
          "after": " "
        },
        {
          "index": 7,
          "word": "islamischen",
          "originalText": "islamischen",
          "characterOffsetBegin": 51,
          "characterOffsetEnd": 62,
          "pos": "ADJA",
          "before": " ",
          "after": " "
        },
        {
          "index": 8,
          "word": "Staat",
          "originalText": "Staat",
          "characterOffsetBegin": 63,
          "characterOffsetEnd": 68,
          "pos": "NN",
          "before": " ",
          "after": " "
        },
        {
          "index": 9,
          "word": "Lesen",
          "originalText": "Lesen",
          "characterOffsetBegin": 69,
          "characterOffsetEnd": 74,
          "pos": "NN",
          "before": " ",
          "after": " "
        },
        {
          "index": 10,
          "word": "Sie",
          "originalText": "Sie",
          "characterOffsetBegin": 75,
          "characterOffsetEnd": 78,
          "pos": "PPER",
          "before": " ",
          "after": " "
        },
        {
          "index": 11,
          "word": "mehr",
          "originalText": "mehr",
          "characterOffsetBegin": 79,
          "characterOffsetEnd": 83,
          "pos": "PIAT",
          "before": " ",
          "after": ""
        },
        {
          "index": 12,
          "word": ":",
          "originalText": ":",
          "characterOffsetBegin": 83,
          "characterOffsetEnd": 84,
          "pos": "$.",
          "before": "",
          "after": " "
        },
        {
          "index": 13,
          "word": "Weibliche",
          "originalText": "Weibliche",
          "characterOffsetBegin": 85,
          "characterOffsetEnd": 94,
          "pos": "ADJA",
          "before": " ",
          "after": " "
        },
        {
          "index": 14,
          "word": "israelische",
          "originalText": "israelische",
          "characterOffsetBegin": 95,
          "characterOffsetEnd": 106,
          "pos": "ADJA",
          "before": " ",
          "after": " "
        },
        {
          "index": 15,
          "word": "Kämpfer",
          "originalText": "Kämpfer",
          "characterOffsetBegin": 107,
          "characterOffsetEnd": 114,
          "pos": "NN",
          "before": " ",
          "after": " "
        },
        {
          "index": 16,
          "word": "sagte",
          "originalText": "sagte",
          "characterOffsetBegin": 115,
          "characterOffsetEnd": 120,
          "pos": "VVFIN",
          "before": " ",
          "after": " "
        },
        {
          "index": 17,
          "word": "entführt",
          "originalText": "entführt",
          "characterOffsetBegin": 121,
          "characterOffsetEnd": 129,
          "pos": "VVPP",
          "before": " ",
          "after": " "
        },
        {
          "index": 18,
          "word": "durch",
          "originalText": "durch",
          "characterOffsetBegin": 130,
          "characterOffsetEnd": 135,
          "pos": "APPR",
          "before": " ",
          "after": " "
        },
        {
          "index": 19,
          "word": "islamischen",
          "originalText": "islamischen",
          "characterOffsetBegin": 136,
          "characterOffsetEnd": 147,
          "pos": "ADJA",
          "before": " ",
          "after": " "
        },
        {
          "index": 20,
          "word": "Staat",
          "originalText": "Staat",
          "characterOffsetBegin": 148,
          "characterOffsetEnd": 153,
          "pos": "NN",
          "before": " ",
          "after": ""
        }
      ]
    }
  ]
}