{
  "sentences": [
    {
      "index": 0,
      "basicDependencies": [
        {
          "dep": "ROOT",
          "governor": 0,
          "governorGloss": "ROOT",
          "dependent": 3,
          "dependentGloss": "greift"
        },
        {
          "dep": "amod",
          "governor": 2,
          "governorGloss": "News-Website",
          "dependent": 1,
          "dependentGloss": "Satirische"
        },
        {
          "dep": "nsubj",
          "governor": 3,
          "governorGloss": "greift",
          "dependent": 2,
          "dependentGloss": "News-Website"
        },
        {
          "dep": "iobj",
          "governor": 3,
          "governorGloss": "greift",
          "dependent": 4,
          "dependentGloss": "Chinas"
        },
        {
          "dep": "advmod",
          "governor": 3,
          "governorGloss": "greift",
          "dependent": 5,
          "dependentGloss": "komische"
        },
        {
          "dep": "amod",
          "governor": 7,
          "governorGloss": "Namen",
          "dependent": 6,
          "dependentGloss": "englische"
        },
        {
          "dep": "dobj",
          "governor": 3,
          "governorGloss": "greift",
          "dependent": 7,
          "dependentGloss": "Namen"
        },
        {
          "dep": "mark",
          "governor": 3,
          "governorGloss": "greift",
          "dependent": 8,
          "dependentGloss": "an"
        }
      ],
      "enhancedDependencies": [
        {
          "dep": "ROOT",
          "governor": 0,
          "governorGloss": "ROOT",
          "dependent": 3,
          "dependentGloss": "greift"
        },
        {
          "dep": "amod",
          "governor": 2,
          "governorGloss": "News-Website",
          "dependent": 1,
          "dependentGloss": "Satirische"
        },
        {
          "dep": "nsubj",
          "governor": 3,
          "governorGloss": "greift",
          "dependent": 2,
          "dependentGloss": "News-Website"
        },
        {
          "dep": "iobj",
          "governor": 3,
          "governorGloss": "greift",
          "dependent": 4,
          "dependentGloss": "Chinas"
        },
        {
          "dep": "advmod",
          "governor": 3,
          "governorGloss": "greift",
          "dependent": 5,
          "dependentGloss": "komische"
        },
        {
          "dep": "amod",
          "governor": 7,
          "governorGloss": "Namen",
          "dependent": 6,
          "dependentGloss": "englische"
        },
        {
          "dep": "dobj",
          "governor": 3,
          "governorGloss": "greift",
          "dependent": 7,
          "dependentGloss": "Namen"
        },
        {
          "dep": "mark",
          "governor": 3,
          "governorGloss": "greift",
          "dependent": 8,
          "dependentGloss": "an"
        }
      ],
      "enhancedPlusPlusDependencies": [
        {
          "dep": "ROOT",
          "governor": 0,
          "governorGloss": "ROOT",
          "dependent": 3,
          "dependentGloss": "greift"
        },
        {
          "dep": "amod",
          "governor": 2,
          "governorGloss": "News-Website",
          "dependent": 1,
          "dependentGloss": "Satirische"
        },
        {
          "dep": "nsubj",
          "governor": 3,
          "governorGloss": "greift",
          "dependent": 2,
          "dependentGloss": "News-Website"
        },
        {
          "dep": "iobj",
          "governor": 3,
          "governorGloss": "greift",
          "dependent": 4,
          "dependentGloss": "Chinas"
        },
        {
          "dep": "advmod",
          "governor": 3,
          "governorGloss": "greift",
          "dependent": 5,
          "dependentGloss": "komische"
        },
        {
          "dep": "amod",
          "governor": 7,
          "governorGloss": "Namen",
          "dependent": 6,
          "dependentGloss": "englische"
        },
        {
          "dep": "dobj",
          "governor": 3,
          "governorGloss": "greift",
          "dependent": 7,
          "dependentGloss": "Namen"
        },
        {
          "dep": "mark",
          "governor": 3,
          "governorGloss": "greift",
          "dependent": 8,
          "dependentGloss": "an"
        }
      ],
      "tokens": [
        {
          "index": 1,
          "word": "Satirische",
          "originalText": "Satirische",
          "characterOffsetBegin": 0,
          "characterOffsetEnd": 10,
          "pos": "ADJA",
          "before": "",
          "after": " "
        },
        {
          "index": 2,
          "word": "News-Website",
          "originalText": "News-Website",
          "characterOffsetBegin": 11,
          "characterOffsetEnd": 23,
          "pos": "NN",
          "before": " ",
          "after": " "
        },
        {
          "index": 3,
          "word": "greift",
          "originalText": "greift",
          "characterOffsetBegin": 24,
          "characterOffsetEnd": 30,
          "pos": "VVFIN",
          "before": " ",
          "after": " "
        },
        {
          "index": 4,
          "word": "Chinas",
          "originalText": "Chinas",
          "characterOffsetBegin": 31,
          "characterOffsetEnd": 37,
          "pos": "NE",
          "before": " ",
          "after": " "
        },
        {
          "index": 5,
          "word": "komische",
          "originalText": "komische",
          "characterOffsetBegin": 38,
          "characterOffsetEnd": 46,
          "pos": "ADJA",
          "before": " ",
          "after": " "
        },
        {
          "index": 6,
          "word": "englische",
          "originalText": "englische",
          "characterOffsetBegin": 47,
          "characterOffsetEnd": 56,
          "pos": "ADJA",
          "before": " ",
          "after": " "
        },
        {
          "index": 7,
          "word": "Namen",
          "originalText": "Namen",
          "characterOffsetBegin": 57,
          "characterOffsetEnd": 62,
          "pos": "NN",
          "before": " ",
          "after": " "
        },
        {
          "index": 8,
          "word": "an",
          "originalText": "an",
          "characterOffsetBegin": 63,
          "characterOffsetEnd": 65,
          "pos": "PTKVZ",
          "before": " ",
          "after": ""
        }
      ]
    }
  ]
}