{
  "sentences": [
    {
      "index": 0,
      "basicDependencies": [
        {
          "dep": "ROOT",
          "governor": 0,
          "governorGloss": "ROOT",
          "dependent": 4,
          "dependentGloss": "Violence"
        },
        {
          "dep": "det",
          "governor": 3,
          "governorGloss": "Domestic",
          "dependent": 1,
          "dependentGloss": "ESPN"
        },
        {
          "dep": "case",
          "governor": 1,
          "governorGloss": "ESPN",
          "dependent": 2,
          "dependentGloss": "'s"
        },
        {
          "dep": "nsubj",
          "governor": 4,
          "governorGloss": "Violence",
          "dependent": 3,
          "dependentGloss": "Domestic"
        },
        {
          "dep": "advmod",
          "governor": 4,
          "governorGloss": "Violence",
          "dependent": 5,
          "dependentGloss": "Panel"
        },
        {
          "dep": "dobj",
          "governor": 4,
          "governorGloss": "Violence",
          "dependent": 6,
          "dependentGloss": "fehlt"
        },
        {
          "dep": "advmod",
          "governor": 8,
          "governorGloss": "Wichtiges",
          "dependent": 7,
          "dependentGloss": "etwas"
        },
        {
          "dep": "nmod",
          "governor": 6,
          "governorGloss": "fehlt",
          "dependent": 8,
          "dependentGloss": "Wichtiges"
        }
      ],
      "enhancedDependencies": [
        {
          "dep": "ROOT",
          "governor": 0,
          "governorGloss": "ROOT",
          "dependent": 4,
          "dependentGloss": "Violence"
        },
        {
          "dep": "det",
          "governor": 3,
          "governorGloss": "Domestic",
          "dependent": 1,
          "dependentGloss": "ESPN"
        },
        {
          "dep": "case",
          "governor": 1,
          "governorGloss": "ESPN",
          "dependent": 2,
          "dependentGloss": "'s"
        },
        {
          "dep": "nsubj",
          "governor": 4,
          "governorGloss": "Violence",
          "dependent": 3,
          "dependentGloss": "Domestic"
        },
        {
          "dep": "advmod",
          "governor": 4,
          "governorGloss": "Violence",
          "dependent": 5,
          "dependentGloss": "Panel"
        },
        {
          "dep": "dobj",
          "governor": 4,
          "governorGloss": "Violence",
          "dependent": 6,
          "dependentGloss": "fehlt"
        },
        {
          "dep": "advmod",
          "governor": 8,
          "governorGloss": "Wichtiges",
          "dependent": 7,
          "dependentGloss": "etwas"
        },
        {
          "dep": "nmod",
          "governor": 6,
          "governorGloss": "fehlt",
          "dependent": 8,
          "dependentGloss": "Wichtiges"
        }
      ],
      "enhancedPlusPlusDependencies": [
        {
          "dep": "ROOT",
          "governor": 0,
          "governorGloss": "ROOT",
          "dependent": 4,
          "dependentGloss": "Violence"
        },
        {
          "dep": "det",
          "governor": 3,
          "governorGloss": "Domestic",
          "dependent": 1,
          "dependentGloss": "ESPN"
        },
        {
          "dep": "case",
          "governor": 1,
          "governorGloss": "ESPN",
          "dependent": 2,
          "dependentGloss": "'s"
        },
        {
          "dep": "nsubj",
          "governor": 4,
          "governorGloss": "Violence",
          "dependent": 3,
          "dependentGloss": "Domestic"
        },
        {
          "dep": "advmod",
          "governor": 4,
          "governorGloss": "Violence",
          "dependent": 5,
          "dependentGloss": "Panel"
        },
        {
          "dep": "dobj",
          "governor": 4,
          "governorGloss": "Violence",
          "dependent": 6,
          "dependentGloss": "fehlt"
        },
        {
          "dep": "advmod",
          "governor": 8,
          "governorGloss": "Wichtiges",
          "dependent": 7,
          "dependentGloss": "etwas"
        },
        {
          "dep": "nmod",
          "governor": 6,
          "governorGloss": "fehlt",
          "dependent": 8,
          "dependentGloss": "Wichtiges"
        }
      ],
      "tokens": [
        {
          "index": 1,
          "word": "ESPN",
          "originalText": "ESPN",
          "characterOffsetBegin": 0,
          "characterOffsetEnd": 4,
          "pos": "NE",
          "before": "",
          "after": ""
        },
        {
          "index": 2,
          "word": "'s",
          "originalText": "'s",
          "characterOffsetBegin": 4,
          "characterOffsetEnd": 6,
          "pos": "PPER",
          "before": "",
          "after": " "
        },
        {
          "index": 3,
          "word": "Domestic",
          "originalText": "Domestic",
          "characterOffsetBegin": 7,
          "characterOffsetEnd": 15,
          "pos": "FM",
          "before": " ",
          "after": " "
        },
        {
          "index": 4,
          "word": "Violence",
          "originalText": "Violence",
          "characterOffsetBegin": 16,
          "characterOffsetEnd": 24,
          "pos": "FM",
          "before": " ",
          "after": " "
        },
        {
          "index": 5,
          "word": "Panel",
          "originalText": "Panel",
          "characterOffsetBegin": 25,
          "characterOffsetEnd": 30,
          "pos": "NE",
          "before": " ",
          "after": " "
        },
        {
          "index": 6,
          "word": "fehlt",
          "originalText": "fehlt",
          "characterOffsetBegin": 31,
          "characterOffsetEnd": 36,
          "pos": "VVFIN",
          "before": " ",
          "after": " "
        },
        {
          "index": 7,
          "word": "etwas",
          "originalText": "etwas",
          "characterOffsetBegin": 37,
          "characterOffsetEnd": 42,
          "pos": "ADV",
          "before": " ",
          "after": " "
        },
        {
          "index": 8,
          "word": "Wichtiges",
          "originalText": "Wichtiges",
          "characterOffsetBegin": 43,
          "characterOffsetEnd": 52,
          "pos": "NN",
          "before": " ",
          "after": ""
        }
      ]
    }
  ]
}