{
  "sentences": [
    {
      "index": 0,
      "basicDependencies": [
        {
          "dep": "ROOT",
          "governor": 0,
          "governorGloss": "ROOT",
          "dependent": 1,
          "dependentGloss": "BERICHT"
        },
        {
          "dep": "punct",
          "governor": 1,
          "governorGloss": "BERICHT",
          "dependent": 2,
          "dependentGloss": ":"
        },
        {
          "dep": "appos",
          "governor": 1,
          "governorGloss": "BERICHT",
          "dependent": 3,
          "dependentGloss": "Angebliches"
        },
        {
          "dep": "amod",
          "governor": 5,
          "governorGloss": "Audio",
          "dependent": 4,
          "dependentGloss": "neues"
        },
        {
          "dep": "det",
          "governor": 3,
          "governorGloss": "Angebliches",
          "dependent": 5,
          "dependentGloss": "Audio"
        },
        {
          "dep": "case",
          "governor": 8,
          "governorGloss": "Brown",
          "dependent": 6,
          "dependentGloss": "von"
        },
        {
          "dep": "name",
          "governor": 8,
          "governorGloss": "Brown",
          "dependent": 7,
          "dependentGloss": "Michael"
        },
        {
          "dep": "nmod",
          "governor": 5,
          "governorGloss": "Audio",
          "dependent": 8,
          "dependentGloss": "Brown"
        },
        {
          "dep": "dep",
          "governor": 1,
          "governorGloss": "BERICHT",
          "dependent": 9,
          "dependentGloss": "Shooting"
        }
      ],
      "enhancedDependencies": [
        {
          "dep": "ROOT",
          "governor": 0,
          "governorGloss": "ROOT",
          "dependent": 1,
          "dependentGloss": "BERICHT"
        },
        {
          "dep": "punct",
          "governor": 1,
          "governorGloss": "BERICHT",
          "dependent": 2,
          "dependentGloss": ":"
        },
        {
          "dep": "appos",
          "governor": 1,
          "governorGloss": "BERICHT",
          "dependent": 3,
          "dependentGloss": "Angebliches"
        },
        {
          "dep": "amod",
          "governor": 5,
          "governorGloss": "Audio",
          "dependent": 4,
          "dependentGloss": "neues"
        },
        {
          "dep": "det",
          "governor": 3,
          "governorGloss": "Angebliches",
          "dependent": 5,
          "dependentGloss": "Audio"
        },
        {
          "dep": "case",
          "governor": 8,
          "governorGloss": "Brown",
          "dependent": 6,
          "dependentGloss": "von"
        },
        {
          "dep": "name",
          "governor": 8,
          "governorGloss": "Brown",
          "dependent": 7,
          "dependentGloss": "Michael"
        },
        {
          "dep": "nmod",
          "governor": 5,
          "governorGloss": "Audio",
          "dependent": 8,
          "dependentGloss": "Brown"
        },
        {
          "dep": "dep",
          "governor": 1,
          "governorGloss": "BERICHT",
          "dependent": 9,
          "dependentGloss": "Shooting"
        }
      ],
      "enhancedPlusPlusDependencies": [
        {
          "dep": "ROOT",
          "governor": 0,
          "governorGloss": "ROOT",
          "dependent": 1,
          "dependentGloss": "BERICHT"
        },
        {
          "dep": "punct",
          "governor": 1,
          "governorGloss": "BERICHT",
          "dependent": 2,
          "dependentGloss": ":"
        },
        {
          "dep": "appos",
          "governor": 1,
          "governorGloss": "BERICHT",
          "dependent": 3,
          "dependentGloss": "Angebliches"
        },
        {
          "dep": "amod",
          "governor": 5,
          "governorGloss": "Audio",
          "dependent": 4,
          "dependentGloss": "neues"
        },
        {
          "dep": "det",
          "governor": 3,
          "governorGloss": "Angebliches",
          "dependent": 5,
          "dependentGloss": "Audio"
        },
        {
          "dep": "case",
          "governor": 8,
          "governorGloss": "Brown",
          "dependent": 6,
          "dependentGloss": "von"
        },
        {
          "dep": "name",
          "governor": 8,
          "governorGloss": "Brown",
          "dependent": 7,
          "dependentGloss": "Michael"
        },
        {
          "dep": "nmod",
          "governor": 5,
          "governorGloss": "Audio",
          "dependent": 8,
          "dependentGloss": "Brown"
        },
        {
          "dep": "dep",
          "governor": 1,
          "governorGloss": "BERICHT",
          "dependent": 9,
          "dependentGloss": "Shooting"
        }
      ],
      "tokens": [
        {
          "index": 1,
          "word": "BERICHT",
          "originalText": "BERICHT",
          "characterOffsetBegin": 0,
          "characterOffsetEnd": 7,
          "pos": "NN",
          "before": "",
          "after": ""
        },
        {
          "index": 2,
          "word": ":",
          "originalText": ":",
          "characterOffsetBegin": 7,
          "characterOffsetEnd": 8,
          "pos": "$.",
          "before": "",
          "after": " "
        },
        {
          "index": 3,
          "word": "Angebliches",
          "originalText": "Angebliches",
          "characterOffsetBegin": 9,
          "characterOffsetEnd": 20,
          "pos": "NN",
          "before": " ",
          "after": " "
        },
        {
          "index": 4,
          "word": "neues",
          "originalText": "neues",
          "characterOffsetBegin": 21,
          "characterOffsetEnd": 26,
          "pos": "ADJA",
          "before": " ",
          "after": " "
        },
        {
          "index": 5,
          "word": "Audio",
          "originalText": "Audio",
          "characterOffsetBegin": 27,
          "characterOffsetEnd": 32,
          "pos": "NN",
          "before": " ",
          "after": " "
        },
        {
          "index": 6,
          "word": "von",
          "originalText": "von",
          "characterOffsetBegin": 33,
          "characterOffsetEnd": 36,
          "pos": "APPR",
          "before": " ",
          "after": " "
        },
        {
          "index": 7,
          "word": "Michael",
          "originalText": "Michael",
          "characterOffsetBegin": 37,
          "characterOffsetEnd": 44,
          "pos": "NE",
          "before": " ",
          "after": " "
        },
        {
          "index": 8,
          "word": "Brown",
          "originalText": "Brown",
          "characterOffsetBegin": 45,
          "characterOffsetEnd": 50,
          "pos": "NE",
          "before": " ",
          "after": " "
        },
        {
          "index": 9,
          "word": "Shooting",
          "originalText": "Shooting",
          "characterOffsetBegin": 51,
          "characterOffsetEnd": 59,
          "pos": "NE",
          "before": " ",
          "after": ""
        }
      ]
    }
  ]
}