{
  "sentences": [
    {
      "index": 0,
      "basicDependencies": [
        {
          "dep": "ROOT",
          "governor": 0,
          "governorGloss": "ROOT",
          "dependent": 3,
          "dependentGloss": "überlebt"
        },
        {
          "dep": "name",
          "governor": 2,
          "governorGloss": "Marine",
          "dependent": 1,
          "dependentGloss": "US"
        },
        {
          "dep": "nsubj",
          "governor": 3,
          "governorGloss": "überlebt",
          "dependent": 2,
          "dependentGloss": "Marine"
        },
        {
          "dep": "dobj",
          "governor": 3,
          "governorGloss": "überlebt",
          "dependent": 4,
          "dependentGloss": "Kopfschuss"
        },
        {
          "dep": "case",
          "governor": 8,
          "governorGloss": "Video",
          "dependent": 5,
          "dependentGloss": "aus"
        },
        {
          "dep": "amod",
          "governor": 8,
          "governorGloss": "Video",
          "dependent": 6,
          "dependentGloss": "Taliban"
        },
        {
          "dep": "amod",
          "governor": 8,
          "governorGloss": "Video",
          "dependent": 7,
          "dependentGloss": "-LRB-"
        },
        {
          "dep": "nmod",
          "governor": 4,
          "governorGloss": "Kopfschuss",
          "dependent": 8,
          "dependentGloss": "Video"
        },
        {
          "dep": "punct",
          "governor": 3,
          "governorGloss": "überlebt",
          "dependent": 9,
          "dependentGloss": "-RRB-"
        }
      ],
      "enhancedDependencies": [
        {
          "dep": "ROOT",
          "governor": 0,
          "governorGloss": "ROOT",
          "dependent": 3,
          "dependentGloss": "überlebt"
        },
        {
          "dep": "name",
          "governor": 2,
          "governorGloss": "Marine",
          "dependent": 1,
          "dependentGloss": "US"
        },
        {
          "dep": "nsubj",
          "governor": 3,
          "governorGloss": "überlebt",
          "dependent": 2,
          "dependentGloss": "Marine"
        },
        {
          "dep": "dobj",
          "governor": 3,
          "governorGloss": "überlebt",
          "dependent": 4,
          "dependentGloss": "Kopfschuss"
        },
        {
          "dep": "case",
          "governor": 8,
          "governorGloss": "Video",
          "dependent": 5,
          "dependentGloss": "aus"
        },
        {
          "dep": "amod",
          "governor": 8,
          "governorGloss": "Video",
          "dependent": 6,
          "dependentGloss": "Taliban"
        },
        {
          "dep": "amod",
          "governor": 8,
          "governorGloss": "Video",
          "dependent": 7,
          "dependentGloss": "-LRB-"
        },
        {
          "dep": "nmod",
          "governor": 4,
          "governorGloss": "Kopfschuss",
          "dependent": 8,
          "dependentGloss": "Video"
        },
        {
          "dep": "punct",
          "governor": 3,
          "governorGloss": "überlebt",
          "dependent": 9,
          "dependentGloss": "-RRB-"
        }
      ],
      "enhancedPlusPlusDependencies": [
        {
          "dep": "ROOT",
          "governor": 0,
          "governorGloss": "ROOT",
          "dependent": 3,
          "dependentGloss": "überlebt"
        },
        {
          "dep": "name",
          "governor": 2,
          "governorGloss": "Marine",
          "dependent": 1,
          "dependentGloss": "US"
        },
        {
          "dep": "nsubj",
          "governor": 3,
          "governorGloss": "überlebt",
          "dependent": 2,
          "dependentGloss": "Marine"
        },
        {
          "dep": "dobj",
          "governor": 3,
          "governorGloss": "überlebt",
          "dependent": 4,
          "dependentGloss": "Kopfschuss"
        },
        {
          "dep": "case",
          "governor": 8,
          "governorGloss": "Video",
          "dependent": 5,
          "dependentGloss": "aus"
        },
        {
          "dep": "amod",
          "governor": 8,
          "governorGloss": "Video",
          "dependent": 6,
          "dependentGloss": "Taliban"
        },
        {
          "dep": "amod",
          "governor": 8,
          "governorGloss": "Video",
          "dependent": 7,
          "dependentGloss": "-LRB-"
        },
        {
          "dep": "nmod",
          "governor": 4,
          "governorGloss": "Kopfschuss",
          "dependent": 8,
          "dependentGloss": "Video"
        },
        {
          "dep": "punct",
          "governor": 3,
          "governorGloss": "überlebt",
          "dependent": 9,
          "dependentGloss": "-RRB-"
        }
      ],
      "tokens": [
        {
          "index": 1,
          "word": "US",
          "originalText": "US",
          "characterOffsetBegin": 0,
          "characterOffsetEnd": 2,
          "pos": "APPR",
          "before": "",
          "after": " "
        },
        {
          "index": 2,
          "word": "Marine",
          "originalText": "Marine",
          "characterOffsetBegin": 3,
          "characterOffsetEnd": 9,
          "pos": "NE",
          "before": " ",
          "after": " "
        },
        {
          "index": 3,
          "word": "überlebt",
          "originalText": "überlebt",
          "characterOffsetBegin": 10,
          "characterOffsetEnd": 18,
          "pos": "VVFIN",
          "before": " ",
          "after": " "
        },
        {
          "index": 4,
          "word": "Kopfschuss",
          "originalText": "Kopfschuss",
          "characterOffsetBegin": 19,
          "characterOffsetEnd": 29,
          "pos": "NN",
          "before": " ",
          "after": " "
        },
        {
          "index": 5,
          "word": "aus",
          "originalText": "aus",
          "characterOffsetBegin": 30,
          "characterOffsetEnd": 33,
          "pos": "APPR",
          "before": " ",
          "after": " "
        },
        {
          "index": 6,
          "word": "Taliban",
          "originalText": "Taliban",
          "characterOffsetBegin": 34,
          "characterOffsetEnd": 41,
          "pos": "NN",
          "before": " ",
          "after": " "
        },
        {
          "index": 7,
          "word": "-LRB-",
          "originalText": "(",
          "characterOffsetBegin": 42,
          "characterOffsetEnd": 43,
          "pos": "TRUNC",
          "before": " ",
          "after": ""
        },
        {
          "index": 8,
          "word": "Video",
          "originalText": "Video",
          "characterOffsetBegin": 43,
          "characterOffsetEnd": 48,
          "pos": "NN",
          "before": "",
          "after": ""
        },
        {
          "index": 9,
          "word": "-RRB-",
          "originalText": ")",
          "characterOffsetBegin": 48,
          "characterOffsetEnd": 49,
          "pos": "TRUNC",
          "before": "",
          "after": ""
        }
      ]
    }
  ]
}