{
  "sentences": [
    {
      "index": 0,
      "basicDependencies": [
        {
          "dep": "ROOT",
          "governor": 0,
          "governorGloss": "ROOT",
          "dependent": 9,
          "dependentGloss": "sagt"
        },
        {
          "dep": "nsubj",
          "governor": 9,
          "governorGloss": "sagt",
          "dependent": 1,
          "dependentGloss": "Priester"
        },
        {
          "dep": "punct",
          "governor": 1,
          "governorGloss": "Priester",
          "dependent": 2,
          "dependentGloss": ","
        },
        {
          "dep": "nsubj",
          "governor": 7,
          "governorGloss": "starb",
          "dependent": 3,
          "dependentGloss": "der"
        },
        {
          "dep": "case",
          "governor": 6,
          "governorGloss": "Minuten",
          "dependent": 4,
          "dependentGloss": "für"
        },
        {
          "dep": "nummod",
          "governor": 6,
          "governorGloss": "Minuten",
          "dependent": 5,
          "dependentGloss": "48"
        },
        {
          "dep": "nmod",
          "governor": 7,
          "governorGloss": "starb",
          "dependent": 6,
          "dependentGloss": "Minuten"
        },
        {
          "dep": "acl",
          "governor": 1,
          "governorGloss": "Priester",
          "dependent": 7,
          "dependentGloss": "starb"
        },
        {
          "dep": "punct",
          "governor": 7,
          "governorGloss": "starb",
          "dependent": 8,
          "dependentGloss": ","
        },
        {
          "dep": "punct",
          "governor": 9,
          "governorGloss": "sagt",
          "dependent": 10,
          "dependentGloss": ","
        },
        {
          "dep": "mark",
          "governor": 14,
          "governorGloss": "getroffen",
          "dependent": 11,
          "dependentGloss": "dass"
        },
        {
          "dep": "nsubj",
          "governor": 14,
          "governorGloss": "getroffen",
          "dependent": 12,
          "dependentGloss": "er"
        },
        {
          "dep": "dobj",
          "governor": 14,
          "governorGloss": "getroffen",
          "dependent": 13,
          "dependentGloss": "Gott"
        },
        {
          "dep": "ccomp",
          "governor": 9,
          "governorGloss": "sagt",
          "dependent": 14,
          "dependentGloss": "getroffen"
        },
        {
          "dep": "aux",
          "governor": 14,
          "governorGloss": "getroffen",
          "dependent": 15,
          "dependentGloss": "hat"
        },
        {
          "dep": "cc",
          "governor": 14,
          "governorGloss": "getroffen",
          "dependent": 16,
          "dependentGloss": "und"
        },
        {
          "dep": "nsubj",
          "governor": 19,
          "governorGloss": "Frau",
          "dependent": 17,
          "dependentGloss": "sie"
        },
        {
          "dep": "det",
          "governor": 19,
          "governorGloss": "Frau",
          "dependent": 18,
          "dependentGloss": "eine"
        },
        {
          "dep": "conj",
          "governor": 14,
          "governorGloss": "getroffen",
          "dependent": 19,
          "dependentGloss": "Frau"
        },
        {
          "dep": "cop",
          "governor": 19,
          "governorGloss": "Frau",
          "dependent": 20,
          "dependentGloss": "ist"
        }
      ],
      "enhancedDependencies": [
        {
          "dep": "ROOT",
          "governor": 0,
          "governorGloss": "ROOT",
          "dependent": 9,
          "dependentGloss": "sagt"
        },
        {
          "dep": "nsubj",
          "governor": 9,
          "governorGloss": "sagt",
          "dependent": 1,
          "dependentGloss": "Priester"
        },
        {
          "dep": "punct",
          "governor": 1,
          "governorGloss": "Priester",
          "dependent": 2,
          "dependentGloss": ","
        },
        {
          "dep": "nsubj",
          "governor": 7,
          "governorGloss": "starb",
          "dependent": 3,
          "dependentGloss": "der"
        },
        {
          "dep": "case",
          "governor": 6,
          "governorGloss": "Minuten",
          "dependent": 4,
          "dependentGloss": "für"
        },
        {
          "dep": "nummod",
          "governor": 6,
          "governorGloss": "Minuten",
          "dependent": 5,
          "dependentGloss": "48"
        },
        {
          "dep": "nmod",
          "governor": 7,
          "governorGloss": "starb",
          "dependent": 6,
          "dependentGloss": "Minuten"
        },
        {
          "dep": "acl",
          "governor": 1,
          "governorGloss": "Priester",
          "dependent": 7,
          "dependentGloss": "starb"
        },
        {
          "dep": "punct",
          "governor": 7,
          "governorGloss": "starb",
          "dependent": 8,
          "dependentGloss": ","
        },
        {
          "dep": "punct",
          "governor": 9,
          "governorGloss": "sagt",
          "dependent": 10,
          "dependentGloss": ","
        },
        {
          "dep": "mark",
          "governor": 14,
          "governorGloss": "getroffen",
          "dependent": 11,
          "dependentGloss": "dass"
        },
        {
          "dep": "nsubj",
          "governor": 14,
          "governorGloss": "getroffen",
          "dependent": 12,
          "dependentGloss": "er"
        },
        {
          "dep": "dobj",
          "governor": 14,
          "governorGloss": "getroffen",
          "dependent": 13,
          "dependentGloss": "Gott"
        },
        {
          "dep": "ccomp",
          "governor": 9,
          "governorGloss": "sagt",
          "dependent": 14,
          "dependentGloss": "getroffen"
        },
        {
          "dep": "aux",
          "governor": 14,
          "governorGloss": "getroffen",
          "dependent": 15,
          "dependentGloss": "hat"
        },
        {
          "dep": "cc",
          "governor": 14,
          "governorGloss": "getroffen",
          "dependent": 16,
          "dependentGloss": "und"
        },
        {
          "dep": "nsubj",
          "governor": 19,
          "governorGloss": "Frau",
          "dependent": 17,
          "dependentGloss": "sie"
        },
        {
          "dep": "det",
          "governor": 19,
          "governorGloss": "Frau",
          "dependent": 18,
          "dependentGloss": "eine"
        },
        {
          "dep": "ccomp",
          "governor": 9,
          "governorGloss": "sagt",
          "dependent": 19,
          "dependentGloss": "Frau"
        },
        {
          "dep": "conj:und",
          "governor": 14,
          "governorGloss": "getroffen",
          "dependent": 19,
          "dependentGloss": "Frau"
        },
        {
          "dep": "cop",
          "governor": 19,
          "governorGloss": "Frau",
          "dependent": 20,
          "dependentGloss": "ist"
        }
      ],
      "enhancedPlusPlusDependencies": [
        {
          "dep": "ROOT",
          "governor": 0,
          "governorGloss": "ROOT",
          "dependent": 9,
          "dependentGloss": "sagt"
        },
        {
          "dep": "nsubj",
          "governor": 9,
          "governorGloss": "sagt",
          "dependent": 1,
          "dependentGloss": "Priester"
        },
        {
          "dep": "punct",
          "governor": 1,
          "governorGloss": "Priester",
          "dependent": 2,
          "dependentGloss": ","
        },
        {
          "dep": "nsubj",
          "governor": 7,
          "governorGloss": "starb",
          "dependent": 3,
          "dependentGloss": "der"
        },
        {
          "dep": "case",
          "governor": 6,
          "governorGloss": "Minuten",
          "dependent": 4,
          "dependentGloss": "für"
        },
        {
          "dep": "nummod",
          "governor": 6,
          "governorGloss": "Minuten",
          "dependent": 5,
          "dependentGloss": "48"
        },
        {
          "dep": "nmod",
          "governor": 7,
          "governorGloss": "starb",
          "dependent": 6,
          "dependentGloss": "Minuten"
        },
        {
          "dep": "acl",
          "governor": 1,
          "governorGloss": "Priester",
          "dependent": 7,
          "dependentGloss": "starb"
        },
        {
          "dep": "punct",
          "governor": 7,
          "governorGloss": "starb",
          "dependent": 8,
          "dependentGloss": ","
        },
        {
          "dep": "punct",
          "governor": 9,
          "governorGloss": "sagt",
          "dependent": 10,
          "dependentGloss": ","
        },
        {
          "dep": "mark",
          "governor": 14,
          "governorGloss": "getroffen",
          "dependent": 11,
          "dependentGloss": "dass"
        },
        {
          "dep": "nsubj",
          "governor": 14,
          "governorGloss": "getroffen",
          "dependent": 12,
          "dependentGloss": "er"
        },
        {
          "dep": "dobj",
          "governor": 14,
          "governorGloss": "getroffen",
          "dependent": 13,
          "dependentGloss": "Gott"
        },
        {
          "dep": "ccomp",
          "governor": 9,
          "governorGloss": "sagt",
          "dependent": 14,
          "dependentGloss": "getroffen"
        },
        {
          "dep": "aux",
          "governor": 14,
          "governorGloss": "getroffen",
          "dependent": 15,
          "dependentGloss": "hat"
        },
        {
          "dep": "cc",
          "governor": 14,
          "governorGloss": "getroffen",
          "dependent": 16,
          "dependentGloss": "und"
        },
        {
          "dep": "nsubj",
          "governor": 19,
          "governorGloss": "Frau",
          "dependent": 17,
          "dependentGloss": "sie"
        },
        {
          "dep": "det",
          "governor": 19,
          "governorGloss": "Frau",
          "dependent": 18,
          "dependentGloss": "eine"
        },
        {
          "dep": "ccomp",
          "governor": 9,
          "governorGloss": "sagt",
          "dependent": 19,
          "dependentGloss": "Frau"
        },
        {
          "dep": "conj:und",
          "governor": 14,
          "governorGloss": "getroffen",
          "dependent": 19,
          "dependentGloss": "Frau"
        },
        {
          "dep": "cop",
          "governor": 19,
          "governorGloss": "Frau",
          "dependent": 20,
          "dependentGloss": "ist"
        }
      ],
      "tokens": [
        {
          "index": 1,
          "word": "Priester",
          "originalText": "Priester",
          "characterOffsetBegin": 0,
          "characterOffsetEnd": 8,
          "pos": "NN",
          "before": "",
          "after": ""
        },
        {
          "index": 2,
          "word": ",",
          "originalText": ",",
          "characterOffsetBegin": 8,
          "characterOffsetEnd": 9,
          "pos": "$,",
          "before": "",
          "after": " "
        },
        {
          "index": 3,
          "word": "der",
          "originalText": "der",
          "characterOffsetBegin": 10,
          "characterOffsetEnd": 13,
          "pos": "PRELS",
          "before": " ",
          "after": " "
        },
        {
          "index": 4,
          "word": "für",
          "originalText": "für",
          "characterOffsetBegin": 14,
          "characterOffsetEnd": 17,
          "pos": "APPR",
          "before": " ",
          "after": " "
        },
        {
          "index": 5,
          "word": "48",
          "originalText": "48",
          "characterOffsetBegin": 18,
          "characterOffsetEnd": 20,
          "pos": "CARD",
          "before": " ",
          "after": " "
        },
        {
          "index": 6,
          "word": "Minuten",
          "originalText": "Minuten",
          "characterOffsetBegin": 21,
          "characterOffsetEnd": 28,
          "pos": "NN",
          "before": " ",
          "after": " "
        },
        {
          "index": 7,
          "word": "starb",
          "originalText": "starb",
          "characterOffsetBegin": 29,
          "characterOffsetEnd": 34,
          "pos": "VVFIN",
          "before": " ",
          "after": ""
        },
        {
          "index": 8,
          "word": ",",
          "originalText": ",",
          "characterOffsetBegin": 34,
          "characterOffsetEnd": 35,
          "pos": "$,",
          "before": "",
          "after": " "
        },
        {
          "index": 9,
          "word": "sagt",
          "originalText": "sagt",
          "characterOffsetBegin": 36,
          "characterOffsetEnd": 40,
          "pos": "VVFIN",
          "before": " ",
          "after": ""
        },
        {
          "index": 10,
          "word": ",",
          "originalText": ",",
          "characterOffsetBegin": 40,
          "characterOffsetEnd": 41,
          "pos": "$,",
          "before": "",
          "after": " "
        },
        {
          "index": 11,
          "word": "dass",
          "originalText": "dass",
          "characterOffsetBegin": 42,
          "characterOffsetEnd": 46,
          "pos": "KOUS",
          "before": " ",
          "after": " "
        },
        {
          "index": 12,
          "word": "er",
          "originalText": "er",
          "characterOffsetBegin": 47,
          "characterOffsetEnd": 49,
          "pos": "PPER",
          "before": " ",
          "after": " "
        },
        {
          "index": 13,
          "word": "Gott",
          "originalText": "Gott",
          "characterOffsetBegin": 50,
          "characterOffsetEnd": 54,
          "pos": "NN",
          "before": " ",
          "after": " "
        },
        {
          "index": 14,
          "word": "getroffen",
          "originalText": "getroffen",
          "characterOffsetBegin": 55,
          "characterOffsetEnd": 64,
          "pos": "VVPP",
          "before": " ",
          "after": " "
        },
        {
          "index": 15,
          "word": "hat",
          "originalText": "hat",
          "characterOffsetBegin": 65,
          "characterOffsetEnd": 68,
          "pos": "VAFIN",
          "before": " ",
          "after": " "
        },
        {
          "index": 16,
          "word": "und",
          "originalText": "und",
          "characterOffsetBegin": 69,
          "characterOffsetEnd": 72,
          "pos": "KON",
          "before": " ",
          "after": " "
        },
        {
          "index": 17,
          "word": "sie",
          "originalText": "sie",
          "characterOffsetBegin": 73,
          "characterOffsetEnd": 76,
          "pos": "PPER",
          "before": " ",
          "after": " "
        },
        {
          "index": 18,
          "word": "eine",
          "originalText": "eine",
          "characterOffsetBegin": 77,
          "characterOffsetEnd": 81,
          "pos": "ART",
          "before": " ",
          "after": " "
        },
        {
          "index": 19,
          "word": "Frau",
          "originalText": "Frau",
          "characterOffsetBegin": 82,
          "characterOffsetEnd": 86,
          "pos": "NN",
          "before": " ",
          "after": " "
        },
        {
          "index": 20,
          "word": "ist",
          "originalText": "ist",
          "characterOffsetBegin": 87,
          "characterOffsetEnd": 90,
          "pos": "VAFIN",
          "before": " ",
          "after": ""
        }
      ]
    }
  ]
}