{
  "sentences": [
    {
      "index": 0,
      "basicDependencies": [
        {
          "dep": "ROOT",
          "governor": 0,
          "governorGloss": "ROOT",
          "dependent": 1,
          "dependentGloss": "Boko"
        },
        {
          "dep": "amod",
          "governor": 3,
          "governorGloss": "behauptet",
          "dependent": 2,
          "dependentGloss": "Haram"
        },
        {
          "dep": "det",
          "governor": 1,
          "governorGloss": "Boko",
          "dependent": 3,
          "dependentGloss": "behauptet"
        },
        {
          "dep": "punct",
          "governor": 3,
          "governorGloss": "behauptet",
          "dependent": 4,
          "dependentGloss": ","
        },
        {
          "dep": "amod",
          "governor": 6,
          "governorGloss": "Geisel",
          "dependent": 5,
          "dependentGloss": "deutsche"
        },
        {
          "dep": "dobj",
          "governor": 8,
          "governorGloss": "haben",
          "dependent": 6,
          "dependentGloss": "Geisel"
        },
        {
          "dep": "aux",
          "governor": 8,
          "governorGloss": "haben",
          "dependent": 7,
          "dependentGloss": "zu"
        },
        {
          "dep": "acl",
          "governor": 3,
          "governorGloss": "behauptet",
          "dependent": 8,
          "dependentGloss": "haben"
        },
        {
          "dep": "punct",
          "governor": 8,
          "governorGloss": "haben",
          "dependent": 9,
          "dependentGloss": ","
        },
        {
          "dep": "amod",
          "governor": 11,
          "governorGloss": "Waffenstillstand",
          "dependent": 10,
          "dependentGloss": "verweigert"
        },
        {
          "dep": "dep",
          "governor": 1,
          "governorGloss": "Boko",
          "dependent": 11,
          "dependentGloss": "Waffenstillstand"
        }
      ],
      "enhancedDependencies": [
        {
          "dep": "ROOT",
          "governor": 0,
          "governorGloss": "ROOT",
          "dependent": 1,
          "dependentGloss": "Boko"
        },
        {
          "dep": "amod",
          "governor": 3,
          "governorGloss": "behauptet",
          "dependent": 2,
          "dependentGloss": "Haram"
        },
        {
          "dep": "det",
          "governor": 1,
          "governorGloss": "Boko",
          "dependent": 3,
          "dependentGloss": "behauptet"
        },
        {
          "dep": "punct",
          "governor": 3,
          "governorGloss": "behauptet",
          "dependent": 4,
          "dependentGloss": ","
        },
        {
          "dep": "amod",
          "governor": 6,
          "governorGloss": "Geisel",
          "dependent": 5,
          "dependentGloss": "deutsche"
        },
        {
          "dep": "dobj",
          "governor": 8,
          "governorGloss": "haben",
          "dependent": 6,
          "dependentGloss": "Geisel"
        },
        {
          "dep": "aux",
          "governor": 8,
          "governorGloss": "haben",
          "dependent": 7,
          "dependentGloss": "zu"
        },
        {
          "dep": "acl",
          "governor": 3,
          "governorGloss": "behauptet",
          "dependent": 8,
          "dependentGloss": "haben"
        },
        {
          "dep": "punct",
          "governor": 8,
          "governorGloss": "haben",
          "dependent": 9,
          "dependentGloss": ","
        },
        {
          "dep": "amod",
          "governor": 11,
          "governorGloss": "Waffenstillstand",
          "dependent": 10,
          "dependentGloss": "verweigert"
        },
        {
          "dep": "dep",
          "governor": 1,
          "governorGloss": "Boko",
          "dependent": 11,
          "dependentGloss": "Waffenstillstand"
        }
      ],
      "enhancedPlusPlusDependencies": [
        {
          "dep": "ROOT",
          "governor": 0,
          "governorGloss": "ROOT",
          "dependent": 1,
          "dependentGloss": "Boko"
        },
        {
          "dep": "amod",
          "governor": 3,
          "governorGloss": "behauptet",
          "dependent": 2,
          "dependentGloss": "Haram"
        },
        {
          "dep": "det",
          "governor": 1,
          "governorGloss": "Boko",
          "dependent": 3,
          "dependentGloss": "behauptet"
        },
        {
          "dep": "punct",
          "governor": 3,
          "governorGloss": "behauptet",
          "dependent": 4,
          "dependentGloss": ","
        },
        {
          "dep": "amod",
          "governor": 6,
          "governorGloss": "Geisel",
          "dependent": 5,
          "dependentGloss": "deutsche"
        },
        {
          "dep": "dobj",
          "governor": 8,
          "governorGloss": "haben",
          "dependent": 6,
          "dependentGloss": "Geisel"
        },
        {
          "dep": "aux",
          "governor": 8,
          "governorGloss": "haben",
          "dependent": 7,
          "dependentGloss": "zu"
        },
        {
          "dep": "acl",
          "governor": 3,
          "governorGloss": "behauptet",
          "dependent": 8,
          "dependentGloss": "haben"
        },
        {
          "dep": "punct",
          "governor": 8,
          "governorGloss": "haben",
          "dependent": 9,
          "dependentGloss": ","
        },
        {
          "dep": "amod",
          "governor": 11,
          "governorGloss": "Waffenstillstand",
          "dependent": 10,
          "dependentGloss": "verweigert"
        },
        {
          "dep": "dep",
          "governor": 1,
          "governorGloss": "Boko",
          "dependent": 11,
          "dependentGloss": "Waffenstillstand"
        }
      ],
      "tokens": [
        {
          "index": 1,
          "word": "Boko",
          "originalText": "Boko",
          "characterOffsetBegin": 0,
          "characterOffsetEnd": 4,
          "pos": "NE",
          "before": "",
          "after": " "
        },
        {
          "index": 2,
          "word": "Haram",
          "originalText": "Haram",
          "characterOffsetBegin": 5,
          "characterOffsetEnd": 10,
          "pos": "NE",
          "before": " ",
          "after": " "
        },
        {
          "index": 3,
          "word": "behauptet",
          "originalText": "behauptet",
          "characterOffsetBegin": 11,
          "characterOffsetEnd": 20,
          "pos": "VVFIN",
          "before": " ",
          "after": ""
        },
        {
          "index": 4,
          "word": ",",
          "originalText": ",",
          "characterOffsetBegin": 20,
          "characterOffsetEnd": 21,
          "pos": "$,",
          "before": "",
          "after": " "
        },
        {
          "index": 5,
          "word": "deutsche",
          "originalText": "deutsche",
          "characterOffsetBegin": 22,
          "characterOffsetEnd": 30,
          "pos": "ADJA",
          "before": " ",
          "after": " "
        },
        {
          "index": 6,
          "word": "Geisel",
          "originalText": "Geisel",
          "characterOffsetBegin": 31,
          "characterOffsetEnd": 37,
          "pos": "NN",
          "before": " ",
          "after": " "
        },
        {
          "index": 7,
          "word": "zu",
          "originalText": "zu",
          "characterOffsetBegin": 38,
          "characterOffsetEnd": 40,
          "pos": "PTKZU",
          "before": " ",
          "after": " "
        },
        {
          "index": 8,
          "word": "haben",
          "originalText": "haben",
          "characterOffsetBegin": 41,
          "characterOffsetEnd": 46,
          "pos": "VAINF",
          "before": " ",
          "after": ""
        },
        {
          "index": 9,
          "word": ",",
          "originalText": ",",
          "characterOffsetBegin": 46,
          "characterOffsetEnd": 47,
          "pos": "$,",
          "before": "",
          "after": " "
        },
        {
          "index": 10,
          "word": "verweigert",
          "originalText": "verweigert",
          "characterOffsetBegin": 48,
          "characterOffsetEnd": 58,
          "pos": "VVFIN",
          "before": " ",
          "after": " "
        },
        {
          "index": 11,
          "word": "Waffenstillstand",
          "originalText": "Waffenstillstand",
          "characterOffsetBegin": 59,
          "characterOffsetEnd": 75,
          "pos": "NN",
          "before": " ",
          "after": ""
        }
      ]
    }
  ]
}