{
  "sentences": [
    {
      "index": 0,
      "basicDependencies": [
        {
          "dep": "ROOT",
          "governor": 0,
          "governorGloss": "ROOT",
          "dependent": 2,
          "dependentGloss": "Hu"
        },
        {
          "dep": "nsubj",
          "governor": 2,
          "governorGloss": "Hu",
          "dependent": 1,
          "dependentGloss": "Yang"
        },
        {
          "dep": "punct",
          "governor": 2,
          "governorGloss": "Hu",
          "dependent": 3,
          "dependentGloss": ","
        },
        {
          "dep": "conj",
          "governor": 2,
          "governorGloss": "Hu",
          "dependent": 4,
          "dependentGloss": "Arbeiter"
        },
        {
          "dep": "case",
          "governor": 6,
          "governorGloss": "Zhejiang",
          "dependent": 5,
          "dependentGloss": "in"
        },
        {
          "dep": "nmod",
          "governor": 4,
          "governorGloss": "Arbeiter",
          "dependent": 6,
          "dependentGloss": "Zhejiang"
        },
        {
          "dep": "punct",
          "governor": 2,
          "governorGloss": "Hu",
          "dependent": 7,
          "dependentGloss": ","
        },
        {
          "dep": "conj",
          "governor": 2,
          "governorGloss": "Hu",
          "dependent": 8,
          "dependentGloss": "schneidet"
        },
        {
          "dep": "amod",
          "governor": 10,
          "governorGloss": "Penis",
          "dependent": 9,
          "dependentGloss": "eigenen"
        },
        {
          "dep": "dobj",
          "governor": 8,
          "governorGloss": "schneidet",
          "dependent": 10,
          "dependentGloss": "Penis"
        },
        {
          "dep": "case",
          "governor": 12,
          "governorGloss": "Verzweiflung",
          "dependent": 11,
          "dependentGloss": "über"
        },
        {
          "dep": "nmod",
          "governor": 10,
          "governorGloss": "Penis",
          "dependent": 12,
          "dependentGloss": "Verzweiflung"
        },
        {
          "dep": "det",
          "governor": 14,
          "governorGloss": "Suche",
          "dependent": 13,
          "dependentGloss": "der"
        },
        {
          "dep": "det",
          "governor": 12,
          "governorGloss": "Verzweiflung",
          "dependent": 14,
          "dependentGloss": "Suche"
        },
        {
          "dep": "case",
          "governor": 16,
          "governorGloss": "Liebe",
          "dependent": 15,
          "dependentGloss": "nach"
        },
        {
          "dep": "nmod",
          "governor": 10,
          "governorGloss": "Penis",
          "dependent": 16,
          "dependentGloss": "Liebe"
        }
      ],
      "enhancedDependencies": [
        {
          "dep": "ROOT",
          "governor": 0,
          "governorGloss": "ROOT",
          "dependent": 2,
          "dependentGloss": "Hu"
        },
        {
          "dep": "nsubj",
          "governor": 2,
          "governorGloss": "Hu",
          "dependent": 1,
          "dependentGloss": "Yang"
        },
        {
          "dep": "punct",
          "governor": 2,
          "governorGloss": "Hu",
          "dependent": 3,
          "dependentGloss": ","
        },
        {
          "dep": "conj",
          "governor": 2,
          "governorGloss": "Hu",
          "dependent": 4,
          "dependentGloss": "Arbeiter"
        },
        {
          "dep": "case",
          "governor": 6,
          "governorGloss": "Zhejiang",
          "dependent": 5,
          "dependentGloss": "in"
        },
        {
          "dep": "nmod",
          "governor": 4,
          "governorGloss": "Arbeiter",
          "dependent": 6,
          "dependentGloss": "Zhejiang"
        },
        {
          "dep": "punct",
          "governor": 2,
          "governorGloss": "Hu",
          "dependent": 7,
          "dependentGloss": ","
        },
        {
          "dep": "conj",
          "governor": 2,
          "governorGloss": "Hu",
          "dependent": 8,
          "dependentGloss": "schneidet"
        },
        {
          "dep": "amod",
          "governor": 10,
          "governorGloss": "Penis",
          "dependent": 9,
          "dependentGloss": "eigenen"
        },
        {
          "dep": "dobj",
          "governor": 8,
          "governorGloss": "schneidet",
          "dependent": 10,
          "dependentGloss": "Penis"
        },
        {
          "dep": "case",
          "governor": 12,
          "governorGloss": "Verzweiflung",
          "dependent": 11,
          "dependentGloss": "über"
        },
        {
          "dep": "nmod",
          "governor": 10,
          "governorGloss": "Penis",
          "dependent": 12,
          "dependentGloss": "Verzweiflung"
        },
        {
          "dep": "det",
          "governor": 14,
          "governorGloss": "Suche",
          "dependent": 13,
          "dependentGloss": "der"
        },
        {
          "dep": "det",
          "governor": 12,
          "governorGloss": "Verzweiflung",
          "dependent": 14,
          "dependentGloss": "Suche"
        },
        {
          "dep": "case",
          "governor": 16,
          "governorGloss": "Liebe",
          "dependent": 15,
          "dependentGloss": "nach"
        },
        {
          "dep": "nmod",
          "governor": 10,
          "governorGloss": "Penis",
          "dependent": 16,
          "dependentGloss": "Liebe"
        }
      ],
      "enhancedPlusPlusDependencies": [
        {
          "dep": "ROOT",
          "governor": 0,
          "governorGloss": "ROOT",
          "dependent": 2,
          "dependentGloss": "Hu"
        },
        {
          "dep": "nsubj",
          "governor": 2,
          "governorGloss": "Hu",
          "dependent": 1,
          "dependentGloss": "Yang"
        },
        {
          "dep": "punct",
          "governor": 2,
          "governorGloss": "Hu",
          "dependent": 3,
          "dependentGloss": ","
        },
        {
          "dep": "conj",
          "governor": 2,
          "governorGloss": "Hu",
          "dependent": 4,
          "dependentGloss": "Arbeiter"
        },
        {
          "dep": "case",
          "governor": 6,
          "governorGloss": "Zhejiang",
          "dependent": 5,
          "dependentGloss": "in"
        },
        {
          "dep": "nmod",
          "governor": 4,
          "governorGloss": "Arbeiter",
          "dependent": 6,
          "dependentGloss": "Zhejiang"
        },
        {
          "dep": "punct",
          "governor": 2,
          "governorGloss": "Hu",
          "dependent": 7,
          "dependentGloss": ","
        },
        {
          "dep": "conj",
          "governor": 2,
          "governorGloss": "Hu",
          "dependent": 8,
          "dependentGloss": "schneidet"
        },
        {
          "dep": "amod",
          "governor": 10,
          "governorGloss": "Penis",
          "dependent": 9,
          "dependentGloss": "eigenen"
        },
        {
          "dep": "dobj",
          "governor": 8,
          "governorGloss": "schneidet",
          "dependent": 10,
          "dependentGloss": "Penis"
        },
        {
          "dep": "case",
          "governor": 12,
          "governorGloss": "Verzweiflung",
          "dependent": 11,
          "dependentGloss": "über"
        },
        {
          "dep": "nmod",
          "governor": 10,
          "governorGloss": "Penis",
          "dependent": 12,
          "dependentGloss": "Verzweiflung"
        },
        {
          "dep": "det",
          "governor": 14,
          "governorGloss": "Suche",
          "dependent": 13,
          "dependentGloss": "der"
        },
        {
          "dep": "det",
          "governor": 12,
          "governorGloss": "Verzweiflung",
          "dependent": 14,
          "dependentGloss": "Suche"
        },
        {
          "dep": "case",
          "governor": 16,
          "governorGloss": "Liebe",
          "dependent": 15,
          "dependentGloss": "nach"
        },
        {
          "dep": "nmod",
          "governor": 10,
          "governorGloss": "Penis",
          "dependent": 16,
          "dependentGloss": "Liebe"
        }
      ],
      "tokens": [
        {
          "index": 1,
          "word": "Yang",
          "originalText": "Yang",
          "characterOffsetBegin": 0,
          "characterOffsetEnd": 4,
          "pos": "NN",
          "before": "",
          "after": " "
        },
        {
          "index": 2,
          "word": "Hu",
          "originalText": "Hu",
          "characterOffsetBegin": 5,
          "characterOffsetEnd": 7,
          "pos": "NE",
          "before": " ",
          "after": ""
        },
        {
          "index": 3,
          "word": ",",
          "originalText": ",",
          "characterOffsetBegin": 7,
          "characterOffsetEnd": 8,
          "pos": "$,",
          "before": "",
          "after": " "
        },
        {
          "index": 4,
          "word": "Arbeiter",
          "originalText": "Arbeiter",
          "characterOffsetBegin": 9,
          "characterOffsetEnd": 17,
          "pos": "NN",
          "before": " ",
          "after": " "
        },
        {
          "index": 5,
          "word": "in",
          "originalText": "in",
          "characterOffsetBegin": 18,
          "characterOffsetEnd": 20,
          "pos": "APPR",
          "before": " ",
          "after": " "
        },
        {
          "index": 6,
          "word": "Zhejiang",
          "originalText": "Zhejiang",
          "characterOffsetBegin": 21,
          "characterOffsetEnd": 29,
          "pos": "NE",
          "before": " ",
          "after": ""
        },
        {
          "index": 7,
          "word": ",",
          "originalText": ",",
          "characterOffsetBegin": 29,
          "characterOffsetEnd": 30,
          "pos": "$,",
          "before": "",
          "after": " "
        },
        {
          "index": 8,
          "word": "schneidet",
          "originalText": "schneidet",
          "characterOffsetBegin": 31,
          "characterOffsetEnd": 40,
          "pos": "VVFIN",
          "before": " ",
          "after": " "
        },
        {
          "index": 9,
          "word": "eigenen",
          "originalText": "eigenen",
          "characterOffsetBegin": 41,
          "characterOffsetEnd": 48,
          "pos": "ADJA",
          "before": " ",
          "after": " "
        },
        {
          "index": 10,
          "word": "Penis",
          "originalText": "Penis",
          "characterOffsetBegin": 49,
          "characterOffsetEnd": 54,
          "pos": "NN",
          "before": " ",
          "after": " "
        },
        {
          "index": 11,
          "word": "über",
          "originalText": "über",
          "characterOffsetBegin": 55,
          "characterOffsetEnd": 59,
          "pos": "APPR",
          "before": " ",
          "after": " "
        },
        {
          "index": 12,
          "word": "Verzweiflung",
          "originalText": "Verzweiflung",
          "characterOffsetBegin": 60,
          "characterOffsetEnd": 72,
          "pos": "NN",
          "before": " ",
          "after": " "
        },
        {
          "index": 13,
          "word": "der",
          "originalText": "der",
          "characterOffsetBegin": 73,
          "characterOffsetEnd": 76,
          "pos": "ART",
          "before": " ",
          "after": " "
        },
        {
          "index": 14,
          "word": "Suche",
          "originalText": "Suche",
          "characterOffsetBegin": 77,
          "characterOffsetEnd": 82,
          "pos": "NN",
          "before": " ",
          "after": " "
        },
        {
          "index": 15,
          "word": "nach",
          "originalText": "nach",
          "characterOffsetBegin": 83,
          "characterOffsetEnd": 87,
          "pos": "APPR",
          "before": " ",
          "after": " "
        },
        {
          "index": 16,
          "word": "Liebe",
          "originalText": "Liebe",
          "characterOffsetBegin": 88,
          "characterOffsetEnd": 93,
          "pos": "NN",
          "before": " ",
          "after": ""
        }
      ]
    }
  ]
}