{
  "sentences": [
    {
      "index": 0,
      "basicDependencies": [
        {
          "dep": "ROOT",
          "governor": 0,
          "governorGloss": "ROOT",
          "dependent": 7,
          "dependentGloss": "gezwungen"
        },
        {
          "dep": "name",
          "governor": 4,
          "governorGloss": "Star",
          "dependent": 1,
          "dependentGloss": "80er"
        },
        {
          "dep": "name",
          "governor": 4,
          "governorGloss": "Star",
          "dependent": 2,
          "dependentGloss": "Brat"
        },
        {
          "dep": "name",
          "governor": 4,
          "governorGloss": "Star",
          "dependent": 3,
          "dependentGloss": "Pack"
        },
        {
          "dep": "nsubj",
          "governor": 7,
          "governorGloss": "gezwungen",
          "dependent": 4,
          "dependentGloss": "Star"
        },
        {
          "dep": "nmod",
          "governor": 7,
          "governorGloss": "gezwungen",
          "dependent": 5,
          "dependentGloss": "Judd"
        },
        {
          "dep": "dobj",
          "governor": 7,
          "governorGloss": "gezwungen",
          "dependent": 6,
          "dependentGloss": "Nelson"
        },
        {
          "dep": "punct",
          "governor": 7,
          "governorGloss": "gezwungen",
          "dependent": 8,
          "dependentGloss": ","
        },
        {
          "dep": "aux",
          "governor": 10,
          "governorGloss": "leugnen",
          "dependent": 9,
          "dependentGloss": "zu"
        },
        {
          "dep": "conj",
          "governor": 7,
          "governorGloss": "gezwungen",
          "dependent": 10,
          "dependentGloss": "leugnen"
        },
        {
          "dep": "punct",
          "governor": 10,
          "governorGloss": "leugnen",
          "dependent": 11,
          "dependentGloss": ","
        },
        {
          "dep": "mark",
          "governor": 14,
          "governorGloss": "tot",
          "dependent": 12,
          "dependentGloss": "dass"
        },
        {
          "dep": "nsubj",
          "governor": 14,
          "governorGloss": "tot",
          "dependent": 13,
          "dependentGloss": "er"
        },
        {
          "dep": "ccomp",
          "governor": 10,
          "governorGloss": "leugnen",
          "dependent": 14,
          "dependentGloss": "tot"
        },
        {
          "dep": "cop",
          "governor": 14,
          "governorGloss": "tot",
          "dependent": 15,
          "dependentGloss": "ist"
        },
        {
          "dep": "punct",
          "governor": 10,
          "governorGloss": "leugnen",
          "dependent": 16,
          "dependentGloss": ","
        },
        {
          "dep": "mark",
          "governor": 23,
          "governorGloss": "gestartet",
          "dependent": 17,
          "dependentGloss": "nachdem"
        },
        {
          "dep": "amod",
          "governor": 19,
          "governorGloss": "News-Story",
          "dependent": 18,
          "dependentGloss": "gefälschte"
        },
        {
          "dep": "nsubjpass",
          "governor": 23,
          "governorGloss": "gestartet",
          "dependent": 19,
          "dependentGloss": "News-Story"
        },
        {
          "dep": "case",
          "governor": 22,
          "governorGloss": "Media",
          "dependent": 20,
          "dependentGloss": "auf"
        },
        {
          "dep": "amod",
          "governor": 22,
          "governorGloss": "Media",
          "dependent": 21,
          "dependentGloss": "Social"
        },
        {
          "dep": "nmod",
          "governor": 23,
          "governorGloss": "gestartet",
          "dependent": 22,
          "dependentGloss": "Media"
        },
        {
          "dep": "advcl",
          "governor": 10,
          "governorGloss": "leugnen",
          "dependent": 23,
          "dependentGloss": "gestartet"
        },
        {
          "dep": "auxpass",
          "governor": 23,
          "governorGloss": "gestartet",
          "dependent": 24,
          "dependentGloss": "ist"
        }
      ],
      "enhancedDependencies": [
        {
          "dep": "ROOT",
          "governor": 0,
          "governorGloss": "ROOT",
          "dependent": 7,
          "dependentGloss": "gezwungen"
        },
        {
          "dep": "name",
          "governor": 4,
          "governorGloss": "Star",
          "dependent": 1,
          "dependentGloss": "80er"
        },
        {
          "dep": "name",
          "governor": 4,
          "governorGloss": "Star",
          "dependent": 2,
          "dependentGloss": "Brat"
        },
        {
          "dep": "name",
          "governor": 4,
          "governorGloss": "Star",
          "dependent": 3,
          "dependentGloss": "Pack"
        },
        {
          "dep": "nsubj",
          "governor": 7,
          "governorGloss": "gezwungen",
          "dependent": 4,
          "dependentGloss": "Star"
        },
        {
          "dep": "nmod",
          "governor": 7,
          "governorGloss": "gezwungen",
          "dependent": 5,
          "dependentGloss": "Judd"
        },
        {
          "dep": "dobj",
          "governor": 7,
          "governorGloss": "gezwungen",
          "dependent": 6,
          "dependentGloss": "Nelson"
        },
        {
          "dep": "punct",
          "governor": 7,
          "governorGloss": "gezwungen",
          "dependent": 8,
          "dependentGloss": ","
        },
        {
          "dep": "aux",
          "governor": 10,
          "governorGloss": "leugnen",
          "dependent": 9,
          "dependentGloss": "zu"
        },
        {
          "dep": "conj",
          "governor": 7,
          "governorGloss": "gezwungen",
          "dependent": 10,
          "dependentGloss": "leugnen"
        },
        {
          "dep": "punct",
          "governor": 10,
          "governorGloss": "leugnen",
          "dependent": 11,
          "dependentGloss": ","
        },
        {
          "dep": "mark",
          "governor": 14,
          "governorGloss": "tot",
          "dependent": 12,
          "dependentGloss": "dass"
        },
        {
          "dep": "nsubj",
          "governor": 14,
          "governorGloss": "tot",
          "dependent": 13,
          "dependentGloss": "er"
        },
        {
          "dep": "ccomp",
          "governor": 10,
          "governorGloss": "leugnen",
          "dependent": 14,
          "dependentGloss": "tot"
        },
        {
          "dep": "cop",
          "governor": 14,
          "governorGloss": "tot",
          "dependent": 15,
          "dependentGloss": "ist"
        },
        {
          "dep": "punct",
          "governor": 10,
          "governorGloss": "leugnen",
          "dependent": 16,
          "dependentGloss": ","
        },
        {
          "dep": "mark",
          "governor": 23,
          "governorGloss": "gestartet",
          "dependent": 17,
          "dependentGloss": "nachdem"
        },
        {
          "dep": "amod",
          "governor": 19,
          "governorGloss": "News-Story",
          "dependent": 18,
          "dependentGloss": "gefälschte"
        },
        {
          "dep": "nsubjpass",
          "governor": 23,
          "governorGloss": "gestartet",
          "dependent": 19,
          "dependentGloss": "News-Story"
        },
        {
          "dep": "case",
          "governor": 22,
          "governorGloss": "Media",
          "dependent": 20,
          "dependentGloss": "auf"
        },
        {
          "dep": "amod",
          "governor": 22,
          "governorGloss": "Media",
          "dependent": 21,
          "dependentGloss": "Social"
        },
        {
          "dep": "nmod",
          "governor": 23,
          "governorGloss": "gestartet",
          "dependent": 22,
          "dependentGloss": "Media"
        },
        {
          "dep": "advcl",
          "governor": 10,
          "governorGloss": "leugnen",
          "dependent": 23,
          "dependentGloss": "gestartet"
        },
        {
          "dep": "auxpass",
          "governor": 23,
          "governorGloss": "gestartet",
          "dependent": 24,
          "dependentGloss": "ist"
        }
      ],
      "enhancedPlusPlusDependencies": [
        {
          "dep": "ROOT",
          "governor": 0,
          "governorGloss": "ROOT",
          "dependent": 7,
          "dependentGloss": "gezwungen"
        },
        {
          "dep": "name",
          "governor": 4,
          "governorGloss": "Star",
          "dependent": 1,
          "dependentGloss": "80er"
        },
        {
          "dep": "name",
          "governor": 4,
          "governorGloss": "Star",
          "dependent": 2,
          "dependentGloss": "Brat"
        },
        {
          "dep": "name",
          "governor": 4,
          "governorGloss": "Star",
          "dependent": 3,
          "dependentGloss": "Pack"
        },
        {
          "dep": "nsubj",
          "governor": 7,
          "governorGloss": "gezwungen",
          "dependent": 4,
          "dependentGloss": "Star"
        },
        {
          "dep": "nmod",
          "governor": 7,
          "governorGloss": "gezwungen",
          "dependent": 5,
          "dependentGloss": "Judd"
        },
        {
          "dep": "dobj",
          "governor": 7,
          "governorGloss": "gezwungen",
          "dependent": 6,
          "dependentGloss": "Nelson"
        },
        {
          "dep": "punct",
          "governor": 7,
          "governorGloss": "gezwungen",
          "dependent": 8,
          "dependentGloss": ","
        },
        {
          "dep": "aux",
          "governor": 10,
          "governorGloss": "leugnen",
          "dependent": 9,
          "dependentGloss": "zu"
        },
        {
          "dep": "conj",
          "governor": 7,
          "governorGloss": "gezwungen",
          "dependent": 10,
          "dependentGloss": "leugnen"
        },
        {
          "dep": "punct",
          "governor": 10,
          "governorGloss": "leugnen",
          "dependent": 11,
          "dependentGloss": ","
        },
        {
          "dep": "mark",
          "governor": 14,
          "governorGloss": "tot",
          "dependent": 12,
          "dependentGloss": "dass"
        },
        {
          "dep": "nsubj",
          "governor": 14,
          "governorGloss": "tot",
          "dependent": 13,
          "dependentGloss": "er"
        },
        {
          "dep": "ccomp",
          "governor": 10,
          "governorGloss": "leugnen",
          "dependent": 14,
          "dependentGloss": "tot"
        },
        {
          "dep": "cop",
          "governor": 14,
          "governorGloss": "tot",
          "dependent": 15,
          "dependentGloss": "ist"
        },
        {
          "dep": "punct",
          "governor": 10,
          "governorGloss": "leugnen",
          "dependent": 16,
          "dependentGloss": ","
        },
        {
          "dep": "mark",
          "governor": 23,
          "governorGloss": "gestartet",
          "dependent": 17,
          "dependentGloss": "nachdem"
        },
        {
          "dep": "amod",
          "governor": 19,
          "governorGloss": "News-Story",
          "dependent": 18,
          "dependentGloss": "gefälschte"
        },
        {
          "dep": "nsubjpass",
          "governor": 23,
          "governorGloss": "gestartet",
          "dependent": 19,
          "dependentGloss": "News-Story"
        },
        {
          "dep": "case",
          "governor": 22,
          "governorGloss": "Media",
          "dependent": 20,
          "dependentGloss": "auf"
        },
        {
          "dep": "amod",
          "governor": 22,
          "governorGloss": "Media",
          "dependent": 21,
          "dependentGloss": "Social"
        },
        {
          "dep": "nmod",
          "governor": 23,
          "governorGloss": "gestartet",
          "dependent": 22,
          "dependentGloss": "Media"
        },
        {
          "dep": "advcl",
          "governor": 10,
          "governorGloss": "leugnen",
          "dependent": 23,
          "dependentGloss": "gestartet"
        },
        {
          "dep": "auxpass",
          "governor": 23,
          "governorGloss": "gestartet",
          "dependent": 24,
          "dependentGloss": "ist"
        }
      ],
      "tokens": [
        {
          "index": 1,
          "word": "80er",
          "originalText": "80er",
          "characterOffsetBegin": 0,
          "characterOffsetEnd": 4,
          "pos": "ADJA",
          "before": "",
          "after": " "
        },
        {
          "index": 2,
          "word": "Brat",
          "originalText": "Brat",
          "characterOffsetBegin": 5,
          "characterOffsetEnd": 9,
          "pos": "NE",
          "before": " ",
          "after": " "
        },
        {
          "index": 3,
          "word": "Pack",
          "originalText": "Pack",
          "characterOffsetBegin": 10,
          "characterOffsetEnd": 14,
          "pos": "FM",
          "before": " ",
          "after": " "
        },
        {
          "index": 4,
          "word": "Star",
          "originalText": "Star",
          "characterOffsetBegin": 15,
          "characterOffsetEnd": 19,
          "pos": "FM",
          "before": " ",
          "after": " "
        },
        {
          "index": 5,
          "word": "Judd",
          "originalText": "Judd",
          "characterOffsetBegin": 20,
          "characterOffsetEnd": 24,
          "pos": "FM",
          "before": " ",
          "after": " "
        },
        {
          "index": 6,
          "word": "Nelson",
          "originalText": "Nelson",
          "characterOffsetBegin": 25,
          "characterOffsetEnd": 31,
          "pos": "FM",
          "before": " ",
          "after": " "
        },
        {
          "index": 7,
          "word": "gezwungen",
          "originalText": "gezwungen",
          "characterOffsetBegin": 32,
          "characterOffsetEnd": 41,
          "pos": "VVPP",
          "before": " ",
          "after": ""
        },
        {
          "index": 8,
          "word": ",",
          "originalText": ",",
          "characterOffsetBegin": 41,
          "characterOffsetEnd": 42,
          "pos": "$,",
          "before": "",
          "after": " "
        },
        {
          "index": 9,
          "word": "zu",
          "originalText": "zu",
          "characterOffsetBegin": 43,
          "characterOffsetEnd": 45,
          "pos": "PTKZU",
          "before": " ",
          "after": " "
        },
        {
          "index": 10,
          "word": "leugnen",
          "originalText": "leugnen",
          "characterOffsetBegin": 46,
          "characterOffsetEnd": 53,
          "pos": "VVINF",
          "before": " ",
          "after": ""
        },
        {
          "index": 11,
          "word": ",",
          "originalText": ",",
          "characterOffsetBegin": 53,
          "characterOffsetEnd": 54,
          "pos": "$,",
          "before": "",
          "after": " "
        },
        {
          "index": 12,
          "word": "dass",
          "originalText": "dass",
          "characterOffsetBegin": 55,
          "characterOffsetEnd": 59,
          "pos": "KOUS",
          "before": " ",
          "after": " "
        },
        {
          "index": 13,
          "word": "er",
          "originalText": "er",
          "characterOffsetBegin": 60,
          "characterOffsetEnd": 62,
          "pos": "PPER",
          "before": " ",
          "after": " "
        },
        {
          "index": 14,
          "word": "tot",
          "originalText": "tot",
          "characterOffsetBegin": 63,
          "characterOffsetEnd": 66,
          "pos": "ADJD",
          "before": " ",
          "after": " "
        },
        {
          "index": 15,
          "word": "ist",
          "originalText": "ist",
          "characterOffsetBegin": 67,
          "characterOffsetEnd": 70,
          "pos": "VAFIN",
          "before": " ",
          "after": ""
        },
        {
          "index": 16,
          "word": ",",
          "originalText": ",",
          "characterOffsetBegin": 70,
          "characterOffsetEnd": 71,
          "pos": "$,",
          "before": "",
          "after": " "
        },
        {
          "index": 17,
          "word": "nachdem",
          "originalText": "nachdem",
          "characterOffsetBegin": 72,
          "characterOffsetEnd": 79,
          "pos": "KOUS",
          "before": " ",
          "after": " "
        },
        {
          "index": 18,
          "word": "gefälschte",
          "originalText": "gefälschte",
          "characterOffsetBegin": 80,
          "characterOffsetEnd": 90,
          "pos": "ADJA",
          "before": " ",
          "after": " "
        },
        {
          "index": 19,
          "word": "News-Story",
          "originalText": "News-Story",
          "characterOffsetBegin": 91,
          "characterOffsetEnd": 101,
          "pos": "NN",
          "before": " ",
          "after": " "
        },
        {
          "index": 20,
          "word": "auf",
          "originalText": "auf",
          "characterOffsetBegin": 102,
          "characterOffsetEnd": 105,
          "pos": "APPR",
          "before": " ",
          "after": " "
        },
        {
          "index": 21,
          "word": "Social",
          "originalText": "Social",
          "characterOffsetBegin": 106,
          "characterOffsetEnd": 112,
          "pos": "NE",
          "before": " ",
          "after": " "
        },
        {
          "index": 22,
          "word": "Media",
          "originalText": "Media",
          "characterOffsetBegin": 113,
          "characterOffsetEnd": 118,
          "pos": "NE",
          "before": " ",
          "after": " "
        },
        {
          "index": 23,
          "word": "gestartet",
          "originalText": "gestartet",
          "characterOffsetBegin": 119,
          "characterOffsetEnd": 128,
          "pos": "VVPP",
          "before": " ",
          "after": " "
        },
        {
          "index": 24,
          "word": "ist",
          "originalText": "ist",
          "characterOffsetBegin": 129,
          "characterOffsetEnd": 132,
          "pos": "VAFIN",
          "before": " ",
          "after": ""
        }
      ]
    }
  ]
}