{
  "sentences": [
    {
      "index": 0,
      "basicDependencies": [
        {
          "dep": "ROOT",
          "governor": 0,
          "governorGloss": "ROOT",
          "dependent": 10,
          "dependentGloss": "entdeckt"
        },
        {
          "dep": "nsubj",
          "governor": 10,
          "governorGloss": "entdeckt",
          "dependent": 1,
          "dependentGloss": "Zeitkapsel"
        },
        {
          "dep": "case",
          "governor": 4,
          "governorGloss": "Revere",
          "dependent": 2,
          "dependentGloss": "von"
        },
        {
          "dep": "name",
          "governor": 4,
          "governorGloss": "Revere",
          "dependent": 3,
          "dependentGloss": "Paul"
        },
        {
          "dep": "nmod",
          "governor": 1,
          "governorGloss": "Zeitkapsel",
          "dependent": 4,
          "dependentGloss": "Revere"
        },
        {
          "dep": "cc",
          "governor": 4,
          "governorGloss": "Revere",
          "dependent": 5,
          "dependentGloss": "und"
        },
        {
          "dep": "name",
          "governor": 7,
          "governorGloss": "Adams",
          "dependent": 6,
          "dependentGloss": "Samuel"
        },
        {
          "dep": "conj",
          "governor": 4,
          "governorGloss": "Revere",
          "dependent": 7,
          "dependentGloss": "Adams"
        },
        {
          "dep": "case",
          "governor": 9,
          "governorGloss": "Boston",
          "dependent": 8,
          "dependentGloss": "in"
        },
        {
          "dep": "nmod",
          "governor": 1,
          "governorGloss": "Zeitkapsel",
          "dependent": 9,
          "dependentGloss": "Boston"
        }
      ],
      "enhancedDependencies": [
        {
          "dep": "ROOT",
          "governor": 0,
          "governorGloss": "ROOT",
          "dependent": 10,
          "dependentGloss": "entdeckt"
        },
        {
          "dep": "nsubj",
          "governor": 10,
          "governorGloss": "entdeckt",
          "dependent": 1,
          "dependentGloss": "Zeitkapsel"
        },
        {
          "dep": "case",
          "governor": 4,
          "governorGloss": "Revere",
          "dependent": 2,
          "dependentGloss": "von"
        },
        {
          "dep": "name",
          "governor": 4,
          "governorGloss": "Revere",
          "dependent": 3,
          "dependentGloss": "Paul"
        },
        {
          "dep": "nmod",
          "governor": 1,
          "governorGloss": "Zeitkapsel",
          "dependent": 4,
          "dependentGloss": "Revere"
        },
        {
          "dep": "cc",
          "governor": 4,
          "governorGloss": "Revere",
          "dependent": 5,
          "dependentGloss": "und"
        },
        {
          "dep": "name",
          "governor": 7,
          "governorGloss": "Adams",
          "dependent": 6,
          "dependentGloss": "Samuel"
        },
        {
          "dep": "nmod",
          "governor": 1,
          "governorGloss": "Zeitkapsel",
          "dependent": 7,
          "dependentGloss": "Adams"
        },
        {
          "dep": "conj:und",
          "governor": 4,
          "governorGloss": "Revere",
          "dependent": 7,
          "dependentGloss": "Adams"
        },
        {
          "dep": "case",
          "governor": 9,
          "governorGloss": "Boston",
          "dependent": 8,
          "dependentGloss": "in"
        },
        {
          "dep": "nmod",
          "governor": 1,
          "governorGloss": "Zeitkapsel",
          "dependent": 9,
          "dependentGloss": "Boston"
        }
      ],
      "enhancedPlusPlusDependencies": [
        {
          "dep": "ROOT",
          "governor": 0,
          "governorGloss": "ROOT",
          "dependent": 10,
          "dependentGloss": "entdeckt"
        },
        {
          "dep": "nsubj",
          "governor": 10,
          "governorGloss": "entdeckt",
          "dependent": 1,
          "dependentGloss": "Zeitkapsel"
        },
        {
          "dep": "case",
          "governor": 4,
          "governorGloss": "Revere",
          "dependent": 2,
          "dependentGloss": "von"
        },
        {
          "dep": "name",
          "governor": 4,
          "governorGloss": "Revere",
          "dependent": 3,
          "dependentGloss": "Paul"
        },
        {
          "dep": "nmod",
          "governor": 1,
          "governorGloss": "Zeitkapsel",
          "dependent": 4,
          "dependentGloss": "Revere"
        },
        {
          "dep": "cc",
          "governor": 4,
          "governorGloss": "Revere",
          "dependent": 5,
          "dependentGloss": "und"
        },
        {
          "dep": "name",
          "governor": 7,
          "governorGloss": "Adams",
          "dependent": 6,
          "dependentGloss": "Samuel"
        },
        {
          "dep": "nmod",
          "governor": 1,
          "governorGloss": "Zeitkapsel",
          "dependent": 7,
          "dependentGloss": "Adams"
        },
        {
          "dep": "conj:und",
          "governor": 4,
          "governorGloss": "Revere",
          "dependent": 7,
          "dependentGloss": "Adams"
        },
        {
          "dep": "case",
          "governor": 9,
          "governorGloss": "Boston",
          "dependent": 8,
          "dependentGloss": "in"
        },
        {
          "dep": "nmod",
          "governor": 1,
          "governorGloss": "Zeitkapsel",
          "dependent": 9,
          "dependentGloss": "Boston"
        }
      ],
      "tokens": [
        {
          "index": 1,
          "word": "Zeitkapsel",
          "originalText": "Zeitkapsel",
          "characterOffsetBegin": 0,
          "characterOffsetEnd": 10,
          "pos": "NN",
          "before": "",
          "after": " "
        },
        {
          "index": 2,
          "word": "von",
          "originalText": "von",
          "characterOffsetBegin": 11,
          "characterOffsetEnd": 14,
          "pos": "APPR",
          "before": " ",
          "after": " "
        },
        {
          "index": 3,
          "word": "Paul",
          "originalText": "Paul",
          "characterOffsetBegin": 15,
          "characterOffsetEnd": 19,
          "pos": "NE",
          "before": " ",
          "after": " "
        },
        {
          "index": 4,
          "word": "Revere",
          "originalText": "Revere",
          "characterOffsetBegin": 20,
          "characterOffsetEnd": 26,
          "pos": "NE",
          "before": " ",
          "after": " "
        },
        {
          "index": 5,
          "word": "und",
          "originalText": "und",
          "characterOffsetBegin": 27,
          "characterOffsetEnd": 30,
          "pos": "KON",
          "before": " ",
          "after": " "
        },
        {
          "index": 6,
          "word": "Samuel",
          "originalText": "Samuel",
          "characterOffsetBegin": 31,
          "characterOffsetEnd": 37,
          "pos": "NE",
          "before": " ",
          "after": " "
        },
        {
          "index": 7,
          "word": "Adams",
          "originalText": "Adams",
          "characterOffsetBegin": 38,
          "characterOffsetEnd": 43,
          "pos": "NE",
          "before": " ",
          "after": " "
        },
        {
          "index": 8,
          "word": "in",
          "originalText": "in",
          "characterOffsetBegin": 44,
          "characterOffsetEnd": 46,
          "pos": "APPR",
          "before": " ",
          "after": " "
        },
        {
          "index": 9,
          "word": "Boston",
          "originalText": "Boston",
          "characterOffsetBegin": 47,
          "characterOffsetEnd": 53,
          "pos": "NE",
          "before": " ",
          "after": " "
        },
        {
          "index": 10,
          "word": "entdeckt",
          "originalText": "entdeckt",
          "characterOffsetBegin": 54,
          "characterOffsetEnd": 62,
          "pos": "VVPP",
          "before": " ",
          "after": ""
        }
      ]
    }
  ]
}