{
  "sentences": [
    {
      "index": 0,
      "basicDependencies": [
        {
          "dep": "ROOT",
          "governor": 0,
          "governorGloss": "ROOT",
          "dependent": 2,
          "dependentGloss": "schoss"
        },
        {
          "dep": "nsubj",
          "governor": 2,
          "governorGloss": "schoss",
          "dependent": 1,
          "dependentGloss": "Soldat"
        },
        {
          "dep": "case",
          "governor": 4,
          "governorGloss": "Kriegsdenkmal",
          "dependent": 3,
          "dependentGloss": "auf"
        },
        {
          "dep": "nmod",
          "governor": 2,
          "governorGloss": "schoss",
          "dependent": 4,
          "dependentGloss": "Kriegsdenkmal"
        },
        {
          "dep": "punct",
          "governor": 2,
          "governorGloss": "schoss",
          "dependent": 5,
          "dependentGloss": ";"
        },
        {
          "dep": "det",
          "governor": 9,
          "governorGloss": "Parlament",
          "dependent": 6,
          "dependentGloss": "Mehrere"
        },
        {
          "dep": "amod",
          "governor": 9,
          "governorGloss": "Parlament",
          "dependent": 7,
          "dependentGloss": "Schüsse"
        },
        {
          "dep": "amod",
          "governor": 9,
          "governorGloss": "Parlament",
          "dependent": 8,
          "dependentGloss": "im"
        },
        {
          "dep": "dobj",
          "governor": 10,
          "governorGloss": "gefeuert",
          "dependent": 9,
          "dependentGloss": "Parlament"
        },
        {
          "dep": "xcomp",
          "governor": 2,
          "governorGloss": "schoss",
          "dependent": 10,
          "dependentGloss": "gefeuert"
        }
      ],
      "enhancedDependencies": [
        {
          "dep": "ROOT",
          "governor": 0,
          "governorGloss": "ROOT",
          "dependent": 2,
          "dependentGloss": "schoss"
        },
        {
          "dep": "nsubj",
          "governor": 2,
          "governorGloss": "schoss",
          "dependent": 1,
          "dependentGloss": "Soldat"
        },
        {
          "dep": "case",
          "governor": 4,
          "governorGloss": "Kriegsdenkmal",
          "dependent": 3,
          "dependentGloss": "auf"
        },
        {
          "dep": "nmod",
          "governor": 2,
          "governorGloss": "schoss",
          "dependent": 4,
          "dependentGloss": "Kriegsdenkmal"
        },
        {
          "dep": "punct",
          "governor": 2,
          "governorGloss": "schoss",
          "dependent": 5,
          "dependentGloss": ";"
        },
        {
          "dep": "det",
          "governor": 9,
          "governorGloss": "Parlament",
          "dependent": 6,
          "dependentGloss": "Mehrere"
        },
        {
          "dep": "amod",
          "governor": 9,
          "governorGloss": "Parlament",
          "dependent": 7,
          "dependentGloss": "Schüsse"
        },
        {
          "dep": "amod",
          "governor": 9,
          "governorGloss": "Parlament",
          "dependent": 8,
          "dependentGloss": "im"
        },
        {
          "dep": "dobj",
          "governor": 10,
          "governorGloss": "gefeuert",
          "dependent": 9,
          "dependentGloss": "Parlament"
        },
        {
          "dep": "xcomp",
          "governor": 2,
          "governorGloss": "schoss",
          "dependent": 10,
          "dependentGloss": "gefeuert"
        }
      ],
      "enhancedPlusPlusDependencies": [
        {
          "dep": "ROOT",
          "governor": 0,
          "governorGloss": "ROOT",
          "dependent": 2,
          "dependentGloss": "schoss"
        },
        {
          "dep": "nsubj",
          "governor": 2,
          "governorGloss": "schoss",
          "dependent": 1,
          "dependentGloss": "Soldat"
        },
        {
          "dep": "case",
          "governor": 4,
          "governorGloss": "Kriegsdenkmal",
          "dependent": 3,
          "dependentGloss": "auf"
        },
        {
          "dep": "nmod",
          "governor": 2,
          "governorGloss": "schoss",
          "dependent": 4,
          "dependentGloss": "Kriegsdenkmal"
        },
        {
          "dep": "punct",
          "governor": 2,
          "governorGloss": "schoss",
          "dependent": 5,
          "dependentGloss": ";"
        },
        {
          "dep": "det",
          "governor": 9,
          "governorGloss": "Parlament",
          "dependent": 6,
          "dependentGloss": "Mehrere"
        },
        {
          "dep": "amod",
          "governor": 9,
          "governorGloss": "Parlament",
          "dependent": 7,
          "dependentGloss": "Schüsse"
        },
        {
          "dep": "amod",
          "governor": 9,
          "governorGloss": "Parlament",
          "dependent": 8,
          "dependentGloss": "im"
        },
        {
          "dep": "dobj",
          "governor": 10,
          "governorGloss": "gefeuert",
          "dependent": 9,
          "dependentGloss": "Parlament"
        },
        {
          "dep": "xcomp",
          "governor": 2,
          "governorGloss": "schoss",
          "dependent": 10,
          "dependentGloss": "gefeuert"
        }
      ],
      "tokens": [
        {
          "index": 1,
          "word": "Soldat",
          "originalText": "Soldat",
          "characterOffsetBegin": 0,
          "characterOffsetEnd": 6,
          "pos": "NN",
          "before": "",
          "after": " "
        },
        {
          "index": 2,
          "word": "schoss",
          "originalText": "schoss",
          "characterOffsetBegin": 7,
          "characterOffsetEnd": 13,
          "pos": "ADV",
          "before": " ",
          "after": " "
        },
        {
          "index": 3,
          "word": "auf",
          "originalText": "auf",
          "characterOffsetBegin": 14,
          "characterOffsetEnd": 17,
          "pos": "APPR",
          "before": " ",
          "after": " "
        },
        {
          "index": 4,
          "word": "Kriegsdenkmal",
          "originalText": "Kriegsdenkmal",
          "characterOffsetBegin": 18,
          "characterOffsetEnd": 31,
          "pos": "NN",
          "before": " ",
          "after": ""
        },
        {
          "index": 5,
          "word": ";",
          "originalText": ";",
          "characterOffsetBegin": 31,
          "characterOffsetEnd": 32,
          "pos": "$.",
          "before": "",
          "after": " "
        },
        {
          "index": 6,
          "word": "Mehrere",
          "originalText": "Mehrere",
          "characterOffsetBegin": 33,
          "characterOffsetEnd": 40,
          "pos": "PIAT",
          "before": " ",
          "after": " "
        },
        {
          "index": 7,
          "word": "Schüsse",
          "originalText": "Schüsse",
          "characterOffsetBegin": 41,
          "characterOffsetEnd": 48,
          "pos": "NN",
          "before": " ",
          "after": " "
        },
        {
          "index": 8,
          "word": "im",
          "originalText": "im",
          "characterOffsetBegin": 49,
          "characterOffsetEnd": 51,
          "pos": "APPRART",
          "before": " ",
          "after": " "
        },
        {
          "index": 9,
          "word": "Parlament",
          "originalText": "Parlament",
          "characterOffsetBegin": 52,
          "characterOffsetEnd": 61,
          "pos": "NN",
          "before": " ",
          "after": " "
        },
        {
          "index": 10,
          "word": "gefeuert",
          "originalText": "gefeuert",
          "characterOffsetBegin": 62,
          "characterOffsetEnd": 70,
          "pos": "VVPP",
          "before": " ",
          "after": ""
        }
      ]
    }
  ]
}