{
  "sentences": [
    {
      "index": 0,
      "basicDependencies": [
        {
          "dep": "ROOT",
          "governor": 0,
          "governorGloss": "ROOT",
          "dependent": 2,
          "dependentGloss": "gesetzt"
        },
        {
          "dep": "advmod",
          "governor": 2,
          "governorGloss": "gesetzt",
          "dependent": 1,
          "dependentGloss": "Batman"
        },
        {
          "dep": "punct",
          "governor": 2,
          "governorGloss": "gesetzt",
          "dependent": 3,
          "dependentGloss": ","
        },
        {
          "dep": "mark",
          "governor": 11,
          "governorGloss": "spielen",
          "dependent": 4,
          "dependentGloss": "um"
        },
        {
          "dep": "name",
          "governor": 6,
          "governorGloss": "Jobs",
          "dependent": 5,
          "dependentGloss": "Steve"
        },
        {
          "dep": "dobj",
          "governor": 11,
          "governorGloss": "spielen",
          "dependent": 6,
          "dependentGloss": "Jobs"
        },
        {
          "dep": "case",
          "governor": 9,
          "governorGloss": "Biopic",
          "dependent": 7,
          "dependentGloss": "in"
        },
        {
          "dep": "amod",
          "governor": 9,
          "governorGloss": "Biopic",
          "dependent": 8,
          "dependentGloss": "kommenden"
        },
        {
          "dep": "nmod",
          "governor": 11,
          "governorGloss": "spielen",
          "dependent": 9,
          "dependentGloss": "Biopic"
        },
        {
          "dep": "aux",
          "governor": 11,
          "governorGloss": "spielen",
          "dependent": 10,
          "dependentGloss": "zu"
        },
        {
          "dep": "advcl",
          "governor": 2,
          "governorGloss": "gesetzt",
          "dependent": 11,
          "dependentGloss": "spielen"
        }
      ],
      "enhancedDependencies": [
        {
          "dep": "ROOT",
          "governor": 0,
          "governorGloss": "ROOT",
          "dependent": 2,
          "dependentGloss": "gesetzt"
        },
        {
          "dep": "advmod",
          "governor": 2,
          "governorGloss": "gesetzt",
          "dependent": 1,
          "dependentGloss": "Batman"
        },
        {
          "dep": "punct",
          "governor": 2,
          "governorGloss": "gesetzt",
          "dependent": 3,
          "dependentGloss": ","
        },
        {
          "dep": "mark",
          "governor": 11,
          "governorGloss": "spielen",
          "dependent": 4,
          "dependentGloss": "um"
        },
        {
          "dep": "name",
          "governor": 6,
          "governorGloss": "Jobs",
          "dependent": 5,
          "dependentGloss": "Steve"
        },
        {
          "dep": "dobj",
          "governor": 11,
          "governorGloss": "spielen",
          "dependent": 6,
          "dependentGloss": "Jobs"
        },
        {
          "dep": "case",
          "governor": 9,
          "governorGloss": "Biopic",
          "dependent": 7,
          "dependentGloss": "in"
        },
        {
          "dep": "amod",
          "governor": 9,
          "governorGloss": "Biopic",
          "dependent": 8,
          "dependentGloss": "kommenden"
        },
        {
          "dep": "nmod",
          "governor": 11,
          "governorGloss": "spielen",
          "dependent": 9,
          "dependentGloss": "Biopic"
        },
        {
          "dep": "aux",
          "governor": 11,
          "governorGloss": "spielen",
          "dependent": 10,
          "dependentGloss": "zu"
        },
        {
          "dep": "advcl",
          "governor": 2,
          "governorGloss": "gesetzt",
          "dependent": 11,
          "dependentGloss": "spielen"
        }
      ],
      "enhancedPlusPlusDependencies": [
        {
          "dep": "ROOT",
          "governor": 0,
          "governorGloss": "ROOT",
          "dependent": 2,
          "dependentGloss": "gesetzt"
        },
        {
          "dep": "advmod",
          "governor": 2,
          "governorGloss": "gesetzt",
          "dependent": 1,
          "dependentGloss": "Batman"
        },
        {
          "dep": "punct",
          "governor": 2,
          "governorGloss": "gesetzt",
          "dependent": 3,
          "dependentGloss": ","
        },
        {
          "dep": "mark",
          "governor": 11,
          "governorGloss": "spielen",
          "dependent": 4,
          "dependentGloss": "um"
        },
        {
          "dep": "name",
          "governor": 6,
          "governorGloss": "Jobs",
          "dependent": 5,
          "dependentGloss": "Steve"
        },
        {
          "dep": "dobj",
          "governor": 11,
          "governorGloss": "spielen",
          "dependent": 6,
          "dependentGloss": "Jobs"
        },
        {
          "dep": "case",
          "governor": 9,
          "governorGloss": "Biopic",
          "dependent": 7,
          "dependentGloss": "in"
        },
        {
          "dep": "amod",
          "governor": 9,
          "governorGloss": "Biopic",
          "dependent": 8,
          "dependentGloss": "kommenden"
        },
        {
          "dep": "nmod",
          "governor": 11,
          "governorGloss": "spielen",
          "dependent": 9,
          "dependentGloss": "Biopic"
        },
        {
          "dep": "aux",
          "governor": 11,
          "governorGloss": "spielen",
          "dependent": 10,
          "dependentGloss": "zu"
        },
        {
          "dep": "advcl",
          "governor": 2,
          "governorGloss": "gesetzt",
          "dependent": 11,
          "dependentGloss": "spielen"
        }
      ],
      "tokens": [
        {
          "index": 1,
          "word": "Batman",
          "originalText": "Batman",
          "characterOffsetBegin": 0,
          "characterOffsetEnd": 6,
          "pos": "NE",
          "before": "",
          "after": " "
        },
        {
          "index": 2,
          "word": "gesetzt",
          "originalText": "gesetzt",
          "characterOffsetBegin": 7,
          "characterOffsetEnd": 14,
          "pos": "VVPP",
          "before": " ",
          "after": ""
        },
        {
          "index": 3,
          "word": ",",
          "originalText": ",",
          "characterOffsetBegin": 14,
          "characterOffsetEnd": 15,
          "pos": "$,",
          "before": "",
          "after": " "
        },
        {
          "index": 4,
          "word": "um",
          "originalText": "um",
          "characterOffsetBegin": 16,
          "characterOffsetEnd": 18,
          "pos": "KOUI",
          "before": " ",
          "after": " "
        },
        {
          "index": 5,
          "word": "Steve",
          "originalText": "Steve",
          "characterOffsetBegin": 19,
          "characterOffsetEnd": 24,
          "pos": "NE",
          "before": " ",
          "after": " "
        },
        {
          "index": 6,
          "word": "Jobs",
          "originalText": "Jobs",
          "characterOffsetBegin": 25,
          "characterOffsetEnd": 29,
          "pos": "NN",
          "before": " ",
          "after": " "
        },
        {
          "index": 7,
          "word": "in",
          "originalText": "in",
          "characterOffsetBegin": 30,
          "characterOffsetEnd": 32,
          "pos": "APPR",
          "before": " ",
          "after": " "
        },
        {
          "index": 8,
          "word": "kommenden",
          "originalText": "kommenden",
          "characterOffsetBegin": 33,
          "characterOffsetEnd": 42,
          "pos": "ADJA",
          "before": " ",
          "after": " "
        },
        {
          "index": 9,
          "word": "Biopic",
          "originalText": "Biopic",
          "characterOffsetBegin": 43,
          "characterOffsetEnd": 49,
          "pos": "NN",
          "before": " ",
          "after": " "
        },
        {
          "index": 10,
          "word": "zu",
          "originalText": "zu",
          "characterOffsetBegin": 50,
          "characterOffsetEnd": 52,
          "pos": "PTKZU",
          "before": " ",
          "after": " "
        },
        {
          "index": 11,
          "word": "spielen",
          "originalText": "spielen",
          "characterOffsetBegin": 53,
          "characterOffsetEnd": 60,
          "pos": "VVINF",
          "before": " ",
          "after": ""
        }
      ]
    }
  ]
}