{
  "sentences": [
    {
      "index": 0,
      "basicDependencies": [
        {
          "dep": "ROOT",
          "governor": 0,
          "governorGloss": "ROOT",
          "dependent": 7,
          "dependentGloss": "NY"
        },
        {
          "dep": "det",
          "governor": 2,
          "governorGloss": "Ratten",
          "dependent": 1,
          "dependentGloss": "Die"
        },
        {
          "dep": "nsubj",
          "governor": 7,
          "governorGloss": "NY",
          "dependent": 2,
          "dependentGloss": "Ratten"
        },
        {
          "dep": "name",
          "governor": 6,
          "governorGloss": "Vogue",
          "dependent": 3,
          "dependentGloss": "essen"
        },
        {
          "dep": "name",
          "governor": 6,
          "governorGloss": "Vogue",
          "dependent": 4,
          "dependentGloss": "Prada"
        },
        {
          "dep": "name",
          "governor": 6,
          "governorGloss": "Vogue",
          "dependent": 5,
          "dependentGloss": "im"
        },
        {
          "dep": "appos",
          "governor": 2,
          "governorGloss": "Ratten",
          "dependent": 6,
          "dependentGloss": "Vogue"
        },
        {
          "dep": "dobj",
          "governor": 7,
          "governorGloss": "NY",
          "dependent": 8,
          "dependentGloss": "Büro"
        }
      ],
      "enhancedDependencies": [
        {
          "dep": "ROOT",
          "governor": 0,
          "governorGloss": "ROOT",
          "dependent": 7,
          "dependentGloss": "NY"
        },
        {
          "dep": "det",
          "governor": 2,
          "governorGloss": "Ratten",
          "dependent": 1,
          "dependentGloss": "Die"
        },
        {
          "dep": "nsubj",
          "governor": 7,
          "governorGloss": "NY",
          "dependent": 2,
          "dependentGloss": "Ratten"
        },
        {
          "dep": "name",
          "governor": 6,
          "governorGloss": "Vogue",
          "dependent": 3,
          "dependentGloss": "essen"
        },
        {
          "dep": "name",
          "governor": 6,
          "governorGloss": "Vogue",
          "dependent": 4,
          "dependentGloss": "Prada"
        },
        {
          "dep": "name",
          "governor": 6,
          "governorGloss": "Vogue",
          "dependent": 5,
          "dependentGloss": "im"
        },
        {
          "dep": "appos",
          "governor": 2,
          "governorGloss": "Ratten",
          "dependent": 6,
          "dependentGloss": "Vogue"
        },
        {
          "dep": "dobj",
          "governor": 7,
          "governorGloss": "NY",
          "dependent": 8,
          "dependentGloss": "Büro"
        }
      ],
      "enhancedPlusPlusDependencies": [
        {
          "dep": "ROOT",
          "governor": 0,
          "governorGloss": "ROOT",
          "dependent": 7,
          "dependentGloss": "NY"
        },
        {
          "dep": "det",
          "governor": 2,
          "governorGloss": "Ratten",
          "dependent": 1,
          "dependentGloss": "Die"
        },
        {
          "dep": "nsubj",
          "governor": 7,
          "governorGloss": "NY",
          "dependent": 2,
          "dependentGloss": "Ratten"
        },
        {
          "dep": "name",
          "governor": 6,
          "governorGloss": "Vogue",
          "dependent": 3,
          "dependentGloss": "essen"
        },
        {
          "dep": "name",
          "governor": 6,
          "governorGloss": "Vogue",
          "dependent": 4,
          "dependentGloss": "Prada"
        },
        {
          "dep": "name",
          "governor": 6,
          "governorGloss": "Vogue",
          "dependent": 5,
          "dependentGloss": "im"
        },
        {
          "dep": "appos",
          "governor": 2,
          "governorGloss": "Ratten",
          "dependent": 6,
          "dependentGloss": "Vogue"
        },
        {
          "dep": "dobj",
          "governor": 7,
          "governorGloss": "NY",
          "dependent": 8,
          "dependentGloss": "Büro"
        }
      ],
      "tokens": [
        {
          "index": 1,
          "word": "Die",
          "originalText": "Die",
          "characterOffsetBegin": 0,
          "characterOffsetEnd": 3,
          "pos": "ART",
          "before": "",
          "after": " "
        },
        {
          "index": 2,
          "word": "Ratten",
          "originalText": "Ratten",
          "characterOffsetBegin": 4,
          "characterOffsetEnd": 10,
          "pos": "NN",
          "before": " ",
          "after": " "
        },
        {
          "index": 3,
          "word": "essen",
          "originalText": "essen",
          "characterOffsetBegin": 11,
          "characterOffsetEnd": 16,
          "pos": "VVINF",
          "before": " ",
          "after": " "
        },
        {
          "index": 4,
          "word": "Prada",
          "originalText": "Prada",
          "characterOffsetBegin": 17,
          "characterOffsetEnd": 22,
          "pos": "NE",
          "before": " ",
          "after": " "
        },
        {
          "index": 5,
          "word": "im",
          "originalText": "im",
          "characterOffsetBegin": 23,
          "characterOffsetEnd": 25,
          "pos": "APPRART",
          "before": " ",
          "after": " "
        },
        {
          "index": 6,
          "word": "Vogue",
          "originalText": "Vogue",
          "characterOffsetBegin": 26,
          "characterOffsetEnd": 31,
          "pos": "NE",
          "before": " ",
          "after": " "
        },
        {
          "index": 7,
          "word": "NY",
          "originalText": "NY",
          "characterOffsetBegin": 32,
          "characterOffsetEnd": 34,
          "pos": "NE",
          "before": " ",
          "after": " "
        },
        {
          "index": 8,
          "word": "Büro",
          "originalText": "Büro",
          "characterOffsetBegin": 35,
          "characterOffsetEnd": 39,
          "pos": "NN",
          "before": " ",
          "after": ""
        }
      ]
    }
  ]
}