{
  "sentences": [
    {
      "index": 0,
      "basicDependencies": [
        {
          "dep": "ROOT",
          "governor": 0,
          "governorGloss": "ROOT",
          "dependent": 4,
          "dependentGloss": "reagierte"
        },
        {
          "dep": "det",
          "governor": 3,
          "governorGloss": "Mann",
          "dependent": 1,
          "dependentGloss": "Ein"
        },
        {
          "dep": "amod",
          "governor": 3,
          "governorGloss": "Mann",
          "dependent": 2,
          "dependentGloss": "gewünschter"
        },
        {
          "dep": "nsubj",
          "governor": 4,
          "governorGloss": "reagierte",
          "dependent": 3,
          "dependentGloss": "Mann"
        },
        {
          "dep": "case",
          "governor": 7,
          "governorGloss": "Polizei",
          "dependent": 5,
          "dependentGloss": "auf"
        },
        {
          "dep": "det",
          "governor": 7,
          "governorGloss": "Polizei",
          "dependent": 6,
          "dependentGloss": "eine"
        },
        {
          "dep": "nmod",
          "governor": 4,
          "governorGloss": "reagierte",
          "dependent": 7,
          "dependentGloss": "Polizei"
        },
        {
          "dep": "name",
          "governor": 9,
          "governorGloss": "Post",
          "dependent": 8,
          "dependentGloss": "Facebook"
        },
        {
          "dep": "appos",
          "governor": 7,
          "governorGloss": "Polizei",
          "dependent": 9,
          "dependentGloss": "Post"
        },
        {
          "dep": "punct",
          "governor": 4,
          "governorGloss": "reagierte",
          "dependent": 10,
          "dependentGloss": ","
        },
        {
          "dep": "mark",
          "governor": 15,
          "governorGloss": "verwandeln",
          "dependent": 11,
          "dependentGloss": "dass"
        },
        {
          "dep": "nsubj",
          "governor": 15,
          "governorGloss": "verwandeln",
          "dependent": 12,
          "dependentGloss": "er"
        },
        {
          "dep": "dobj",
          "governor": 15,
          "governorGloss": "verwandeln",
          "dependent": 13,
          "dependentGloss": "sich"
        },
        {
          "dep": "advmod",
          "governor": 15,
          "governorGloss": "verwandeln",
          "dependent": 14,
          "dependentGloss": "selbst"
        },
        {
          "dep": "ccomp",
          "governor": 4,
          "governorGloss": "reagierte",
          "dependent": 15,
          "dependentGloss": "verwandeln"
        },
        {
          "dep": "aux",
          "governor": 15,
          "governorGloss": "verwandeln",
          "dependent": 16,
          "dependentGloss": "würde"
        }
      ],
      "enhancedDependencies": [
        {
          "dep": "ROOT",
          "governor": 0,
          "governorGloss": "ROOT",
          "dependent": 4,
          "dependentGloss": "reagierte"
        },
        {
          "dep": "det",
          "governor": 3,
          "governorGloss": "Mann",
          "dependent": 1,
          "dependentGloss": "Ein"
        },
        {
          "dep": "amod",
          "governor": 3,
          "governorGloss": "Mann",
          "dependent": 2,
          "dependentGloss": "gewünschter"
        },
        {
          "dep": "nsubj",
          "governor": 4,
          "governorGloss": "reagierte",
          "dependent": 3,
          "dependentGloss": "Mann"
        },
        {
          "dep": "case",
          "governor": 7,
          "governorGloss": "Polizei",
          "dependent": 5,
          "dependentGloss": "auf"
        },
        {
          "dep": "det",
          "governor": 7,
          "governorGloss": "Polizei",
          "dependent": 6,
          "dependentGloss": "eine"
        },
        {
          "dep": "nmod",
          "governor": 4,
          "governorGloss": "reagierte",
          "dependent": 7,
          "dependentGloss": "Polizei"
        },
        {
          "dep": "name",
          "governor": 9,
          "governorGloss": "Post",
          "dependent": 8,
          "dependentGloss": "Facebook"
        },
        {
          "dep": "appos",
          "governor": 7,
          "governorGloss": "Polizei",
          "dependent": 9,
          "dependentGloss": "Post"
        },
        {
          "dep": "punct",
          "governor": 4,
          "governorGloss": "reagierte",
          "dependent": 10,
          "dependentGloss": ","
        },
        {
          "dep": "mark",
          "governor": 15,
          "governorGloss": "verwandeln",
          "dependent": 11,
          "dependentGloss": "dass"
        },
        {
          "dep": "nsubj",
          "governor": 15,
          "governorGloss": "verwandeln",
          "dependent": 12,
          "dependentGloss": "er"
        },
        {
          "dep": "dobj",
          "governor": 15,
          "governorGloss": "verwandeln",
          "dependent": 13,
          "dependentGloss": "sich"
        },
        {
          "dep": "advmod",
          "governor": 15,
          "governorGloss": "verwandeln",
          "dependent": 14,
          "dependentGloss": "selbst"
        },
        {
          "dep": "ccomp",
          "governor": 4,
          "governorGloss": "reagierte",
          "dependent": 15,
          "dependentGloss": "verwandeln"
        },
        {
          "dep": "aux",
          "governor": 15,
          "governorGloss": "verwandeln",
          "dependent": 16,
          "dependentGloss": "würde"
        }
      ],
      "enhancedPlusPlusDependencies": [
        {
          "dep": "ROOT",
          "governor": 0,
          "governorGloss": "ROOT",
          "dependent": 4,
          "dependentGloss": "reagierte"
        },
        {
          "dep": "det",
          "governor": 3,
          "governorGloss": "Mann",
          "dependent": 1,
          "dependentGloss": "Ein"
        },
        {
          "dep": "amod",
          "governor": 3,
          "governorGloss": "Mann",
          "dependent": 2,
          "dependentGloss": "gewünschter"
        },
        {
          "dep": "nsubj",
          "governor": 4,
          "governorGloss": "reagierte",
          "dependent": 3,
          "dependentGloss": "Mann"
        },
        {
          "dep": "case",
          "governor": 7,
          "governorGloss": "Polizei",
          "dependent": 5,
          "dependentGloss": "auf"
        },
        {
          "dep": "det",
          "governor": 7,
          "governorGloss": "Polizei",
          "dependent": 6,
          "dependentGloss": "eine"
        },
        {
          "dep": "nmod",
          "governor": 4,
          "governorGloss": "reagierte",
          "dependent": 7,
          "dependentGloss": "Polizei"
        },
        {
          "dep": "name",
          "governor": 9,
          "governorGloss": "Post",
          "dependent": 8,
          "dependentGloss": "Facebook"
        },
        {
          "dep": "appos",
          "governor": 7,
          "governorGloss": "Polizei",
          "dependent": 9,
          "dependentGloss": "Post"
        },
        {
          "dep": "punct",
          "governor": 4,
          "governorGloss": "reagierte",
          "dependent": 10,
          "dependentGloss": ","
        },
        {
          "dep": "mark",
          "governor": 15,
          "governorGloss": "verwandeln",
          "dependent": 11,
          "dependentGloss": "dass"
        },
        {
          "dep": "nsubj",
          "governor": 15,
          "governorGloss": "verwandeln",
          "dependent": 12,
          "dependentGloss": "er"
        },
        {
          "dep": "dobj",
          "governor": 15,
          "governorGloss": "verwandeln",
          "dependent": 13,
          "dependentGloss": "sich"
        },
        {
          "dep": "advmod",
          "governor": 15,
          "governorGloss": "verwandeln",
          "dependent": 14,
          "dependentGloss": "selbst"
        },
        {
          "dep": "ccomp",
          "governor": 4,
          "governorGloss": "reagierte",
          "dependent": 15,
          "dependentGloss": "verwandeln"
        },
        {
          "dep": "aux",
          "governor": 15,
          "governorGloss": "verwandeln",
          "dependent": 16,
          "dependentGloss": "würde"
        }
      ],
      "tokens": [
        {
          "index": 1,
          "word": "Ein",
          "originalText": "Ein",
          "characterOffsetBegin": 0,
          "characterOffsetEnd": 3,
          "pos": "ART",
          "before": "",
          "after": " "
        },
        {
          "index": 2,
          "word": "gewünschter",
          "originalText": "gewünschter",
          "characterOffsetBegin": 4,
          "characterOffsetEnd": 15,
          "pos": "ADJA",
          "before": " ",
          "after": " "
        },
        {
          "index": 3,
          "word": "Mann",
          "originalText": "Mann",
          "characterOffsetBegin": 16,
          "characterOffsetEnd": 20,
          "pos": "NN",
          "before": " ",
          "after": " "
        },
        {
          "index": 4,
          "word": "reagierte",
          "originalText": "reagierte",
          "characterOffsetBegin": 21,
          "characterOffsetEnd": 30,
          "pos": "VVFIN",
          "before": " ",
          "after": " "
        },
        {
          "index": 5,
          "word": "auf",
          "originalText": "auf",
          "characterOffsetBegin": 31,
          "characterOffsetEnd": 34,
          "pos": "APPR",
          "before": " ",
          "after": " "
        },
        {
          "index": 6,
          "word": "eine",
          "originalText": "eine",
          "characterOffsetBegin": 35,
          "characterOffsetEnd": 39,
          "pos": "ART",
          "before": " ",
          "after": " "
        },
        {
          "index": 7,
          "word": "Polizei",
          "originalText": "Polizei",
          "characterOffsetBegin": 40,
          "characterOffsetEnd": 47,
          "pos": "NN",
          "before": " ",
          "after": " "
        },
        {
          "index": 8,
          "word": "Facebook",
          "originalText": "Facebook",
          "characterOffsetBegin": 48,
          "characterOffsetEnd": 56,
          "pos": "NE",
          "before": " ",
          "after": " "
        },
        {
          "index": 9,
          "word": "Post",
          "originalText": "Post",
          "characterOffsetBegin": 57,
          "characterOffsetEnd": 61,
          "pos": "NE",
          "before": " ",
          "after": ""
        },
        {
          "index": 10,
          "word": ",",
          "originalText": ",",
          "characterOffsetBegin": 61,
          "characterOffsetEnd": 62,
          "pos": "$,",
          "before": "",
          "after": " "
        },
        {
          "index": 11,
          "word": "dass",
          "originalText": "dass",
          "characterOffsetBegin": 63,
          "characterOffsetEnd": 67,
          "pos": "KOUS",
          "before": " ",
          "after": " "
        },
        {
          "index": 12,
          "word": "er",
          "originalText": "er",
          "characterOffsetBegin": 68,
          "characterOffsetEnd": 70,
          "pos": "PPER",
          "before": " ",
          "after": " "
        },
        {
          "index": 13,
          "word": "sich",
          "originalText": "sich",
          "characterOffsetBegin": 71,
          "characterOffsetEnd": 75,
          "pos": "PRF",
          "before": " ",
          "after": " "
        },
        {
          "index": 14,
          "word": "selbst",
          "originalText": "selbst",
          "characterOffsetBegin": 76,
          "characterOffsetEnd": 82,
          "pos": "ADV",
          "before": " ",
          "after": " "
        },
        {
          "index": 15,
          "word": "verwandeln",
          "originalText": "verwandeln",
          "characterOffsetBegin": 83,
          "characterOffsetEnd": 93,
          "pos": "VVINF",
          "before": " ",
          "after": " "
        },
        {
          "index": 16,
          "word": "würde",
          "originalText": "würde",
          "characterOffsetBegin": 94,
          "characterOffsetEnd": 99,
          "pos": "VAFIN",
          "before": " ",
          "after": ""
        }
      ]
    }
  ]
}