{
  "sentences": [
    {
      "index": 0,
      "basicDependencies": [
        {
          "dep": "ROOT",
          "governor": 0,
          "governorGloss": "ROOT",
          "dependent": 15,
          "dependentGloss": "hoch"
        },
        {
          "dep": "name",
          "governor": 2,
          "governorGloss": "Kane",
          "dependent": 1,
          "dependentGloss": "Evander"
        },
        {
          "dep": "nmod",
          "governor": 15,
          "governorGloss": "hoch",
          "dependent": 2,
          "dependentGloss": "Kane"
        },
        {
          "dep": "punct",
          "governor": 5,
          "governorGloss": "Way",
          "dependent": 3,
          "dependentGloss": "``"
        },
        {
          "dep": "case",
          "governor": 5,
          "governorGloss": "Way",
          "dependent": 4,
          "dependentGloss": "On"
        },
        {
          "dep": "nmod",
          "governor": 15,
          "governorGloss": "hoch",
          "dependent": 5,
          "dependentGloss": "Way"
        },
        {
          "dep": "advmod",
          "governor": 15,
          "governorGloss": "hoch",
          "dependent": 6,
          "dependentGloss": "Out"
        },
        {
          "dep": "punct",
          "governor": 10,
          "governorGloss": "Quelle",
          "dependent": 7,
          "dependentGloss": "``"
        },
        {
          "dep": "case",
          "governor": 10,
          "governorGloss": "Quelle",
          "dependent": 8,
          "dependentGloss": "Von"
        },
        {
          "dep": "det",
          "governor": 10,
          "governorGloss": "Quelle",
          "dependent": 9,
          "dependentGloss": "der"
        },
        {
          "dep": "nmod",
          "governor": 6,
          "governorGloss": "Out",
          "dependent": 10,
          "dependentGloss": "Quelle"
        },
        {
          "dep": "cop",
          "governor": 15,
          "governorGloss": "hoch",
          "dependent": 11,
          "dependentGloss": "ist"
        },
        {
          "dep": "det",
          "governor": 13,
          "governorGloss": "Preis",
          "dependent": 12,
          "dependentGloss": "der"
        },
        {
          "dep": "nsubj",
          "governor": 15,
          "governorGloss": "hoch",
          "dependent": 13,
          "dependentGloss": "Preis"
        },
        {
          "dep": "advmod",
          "governor": 15,
          "governorGloss": "hoch",
          "dependent": 14,
          "dependentGloss": "sehr"
        },
        {
          "dep": "punct",
          "governor": 15,
          "governorGloss": "hoch",
          "dependent": 16,
          "dependentGloss": ";"
        },
        {
          "dep": "nsubj",
          "governor": 15,
          "governorGloss": "hoch",
          "dependent": 17,
          "dependentGloss": "Wer"
        },
        {
          "dep": "acl",
          "governor": 17,
          "governorGloss": "Wer",
          "dependent": 18,
          "dependentGloss": "ist"
        },
        {
          "dep": "advmod",
          "governor": 18,
          "governorGloss": "ist",
          "dependent": 19,
          "dependentGloss": "dabei"
        },
        {
          "dep": "punct",
          "governor": 19,
          "governorGloss": "dabei",
          "dependent": 20,
          "dependentGloss": "?"
        }
      ],
      "enhancedDependencies": [
        {
          "dep": "ROOT",
          "governor": 0,
          "governorGloss": "ROOT",
          "dependent": 15,
          "dependentGloss": "hoch"
        },
        {
          "dep": "name",
          "governor": 2,
          "governorGloss": "Kane",
          "dependent": 1,
          "dependentGloss": "Evander"
        },
        {
          "dep": "nmod",
          "governor": 15,
          "governorGloss": "hoch",
          "dependent": 2,
          "dependentGloss": "Kane"
        },
        {
          "dep": "punct",
          "governor": 5,
          "governorGloss": "Way",
          "dependent": 3,
          "dependentGloss": "``"
        },
        {
          "dep": "case",
          "governor": 5,
          "governorGloss": "Way",
          "dependent": 4,
          "dependentGloss": "On"
        },
        {
          "dep": "nmod",
          "governor": 15,
          "governorGloss": "hoch",
          "dependent": 5,
          "dependentGloss": "Way"
        },
        {
          "dep": "advmod",
          "governor": 15,
          "governorGloss": "hoch",
          "dependent": 6,
          "dependentGloss": "Out"
        },
        {
          "dep": "punct",
          "governor": 10,
          "governorGloss": "Quelle",
          "dependent": 7,
          "dependentGloss": "``"
        },
        {
          "dep": "case",
          "governor": 10,
          "governorGloss": "Quelle",
          "dependent": 8,
          "dependentGloss": "Von"
        },
        {
          "dep": "det",
          "governor": 10,
          "governorGloss": "Quelle",
          "dependent": 9,
          "dependentGloss": "der"
        },
        {
          "dep": "nmod",
          "governor": 6,
          "governorGloss": "Out",
          "dependent": 10,
          "dependentGloss": "Quelle"
        },
        {
          "dep": "cop",
          "governor": 15,
          "governorGloss": "hoch",
          "dependent": 11,
          "dependentGloss": "ist"
        },
        {
          "dep": "det",
          "governor": 13,
          "governorGloss": "Preis",
          "dependent": 12,
          "dependentGloss": "der"
        },
        {
          "dep": "nsubj",
          "governor": 15,
          "governorGloss": "hoch",
          "dependent": 13,
          "dependentGloss": "Preis"
        },
        {
          "dep": "advmod",
          "governor": 15,
          "governorGloss": "hoch",
          "dependent": 14,
          "dependentGloss": "sehr"
        },
        {
          "dep": "punct",
          "governor": 15,
          "governorGloss": "hoch",
          "dependent": 16,
          "dependentGloss": ";"
        },
        {
          "dep": "nsubj",
          "governor": 15,
          "governorGloss": "hoch",
          "dependent": 17,
          "dependentGloss": "Wer"
        },
        {
          "dep": "acl",
          "governor": 17,
          "governorGloss": "Wer",
          "dependent": 18,
          "dependentGloss": "ist"
        },
        {
          "dep": "advmod",
          "governor": 18,
          "governorGloss": "ist",
          "dependent": 19,
          "dependentGloss": "dabei"
        },
        {
          "dep": "punct",
          "governor": 19,
          "governorGloss": "dabei",
          "dependent": 20,
          "dependentGloss": "?"
        }
      ],
      "enhancedPlusPlusDependencies": [
        {
          "dep": "ROOT",
          "governor": 0,
          "governorGloss": "ROOT",
          "dependent": 15,
          "dependentGloss": "hoch"
        },
        {
          "dep": "name",
          "governor": 2,
          "governorGloss": "Kane",
          "dependent": 1,
          "dependentGloss": "Evander"
        },
        {
          "dep": "nmod",
          "governor": 15,
          "governorGloss": "hoch",
          "dependent": 2,
          "dependentGloss": "Kane"
        },
        {
          "dep": "punct",
          "governor": 5,
          "governorGloss": "Way",
          "dependent": 3,
          "dependentGloss": "``"
        },
        {
          "dep": "case",
          "governor": 5,
          "governorGloss": "Way",
          "dependent": 4,
          "dependentGloss": "On"
        },
        {
          "dep": "nmod",
          "governor": 15,
          "governorGloss": "hoch",
          "dependent": 5,
          "dependentGloss": "Way"
        },
        {
          "dep": "advmod",
          "governor": 15,
          "governorGloss": "hoch",
          "dependent": 6,
          "dependentGloss": "Out"
        },
        {
          "dep": "punct",
          "governor": 10,
          "governorGloss": "Quelle",
          "dependent": 7,
          "dependentGloss": "``"
        },
        {
          "dep": "case",
          "governor": 10,
          "governorGloss": "Quelle",
          "dependent": 8,
          "dependentGloss": "Von"
        },
        {
          "dep": "det",
          "governor": 10,
          "governorGloss": "Quelle",
          "dependent": 9,
          "dependentGloss": "der"
        },
        {
          "dep": "nmod",
          "governor": 6,
          "governorGloss": "Out",
          "dependent": 10,
          "dependentGloss": "Quelle"
        },
        {
          "dep": "cop",
          "governor": 15,
          "governorGloss": "hoch",
          "dependent": 11,
          "dependentGloss": "ist"
        },
        {
          "dep": "det",
          "governor": 13,
          "governorGloss": "Preis",
          "dependent": 12,
          "dependentGloss": "der"
        },
        {
          "dep": "nsubj",
          "governor": 15,
          "governorGloss": "hoch",
          "dependent": 13,
          "dependentGloss": "Preis"
        },
        {
          "dep": "advmod",
          "governor": 15,
          "governorGloss": "hoch",
          "dependent": 14,
          "dependentGloss": "sehr"
        },
        {
          "dep": "punct",
          "governor": 15,
          "governorGloss": "hoch",
          "dependent": 16,
          "dependentGloss": ";"
        },
        {
          "dep": "nsubj",
          "governor": 15,
          "governorGloss": "hoch",
          "dependent": 17,
          "dependentGloss": "Wer"
        },
        {
          "dep": "acl",
          "governor": 17,
          "governorGloss": "Wer",
          "dependent": 18,
          "dependentGloss": "ist"
        },
        {
          "dep": "advmod",
          "governor": 18,
          "governorGloss": "ist",
          "dependent": 19,
          "dependentGloss": "dabei"
        },
        {
          "dep": "punct",
          "governor": 19,
          "governorGloss": "dabei",
          "dependent": 20,
          "dependentGloss": "?"
        }
      ],
      "tokens": [
        {
          "index": 1,
          "word": "Evander",
          "originalText": "Evander",
          "characterOffsetBegin": 0,
          "characterOffsetEnd": 7,
          "pos": "ADJA",
          "before": "",
          "after": " "
        },
        {
          "index": 2,
          "word": "Kane",
          "originalText": "Kane",
          "characterOffsetBegin": 8,
          "characterOffsetEnd": 12,
          "pos": "NN",
          "before": " ",
          "after": " "
        },
        {
          "index": 3,
          "word": "``",
          "originalText": "“",
          "characterOffsetBegin": 13,
          "characterOffsetEnd": 14,
          "pos": "VVFIN",
          "before": " ",
          "after": ""
        },
        {
          "index": 4,
          "word": "On",
          "originalText": "On",
          "characterOffsetBegin": 14,
          "characterOffsetEnd": 16,
          "pos": "NE",
          "before": "",
          "after": " "
        },
        {
          "index": 5,
          "word": "Way",
          "originalText": "Way",
          "characterOffsetBegin": 17,
          "characterOffsetEnd": 20,
          "pos": "FM",
          "before": " ",
          "after": " "
        },
        {
          "index": 6,
          "word": "Out",
          "originalText": "Out",
          "characterOffsetBegin": 21,
          "characterOffsetEnd": 24,
          "pos": "NE",
          "before": " ",
          "after": ""
        },
        {
          "index": 7,
          "word": "``",
          "originalText": "“",
          "characterOffsetBegin": 24,
          "characterOffsetEnd": 25,
          "pos": "CARD",
          "before": "",
          "after": " "
        },
        {
          "index": 8,
          "word": "Von",
          "originalText": "Von",
          "characterOffsetBegin": 26,
          "characterOffsetEnd": 29,
          "pos": "APPR",
          "before": " ",
          "after": " "
        },
        {
          "index": 9,
          "word": "der",
          "originalText": "der",
          "characterOffsetBegin": 30,
          "characterOffsetEnd": 33,
          "pos": "ART",
          "before": " ",
          "after": " "
        },
        {
          "index": 10,
          "word": "Quelle",
          "originalText": "Quelle",
          "characterOffsetBegin": 34,
          "characterOffsetEnd": 40,
          "pos": "NN",
          "before": " ",
          "after": " "
        },
        {
          "index": 11,
          "word": "ist",
          "originalText": "ist",
          "characterOffsetBegin": 41,
          "characterOffsetEnd": 44,
          "pos": "VAFIN",
          "before": " ",
          "after": " "
        },
        {
          "index": 12,
          "word": "der",
          "originalText": "der",
          "characterOffsetBegin": 45,
          "characterOffsetEnd": 48,
          "pos": "ART",
          "before": " ",
          "after": " "
        },
        {
          "index": 13,
          "word": "Preis",
          "originalText": "Preis",
          "characterOffsetBegin": 49,
          "characterOffsetEnd": 54,
          "pos": "NN",
          "before": " ",
          "after": " "
        },
        {
          "index": 14,
          "word": "sehr",
          "originalText": "sehr",
          "characterOffsetBegin": 55,
          "characterOffsetEnd": 59,
          "pos": "ADV",
          "before": " ",
          "after": " "
        },
        {
          "index": 15,
          "word": "hoch",
          "originalText": "hoch",
          "characterOffsetBegin": 60,
          "characterOffsetEnd": 64,
          "pos": "ADJD",
          "before": " ",
          "after": ""
        },
        {
          "index": 16,
          "word": ";",
          "originalText": ";",
          "characterOffsetBegin": 64,
          "characterOffsetEnd": 65,
          "pos": "$.",
          "before": "",
          "after": " "
        },
        {
          "index": 17,
          "word": "Wer",
          "originalText": "Wer",
          "characterOffsetBegin": 66,
          "characterOffsetEnd": 69,
          "pos": "PWS",
          "before": " ",
          "after": " "
        },
        {
          "index": 18,
          "word": "ist",
          "originalText": "ist",
          "characterOffsetBegin": 70,
          "characterOffsetEnd": 73,
          "pos": "VAFIN",
          "before": " ",
          "after": " "
        },
        {
          "index": 19,
          "word": "dabei",
          "originalText": "dabei",
          "characterOffsetBegin": 74,
          "characterOffsetEnd": 79,
          "pos": "PROAV",
          "before": " ",
          "after": ""
        },
        {
          "index": 20,
          "word": "?",
          "originalText": "?",
          "characterOffsetBegin": 79,
          "characterOffsetEnd": 80,
          "pos": "$.",
          "before": "",
          "after": ""
        }
      ]
    }
  ]
}