{
  "sentences": [
    {
      "index": 0,
      "basicDependencies": [
        {
          "dep": "ROOT",
          "governor": 0,
          "governorGloss": "ROOT",
          "dependent": 1,
          "dependentGloss": "#HairGate"
        },
        {
          "dep": "punct",
          "governor": 1,
          "governorGloss": "#HairGate",
          "dependent": 2,
          "dependentGloss": ":"
        },
        {
          "dep": "mark",
          "governor": 6,
          "governorGloss": "beschweren",
          "dependent": 3,
          "dependentGloss": "iPhone"
        },
        {
          "dep": "nummod",
          "governor": 5,
          "governorGloss": "Kunden",
          "dependent": 4,
          "dependentGloss": "6"
        },
        {
          "dep": "nsubj",
          "governor": 6,
          "governorGloss": "beschweren",
          "dependent": 5,
          "dependentGloss": "Kunden"
        },
        {
          "dep": "ccomp",
          "governor": 1,
          "governorGloss": "#HairGate",
          "dependent": 6,
          "dependentGloss": "beschweren"
        },
        {
          "dep": "punct",
          "governor": 6,
          "governorGloss": "beschweren",
          "dependent": 7,
          "dependentGloss": ","
        },
        {
          "dep": "mark",
          "governor": 13,
          "governorGloss": "zerreißt",
          "dependent": 8,
          "dependentGloss": "dass"
        },
        {
          "dep": "det",
          "governor": 10,
          "governorGloss": "Telefon",
          "dependent": 9,
          "dependentGloss": "das"
        },
        {
          "dep": "dobj",
          "governor": 13,
          "governorGloss": "zerreißt",
          "dependent": 10,
          "dependentGloss": "Telefon"
        },
        {
          "dep": "nmod:poss",
          "governor": 12,
          "governorGloss": "Haar",
          "dependent": 11,
          "dependentGloss": "ihr"
        },
        {
          "dep": "det",
          "governor": 10,
          "governorGloss": "Telefon",
          "dependent": 12,
          "dependentGloss": "Haar"
        },
        {
          "dep": "ccomp",
          "governor": 6,
          "governorGloss": "beschweren",
          "dependent": 13,
          "dependentGloss": "zerreißt"
        }
      ],
      "enhancedDependencies": [
        {
          "dep": "ROOT",
          "governor": 0,
          "governorGloss": "ROOT",
          "dependent": 1,
          "dependentGloss": "#HairGate"
        },
        {
          "dep": "punct",
          "governor": 1,
          "governorGloss": "#HairGate",
          "dependent": 2,
          "dependentGloss": ":"
        },
        {
          "dep": "mark",
          "governor": 6,
          "governorGloss": "beschweren",
          "dependent": 3,
          "dependentGloss": "iPhone"
        },
        {
          "dep": "nummod",
          "governor": 5,
          "governorGloss": "Kunden",
          "dependent": 4,
          "dependentGloss": "6"
        },
        {
          "dep": "nsubj",
          "governor": 6,
          "governorGloss": "beschweren",
          "dependent": 5,
          "dependentGloss": "Kunden"
        },
        {
          "dep": "ccomp",
          "governor": 1,
          "governorGloss": "#HairGate",
          "dependent": 6,
          "dependentGloss": "beschweren"
        },
        {
          "dep": "punct",
          "governor": 6,
          "governorGloss": "beschweren",
          "dependent": 7,
          "dependentGloss": ","
        },
        {
          "dep": "mark",
          "governor": 13,
          "governorGloss": "zerreißt",
          "dependent": 8,
          "dependentGloss": "dass"
        },
        {
          "dep": "det",
          "governor": 10,
          "governorGloss": "Telefon",
          "dependent": 9,
          "dependentGloss": "das"
        },
        {
          "dep": "dobj",
          "governor": 13,
          "governorGloss": "zerreißt",
          "dependent": 10,
          "dependentGloss": "Telefon"
        },
        {
          "dep": "nmod:poss",
          "governor": 12,
          "governorGloss": "Haar",
          "dependent": 11,
          "dependentGloss": "ihr"
        },
        {
          "dep": "det",
          "governor": 10,
          "governorGloss": "Telefon",
          "dependent": 12,
          "dependentGloss": "Haar"
        },
        {
          "dep": "ccomp",
          "governor": 6,
          "governorGloss": "beschweren",
          "dependent": 13,
          "dependentGloss": "zerreißt"
        }
      ],
      "enhancedPlusPlusDependencies": [
        {
          "dep": "ROOT",
          "governor": 0,
          "governorGloss": "ROOT",
          "dependent": 1,
          "dependentGloss": "#HairGate"
        },
        {
          "dep": "punct",
          "governor": 1,
          "governorGloss": "#HairGate",
          "dependent": 2,
          "dependentGloss": ":"
        },
        {
          "dep": "mark",
          "governor": 6,
          "governorGloss": "beschweren",
          "dependent": 3,
          "dependentGloss": "iPhone"
        },
        {
          "dep": "nummod",
          "governor": 5,
          "governorGloss": "Kunden",
          "dependent": 4,
          "dependentGloss": "6"
        },
        {
          "dep": "nsubj",
          "governor": 6,
          "governorGloss": "beschweren",
          "dependent": 5,
          "dependentGloss": "Kunden"
        },
        {
          "dep": "ccomp",
          "governor": 1,
          "governorGloss": "#HairGate",
          "dependent": 6,
          "dependentGloss": "beschweren"
        },
        {
          "dep": "punct",
          "governor": 6,
          "governorGloss": "beschweren",
          "dependent": 7,
          "dependentGloss": ","
        },
        {
          "dep": "mark",
          "governor": 13,
          "governorGloss": "zerreißt",
          "dependent": 8,
          "dependentGloss": "dass"
        },
        {
          "dep": "det",
          "governor": 10,
          "governorGloss": "Telefon",
          "dependent": 9,
          "dependentGloss": "das"
        },
        {
          "dep": "dobj",
          "governor": 13,
          "governorGloss": "zerreißt",
          "dependent": 10,
          "dependentGloss": "Telefon"
        },
        {
          "dep": "nmod:poss",
          "governor": 12,
          "governorGloss": "Haar",
          "dependent": 11,
          "dependentGloss": "ihr"
        },
        {
          "dep": "det",
          "governor": 10,
          "governorGloss": "Telefon",
          "dependent": 12,
          "dependentGloss": "Haar"
        },
        {
          "dep": "ccomp",
          "governor": 6,
          "governorGloss": "beschweren",
          "dependent": 13,
          "dependentGloss": "zerreißt"
        }
      ],
      "tokens": [
        {
          "index": 1,
          "word": "#HairGate",
          "originalText": "#HairGate",
          "characterOffsetBegin": 0,
          "characterOffsetEnd": 9,
          "pos": "NN",
          "before": "",
          "after": ""
        },
        {
          "index": 2,
          "word": ":",
          "originalText": ":",
          "characterOffsetBegin": 9,
          "characterOffsetEnd": 10,
          "pos": "$.",
          "before": "",
          "after": " "
        },
        {
          "index": 3,
          "word": "iPhone",
          "originalText": "iPhone",
          "characterOffsetBegin": 11,
          "characterOffsetEnd": 17,
          "pos": "NN",
          "before": " ",
          "after": " "
        },
        {
          "index": 4,
          "word": "6",
          "originalText": "6",
          "characterOffsetBegin": 18,
          "characterOffsetEnd": 19,
          "pos": "CARD",
          "before": " ",
          "after": " "
        },
        {
          "index": 5,
          "word": "Kunden",
          "originalText": "Kunden",
          "characterOffsetBegin": 20,
          "characterOffsetEnd": 26,
          "pos": "NN",
          "before": " ",
          "after": " "
        },
        {
          "index": 6,
          "word": "beschweren",
          "originalText": "beschweren",
          "characterOffsetBegin": 27,
          "characterOffsetEnd": 37,
          "pos": "VVFIN",
          "before": " ",
          "after": ""
        },
        {
          "index": 7,
          "word": ",",
          "originalText": ",",
          "characterOffsetBegin": 37,
          "characterOffsetEnd": 38,
          "pos": "$,",
          "before": "",
          "after": " "
        },
        {
          "index": 8,
          "word": "dass",
          "originalText": "dass",
          "characterOffsetBegin": 39,
          "characterOffsetEnd": 43,
          "pos": "KOUS",
          "before": " ",
          "after": " "
        },
        {
          "index": 9,
          "word": "das",
          "originalText": "das",
          "characterOffsetBegin": 44,
          "characterOffsetEnd": 47,
          "pos": "ART",
          "before": " ",
          "after": " "
        },
        {
          "index": 10,
          "word": "Telefon",
          "originalText": "Telefon",
          "characterOffsetBegin": 48,
          "characterOffsetEnd": 55,
          "pos": "NN",
          "before": " ",
          "after": " "
        },
        {
          "index": 11,
          "word": "ihr",
          "originalText": "ihr",
          "characterOffsetBegin": 56,
          "characterOffsetEnd": 59,
          "pos": "PPOSAT",
          "before": " ",
          "after": " "
        },
        {
          "index": 12,
          "word": "Haar",
          "originalText": "Haar",
          "characterOffsetBegin": 60,
          "characterOffsetEnd": 64,
          "pos": "NN",
          "before": " ",
          "after": " "
        },
        {
          "index": 13,
          "word": "zerreißt",
          "originalText": "zerreißt",
          "characterOffsetBegin": 65,
          "characterOffsetEnd": 73,
          "pos": "VVFIN",
          "before": " ",
          "after": ""
        }
      ]
    }
  ]
}