{
  "sentences": [
    {
      "index": 0,
      "basicDependencies": [
        {
          "dep": "ROOT",
          "governor": 0,
          "governorGloss": "ROOT",
          "dependent": 6,
          "dependentGloss": "Priester"
        },
        {
          "dep": "nsubj",
          "governor": 6,
          "governorGloss": "Priester",
          "dependent": 1,
          "dependentGloss": "Gott"
        },
        {
          "dep": "cop",
          "governor": 6,
          "governorGloss": "Priester",
          "dependent": 2,
          "dependentGloss": "ist"
        },
        {
          "dep": "det",
          "governor": 6,
          "governorGloss": "Priester",
          "dependent": 3,
          "dependentGloss": "eine"
        },
        {
          "dep": "compound",
          "governor": 6,
          "governorGloss": "Priester",
          "dependent": 4,
          "dependentGloss": "Frau"
        },
        {
          "dep": "punct",
          "governor": 6,
          "governorGloss": "Priester",
          "dependent": 5,
          "dependentGloss": "-"
        },
        {
          "dep": "punct",
          "governor": 6,
          "governorGloss": "Priester",
          "dependent": 7,
          "dependentGloss": ","
        },
        {
          "dep": "nsubj",
          "governor": 12,
          "governorGloss": "verstorben",
          "dependent": 8,
          "dependentGloss": "der"
        },
        {
          "dep": "case",
          "governor": 11,
          "governorGloss": "Minuten",
          "dependent": 9,
          "dependentGloss": "für"
        },
        {
          "dep": "nummod",
          "governor": 11,
          "governorGloss": "Minuten",
          "dependent": 10,
          "dependentGloss": "48"
        },
        {
          "dep": "nmod",
          "governor": 12,
          "governorGloss": "verstorben",
          "dependent": 11,
          "dependentGloss": "Minuten"
        },
        {
          "dep": "acl",
          "governor": 6,
          "governorGloss": "Priester",
          "dependent": 12,
          "dependentGloss": "verstorben"
        },
        {
          "dep": "aux",
          "governor": 12,
          "governorGloss": "verstorben",
          "dependent": 13,
          "dependentGloss": "ist"
        }
      ],
      "enhancedDependencies": [
        {
          "dep": "ROOT",
          "governor": 0,
          "governorGloss": "ROOT",
          "dependent": 6,
          "dependentGloss": "Priester"
        },
        {
          "dep": "nsubj",
          "governor": 6,
          "governorGloss": "Priester",
          "dependent": 1,
          "dependentGloss": "Gott"
        },
        {
          "dep": "cop",
          "governor": 6,
          "governorGloss": "Priester",
          "dependent": 2,
          "dependentGloss": "ist"
        },
        {
          "dep": "det",
          "governor": 6,
          "governorGloss": "Priester",
          "dependent": 3,
          "dependentGloss": "eine"
        },
        {
          "dep": "compound",
          "governor": 6,
          "governorGloss": "Priester",
          "dependent": 4,
          "dependentGloss": "Frau"
        },
        {
          "dep": "punct",
          "governor": 6,
          "governorGloss": "Priester",
          "dependent": 5,
          "dependentGloss": "-"
        },
        {
          "dep": "punct",
          "governor": 6,
          "governorGloss": "Priester",
          "dependent": 7,
          "dependentGloss": ","
        },
        {
          "dep": "nsubj",
          "governor": 12,
          "governorGloss": "verstorben",
          "dependent": 8,
          "dependentGloss": "der"
        },
        {
          "dep": "case",
          "governor": 11,
          "governorGloss": "Minuten",
          "dependent": 9,
          "dependentGloss": "für"
        },
        {
          "dep": "nummod",
          "governor": 11,
          "governorGloss": "Minuten",
          "dependent": 10,
          "dependentGloss": "48"
        },
        {
          "dep": "nmod",
          "governor": 12,
          "governorGloss": "verstorben",
          "dependent": 11,
          "dependentGloss": "Minuten"
        },
        {
          "dep": "acl",
          "governor": 6,
          "governorGloss": "Priester",
          "dependent": 12,
          "dependentGloss": "verstorben"
        },
        {
          "dep": "aux",
          "governor": 12,
          "governorGloss": "verstorben",
          "dependent": 13,
          "dependentGloss": "ist"
        }
      ],
      "enhancedPlusPlusDependencies": [
        {
          "dep": "ROOT",
          "governor": 0,
          "governorGloss": "ROOT",
          "dependent": 6,
          "dependentGloss": "Priester"
        },
        {
          "dep": "nsubj",
          "governor": 6,
          "governorGloss": "Priester",
          "dependent": 1,
          "dependentGloss": "Gott"
        },
        {
          "dep": "cop",
          "governor": 6,
          "governorGloss": "Priester",
          "dependent": 2,
          "dependentGloss": "ist"
        },
        {
          "dep": "det",
          "governor": 6,
          "governorGloss": "Priester",
          "dependent": 3,
          "dependentGloss": "eine"
        },
        {
          "dep": "compound",
          "governor": 6,
          "governorGloss": "Priester",
          "dependent": 4,
          "dependentGloss": "Frau"
        },
        {
          "dep": "punct",
          "governor": 6,
          "governorGloss": "Priester",
          "dependent": 5,
          "dependentGloss": "-"
        },
        {
          "dep": "punct",
          "governor": 6,
          "governorGloss": "Priester",
          "dependent": 7,
          "dependentGloss": ","
        },
        {
          "dep": "nsubj",
          "governor": 12,
          "governorGloss": "verstorben",
          "dependent": 8,
          "dependentGloss": "der"
        },
        {
          "dep": "case",
          "governor": 11,
          "governorGloss": "Minuten",
          "dependent": 9,
          "dependentGloss": "für"
        },
        {
          "dep": "nummod",
          "governor": 11,
          "governorGloss": "Minuten",
          "dependent": 10,
          "dependentGloss": "48"
        },
        {
          "dep": "nmod",
          "governor": 12,
          "governorGloss": "verstorben",
          "dependent": 11,
          "dependentGloss": "Minuten"
        },
        {
          "dep": "acl",
          "governor": 6,
          "governorGloss": "Priester",
          "dependent": 12,
          "dependentGloss": "verstorben"
        },
        {
          "dep": "aux",
          "governor": 12,
          "governorGloss": "verstorben",
          "dependent": 13,
          "dependentGloss": "ist"
        }
      ],
      "tokens": [
        {
          "index": 1,
          "word": "Gott",
          "originalText": "Gott",
          "characterOffsetBegin": 0,
          "characterOffsetEnd": 4,
          "pos": "NN",
          "before": "",
          "after": " "
        },
        {
          "index": 2,
          "word": "ist",
          "originalText": "ist",
          "characterOffsetBegin": 5,
          "characterOffsetEnd": 8,
          "pos": "VAFIN",
          "before": " ",
          "after": " "
        },
        {
          "index": 3,
          "word": "eine",
          "originalText": "eine",
          "characterOffsetBegin": 9,
          "characterOffsetEnd": 13,
          "pos": "ART",
          "before": " ",
          "after": " "
        },
        {
          "index": 4,
          "word": "Frau",
          "originalText": "Frau",
          "characterOffsetBegin": 14,
          "characterOffsetEnd": 18,
          "pos": "NN",
          "before": " ",
          "after": " "
        },
        {
          "index": 5,
          "word": "-",
          "originalText": "-",
          "characterOffsetBegin": 19,
          "characterOffsetEnd": 20,
          "pos": "$[",
          "before": " ",
          "after": " "
        },
        {
          "index": 6,
          "word": "Priester",
          "originalText": "Priester",
          "characterOffsetBegin": 21,
          "characterOffsetEnd": 29,
          "pos": "NN",
          "before": " ",
          "after": ""
        },
        {
          "index": 7,
          "word": ",",
          "originalText": ",",
          "characterOffsetBegin": 29,
          "characterOffsetEnd": 30,
          "pos": "$,",
          "before": "",
          "after": " "
        },
        {
          "index": 8,
          "word": "der",
          "originalText": "der",
          "characterOffsetBegin": 31,
          "characterOffsetEnd": 34,
          "pos": "PRELS",
          "before": " ",
          "after": " "
        },
        {
          "index": 9,
          "word": "für",
          "originalText": "für",
          "characterOffsetBegin": 35,
          "characterOffsetEnd": 38,
          "pos": "APPR",
          "before": " ",
          "after": " "
        },
        {
          "index": 10,
          "word": "48",
          "originalText": "48",
          "characterOffsetBegin": 39,
          "characterOffsetEnd": 41,
          "pos": "CARD",
          "before": " ",
          "after": " "
        },
        {
          "index": 11,
          "word": "Minuten",
          "originalText": "Minuten",
          "characterOffsetBegin": 42,
          "characterOffsetEnd": 49,
          "pos": "NN",
          "before": " ",
          "after": " "
        },
        {
          "index": 12,
          "word": "verstorben",
          "originalText": "verstorben",
          "characterOffsetBegin": 50,
          "characterOffsetEnd": 60,
          "pos": "VVPP",
          "before": " ",
          "after": " "
        },
        {
          "index": 13,
          "word": "ist",
          "originalText": "ist",
          "characterOffsetBegin": 61,
          "characterOffsetEnd": 64,
          "pos": "VAFIN",
          "before": " ",
          "after": ""
        }
      ]
    }
  ]
}