{
  "sentences": [
    {
      "index": 0,
      "basicDependencies": [
        {
          "dep": "ROOT",
          "governor": 0,
          "governorGloss": "ROOT",
          "dependent": 2,
          "dependentGloss": "Somers"
        },
        {
          "dep": "advmod",
          "governor": 2,
          "governorGloss": "Somers",
          "dependent": 1,
          "dependentGloss": "Luke"
        },
        {
          "dep": "punct",
          "governor": 2,
          "governorGloss": "Somers",
          "dependent": 3,
          "dependentGloss": ":"
        },
        {
          "dep": "amod",
          "governor": 5,
          "governorGloss": "geborener",
          "dependent": 4,
          "dependentGloss": "Britisch"
        },
        {
          "dep": "dobj",
          "governor": 6,
          "governorGloss": "Fotojournalist",
          "dependent": 5,
          "dependentGloss": "geborener"
        },
        {
          "dep": "parataxis",
          "governor": 2,
          "governorGloss": "Somers",
          "dependent": 6,
          "dependentGloss": "Fotojournalist"
        },
        {
          "dep": "punct",
          "governor": 8,
          "governorGloss": "getötet",
          "dependent": 7,
          "dependentGloss": "`"
        },
        {
          "dep": "nsubj",
          "governor": 6,
          "governorGloss": "Fotojournalist",
          "dependent": 8,
          "dependentGloss": "getötet"
        },
        {
          "dep": "case",
          "governor": 10,
          "governorGloss": "al-Qaida",
          "dependent": 9,
          "dependentGloss": "von"
        },
        {
          "dep": "nmod",
          "governor": 8,
          "governorGloss": "getötet",
          "dependent": 10,
          "dependentGloss": "al-Qaida"
        },
        {
          "dep": "case",
          "governor": 15,
          "governorGloss": "Jemen",
          "dependent": 11,
          "dependentGloss": "nach"
        },
        {
          "dep": "name",
          "governor": 15,
          "governorGloss": "Jemen",
          "dependent": 12,
          "dependentGloss": "gescheiterten"
        },
        {
          "dep": "name",
          "governor": 15,
          "governorGloss": "Jemen",
          "dependent": 13,
          "dependentGloss": "Rettungsversuch"
        },
        {
          "dep": "name",
          "governor": 15,
          "governorGloss": "Jemen",
          "dependent": 14,
          "dependentGloss": "im"
        },
        {
          "dep": "nmod",
          "governor": 6,
          "governorGloss": "Fotojournalist",
          "dependent": 15,
          "dependentGloss": "Jemen"
        },
        {
          "dep": "punct",
          "governor": 2,
          "governorGloss": "Somers",
          "dependent": 16,
          "dependentGloss": "'"
        }
      ],
      "enhancedDependencies": [
        {
          "dep": "ROOT",
          "governor": 0,
          "governorGloss": "ROOT",
          "dependent": 2,
          "dependentGloss": "Somers"
        },
        {
          "dep": "advmod",
          "governor": 2,
          "governorGloss": "Somers",
          "dependent": 1,
          "dependentGloss": "Luke"
        },
        {
          "dep": "punct",
          "governor": 2,
          "governorGloss": "Somers",
          "dependent": 3,
          "dependentGloss": ":"
        },
        {
          "dep": "amod",
          "governor": 5,
          "governorGloss": "geborener",
          "dependent": 4,
          "dependentGloss": "Britisch"
        },
        {
          "dep": "dobj",
          "governor": 6,
          "governorGloss": "Fotojournalist",
          "dependent": 5,
          "dependentGloss": "geborener"
        },
        {
          "dep": "parataxis",
          "governor": 2,
          "governorGloss": "Somers",
          "dependent": 6,
          "dependentGloss": "Fotojournalist"
        },
        {
          "dep": "punct",
          "governor": 8,
          "governorGloss": "getötet",
          "dependent": 7,
          "dependentGloss": "`"
        },
        {
          "dep": "nsubj",
          "governor": 6,
          "governorGloss": "Fotojournalist",
          "dependent": 8,
          "dependentGloss": "getötet"
        },
        {
          "dep": "case",
          "governor": 10,
          "governorGloss": "al-Qaida",
          "dependent": 9,
          "dependentGloss": "von"
        },
        {
          "dep": "nmod",
          "governor": 8,
          "governorGloss": "getötet",
          "dependent": 10,
          "dependentGloss": "al-Qaida"
        },
        {
          "dep": "case",
          "governor": 15,
          "governorGloss": "Jemen",
          "dependent": 11,
          "dependentGloss": "nach"
        },
        {
          "dep": "name",
          "governor": 15,
          "governorGloss": "Jemen",
          "dependent": 12,
          "dependentGloss": "gescheiterten"
        },
        {
          "dep": "name",
          "governor": 15,
          "governorGloss": "Jemen",
          "dependent": 13,
          "dependentGloss": "Rettungsversuch"
        },
        {
          "dep": "name",
          "governor": 15,
          "governorGloss": "Jemen",
          "dependent": 14,
          "dependentGloss": "im"
        },
        {
          "dep": "nmod",
          "governor": 6,
          "governorGloss": "Fotojournalist",
          "dependent": 15,
          "dependentGloss": "Jemen"
        },
        {
          "dep": "punct",
          "governor": 2,
          "governorGloss": "Somers",
          "dependent": 16,
          "dependentGloss": "'"
        }
      ],
      "enhancedPlusPlusDependencies": [
        {
          "dep": "ROOT",
          "governor": 0,
          "governorGloss": "ROOT",
          "dependent": 2,
          "dependentGloss": "Somers"
        },
        {
          "dep": "advmod",
          "governor": 2,
          "governorGloss": "Somers",
          "dependent": 1,
          "dependentGloss": "Luke"
        },
        {
          "dep": "punct",
          "governor": 2,
          "governorGloss": "Somers",
          "dependent": 3,
          "dependentGloss": ":"
        },
        {
          "dep": "amod",
          "governor": 5,
          "governorGloss": "geborener",
          "dependent": 4,
          "dependentGloss": "Britisch"
        },
        {
          "dep": "dobj",
          "governor": 6,
          "governorGloss": "Fotojournalist",
          "dependent": 5,
          "dependentGloss": "geborener"
        },
        {
          "dep": "parataxis",
          "governor": 2,
          "governorGloss": "Somers",
          "dependent": 6,
          "dependentGloss": "Fotojournalist"
        },
        {
          "dep": "punct",
          "governor": 8,
          "governorGloss": "getötet",
          "dependent": 7,
          "dependentGloss": "`"
        },
        {
          "dep": "nsubj",
          "governor": 6,
          "governorGloss": "Fotojournalist",
          "dependent": 8,
          "dependentGloss": "getötet"
        },
        {
          "dep": "case",
          "governor": 10,
          "governorGloss": "al-Qaida",
          "dependent": 9,
          "dependentGloss": "von"
        },
        {
          "dep": "nmod",
          "governor": 8,
          "governorGloss": "getötet",
          "dependent": 10,
          "dependentGloss": "al-Qaida"
        },
        {
          "dep": "case",
          "governor": 15,
          "governorGloss": "Jemen",
          "dependent": 11,
          "dependentGloss": "nach"
        },
        {
          "dep": "name",
          "governor": 15,
          "governorGloss": "Jemen",
          "dependent": 12,
          "dependentGloss": "gescheiterten"
        },
        {
          "dep": "name",
          "governor": 15,
          "governorGloss": "Jemen",
          "dependent": 13,
          "dependentGloss": "Rettungsversuch"
        },
        {
          "dep": "name",
          "governor": 15,
          "governorGloss": "Jemen",
          "dependent": 14,
          "dependentGloss": "im"
        },
        {
          "dep": "nmod",
          "governor": 6,
          "governorGloss": "Fotojournalist",
          "dependent": 15,
          "dependentGloss": "Jemen"
        },
        {
          "dep": "punct",
          "governor": 2,
          "governorGloss": "Somers",
          "dependent": 16,
          "dependentGloss": "'"
        }
      ],
      "tokens": [
        {
          "index": 1,
          "word": "Luke",
          "originalText": "Luke",
          "characterOffsetBegin": 0,
          "characterOffsetEnd": 4,
          "pos": "NE",
          "before": "",
          "after": " "
        },
        {
          "index": 2,
          "word": "Somers",
          "originalText": "Somers",
          "characterOffsetBegin": 5,
          "characterOffsetEnd": 11,
          "pos": "NE",
          "before": " ",
          "after": ""
        },
        {
          "index": 3,
          "word": ":",
          "originalText": ":",
          "characterOffsetBegin": 11,
          "characterOffsetEnd": 12,
          "pos": "$.",
          "before": "",
          "after": " "
        },
        {
          "index": 4,
          "word": "Britisch",
          "originalText": "Britisch",
          "characterOffsetBegin": 13,
          "characterOffsetEnd": 21,
          "pos": "ADJD",
          "before": " ",
          "after": " "
        },
        {
          "index": 5,
          "word": "geborener",
          "originalText": "geborener",
          "characterOffsetBegin": 22,
          "characterOffsetEnd": 31,
          "pos": "ADJA",
          "before": " ",
          "after": " "
        },
        {
          "index": 6,
          "word": "Fotojournalist",
          "originalText": "Fotojournalist",
          "characterOffsetBegin": 32,
          "characterOffsetEnd": 46,
          "pos": "NN",
          "before": " ",
          "after": " "
        },
        {
          "index": 7,
          "word": "`",
          "originalText": "'",
          "characterOffsetBegin": 47,
          "characterOffsetEnd": 48,
          "pos": "CARD",
          "before": " ",
          "after": ""
        },
        {
          "index": 8,
          "word": "getötet",
          "originalText": "getötet",
          "characterOffsetBegin": 48,
          "characterOffsetEnd": 55,
          "pos": "VVPP",
          "before": "",
          "after": " "
        },
        {
          "index": 9,
          "word": "von",
          "originalText": "von",
          "characterOffsetBegin": 56,
          "characterOffsetEnd": 59,
          "pos": "APPR",
          "before": " ",
          "after": " "
        },
        {
          "index": 10,
          "word": "al-Qaida",
          "originalText": "al-Qaida",
          "characterOffsetBegin": 60,
          "characterOffsetEnd": 68,
          "pos": "NE",
          "before": " ",
          "after": " "
        },
        {
          "index": 11,
          "word": "nach",
          "originalText": "nach",
          "characterOffsetBegin": 69,
          "characterOffsetEnd": 73,
          "pos": "APPR",
          "before": " ",
          "after": " "
        },
        {
          "index": 12,
          "word": "gescheiterten",
          "originalText": "gescheiterten",
          "characterOffsetBegin": 74,
          "characterOffsetEnd": 87,
          "pos": "ADJA",
          "before": " ",
          "after": " "
        },
        {
          "index": 13,
          "word": "Rettungsversuch",
          "originalText": "Rettungsversuch",
          "characterOffsetBegin": 88,
          "characterOffsetEnd": 103,
          "pos": "NN",
          "before": " ",
          "after": " "
        },
        {
          "index": 14,
          "word": "im",
          "originalText": "im",
          "characterOffsetBegin": 104,
          "characterOffsetEnd": 106,
          "pos": "APPRART",
          "before": " ",
          "after": " "
        },
        {
          "index": 15,
          "word": "Jemen",
          "originalText": "Jemen",
          "characterOffsetBegin": 107,
          "characterOffsetEnd": 112,
          "pos": "NE",
          "before": " ",
          "after": ""
        },
        {
          "index": 16,
          "word": "'",
          "originalText": "'",
          "characterOffsetBegin": 112,
          "characterOffsetEnd": 113,
          "pos": "$[",
          "before": "",
          "after": ""
        }
      ]
    }
  ]
}