{
  "sentences": [
    {
      "index": 0,
      "basicDependencies": [
        {
          "dep": "ROOT",
          "governor": 0,
          "governorGloss": "ROOT",
          "dependent": 5,
          "dependentGloss": "tot"
        },
        {
          "dep": "name",
          "governor": 2,
          "governorGloss": "Millan",
          "dependent": 1,
          "dependentGloss": "Cesar"
        },
        {
          "dep": "nsubj",
          "governor": 5,
          "governorGloss": "tot",
          "dependent": 2,
          "dependentGloss": "Millan"
        },
        {
          "dep": "cop",
          "governor": 5,
          "governorGloss": "tot",
          "dependent": 3,
          "dependentGloss": "ist"
        },
        {
          "dep": "neg",
          "governor": 5,
          "governorGloss": "tot",
          "dependent": 4,
          "dependentGloss": "nicht"
        },
        {
          "dep": "punct",
          "governor": 5,
          "governorGloss": "tot",
          "dependent": 6,
          "dependentGloss": ":"
        },
        {
          "dep": "amod",
          "governor": 8,
          "governorGloss": "Whisperer",
          "dependent": 7,
          "dependentGloss": "Dog"
        },
        {
          "dep": "parataxis",
          "governor": 5,
          "governorGloss": "tot",
          "dependent": 8,
          "dependentGloss": "Whisperer"
        },
        {
          "dep": "det",
          "governor": 11,
          "governorGloss": "zirkuliert",
          "dependent": 9,
          "dependentGloss": "Death"
        },
        {
          "dep": "amod",
          "governor": 11,
          "governorGloss": "zirkuliert",
          "dependent": 10,
          "dependentGloss": "Hoax"
        },
        {
          "dep": "dep",
          "governor": 8,
          "governorGloss": "Whisperer",
          "dependent": 11,
          "dependentGloss": "zirkuliert"
        }
      ],
      "enhancedDependencies": [
        {
          "dep": "ROOT",
          "governor": 0,
          "governorGloss": "ROOT",
          "dependent": 5,
          "dependentGloss": "tot"
        },
        {
          "dep": "name",
          "governor": 2,
          "governorGloss": "Millan",
          "dependent": 1,
          "dependentGloss": "Cesar"
        },
        {
          "dep": "nsubj",
          "governor": 5,
          "governorGloss": "tot",
          "dependent": 2,
          "dependentGloss": "Millan"
        },
        {
          "dep": "cop",
          "governor": 5,
          "governorGloss": "tot",
          "dependent": 3,
          "dependentGloss": "ist"
        },
        {
          "dep": "neg",
          "governor": 5,
          "governorGloss": "tot",
          "dependent": 4,
          "dependentGloss": "nicht"
        },
        {
          "dep": "punct",
          "governor": 5,
          "governorGloss": "tot",
          "dependent": 6,
          "dependentGloss": ":"
        },
        {
          "dep": "amod",
          "governor": 8,
          "governorGloss": "Whisperer",
          "dependent": 7,
          "dependentGloss": "Dog"
        },
        {
          "dep": "parataxis",
          "governor": 5,
          "governorGloss": "tot",
          "dependent": 8,
          "dependentGloss": "Whisperer"
        },
        {
          "dep": "det",
          "governor": 11,
          "governorGloss": "zirkuliert",
          "dependent": 9,
          "dependentGloss": "Death"
        },
        {
          "dep": "amod",
          "governor": 11,
          "governorGloss": "zirkuliert",
          "dependent": 10,
          "dependentGloss": "Hoax"
        },
        {
          "dep": "dep",
          "governor": 8,
          "governorGloss": "Whisperer",
          "dependent": 11,
          "dependentGloss": "zirkuliert"
        }
      ],
      "enhancedPlusPlusDependencies": [
        {
          "dep": "ROOT",
          "governor": 0,
          "governorGloss": "ROOT",
          "dependent": 5,
          "dependentGloss": "tot"
        },
        {
          "dep": "name",
          "governor": 2,
          "governorGloss": "Millan",
          "dependent": 1,
          "dependentGloss": "Cesar"
        },
        {
          "dep": "nsubj",
          "governor": 5,
          "governorGloss": "tot",
          "dependent": 2,
          "dependentGloss": "Millan"
        },
        {
          "dep": "cop",
          "governor": 5,
          "governorGloss": "tot",
          "dependent": 3,
          "dependentGloss": "ist"
        },
        {
          "dep": "neg",
          "governor": 5,
          "governorGloss": "tot",
          "dependent": 4,
          "dependentGloss": "nicht"
        },
        {
          "dep": "punct",
          "governor": 5,
          "governorGloss": "tot",
          "dependent": 6,
          "dependentGloss": ":"
        },
        {
          "dep": "amod",
          "governor": 8,
          "governorGloss": "Whisperer",
          "dependent": 7,
          "dependentGloss": "Dog"
        },
        {
          "dep": "parataxis",
          "governor": 5,
          "governorGloss": "tot",
          "dependent": 8,
          "dependentGloss": "Whisperer"
        },
        {
          "dep": "det",
          "governor": 11,
          "governorGloss": "zirkuliert",
          "dependent": 9,
          "dependentGloss": "Death"
        },
        {
          "dep": "amod",
          "governor": 11,
          "governorGloss": "zirkuliert",
          "dependent": 10,
          "dependentGloss": "Hoax"
        },
        {
          "dep": "dep",
          "governor": 8,
          "governorGloss": "Whisperer",
          "dependent": 11,
          "dependentGloss": "zirkuliert"
        }
      ],
      "tokens": [
        {
          "index": 1,
          "word": "Cesar",
          "originalText": "Cesar",
          "characterOffsetBegin": 0,
          "characterOffsetEnd": 5,
          "pos": "NE",
          "before": "",
          "after": " "
        },
        {
          "index": 2,
          "word": "Millan",
          "originalText": "Millan",
          "characterOffsetBegin": 6,
          "characterOffsetEnd": 12,
          "pos": "NE",
          "before": " ",
          "after": " "
        },
        {
          "index": 3,
          "word": "ist",
          "originalText": "ist",
          "characterOffsetBegin": 13,
          "characterOffsetEnd": 16,
          "pos": "VAFIN",
          "before": " ",
          "after": " "
        },
        {
          "index": 4,
          "word": "nicht",
          "originalText": "nicht",
          "characterOffsetBegin": 17,
          "characterOffsetEnd": 22,
          "pos": "PTKNEG",
          "before": " ",
          "after": " "
        },
        {
          "index": 5,
          "word": "tot",
          "originalText": "tot",
          "characterOffsetBegin": 23,
          "characterOffsetEnd": 26,
          "pos": "ADJD",
          "before": " ",
          "after": ""
        },
        {
          "index": 6,
          "word": ":",
          "originalText": ":",
          "characterOffsetBegin": 26,
          "characterOffsetEnd": 27,
          "pos": "$.",
          "before": "",
          "after": " "
        },
        {
          "index": 7,
          "word": "Dog",
          "originalText": "Dog",
          "characterOffsetBegin": 28,
          "characterOffsetEnd": 31,
          "pos": "FM",
          "before": " ",
          "after": " "
        },
        {
          "index": 8,
          "word": "Whisperer",
          "originalText": "Whisperer",
          "characterOffsetBegin": 32,
          "characterOffsetEnd": 41,
          "pos": "FM",
          "before": " ",
          "after": " "
        },
        {
          "index": 9,
          "word": "Death",
          "originalText": "Death",
          "characterOffsetBegin": 42,
          "characterOffsetEnd": 47,
          "pos": "FM",
          "before": " ",
          "after": " "
        },
        {
          "index": 10,
          "word": "Hoax",
          "originalText": "Hoax",
          "characterOffsetBegin": 48,
          "characterOffsetEnd": 52,
          "pos": "FM",
          "before": " ",
          "after": " "
        },
        {
          "index": 11,
          "word": "zirkuliert",
          "originalText": "zirkuliert",
          "characterOffsetBegin": 53,
          "characterOffsetEnd": 63,
          "pos": "VVFIN",
          "before": " ",
          "after": ""
        }
      ]
    }
  ]
}