{
  "sentences": [
    {
      "index": 0,
      "basicDependencies": [
        {
          "dep": "ROOT",
          "governor": 0,
          "governorGloss": "ROOT",
          "dependent": 1,
          "dependentGloss": "UPDATE"
        },
        {
          "dep": "punct",
          "governor": 1,
          "governorGloss": "UPDATE",
          "dependent": 2,
          "dependentGloss": ":"
        },
        {
          "dep": "nsubj",
          "governor": 8,
          "governorGloss": "gestohlen",
          "dependent": 3,
          "dependentGloss": "BATMAN"
        },
        {
          "dep": "advmod",
          "governor": 8,
          "governorGloss": "gestohlen",
          "dependent": 4,
          "dependentGloss": "v"
        },
        {
          "dep": "amod",
          "governor": 6,
          "governorGloss": "Batmobile",
          "dependent": 5,
          "dependentGloss": "SUPERMAN"
        },
        {
          "dep": "dobj",
          "governor": 8,
          "governorGloss": "gestohlen",
          "dependent": 6,
          "dependentGloss": "Batmobile"
        },
        {
          "dep": "advmod",
          "governor": 8,
          "governorGloss": "gestohlen",
          "dependent": 7,
          "dependentGloss": "angeblich"
        },
        {
          "dep": "parataxis",
          "governor": 1,
          "governorGloss": "UPDATE",
          "dependent": 8,
          "dependentGloss": "gestohlen"
        },
        {
          "dep": "case",
          "governor": 10,
          "governorGloss": "-LRB-",
          "dependent": 9,
          "dependentGloss": "von"
        },
        {
          "dep": "nmod",
          "governor": 11,
          "governorGloss": "Schocker",
          "dependent": 10,
          "dependentGloss": "-LRB-"
        },
        {
          "dep": "aux",
          "governor": 8,
          "governorGloss": "gestohlen",
          "dependent": 11,
          "dependentGloss": "Schocker"
        },
        {
          "dep": "punct",
          "governor": 8,
          "governorGloss": "gestohlen",
          "dependent": 12,
          "dependentGloss": "!"
        },
        {
          "dep": "dep",
          "governor": 1,
          "governorGloss": "UPDATE",
          "dependent": 13,
          "dependentGloss": "-RRB-"
        }
      ],
      "enhancedDependencies": [
        {
          "dep": "ROOT",
          "governor": 0,
          "governorGloss": "ROOT",
          "dependent": 1,
          "dependentGloss": "UPDATE"
        },
        {
          "dep": "punct",
          "governor": 1,
          "governorGloss": "UPDATE",
          "dependent": 2,
          "dependentGloss": ":"
        },
        {
          "dep": "nsubj",
          "governor": 8,
          "governorGloss": "gestohlen",
          "dependent": 3,
          "dependentGloss": "BATMAN"
        },
        {
          "dep": "advmod",
          "governor": 8,
          "governorGloss": "gestohlen",
          "dependent": 4,
          "dependentGloss": "v"
        },
        {
          "dep": "amod",
          "governor": 6,
          "governorGloss": "Batmobile",
          "dependent": 5,
          "dependentGloss": "SUPERMAN"
        },
        {
          "dep": "dobj",
          "governor": 8,
          "governorGloss": "gestohlen",
          "dependent": 6,
          "dependentGloss": "Batmobile"
        },
        {
          "dep": "advmod",
          "governor": 8,
          "governorGloss": "gestohlen",
          "dependent": 7,
          "dependentGloss": "angeblich"
        },
        {
          "dep": "parataxis",
          "governor": 1,
          "governorGloss": "UPDATE",
          "dependent": 8,
          "dependentGloss": "gestohlen"
        },
        {
          "dep": "case",
          "governor": 10,
          "governorGloss": "-LRB-",
          "dependent": 9,
          "dependentGloss": "von"
        },
        {
          "dep": "nmod",
          "governor": 11,
          "governorGloss": "Schocker",
          "dependent": 10,
          "dependentGloss": "-LRB-"
        },
        {
          "dep": "aux",
          "governor": 8,
          "governorGloss": "gestohlen",
          "dependent": 11,
          "dependentGloss": "Schocker"
        },
        {
          "dep": "punct",
          "governor": 8,
          "governorGloss": "gestohlen",
          "dependent": 12,
          "dependentGloss": "!"
        },
        {
          "dep": "dep",
          "governor": 1,
          "governorGloss": "UPDATE",
          "dependent": 13,
          "dependentGloss": "-RRB-"
        }
      ],
      "enhancedPlusPlusDependencies": [
        {
          "dep": "ROOT",
          "governor": 0,
          "governorGloss": "ROOT",
          "dependent": 1,
          "dependentGloss": "UPDATE"
        },
        {
          "dep": "punct",
          "governor": 1,
          "governorGloss": "UPDATE",
          "dependent": 2,
          "dependentGloss": ":"
        },
        {
          "dep": "nsubj",
          "governor": 8,
          "governorGloss": "gestohlen",
          "dependent": 3,
          "dependentGloss": "BATMAN"
        },
        {
          "dep": "advmod",
          "governor": 8,
          "governorGloss": "gestohlen",
          "dependent": 4,
          "dependentGloss": "v"
        },
        {
          "dep": "amod",
          "governor": 6,
          "governorGloss": "Batmobile",
          "dependent": 5,
          "dependentGloss": "SUPERMAN"
        },
        {
          "dep": "dobj",
          "governor": 8,
          "governorGloss": "gestohlen",
          "dependent": 6,
          "dependentGloss": "Batmobile"
        },
        {
          "dep": "advmod",
          "governor": 8,
          "governorGloss": "gestohlen",
          "dependent": 7,
          "dependentGloss": "angeblich"
        },
        {
          "dep": "parataxis",
          "governor": 1,
          "governorGloss": "UPDATE",
          "dependent": 8,
          "dependentGloss": "gestohlen"
        },
        {
          "dep": "case",
          "governor": 10,
          "governorGloss": "-LRB-",
          "dependent": 9,
          "dependentGloss": "von"
        },
        {
          "dep": "nmod",
          "governor": 11,
          "governorGloss": "Schocker",
          "dependent": 10,
          "dependentGloss": "-LRB-"
        },
        {
          "dep": "aux",
          "governor": 8,
          "governorGloss": "gestohlen",
          "dependent": 11,
          "dependentGloss": "Schocker"
        },
        {
          "dep": "punct",
          "governor": 8,
          "governorGloss": "gestohlen",
          "dependent": 12,
          "dependentGloss": "!"
        },
        {
          "dep": "dep",
          "governor": 1,
          "governorGloss": "UPDATE",
          "dependent": 13,
          "dependentGloss": "-RRB-"
        }
      ],
      "tokens": [
        {
          "index": 1,
          "word": "UPDATE",
          "originalText": "UPDATE",
          "characterOffsetBegin": 0,
          "characterOffsetEnd": 6,
          "pos": "NN",
          "before": "",
          "after": ""
        },
        {
          "index": 2,
          "word": ":",
          "originalText": ":",
          "characterOffsetBegin": 6,
          "characterOffsetEnd": 7,
          "pos": "$.",
          "before": "",
          "after": " "
        },
        {
          "index": 3,
          "word": "BATMAN",
          "originalText": "BATMAN",
          "characterOffsetBegin": 8,
          "characterOffsetEnd": 14,
          "pos": "NE",
          "before": " ",
          "after": " "
        },
        {
          "index": 4,
          "word": "v",
          "originalText": "v",
          "characterOffsetBegin": 15,
          "characterOffsetEnd": 16,
          "pos": "VVFIN",
          "before": " ",
          "after": " "
        },
        {
          "index": 5,
          "word": "SUPERMAN",
          "originalText": "SUPERMAN",
          "characterOffsetBegin": 17,
          "characterOffsetEnd": 25,
          "pos": "NE",
          "before": " ",
          "after": " "
        },
        {
          "index": 6,
          "word": "Batmobile",
          "originalText": "Batmobile",
          "characterOffsetBegin": 26,
          "characterOffsetEnd": 35,
          "pos": "NN",
          "before": " ",
          "after": " "
        },
        {
          "index": 7,
          "word": "angeblich",
          "originalText": "angeblich",
          "characterOffsetBegin": 36,
          "characterOffsetEnd": 45,
          "pos": "ADJD",
          "before": " ",
          "after": " "
        },
        {
          "index": 8,
          "word": "gestohlen",
          "originalText": "gestohlen",
          "characterOffsetBegin": 46,
          "characterOffsetEnd": 55,
          "pos": "VVPP",
          "before": " ",
          "after": " "
        },
        {
          "index": 9,
          "word": "von",
          "originalText": "von",
          "characterOffsetBegin": 56,
          "characterOffsetEnd": 59,
          "pos": "APPR",
          "before": " ",
          "after": " "
        },
        {
          "index": 10,
          "word": "-LRB-",
          "originalText": "(",
          "characterOffsetBegin": 60,
          "characterOffsetEnd": 61,
          "pos": "TRUNC",
          "before": " ",
          "after": ""
        },
        {
          "index": 11,
          "word": "Schocker",
          "originalText": "Schocker",
          "characterOffsetBegin": 61,
          "characterOffsetEnd": 69,
          "pos": "NN",
          "before": "",
          "after": ""
        },
        {
          "index": 12,
          "word": "!",
          "originalText": "!",
          "characterOffsetBegin": 69,
          "characterOffsetEnd": 70,
          "pos": "$.",
          "before": "",
          "after": ""
        },
        {
          "index": 13,
          "word": "-RRB-",
          "originalText": ")",
          "characterOffsetBegin": 70,
          "characterOffsetEnd": 71,
          "pos": "TRUNC",
          "before": "",
          "after": " "
        }
      ]
    },
    {
      "index": 1,
      "basicDependencies": [
        {
          "dep": "ROOT",
          "governor": 0,
          "governorGloss": "ROOT",
          "dependent": 2,
          "dependentGloss": "Einheimischen"
        },
        {
          "dep": "name",
          "governor": 2,
          "governorGloss": "Einheimischen",
          "dependent": 1,
          "dependentGloss": "Detroit"
        }
      ],
      "enhancedDependencies": [
        {
          "dep": "ROOT",
          "governor": 0,
          "governorGloss": "ROOT",
          "dependent": 2,
          "dependentGloss": "Einheimischen"
        },
        {
          "dep": "name",
          "governor": 2,
          "governorGloss": "Einheimischen",
          "dependent": 1,
          "dependentGloss": "Detroit"
        }
      ],
      "enhancedPlusPlusDependencies": [
        {
          "dep": "ROOT",
          "governor": 0,
          "governorGloss": "ROOT",
          "dependent": 2,
          "dependentGloss": "Einheimischen"
        },
        {
          "dep": "name",
          "governor": 2,
          "governorGloss": "Einheimischen",
          "dependent": 1,
          "dependentGloss": "Detroit"
        }
      ],
      "tokens": [
        {
          "index": 1,
          "word": "Detroit",
          "originalText": "Detroit",
          "characterOffsetBegin": 72,
          "characterOffsetEnd": 79,
          "pos": "NE",
          "before": " ",
          "after": " "
        },
        {
          "index": 2,
          "word": "Einheimischen",
          "originalText": "Einheimischen",
          "characterOffsetBegin": 80,
          "characterOffsetEnd": 93,
          "pos": "NN",
          "before": " ",
          "after": ""
        }
      ]
    }
  ]
}