{
  "sentences": [
    {
      "index": 0,
      "basicDependencies": [
        {
          "dep": "ROOT",
          "governor": 0,
          "governorGloss": "ROOT",
          "dependent": 1,
          "dependentGloss": "Gerücht"
        },
        {
          "dep": "punct",
          "governor": 1,
          "governorGloss": "Gerücht",
          "dependent": 2,
          "dependentGloss": ":"
        },
        {
          "dep": "amod",
          "governor": 4,
          "governorGloss": "schießen",
          "dependent": 3,
          "dependentGloss": "Apfel"
        },
        {
          "dep": "appos",
          "governor": 1,
          "governorGloss": "Gerücht",
          "dependent": 4,
          "dependentGloss": "schießen"
        },
        {
          "dep": "case",
          "governor": 7,
          "governorGloss": "Stunden",
          "dependent": 5,
          "dependentGloss": "für"
        },
        {
          "dep": "nummod",
          "governor": 7,
          "governorGloss": "Stunden",
          "dependent": 6,
          "dependentGloss": "19"
        },
        {
          "dep": "nmod",
          "governor": 4,
          "governorGloss": "schießen",
          "dependent": 7,
          "dependentGloss": "Stunden"
        },
        {
          "dep": "case",
          "governor": 10,
          "governorGloss": "Watch",
          "dependent": 8,
          "dependentGloss": "von"
        },
        {
          "dep": "name",
          "governor": 10,
          "governorGloss": "Watch",
          "dependent": 9,
          "dependentGloss": "Apple"
        },
        {
          "dep": "nmod",
          "governor": 4,
          "governorGloss": "schießen",
          "dependent": 10,
          "dependentGloss": "Watch"
        },
        {
          "dep": "amod",
          "governor": 12,
          "governorGloss": "Leben",
          "dependent": 11,
          "dependentGloss": "Batterie"
        },
        {
          "dep": "dobj",
          "governor": 4,
          "governorGloss": "schießen",
          "dependent": 12,
          "dependentGloss": "Leben"
        },
        {
          "dep": "case",
          "governor": 15,
          "governorGloss": "Bedingungen",
          "dependent": 13,
          "dependentGloss": "unter"
        },
        {
          "dep": "amod",
          "governor": 15,
          "governorGloss": "Bedingungen",
          "dependent": 14,
          "dependentGloss": "normalen"
        },
        {
          "dep": "nmod",
          "governor": 12,
          "governorGloss": "Leben",
          "dependent": 15,
          "dependentGloss": "Bedingungen"
        },
        {
          "dep": "punct",
          "governor": 15,
          "governorGloss": "Bedingungen",
          "dependent": 16,
          "dependentGloss": ","
        },
        {
          "dep": "nummod",
          "governor": 18,
          "governorGloss": "Stunden",
          "dependent": 17,
          "dependentGloss": "2,5"
        },
        {
          "dep": "nmod",
          "governor": 22,
          "governorGloss": "Einsatz",
          "dependent": 18,
          "dependentGloss": "Stunden"
        },
        {
          "dep": "punct",
          "governor": 22,
          "governorGloss": "Einsatz",
          "dependent": 19,
          "dependentGloss": "`"
        },
        {
          "dep": "det",
          "governor": 22,
          "governorGloss": "Einsatz",
          "dependent": 20,
          "dependentGloss": "schwerer"
        },
        {
          "dep": "case",
          "governor": 20,
          "governorGloss": "schwerer",
          "dependent": 21,
          "dependentGloss": "'"
        },
        {
          "dep": "conj",
          "governor": 15,
          "governorGloss": "Bedingungen",
          "dependent": 22,
          "dependentGloss": "Einsatz"
        }
      ],
      "enhancedDependencies": [
        {
          "dep": "ROOT",
          "governor": 0,
          "governorGloss": "ROOT",
          "dependent": 1,
          "dependentGloss": "Gerücht"
        },
        {
          "dep": "punct",
          "governor": 1,
          "governorGloss": "Gerücht",
          "dependent": 2,
          "dependentGloss": ":"
        },
        {
          "dep": "amod",
          "governor": 4,
          "governorGloss": "schießen",
          "dependent": 3,
          "dependentGloss": "Apfel"
        },
        {
          "dep": "appos",
          "governor": 1,
          "governorGloss": "Gerücht",
          "dependent": 4,
          "dependentGloss": "schießen"
        },
        {
          "dep": "case",
          "governor": 7,
          "governorGloss": "Stunden",
          "dependent": 5,
          "dependentGloss": "für"
        },
        {
          "dep": "nummod",
          "governor": 7,
          "governorGloss": "Stunden",
          "dependent": 6,
          "dependentGloss": "19"
        },
        {
          "dep": "nmod",
          "governor": 4,
          "governorGloss": "schießen",
          "dependent": 7,
          "dependentGloss": "Stunden"
        },
        {
          "dep": "case",
          "governor": 10,
          "governorGloss": "Watch",
          "dependent": 8,
          "dependentGloss": "von"
        },
        {
          "dep": "name",
          "governor": 10,
          "governorGloss": "Watch",
          "dependent": 9,
          "dependentGloss": "Apple"
        },
        {
          "dep": "nmod",
          "governor": 4,
          "governorGloss": "schießen",
          "dependent": 10,
          "dependentGloss": "Watch"
        },
        {
          "dep": "amod",
          "governor": 12,
          "governorGloss": "Leben",
          "dependent": 11,
          "dependentGloss": "Batterie"
        },
        {
          "dep": "dobj",
          "governor": 4,
          "governorGloss": "schießen",
          "dependent": 12,
          "dependentGloss": "Leben"
        },
        {
          "dep": "case",
          "governor": 15,
          "governorGloss": "Bedingungen",
          "dependent": 13,
          "dependentGloss": "unter"
        },
        {
          "dep": "amod",
          "governor": 15,
          "governorGloss": "Bedingungen",
          "dependent": 14,
          "dependentGloss": "normalen"
        },
        {
          "dep": "nmod",
          "governor": 12,
          "governorGloss": "Leben",
          "dependent": 15,
          "dependentGloss": "Bedingungen"
        },
        {
          "dep": "punct",
          "governor": 15,
          "governorGloss": "Bedingungen",
          "dependent": 16,
          "dependentGloss": ","
        },
        {
          "dep": "nummod",
          "governor": 18,
          "governorGloss": "Stunden",
          "dependent": 17,
          "dependentGloss": "2,5"
        },
        {
          "dep": "nmod",
          "governor": 22,
          "governorGloss": "Einsatz",
          "dependent": 18,
          "dependentGloss": "Stunden"
        },
        {
          "dep": "punct",
          "governor": 22,
          "governorGloss": "Einsatz",
          "dependent": 19,
          "dependentGloss": "`"
        },
        {
          "dep": "det",
          "governor": 22,
          "governorGloss": "Einsatz",
          "dependent": 20,
          "dependentGloss": "schwerer"
        },
        {
          "dep": "case",
          "governor": 20,
          "governorGloss": "schwerer",
          "dependent": 21,
          "dependentGloss": "'"
        },
        {
          "dep": "conj",
          "governor": 15,
          "governorGloss": "Bedingungen",
          "dependent": 22,
          "dependentGloss": "Einsatz"
        }
      ],
      "enhancedPlusPlusDependencies": [
        {
          "dep": "ROOT",
          "governor": 0,
          "governorGloss": "ROOT",
          "dependent": 1,
          "dependentGloss": "Gerücht"
        },
        {
          "dep": "punct",
          "governor": 1,
          "governorGloss": "Gerücht",
          "dependent": 2,
          "dependentGloss": ":"
        },
        {
          "dep": "amod",
          "governor": 4,
          "governorGloss": "schießen",
          "dependent": 3,
          "dependentGloss": "Apfel"
        },
        {
          "dep": "appos",
          "governor": 1,
          "governorGloss": "Gerücht",
          "dependent": 4,
          "dependentGloss": "schießen"
        },
        {
          "dep": "case",
          "governor": 7,
          "governorGloss": "Stunden",
          "dependent": 5,
          "dependentGloss": "für"
        },
        {
          "dep": "nummod",
          "governor": 7,
          "governorGloss": "Stunden",
          "dependent": 6,
          "dependentGloss": "19"
        },
        {
          "dep": "nmod",
          "governor": 4,
          "governorGloss": "schießen",
          "dependent": 7,
          "dependentGloss": "Stunden"
        },
        {
          "dep": "case",
          "governor": 10,
          "governorGloss": "Watch",
          "dependent": 8,
          "dependentGloss": "von"
        },
        {
          "dep": "name",
          "governor": 10,
          "governorGloss": "Watch",
          "dependent": 9,
          "dependentGloss": "Apple"
        },
        {
          "dep": "nmod",
          "governor": 4,
          "governorGloss": "schießen",
          "dependent": 10,
          "dependentGloss": "Watch"
        },
        {
          "dep": "amod",
          "governor": 12,
          "governorGloss": "Leben",
          "dependent": 11,
          "dependentGloss": "Batterie"
        },
        {
          "dep": "dobj",
          "governor": 4,
          "governorGloss": "schießen",
          "dependent": 12,
          "dependentGloss": "Leben"
        },
        {
          "dep": "case",
          "governor": 15,
          "governorGloss": "Bedingungen",
          "dependent": 13,
          "dependentGloss": "unter"
        },
        {
          "dep": "amod",
          "governor": 15,
          "governorGloss": "Bedingungen",
          "dependent": 14,
          "dependentGloss": "normalen"
        },
        {
          "dep": "nmod",
          "governor": 12,
          "governorGloss": "Leben",
          "dependent": 15,
          "dependentGloss": "Bedingungen"
        },
        {
          "dep": "punct",
          "governor": 15,
          "governorGloss": "Bedingungen",
          "dependent": 16,
          "dependentGloss": ","
        },
        {
          "dep": "nummod",
          "governor": 18,
          "governorGloss": "Stunden",
          "dependent": 17,
          "dependentGloss": "2,5"
        },
        {
          "dep": "nmod",
          "governor": 22,
          "governorGloss": "Einsatz",
          "dependent": 18,
          "dependentGloss": "Stunden"
        },
        {
          "dep": "punct",
          "governor": 22,
          "governorGloss": "Einsatz",
          "dependent": 19,
          "dependentGloss": "`"
        },
        {
          "dep": "det",
          "governor": 22,
          "governorGloss": "Einsatz",
          "dependent": 20,
          "dependentGloss": "schwerer"
        },
        {
          "dep": "case",
          "governor": 20,
          "governorGloss": "schwerer",
          "dependent": 21,
          "dependentGloss": "'"
        },
        {
          "dep": "conj",
          "governor": 15,
          "governorGloss": "Bedingungen",
          "dependent": 22,
          "dependentGloss": "Einsatz"
        }
      ],
      "tokens": [
        {
          "index": 1,
          "word": "Gerücht",
          "originalText": "Gerücht",
          "characterOffsetBegin": 0,
          "characterOffsetEnd": 7,
          "pos": "NN",
          "before": "",
          "after": ""
        },
        {
          "index": 2,
          "word": ":",
          "originalText": ":",
          "characterOffsetBegin": 7,
          "characterOffsetEnd": 8,
          "pos": "$.",
          "before": "",
          "after": " "
        },
        {
          "index": 3,
          "word": "Apfel",
          "originalText": "Apfel",
          "characterOffsetBegin": 9,
          "characterOffsetEnd": 14,
          "pos": "NN",
          "before": " ",
          "after": " "
        },
        {
          "index": 4,
          "word": "schießen",
          "originalText": "schießen",
          "characterOffsetBegin": 15,
          "characterOffsetEnd": 23,
          "pos": "VVINF",
          "before": " ",
          "after": " "
        },
        {
          "index": 5,
          "word": "für",
          "originalText": "für",
          "characterOffsetBegin": 24,
          "characterOffsetEnd": 27,
          "pos": "APPR",
          "before": " ",
          "after": " "
        },
        {
          "index": 6,
          "word": "19",
          "originalText": "19",
          "characterOffsetBegin": 28,
          "characterOffsetEnd": 30,
          "pos": "CARD",
          "before": " ",
          "after": " "
        },
        {
          "index": 7,
          "word": "Stunden",
          "originalText": "Stunden",
          "characterOffsetBegin": 31,
          "characterOffsetEnd": 38,
          "pos": "NN",
          "before": " ",
          "after": " "
        },
        {
          "index": 8,
          "word": "von",
          "originalText": "von",
          "characterOffsetBegin": 39,
          "characterOffsetEnd": 42,
          "pos": "APPR",
          "before": " ",
          "after": " "
        },
        {
          "index": 9,
          "word": "Apple",
          "originalText": "Apple",
          "characterOffsetBegin": 43,
          "characterOffsetEnd": 48,
          "pos": "NE",
          "before": " ",
          "after": " "
        },
        {
          "index": 10,
          "word": "Watch",
          "originalText": "Watch",
          "characterOffsetBegin": 49,
          "characterOffsetEnd": 54,
          "pos": "NE",
          "before": " ",
          "after": " "
        },
        {
          "index": 11,
          "word": "Batterie",
          "originalText": "Batterie",
          "characterOffsetBegin": 55,
          "characterOffsetEnd": 63,
          "pos": "NE",
          "before": " ",
          "after": " "
        },
        {
          "index": 12,
          "word": "Leben",
          "originalText": "Leben",
          "characterOffsetBegin": 64,
          "characterOffsetEnd": 69,
          "pos": "NN",
          "before": " ",
          "after": " "
        },
        {
          "index": 13,
          "word": "unter",
          "originalText": "unter",
          "characterOffsetBegin": 70,
          "characterOffsetEnd": 75,
          "pos": "APPR",
          "before": " ",
          "after": " "
        },
        {
          "index": 14,
          "word": "normalen",
          "originalText": "normalen",
          "characterOffsetBegin": 76,
          "characterOffsetEnd": 84,
          "pos": "ADJA",
          "before": " ",
          "after": " "
        },
        {
          "index": 15,
          "word": "Bedingungen",
          "originalText": "Bedingungen",
          "characterOffsetBegin": 85,
          "characterOffsetEnd": 96,
          "pos": "NN",
          "before": " ",
          "after": ""
        },
        {
          "index": 16,
          "word": ",",
          "originalText": ",",
          "characterOffsetBegin": 96,
          "characterOffsetEnd": 97,
          "pos": "$,",
          "before": "",
          "after": " "
        },
        {
          "index": 17,
          "word": "2,5",
          "originalText": "2,5",
          "characterOffsetBegin": 98,
          "characterOffsetEnd": 101,
          "pos": "CARD",
          "before": " ",
          "after": " "
        },
        {
          "index": 18,
          "word": "Stunden",
          "originalText": "Stunden",
          "characterOffsetBegin": 102,
          "characterOffsetEnd": 109,
          "pos": "NN",
          "before": " ",
          "after": " "
        },
        {
          "index": 19,
          "word": "`",
          "originalText": "'",
          "characterOffsetBegin": 110,
          "characterOffsetEnd": 111,
          "pos": "CARD",
          "before": " ",
          "after": ""
        },
        {
          "index": 20,
          "word": "schwerer",
          "originalText": "schwerer",
          "characterOffsetBegin": 111,
          "characterOffsetEnd": 119,
          "pos": "ADJA",
          "before": "",
          "after": ""
        },
        {
          "index": 21,
          "word": "'",
          "originalText": "'",
          "characterOffsetBegin": 119,
          "characterOffsetEnd": 120,
          "pos": "$[",
          "before": "",
          "after": " "
        },
        {
          "index": 22,
          "word": "Einsatz",
          "originalText": "Einsatz",
          "characterOffsetBegin": 121,
          "characterOffsetEnd": 128,
          "pos": "NN",
          "before": " ",
          "after": ""
        }
      ]
    }
  ]
}