{
  "sentences": [
    {
      "index": 0,
      "basicDependencies": [
        {
          "dep": "ROOT",
          "governor": 0,
          "governorGloss": "ROOT",
          "dependent": 2,
          "dependentGloss": "Staats-Militanten"
        },
        {
          "dep": "nsubj",
          "governor": 2,
          "governorGloss": "Staats-Militanten",
          "dependent": 1,
          "dependentGloss": "Islamische"
        },
        {
          "dep": "advmod",
          "governor": 2,
          "governorGloss": "Staats-Militanten",
          "dependent": 3,
          "dependentGloss": "behaupten"
        },
        {
          "dep": "punct",
          "governor": 2,
          "governorGloss": "Staats-Militanten",
          "dependent": 4,
          "dependentGloss": ","
        },
        {
          "dep": "advmod",
          "governor": 11,
          "governorGloss": "Foley",
          "dependent": 5,
          "dependentGloss": "enthauptet"
        },
        {
          "dep": "aux",
          "governor": 7,
          "governorGloss": "werden",
          "dependent": 6,
          "dependentGloss": "zu"
        },
        {
          "dep": "auxpass",
          "governor": 11,
          "governorGloss": "Foley",
          "dependent": 7,
          "dependentGloss": "werden"
        },
        {
          "dep": "nsubjpass",
          "governor": 11,
          "governorGloss": "Foley",
          "dependent": 8,
          "dependentGloss": "US-Journalist"
        },
        {
          "dep": "name",
          "governor": 10,
          "governorGloss": "Wright",
          "dependent": 9,
          "dependentGloss": "James"
        },
        {
          "dep": "appos",
          "governor": 8,
          "governorGloss": "US-Journalist",
          "dependent": 10,
          "dependentGloss": "Wright"
        },
        {
          "dep": "conj",
          "governor": 2,
          "governorGloss": "Staats-Militanten",
          "dependent": 11,
          "dependentGloss": "Foley"
        }
      ],
      "enhancedDependencies": [
        {
          "dep": "ROOT",
          "governor": 0,
          "governorGloss": "ROOT",
          "dependent": 2,
          "dependentGloss": "Staats-Militanten"
        },
        {
          "dep": "nsubj",
          "governor": 2,
          "governorGloss": "Staats-Militanten",
          "dependent": 1,
          "dependentGloss": "Islamische"
        },
        {
          "dep": "advmod",
          "governor": 2,
          "governorGloss": "Staats-Militanten",
          "dependent": 3,
          "dependentGloss": "behaupten"
        },
        {
          "dep": "punct",
          "governor": 2,
          "governorGloss": "Staats-Militanten",
          "dependent": 4,
          "dependentGloss": ","
        },
        {
          "dep": "advmod",
          "governor": 11,
          "governorGloss": "Foley",
          "dependent": 5,
          "dependentGloss": "enthauptet"
        },
        {
          "dep": "aux",
          "governor": 7,
          "governorGloss": "werden",
          "dependent": 6,
          "dependentGloss": "zu"
        },
        {
          "dep": "auxpass",
          "governor": 11,
          "governorGloss": "Foley",
          "dependent": 7,
          "dependentGloss": "werden"
        },
        {
          "dep": "nsubjpass",
          "governor": 11,
          "governorGloss": "Foley",
          "dependent": 8,
          "dependentGloss": "US-Journalist"
        },
        {
          "dep": "name",
          "governor": 10,
          "governorGloss": "Wright",
          "dependent": 9,
          "dependentGloss": "James"
        },
        {
          "dep": "appos",
          "governor": 8,
          "governorGloss": "US-Journalist",
          "dependent": 10,
          "dependentGloss": "Wright"
        },
        {
          "dep": "conj",
          "governor": 2,
          "governorGloss": "Staats-Militanten",
          "dependent": 11,
          "dependentGloss": "Foley"
        }
      ],
      "enhancedPlusPlusDependencies": [
        {
          "dep": "ROOT",
          "governor": 0,
          "governorGloss": "ROOT",
          "dependent": 2,
          "dependentGloss": "Staats-Militanten"
        },
        {
          "dep": "nsubj",
          "governor": 2,
          "governorGloss": "Staats-Militanten",
          "dependent": 1,
          "dependentGloss": "Islamische"
        },
        {
          "dep": "advmod",
          "governor": 2,
          "governorGloss": "Staats-Militanten",
          "dependent": 3,
          "dependentGloss": "behaupten"
        },
        {
          "dep": "punct",
          "governor": 2,
          "governorGloss": "Staats-Militanten",
          "dependent": 4,
          "dependentGloss": ","
        },
        {
          "dep": "advmod",
          "governor": 11,
          "governorGloss": "Foley",
          "dependent": 5,
          "dependentGloss": "enthauptet"
        },
        {
          "dep": "aux",
          "governor": 7,
          "governorGloss": "werden",
          "dependent": 6,
          "dependentGloss": "zu"
        },
        {
          "dep": "auxpass",
          "governor": 11,
          "governorGloss": "Foley",
          "dependent": 7,
          "dependentGloss": "werden"
        },
        {
          "dep": "nsubjpass",
          "governor": 11,
          "governorGloss": "Foley",
          "dependent": 8,
          "dependentGloss": "US-Journalist"
        },
        {
          "dep": "name",
          "governor": 10,
          "governorGloss": "Wright",
          "dependent": 9,
          "dependentGloss": "James"
        },
        {
          "dep": "appos",
          "governor": 8,
          "governorGloss": "US-Journalist",
          "dependent": 10,
          "dependentGloss": "Wright"
        },
        {
          "dep": "conj",
          "governor": 2,
          "governorGloss": "Staats-Militanten",
          "dependent": 11,
          "dependentGloss": "Foley"
        }
      ],
      "tokens": [
        {
          "index": 1,
          "word": "Islamische",
          "originalText": "Islamische",
          "characterOffsetBegin": 0,
          "characterOffsetEnd": 10,
          "pos": "ADJA",
          "before": "",
          "after": " "
        },
        {
          "index": 2,
          "word": "Staats-Militanten",
          "originalText": "Staats-Militanten",
          "characterOffsetBegin": 11,
          "characterOffsetEnd": 28,
          "pos": "NN",
          "before": " ",
          "after": " "
        },
        {
          "index": 3,
          "word": "behaupten",
          "originalText": "behaupten",
          "characterOffsetBegin": 29,
          "characterOffsetEnd": 38,
          "pos": "VVFIN",
          "before": " ",
          "after": ""
        },
        {
          "index": 4,
          "word": ",",
          "originalText": ",",
          "characterOffsetBegin": 38,
          "characterOffsetEnd": 39,
          "pos": "$,",
          "before": "",
          "after": " "
        },
        {
          "index": 5,
          "word": "enthauptet",
          "originalText": "enthauptet",
          "characterOffsetBegin": 40,
          "characterOffsetEnd": 50,
          "pos": "VVPP",
          "before": " ",
          "after": " "
        },
        {
          "index": 6,
          "word": "zu",
          "originalText": "zu",
          "characterOffsetBegin": 51,
          "characterOffsetEnd": 53,
          "pos": "PTKZU",
          "before": " ",
          "after": " "
        },
        {
          "index": 7,
          "word": "werden",
          "originalText": "werden",
          "characterOffsetBegin": 54,
          "characterOffsetEnd": 60,
          "pos": "VAINF",
          "before": " ",
          "after": " "
        },
        {
          "index": 8,
          "word": "US-Journalist",
          "originalText": "US-Journalist",
          "characterOffsetBegin": 61,
          "characterOffsetEnd": 74,
          "pos": "NN",
          "before": " ",
          "after": " "
        },
        {
          "index": 9,
          "word": "James",
          "originalText": "James",
          "characterOffsetBegin": 75,
          "characterOffsetEnd": 80,
          "pos": "NE",
          "before": " ",
          "after": " "
        },
        {
          "index": 10,
          "word": "Wright",
          "originalText": "Wright",
          "characterOffsetBegin": 81,
          "characterOffsetEnd": 87,
          "pos": "NE",
          "before": " ",
          "after": " "
        },
        {
          "index": 11,
          "word": "Foley",
          "originalText": "Foley",
          "characterOffsetBegin": 88,
          "characterOffsetEnd": 93,
          "pos": "NE",
          "before": " ",
          "after": ""
        }
      ]
    }
  ]
}