{
  "sentences": [
    {
      "index": 0,
      "basicDependencies": [
        {
          "dep": "ROOT",
          "governor": 0,
          "governorGloss": "ROOT",
          "dependent": 3,
          "dependentGloss": "Cub"
        },
        {
          "dep": "det",
          "governor": 3,
          "governorGloss": "Cub",
          "dependent": 1,
          "dependentGloss": "Das"
        },
        {
          "dep": "punct",
          "governor": 3,
          "governorGloss": "Cub",
          "dependent": 2,
          "dependentGloss": "``"
        },
        {
          "dep": "case",
          "governor": 5,
          "governorGloss": "Baghdadi",
          "dependent": 4,
          "dependentGloss": "von"
        },
        {
          "dep": "nmod",
          "governor": 3,
          "governorGloss": "Cub",
          "dependent": 5,
          "dependentGloss": "Baghdadi"
        },
        {
          "dep": "punct",
          "governor": 3,
          "governorGloss": "Cub",
          "dependent": 6,
          "dependentGloss": "``"
        },
        {
          "dep": "punct",
          "governor": 3,
          "governorGloss": "Cub",
          "dependent": 7,
          "dependentGloss": ":"
        },
        {
          "dep": "parataxis",
          "governor": 3,
          "governorGloss": "Cub",
          "dependent": 8,
          "dependentGloss": "Ist"
        },
        {
          "dep": "det",
          "governor": 10,
          "governorGloss": "Junge",
          "dependent": 9,
          "dependentGloss": "dieser"
        },
        {
          "dep": "det",
          "governor": 8,
          "governorGloss": "Ist",
          "dependent": 10,
          "dependentGloss": "Junge"
        },
        {
          "dep": "det",
          "governor": 13,
          "governorGloss": "Opfer",
          "dependent": 11,
          "dependentGloss": "das"
        },
        {
          "dep": "amod",
          "governor": 13,
          "governorGloss": "Opfer",
          "dependent": 12,
          "dependentGloss": "jüngste"
        },
        {
          "dep": "nsubj",
          "governor": 10,
          "governorGloss": "Junge",
          "dependent": 13,
          "dependentGloss": "Opfer"
        },
        {
          "dep": "case",
          "governor": 15,
          "governorGloss": "Isis",
          "dependent": 14,
          "dependentGloss": "von"
        },
        {
          "dep": "nmod",
          "governor": 13,
          "governorGloss": "Opfer",
          "dependent": 15,
          "dependentGloss": "Isis"
        },
        {
          "dep": "appos",
          "governor": 15,
          "governorGloss": "Isis",
          "dependent": 16,
          "dependentGloss": "Gebrauch"
        },
        {
          "dep": "case",
          "governor": 18,
          "governorGloss": "Kindersoldaten",
          "dependent": 17,
          "dependentGloss": "von"
        },
        {
          "dep": "nmod",
          "governor": 16,
          "governorGloss": "Gebrauch",
          "dependent": 18,
          "dependentGloss": "Kindersoldaten"
        },
        {
          "dep": "punct",
          "governor": 10,
          "governorGloss": "Junge",
          "dependent": 19,
          "dependentGloss": "?"
        }
      ],
      "enhancedDependencies": [
        {
          "dep": "ROOT",
          "governor": 0,
          "governorGloss": "ROOT",
          "dependent": 3,
          "dependentGloss": "Cub"
        },
        {
          "dep": "det",
          "governor": 3,
          "governorGloss": "Cub",
          "dependent": 1,
          "dependentGloss": "Das"
        },
        {
          "dep": "punct",
          "governor": 3,
          "governorGloss": "Cub",
          "dependent": 2,
          "dependentGloss": "``"
        },
        {
          "dep": "case",
          "governor": 5,
          "governorGloss": "Baghdadi",
          "dependent": 4,
          "dependentGloss": "von"
        },
        {
          "dep": "nmod",
          "governor": 3,
          "governorGloss": "Cub",
          "dependent": 5,
          "dependentGloss": "Baghdadi"
        },
        {
          "dep": "punct",
          "governor": 3,
          "governorGloss": "Cub",
          "dependent": 6,
          "dependentGloss": "``"
        },
        {
          "dep": "punct",
          "governor": 3,
          "governorGloss": "Cub",
          "dependent": 7,
          "dependentGloss": ":"
        },
        {
          "dep": "parataxis",
          "governor": 3,
          "governorGloss": "Cub",
          "dependent": 8,
          "dependentGloss": "Ist"
        },
        {
          "dep": "det",
          "governor": 10,
          "governorGloss": "Junge",
          "dependent": 9,
          "dependentGloss": "dieser"
        },
        {
          "dep": "det",
          "governor": 8,
          "governorGloss": "Ist",
          "dependent": 10,
          "dependentGloss": "Junge"
        },
        {
          "dep": "det",
          "governor": 13,
          "governorGloss": "Opfer",
          "dependent": 11,
          "dependentGloss": "das"
        },
        {
          "dep": "amod",
          "governor": 13,
          "governorGloss": "Opfer",
          "dependent": 12,
          "dependentGloss": "jüngste"
        },
        {
          "dep": "nsubj",
          "governor": 10,
          "governorGloss": "Junge",
          "dependent": 13,
          "dependentGloss": "Opfer"
        },
        {
          "dep": "case",
          "governor": 15,
          "governorGloss": "Isis",
          "dependent": 14,
          "dependentGloss": "von"
        },
        {
          "dep": "nmod",
          "governor": 13,
          "governorGloss": "Opfer",
          "dependent": 15,
          "dependentGloss": "Isis"
        },
        {
          "dep": "appos",
          "governor": 15,
          "governorGloss": "Isis",
          "dependent": 16,
          "dependentGloss": "Gebrauch"
        },
        {
          "dep": "case",
          "governor": 18,
          "governorGloss": "Kindersoldaten",
          "dependent": 17,
          "dependentGloss": "von"
        },
        {
          "dep": "nmod",
          "governor": 16,
          "governorGloss": "Gebrauch",
          "dependent": 18,
          "dependentGloss": "Kindersoldaten"
        },
        {
          "dep": "punct",
          "governor": 10,
          "governorGloss": "Junge",
          "dependent": 19,
          "dependentGloss": "?"
        }
      ],
      "enhancedPlusPlusDependencies": [
        {
          "dep": "ROOT",
          "governor": 0,
          "governorGloss": "ROOT",
          "dependent": 3,
          "dependentGloss": "Cub"
        },
        {
          "dep": "det",
          "governor": 3,
          "governorGloss": "Cub",
          "dependent": 1,
          "dependentGloss": "Das"
        },
        {
          "dep": "punct",
          "governor": 3,
          "governorGloss": "Cub",
          "dependent": 2,
          "dependentGloss": "``"
        },
        {
          "dep": "case",
          "governor": 5,
          "governorGloss": "Baghdadi",
          "dependent": 4,
          "dependentGloss": "von"
        },
        {
          "dep": "nmod",
          "governor": 3,
          "governorGloss": "Cub",
          "dependent": 5,
          "dependentGloss": "Baghdadi"
        },
        {
          "dep": "punct",
          "governor": 3,
          "governorGloss": "Cub",
          "dependent": 6,
          "dependentGloss": "``"
        },
        {
          "dep": "punct",
          "governor": 3,
          "governorGloss": "Cub",
          "dependent": 7,
          "dependentGloss": ":"
        },
        {
          "dep": "parataxis",
          "governor": 3,
          "governorGloss": "Cub",
          "dependent": 8,
          "dependentGloss": "Ist"
        },
        {
          "dep": "det",
          "governor": 10,
          "governorGloss": "Junge",
          "dependent": 9,
          "dependentGloss": "dieser"
        },
        {
          "dep": "det",
          "governor": 8,
          "governorGloss": "Ist",
          "dependent": 10,
          "dependentGloss": "Junge"
        },
        {
          "dep": "det",
          "governor": 13,
          "governorGloss": "Opfer",
          "dependent": 11,
          "dependentGloss": "das"
        },
        {
          "dep": "amod",
          "governor": 13,
          "governorGloss": "Opfer",
          "dependent": 12,
          "dependentGloss": "jüngste"
        },
        {
          "dep": "nsubj",
          "governor": 10,
          "governorGloss": "Junge",
          "dependent": 13,
          "dependentGloss": "Opfer"
        },
        {
          "dep": "case",
          "governor": 15,
          "governorGloss": "Isis",
          "dependent": 14,
          "dependentGloss": "von"
        },
        {
          "dep": "nmod",
          "governor": 13,
          "governorGloss": "Opfer",
          "dependent": 15,
          "dependentGloss": "Isis"
        },
        {
          "dep": "appos",
          "governor": 15,
          "governorGloss": "Isis",
          "dependent": 16,
          "dependentGloss": "Gebrauch"
        },
        {
          "dep": "case",
          "governor": 18,
          "governorGloss": "Kindersoldaten",
          "dependent": 17,
          "dependentGloss": "von"
        },
        {
          "dep": "nmod",
          "governor": 16,
          "governorGloss": "Gebrauch",
          "dependent": 18,
          "dependentGloss": "Kindersoldaten"
        },
        {
          "dep": "punct",
          "governor": 10,
          "governorGloss": "Junge",
          "dependent": 19,
          "dependentGloss": "?"
        }
      ],
      "tokens": [
        {
          "index": 1,
          "word": "Das",
          "originalText": "Das",
          "characterOffsetBegin": 0,
          "characterOffsetEnd": 3,
          "pos": "ART",
          "before": "",
          "after": " "
        },
        {
          "index": 2,
          "word": "``",
          "originalText": "“",
          "characterOffsetBegin": 4,
          "characterOffsetEnd": 5,
          "pos": "ADJA",
          "before": " ",
          "after": ""
        },
        {
          "index": 3,
          "word": "Cub",
          "originalText": "Cub",
          "characterOffsetBegin": 5,
          "characterOffsetEnd": 8,
          "pos": "NN",
          "before": "",
          "after": " "
        },
        {
          "index": 4,
          "word": "von",
          "originalText": "von",
          "characterOffsetBegin": 9,
          "characterOffsetEnd": 12,
          "pos": "APPR",
          "before": " ",
          "after": " "
        },
        {
          "index": 5,
          "word": "Baghdadi",
          "originalText": "Baghdadi",
          "characterOffsetBegin": 13,
          "characterOffsetEnd": 21,
          "pos": "NE",
          "before": " ",
          "after": ""
        },
        {
          "index": 6,
          "word": "``",
          "originalText": "“",
          "characterOffsetBegin": 21,
          "characterOffsetEnd": 22,
          "pos": "CARD",
          "before": "",
          "after": ""
        },
        {
          "index": 7,
          "word": ":",
          "originalText": ":",
          "characterOffsetBegin": 22,
          "characterOffsetEnd": 23,
          "pos": "$.",
          "before": "",
          "after": " "
        },
        {
          "index": 8,
          "word": "Ist",
          "originalText": "Ist",
          "characterOffsetBegin": 24,
          "characterOffsetEnd": 27,
          "pos": "VAFIN",
          "before": " ",
          "after": " "
        },
        {
          "index": 9,
          "word": "dieser",
          "originalText": "dieser",
          "characterOffsetBegin": 28,
          "characterOffsetEnd": 34,
          "pos": "PDAT",
          "before": " ",
          "after": " "
        },
        {
          "index": 10,
          "word": "Junge",
          "originalText": "Junge",
          "characterOffsetBegin": 35,
          "characterOffsetEnd": 40,
          "pos": "NN",
          "before": " ",
          "after": " "
        },
        {
          "index": 11,
          "word": "das",
          "originalText": "das",
          "characterOffsetBegin": 41,
          "characterOffsetEnd": 44,
          "pos": "ART",
          "before": " ",
          "after": " "
        },
        {
          "index": 12,
          "word": "jüngste",
          "originalText": "jüngste",
          "characterOffsetBegin": 45,
          "characterOffsetEnd": 52,
          "pos": "ADJA",
          "before": " ",
          "after": " "
        },
        {
          "index": 13,
          "word": "Opfer",
          "originalText": "Opfer",
          "characterOffsetBegin": 53,
          "characterOffsetEnd": 58,
          "pos": "NN",
          "before": " ",
          "after": " "
        },
        {
          "index": 14,
          "word": "von",
          "originalText": "von",
          "characterOffsetBegin": 59,
          "characterOffsetEnd": 62,
          "pos": "APPR",
          "before": " ",
          "after": " "
        },
        {
          "index": 15,
          "word": "Isis",
          "originalText": "Isis",
          "characterOffsetBegin": 63,
          "characterOffsetEnd": 67,
          "pos": "NE",
          "before": " ",
          "after": " "
        },
        {
          "index": 16,
          "word": "Gebrauch",
          "originalText": "Gebrauch",
          "characterOffsetBegin": 68,
          "characterOffsetEnd": 76,
          "pos": "NN",
          "before": " ",
          "after": " "
        },
        {
          "index": 17,
          "word": "von",
          "originalText": "von",
          "characterOffsetBegin": 77,
          "characterOffsetEnd": 80,
          "pos": "APPR",
          "before": " ",
          "after": " "
        },
        {
          "index": 18,
          "word": "Kindersoldaten",
          "originalText": "Kindersoldaten",
          "characterOffsetBegin": 81,
          "characterOffsetEnd": 95,
          "pos": "NN",
          "before": " ",
          "after": ""
        },
        {
          "index": 19,
          "word": "?",
          "originalText": "?",
          "characterOffsetBegin": 95,
          "characterOffsetEnd": 96,
          "pos": "$.",
          "before": "",
          "after": ""
        }
      ]
    }
  ]
}