{
  "sentences": [
    {
      "index": 0,
      "basicDependencies": [
        {
          "dep": "ROOT",
          "governor": 0,
          "governorGloss": "ROOT",
          "dependent": 1,
          "dependentGloss": "ISIL"
        },
        {
          "dep": "appos",
          "governor": 1,
          "governorGloss": "ISIL",
          "dependent": 2,
          "dependentGloss": "Beheads"
        },
        {
          "dep": "amod",
          "governor": 4,
          "governorGloss": "Fotojournalist",
          "dependent": 3,
          "dependentGloss": "Amerikanischer"
        },
        {
          "dep": "dobj",
          "governor": 2,
          "governorGloss": "Beheads",
          "dependent": 4,
          "dependentGloss": "Fotojournalist"
        },
        {
          "dep": "amod",
          "governor": 6,
          "governorGloss": "Irak",
          "dependent": 5,
          "dependentGloss": "im"
        },
        {
          "dep": "det",
          "governor": 4,
          "governorGloss": "Fotojournalist",
          "dependent": 6,
          "dependentGloss": "Irak"
        }
      ],
      "enhancedDependencies": [
        {
          "dep": "ROOT",
          "governor": 0,
          "governorGloss": "ROOT",
          "dependent": 1,
          "dependentGloss": "ISIL"
        },
        {
          "dep": "appos",
          "governor": 1,
          "governorGloss": "ISIL",
          "dependent": 2,
          "dependentGloss": "Beheads"
        },
        {
          "dep": "amod",
          "governor": 4,
          "governorGloss": "Fotojournalist",
          "dependent": 3,
          "dependentGloss": "Amerikanischer"
        },
        {
          "dep": "dobj",
          "governor": 2,
          "governorGloss": "Beheads",
          "dependent": 4,
          "dependentGloss": "Fotojournalist"
        },
        {
          "dep": "amod",
          "governor": 6,
          "governorGloss": "Irak",
          "dependent": 5,
          "dependentGloss": "im"
        },
        {
          "dep": "det",
          "governor": 4,
          "governorGloss": "Fotojournalist",
          "dependent": 6,
          "dependentGloss": "Irak"
        }
      ],
      "enhancedPlusPlusDependencies": [
        {
          "dep": "ROOT",
          "governor": 0,
          "governorGloss": "ROOT",
          "dependent": 1,
          "dependentGloss": "ISIL"
        },
        {
          "dep": "appos",
          "governor": 1,
          "governorGloss": "ISIL",
          "dependent": 2,
          "dependentGloss": "Beheads"
        },
        {
          "dep": "amod",
          "governor": 4,
          "governorGloss": "Fotojournalist",
          "dependent": 3,
          "dependentGloss": "Amerikanischer"
        },
        {
          "dep": "dobj",
          "governor": 2,
          "governorGloss": "Beheads",
          "dependent": 4,
          "dependentGloss": "Fotojournalist"
        },
        {
          "dep": "amod",
          "governor": 6,
          "governorGloss": "Irak",
          "dependent": 5,
          "dependentGloss": "im"
        },
        {
          "dep": "det",
          "governor": 4,
          "governorGloss": "Fotojournalist",
          "dependent": 6,
          "dependentGloss": "Irak"
        }
      ],
      "tokens": [
        {
          "index": 1,
          "word": "ISIL",
          "originalText": "ISIL",
          "characterOffsetBegin": 0,
          "characterOffsetEnd": 4,
          "pos": "NE",
          "before": "",
          "after": " "
        },
        {
          "index": 2,
          "word": "Beheads",
          "originalText": "Beheads",
          "characterOffsetBegin": 5,
          "characterOffsetEnd": 12,
          "pos": "NE",
          "before": " ",
          "after": " "
        },
        {
          "index": 3,
          "word": "Amerikanischer",
          "originalText": "Amerikanischer",
          "characterOffsetBegin": 13,
          "characterOffsetEnd": 27,
          "pos": "ADJA",
          "before": " ",
          "after": " "
        },
        {
          "index": 4,
          "word": "Fotojournalist",
          "originalText": "Fotojournalist",
          "characterOffsetBegin": 28,
          "characterOffsetEnd": 42,
          "pos": "NN",
          "before": " ",
          "after": " "
        },
        {
          "index": 5,
          "word": "im",
          "originalText": "im",
          "characterOffsetBegin": 43,
          "characterOffsetEnd": 45,
          "pos": "APPRART",
          "before": " ",
          "after": " "
        },
        {
          "index": 6,
          "word": "Irak",
          "originalText": "Irak",
          "characterOffsetBegin": 46,
          "characterOffsetEnd": 50,
          "pos": "NE",
          "before": " ",
          "after": ""
        }
      ]
    }
  ]
}