{
  "sentences": [
    {
      "index": 0,
      "basicDependencies": [
        {
          "dep": "ROOT",
          "governor": 0,
          "governorGloss": "ROOT",
          "dependent": 8,
          "dependentGloss": "300.000"
        },
        {
          "dep": "det",
          "governor": 3,
          "governorGloss": "Guide",
          "dependent": 1,
          "dependentGloss": "Ein"
        },
        {
          "dep": "amod",
          "governor": 3,
          "governorGloss": "Guide",
          "dependent": 2,
          "dependentGloss": "Vice"
        },
        {
          "dep": "nsubj",
          "governor": 8,
          "governorGloss": "300.000",
          "dependent": 3,
          "dependentGloss": "Guide"
        },
        {
          "dep": "amod",
          "governor": 5,
          "governorGloss": "Ausgeben",
          "dependent": 4,
          "dependentGloss": "zum"
        },
        {
          "dep": "det",
          "governor": 3,
          "governorGloss": "Guide",
          "dependent": 5,
          "dependentGloss": "Ausgeben"
        },
        {
          "dep": "case",
          "governor": 7,
          "governorGloss": "$",
          "dependent": 6,
          "dependentGloss": "von"
        },
        {
          "dep": "nmod",
          "governor": 5,
          "governorGloss": "Ausgeben",
          "dependent": 7,
          "dependentGloss": "$"
        },
        {
          "dep": "case",
          "governor": 10,
          "governorGloss": "Abendessen",
          "dependent": 9,
          "dependentGloss": "auf"
        },
        {
          "dep": "nmod",
          "governor": 8,
          "governorGloss": "300.000",
          "dependent": 10,
          "dependentGloss": "Abendessen"
        }
      ],
      "enhancedDependencies": [
        {
          "dep": "ROOT",
          "governor": 0,
          "governorGloss": "ROOT",
          "dependent": 8,
          "dependentGloss": "300.000"
        },
        {
          "dep": "det",
          "governor": 3,
          "governorGloss": "Guide",
          "dependent": 1,
          "dependentGloss": "Ein"
        },
        {
          "dep": "amod",
          "governor": 3,
          "governorGloss": "Guide",
          "dependent": 2,
          "dependentGloss": "Vice"
        },
        {
          "dep": "nsubj",
          "governor": 8,
          "governorGloss": "300.000",
          "dependent": 3,
          "dependentGloss": "Guide"
        },
        {
          "dep": "amod",
          "governor": 5,
          "governorGloss": "Ausgeben",
          "dependent": 4,
          "dependentGloss": "zum"
        },
        {
          "dep": "det",
          "governor": 3,
          "governorGloss": "Guide",
          "dependent": 5,
          "dependentGloss": "Ausgeben"
        },
        {
          "dep": "case",
          "governor": 7,
          "governorGloss": "$",
          "dependent": 6,
          "dependentGloss": "von"
        },
        {
          "dep": "nmod",
          "governor": 5,
          "governorGloss": "Ausgeben",
          "dependent": 7,
          "dependentGloss": "$"
        },
        {
          "dep": "case",
          "governor": 10,
          "governorGloss": "Abendessen",
          "dependent": 9,
          "dependentGloss": "auf"
        },
        {
          "dep": "nmod",
          "governor": 8,
          "governorGloss": "300.000",
          "dependent": 10,
          "dependentGloss": "Abendessen"
        }
      ],
      "enhancedPlusPlusDependencies": [
        {
          "dep": "ROOT",
          "governor": 0,
          "governorGloss": "ROOT",
          "dependent": 8,
          "dependentGloss": "300.000"
        },
        {
          "dep": "det",
          "governor": 3,
          "governorGloss": "Guide",
          "dependent": 1,
          "dependentGloss": "Ein"
        },
        {
          "dep": "amod",
          "governor": 3,
          "governorGloss": "Guide",
          "dependent": 2,
          "dependentGloss": "Vice"
        },
        {
          "dep": "nsubj",
          "governor": 8,
          "governorGloss": "300.000",
          "dependent": 3,
          "dependentGloss": "Guide"
        },
        {
          "dep": "amod",
          "governor": 5,
          "governorGloss": "Ausgeben",
          "dependent": 4,
          "dependentGloss": "zum"
        },
        {
          "dep": "det",
          "governor": 3,
          "governorGloss": "Guide",
          "dependent": 5,
          "dependentGloss": "Ausgeben"
        },
        {
          "dep": "case",
          "governor": 7,
          "governorGloss": "$",
          "dependent": 6,
          "dependentGloss": "von"
        },
        {
          "dep": "nmod",
          "governor": 5,
          "governorGloss": "Ausgeben",
          "dependent": 7,
          "dependentGloss": "$"
        },
        {
          "dep": "case",
          "governor": 10,
          "governorGloss": "Abendessen",
          "dependent": 9,
          "dependentGloss": "auf"
        },
        {
          "dep": "nmod",
          "governor": 8,
          "governorGloss": "300.000",
          "dependent": 10,
          "dependentGloss": "Abendessen"
        }
      ],
      "tokens": [
        {
          "index": 1,
          "word": "Ein",
          "originalText": "Ein",
          "characterOffsetBegin": 0,
          "characterOffsetEnd": 3,
          "pos": "ART",
          "before": "",
          "after": " "
        },
        {
          "index": 2,
          "word": "Vice",
          "originalText": "Vice",
          "characterOffsetBegin": 4,
          "characterOffsetEnd": 8,
          "pos": "NE",
          "before": " ",
          "after": " "
        },
        {
          "index": 3,
          "word": "Guide",
          "originalText": "Guide",
          "characterOffsetBegin": 9,
          "characterOffsetEnd": 14,
          "pos": "NE",
          "before": " ",
          "after": " "
        },
        {
          "index": 4,
          "word": "zum",
          "originalText": "zum",
          "characterOffsetBegin": 15,
          "characterOffsetEnd": 18,
          "pos": "APPRART",
          "before": " ",
          "after": " "
        },
        {
          "index": 5,
          "word": "Ausgeben",
          "originalText": "Ausgeben",
          "characterOffsetBegin": 19,
          "characterOffsetEnd": 27,
          "pos": "NN",
          "before": " ",
          "after": " "
        },
        {
          "index": 6,
          "word": "von",
          "originalText": "von",
          "characterOffsetBegin": 28,
          "characterOffsetEnd": 31,
          "pos": "APPR",
          "before": " ",
          "after": " "
        },
        {
          "index": 7,
          "word": "$",
          "originalText": "$",
          "characterOffsetBegin": 32,
          "characterOffsetEnd": 33,
          "pos": "CARD",
          "before": " ",
          "after": " "
        },
        {
          "index": 8,
          "word": "300.000",
          "originalText": "300.000",
          "characterOffsetBegin": 34,
          "characterOffsetEnd": 41,
          "pos": "CARD",
          "before": " ",
          "after": " "
        },
        {
          "index": 9,
          "word": "auf",
          "originalText": "auf",
          "characterOffsetBegin": 42,
          "characterOffsetEnd": 45,
          "pos": "APPR",
          "before": " ",
          "after": " "
        },
        {
          "index": 10,
          "word": "Abendessen",
          "originalText": "Abendessen",
          "characterOffsetBegin": 46,
          "characterOffsetEnd": 56,
          "pos": "NN",
          "before": " ",
          "after": ""
        }
      ]
    }
  ]
}