{
  "sentences": [
    {
      "index": 0,
      "basicDependencies": [
        {
          "dep": "ROOT",
          "governor": 0,
          "governorGloss": "ROOT",
          "dependent": 7,
          "dependentGloss": "gerettet"
        },
        {
          "dep": "nsubjpass",
          "governor": 7,
          "governorGloss": "gerettet",
          "dependent": 1,
          "dependentGloss": "Uhr"
        },
        {
          "dep": "punct",
          "governor": 1,
          "governorGloss": "Uhr",
          "dependent": 2,
          "dependentGloss": ":"
        },
        {
          "dep": "name",
          "governor": 4,
          "governorGloss": "Marine",
          "dependent": 3,
          "dependentGloss": "US"
        },
        {
          "dep": "appos",
          "governor": 1,
          "governorGloss": "Uhr",
          "dependent": 4,
          "dependentGloss": "Marine"
        },
        {
          "dep": "case",
          "governor": 6,
          "governorGloss": "Helm",
          "dependent": 5,
          "dependentGloss": "mit"
        },
        {
          "dep": "nmod",
          "governor": 4,
          "governorGloss": "Marine",
          "dependent": 6,
          "dependentGloss": "Helm"
        },
        {
          "dep": "punct",
          "governor": 7,
          "governorGloss": "gerettet",
          "dependent": 8,
          "dependentGloss": ","
        },
        {
          "dep": "mark",
          "governor": 14,
          "governorGloss": "erschossen",
          "dependent": 9,
          "dependentGloss": "nachdem"
        },
        {
          "dep": "nsubjpass",
          "governor": 14,
          "governorGloss": "erschossen",
          "dependent": 10,
          "dependentGloss": "er"
        },
        {
          "dep": "case",
          "governor": 12,
          "governorGloss": "Taliban",
          "dependent": 11,
          "dependentGloss": "von"
        },
        {
          "dep": "nmod",
          "governor": 14,
          "governorGloss": "erschossen",
          "dependent": 12,
          "dependentGloss": "Taliban"
        },
        {
          "dep": "advmod",
          "governor": 14,
          "governorGloss": "erschossen",
          "dependent": 13,
          "dependentGloss": "Sniper"
        },
        {
          "dep": "advcl",
          "governor": 7,
          "governorGloss": "gerettet",
          "dependent": 14,
          "dependentGloss": "erschossen"
        },
        {
          "dep": "auxpass",
          "governor": 14,
          "governorGloss": "erschossen",
          "dependent": 15,
          "dependentGloss": "wurde"
        }
      ],
      "enhancedDependencies": [
        {
          "dep": "ROOT",
          "governor": 0,
          "governorGloss": "ROOT",
          "dependent": 7,
          "dependentGloss": "gerettet"
        },
        {
          "dep": "nsubjpass",
          "governor": 7,
          "governorGloss": "gerettet",
          "dependent": 1,
          "dependentGloss": "Uhr"
        },
        {
          "dep": "punct",
          "governor": 1,
          "governorGloss": "Uhr",
          "dependent": 2,
          "dependentGloss": ":"
        },
        {
          "dep": "name",
          "governor": 4,
          "governorGloss": "Marine",
          "dependent": 3,
          "dependentGloss": "US"
        },
        {
          "dep": "appos",
          "governor": 1,
          "governorGloss": "Uhr",
          "dependent": 4,
          "dependentGloss": "Marine"
        },
        {
          "dep": "case",
          "governor": 6,
          "governorGloss": "Helm",
          "dependent": 5,
          "dependentGloss": "mit"
        },
        {
          "dep": "nmod",
          "governor": 4,
          "governorGloss": "Marine",
          "dependent": 6,
          "dependentGloss": "Helm"
        },
        {
          "dep": "punct",
          "governor": 7,
          "governorGloss": "gerettet",
          "dependent": 8,
          "dependentGloss": ","
        },
        {
          "dep": "mark",
          "governor": 14,
          "governorGloss": "erschossen",
          "dependent": 9,
          "dependentGloss": "nachdem"
        },
        {
          "dep": "nsubjpass",
          "governor": 14,
          "governorGloss": "erschossen",
          "dependent": 10,
          "dependentGloss": "er"
        },
        {
          "dep": "case",
          "governor": 12,
          "governorGloss": "Taliban",
          "dependent": 11,
          "dependentGloss": "von"
        },
        {
          "dep": "nmod",
          "governor": 14,
          "governorGloss": "erschossen",
          "dependent": 12,
          "dependentGloss": "Taliban"
        },
        {
          "dep": "advmod",
          "governor": 14,
          "governorGloss": "erschossen",
          "dependent": 13,
          "dependentGloss": "Sniper"
        },
        {
          "dep": "advcl",
          "governor": 7,
          "governorGloss": "gerettet",
          "dependent": 14,
          "dependentGloss": "erschossen"
        },
        {
          "dep": "auxpass",
          "governor": 14,
          "governorGloss": "erschossen",
          "dependent": 15,
          "dependentGloss": "wurde"
        }
      ],
      "enhancedPlusPlusDependencies": [
        {
          "dep": "ROOT",
          "governor": 0,
          "governorGloss": "ROOT",
          "dependent": 7,
          "dependentGloss": "gerettet"
        },
        {
          "dep": "nsubjpass",
          "governor": 7,
          "governorGloss": "gerettet",
          "dependent": 1,
          "dependentGloss": "Uhr"
        },
        {
          "dep": "punct",
          "governor": 1,
          "governorGloss": "Uhr",
          "dependent": 2,
          "dependentGloss": ":"
        },
        {
          "dep": "name",
          "governor": 4,
          "governorGloss": "Marine",
          "dependent": 3,
          "dependentGloss": "US"
        },
        {
          "dep": "appos",
          "governor": 1,
          "governorGloss": "Uhr",
          "dependent": 4,
          "dependentGloss": "Marine"
        },
        {
          "dep": "case",
          "governor": 6,
          "governorGloss": "Helm",
          "dependent": 5,
          "dependentGloss": "mit"
        },
        {
          "dep": "nmod",
          "governor": 4,
          "governorGloss": "Marine",
          "dependent": 6,
          "dependentGloss": "Helm"
        },
        {
          "dep": "punct",
          "governor": 7,
          "governorGloss": "gerettet",
          "dependent": 8,
          "dependentGloss": ","
        },
        {
          "dep": "mark",
          "governor": 14,
          "governorGloss": "erschossen",
          "dependent": 9,
          "dependentGloss": "nachdem"
        },
        {
          "dep": "nsubjpass",
          "governor": 14,
          "governorGloss": "erschossen",
          "dependent": 10,
          "dependentGloss": "er"
        },
        {
          "dep": "case",
          "governor": 12,
          "governorGloss": "Taliban",
          "dependent": 11,
          "dependentGloss": "von"
        },
        {
          "dep": "nmod",
          "governor": 14,
          "governorGloss": "erschossen",
          "dependent": 12,
          "dependentGloss": "Taliban"
        },
        {
          "dep": "advmod",
          "governor": 14,
          "governorGloss": "erschossen",
          "dependent": 13,
          "dependentGloss": "Sniper"
        },
        {
          "dep": "advcl",
          "governor": 7,
          "governorGloss": "gerettet",
          "dependent": 14,
          "dependentGloss": "erschossen"
        },
        {
          "dep": "auxpass",
          "governor": 14,
          "governorGloss": "erschossen",
          "dependent": 15,
          "dependentGloss": "wurde"
        }
      ],
      "tokens": [
        {
          "index": 1,
          "word": "Uhr",
          "originalText": "Uhr",
          "characterOffsetBegin": 0,
          "characterOffsetEnd": 3,
          "pos": "NN",
          "before": "",
          "after": ""
        },
        {
          "index": 2,
          "word": ":",
          "originalText": ":",
          "characterOffsetBegin": 3,
          "characterOffsetEnd": 4,
          "pos": "$.",
          "before": "",
          "after": " "
        },
        {
          "index": 3,
          "word": "US",
          "originalText": "US",
          "characterOffsetBegin": 5,
          "characterOffsetEnd": 7,
          "pos": "NE",
          "before": " ",
          "after": " "
        },
        {
          "index": 4,
          "word": "Marine",
          "originalText": "Marine",
          "characterOffsetBegin": 8,
          "characterOffsetEnd": 14,
          "pos": "NE",
          "before": " ",
          "after": " "
        },
        {
          "index": 5,
          "word": "mit",
          "originalText": "mit",
          "characterOffsetBegin": 15,
          "characterOffsetEnd": 18,
          "pos": "APPR",
          "before": " ",
          "after": " "
        },
        {
          "index": 6,
          "word": "Helm",
          "originalText": "Helm",
          "characterOffsetBegin": 19,
          "characterOffsetEnd": 23,
          "pos": "NN",
          "before": " ",
          "after": " "
        },
        {
          "index": 7,
          "word": "gerettet",
          "originalText": "gerettet",
          "characterOffsetBegin": 24,
          "characterOffsetEnd": 32,
          "pos": "VVPP",
          "before": " ",
          "after": ""
        },
        {
          "index": 8,
          "word": ",",
          "originalText": ",",
          "characterOffsetBegin": 32,
          "characterOffsetEnd": 33,
          "pos": "$,",
          "before": "",
          "after": " "
        },
        {
          "index": 9,
          "word": "nachdem",
          "originalText": "nachdem",
          "characterOffsetBegin": 34,
          "characterOffsetEnd": 41,
          "pos": "KOUS",
          "before": " ",
          "after": " "
        },
        {
          "index": 10,
          "word": "er",
          "originalText": "er",
          "characterOffsetBegin": 42,
          "characterOffsetEnd": 44,
          "pos": "PPER",
          "before": " ",
          "after": " "
        },
        {
          "index": 11,
          "word": "von",
          "originalText": "von",
          "characterOffsetBegin": 45,
          "characterOffsetEnd": 48,
          "pos": "APPR",
          "before": " ",
          "after": " "
        },
        {
          "index": 12,
          "word": "Taliban",
          "originalText": "Taliban",
          "characterOffsetBegin": 49,
          "characterOffsetEnd": 56,
          "pos": "NN",
          "before": " ",
          "after": " "
        },
        {
          "index": 13,
          "word": "Sniper",
          "originalText": "Sniper",
          "characterOffsetBegin": 57,
          "characterOffsetEnd": 63,
          "pos": "NE",
          "before": " ",
          "after": " "
        },
        {
          "index": 14,
          "word": "erschossen",
          "originalText": "erschossen",
          "characterOffsetBegin": 64,
          "characterOffsetEnd": 74,
          "pos": "VVPP",
          "before": " ",
          "after": " "
        },
        {
          "index": 15,
          "word": "wurde",
          "originalText": "wurde",
          "characterOffsetBegin": 75,
          "characterOffsetEnd": 80,
          "pos": "VAFIN",
          "before": " ",
          "after": ""
        }
      ]
    }
  ]
}