{
  "sentences": [
    {
      "index": 0,
      "basicDependencies": [
        {
          "dep": "ROOT",
          "governor": 0,
          "governorGloss": "ROOT",
          "dependent": 2,
          "dependentGloss": "Culkin"
        },
        {
          "dep": "nsubj",
          "governor": 2,
          "governorGloss": "Culkin",
          "dependent": 1,
          "dependentGloss": "Macaulay"
        },
        {
          "dep": "punct",
          "governor": 2,
          "governorGloss": "Culkin",
          "dependent": 3,
          "dependentGloss": ":"
        },
        {
          "dep": "dep",
          "governor": 2,
          "governorGloss": "Culkin",
          "dependent": 4,
          "dependentGloss": "Todesansprüche"
        },
        {
          "dep": "case",
          "governor": 8,
          "governorGloss": "Kinderstern",
          "dependent": 5,
          "dependentGloss": "über"
        },
        {
          "dep": "det",
          "governor": 8,
          "governorGloss": "Kinderstern",
          "dependent": 6,
          "dependentGloss": "den"
        },
        {
          "dep": "amod",
          "governor": 8,
          "governorGloss": "Kinderstern",
          "dependent": 7,
          "dependentGloss": "ehemaligen"
        },
        {
          "dep": "nmod",
          "governor": 9,
          "governorGloss": "offenbarten",
          "dependent": 8,
          "dependentGloss": "Kinderstern"
        },
        {
          "dep": "root",
          "governor": 4,
          "governorGloss": "Todesansprüche",
          "dependent": 9,
          "dependentGloss": "offenbarten"
        },
        {
          "dep": "det",
          "governor": 12,
          "governorGloss": "Scherz",
          "dependent": 10,
          "dependentGloss": "einen"
        },
        {
          "dep": "amod",
          "governor": 12,
          "governorGloss": "Scherz",
          "dependent": 11,
          "dependentGloss": "weiteren"
        },
        {
          "dep": "nsubj",
          "governor": 9,
          "governorGloss": "offenbarten",
          "dependent": 12,
          "dependentGloss": "Scherz"
        }
      ],
      "enhancedDependencies": [
        {
          "dep": "ROOT",
          "governor": 0,
          "governorGloss": "ROOT",
          "dependent": 2,
          "dependentGloss": "Culkin"
        },
        {
          "dep": "nsubj",
          "governor": 2,
          "governorGloss": "Culkin",
          "dependent": 1,
          "dependentGloss": "Macaulay"
        },
        {
          "dep": "punct",
          "governor": 2,
          "governorGloss": "Culkin",
          "dependent": 3,
          "dependentGloss": ":"
        },
        {
          "dep": "dep",
          "governor": 2,
          "governorGloss": "Culkin",
          "dependent": 4,
          "dependentGloss": "Todesansprüche"
        },
        {
          "dep": "case",
          "governor": 8,
          "governorGloss": "Kinderstern",
          "dependent": 5,
          "dependentGloss": "über"
        },
        {
          "dep": "det",
          "governor": 8,
          "governorGloss": "Kinderstern",
          "dependent": 6,
          "dependentGloss": "den"
        },
        {
          "dep": "amod",
          "governor": 8,
          "governorGloss": "Kinderstern",
          "dependent": 7,
          "dependentGloss": "ehemaligen"
        },
        {
          "dep": "nmod",
          "governor": 9,
          "governorGloss": "offenbarten",
          "dependent": 8,
          "dependentGloss": "Kinderstern"
        },
        {
          "dep": "root",
          "governor": 4,
          "governorGloss": "Todesansprüche",
          "dependent": 9,
          "dependentGloss": "offenbarten"
        },
        {
          "dep": "det",
          "governor": 12,
          "governorGloss": "Scherz",
          "dependent": 10,
          "dependentGloss": "einen"
        },
        {
          "dep": "amod",
          "governor": 12,
          "governorGloss": "Scherz",
          "dependent": 11,
          "dependentGloss": "weiteren"
        },
        {
          "dep": "nsubj",
          "governor": 9,
          "governorGloss": "offenbarten",
          "dependent": 12,
          "dependentGloss": "Scherz"
        }
      ],
      "enhancedPlusPlusDependencies": [
        {
          "dep": "ROOT",
          "governor": 0,
          "governorGloss": "ROOT",
          "dependent": 2,
          "dependentGloss": "Culkin"
        },
        {
          "dep": "nsubj",
          "governor": 2,
          "governorGloss": "Culkin",
          "dependent": 1,
          "dependentGloss": "Macaulay"
        },
        {
          "dep": "punct",
          "governor": 2,
          "governorGloss": "Culkin",
          "dependent": 3,
          "dependentGloss": ":"
        },
        {
          "dep": "dep",
          "governor": 2,
          "governorGloss": "Culkin",
          "dependent": 4,
          "dependentGloss": "Todesansprüche"
        },
        {
          "dep": "case",
          "governor": 8,
          "governorGloss": "Kinderstern",
          "dependent": 5,
          "dependentGloss": "über"
        },
        {
          "dep": "det",
          "governor": 8,
          "governorGloss": "Kinderstern",
          "dependent": 6,
          "dependentGloss": "den"
        },
        {
          "dep": "amod",
          "governor": 8,
          "governorGloss": "Kinderstern",
          "dependent": 7,
          "dependentGloss": "ehemaligen"
        },
        {
          "dep": "nmod",
          "governor": 9,
          "governorGloss": "offenbarten",
          "dependent": 8,
          "dependentGloss": "Kinderstern"
        },
        {
          "dep": "root",
          "governor": 4,
          "governorGloss": "Todesansprüche",
          "dependent": 9,
          "dependentGloss": "offenbarten"
        },
        {
          "dep": "det",
          "governor": 12,
          "governorGloss": "Scherz",
          "dependent": 10,
          "dependentGloss": "einen"
        },
        {
          "dep": "amod",
          "governor": 12,
          "governorGloss": "Scherz",
          "dependent": 11,
          "dependentGloss": "weiteren"
        },
        {
          "dep": "nsubj",
          "governor": 9,
          "governorGloss": "offenbarten",
          "dependent": 12,
          "dependentGloss": "Scherz"
        }
      ],
      "tokens": [
        {
          "index": 1,
          "word": "Macaulay",
          "originalText": "Macaulay",
          "characterOffsetBegin": 0,
          "characterOffsetEnd": 8,
          "pos": "NE",
          "before": "",
          "after": " "
        },
        {
          "index": 2,
          "word": "Culkin",
          "originalText": "Culkin",
          "characterOffsetBegin": 9,
          "characterOffsetEnd": 15,
          "pos": "NE",
          "before": " ",
          "after": ""
        },
        {
          "index": 3,
          "word": ":",
          "originalText": ":",
          "characterOffsetBegin": 15,
          "characterOffsetEnd": 16,
          "pos": "$.",
          "before": "",
          "after": " "
        },
        {
          "index": 4,
          "word": "Todesansprüche",
          "originalText": "Todesansprüche",
          "characterOffsetBegin": 17,
          "characterOffsetEnd": 31,
          "pos": "NN",
          "before": " ",
          "after": " "
        },
        {
          "index": 5,
          "word": "über",
          "originalText": "über",
          "characterOffsetBegin": 32,
          "characterOffsetEnd": 36,
          "pos": "APPR",
          "before": " ",
          "after": " "
        },
        {
          "index": 6,
          "word": "den",
          "originalText": "den",
          "characterOffsetBegin": 37,
          "characterOffsetEnd": 40,
          "pos": "ART",
          "before": " ",
          "after": " "
        },
        {
          "index": 7,
          "word": "ehemaligen",
          "originalText": "ehemaligen",
          "characterOffsetBegin": 41,
          "characterOffsetEnd": 51,
          "pos": "ADJA",
          "before": " ",
          "after": " "
        },
        {
          "index": 8,
          "word": "Kinderstern",
          "originalText": "Kinderstern",
          "characterOffsetBegin": 52,
          "characterOffsetEnd": 63,
          "pos": "NN",
          "before": " ",
          "after": " "
        },
        {
          "index": 9,
          "word": "offenbarten",
          "originalText": "offenbarten",
          "characterOffsetBegin": 64,
          "characterOffsetEnd": 75,
          "pos": "VVFIN",
          "before": " ",
          "after": " "
        },
        {
          "index": 10,
          "word": "einen",
          "originalText": "einen",
          "characterOffsetBegin": 76,
          "characterOffsetEnd": 81,
          "pos": "ART",
          "before": " ",
          "after": " "
        },
        {
          "index": 11,
          "word": "weiteren",
          "originalText": "weiteren",
          "characterOffsetBegin": 82,
          "characterOffsetEnd": 90,
          "pos": "ADJA",
          "before": " ",
          "after": " "
        },
        {
          "index": 12,
          "word": "Scherz",
          "originalText": "Scherz",
          "characterOffsetBegin": 91,
          "characterOffsetEnd": 97,
          "pos": "NN",
          "before": " ",
          "after": ""
        }
      ]
    }
  ]
}