{
  "sentences": [
    {
      "index": 0,
      "basicDependencies": [
        {
          "dep": "ROOT",
          "governor": 0,
          "governorGloss": "ROOT",
          "dependent": 1,
          "dependentGloss": "ISIS-Führer"
        },
        {
          "dep": "punct",
          "governor": 3,
          "governorGloss": "getötet",
          "dependent": 2,
          "dependentGloss": "``"
        },
        {
          "dep": "appos",
          "governor": 1,
          "governorGloss": "ISIS-Führer",
          "dependent": 3,
          "dependentGloss": "getötet"
        },
        {
          "dep": "punct",
          "governor": 3,
          "governorGloss": "getötet",
          "dependent": 4,
          "dependentGloss": "``"
        },
        {
          "dep": "case",
          "governor": 6,
          "governorGloss": "US-Luftangriffen",
          "dependent": 5,
          "dependentGloss": "in"
        },
        {
          "dep": "nmod",
          "governor": 3,
          "governorGloss": "getötet",
          "dependent": 6,
          "dependentGloss": "US-Luftangriffen"
        }
      ],
      "enhancedDependencies": [
        {
          "dep": "ROOT",
          "governor": 0,
          "governorGloss": "ROOT",
          "dependent": 1,
          "dependentGloss": "ISIS-Führer"
        },
        {
          "dep": "punct",
          "governor": 3,
          "governorGloss": "getötet",
          "dependent": 2,
          "dependentGloss": "``"
        },
        {
          "dep": "appos",
          "governor": 1,
          "governorGloss": "ISIS-Führer",
          "dependent": 3,
          "dependentGloss": "getötet"
        },
        {
          "dep": "punct",
          "governor": 3,
          "governorGloss": "getötet",
          "dependent": 4,
          "dependentGloss": "``"
        },
        {
          "dep": "case",
          "governor": 6,
          "governorGloss": "US-Luftangriffen",
          "dependent": 5,
          "dependentGloss": "in"
        },
        {
          "dep": "nmod",
          "governor": 3,
          "governorGloss": "getötet",
          "dependent": 6,
          "dependentGloss": "US-Luftangriffen"
        }
      ],
      "enhancedPlusPlusDependencies": [
        {
          "dep": "ROOT",
          "governor": 0,
          "governorGloss": "ROOT",
          "dependent": 1,
          "dependentGloss": "ISIS-Führer"
        },
        {
          "dep": "punct",
          "governor": 3,
          "governorGloss": "getötet",
          "dependent": 2,
          "dependentGloss": "``"
        },
        {
          "dep": "appos",
          "governor": 1,
          "governorGloss": "ISIS-Führer",
          "dependent": 3,
          "dependentGloss": "getötet"
        },
        {
          "dep": "punct",
          "governor": 3,
          "governorGloss": "getötet",
          "dependent": 4,
          "dependentGloss": "``"
        },
        {
          "dep": "case",
          "governor": 6,
          "governorGloss": "US-Luftangriffen",
          "dependent": 5,
          "dependentGloss": "in"
        },
        {
          "dep": "nmod",
          "governor": 3,
          "governorGloss": "getötet",
          "dependent": 6,
          "dependentGloss": "US-Luftangriffen"
        }
      ],
      "tokens": [
        {
          "index": 1,
          "word": "ISIS-Führer",
          "originalText": "ISIS-Führer",
          "characterOffsetBegin": 0,
          "characterOffsetEnd": 11,
          "pos": "NN",
          "before": "",
          "after": " "
        },
        {
          "index": 2,
          "word": "``",
          "originalText": "“",
          "characterOffsetBegin": 12,
          "characterOffsetEnd": 13,
          "pos": "ADJD",
          "before": " ",
          "after": ""
        },
        {
          "index": 3,
          "word": "getötet",
          "originalText": "getötet",
          "characterOffsetBegin": 13,
          "characterOffsetEnd": 20,
          "pos": "VVPP",
          "before": "",
          "after": ""
        },
        {
          "index": 4,
          "word": "``",
          "originalText": "“",
          "characterOffsetBegin": 20,
          "characterOffsetEnd": 21,
          "pos": "VAFIN",
          "before": "",
          "after": " "
        },
        {
          "index": 5,
          "word": "in",
          "originalText": "in",
          "characterOffsetBegin": 22,
          "characterOffsetEnd": 24,
          "pos": "APPR",
          "before": " ",
          "after": " "
        },
        {
          "index": 6,
          "word": "US-Luftangriffen",
          "originalText": "US-Luftangriffen",
          "characterOffsetBegin": 25,
          "characterOffsetEnd": 41,
          "pos": "NN",
          "before": " ",
          "after": ""
        }
      ]
    }
  ]
}