{
  "sentences": [
    {
      "index": 0,
      "basicDependencies": [
        {
          "dep": "ROOT",
          "governor": 0,
          "governorGloss": "ROOT",
          "dependent": 13,
          "dependentGloss": "gestorben"
        },
        {
          "dep": "dep",
          "governor": 5,
          "governorGloss": "Hank",
          "dependent": 1,
          "dependentGloss": "Berichte"
        },
        {
          "dep": "punct",
          "governor": 1,
          "governorGloss": "Berichte",
          "dependent": 2,
          "dependentGloss": ":"
        },
        {
          "dep": "amod",
          "governor": 4,
          "governorGloss": "Bank",
          "dependent": 3,
          "dependentGloss": "Big"
        },
        {
          "dep": "name",
          "governor": 5,
          "governorGloss": "Hank",
          "dependent": 4,
          "dependentGloss": "Bank"
        },
        {
          "dep": "nsubj",
          "governor": 13,
          "governorGloss": "gestorben",
          "dependent": 5,
          "dependentGloss": "Hank"
        },
        {
          "dep": "det",
          "governor": 8,
          "governorGloss": "Rap",
          "dependent": 6,
          "dependentGloss": "der"
        },
        {
          "dep": "amod",
          "governor": 8,
          "governorGloss": "Rap",
          "dependent": 7,
          "dependentGloss": "Pionier"
        },
        {
          "dep": "nsubj",
          "governor": 5,
          "governorGloss": "Hank",
          "dependent": 8,
          "dependentGloss": "Rap"
        },
        {
          "dep": "name",
          "governor": 11,
          "governorGloss": "Gang",
          "dependent": 9,
          "dependentGloss": "Gruppe"
        },
        {
          "dep": "name",
          "governor": 11,
          "governorGloss": "Gang",
          "dependent": 10,
          "dependentGloss": "Sugarhill"
        },
        {
          "dep": "appos",
          "governor": 8,
          "governorGloss": "Rap",
          "dependent": 11,
          "dependentGloss": "Gang"
        },
        {
          "dep": "aux",
          "governor": 13,
          "governorGloss": "gestorben",
          "dependent": 12,
          "dependentGloss": "ist"
        }
      ],
      "enhancedDependencies": [
        {
          "dep": "ROOT",
          "governor": 0,
          "governorGloss": "ROOT",
          "dependent": 13,
          "dependentGloss": "gestorben"
        },
        {
          "dep": "dep",
          "governor": 5,
          "governorGloss": "Hank",
          "dependent": 1,
          "dependentGloss": "Berichte"
        },
        {
          "dep": "punct",
          "governor": 1,
          "governorGloss": "Berichte",
          "dependent": 2,
          "dependentGloss": ":"
        },
        {
          "dep": "amod",
          "governor": 4,
          "governorGloss": "Bank",
          "dependent": 3,
          "dependentGloss": "Big"
        },
        {
          "dep": "name",
          "governor": 5,
          "governorGloss": "Hank",
          "dependent": 4,
          "dependentGloss": "Bank"
        },
        {
          "dep": "nsubj",
          "governor": 13,
          "governorGloss": "gestorben",
          "dependent": 5,
          "dependentGloss": "Hank"
        },
        {
          "dep": "det",
          "governor": 8,
          "governorGloss": "Rap",
          "dependent": 6,
          "dependentGloss": "der"
        },
        {
          "dep": "amod",
          "governor": 8,
          "governorGloss": "Rap",
          "dependent": 7,
          "dependentGloss": "Pionier"
        },
        {
          "dep": "nsubj",
          "governor": 5,
          "governorGloss": "Hank",
          "dependent": 8,
          "dependentGloss": "Rap"
        },
        {
          "dep": "name",
          "governor": 11,
          "governorGloss": "Gang",
          "dependent": 9,
          "dependentGloss": "Gruppe"
        },
        {
          "dep": "name",
          "governor": 11,
          "governorGloss": "Gang",
          "dependent": 10,
          "dependentGloss": "Sugarhill"
        },
        {
          "dep": "appos",
          "governor": 8,
          "governorGloss": "Rap",
          "dependent": 11,
          "dependentGloss": "Gang"
        },
        {
          "dep": "aux",
          "governor": 13,
          "governorGloss": "gestorben",
          "dependent": 12,
          "dependentGloss": "ist"
        }
      ],
      "enhancedPlusPlusDependencies": [
        {
          "dep": "ROOT",
          "governor": 0,
          "governorGloss": "ROOT",
          "dependent": 13,
          "dependentGloss": "gestorben"
        },
        {
          "dep": "dep",
          "governor": 5,
          "governorGloss": "Hank",
          "dependent": 1,
          "dependentGloss": "Berichte"
        },
        {
          "dep": "punct",
          "governor": 1,
          "governorGloss": "Berichte",
          "dependent": 2,
          "dependentGloss": ":"
        },
        {
          "dep": "amod",
          "governor": 4,
          "governorGloss": "Bank",
          "dependent": 3,
          "dependentGloss": "Big"
        },
        {
          "dep": "name",
          "governor": 5,
          "governorGloss": "Hank",
          "dependent": 4,
          "dependentGloss": "Bank"
        },
        {
          "dep": "nsubj",
          "governor": 13,
          "governorGloss": "gestorben",
          "dependent": 5,
          "dependentGloss": "Hank"
        },
        {
          "dep": "det",
          "governor": 8,
          "governorGloss": "Rap",
          "dependent": 6,
          "dependentGloss": "der"
        },
        {
          "dep": "amod",
          "governor": 8,
          "governorGloss": "Rap",
          "dependent": 7,
          "dependentGloss": "Pionier"
        },
        {
          "dep": "nsubj",
          "governor": 5,
          "governorGloss": "Hank",
          "dependent": 8,
          "dependentGloss": "Rap"
        },
        {
          "dep": "name",
          "governor": 11,
          "governorGloss": "Gang",
          "dependent": 9,
          "dependentGloss": "Gruppe"
        },
        {
          "dep": "name",
          "governor": 11,
          "governorGloss": "Gang",
          "dependent": 10,
          "dependentGloss": "Sugarhill"
        },
        {
          "dep": "appos",
          "governor": 8,
          "governorGloss": "Rap",
          "dependent": 11,
          "dependentGloss": "Gang"
        },
        {
          "dep": "aux",
          "governor": 13,
          "governorGloss": "gestorben",
          "dependent": 12,
          "dependentGloss": "ist"
        }
      ],
      "tokens": [
        {
          "index": 1,
          "word": "Berichte",
          "originalText": "Berichte",
          "characterOffsetBegin": 0,
          "characterOffsetEnd": 8,
          "pos": "NN",
          "before": "",
          "after": ""
        },
        {
          "index": 2,
          "word": ":",
          "originalText": ":",
          "characterOffsetBegin": 8,
          "characterOffsetEnd": 9,
          "pos": "$.",
          "before": "",
          "after": " "
        },
        {
          "index": 3,
          "word": "Big",
          "originalText": "Big",
          "characterOffsetBegin": 10,
          "characterOffsetEnd": 13,
          "pos": "NE",
          "before": " ",
          "after": " "
        },
        {
          "index": 4,
          "word": "Bank",
          "originalText": "Bank",
          "characterOffsetBegin": 14,
          "characterOffsetEnd": 18,
          "pos": "NN",
          "before": " ",
          "after": " "
        },
        {
          "index": 5,
          "word": "Hank",
          "originalText": "Hank",
          "characterOffsetBegin": 19,
          "characterOffsetEnd": 23,
          "pos": "NE",
          "before": " ",
          "after": " "
        },
        {
          "index": 6,
          "word": "der",
          "originalText": "der",
          "characterOffsetBegin": 24,
          "characterOffsetEnd": 27,
          "pos": "ART",
          "before": " ",
          "after": " "
        },
        {
          "index": 7,
          "word": "Pionier",
          "originalText": "Pionier",
          "characterOffsetBegin": 28,
          "characterOffsetEnd": 35,
          "pos": "NN",
          "before": " ",
          "after": " "
        },
        {
          "index": 8,
          "word": "Rap",
          "originalText": "Rap",
          "characterOffsetBegin": 36,
          "characterOffsetEnd": 39,
          "pos": "NN",
          "before": " ",
          "after": " "
        },
        {
          "index": 9,
          "word": "Gruppe",
          "originalText": "Gruppe",
          "characterOffsetBegin": 40,
          "characterOffsetEnd": 46,
          "pos": "NN",
          "before": " ",
          "after": " "
        },
        {
          "index": 10,
          "word": "Sugarhill",
          "originalText": "Sugarhill",
          "characterOffsetBegin": 47,
          "characterOffsetEnd": 56,
          "pos": "NE",
          "before": " ",
          "after": " "
        },
        {
          "index": 11,
          "word": "Gang",
          "originalText": "Gang",
          "characterOffsetBegin": 57,
          "characterOffsetEnd": 61,
          "pos": "NN",
          "before": " ",
          "after": " "
        },
        {
          "index": 12,
          "word": "ist",
          "originalText": "ist",
          "characterOffsetBegin": 62,
          "characterOffsetEnd": 65,
          "pos": "VAFIN",
          "before": " ",
          "after": " "
        },
        {
          "index": 13,
          "word": "gestorben",
          "originalText": "gestorben",
          "characterOffsetBegin": 66,
          "characterOffsetEnd": 75,
          "pos": "VVPP",
          "before": " ",
          "after": ""
        }
      ]
    }
  ]
}