{
  "sentences": [
    {
      "index": 0,
      "basicDependencies": [
        {
          "dep": "ROOT",
          "governor": 0,
          "governorGloss": "ROOT",
          "dependent": 2,
          "dependentGloss": "Mama"
        },
        {
          "dep": "nsubj",
          "governor": 2,
          "governorGloss": "Mama",
          "dependent": 1,
          "dependentGloss": "Kannibalen"
        },
        {
          "dep": "advmod",
          "governor": 2,
          "governorGloss": "Mama",
          "dependent": 3,
          "dependentGloss": "versucht"
        },
        {
          "dep": "punct",
          "governor": 2,
          "governorGloss": "Mama",
          "dependent": 4,
          "dependentGloss": ","
        },
        {
          "dep": "det",
          "governor": 7,
          "governorGloss": "Baby",
          "dependent": 5,
          "dependentGloss": "ihr"
        },
        {
          "dep": "amod",
          "governor": 7,
          "governorGloss": "Baby",
          "dependent": 6,
          "dependentGloss": "eigenes"
        },
        {
          "dep": "dobj",
          "governor": 13,
          "governorGloss": "essen",
          "dependent": 7,
          "dependentGloss": "Baby"
        },
        {
          "dep": "advmod",
          "governor": 13,
          "governorGloss": "essen",
          "dependent": 8,
          "dependentGloss": "kurz"
        },
        {
          "dep": "case",
          "governor": 11,
          "governorGloss": "Geburt",
          "dependent": 9,
          "dependentGloss": "nach"
        },
        {
          "dep": "det",
          "governor": 11,
          "governorGloss": "Geburt",
          "dependent": 10,
          "dependentGloss": "der"
        },
        {
          "dep": "nmod",
          "governor": 13,
          "governorGloss": "essen",
          "dependent": 11,
          "dependentGloss": "Geburt"
        },
        {
          "dep": "aux",
          "governor": 13,
          "governorGloss": "essen",
          "dependent": 12,
          "dependentGloss": "zu"
        },
        {
          "dep": "xcomp",
          "governor": 2,
          "governorGloss": "Mama",
          "dependent": 13,
          "dependentGloss": "essen"
        }
      ],
      "enhancedDependencies": [
        {
          "dep": "ROOT",
          "governor": 0,
          "governorGloss": "ROOT",
          "dependent": 2,
          "dependentGloss": "Mama"
        },
        {
          "dep": "nsubj",
          "governor": 2,
          "governorGloss": "Mama",
          "dependent": 1,
          "dependentGloss": "Kannibalen"
        },
        {
          "dep": "advmod",
          "governor": 2,
          "governorGloss": "Mama",
          "dependent": 3,
          "dependentGloss": "versucht"
        },
        {
          "dep": "punct",
          "governor": 2,
          "governorGloss": "Mama",
          "dependent": 4,
          "dependentGloss": ","
        },
        {
          "dep": "det",
          "governor": 7,
          "governorGloss": "Baby",
          "dependent": 5,
          "dependentGloss": "ihr"
        },
        {
          "dep": "amod",
          "governor": 7,
          "governorGloss": "Baby",
          "dependent": 6,
          "dependentGloss": "eigenes"
        },
        {
          "dep": "dobj",
          "governor": 13,
          "governorGloss": "essen",
          "dependent": 7,
          "dependentGloss": "Baby"
        },
        {
          "dep": "advmod",
          "governor": 13,
          "governorGloss": "essen",
          "dependent": 8,
          "dependentGloss": "kurz"
        },
        {
          "dep": "case",
          "governor": 11,
          "governorGloss": "Geburt",
          "dependent": 9,
          "dependentGloss": "nach"
        },
        {
          "dep": "det",
          "governor": 11,
          "governorGloss": "Geburt",
          "dependent": 10,
          "dependentGloss": "der"
        },
        {
          "dep": "nmod",
          "governor": 13,
          "governorGloss": "essen",
          "dependent": 11,
          "dependentGloss": "Geburt"
        },
        {
          "dep": "aux",
          "governor": 13,
          "governorGloss": "essen",
          "dependent": 12,
          "dependentGloss": "zu"
        },
        {
          "dep": "xcomp",
          "governor": 2,
          "governorGloss": "Mama",
          "dependent": 13,
          "dependentGloss": "essen"
        }
      ],
      "enhancedPlusPlusDependencies": [
        {
          "dep": "ROOT",
          "governor": 0,
          "governorGloss": "ROOT",
          "dependent": 2,
          "dependentGloss": "Mama"
        },
        {
          "dep": "nsubj",
          "governor": 2,
          "governorGloss": "Mama",
          "dependent": 1,
          "dependentGloss": "Kannibalen"
        },
        {
          "dep": "advmod",
          "governor": 2,
          "governorGloss": "Mama",
          "dependent": 3,
          "dependentGloss": "versucht"
        },
        {
          "dep": "punct",
          "governor": 2,
          "governorGloss": "Mama",
          "dependent": 4,
          "dependentGloss": ","
        },
        {
          "dep": "det",
          "governor": 7,
          "governorGloss": "Baby",
          "dependent": 5,
          "dependentGloss": "ihr"
        },
        {
          "dep": "amod",
          "governor": 7,
          "governorGloss": "Baby",
          "dependent": 6,
          "dependentGloss": "eigenes"
        },
        {
          "dep": "dobj",
          "governor": 13,
          "governorGloss": "essen",
          "dependent": 7,
          "dependentGloss": "Baby"
        },
        {
          "dep": "advmod",
          "governor": 13,
          "governorGloss": "essen",
          "dependent": 8,
          "dependentGloss": "kurz"
        },
        {
          "dep": "case",
          "governor": 11,
          "governorGloss": "Geburt",
          "dependent": 9,
          "dependentGloss": "nach"
        },
        {
          "dep": "det",
          "governor": 11,
          "governorGloss": "Geburt",
          "dependent": 10,
          "dependentGloss": "der"
        },
        {
          "dep": "nmod",
          "governor": 13,
          "governorGloss": "essen",
          "dependent": 11,
          "dependentGloss": "Geburt"
        },
        {
          "dep": "aux",
          "governor": 13,
          "governorGloss": "essen",
          "dependent": 12,
          "dependentGloss": "zu"
        },
        {
          "dep": "xcomp",
          "governor": 2,
          "governorGloss": "Mama",
          "dependent": 13,
          "dependentGloss": "essen"
        }
      ],
      "tokens": [
        {
          "index": 1,
          "word": "Kannibalen",
          "originalText": "Kannibalen",
          "characterOffsetBegin": 0,
          "characterOffsetEnd": 10,
          "pos": "ADJA",
          "before": "",
          "after": " "
        },
        {
          "index": 2,
          "word": "Mama",
          "originalText": "Mama",
          "characterOffsetBegin": 11,
          "characterOffsetEnd": 15,
          "pos": "NN",
          "before": " ",
          "after": " "
        },
        {
          "index": 3,
          "word": "versucht",
          "originalText": "versucht",
          "characterOffsetBegin": 16,
          "characterOffsetEnd": 24,
          "pos": "VVFIN",
          "before": " ",
          "after": ""
        },
        {
          "index": 4,
          "word": ",",
          "originalText": ",",
          "characterOffsetBegin": 24,
          "characterOffsetEnd": 25,
          "pos": "$,",
          "before": "",
          "after": " "
        },
        {
          "index": 5,
          "word": "ihr",
          "originalText": "ihr",
          "characterOffsetBegin": 26,
          "characterOffsetEnd": 29,
          "pos": "PPOSAT",
          "before": " ",
          "after": " "
        },
        {
          "index": 6,
          "word": "eigenes",
          "originalText": "eigenes",
          "characterOffsetBegin": 30,
          "characterOffsetEnd": 37,
          "pos": "ADJA",
          "before": " ",
          "after": " "
        },
        {
          "index": 7,
          "word": "Baby",
          "originalText": "Baby",
          "characterOffsetBegin": 38,
          "characterOffsetEnd": 42,
          "pos": "NN",
          "before": " ",
          "after": " "
        },
        {
          "index": 8,
          "word": "kurz",
          "originalText": "kurz",
          "characterOffsetBegin": 43,
          "characterOffsetEnd": 47,
          "pos": "ADJD",
          "before": " ",
          "after": " "
        },
        {
          "index": 9,
          "word": "nach",
          "originalText": "nach",
          "characterOffsetBegin": 48,
          "characterOffsetEnd": 52,
          "pos": "APPR",
          "before": " ",
          "after": " "
        },
        {
          "index": 10,
          "word": "der",
          "originalText": "der",
          "characterOffsetBegin": 53,
          "characterOffsetEnd": 56,
          "pos": "ART",
          "before": " ",
          "after": " "
        },
        {
          "index": 11,
          "word": "Geburt",
          "originalText": "Geburt",
          "characterOffsetBegin": 57,
          "characterOffsetEnd": 63,
          "pos": "NN",
          "before": " ",
          "after": " "
        },
        {
          "index": 12,
          "word": "zu",
          "originalText": "zu",
          "characterOffsetBegin": 64,
          "characterOffsetEnd": 66,
          "pos": "PTKZU",
          "before": " ",
          "after": " "
        },
        {
          "index": 13,
          "word": "essen",
          "originalText": "essen",
          "characterOffsetBegin": 67,
          "characterOffsetEnd": 72,
          "pos": "VVINF",
          "before": " ",
          "after": ""
        }
      ]
    }
  ]
}