{
  "sentences": [
    {
      "index": 0,
      "basicDependencies": [
        {
          "dep": "ROOT",
          "governor": 0,
          "governorGloss": "ROOT",
          "dependent": 4,
          "dependentGloss": "erhalten"
        },
        {
          "dep": "nummod",
          "governor": 3,
          "governorGloss": "Mädchen",
          "dependent": 1,
          "dependentGloss": "7"
        },
        {
          "dep": "amod",
          "governor": 3,
          "governorGloss": "Mädchen",
          "dependent": 2,
          "dependentGloss": "jugendlich"
        },
        {
          "dep": "nsubj",
          "governor": 4,
          "governorGloss": "erhalten",
          "dependent": 3,
          "dependentGloss": "Mädchen"
        },
        {
          "dep": "dobj",
          "governor": 4,
          "governorGloss": "erhalten",
          "dependent": 5,
          "dependentGloss": "schwanger"
        },
        {
          "dep": "case",
          "governor": 8,
          "governorGloss": "Lesen",
          "dependent": 6,
          "dependentGloss": "auf"
        },
        {
          "dep": "amod",
          "governor": 8,
          "governorGloss": "Lesen",
          "dependent": 7,
          "dependentGloss": "Schultour"
        },
        {
          "dep": "nmod",
          "governor": 4,
          "governorGloss": "erhalten",
          "dependent": 8,
          "dependentGloss": "Lesen"
        },
        {
          "dep": "dobj",
          "governor": 4,
          "governorGloss": "erhalten",
          "dependent": 9,
          "dependentGloss": "Sie"
        },
        {
          "dep": "advmod",
          "governor": 9,
          "governorGloss": "Sie",
          "dependent": 10,
          "dependentGloss": "mehr"
        },
        {
          "dep": "case",
          "governor": 12,
          "governorGloss": "http://www.wnd.com/2014/12/7-teen-girls-get-pregnant-on-school-trip/#F5filOd6yFpASPV9.99",
          "dependent": 11,
          "dependentGloss": "auf"
        },
        {
          "dep": "nmod",
          "governor": 10,
          "governorGloss": "mehr",
          "dependent": 12,
          "dependentGloss": "http://www.wnd.com/2014/12/7-teen-girls-get-pregnant-on-school-trip/#F5filOd6yFpASPV9.99"
        }
      ],
      "enhancedDependencies": [
        {
          "dep": "ROOT",
          "governor": 0,
          "governorGloss": "ROOT",
          "dependent": 4,
          "dependentGloss": "erhalten"
        },
        {
          "dep": "nummod",
          "governor": 3,
          "governorGloss": "Mädchen",
          "dependent": 1,
          "dependentGloss": "7"
        },
        {
          "dep": "amod",
          "governor": 3,
          "governorGloss": "Mädchen",
          "dependent": 2,
          "dependentGloss": "jugendlich"
        },
        {
          "dep": "nsubj",
          "governor": 4,
          "governorGloss": "erhalten",
          "dependent": 3,
          "dependentGloss": "Mädchen"
        },
        {
          "dep": "dobj",
          "governor": 4,
          "governorGloss": "erhalten",
          "dependent": 5,
          "dependentGloss": "schwanger"
        },
        {
          "dep": "case",
          "governor": 8,
          "governorGloss": "Lesen",
          "dependent": 6,
          "dependentGloss": "auf"
        },
        {
          "dep": "amod",
          "governor": 8,
          "governorGloss": "Lesen",
          "dependent": 7,
          "dependentGloss": "Schultour"
        },
        {
          "dep": "nmod",
          "governor": 4,
          "governorGloss": "erhalten",
          "dependent": 8,
          "dependentGloss": "Lesen"
        },
        {
          "dep": "dobj",
          "governor": 4,
          "governorGloss": "erhalten",
          "dependent": 9,
          "dependentGloss": "Sie"
        },
        {
          "dep": "advmod",
          "governor": 9,
          "governorGloss": "Sie",
          "dependent": 10,
          "dependentGloss": "mehr"
        },
        {
          "dep": "case",
          "governor": 12,
          "governorGloss": "http://www.wnd.com/2014/12/7-teen-girls-get-pregnant-on-school-trip/#F5filOd6yFpASPV9.99",
          "dependent": 11,
          "dependentGloss": "auf"
        },
        {
          "dep": "nmod",
          "governor": 10,
          "governorGloss": "mehr",
          "dependent": 12,
          "dependentGloss": "http://www.wnd.com/2014/12/7-teen-girls-get-pregnant-on-school-trip/#F5filOd6yFpASPV9.99"
        }
      ],
      "enhancedPlusPlusDependencies": [
        {
          "dep": "ROOT",
          "governor": 0,
          "governorGloss": "ROOT",
          "dependent": 4,
          "dependentGloss": "erhalten"
        },
        {
          "dep": "nummod",
          "governor": 3,
          "governorGloss": "Mädchen",
          "dependent": 1,
          "dependentGloss": "7"
        },
        {
          "dep": "amod",
          "governor": 3,
          "governorGloss": "Mädchen",
          "dependent": 2,
          "dependentGloss": "jugendlich"
        },
        {
          "dep": "nsubj",
          "governor": 4,
          "governorGloss": "erhalten",
          "dependent": 3,
          "dependentGloss": "Mädchen"
        },
        {
          "dep": "dobj",
          "governor": 4,
          "governorGloss": "erhalten",
          "dependent": 5,
          "dependentGloss": "schwanger"
        },
        {
          "dep": "case",
          "governor": 8,
          "governorGloss": "Lesen",
          "dependent": 6,
          "dependentGloss": "auf"
        },
        {
          "dep": "amod",
          "governor": 8,
          "governorGloss": "Lesen",
          "dependent": 7,
          "dependentGloss": "Schultour"
        },
        {
          "dep": "nmod",
          "governor": 4,
          "governorGloss": "erhalten",
          "dependent": 8,
          "dependentGloss": "Lesen"
        },
        {
          "dep": "dobj",
          "governor": 4,
          "governorGloss": "erhalten",
          "dependent": 9,
          "dependentGloss": "Sie"
        },
        {
          "dep": "advmod",
          "governor": 9,
          "governorGloss": "Sie",
          "dependent": 10,
          "dependentGloss": "mehr"
        },
        {
          "dep": "case",
          "governor": 12,
          "governorGloss": "http://www.wnd.com/2014/12/7-teen-girls-get-pregnant-on-school-trip/#F5filOd6yFpASPV9.99",
          "dependent": 11,
          "dependentGloss": "auf"
        },
        {
          "dep": "nmod",
          "governor": 10,
          "governorGloss": "mehr",
          "dependent": 12,
          "dependentGloss": "http://www.wnd.com/2014/12/7-teen-girls-get-pregnant-on-school-trip/#F5filOd6yFpASPV9.99"
        }
      ],
      "tokens": [
        {
          "index": 1,
          "word": "7",
          "originalText": "7",
          "characterOffsetBegin": 0,
          "characterOffsetEnd": 1,
          "pos": "CARD",
          "before": "",
          "after": " "
        },
        {
          "index": 2,
          "word": "jugendlich",
          "originalText": "jugendlich",
          "characterOffsetBegin": 2,
          "characterOffsetEnd": 12,
          "pos": "ADJD",
          "before": " ",
          "after": " "
        },
        {
          "index": 3,
          "word": "Mädchen",
          "originalText": "Mädchen",
          "characterOffsetBegin": 13,
          "characterOffsetEnd": 20,
          "pos": "NN",
          "before": " ",
          "after": " "
        },
        {
          "index": 4,
          "word": "erhalten",
          "originalText": "erhalten",
          "characterOffsetBegin": 21,
          "characterOffsetEnd": 29,
          "pos": "VVFIN",
          "before": " ",
          "after": " "
        },
        {
          "index": 5,
          "word": "schwanger",
          "originalText": "schwanger",
          "characterOffsetBegin": 30,
          "characterOffsetEnd": 39,
          "pos": "ADJD",
          "before": " ",
          "after": " "
        },
        {
          "index": 6,
          "word": "auf",
          "originalText": "auf",
          "characterOffsetBegin": 40,
          "characterOffsetEnd": 43,
          "pos": "APPR",
          "before": " ",
          "after": " "
        },
        {
          "index": 7,
          "word": "Schultour",
          "originalText": "Schultour",
          "characterOffsetBegin": 44,
          "characterOffsetEnd": 53,
          "pos": "NN",
          "before": " ",
          "after": " "
        },
        {
          "index": 8,
          "word": "Lesen",
          "originalText": "Lesen",
          "characterOffsetBegin": 54,
          "characterOffsetEnd": 59,
          "pos": "NN",
          "before": " ",
          "after": " "
        },
        {
          "index": 9,
          "word": "Sie",
          "originalText": "Sie",
          "characterOffsetBegin": 60,
          "characterOffsetEnd": 63,
          "pos": "PPER",
          "before": " ",
          "after": " "
        },
        {
          "index": 10,
          "word": "mehr",
          "originalText": "mehr",
          "characterOffsetBegin": 64,
          "characterOffsetEnd": 68,
          "pos": "ADV",
          "before": " ",
          "after": " "
        },
        {
          "index": 11,
          "word": "auf",
          "originalText": "auf",
          "characterOffsetBegin": 69,
          "characterOffsetEnd": 72,
          "pos": "APPR",
          "before": " ",
          "after": " "
        },
        {
          "index": 12,
          "word": "http://www.wnd.com/2014/12/7-teen-girls-get-pregnant-on-school-trip/#F5filOd6yFpASPV9.99",
          "originalText": "http://www.wnd.com/2014/12/7-teen-girls-get-pregnant-on-school-trip/#F5filOd6yFpASPV9.99",
          "characterOffsetBegin": 73,
          "characterOffsetEnd": 161,
          "pos": "NN",
          "before": " ",
          "after": ""
        }
      ]
    }
  ]
}