{
  "sentences": [
    {
      "index": 0,
      "basicDependencies": [
        {
          "dep": "ROOT",
          "governor": 0,
          "governorGloss": "ROOT",
          "dependent": 1,
          "dependentGloss": "Hat"
        },
        {
          "dep": "name",
          "governor": 5,
          "governorGloss": "Stage",
          "dependent": 2,
          "dependentGloss": "Josh"
        },
        {
          "dep": "name",
          "governor": 5,
          "governorGloss": "Stage",
          "dependent": 3,
          "dependentGloss": "Paler"
        },
        {
          "dep": "name",
          "governor": 5,
          "governorGloss": "Stage",
          "dependent": 4,
          "dependentGloss": "Lin"
        },
        {
          "dep": "dobj",
          "governor": 1,
          "governorGloss": "Hat",
          "dependent": 5,
          "dependentGloss": "Stage"
        },
        {
          "dep": "det",
          "governor": 8,
          "governorGloss": "Video",
          "dependent": 6,
          "dependentGloss": "Sein"
        },
        {
          "dep": "amod",
          "governor": 8,
          "governorGloss": "Video",
          "dependent": 7,
          "dependentGloss": "Viral"
        },
        {
          "dep": "det",
          "governor": 5,
          "governorGloss": "Stage",
          "dependent": 8,
          "dependentGloss": "Video"
        },
        {
          "dep": "case",
          "governor": 11,
          "governorGloss": "Hilfe",
          "dependent": 9,
          "dependentGloss": "über"
        },
        {
          "dep": "det",
          "governor": 11,
          "governorGloss": "Hilfe",
          "dependent": 10,
          "dependentGloss": "die"
        },
        {
          "dep": "nmod",
          "governor": 8,
          "governorGloss": "Video",
          "dependent": 11,
          "dependentGloss": "Hilfe"
        },
        {
          "dep": "det",
          "governor": 13,
          "governorGloss": "Obdachlosen",
          "dependent": 12,
          "dependentGloss": "der"
        },
        {
          "dep": "det",
          "governor": 11,
          "governorGloss": "Hilfe",
          "dependent": 13,
          "dependentGloss": "Obdachlosen"
        },
        {
          "dep": "punct",
          "governor": 1,
          "governorGloss": "Hat",
          "dependent": 14,
          "dependentGloss": "?"
        }
      ],
      "enhancedDependencies": [
        {
          "dep": "ROOT",
          "governor": 0,
          "governorGloss": "ROOT",
          "dependent": 1,
          "dependentGloss": "Hat"
        },
        {
          "dep": "name",
          "governor": 5,
          "governorGloss": "Stage",
          "dependent": 2,
          "dependentGloss": "Josh"
        },
        {
          "dep": "name",
          "governor": 5,
          "governorGloss": "Stage",
          "dependent": 3,
          "dependentGloss": "Paler"
        },
        {
          "dep": "name",
          "governor": 5,
          "governorGloss": "Stage",
          "dependent": 4,
          "dependentGloss": "Lin"
        },
        {
          "dep": "dobj",
          "governor": 1,
          "governorGloss": "Hat",
          "dependent": 5,
          "dependentGloss": "Stage"
        },
        {
          "dep": "det",
          "governor": 8,
          "governorGloss": "Video",
          "dependent": 6,
          "dependentGloss": "Sein"
        },
        {
          "dep": "amod",
          "governor": 8,
          "governorGloss": "Video",
          "dependent": 7,
          "dependentGloss": "Viral"
        },
        {
          "dep": "det",
          "governor": 5,
          "governorGloss": "Stage",
          "dependent": 8,
          "dependentGloss": "Video"
        },
        {
          "dep": "case",
          "governor": 11,
          "governorGloss": "Hilfe",
          "dependent": 9,
          "dependentGloss": "über"
        },
        {
          "dep": "det",
          "governor": 11,
          "governorGloss": "Hilfe",
          "dependent": 10,
          "dependentGloss": "die"
        },
        {
          "dep": "nmod",
          "governor": 8,
          "governorGloss": "Video",
          "dependent": 11,
          "dependentGloss": "Hilfe"
        },
        {
          "dep": "det",
          "governor": 13,
          "governorGloss": "Obdachlosen",
          "dependent": 12,
          "dependentGloss": "der"
        },
        {
          "dep": "det",
          "governor": 11,
          "governorGloss": "Hilfe",
          "dependent": 13,
          "dependentGloss": "Obdachlosen"
        },
        {
          "dep": "punct",
          "governor": 1,
          "governorGloss": "Hat",
          "dependent": 14,
          "dependentGloss": "?"
        }
      ],
      "enhancedPlusPlusDependencies": [
        {
          "dep": "ROOT",
          "governor": 0,
          "governorGloss": "ROOT",
          "dependent": 1,
          "dependentGloss": "Hat"
        },
        {
          "dep": "name",
          "governor": 5,
          "governorGloss": "Stage",
          "dependent": 2,
          "dependentGloss": "Josh"
        },
        {
          "dep": "name",
          "governor": 5,
          "governorGloss": "Stage",
          "dependent": 3,
          "dependentGloss": "Paler"
        },
        {
          "dep": "name",
          "governor": 5,
          "governorGloss": "Stage",
          "dependent": 4,
          "dependentGloss": "Lin"
        },
        {
          "dep": "dobj",
          "governor": 1,
          "governorGloss": "Hat",
          "dependent": 5,
          "dependentGloss": "Stage"
        },
        {
          "dep": "det",
          "governor": 8,
          "governorGloss": "Video",
          "dependent": 6,
          "dependentGloss": "Sein"
        },
        {
          "dep": "amod",
          "governor": 8,
          "governorGloss": "Video",
          "dependent": 7,
          "dependentGloss": "Viral"
        },
        {
          "dep": "det",
          "governor": 5,
          "governorGloss": "Stage",
          "dependent": 8,
          "dependentGloss": "Video"
        },
        {
          "dep": "case",
          "governor": 11,
          "governorGloss": "Hilfe",
          "dependent": 9,
          "dependentGloss": "über"
        },
        {
          "dep": "det",
          "governor": 11,
          "governorGloss": "Hilfe",
          "dependent": 10,
          "dependentGloss": "die"
        },
        {
          "dep": "nmod",
          "governor": 8,
          "governorGloss": "Video",
          "dependent": 11,
          "dependentGloss": "Hilfe"
        },
        {
          "dep": "det",
          "governor": 13,
          "governorGloss": "Obdachlosen",
          "dependent": 12,
          "dependentGloss": "der"
        },
        {
          "dep": "det",
          "governor": 11,
          "governorGloss": "Hilfe",
          "dependent": 13,
          "dependentGloss": "Obdachlosen"
        },
        {
          "dep": "punct",
          "governor": 1,
          "governorGloss": "Hat",
          "dependent": 14,
          "dependentGloss": "?"
        }
      ],
      "tokens": [
        {
          "index": 1,
          "word": "Hat",
          "originalText": "Hat",
          "characterOffsetBegin": 0,
          "characterOffsetEnd": 3,
          "pos": "VAFIN",
          "before": "",
          "after": " "
        },
        {
          "index": 2,
          "word": "Josh",
          "originalText": "Josh",
          "characterOffsetBegin": 4,
          "characterOffsetEnd": 8,
          "pos": "NE",
          "before": " ",
          "after": " "
        },
        {
          "index": 3,
          "word": "Paler",
          "originalText": "Paler",
          "characterOffsetBegin": 9,
          "characterOffsetEnd": 14,
          "pos": "NE",
          "before": " ",
          "after": " "
        },
        {
          "index": 4,
          "word": "Lin",
          "originalText": "Lin",
          "characterOffsetBegin": 15,
          "characterOffsetEnd": 18,
          "pos": "NE",
          "before": " ",
          "after": " "
        },
        {
          "index": 5,
          "word": "Stage",
          "originalText": "Stage",
          "characterOffsetBegin": 19,
          "characterOffsetEnd": 24,
          "pos": "NE",
          "before": " ",
          "after": " "
        },
        {
          "index": 6,
          "word": "Sein",
          "originalText": "Sein",
          "characterOffsetBegin": 25,
          "characterOffsetEnd": 29,
          "pos": "PPOSAT",
          "before": " ",
          "after": " "
        },
        {
          "index": 7,
          "word": "Viral",
          "originalText": "Viral",
          "characterOffsetBegin": 30,
          "characterOffsetEnd": 35,
          "pos": "NE",
          "before": " ",
          "after": " "
        },
        {
          "index": 8,
          "word": "Video",
          "originalText": "Video",
          "characterOffsetBegin": 36,
          "characterOffsetEnd": 41,
          "pos": "NN",
          "before": " ",
          "after": " "
        },
        {
          "index": 9,
          "word": "über",
          "originalText": "über",
          "characterOffsetBegin": 42,
          "characterOffsetEnd": 46,
          "pos": "APPR",
          "before": " ",
          "after": " "
        },
        {
          "index": 10,
          "word": "die",
          "originalText": "die",
          "characterOffsetBegin": 47,
          "characterOffsetEnd": 50,
          "pos": "ART",
          "before": " ",
          "after": " "
        },
        {
          "index": 11,
          "word": "Hilfe",
          "originalText": "Hilfe",
          "characterOffsetBegin": 51,
          "characterOffsetEnd": 56,
          "pos": "NN",
          "before": " ",
          "after": " "
        },
        {
          "index": 12,
          "word": "der",
          "originalText": "der",
          "characterOffsetBegin": 57,
          "characterOffsetEnd": 60,
          "pos": "ART",
          "before": " ",
          "after": " "
        },
        {
          "index": 13,
          "word": "Obdachlosen",
          "originalText": "Obdachlosen",
          "characterOffsetBegin": 61,
          "characterOffsetEnd": 72,
          "pos": "NN",
          "before": " ",
          "after": ""
        },
        {
          "index": 14,
          "word": "?",
          "originalText": "?",
          "characterOffsetBegin": 72,
          "characterOffsetEnd": 73,
          "pos": "$.",
          "before": "",
          "after": ""
        }
      ]
    }
  ]
}