{
  "sentences": [
    {
      "index": 0,
      "basicDependencies": [
        {
          "dep": "ROOT",
          "governor": 0,
          "governorGloss": "ROOT",
          "dependent": 7,
          "dependentGloss": "entlarvten"
        },
        {
          "dep": "nsubj",
          "governor": 7,
          "governorGloss": "entlarvten",
          "dependent": 1,
          "dependentGloss": "Gerüchte"
        },
        {
          "dep": "case",
          "governor": 4,
          "governorGloss": "Tod",
          "dependent": 2,
          "dependentGloss": "über"
        },
        {
          "dep": "det",
          "governor": 4,
          "governorGloss": "Tod",
          "dependent": 3,
          "dependentGloss": "den"
        },
        {
          "dep": "nmod",
          "governor": 1,
          "governorGloss": "Gerüchte",
          "dependent": 4,
          "dependentGloss": "Tod"
        },
        {
          "dep": "det",
          "governor": 6,
          "governorGloss": "ISIS-Führers",
          "dependent": 5,
          "dependentGloss": "des"
        },
        {
          "dep": "det",
          "governor": 4,
          "governorGloss": "Tod",
          "dependent": 6,
          "dependentGloss": "ISIS-Führers"
        }
      ],
      "enhancedDependencies": [
        {
          "dep": "ROOT",
          "governor": 0,
          "governorGloss": "ROOT",
          "dependent": 7,
          "dependentGloss": "entlarvten"
        },
        {
          "dep": "nsubj",
          "governor": 7,
          "governorGloss": "entlarvten",
          "dependent": 1,
          "dependentGloss": "Gerüchte"
        },
        {
          "dep": "case",
          "governor": 4,
          "governorGloss": "Tod",
          "dependent": 2,
          "dependentGloss": "über"
        },
        {
          "dep": "det",
          "governor": 4,
          "governorGloss": "Tod",
          "dependent": 3,
          "dependentGloss": "den"
        },
        {
          "dep": "nmod",
          "governor": 1,
          "governorGloss": "Gerüchte",
          "dependent": 4,
          "dependentGloss": "Tod"
        },
        {
          "dep": "det",
          "governor": 6,
          "governorGloss": "ISIS-Führers",
          "dependent": 5,
          "dependentGloss": "des"
        },
        {
          "dep": "det",
          "governor": 4,
          "governorGloss": "Tod",
          "dependent": 6,
          "dependentGloss": "ISIS-Führers"
        }
      ],
      "enhancedPlusPlusDependencies": [
        {
          "dep": "ROOT",
          "governor": 0,
          "governorGloss": "ROOT",
          "dependent": 7,
          "dependentGloss": "entlarvten"
        },
        {
          "dep": "nsubj",
          "governor": 7,
          "governorGloss": "entlarvten",
          "dependent": 1,
          "dependentGloss": "Gerüchte"
        },
        {
          "dep": "case",
          "governor": 4,
          "governorGloss": "Tod",
          "dependent": 2,
          "dependentGloss": "über"
        },
        {
          "dep": "det",
          "governor": 4,
          "governorGloss": "Tod",
          "dependent": 3,
          "dependentGloss": "den"
        },
        {
          "dep": "nmod",
          "governor": 1,
          "governorGloss": "Gerüchte",
          "dependent": 4,
          "dependentGloss": "Tod"
        },
        {
          "dep": "det",
          "governor": 6,
          "governorGloss": "ISIS-Führers",
          "dependent": 5,
          "dependentGloss": "des"
        },
        {
          "dep": "det",
          "governor": 4,
          "governorGloss": "Tod",
          "dependent": 6,
          "dependentGloss": "ISIS-Führers"
        }
      ],
      "tokens": [
        {
          "index": 1,
          "word": "Gerüchte",
          "originalText": "Gerüchte",
          "characterOffsetBegin": 0,
          "characterOffsetEnd": 8,
          "pos": "NN",
          "before": "",
          "after": " "
        },
        {
          "index": 2,
          "word": "über",
          "originalText": "über",
          "characterOffsetBegin": 9,
          "characterOffsetEnd": 13,
          "pos": "APPR",
          "before": " ",
          "after": " "
        },
        {
          "index": 3,
          "word": "den",
          "originalText": "den",
          "characterOffsetBegin": 14,
          "characterOffsetEnd": 17,
          "pos": "ART",
          "before": " ",
          "after": " "
        },
        {
          "index": 4,
          "word": "Tod",
          "originalText": "Tod",
          "characterOffsetBegin": 18,
          "characterOffsetEnd": 21,
          "pos": "NN",
          "before": " ",
          "after": " "
        },
        {
          "index": 5,
          "word": "des",
          "originalText": "des",
          "characterOffsetBegin": 22,
          "characterOffsetEnd": 25,
          "pos": "ART",
          "before": " ",
          "after": " "
        },
        {
          "index": 6,
          "word": "ISIS-Führers",
          "originalText": "ISIS-Führers",
          "characterOffsetBegin": 26,
          "characterOffsetEnd": 38,
          "pos": "NN",
          "before": " ",
          "after": " "
        },
        {
          "index": 7,
          "word": "entlarvten",
          "originalText": "entlarvten",
          "characterOffsetBegin": 39,
          "characterOffsetEnd": 49,
          "pos": "VVFIN",
          "before": " ",
          "after": ""
        }
      ]
    }
  ]
}