{
  "sentences": [
    {
      "index": 0,
      "basicDependencies": [
        {
          "dep": "ROOT",
          "governor": 0,
          "governorGloss": "ROOT",
          "dependent": 1,
          "dependentGloss": "UPDATE"
        },
        {
          "dep": "punct",
          "governor": 1,
          "governorGloss": "UPDATE",
          "dependent": 2,
          "dependentGloss": ":"
        },
        {
          "dep": "appos",
          "governor": 1,
          "governorGloss": "UPDATE",
          "dependent": 3,
          "dependentGloss": "Soldat"
        },
        {
          "dep": "punct",
          "governor": 3,
          "governorGloss": "Soldat",
          "dependent": 4,
          "dependentGloss": ","
        },
        {
          "dep": "conj",
          "governor": 3,
          "governorGloss": "Soldat",
          "dependent": 5,
          "dependentGloss": "Gunman"
        },
        {
          "dep": "punct",
          "governor": 3,
          "governorGloss": "Soldat",
          "dependent": 6,
          "dependentGloss": ","
        },
        {
          "dep": "det",
          "governor": 11,
          "governorGloss": "gestorben",
          "dependent": 7,
          "dependentGloss": "der"
        },
        {
          "dep": "case",
          "governor": 9,
          "governorGloss": "Ottawa",
          "dependent": 8,
          "dependentGloss": "in"
        },
        {
          "dep": "nmod",
          "governor": 10,
          "governorGloss": "rampage",
          "dependent": 9,
          "dependentGloss": "Ottawa"
        },
        {
          "dep": "amod",
          "governor": 11,
          "governorGloss": "gestorben",
          "dependent": 10,
          "dependentGloss": "rampage"
        },
        {
          "dep": "conj",
          "governor": 3,
          "governorGloss": "Soldat",
          "dependent": 11,
          "dependentGloss": "gestorben"
        },
        {
          "dep": "cop",
          "governor": 1,
          "governorGloss": "UPDATE",
          "dependent": 12,
          "dependentGloss": "ist"
        }
      ],
      "enhancedDependencies": [
        {
          "dep": "ROOT",
          "governor": 0,
          "governorGloss": "ROOT",
          "dependent": 1,
          "dependentGloss": "UPDATE"
        },
        {
          "dep": "punct",
          "governor": 1,
          "governorGloss": "UPDATE",
          "dependent": 2,
          "dependentGloss": ":"
        },
        {
          "dep": "appos",
          "governor": 1,
          "governorGloss": "UPDATE",
          "dependent": 3,
          "dependentGloss": "Soldat"
        },
        {
          "dep": "punct",
          "governor": 3,
          "governorGloss": "Soldat",
          "dependent": 4,
          "dependentGloss": ","
        },
        {
          "dep": "conj",
          "governor": 3,
          "governorGloss": "Soldat",
          "dependent": 5,
          "dependentGloss": "Gunman"
        },
        {
          "dep": "punct",
          "governor": 3,
          "governorGloss": "Soldat",
          "dependent": 6,
          "dependentGloss": ","
        },
        {
          "dep": "det",
          "governor": 11,
          "governorGloss": "gestorben",
          "dependent": 7,
          "dependentGloss": "der"
        },
        {
          "dep": "case",
          "governor": 9,
          "governorGloss": "Ottawa",
          "dependent": 8,
          "dependentGloss": "in"
        },
        {
          "dep": "nmod",
          "governor": 10,
          "governorGloss": "rampage",
          "dependent": 9,
          "dependentGloss": "Ottawa"
        },
        {
          "dep": "amod",
          "governor": 11,
          "governorGloss": "gestorben",
          "dependent": 10,
          "dependentGloss": "rampage"
        },
        {
          "dep": "conj",
          "governor": 3,
          "governorGloss": "Soldat",
          "dependent": 11,
          "dependentGloss": "gestorben"
        },
        {
          "dep": "cop",
          "governor": 1,
          "governorGloss": "UPDATE",
          "dependent": 12,
          "dependentGloss": "ist"
        }
      ],
      "enhancedPlusPlusDependencies": [
        {
          "dep": "ROOT",
          "governor": 0,
          "governorGloss": "ROOT",
          "dependent": 1,
          "dependentGloss": "UPDATE"
        },
        {
          "dep": "punct",
          "governor": 1,
          "governorGloss": "UPDATE",
          "dependent": 2,
          "dependentGloss": ":"
        },
        {
          "dep": "appos",
          "governor": 1,
          "governorGloss": "UPDATE",
          "dependent": 3,
          "dependentGloss": "Soldat"
        },
        {
          "dep": "punct",
          "governor": 3,
          "governorGloss": "Soldat",
          "dependent": 4,
          "dependentGloss": ","
        },
        {
          "dep": "conj",
          "governor": 3,
          "governorGloss": "Soldat",
          "dependent": 5,
          "dependentGloss": "Gunman"
        },
        {
          "dep": "punct",
          "governor": 3,
          "governorGloss": "Soldat",
          "dependent": 6,
          "dependentGloss": ","
        },
        {
          "dep": "det",
          "governor": 11,
          "governorGloss": "gestorben",
          "dependent": 7,
          "dependentGloss": "der"
        },
        {
          "dep": "case",
          "governor": 9,
          "governorGloss": "Ottawa",
          "dependent": 8,
          "dependentGloss": "in"
        },
        {
          "dep": "nmod",
          "governor": 10,
          "governorGloss": "rampage",
          "dependent": 9,
          "dependentGloss": "Ottawa"
        },
        {
          "dep": "amod",
          "governor": 11,
          "governorGloss": "gestorben",
          "dependent": 10,
          "dependentGloss": "rampage"
        },
        {
          "dep": "conj",
          "governor": 3,
          "governorGloss": "Soldat",
          "dependent": 11,
          "dependentGloss": "gestorben"
        },
        {
          "dep": "cop",
          "governor": 1,
          "governorGloss": "UPDATE",
          "dependent": 12,
          "dependentGloss": "ist"
        }
      ],
      "tokens": [
        {
          "index": 1,
          "word": "UPDATE",
          "originalText": "UPDATE",
          "characterOffsetBegin": 0,
          "characterOffsetEnd": 6,
          "pos": "NN",
          "before": "",
          "after": ""
        },
        {
          "index": 2,
          "word": ":",
          "originalText": ":",
          "characterOffsetBegin": 6,
          "characterOffsetEnd": 7,
          "pos": "$.",
          "before": "",
          "after": " "
        },
        {
          "index": 3,
          "word": "Soldat",
          "originalText": "Soldat",
          "characterOffsetBegin": 8,
          "characterOffsetEnd": 14,
          "pos": "NN",
          "before": " ",
          "after": ""
        },
        {
          "index": 4,
          "word": ",",
          "originalText": ",",
          "characterOffsetBegin": 14,
          "characterOffsetEnd": 15,
          "pos": "$,",
          "before": "",
          "after": " "
        },
        {
          "index": 5,
          "word": "Gunman",
          "originalText": "Gunman",
          "characterOffsetBegin": 16,
          "characterOffsetEnd": 22,
          "pos": "NE",
          "before": " ",
          "after": ""
        },
        {
          "index": 6,
          "word": ",",
          "originalText": ",",
          "characterOffsetBegin": 22,
          "characterOffsetEnd": 23,
          "pos": "$,",
          "before": "",
          "after": " "
        },
        {
          "index": 7,
          "word": "der",
          "originalText": "der",
          "characterOffsetBegin": 24,
          "characterOffsetEnd": 27,
          "pos": "PRELS",
          "before": " ",
          "after": " "
        },
        {
          "index": 8,
          "word": "in",
          "originalText": "in",
          "characterOffsetBegin": 28,
          "characterOffsetEnd": 30,
          "pos": "APPR",
          "before": " ",
          "after": " "
        },
        {
          "index": 9,
          "word": "Ottawa",
          "originalText": "Ottawa",
          "characterOffsetBegin": 31,
          "characterOffsetEnd": 37,
          "pos": "NE",
          "before": " ",
          "after": " "
        },
        {
          "index": 10,
          "word": "rampage",
          "originalText": "rampage",
          "characterOffsetBegin": 38,
          "characterOffsetEnd": 45,
          "pos": "FM",
          "before": " ",
          "after": " "
        },
        {
          "index": 11,
          "word": "gestorben",
          "originalText": "gestorben",
          "characterOffsetBegin": 46,
          "characterOffsetEnd": 55,
          "pos": "VVPP",
          "before": " ",
          "after": " "
        },
        {
          "index": 12,
          "word": "ist",
          "originalText": "ist",
          "characterOffsetBegin": 56,
          "characterOffsetEnd": 59,
          "pos": "VAFIN",
          "before": " ",
          "after": ""
        }
      ]
    }
  ]
}