{
  "sentences": [
    {
      "index": 0,
      "basicDependencies": [
        {
          "dep": "ROOT",
          "governor": 0,
          "governorGloss": "ROOT",
          "dependent": 2,
          "dependentGloss": "Yo-Jong"
        },
        {
          "dep": "name",
          "governor": 2,
          "governorGloss": "Yo-Jong",
          "dependent": 1,
          "dependentGloss": "Kim"
        },
        {
          "dep": "case",
          "governor": 4,
          "governorGloss": "Charge",
          "dependent": 3,
          "dependentGloss": "in"
        },
        {
          "dep": "nmod",
          "governor": 2,
          "governorGloss": "Yo-Jong",
          "dependent": 4,
          "dependentGloss": "Charge"
        },
        {
          "dep": "punct",
          "governor": 2,
          "governorGloss": "Yo-Jong",
          "dependent": 5,
          "dependentGloss": ":"
        },
        {
          "dep": "appos",
          "governor": 2,
          "governorGloss": "Yo-Jong",
          "dependent": 6,
          "dependentGloss": "Kim"
        },
        {
          "dep": "det",
          "governor": 9,
          "governorGloss": "Schwester",
          "dependent": 7,
          "dependentGloss": "Jong-Un"
        },
        {
          "dep": "case",
          "governor": 7,
          "governorGloss": "Jong-Un",
          "dependent": 8,
          "dependentGloss": "'s"
        },
        {
          "dep": "appos",
          "governor": 6,
          "governorGloss": "Kim",
          "dependent": 9,
          "dependentGloss": "Schwester"
        },
        {
          "dep": "appos",
          "governor": 9,
          "governorGloss": "Schwester",
          "dependent": 10,
          "dependentGloss": "`"
        },
        {
          "dep": "det",
          "governor": 14,
          "governorGloss": "Diktator",
          "dependent": 11,
          "dependentGloss": "ersetzt"
        },
        {
          "dep": "case",
          "governor": 11,
          "governorGloss": "ersetzt",
          "dependent": 12,
          "dependentGloss": "'"
        },
        {
          "dep": "amod",
          "governor": 14,
          "governorGloss": "Diktator",
          "dependent": 13,
          "dependentGloss": "Nordkoreanischen"
        },
        {
          "dep": "dobj",
          "governor": 10,
          "governorGloss": "`",
          "dependent": 14,
          "dependentGloss": "Diktator"
        },
        {
          "dep": "case",
          "governor": 16,
          "governorGloss": "Krankheit",
          "dependent": 15,
          "dependentGloss": "während"
        },
        {
          "dep": "nmod",
          "governor": 14,
          "governorGloss": "Diktator",
          "dependent": 16,
          "dependentGloss": "Krankheit"
        }
      ],
      "enhancedDependencies": [
        {
          "dep": "ROOT",
          "governor": 0,
          "governorGloss": "ROOT",
          "dependent": 2,
          "dependentGloss": "Yo-Jong"
        },
        {
          "dep": "name",
          "governor": 2,
          "governorGloss": "Yo-Jong",
          "dependent": 1,
          "dependentGloss": "Kim"
        },
        {
          "dep": "case",
          "governor": 4,
          "governorGloss": "Charge",
          "dependent": 3,
          "dependentGloss": "in"
        },
        {
          "dep": "nmod",
          "governor": 2,
          "governorGloss": "Yo-Jong",
          "dependent": 4,
          "dependentGloss": "Charge"
        },
        {
          "dep": "punct",
          "governor": 2,
          "governorGloss": "Yo-Jong",
          "dependent": 5,
          "dependentGloss": ":"
        },
        {
          "dep": "appos",
          "governor": 2,
          "governorGloss": "Yo-Jong",
          "dependent": 6,
          "dependentGloss": "Kim"
        },
        {
          "dep": "det",
          "governor": 9,
          "governorGloss": "Schwester",
          "dependent": 7,
          "dependentGloss": "Jong-Un"
        },
        {
          "dep": "case",
          "governor": 7,
          "governorGloss": "Jong-Un",
          "dependent": 8,
          "dependentGloss": "'s"
        },
        {
          "dep": "appos",
          "governor": 6,
          "governorGloss": "Kim",
          "dependent": 9,
          "dependentGloss": "Schwester"
        },
        {
          "dep": "appos",
          "governor": 9,
          "governorGloss": "Schwester",
          "dependent": 10,
          "dependentGloss": "`"
        },
        {
          "dep": "det",
          "governor": 14,
          "governorGloss": "Diktator",
          "dependent": 11,
          "dependentGloss": "ersetzt"
        },
        {
          "dep": "case",
          "governor": 11,
          "governorGloss": "ersetzt",
          "dependent": 12,
          "dependentGloss": "'"
        },
        {
          "dep": "amod",
          "governor": 14,
          "governorGloss": "Diktator",
          "dependent": 13,
          "dependentGloss": "Nordkoreanischen"
        },
        {
          "dep": "dobj",
          "governor": 10,
          "governorGloss": "`",
          "dependent": 14,
          "dependentGloss": "Diktator"
        },
        {
          "dep": "case",
          "governor": 16,
          "governorGloss": "Krankheit",
          "dependent": 15,
          "dependentGloss": "während"
        },
        {
          "dep": "nmod",
          "governor": 14,
          "governorGloss": "Diktator",
          "dependent": 16,
          "dependentGloss": "Krankheit"
        }
      ],
      "enhancedPlusPlusDependencies": [
        {
          "dep": "ROOT",
          "governor": 0,
          "governorGloss": "ROOT",
          "dependent": 2,
          "dependentGloss": "Yo-Jong"
        },
        {
          "dep": "name",
          "governor": 2,
          "governorGloss": "Yo-Jong",
          "dependent": 1,
          "dependentGloss": "Kim"
        },
        {
          "dep": "case",
          "governor": 4,
          "governorGloss": "Charge",
          "dependent": 3,
          "dependentGloss": "in"
        },
        {
          "dep": "nmod",
          "governor": 2,
          "governorGloss": "Yo-Jong",
          "dependent": 4,
          "dependentGloss": "Charge"
        },
        {
          "dep": "punct",
          "governor": 2,
          "governorGloss": "Yo-Jong",
          "dependent": 5,
          "dependentGloss": ":"
        },
        {
          "dep": "appos",
          "governor": 2,
          "governorGloss": "Yo-Jong",
          "dependent": 6,
          "dependentGloss": "Kim"
        },
        {
          "dep": "det",
          "governor": 9,
          "governorGloss": "Schwester",
          "dependent": 7,
          "dependentGloss": "Jong-Un"
        },
        {
          "dep": "case",
          "governor": 7,
          "governorGloss": "Jong-Un",
          "dependent": 8,
          "dependentGloss": "'s"
        },
        {
          "dep": "appos",
          "governor": 6,
          "governorGloss": "Kim",
          "dependent": 9,
          "dependentGloss": "Schwester"
        },
        {
          "dep": "appos",
          "governor": 9,
          "governorGloss": "Schwester",
          "dependent": 10,
          "dependentGloss": "`"
        },
        {
          "dep": "det",
          "governor": 14,
          "governorGloss": "Diktator",
          "dependent": 11,
          "dependentGloss": "ersetzt"
        },
        {
          "dep": "case",
          "governor": 11,
          "governorGloss": "ersetzt",
          "dependent": 12,
          "dependentGloss": "'"
        },
        {
          "dep": "amod",
          "governor": 14,
          "governorGloss": "Diktator",
          "dependent": 13,
          "dependentGloss": "Nordkoreanischen"
        },
        {
          "dep": "dobj",
          "governor": 10,
          "governorGloss": "`",
          "dependent": 14,
          "dependentGloss": "Diktator"
        },
        {
          "dep": "case",
          "governor": 16,
          "governorGloss": "Krankheit",
          "dependent": 15,
          "dependentGloss": "während"
        },
        {
          "dep": "nmod",
          "governor": 14,
          "governorGloss": "Diktator",
          "dependent": 16,
          "dependentGloss": "Krankheit"
        }
      ],
      "tokens": [
        {
          "index": 1,
          "word": "Kim",
          "originalText": "Kim",
          "characterOffsetBegin": 0,
          "characterOffsetEnd": 3,
          "pos": "NE",
          "before": "",
          "after": " "
        },
        {
          "index": 2,
          "word": "Yo-Jong",
          "originalText": "Yo-Jong",
          "characterOffsetBegin": 4,
          "characterOffsetEnd": 11,
          "pos": "NE",
          "before": " ",
          "after": " "
        },
        {
          "index": 3,
          "word": "in",
          "originalText": "in",
          "characterOffsetBegin": 12,
          "characterOffsetEnd": 14,
          "pos": "APPR",
          "before": " ",
          "after": " "
        },
        {
          "index": 4,
          "word": "Charge",
          "originalText": "Charge",
          "characterOffsetBegin": 15,
          "characterOffsetEnd": 21,
          "pos": "NE",
          "before": " ",
          "after": ""
        },
        {
          "index": 5,
          "word": ":",
          "originalText": ":",
          "characterOffsetBegin": 21,
          "characterOffsetEnd": 22,
          "pos": "$.",
          "before": "",
          "after": " "
        },
        {
          "index": 6,
          "word": "Kim",
          "originalText": "Kim",
          "characterOffsetBegin": 23,
          "characterOffsetEnd": 26,
          "pos": "NE",
          "before": " ",
          "after": " "
        },
        {
          "index": 7,
          "word": "Jong-Un",
          "originalText": "Jong-Un",
          "characterOffsetBegin": 27,
          "characterOffsetEnd": 34,
          "pos": "NE",
          "before": " ",
          "after": ""
        },
        {
          "index": 8,
          "word": "'s",
          "originalText": "'s",
          "characterOffsetBegin": 34,
          "characterOffsetEnd": 36,
          "pos": "PPER",
          "before": "",
          "after": " "
        },
        {
          "index": 9,
          "word": "Schwester",
          "originalText": "Schwester",
          "characterOffsetBegin": 37,
          "characterOffsetEnd": 46,
          "pos": "NN",
          "before": " ",
          "after": " "
        },
        {
          "index": 10,
          "word": "`",
          "originalText": "'",
          "characterOffsetBegin": 47,
          "characterOffsetEnd": 48,
          "pos": "CARD",
          "before": " ",
          "after": ""
        },
        {
          "index": 11,
          "word": "ersetzt",
          "originalText": "ersetzt",
          "characterOffsetBegin": 48,
          "characterOffsetEnd": 55,
          "pos": "VVPP",
          "before": "",
          "after": ""
        },
        {
          "index": 12,
          "word": "'",
          "originalText": "'",
          "characterOffsetBegin": 55,
          "characterOffsetEnd": 56,
          "pos": "$[",
          "before": "",
          "after": " "
        },
        {
          "index": 13,
          "word": "Nordkoreanischen",
          "originalText": "Nordkoreanischen",
          "characterOffsetBegin": 57,
          "characterOffsetEnd": 73,
          "pos": "ADJA",
          "before": " ",
          "after": " "
        },
        {
          "index": 14,
          "word": "Diktator",
          "originalText": "Diktator",
          "characterOffsetBegin": 74,
          "characterOffsetEnd": 82,
          "pos": "NN",
          "before": " ",
          "after": " "
        },
        {
          "index": 15,
          "word": "während",
          "originalText": "während",
          "characterOffsetBegin": 83,
          "characterOffsetEnd": 90,
          "pos": "APPR",
          "before": " ",
          "after": " "
        },
        {
          "index": 16,
          "word": "Krankheit",
          "originalText": "Krankheit",
          "characterOffsetBegin": 91,
          "characterOffsetEnd": 100,
          "pos": "NN",
          "before": " ",
          "after": ""
        }
      ]
    }
  ]
}