{
  "sentences": [
    {
      "index": 0,
      "basicDependencies": [
        {
          "dep": "ROOT",
          "governor": 0,
          "governorGloss": "ROOT",
          "dependent": 2,
          "dependentGloss": "Watch"
        },
        {
          "dep": "det",
          "governor": 2,
          "governorGloss": "Watch",
          "dependent": 1,
          "dependentGloss": "Apple"
        },
        {
          "dep": "appos",
          "governor": 2,
          "governorGloss": "Watch",
          "dependent": 3,
          "dependentGloss": "Berichten"
        },
        {
          "dep": "advmod",
          "governor": 5,
          "governorGloss": "bietet",
          "dependent": 4,
          "dependentGloss": "zufolge"
        },
        {
          "dep": "acl",
          "governor": 3,
          "governorGloss": "Berichten",
          "dependent": 5,
          "dependentGloss": "bietet"
        },
        {
          "dep": "amod",
          "governor": 7,
          "governorGloss": "Diagnose-Port",
          "dependent": 6,
          "dependentGloss": "unangemeldeten"
        },
        {
          "dep": "nsubj",
          "governor": 5,
          "governorGloss": "bietet",
          "dependent": 7,
          "dependentGloss": "Diagnose-Port"
        },
        {
          "dep": "case",
          "governor": 9,
          "governorGloss": "Strap-Anschluss",
          "dependent": 8,
          "dependentGloss": "unter"
        },
        {
          "dep": "nmod",
          "governor": 5,
          "governorGloss": "bietet",
          "dependent": 9,
          "dependentGloss": "Strap-Anschluss"
        }
      ],
      "enhancedDependencies": [
        {
          "dep": "ROOT",
          "governor": 0,
          "governorGloss": "ROOT",
          "dependent": 2,
          "dependentGloss": "Watch"
        },
        {
          "dep": "det",
          "governor": 2,
          "governorGloss": "Watch",
          "dependent": 1,
          "dependentGloss": "Apple"
        },
        {
          "dep": "appos",
          "governor": 2,
          "governorGloss": "Watch",
          "dependent": 3,
          "dependentGloss": "Berichten"
        },
        {
          "dep": "advmod",
          "governor": 5,
          "governorGloss": "bietet",
          "dependent": 4,
          "dependentGloss": "zufolge"
        },
        {
          "dep": "acl",
          "governor": 3,
          "governorGloss": "Berichten",
          "dependent": 5,
          "dependentGloss": "bietet"
        },
        {
          "dep": "amod",
          "governor": 7,
          "governorGloss": "Diagnose-Port",
          "dependent": 6,
          "dependentGloss": "unangemeldeten"
        },
        {
          "dep": "nsubj",
          "governor": 5,
          "governorGloss": "bietet",
          "dependent": 7,
          "dependentGloss": "Diagnose-Port"
        },
        {
          "dep": "case",
          "governor": 9,
          "governorGloss": "Strap-Anschluss",
          "dependent": 8,
          "dependentGloss": "unter"
        },
        {
          "dep": "nmod",
          "governor": 5,
          "governorGloss": "bietet",
          "dependent": 9,
          "dependentGloss": "Strap-Anschluss"
        }
      ],
      "enhancedPlusPlusDependencies": [
        {
          "dep": "ROOT",
          "governor": 0,
          "governorGloss": "ROOT",
          "dependent": 2,
          "dependentGloss": "Watch"
        },
        {
          "dep": "det",
          "governor": 2,
          "governorGloss": "Watch",
          "dependent": 1,
          "dependentGloss": "Apple"
        },
        {
          "dep": "appos",
          "governor": 2,
          "governorGloss": "Watch",
          "dependent": 3,
          "dependentGloss": "Berichten"
        },
        {
          "dep": "advmod",
          "governor": 5,
          "governorGloss": "bietet",
          "dependent": 4,
          "dependentGloss": "zufolge"
        },
        {
          "dep": "acl",
          "governor": 3,
          "governorGloss": "Berichten",
          "dependent": 5,
          "dependentGloss": "bietet"
        },
        {
          "dep": "amod",
          "governor": 7,
          "governorGloss": "Diagnose-Port",
          "dependent": 6,
          "dependentGloss": "unangemeldeten"
        },
        {
          "dep": "nsubj",
          "governor": 5,
          "governorGloss": "bietet",
          "dependent": 7,
          "dependentGloss": "Diagnose-Port"
        },
        {
          "dep": "case",
          "governor": 9,
          "governorGloss": "Strap-Anschluss",
          "dependent": 8,
          "dependentGloss": "unter"
        },
        {
          "dep": "nmod",
          "governor": 5,
          "governorGloss": "bietet",
          "dependent": 9,
          "dependentGloss": "Strap-Anschluss"
        }
      ],
      "tokens": [
        {
          "index": 1,
          "word": "Apple",
          "originalText": "Apple",
          "characterOffsetBegin": 0,
          "characterOffsetEnd": 5,
          "pos": "NE",
          "before": "",
          "after": " "
        },
        {
          "index": 2,
          "word": "Watch",
          "originalText": "Watch",
          "characterOffsetBegin": 6,
          "characterOffsetEnd": 11,
          "pos": "NE",
          "before": " ",
          "after": " "
        },
        {
          "index": 3,
          "word": "Berichten",
          "originalText": "Berichten",
          "characterOffsetBegin": 12,
          "characterOffsetEnd": 21,
          "pos": "NN",
          "before": " ",
          "after": " "
        },
        {
          "index": 4,
          "word": "zufolge",
          "originalText": "zufolge",
          "characterOffsetBegin": 22,
          "characterOffsetEnd": 29,
          "pos": "APPO",
          "before": " ",
          "after": " "
        },
        {
          "index": 5,
          "word": "bietet",
          "originalText": "bietet",
          "characterOffsetBegin": 30,
          "characterOffsetEnd": 36,
          "pos": "VVFIN",
          "before": " ",
          "after": " "
        },
        {
          "index": 6,
          "word": "unangemeldeten",
          "originalText": "unangemeldeten",
          "characterOffsetBegin": 37,
          "characterOffsetEnd": 51,
          "pos": "ADJA",
          "before": " ",
          "after": " "
        },
        {
          "index": 7,
          "word": "Diagnose-Port",
          "originalText": "Diagnose-Port",
          "characterOffsetBegin": 52,
          "characterOffsetEnd": 65,
          "pos": "NN",
          "before": " ",
          "after": " "
        },
        {
          "index": 8,
          "word": "unter",
          "originalText": "unter",
          "characterOffsetBegin": 66,
          "characterOffsetEnd": 71,
          "pos": "APPR",
          "before": " ",
          "after": " "
        },
        {
          "index": 9,
          "word": "Strap-Anschluss",
          "originalText": "Strap-Anschluss",
          "characterOffsetBegin": 72,
          "characterOffsetEnd": 87,
          "pos": "NN",
          "before": " ",
          "after": ""
        }
      ]
    }
  ]
}