{
  "sentences": [
    {
      "index": 0,
      "basicDependencies": [
        {
          "dep": "ROOT",
          "governor": 0,
          "governorGloss": "ROOT",
          "dependent": 2,
          "dependentGloss": "ist"
        },
        {
          "dep": "advmod",
          "governor": 2,
          "governorGloss": "ist",
          "dependent": 1,
          "dependentGloss": "Hier"
        },
        {
          "dep": "root",
          "governor": 2,
          "governorGloss": "ist",
          "dependent": 3,
          "dependentGloss": "Video"
        },
        {
          "dep": "case",
          "governor": 6,
          "governorGloss": "Vogel",
          "dependent": 4,
          "dependentGloss": "von"
        },
        {
          "dep": "det",
          "governor": 6,
          "governorGloss": "Vogel",
          "dependent": 5,
          "dependentGloss": "einem"
        },
        {
          "dep": "nmod",
          "governor": 3,
          "governorGloss": "Video",
          "dependent": 6,
          "dependentGloss": "Vogel"
        },
        {
          "dep": "appos",
          "governor": 6,
          "governorGloss": "Vogel",
          "dependent": 7,
          "dependentGloss": "pooping"
        },
        {
          "dep": "case",
          "governor": 10,
          "governorGloss": "Putin",
          "dependent": 8,
          "dependentGloss": "auf"
        },
        {
          "dep": "amod",
          "governor": 10,
          "governorGloss": "Putin",
          "dependent": 9,
          "dependentGloss": "Vladimir"
        },
        {
          "dep": "nmod",
          "governor": 6,
          "governorGloss": "Vogel",
          "dependent": 10,
          "dependentGloss": "Putin"
        },
        {
          "dep": "case",
          "governor": 13,
          "governorGloss": "Mitte",
          "dependent": 11,
          "dependentGloss": "in"
        },
        {
          "dep": "det",
          "governor": 13,
          "governorGloss": "Mitte",
          "dependent": 12,
          "dependentGloss": "der"
        },
        {
          "dep": "nmod",
          "governor": 10,
          "governorGloss": "Putin",
          "dependent": 13,
          "dependentGloss": "Mitte"
        },
        {
          "dep": "det",
          "governor": 15,
          "governorGloss": "Rede",
          "dependent": 14,
          "dependentGloss": "einer"
        },
        {
          "dep": "det",
          "governor": 13,
          "governorGloss": "Mitte",
          "dependent": 15,
          "dependentGloss": "Rede"
        }
      ],
      "enhancedDependencies": [
        {
          "dep": "ROOT",
          "governor": 0,
          "governorGloss": "ROOT",
          "dependent": 2,
          "dependentGloss": "ist"
        },
        {
          "dep": "advmod",
          "governor": 2,
          "governorGloss": "ist",
          "dependent": 1,
          "dependentGloss": "Hier"
        },
        {
          "dep": "root",
          "governor": 2,
          "governorGloss": "ist",
          "dependent": 3,
          "dependentGloss": "Video"
        },
        {
          "dep": "case",
          "governor": 6,
          "governorGloss": "Vogel",
          "dependent": 4,
          "dependentGloss": "von"
        },
        {
          "dep": "det",
          "governor": 6,
          "governorGloss": "Vogel",
          "dependent": 5,
          "dependentGloss": "einem"
        },
        {
          "dep": "nmod",
          "governor": 3,
          "governorGloss": "Video",
          "dependent": 6,
          "dependentGloss": "Vogel"
        },
        {
          "dep": "appos",
          "governor": 6,
          "governorGloss": "Vogel",
          "dependent": 7,
          "dependentGloss": "pooping"
        },
        {
          "dep": "case",
          "governor": 10,
          "governorGloss": "Putin",
          "dependent": 8,
          "dependentGloss": "auf"
        },
        {
          "dep": "amod",
          "governor": 10,
          "governorGloss": "Putin",
          "dependent": 9,
          "dependentGloss": "Vladimir"
        },
        {
          "dep": "nmod",
          "governor": 6,
          "governorGloss": "Vogel",
          "dependent": 10,
          "dependentGloss": "Putin"
        },
        {
          "dep": "case",
          "governor": 13,
          "governorGloss": "Mitte",
          "dependent": 11,
          "dependentGloss": "in"
        },
        {
          "dep": "det",
          "governor": 13,
          "governorGloss": "Mitte",
          "dependent": 12,
          "dependentGloss": "der"
        },
        {
          "dep": "nmod",
          "governor": 10,
          "governorGloss": "Putin",
          "dependent": 13,
          "dependentGloss": "Mitte"
        },
        {
          "dep": "det",
          "governor": 15,
          "governorGloss": "Rede",
          "dependent": 14,
          "dependentGloss": "einer"
        },
        {
          "dep": "det",
          "governor": 13,
          "governorGloss": "Mitte",
          "dependent": 15,
          "dependentGloss": "Rede"
        }
      ],
      "enhancedPlusPlusDependencies": [
        {
          "dep": "ROOT",
          "governor": 0,
          "governorGloss": "ROOT",
          "dependent": 2,
          "dependentGloss": "ist"
        },
        {
          "dep": "advmod",
          "governor": 2,
          "governorGloss": "ist",
          "dependent": 1,
          "dependentGloss": "Hier"
        },
        {
          "dep": "root",
          "governor": 2,
          "governorGloss": "ist",
          "dependent": 3,
          "dependentGloss": "Video"
        },
        {
          "dep": "case",
          "governor": 6,
          "governorGloss": "Vogel",
          "dependent": 4,
          "dependentGloss": "von"
        },
        {
          "dep": "det",
          "governor": 6,
          "governorGloss": "Vogel",
          "dependent": 5,
          "dependentGloss": "einem"
        },
        {
          "dep": "nmod",
          "governor": 3,
          "governorGloss": "Video",
          "dependent": 6,
          "dependentGloss": "Vogel"
        },
        {
          "dep": "appos",
          "governor": 6,
          "governorGloss": "Vogel",
          "dependent": 7,
          "dependentGloss": "pooping"
        },
        {
          "dep": "case",
          "governor": 10,
          "governorGloss": "Putin",
          "dependent": 8,
          "dependentGloss": "auf"
        },
        {
          "dep": "amod",
          "governor": 10,
          "governorGloss": "Putin",
          "dependent": 9,
          "dependentGloss": "Vladimir"
        },
        {
          "dep": "nmod",
          "governor": 6,
          "governorGloss": "Vogel",
          "dependent": 10,
          "dependentGloss": "Putin"
        },
        {
          "dep": "case",
          "governor": 13,
          "governorGloss": "Mitte",
          "dependent": 11,
          "dependentGloss": "in"
        },
        {
          "dep": "det",
          "governor": 13,
          "governorGloss": "Mitte",
          "dependent": 12,
          "dependentGloss": "der"
        },
        {
          "dep": "nmod",
          "governor": 10,
          "governorGloss": "Putin",
          "dependent": 13,
          "dependentGloss": "Mitte"
        },
        {
          "dep": "det",
          "governor": 15,
          "governorGloss": "Rede",
          "dependent": 14,
          "dependentGloss": "einer"
        },
        {
          "dep": "det",
          "governor": 13,
          "governorGloss": "Mitte",
          "dependent": 15,
          "dependentGloss": "Rede"
        }
      ],
      "tokens": [
        {
          "index": 1,
          "word": "Hier",
          "originalText": "Hier",
          "characterOffsetBegin": 0,
          "characterOffsetEnd": 4,
          "pos": "ADV",
          "before": "",
          "after": " "
        },
        {
          "index": 2,
          "word": "ist",
          "originalText": "ist",
          "characterOffsetBegin": 5,
          "characterOffsetEnd": 8,
          "pos": "VAFIN",
          "before": " ",
          "after": " "
        },
        {
          "index": 3,
          "word": "Video",
          "originalText": "Video",
          "characterOffsetBegin": 9,
          "characterOffsetEnd": 14,
          "pos": "NN",
          "before": " ",
          "after": " "
        },
        {
          "index": 4,
          "word": "von",
          "originalText": "von",
          "characterOffsetBegin": 15,
          "characterOffsetEnd": 18,
          "pos": "APPR",
          "before": " ",
          "after": " "
        },
        {
          "index": 5,
          "word": "einem",
          "originalText": "einem",
          "characterOffsetBegin": 19,
          "characterOffsetEnd": 24,
          "pos": "ART",
          "before": " ",
          "after": " "
        },
        {
          "index": 6,
          "word": "Vogel",
          "originalText": "Vogel",
          "characterOffsetBegin": 25,
          "characterOffsetEnd": 30,
          "pos": "NN",
          "before": " ",
          "after": " "
        },
        {
          "index": 7,
          "word": "pooping",
          "originalText": "pooping",
          "characterOffsetBegin": 31,
          "characterOffsetEnd": 38,
          "pos": "VVFIN",
          "before": " ",
          "after": " "
        },
        {
          "index": 8,
          "word": "auf",
          "originalText": "auf",
          "characterOffsetBegin": 39,
          "characterOffsetEnd": 42,
          "pos": "APPR",
          "before": " ",
          "after": " "
        },
        {
          "index": 9,
          "word": "Vladimir",
          "originalText": "Vladimir",
          "characterOffsetBegin": 43,
          "characterOffsetEnd": 51,
          "pos": "NE",
          "before": " ",
          "after": " "
        },
        {
          "index": 10,
          "word": "Putin",
          "originalText": "Putin",
          "characterOffsetBegin": 52,
          "characterOffsetEnd": 57,
          "pos": "NE",
          "before": " ",
          "after": " "
        },
        {
          "index": 11,
          "word": "in",
          "originalText": "in",
          "characterOffsetBegin": 58,
          "characterOffsetEnd": 60,
          "pos": "APPR",
          "before": " ",
          "after": " "
        },
        {
          "index": 12,
          "word": "der",
          "originalText": "der",
          "characterOffsetBegin": 61,
          "characterOffsetEnd": 64,
          "pos": "ART",
          "before": " ",
          "after": " "
        },
        {
          "index": 13,
          "word": "Mitte",
          "originalText": "Mitte",
          "characterOffsetBegin": 65,
          "characterOffsetEnd": 70,
          "pos": "NN",
          "before": " ",
          "after": " "
        },
        {
          "index": 14,
          "word": "einer",
          "originalText": "einer",
          "characterOffsetBegin": 71,
          "characterOffsetEnd": 76,
          "pos": "ART",
          "before": " ",
          "after": " "
        },
        {
          "index": 15,
          "word": "Rede",
          "originalText": "Rede",
          "characterOffsetBegin": 77,
          "characterOffsetEnd": 81,
          "pos": "NN",
          "before": " ",
          "after": ""
        }
      ]
    }
  ]
}