{
  "sentences": [
    {
      "index": 0,
      "basicDependencies": [
        {
          "dep": "ROOT",
          "governor": 0,
          "governorGloss": "ROOT",
          "dependent": 18,
          "dependentGloss": "52"
        },
        {
          "dep": "dep",
          "governor": 18,
          "governorGloss": "52",
          "dependent": 1,
          "dependentGloss": "Quellen"
        },
        {
          "dep": "punct",
          "governor": 1,
          "governorGloss": "Quellen",
          "dependent": 2,
          "dependentGloss": ":"
        },
        {
          "dep": "appos",
          "governor": 1,
          "governorGloss": "Quellen",
          "dependent": 3,
          "dependentGloss": "Guns"
        },
        {
          "dep": "dobj",
          "governor": 10,
          "governorGloss": "gefunden",
          "dependent": 4,
          "dependentGloss": "N"
        },
        {
          "dep": "aux",
          "governor": 10,
          "governorGloss": "gefunden",
          "dependent": 5,
          "dependentGloss": "`"
        },
        {
          "dep": "amod",
          "governor": 7,
          "governorGloss": "Frontman",
          "dependent": 6,
          "dependentGloss": "Roses"
        },
        {
          "dep": "nsubj",
          "governor": 10,
          "governorGloss": "gefunden",
          "dependent": 7,
          "dependentGloss": "Frontman"
        },
        {
          "dep": "name",
          "governor": 9,
          "governorGloss": "Rose",
          "dependent": 8,
          "dependentGloss": "Axl"
        },
        {
          "dep": "appos",
          "governor": 7,
          "governorGloss": "Frontman",
          "dependent": 9,
          "dependentGloss": "Rose"
        },
        {
          "dep": "acl",
          "governor": 3,
          "governorGloss": "Guns",
          "dependent": 10,
          "dependentGloss": "gefunden"
        },
        {
          "dep": "nsubj",
          "governor": 15,
          "governorGloss": "Home",
          "dependent": 11,
          "dependentGloss": "Tot"
        },
        {
          "dep": "case",
          "governor": 14,
          "governorGloss": "Hollywood",
          "dependent": 12,
          "dependentGloss": "in"
        },
        {
          "dep": "name",
          "governor": 14,
          "governorGloss": "Hollywood",
          "dependent": 13,
          "dependentGloss": "West"
        },
        {
          "dep": "nmod",
          "governor": 11,
          "governorGloss": "Tot",
          "dependent": 14,
          "dependentGloss": "Hollywood"
        },
        {
          "dep": "acl",
          "governor": 10,
          "governorGloss": "gefunden",
          "dependent": 15,
          "dependentGloss": "Home"
        },
        {
          "dep": "case",
          "governor": 17,
          "governorGloss": "Age",
          "dependent": 16,
          "dependentGloss": "at"
        },
        {
          "dep": "nmod",
          "governor": 15,
          "governorGloss": "Home",
          "dependent": 17,
          "dependentGloss": "Age"
        }
      ],
      "enhancedDependencies": [
        {
          "dep": "ROOT",
          "governor": 0,
          "governorGloss": "ROOT",
          "dependent": 18,
          "dependentGloss": "52"
        },
        {
          "dep": "dep",
          "governor": 18,
          "governorGloss": "52",
          "dependent": 1,
          "dependentGloss": "Quellen"
        },
        {
          "dep": "punct",
          "governor": 1,
          "governorGloss": "Quellen",
          "dependent": 2,
          "dependentGloss": ":"
        },
        {
          "dep": "appos",
          "governor": 1,
          "governorGloss": "Quellen",
          "dependent": 3,
          "dependentGloss": "Guns"
        },
        {
          "dep": "dobj",
          "governor": 10,
          "governorGloss": "gefunden",
          "dependent": 4,
          "dependentGloss": "N"
        },
        {
          "dep": "aux",
          "governor": 10,
          "governorGloss": "gefunden",
          "dependent": 5,
          "dependentGloss": "`"
        },
        {
          "dep": "amod",
          "governor": 7,
          "governorGloss": "Frontman",
          "dependent": 6,
          "dependentGloss": "Roses"
        },
        {
          "dep": "nsubj",
          "governor": 10,
          "governorGloss": "gefunden",
          "dependent": 7,
          "dependentGloss": "Frontman"
        },
        {
          "dep": "name",
          "governor": 9,
          "governorGloss": "Rose",
          "dependent": 8,
          "dependentGloss": "Axl"
        },
        {
          "dep": "appos",
          "governor": 7,
          "governorGloss": "Frontman",
          "dependent": 9,
          "dependentGloss": "Rose"
        },
        {
          "dep": "acl",
          "governor": 3,
          "governorGloss": "Guns",
          "dependent": 10,
          "dependentGloss": "gefunden"
        },
        {
          "dep": "nsubj",
          "governor": 15,
          "governorGloss": "Home",
          "dependent": 11,
          "dependentGloss": "Tot"
        },
        {
          "dep": "case",
          "governor": 14,
          "governorGloss": "Hollywood",
          "dependent": 12,
          "dependentGloss": "in"
        },
        {
          "dep": "name",
          "governor": 14,
          "governorGloss": "Hollywood",
          "dependent": 13,
          "dependentGloss": "West"
        },
        {
          "dep": "nmod",
          "governor": 11,
          "governorGloss": "Tot",
          "dependent": 14,
          "dependentGloss": "Hollywood"
        },
        {
          "dep": "acl",
          "governor": 10,
          "governorGloss": "gefunden",
          "dependent": 15,
          "dependentGloss": "Home"
        },
        {
          "dep": "case",
          "governor": 17,
          "governorGloss": "Age",
          "dependent": 16,
          "dependentGloss": "at"
        },
        {
          "dep": "nmod",
          "governor": 15,
          "governorGloss": "Home",
          "dependent": 17,
          "dependentGloss": "Age"
        }
      ],
      "enhancedPlusPlusDependencies": [
        {
          "dep": "ROOT",
          "governor": 0,
          "governorGloss": "ROOT",
          "dependent": 18,
          "dependentGloss": "52"
        },
        {
          "dep": "dep",
          "governor": 18,
          "governorGloss": "52",
          "dependent": 1,
          "dependentGloss": "Quellen"
        },
        {
          "dep": "punct",
          "governor": 1,
          "governorGloss": "Quellen",
          "dependent": 2,
          "dependentGloss": ":"
        },
        {
          "dep": "appos",
          "governor": 1,
          "governorGloss": "Quellen",
          "dependent": 3,
          "dependentGloss": "Guns"
        },
        {
          "dep": "dobj",
          "governor": 10,
          "governorGloss": "gefunden",
          "dependent": 4,
          "dependentGloss": "N"
        },
        {
          "dep": "aux",
          "governor": 10,
          "governorGloss": "gefunden",
          "dependent": 5,
          "dependentGloss": "`"
        },
        {
          "dep": "amod",
          "governor": 7,
          "governorGloss": "Frontman",
          "dependent": 6,
          "dependentGloss": "Roses"
        },
        {
          "dep": "nsubj",
          "governor": 10,
          "governorGloss": "gefunden",
          "dependent": 7,
          "dependentGloss": "Frontman"
        },
        {
          "dep": "name",
          "governor": 9,
          "governorGloss": "Rose",
          "dependent": 8,
          "dependentGloss": "Axl"
        },
        {
          "dep": "appos",
          "governor": 7,
          "governorGloss": "Frontman",
          "dependent": 9,
          "dependentGloss": "Rose"
        },
        {
          "dep": "acl",
          "governor": 3,
          "governorGloss": "Guns",
          "dependent": 10,
          "dependentGloss": "gefunden"
        },
        {
          "dep": "nsubj",
          "governor": 15,
          "governorGloss": "Home",
          "dependent": 11,
          "dependentGloss": "Tot"
        },
        {
          "dep": "case",
          "governor": 14,
          "governorGloss": "Hollywood",
          "dependent": 12,
          "dependentGloss": "in"
        },
        {
          "dep": "name",
          "governor": 14,
          "governorGloss": "Hollywood",
          "dependent": 13,
          "dependentGloss": "West"
        },
        {
          "dep": "nmod",
          "governor": 11,
          "governorGloss": "Tot",
          "dependent": 14,
          "dependentGloss": "Hollywood"
        },
        {
          "dep": "acl",
          "governor": 10,
          "governorGloss": "gefunden",
          "dependent": 15,
          "dependentGloss": "Home"
        },
        {
          "dep": "case",
          "governor": 17,
          "governorGloss": "Age",
          "dependent": 16,
          "dependentGloss": "at"
        },
        {
          "dep": "nmod",
          "governor": 15,
          "governorGloss": "Home",
          "dependent": 17,
          "dependentGloss": "Age"
        }
      ],
      "tokens": [
        {
          "index": 1,
          "word": "Quellen",
          "originalText": "Quellen",
          "characterOffsetBegin": 0,
          "characterOffsetEnd": 7,
          "pos": "NN",
          "before": "",
          "after": ""
        },
        {
          "index": 2,
          "word": ":",
          "originalText": ":",
          "characterOffsetBegin": 7,
          "characterOffsetEnd": 8,
          "pos": "$.",
          "before": "",
          "after": " "
        },
        {
          "index": 3,
          "word": "Guns",
          "originalText": "Guns",
          "characterOffsetBegin": 9,
          "characterOffsetEnd": 13,
          "pos": "NE",
          "before": " ",
          "after": " "
        },
        {
          "index": 4,
          "word": "N",
          "originalText": "N",
          "characterOffsetBegin": 14,
          "characterOffsetEnd": 15,
          "pos": "NN",
          "before": " ",
          "after": " "
        },
        {
          "index": 5,
          "word": "`",
          "originalText": "'",
          "characterOffsetBegin": 16,
          "characterOffsetEnd": 17,
          "pos": "CARD",
          "before": " ",
          "after": ""
        },
        {
          "index": 6,
          "word": "Roses",
          "originalText": "Roses",
          "characterOffsetBegin": 17,
          "characterOffsetEnd": 22,
          "pos": "NE",
          "before": "",
          "after": " "
        },
        {
          "index": 7,
          "word": "Frontman",
          "originalText": "Frontman",
          "characterOffsetBegin": 23,
          "characterOffsetEnd": 31,
          "pos": "NN",
          "before": " ",
          "after": " "
        },
        {
          "index": 8,
          "word": "Axl",
          "originalText": "Axl",
          "characterOffsetBegin": 32,
          "characterOffsetEnd": 35,
          "pos": "NE",
          "before": " ",
          "after": " "
        },
        {
          "index": 9,
          "word": "Rose",
          "originalText": "Rose",
          "characterOffsetBegin": 36,
          "characterOffsetEnd": 40,
          "pos": "NE",
          "before": " ",
          "after": " "
        },
        {
          "index": 10,
          "word": "gefunden",
          "originalText": "gefunden",
          "characterOffsetBegin": 41,
          "characterOffsetEnd": 49,
          "pos": "VVPP",
          "before": " ",
          "after": " "
        },
        {
          "index": 11,
          "word": "Tot",
          "originalText": "Tot",
          "characterOffsetBegin": 50,
          "characterOffsetEnd": 53,
          "pos": "NN",
          "before": " ",
          "after": " "
        },
        {
          "index": 12,
          "word": "in",
          "originalText": "in",
          "characterOffsetBegin": 54,
          "characterOffsetEnd": 56,
          "pos": "APPR",
          "before": " ",
          "after": " "
        },
        {
          "index": 13,
          "word": "West",
          "originalText": "West",
          "characterOffsetBegin": 57,
          "characterOffsetEnd": 61,
          "pos": "NN",
          "before": " ",
          "after": " "
        },
        {
          "index": 14,
          "word": "Hollywood",
          "originalText": "Hollywood",
          "characterOffsetBegin": 62,
          "characterOffsetEnd": 71,
          "pos": "NE",
          "before": " ",
          "after": " "
        },
        {
          "index": 15,
          "word": "Home",
          "originalText": "Home",
          "characterOffsetBegin": 72,
          "characterOffsetEnd": 76,
          "pos": "NE",
          "before": " ",
          "after": " "
        },
        {
          "index": 16,
          "word": "at",
          "originalText": "at",
          "characterOffsetBegin": 77,
          "characterOffsetEnd": 79,
          "pos": "VVFIN",
          "before": " ",
          "after": " "
        },
        {
          "index": 17,
          "word": "Age",
          "originalText": "Age",
          "characterOffsetBegin": 80,
          "characterOffsetEnd": 83,
          "pos": "NE",
          "before": " ",
          "after": " "
        },
        {
          "index": 18,
          "word": "52",
          "originalText": "52",
          "characterOffsetBegin": 84,
          "characterOffsetEnd": 86,
          "pos": "CARD",
          "before": " ",
          "after": ""
        }
      ]
    }
  ]
}