{
  "sentences": [
    {
      "index": 0,
      "basicDependencies": [
        {
          "dep": "ROOT",
          "governor": 0,
          "governorGloss": "ROOT",
          "dependent": 3,
          "dependentGloss": "Enthauptung"
        },
        {
          "dep": "name",
          "governor": 2,
          "governorGloss": "Haines",
          "dependent": 1,
          "dependentGloss": "David"
        },
        {
          "dep": "nsubj",
          "governor": 3,
          "governorGloss": "Enthauptung",
          "dependent": 2,
          "dependentGloss": "Haines"
        },
        {
          "dep": "dobj",
          "governor": 3,
          "governorGloss": "Enthauptung",
          "dependent": 4,
          "dependentGloss": "Video"
        },
        {
          "dep": "dep",
          "governor": 4,
          "governorGloss": "Video",
          "dependent": 5,
          "dependentGloss": "bestätigt"
        },
        {
          "dep": "root",
          "governor": 5,
          "governorGloss": "bestätigt",
          "dependent": 6,
          "dependentGloss": "echt"
        },
        {
          "dep": "punct",
          "governor": 6,
          "governorGloss": "echt",
          "dependent": 7,
          "dependentGloss": ";"
        },
        {
          "dep": "name",
          "governor": 9,
          "governorGloss": "PM",
          "dependent": 8,
          "dependentGloss": "UK"
        },
        {
          "dep": "conj",
          "governor": 6,
          "governorGloss": "echt",
          "dependent": 9,
          "dependentGloss": "PM"
        },
        {
          "dep": "name",
          "governor": 11,
          "governorGloss": "Gelübde",
          "dependent": 10,
          "dependentGloss": "Cameron"
        },
        {
          "dep": "appos",
          "governor": 9,
          "governorGloss": "PM",
          "dependent": 11,
          "dependentGloss": "Gelübde"
        },
        {
          "dep": "aux",
          "governor": 13,
          "governorGloss": "jagen",
          "dependent": 12,
          "dependentGloss": "zu"
        },
        {
          "dep": "acl",
          "governor": 9,
          "governorGloss": "PM",
          "dependent": 13,
          "dependentGloss": "jagen"
        },
        {
          "dep": "name",
          "governor": 16,
          "governorGloss": "Monster",
          "dependent": 14,
          "dependentGloss": "ISIS"
        },
        {
          "dep": "punct",
          "governor": 16,
          "governorGloss": "Monster",
          "dependent": 15,
          "dependentGloss": "`"
        },
        {
          "dep": "dobj",
          "governor": 13,
          "governorGloss": "jagen",
          "dependent": 16,
          "dependentGloss": "Monster"
        },
        {
          "dep": "punct",
          "governor": 6,
          "governorGloss": "echt",
          "dependent": 17,
          "dependentGloss": "'"
        }
      ],
      "enhancedDependencies": [
        {
          "dep": "ROOT",
          "governor": 0,
          "governorGloss": "ROOT",
          "dependent": 3,
          "dependentGloss": "Enthauptung"
        },
        {
          "dep": "name",
          "governor": 2,
          "governorGloss": "Haines",
          "dependent": 1,
          "dependentGloss": "David"
        },
        {
          "dep": "nsubj",
          "governor": 3,
          "governorGloss": "Enthauptung",
          "dependent": 2,
          "dependentGloss": "Haines"
        },
        {
          "dep": "dobj",
          "governor": 3,
          "governorGloss": "Enthauptung",
          "dependent": 4,
          "dependentGloss": "Video"
        },
        {
          "dep": "dep",
          "governor": 4,
          "governorGloss": "Video",
          "dependent": 5,
          "dependentGloss": "bestätigt"
        },
        {
          "dep": "root",
          "governor": 5,
          "governorGloss": "bestätigt",
          "dependent": 6,
          "dependentGloss": "echt"
        },
        {
          "dep": "punct",
          "governor": 6,
          "governorGloss": "echt",
          "dependent": 7,
          "dependentGloss": ";"
        },
        {
          "dep": "name",
          "governor": 9,
          "governorGloss": "PM",
          "dependent": 8,
          "dependentGloss": "UK"
        },
        {
          "dep": "conj",
          "governor": 6,
          "governorGloss": "echt",
          "dependent": 9,
          "dependentGloss": "PM"
        },
        {
          "dep": "name",
          "governor": 11,
          "governorGloss": "Gelübde",
          "dependent": 10,
          "dependentGloss": "Cameron"
        },
        {
          "dep": "appos",
          "governor": 9,
          "governorGloss": "PM",
          "dependent": 11,
          "dependentGloss": "Gelübde"
        },
        {
          "dep": "aux",
          "governor": 13,
          "governorGloss": "jagen",
          "dependent": 12,
          "dependentGloss": "zu"
        },
        {
          "dep": "acl",
          "governor": 9,
          "governorGloss": "PM",
          "dependent": 13,
          "dependentGloss": "jagen"
        },
        {
          "dep": "name",
          "governor": 16,
          "governorGloss": "Monster",
          "dependent": 14,
          "dependentGloss": "ISIS"
        },
        {
          "dep": "punct",
          "governor": 16,
          "governorGloss": "Monster",
          "dependent": 15,
          "dependentGloss": "`"
        },
        {
          "dep": "dobj",
          "governor": 13,
          "governorGloss": "jagen",
          "dependent": 16,
          "dependentGloss": "Monster"
        },
        {
          "dep": "punct",
          "governor": 6,
          "governorGloss": "echt",
          "dependent": 17,
          "dependentGloss": "'"
        }
      ],
      "enhancedPlusPlusDependencies": [
        {
          "dep": "ROOT",
          "governor": 0,
          "governorGloss": "ROOT",
          "dependent": 3,
          "dependentGloss": "Enthauptung"
        },
        {
          "dep": "name",
          "governor": 2,
          "governorGloss": "Haines",
          "dependent": 1,
          "dependentGloss": "David"
        },
        {
          "dep": "nsubj",
          "governor": 3,
          "governorGloss": "Enthauptung",
          "dependent": 2,
          "dependentGloss": "Haines"
        },
        {
          "dep": "dobj",
          "governor": 3,
          "governorGloss": "Enthauptung",
          "dependent": 4,
          "dependentGloss": "Video"
        },
        {
          "dep": "dep",
          "governor": 4,
          "governorGloss": "Video",
          "dependent": 5,
          "dependentGloss": "bestätigt"
        },
        {
          "dep": "root",
          "governor": 5,
          "governorGloss": "bestätigt",
          "dependent": 6,
          "dependentGloss": "echt"
        },
        {
          "dep": "punct",
          "governor": 6,
          "governorGloss": "echt",
          "dependent": 7,
          "dependentGloss": ";"
        },
        {
          "dep": "name",
          "governor": 9,
          "governorGloss": "PM",
          "dependent": 8,
          "dependentGloss": "UK"
        },
        {
          "dep": "conj",
          "governor": 6,
          "governorGloss": "echt",
          "dependent": 9,
          "dependentGloss": "PM"
        },
        {
          "dep": "name",
          "governor": 11,
          "governorGloss": "Gelübde",
          "dependent": 10,
          "dependentGloss": "Cameron"
        },
        {
          "dep": "appos",
          "governor": 9,
          "governorGloss": "PM",
          "dependent": 11,
          "dependentGloss": "Gelübde"
        },
        {
          "dep": "aux",
          "governor": 13,
          "governorGloss": "jagen",
          "dependent": 12,
          "dependentGloss": "zu"
        },
        {
          "dep": "acl",
          "governor": 9,
          "governorGloss": "PM",
          "dependent": 13,
          "dependentGloss": "jagen"
        },
        {
          "dep": "name",
          "governor": 16,
          "governorGloss": "Monster",
          "dependent": 14,
          "dependentGloss": "ISIS"
        },
        {
          "dep": "punct",
          "governor": 16,
          "governorGloss": "Monster",
          "dependent": 15,
          "dependentGloss": "`"
        },
        {
          "dep": "dobj",
          "governor": 13,
          "governorGloss": "jagen",
          "dependent": 16,
          "dependentGloss": "Monster"
        },
        {
          "dep": "punct",
          "governor": 6,
          "governorGloss": "echt",
          "dependent": 17,
          "dependentGloss": "'"
        }
      ],
      "tokens": [
        {
          "index": 1,
          "word": "David",
          "originalText": "David",
          "characterOffsetBegin": 0,
          "characterOffsetEnd": 5,
          "pos": "NE",
          "before": "",
          "after": " "
        },
        {
          "index": 2,
          "word": "Haines",
          "originalText": "Haines",
          "characterOffsetBegin": 6,
          "characterOffsetEnd": 12,
          "pos": "NE",
          "before": " ",
          "after": " "
        },
        {
          "index": 3,
          "word": "Enthauptung",
          "originalText": "Enthauptung",
          "characterOffsetBegin": 13,
          "characterOffsetEnd": 24,
          "pos": "NN",
          "before": " ",
          "after": " "
        },
        {
          "index": 4,
          "word": "Video",
          "originalText": "Video",
          "characterOffsetBegin": 25,
          "characterOffsetEnd": 30,
          "pos": "NN",
          "before": " ",
          "after": " "
        },
        {
          "index": 5,
          "word": "bestätigt",
          "originalText": "bestätigt",
          "characterOffsetBegin": 31,
          "characterOffsetEnd": 40,
          "pos": "VVFIN",
          "before": " ",
          "after": " "
        },
        {
          "index": 6,
          "word": "echt",
          "originalText": "echt",
          "characterOffsetBegin": 41,
          "characterOffsetEnd": 45,
          "pos": "ADJD",
          "before": " ",
          "after": ""
        },
        {
          "index": 7,
          "word": ";",
          "originalText": ";",
          "characterOffsetBegin": 45,
          "characterOffsetEnd": 46,
          "pos": "$.",
          "before": "",
          "after": " "
        },
        {
          "index": 8,
          "word": "UK",
          "originalText": "UK",
          "characterOffsetBegin": 47,
          "characterOffsetEnd": 49,
          "pos": "NE",
          "before": " ",
          "after": " "
        },
        {
          "index": 9,
          "word": "PM",
          "originalText": "PM",
          "characterOffsetBegin": 50,
          "characterOffsetEnd": 52,
          "pos": "NE",
          "before": " ",
          "after": " "
        },
        {
          "index": 10,
          "word": "Cameron",
          "originalText": "Cameron",
          "characterOffsetBegin": 53,
          "characterOffsetEnd": 60,
          "pos": "NE",
          "before": " ",
          "after": " "
        },
        {
          "index": 11,
          "word": "Gelübde",
          "originalText": "Gelübde",
          "characterOffsetBegin": 61,
          "characterOffsetEnd": 68,
          "pos": "NN",
          "before": " ",
          "after": " "
        },
        {
          "index": 12,
          "word": "zu",
          "originalText": "zu",
          "characterOffsetBegin": 69,
          "characterOffsetEnd": 71,
          "pos": "PTKZU",
          "before": " ",
          "after": " "
        },
        {
          "index": 13,
          "word": "jagen",
          "originalText": "jagen",
          "characterOffsetBegin": 72,
          "characterOffsetEnd": 77,
          "pos": "VVINF",
          "before": " ",
          "after": " "
        },
        {
          "index": 14,
          "word": "ISIS",
          "originalText": "ISIS",
          "characterOffsetBegin": 78,
          "characterOffsetEnd": 82,
          "pos": "NE",
          "before": " ",
          "after": " "
        },
        {
          "index": 15,
          "word": "`",
          "originalText": "'",
          "characterOffsetBegin": 83,
          "characterOffsetEnd": 84,
          "pos": "CARD",
          "before": " ",
          "after": ""
        },
        {
          "index": 16,
          "word": "Monster",
          "originalText": "Monster",
          "characterOffsetBegin": 84,
          "characterOffsetEnd": 91,
          "pos": "NN",
          "before": "",
          "after": ""
        },
        {
          "index": 17,
          "word": "'",
          "originalText": "'",
          "characterOffsetBegin": 91,
          "characterOffsetEnd": 92,
          "pos": "$[",
          "before": "",
          "after": ""
        }
      ]
    }
  ]
}