{
  "sentences": [
    {
      "index": 0,
      "basicDependencies": [
        {
          "dep": "ROOT",
          "governor": 0,
          "governorGloss": "ROOT",
          "dependent": 1,
          "dependentGloss": "Macaulay"
        },
        {
          "dep": "amod",
          "governor": 3,
          "governorGloss": "Dead",
          "dependent": 2,
          "dependentGloss": "Culkin"
        },
        {
          "dep": "nsubj",
          "governor": 1,
          "governorGloss": "Macaulay",
          "dependent": 3,
          "dependentGloss": "Dead"
        },
        {
          "dep": "punct",
          "governor": 3,
          "governorGloss": "Dead",
          "dependent": 4,
          "dependentGloss": ":"
        },
        {
          "dep": "nmod",
          "governor": 8,
          "governorGloss": "Opfer",
          "dependent": 5,
          "dependentGloss": "Schauspieler"
        },
        {
          "dep": "advmod",
          "governor": 7,
          "governorGloss": "einmal",
          "dependent": 6,
          "dependentGloss": "noch"
        },
        {
          "dep": "advmod",
          "governor": 8,
          "governorGloss": "Opfer",
          "dependent": 7,
          "dependentGloss": "einmal"
        },
        {
          "dep": "appos",
          "governor": 3,
          "governorGloss": "Dead",
          "dependent": 8,
          "dependentGloss": "Opfer"
        },
        {
          "dep": "det",
          "governor": 10,
          "governorGloss": "Todes",
          "dependent": 9,
          "dependentGloss": "des"
        },
        {
          "dep": "det",
          "governor": 8,
          "governorGloss": "Opfer",
          "dependent": 10,
          "dependentGloss": "Todes"
        },
        {
          "dep": "dobj",
          "governor": 1,
          "governorGloss": "Macaulay",
          "dependent": 11,
          "dependentGloss": "Hoax"
        }
      ],
      "enhancedDependencies": [
        {
          "dep": "ROOT",
          "governor": 0,
          "governorGloss": "ROOT",
          "dependent": 1,
          "dependentGloss": "Macaulay"
        },
        {
          "dep": "amod",
          "governor": 3,
          "governorGloss": "Dead",
          "dependent": 2,
          "dependentGloss": "Culkin"
        },
        {
          "dep": "nsubj",
          "governor": 1,
          "governorGloss": "Macaulay",
          "dependent": 3,
          "dependentGloss": "Dead"
        },
        {
          "dep": "punct",
          "governor": 3,
          "governorGloss": "Dead",
          "dependent": 4,
          "dependentGloss": ":"
        },
        {
          "dep": "nmod",
          "governor": 8,
          "governorGloss": "Opfer",
          "dependent": 5,
          "dependentGloss": "Schauspieler"
        },
        {
          "dep": "advmod",
          "governor": 7,
          "governorGloss": "einmal",
          "dependent": 6,
          "dependentGloss": "noch"
        },
        {
          "dep": "advmod",
          "governor": 8,
          "governorGloss": "Opfer",
          "dependent": 7,
          "dependentGloss": "einmal"
        },
        {
          "dep": "appos",
          "governor": 3,
          "governorGloss": "Dead",
          "dependent": 8,
          "dependentGloss": "Opfer"
        },
        {
          "dep": "det",
          "governor": 10,
          "governorGloss": "Todes",
          "dependent": 9,
          "dependentGloss": "des"
        },
        {
          "dep": "det",
          "governor": 8,
          "governorGloss": "Opfer",
          "dependent": 10,
          "dependentGloss": "Todes"
        },
        {
          "dep": "dobj",
          "governor": 1,
          "governorGloss": "Macaulay",
          "dependent": 11,
          "dependentGloss": "Hoax"
        }
      ],
      "enhancedPlusPlusDependencies": [
        {
          "dep": "ROOT",
          "governor": 0,
          "governorGloss": "ROOT",
          "dependent": 1,
          "dependentGloss": "Macaulay"
        },
        {
          "dep": "amod",
          "governor": 3,
          "governorGloss": "Dead",
          "dependent": 2,
          "dependentGloss": "Culkin"
        },
        {
          "dep": "nsubj",
          "governor": 1,
          "governorGloss": "Macaulay",
          "dependent": 3,
          "dependentGloss": "Dead"
        },
        {
          "dep": "punct",
          "governor": 3,
          "governorGloss": "Dead",
          "dependent": 4,
          "dependentGloss": ":"
        },
        {
          "dep": "nmod",
          "governor": 8,
          "governorGloss": "Opfer",
          "dependent": 5,
          "dependentGloss": "Schauspieler"
        },
        {
          "dep": "advmod",
          "governor": 7,
          "governorGloss": "einmal",
          "dependent": 6,
          "dependentGloss": "noch"
        },
        {
          "dep": "advmod",
          "governor": 8,
          "governorGloss": "Opfer",
          "dependent": 7,
          "dependentGloss": "einmal"
        },
        {
          "dep": "appos",
          "governor": 3,
          "governorGloss": "Dead",
          "dependent": 8,
          "dependentGloss": "Opfer"
        },
        {
          "dep": "det",
          "governor": 10,
          "governorGloss": "Todes",
          "dependent": 9,
          "dependentGloss": "des"
        },
        {
          "dep": "det",
          "governor": 8,
          "governorGloss": "Opfer",
          "dependent": 10,
          "dependentGloss": "Todes"
        },
        {
          "dep": "dobj",
          "governor": 1,
          "governorGloss": "Macaulay",
          "dependent": 11,
          "dependentGloss": "Hoax"
        }
      ],
      "tokens": [
        {
          "index": 1,
          "word": "Macaulay",
          "originalText": "Macaulay",
          "characterOffsetBegin": 0,
          "characterOffsetEnd": 8,
          "pos": "NE",
          "before": "",
          "after": " "
        },
        {
          "index": 2,
          "word": "Culkin",
          "originalText": "Culkin",
          "characterOffsetBegin": 9,
          "characterOffsetEnd": 15,
          "pos": "NE",
          "before": " ",
          "after": " "
        },
        {
          "index": 3,
          "word": "Dead",
          "originalText": "Dead",
          "characterOffsetBegin": 16,
          "characterOffsetEnd": 20,
          "pos": "NE",
          "before": " ",
          "after": ""
        },
        {
          "index": 4,
          "word": ":",
          "originalText": ":",
          "characterOffsetBegin": 20,
          "characterOffsetEnd": 21,
          "pos": "$.",
          "before": "",
          "after": " "
        },
        {
          "index": 5,
          "word": "Schauspieler",
          "originalText": "Schauspieler",
          "characterOffsetBegin": 22,
          "characterOffsetEnd": 34,
          "pos": "NN",
          "before": " ",
          "after": " "
        },
        {
          "index": 6,
          "word": "noch",
          "originalText": "noch",
          "characterOffsetBegin": 35,
          "characterOffsetEnd": 39,
          "pos": "ADV",
          "before": " ",
          "after": " "
        },
        {
          "index": 7,
          "word": "einmal",
          "originalText": "einmal",
          "characterOffsetBegin": 40,
          "characterOffsetEnd": 46,
          "pos": "ADV",
          "before": " ",
          "after": " "
        },
        {
          "index": 8,
          "word": "Opfer",
          "originalText": "Opfer",
          "characterOffsetBegin": 47,
          "characterOffsetEnd": 52,
          "pos": "NN",
          "before": " ",
          "after": " "
        },
        {
          "index": 9,
          "word": "des",
          "originalText": "des",
          "characterOffsetBegin": 53,
          "characterOffsetEnd": 56,
          "pos": "ART",
          "before": " ",
          "after": " "
        },
        {
          "index": 10,
          "word": "Todes",
          "originalText": "Todes",
          "characterOffsetBegin": 57,
          "characterOffsetEnd": 62,
          "pos": "NN",
          "before": " ",
          "after": " "
        },
        {
          "index": 11,
          "word": "Hoax",
          "originalText": "Hoax",
          "characterOffsetBegin": 63,
          "characterOffsetEnd": 67,
          "pos": "NE",
          "before": " ",
          "after": ""
        }
      ]
    }
  ]
}