{
  "sentences": [
    {
      "index": 0,
      "basicDependencies": [
        {
          "dep": "ROOT",
          "governor": 0,
          "governorGloss": "ROOT",
          "dependent": 11,
          "dependentGloss": "geschossen"
        },
        {
          "dep": "parataxis",
          "governor": 11,
          "governorGloss": "geschossen",
          "dependent": 1,
          "dependentGloss": "Bericht"
        },
        {
          "dep": "punct",
          "governor": 1,
          "governorGloss": "Bericht",
          "dependent": 2,
          "dependentGloss": ":"
        },
        {
          "dep": "name",
          "governor": 5,
          "governorGloss": "Star",
          "dependent": 3,
          "dependentGloss": "Ehemaliger"
        },
        {
          "dep": "name",
          "governor": 5,
          "governorGloss": "Star",
          "dependent": 4,
          "dependentGloss": "Baseball"
        },
        {
          "dep": "nsubj",
          "governor": 11,
          "governorGloss": "geschossen",
          "dependent": 5,
          "dependentGloss": "Star"
        },
        {
          "dep": "name",
          "governor": 7,
          "governorGloss": "Canseco",
          "dependent": 6,
          "dependentGloss": "Jose"
        },
        {
          "dep": "appos",
          "governor": 5,
          "governorGloss": "Star",
          "dependent": 7,
          "dependentGloss": "Canseco"
        },
        {
          "dep": "advmod",
          "governor": 11,
          "governorGloss": "geschossen",
          "dependent": 8,
          "dependentGloss": "versehentlich"
        },
        {
          "dep": "case",
          "governor": 10,
          "governorGloss": "Hause",
          "dependent": 9,
          "dependentGloss": "zu"
        },
        {
          "dep": "nmod",
          "governor": 8,
          "governorGloss": "versehentlich",
          "dependent": 10,
          "dependentGloss": "Hause"
        }
      ],
      "enhancedDependencies": [
        {
          "dep": "ROOT",
          "governor": 0,
          "governorGloss": "ROOT",
          "dependent": 11,
          "dependentGloss": "geschossen"
        },
        {
          "dep": "parataxis",
          "governor": 11,
          "governorGloss": "geschossen",
          "dependent": 1,
          "dependentGloss": "Bericht"
        },
        {
          "dep": "punct",
          "governor": 1,
          "governorGloss": "Bericht",
          "dependent": 2,
          "dependentGloss": ":"
        },
        {
          "dep": "name",
          "governor": 5,
          "governorGloss": "Star",
          "dependent": 3,
          "dependentGloss": "Ehemaliger"
        },
        {
          "dep": "name",
          "governor": 5,
          "governorGloss": "Star",
          "dependent": 4,
          "dependentGloss": "Baseball"
        },
        {
          "dep": "nsubj",
          "governor": 11,
          "governorGloss": "geschossen",
          "dependent": 5,
          "dependentGloss": "Star"
        },
        {
          "dep": "name",
          "governor": 7,
          "governorGloss": "Canseco",
          "dependent": 6,
          "dependentGloss": "Jose"
        },
        {
          "dep": "appos",
          "governor": 5,
          "governorGloss": "Star",
          "dependent": 7,
          "dependentGloss": "Canseco"
        },
        {
          "dep": "advmod",
          "governor": 11,
          "governorGloss": "geschossen",
          "dependent": 8,
          "dependentGloss": "versehentlich"
        },
        {
          "dep": "case",
          "governor": 10,
          "governorGloss": "Hause",
          "dependent": 9,
          "dependentGloss": "zu"
        },
        {
          "dep": "nmod",
          "governor": 8,
          "governorGloss": "versehentlich",
          "dependent": 10,
          "dependentGloss": "Hause"
        }
      ],
      "enhancedPlusPlusDependencies": [
        {
          "dep": "ROOT",
          "governor": 0,
          "governorGloss": "ROOT",
          "dependent": 11,
          "dependentGloss": "geschossen"
        },
        {
          "dep": "parataxis",
          "governor": 11,
          "governorGloss": "geschossen",
          "dependent": 1,
          "dependentGloss": "Bericht"
        },
        {
          "dep": "punct",
          "governor": 1,
          "governorGloss": "Bericht",
          "dependent": 2,
          "dependentGloss": ":"
        },
        {
          "dep": "name",
          "governor": 5,
          "governorGloss": "Star",
          "dependent": 3,
          "dependentGloss": "Ehemaliger"
        },
        {
          "dep": "name",
          "governor": 5,
          "governorGloss": "Star",
          "dependent": 4,
          "dependentGloss": "Baseball"
        },
        {
          "dep": "nsubj",
          "governor": 11,
          "governorGloss": "geschossen",
          "dependent": 5,
          "dependentGloss": "Star"
        },
        {
          "dep": "name",
          "governor": 7,
          "governorGloss": "Canseco",
          "dependent": 6,
          "dependentGloss": "Jose"
        },
        {
          "dep": "appos",
          "governor": 5,
          "governorGloss": "Star",
          "dependent": 7,
          "dependentGloss": "Canseco"
        },
        {
          "dep": "advmod",
          "governor": 11,
          "governorGloss": "geschossen",
          "dependent": 8,
          "dependentGloss": "versehentlich"
        },
        {
          "dep": "case",
          "governor": 10,
          "governorGloss": "Hause",
          "dependent": 9,
          "dependentGloss": "zu"
        },
        {
          "dep": "nmod",
          "governor": 8,
          "governorGloss": "versehentlich",
          "dependent": 10,
          "dependentGloss": "Hause"
        }
      ],
      "tokens": [
        {
          "index": 1,
          "word": "Bericht",
          "originalText": "Bericht",
          "characterOffsetBegin": 0,
          "characterOffsetEnd": 7,
          "pos": "NN",
          "before": "",
          "after": ""
        },
        {
          "index": 2,
          "word": ":",
          "originalText": ":",
          "characterOffsetBegin": 7,
          "characterOffsetEnd": 8,
          "pos": "$.",
          "before": "",
          "after": " "
        },
        {
          "index": 3,
          "word": "Ehemaliger",
          "originalText": "Ehemaliger",
          "characterOffsetBegin": 9,
          "characterOffsetEnd": 19,
          "pos": "ADJA",
          "before": " ",
          "after": " "
        },
        {
          "index": 4,
          "word": "Baseball",
          "originalText": "Baseball",
          "characterOffsetBegin": 20,
          "characterOffsetEnd": 28,
          "pos": "NN",
          "before": " ",
          "after": " "
        },
        {
          "index": 5,
          "word": "Star",
          "originalText": "Star",
          "characterOffsetBegin": 29,
          "characterOffsetEnd": 33,
          "pos": "NN",
          "before": " ",
          "after": " "
        },
        {
          "index": 6,
          "word": "Jose",
          "originalText": "Jose",
          "characterOffsetBegin": 34,
          "characterOffsetEnd": 38,
          "pos": "NE",
          "before": " ",
          "after": " "
        },
        {
          "index": 7,
          "word": "Canseco",
          "originalText": "Canseco",
          "characterOffsetBegin": 39,
          "characterOffsetEnd": 46,
          "pos": "NE",
          "before": " ",
          "after": " "
        },
        {
          "index": 8,
          "word": "versehentlich",
          "originalText": "versehentlich",
          "characterOffsetBegin": 47,
          "characterOffsetEnd": 60,
          "pos": "ADJD",
          "before": " ",
          "after": " "
        },
        {
          "index": 9,
          "word": "zu",
          "originalText": "zu",
          "characterOffsetBegin": 61,
          "characterOffsetEnd": 63,
          "pos": "APPR",
          "before": " ",
          "after": " "
        },
        {
          "index": 10,
          "word": "Hause",
          "originalText": "Hause",
          "characterOffsetBegin": 64,
          "characterOffsetEnd": 69,
          "pos": "NN",
          "before": " ",
          "after": " "
        },
        {
          "index": 11,
          "word": "geschossen",
          "originalText": "geschossen",
          "characterOffsetBegin": 70,
          "characterOffsetEnd": 80,
          "pos": "VVPP",
          "before": " ",
          "after": ""
        }
      ]
    }
  ]
}