{
  "sentences": [
    {
      "index": 0,
      "basicDependencies": [
        {
          "dep": "ROOT",
          "governor": 0,
          "governorGloss": "ROOT",
          "dependent": 4,
          "dependentGloss": "geholfen"
        },
        {
          "dep": "name",
          "governor": 2,
          "governorGloss": "Rudd",
          "dependent": 1,
          "dependentGloss": "Paul"
        },
        {
          "dep": "nsubj",
          "governor": 4,
          "governorGloss": "geholfen",
          "dependent": 2,
          "dependentGloss": "Rudd"
        },
        {
          "dep": "aux",
          "governor": 4,
          "governorGloss": "geholfen",
          "dependent": 3,
          "dependentGloss": "hat"
        },
        {
          "dep": "punct",
          "governor": 4,
          "governorGloss": "geholfen",
          "dependent": 5,
          "dependentGloss": ","
        },
        {
          "dep": "det",
          "governor": 8,
          "governorGloss": "Homophobe",
          "dependent": 6,
          "dependentGloss": "einen"
        },
        {
          "dep": "amod",
          "governor": 8,
          "governorGloss": "Homophobe",
          "dependent": 7,
          "dependentGloss": "gewalttätigen"
        },
        {
          "dep": "dobj",
          "governor": 10,
          "governorGloss": "bekämpfen",
          "dependent": 8,
          "dependentGloss": "Homophobe"
        },
        {
          "dep": "aux",
          "governor": 10,
          "governorGloss": "bekämpfen",
          "dependent": 9,
          "dependentGloss": "zu"
        },
        {
          "dep": "xcomp",
          "governor": 4,
          "governorGloss": "geholfen",
          "dependent": 10,
          "dependentGloss": "bekämpfen"
        },
        {
          "dep": "punct",
          "governor": 4,
          "governorGloss": "geholfen",
          "dependent": 11,
          "dependentGloss": "."
        }
      ],
      "enhancedDependencies": [
        {
          "dep": "ROOT",
          "governor": 0,
          "governorGloss": "ROOT",
          "dependent": 4,
          "dependentGloss": "geholfen"
        },
        {
          "dep": "name",
          "governor": 2,
          "governorGloss": "Rudd",
          "dependent": 1,
          "dependentGloss": "Paul"
        },
        {
          "dep": "nsubj",
          "governor": 4,
          "governorGloss": "geholfen",
          "dependent": 2,
          "dependentGloss": "Rudd"
        },
        {
          "dep": "aux",
          "governor": 4,
          "governorGloss": "geholfen",
          "dependent": 3,
          "dependentGloss": "hat"
        },
        {
          "dep": "punct",
          "governor": 4,
          "governorGloss": "geholfen",
          "dependent": 5,
          "dependentGloss": ","
        },
        {
          "dep": "det",
          "governor": 8,
          "governorGloss": "Homophobe",
          "dependent": 6,
          "dependentGloss": "einen"
        },
        {
          "dep": "amod",
          "governor": 8,
          "governorGloss": "Homophobe",
          "dependent": 7,
          "dependentGloss": "gewalttätigen"
        },
        {
          "dep": "dobj",
          "governor": 10,
          "governorGloss": "bekämpfen",
          "dependent": 8,
          "dependentGloss": "Homophobe"
        },
        {
          "dep": "aux",
          "governor": 10,
          "governorGloss": "bekämpfen",
          "dependent": 9,
          "dependentGloss": "zu"
        },
        {
          "dep": "xcomp",
          "governor": 4,
          "governorGloss": "geholfen",
          "dependent": 10,
          "dependentGloss": "bekämpfen"
        },
        {
          "dep": "punct",
          "governor": 4,
          "governorGloss": "geholfen",
          "dependent": 11,
          "dependentGloss": "."
        }
      ],
      "enhancedPlusPlusDependencies": [
        {
          "dep": "ROOT",
          "governor": 0,
          "governorGloss": "ROOT",
          "dependent": 4,
          "dependentGloss": "geholfen"
        },
        {
          "dep": "name",
          "governor": 2,
          "governorGloss": "Rudd",
          "dependent": 1,
          "dependentGloss": "Paul"
        },
        {
          "dep": "nsubj",
          "governor": 4,
          "governorGloss": "geholfen",
          "dependent": 2,
          "dependentGloss": "Rudd"
        },
        {
          "dep": "aux",
          "governor": 4,
          "governorGloss": "geholfen",
          "dependent": 3,
          "dependentGloss": "hat"
        },
        {
          "dep": "punct",
          "governor": 4,
          "governorGloss": "geholfen",
          "dependent": 5,
          "dependentGloss": ","
        },
        {
          "dep": "det",
          "governor": 8,
          "governorGloss": "Homophobe",
          "dependent": 6,
          "dependentGloss": "einen"
        },
        {
          "dep": "amod",
          "governor": 8,
          "governorGloss": "Homophobe",
          "dependent": 7,
          "dependentGloss": "gewalttätigen"
        },
        {
          "dep": "dobj",
          "governor": 10,
          "governorGloss": "bekämpfen",
          "dependent": 8,
          "dependentGloss": "Homophobe"
        },
        {
          "dep": "aux",
          "governor": 10,
          "governorGloss": "bekämpfen",
          "dependent": 9,
          "dependentGloss": "zu"
        },
        {
          "dep": "xcomp",
          "governor": 4,
          "governorGloss": "geholfen",
          "dependent": 10,
          "dependentGloss": "bekämpfen"
        },
        {
          "dep": "punct",
          "governor": 4,
          "governorGloss": "geholfen",
          "dependent": 11,
          "dependentGloss": "."
        }
      ],
      "tokens": [
        {
          "index": 1,
          "word": "Paul",
          "originalText": "Paul",
          "characterOffsetBegin": 0,
          "characterOffsetEnd": 4,
          "pos": "NE",
          "before": "",
          "after": " "
        },
        {
          "index": 2,
          "word": "Rudd",
          "originalText": "Rudd",
          "characterOffsetBegin": 5,
          "characterOffsetEnd": 9,
          "pos": "NE",
          "before": " ",
          "after": " "
        },
        {
          "index": 3,
          "word": "hat",
          "originalText": "hat",
          "characterOffsetBegin": 10,
          "characterOffsetEnd": 13,
          "pos": "VAFIN",
          "before": " ",
          "after": " "
        },
        {
          "index": 4,
          "word": "geholfen",
          "originalText": "geholfen",
          "characterOffsetBegin": 14,
          "characterOffsetEnd": 22,
          "pos": "VVPP",
          "before": " ",
          "after": ""
        },
        {
          "index": 5,
          "word": ",",
          "originalText": ",",
          "characterOffsetBegin": 22,
          "characterOffsetEnd": 23,
          "pos": "$,",
          "before": "",
          "after": " "
        },
        {
          "index": 6,
          "word": "einen",
          "originalText": "einen",
          "characterOffsetBegin": 24,
          "characterOffsetEnd": 29,
          "pos": "ART",
          "before": " ",
          "after": " "
        },
        {
          "index": 7,
          "word": "gewalttätigen",
          "originalText": "gewalttätigen",
          "characterOffsetBegin": 30,
          "characterOffsetEnd": 43,
          "pos": "ADJA",
          "before": " ",
          "after": " "
        },
        {
          "index": 8,
          "word": "Homophobe",
          "originalText": "Homophobe",
          "characterOffsetBegin": 44,
          "characterOffsetEnd": 53,
          "pos": "NN",
          "before": " ",
          "after": " "
        },
        {
          "index": 9,
          "word": "zu",
          "originalText": "zu",
          "characterOffsetBegin": 54,
          "characterOffsetEnd": 56,
          "pos": "PTKZU",
          "before": " ",
          "after": " "
        },
        {
          "index": 10,
          "word": "bekämpfen",
          "originalText": "bekämpfen",
          "characterOffsetBegin": 57,
          "characterOffsetEnd": 66,
          "pos": "VVINF",
          "before": " ",
          "after": ""
        },
        {
          "index": 11,
          "word": ".",
          "originalText": ".",
          "characterOffsetBegin": 66,
          "characterOffsetEnd": 67,
          "pos": "$.",
          "before": "",
          "after": " "
        }
      ]
    },
    {
      "index": 1,
      "basicDependencies": [
        {
          "dep": "ROOT",
          "governor": 0,
          "governorGloss": "ROOT",
          "dependent": 5,
          "dependentGloss": "Grund"
        },
        {
          "dep": "nsubj",
          "governor": 5,
          "governorGloss": "Grund",
          "dependent": 1,
          "dependentGloss": "Das"
        },
        {
          "dep": "cop",
          "governor": 5,
          "governorGloss": "Grund",
          "dependent": 2,
          "dependentGloss": "ist"
        },
        {
          "dep": "det",
          "governor": 5,
          "governorGloss": "Grund",
          "dependent": 3,
          "dependentGloss": "ein"
        },
        {
          "dep": "amod",
          "governor": 5,
          "governorGloss": "Grund",
          "dependent": 4,
          "dependentGloss": "weiterer"
        },
        {
          "dep": "punct",
          "governor": 5,
          "governorGloss": "Grund",
          "dependent": 6,
          "dependentGloss": ","
        },
        {
          "dep": "dobj",
          "governor": 11,
          "governorGloss": "UPDATE",
          "dependent": 7,
          "dependentGloss": "ihn"
        },
        {
          "dep": "case",
          "governor": 10,
          "governorGloss": "-LSB-",
          "dependent": 8,
          "dependentGloss": "zu"
        },
        {
          "dep": "amod",
          "governor": 10,
          "governorGloss": "-LSB-",
          "dependent": 9,
          "dependentGloss": "lieben"
        },
        {
          "dep": "nmod",
          "governor": 11,
          "governorGloss": "UPDATE",
          "dependent": 10,
          "dependentGloss": "-LSB-"
        },
        {
          "dep": "acl",
          "governor": 5,
          "governorGloss": "Grund",
          "dependent": 11,
          "dependentGloss": "UPDATE"
        },
        {
          "dep": "aux",
          "governor": 11,
          "governorGloss": "UPDATE",
          "dependent": 12,
          "dependentGloss": "-RSB-"
        }
      ],
      "enhancedDependencies": [
        {
          "dep": "ROOT",
          "governor": 0,
          "governorGloss": "ROOT",
          "dependent": 5,
          "dependentGloss": "Grund"
        },
        {
          "dep": "nsubj",
          "governor": 5,
          "governorGloss": "Grund",
          "dependent": 1,
          "dependentGloss": "Das"
        },
        {
          "dep": "cop",
          "governor": 5,
          "governorGloss": "Grund",
          "dependent": 2,
          "dependentGloss": "ist"
        },
        {
          "dep": "det",
          "governor": 5,
          "governorGloss": "Grund",
          "dependent": 3,
          "dependentGloss": "ein"
        },
        {
          "dep": "amod",
          "governor": 5,
          "governorGloss": "Grund",
          "dependent": 4,
          "dependentGloss": "weiterer"
        },
        {
          "dep": "punct",
          "governor": 5,
          "governorGloss": "Grund",
          "dependent": 6,
          "dependentGloss": ","
        },
        {
          "dep": "dobj",
          "governor": 11,
          "governorGloss": "UPDATE",
          "dependent": 7,
          "dependentGloss": "ihn"
        },
        {
          "dep": "case",
          "governor": 10,
          "governorGloss": "-LSB-",
          "dependent": 8,
          "dependentGloss": "zu"
        },
        {
          "dep": "amod",
          "governor": 10,
          "governorGloss": "-LSB-",
          "dependent": 9,
          "dependentGloss": "lieben"
        },
        {
          "dep": "nmod",
          "governor": 11,
          "governorGloss": "UPDATE",
          "dependent": 10,
          "dependentGloss": "-LSB-"
        },
        {
          "dep": "acl",
          "governor": 5,
          "governorGloss": "Grund",
          "dependent": 11,
          "dependentGloss": "UPDATE"
        },
        {
          "dep": "aux",
          "governor": 11,
          "governorGloss": "UPDATE",
          "dependent": 12,
          "dependentGloss": "-RSB-"
        }
      ],
      "enhancedPlusPlusDependencies": [
        {
          "dep": "ROOT",
          "governor": 0,
          "governorGloss": "ROOT",
          "dependent": 5,
          "dependentGloss": "Grund"
        },
        {
          "dep": "nsubj",
          "governor": 5,
          "governorGloss": "Grund",
          "dependent": 1,
          "dependentGloss": "Das"
        },
        {
          "dep": "cop",
          "governor": 5,
          "governorGloss": "Grund",
          "dependent": 2,
          "dependentGloss": "ist"
        },
        {
          "dep": "det",
          "governor": 5,
          "governorGloss": "Grund",
          "dependent": 3,
          "dependentGloss": "ein"
        },
        {
          "dep": "amod",
          "governor": 5,
          "governorGloss": "Grund",
          "dependent": 4,
          "dependentGloss": "weiterer"
        },
        {
          "dep": "punct",
          "governor": 5,
          "governorGloss": "Grund",
          "dependent": 6,
          "dependentGloss": ","
        },
        {
          "dep": "dobj",
          "governor": 11,
          "governorGloss": "UPDATE",
          "dependent": 7,
          "dependentGloss": "ihn"
        },
        {
          "dep": "case",
          "governor": 10,
          "governorGloss": "-LSB-",
          "dependent": 8,
          "dependentGloss": "zu"
        },
        {
          "dep": "amod",
          "governor": 10,
          "governorGloss": "-LSB-",
          "dependent": 9,
          "dependentGloss": "lieben"
        },
        {
          "dep": "nmod",
          "governor": 11,
          "governorGloss": "UPDATE",
          "dependent": 10,
          "dependentGloss": "-LSB-"
        },
        {
          "dep": "acl",
          "governor": 5,
          "governorGloss": "Grund",
          "dependent": 11,
          "dependentGloss": "UPDATE"
        },
        {
          "dep": "aux",
          "governor": 11,
          "governorGloss": "UPDATE",
          "dependent": 12,
          "dependentGloss": "-RSB-"
        }
      ],
      "tokens": [
        {
          "index": 1,
          "word": "Das",
          "originalText": "Das",
          "characterOffsetBegin": 68,
          "characterOffsetEnd": 71,
          "pos": "PDS",
          "before": " ",
          "after": " "
        },
        {
          "index": 2,
          "word": "ist",
          "originalText": "ist",
          "characterOffsetBegin": 72,
          "characterOffsetEnd": 75,
          "pos": "VAFIN",
          "before": " ",
          "after": " "
        },
        {
          "index": 3,
          "word": "ein",
          "originalText": "ein",
          "characterOffsetBegin": 76,
          "characterOffsetEnd": 79,
          "pos": "ART",
          "before": " ",
          "after": " "
        },
        {
          "index": 4,
          "word": "weiterer",
          "originalText": "weiterer",
          "characterOffsetBegin": 80,
          "characterOffsetEnd": 88,
          "pos": "ADJA",
          "before": " ",
          "after": " "
        },
        {
          "index": 5,
          "word": "Grund",
          "originalText": "Grund",
          "characterOffsetBegin": 89,
          "characterOffsetEnd": 94,
          "pos": "NN",
          "before": " ",
          "after": ""
        },
        {
          "index": 6,
          "word": ",",
          "originalText": ",",
          "characterOffsetBegin": 94,
          "characterOffsetEnd": 95,
          "pos": "$,",
          "before": "",
          "after": " "
        },
        {
          "index": 7,
          "word": "ihn",
          "originalText": "ihn",
          "characterOffsetBegin": 96,
          "characterOffsetEnd": 99,
          "pos": "PPER",
          "before": " ",
          "after": " "
        },
        {
          "index": 8,
          "word": "zu",
          "originalText": "zu",
          "characterOffsetBegin": 100,
          "characterOffsetEnd": 102,
          "pos": "APPR",
          "before": " ",
          "after": " "
        },
        {
          "index": 9,
          "word": "lieben",
          "originalText": "lieben",
          "characterOffsetBegin": 103,
          "characterOffsetEnd": 109,
          "pos": "ADJA",
          "before": " ",
          "after": " "
        },
        {
          "index": 10,
          "word": "-LSB-",
          "originalText": "[",
          "characterOffsetBegin": 110,
          "characterOffsetEnd": 111,
          "pos": "TRUNC",
          "before": " ",
          "after": ""
        },
        {
          "index": 11,
          "word": "UPDATE",
          "originalText": "UPDATE",
          "characterOffsetBegin": 111,
          "characterOffsetEnd": 117,
          "pos": "NN",
          "before": "",
          "after": ""
        },
        {
          "index": 12,
          "word": "-RSB-",
          "originalText": "]",
          "characterOffsetBegin": 117,
          "characterOffsetEnd": 118,
          "pos": "TRUNC",
          "before": "",
          "after": ""
        }
      ]
    }
  ]
}