{
  "sentences": [
    {
      "index": 0,
      "basicDependencies": [
        {
          "dep": "ROOT",
          "governor": 0,
          "governorGloss": "ROOT",
          "dependent": 15,
          "dependentGloss": "al-Baghdadi"
        },
        {
          "dep": "nsubj",
          "governor": 15,
          "governorGloss": "al-Baghdadi",
          "dependent": 1,
          "dependentGloss": "Bericht"
        },
        {
          "dep": "punct",
          "governor": 1,
          "governorGloss": "Bericht",
          "dependent": 2,
          "dependentGloss": ":"
        },
        {
          "dep": "name",
          "governor": 4,
          "governorGloss": "Drones",
          "dependent": 3,
          "dependentGloss": "US"
        },
        {
          "dep": "appos",
          "governor": 1,
          "governorGloss": "Bericht",
          "dependent": 4,
          "dependentGloss": "Drones"
        },
        {
          "dep": "case",
          "governor": 6,
          "governorGloss": "Syrien",
          "dependent": 5,
          "dependentGloss": "über"
        },
        {
          "dep": "nmod",
          "governor": 4,
          "governorGloss": "Drones",
          "dependent": 6,
          "dependentGloss": "Syrien"
        },
        {
          "dep": "case",
          "governor": 9,
          "governorGloss": "Suche",
          "dependent": 7,
          "dependentGloss": "Auf"
        },
        {
          "dep": "det",
          "governor": 9,
          "governorGloss": "Suche",
          "dependent": 8,
          "dependentGloss": "der"
        },
        {
          "dep": "nmod",
          "governor": 1,
          "governorGloss": "Bericht",
          "dependent": 9,
          "dependentGloss": "Suche"
        },
        {
          "dep": "case",
          "governor": 12,
          "governorGloss": "Leader",
          "dependent": 10,
          "dependentGloss": "nach"
        },
        {
          "dep": "name",
          "governor": 12,
          "governorGloss": "Leader",
          "dependent": 11,
          "dependentGloss": "ISIS"
        },
        {
          "dep": "nmod",
          "governor": 9,
          "governorGloss": "Suche",
          "dependent": 12,
          "dependentGloss": "Leader"
        },
        {
          "dep": "name",
          "governor": 14,
          "governorGloss": "Bakr",
          "dependent": 13,
          "dependentGloss": "Abu"
        },
        {
          "dep": "appos",
          "governor": 9,
          "governorGloss": "Suche",
          "dependent": 14,
          "dependentGloss": "Bakr"
        }
      ],
      "enhancedDependencies": [
        {
          "dep": "ROOT",
          "governor": 0,
          "governorGloss": "ROOT",
          "dependent": 15,
          "dependentGloss": "al-Baghdadi"
        },
        {
          "dep": "nsubj",
          "governor": 15,
          "governorGloss": "al-Baghdadi",
          "dependent": 1,
          "dependentGloss": "Bericht"
        },
        {
          "dep": "punct",
          "governor": 1,
          "governorGloss": "Bericht",
          "dependent": 2,
          "dependentGloss": ":"
        },
        {
          "dep": "name",
          "governor": 4,
          "governorGloss": "Drones",
          "dependent": 3,
          "dependentGloss": "US"
        },
        {
          "dep": "appos",
          "governor": 1,
          "governorGloss": "Bericht",
          "dependent": 4,
          "dependentGloss": "Drones"
        },
        {
          "dep": "case",
          "governor": 6,
          "governorGloss": "Syrien",
          "dependent": 5,
          "dependentGloss": "über"
        },
        {
          "dep": "nmod",
          "governor": 4,
          "governorGloss": "Drones",
          "dependent": 6,
          "dependentGloss": "Syrien"
        },
        {
          "dep": "case",
          "governor": 9,
          "governorGloss": "Suche",
          "dependent": 7,
          "dependentGloss": "Auf"
        },
        {
          "dep": "det",
          "governor": 9,
          "governorGloss": "Suche",
          "dependent": 8,
          "dependentGloss": "der"
        },
        {
          "dep": "nmod",
          "governor": 1,
          "governorGloss": "Bericht",
          "dependent": 9,
          "dependentGloss": "Suche"
        },
        {
          "dep": "case",
          "governor": 12,
          "governorGloss": "Leader",
          "dependent": 10,
          "dependentGloss": "nach"
        },
        {
          "dep": "name",
          "governor": 12,
          "governorGloss": "Leader",
          "dependent": 11,
          "dependentGloss": "ISIS"
        },
        {
          "dep": "nmod",
          "governor": 9,
          "governorGloss": "Suche",
          "dependent": 12,
          "dependentGloss": "Leader"
        },
        {
          "dep": "name",
          "governor": 14,
          "governorGloss": "Bakr",
          "dependent": 13,
          "dependentGloss": "Abu"
        },
        {
          "dep": "appos",
          "governor": 9,
          "governorGloss": "Suche",
          "dependent": 14,
          "dependentGloss": "Bakr"
        }
      ],
      "enhancedPlusPlusDependencies": [
        {
          "dep": "ROOT",
          "governor": 0,
          "governorGloss": "ROOT",
          "dependent": 15,
          "dependentGloss": "al-Baghdadi"
        },
        {
          "dep": "nsubj",
          "governor": 15,
          "governorGloss": "al-Baghdadi",
          "dependent": 1,
          "dependentGloss": "Bericht"
        },
        {
          "dep": "punct",
          "governor": 1,
          "governorGloss": "Bericht",
          "dependent": 2,
          "dependentGloss": ":"
        },
        {
          "dep": "name",
          "governor": 4,
          "governorGloss": "Drones",
          "dependent": 3,
          "dependentGloss": "US"
        },
        {
          "dep": "appos",
          "governor": 1,
          "governorGloss": "Bericht",
          "dependent": 4,
          "dependentGloss": "Drones"
        },
        {
          "dep": "case",
          "governor": 6,
          "governorGloss": "Syrien",
          "dependent": 5,
          "dependentGloss": "über"
        },
        {
          "dep": "nmod",
          "governor": 4,
          "governorGloss": "Drones",
          "dependent": 6,
          "dependentGloss": "Syrien"
        },
        {
          "dep": "case",
          "governor": 9,
          "governorGloss": "Suche",
          "dependent": 7,
          "dependentGloss": "Auf"
        },
        {
          "dep": "det",
          "governor": 9,
          "governorGloss": "Suche",
          "dependent": 8,
          "dependentGloss": "der"
        },
        {
          "dep": "nmod",
          "governor": 1,
          "governorGloss": "Bericht",
          "dependent": 9,
          "dependentGloss": "Suche"
        },
        {
          "dep": "case",
          "governor": 12,
          "governorGloss": "Leader",
          "dependent": 10,
          "dependentGloss": "nach"
        },
        {
          "dep": "name",
          "governor": 12,
          "governorGloss": "Leader",
          "dependent": 11,
          "dependentGloss": "ISIS"
        },
        {
          "dep": "nmod",
          "governor": 9,
          "governorGloss": "Suche",
          "dependent": 12,
          "dependentGloss": "Leader"
        },
        {
          "dep": "name",
          "governor": 14,
          "governorGloss": "Bakr",
          "dependent": 13,
          "dependentGloss": "Abu"
        },
        {
          "dep": "appos",
          "governor": 9,
          "governorGloss": "Suche",
          "dependent": 14,
          "dependentGloss": "Bakr"
        }
      ],
      "tokens": [
        {
          "index": 1,
          "word": "Bericht",
          "originalText": "Bericht",
          "characterOffsetBegin": 0,
          "characterOffsetEnd": 7,
          "pos": "NN",
          "before": "",
          "after": ""
        },
        {
          "index": 2,
          "word": ":",
          "originalText": ":",
          "characterOffsetBegin": 7,
          "characterOffsetEnd": 8,
          "pos": "$.",
          "before": "",
          "after": " "
        },
        {
          "index": 3,
          "word": "US",
          "originalText": "US",
          "characterOffsetBegin": 9,
          "characterOffsetEnd": 11,
          "pos": "NE",
          "before": " ",
          "after": " "
        },
        {
          "index": 4,
          "word": "Drones",
          "originalText": "Drones",
          "characterOffsetBegin": 12,
          "characterOffsetEnd": 18,
          "pos": "NE",
          "before": " ",
          "after": " "
        },
        {
          "index": 5,
          "word": "über",
          "originalText": "über",
          "characterOffsetBegin": 19,
          "characterOffsetEnd": 23,
          "pos": "APPR",
          "before": " ",
          "after": " "
        },
        {
          "index": 6,
          "word": "Syrien",
          "originalText": "Syrien",
          "characterOffsetBegin": 24,
          "characterOffsetEnd": 30,
          "pos": "NE",
          "before": " ",
          "after": " "
        },
        {
          "index": 7,
          "word": "Auf",
          "originalText": "Auf",
          "characterOffsetBegin": 31,
          "characterOffsetEnd": 34,
          "pos": "APPR",
          "before": " ",
          "after": " "
        },
        {
          "index": 8,
          "word": "der",
          "originalText": "der",
          "characterOffsetBegin": 35,
          "characterOffsetEnd": 38,
          "pos": "ART",
          "before": " ",
          "after": " "
        },
        {
          "index": 9,
          "word": "Suche",
          "originalText": "Suche",
          "characterOffsetBegin": 39,
          "characterOffsetEnd": 44,
          "pos": "NN",
          "before": " ",
          "after": " "
        },
        {
          "index": 10,
          "word": "nach",
          "originalText": "nach",
          "characterOffsetBegin": 45,
          "characterOffsetEnd": 49,
          "pos": "APPR",
          "before": " ",
          "after": " "
        },
        {
          "index": 11,
          "word": "ISIS",
          "originalText": "ISIS",
          "characterOffsetBegin": 50,
          "characterOffsetEnd": 54,
          "pos": "NE",
          "before": " ",
          "after": " "
        },
        {
          "index": 12,
          "word": "Leader",
          "originalText": "Leader",
          "characterOffsetBegin": 55,
          "characterOffsetEnd": 61,
          "pos": "NN",
          "before": " ",
          "after": " "
        },
        {
          "index": 13,
          "word": "Abu",
          "originalText": "Abu",
          "characterOffsetBegin": 62,
          "characterOffsetEnd": 65,
          "pos": "NE",
          "before": " ",
          "after": " "
        },
        {
          "index": 14,
          "word": "Bakr",
          "originalText": "Bakr",
          "characterOffsetBegin": 66,
          "characterOffsetEnd": 70,
          "pos": "NE",
          "before": " ",
          "after": " "
        },
        {
          "index": 15,
          "word": "al-Baghdadi",
          "originalText": "al-Baghdadi",
          "characterOffsetBegin": 71,
          "characterOffsetEnd": 82,
          "pos": "NE",
          "before": " ",
          "after": ""
        }
      ]
    }
  ]
}