{
  "sentences": [
    {
      "index": 0,
      "basicDependencies": [
        {
          "dep": "ROOT",
          "governor": 0,
          "governorGloss": "ROOT",
          "dependent": 13,
          "dependentGloss": "geschrieben"
        },
        {
          "dep": "aux",
          "governor": 13,
          "governorGloss": "geschrieben",
          "dependent": 1,
          "dependentGloss": "`"
        },
        {
          "dep": "name",
          "governor": 4,
          "governorGloss": "Instagram",
          "dependent": 2,
          "dependentGloss": "Banksy"
        },
        {
          "dep": "punct",
          "governor": 4,
          "governorGloss": "Instagram",
          "dependent": 3,
          "dependentGloss": "'"
        },
        {
          "dep": "dobj",
          "governor": 13,
          "governorGloss": "geschrieben",
          "dependent": 4,
          "dependentGloss": "Instagram"
        },
        {
          "dep": "appos",
          "governor": 4,
          "governorGloss": "Instagram",
          "dependent": 5,
          "dependentGloss": "Tribut"
        },
        {
          "dep": "case",
          "governor": 9,
          "governorGloss": "Opfer",
          "dependent": 6,
          "dependentGloss": "an"
        },
        {
          "dep": "name",
          "governor": 8,
          "governorGloss": "Hebdo",
          "dependent": 7,
          "dependentGloss": "Charlie"
        },
        {
          "dep": "det",
          "governor": 9,
          "governorGloss": "Opfer",
          "dependent": 8,
          "dependentGloss": "Hebdo"
        },
        {
          "dep": "nmod",
          "governor": 13,
          "governorGloss": "geschrieben",
          "dependent": 9,
          "dependentGloss": "Opfer"
        },
        {
          "dep": "neg",
          "governor": 12,
          "governorGloss": "Künstler",
          "dependent": 10,
          "dependentGloss": "nicht"
        },
        {
          "dep": "case",
          "governor": 12,
          "governorGloss": "Künstler",
          "dependent": 11,
          "dependentGloss": "von"
        },
        {
          "dep": "nmod",
          "governor": 13,
          "governorGloss": "geschrieben",
          "dependent": 12,
          "dependentGloss": "Künstler"
        }
      ],
      "enhancedDependencies": [
        {
          "dep": "ROOT",
          "governor": 0,
          "governorGloss": "ROOT",
          "dependent": 13,
          "dependentGloss": "geschrieben"
        },
        {
          "dep": "aux",
          "governor": 13,
          "governorGloss": "geschrieben",
          "dependent": 1,
          "dependentGloss": "`"
        },
        {
          "dep": "name",
          "governor": 4,
          "governorGloss": "Instagram",
          "dependent": 2,
          "dependentGloss": "Banksy"
        },
        {
          "dep": "punct",
          "governor": 4,
          "governorGloss": "Instagram",
          "dependent": 3,
          "dependentGloss": "'"
        },
        {
          "dep": "dobj",
          "governor": 13,
          "governorGloss": "geschrieben",
          "dependent": 4,
          "dependentGloss": "Instagram"
        },
        {
          "dep": "appos",
          "governor": 4,
          "governorGloss": "Instagram",
          "dependent": 5,
          "dependentGloss": "Tribut"
        },
        {
          "dep": "case",
          "governor": 9,
          "governorGloss": "Opfer",
          "dependent": 6,
          "dependentGloss": "an"
        },
        {
          "dep": "name",
          "governor": 8,
          "governorGloss": "Hebdo",
          "dependent": 7,
          "dependentGloss": "Charlie"
        },
        {
          "dep": "det",
          "governor": 9,
          "governorGloss": "Opfer",
          "dependent": 8,
          "dependentGloss": "Hebdo"
        },
        {
          "dep": "nmod",
          "governor": 13,
          "governorGloss": "geschrieben",
          "dependent": 9,
          "dependentGloss": "Opfer"
        },
        {
          "dep": "neg",
          "governor": 12,
          "governorGloss": "Künstler",
          "dependent": 10,
          "dependentGloss": "nicht"
        },
        {
          "dep": "case",
          "governor": 12,
          "governorGloss": "Künstler",
          "dependent": 11,
          "dependentGloss": "von"
        },
        {
          "dep": "nmod",
          "governor": 13,
          "governorGloss": "geschrieben",
          "dependent": 12,
          "dependentGloss": "Künstler"
        }
      ],
      "enhancedPlusPlusDependencies": [
        {
          "dep": "ROOT",
          "governor": 0,
          "governorGloss": "ROOT",
          "dependent": 13,
          "dependentGloss": "geschrieben"
        },
        {
          "dep": "aux",
          "governor": 13,
          "governorGloss": "geschrieben",
          "dependent": 1,
          "dependentGloss": "`"
        },
        {
          "dep": "name",
          "governor": 4,
          "governorGloss": "Instagram",
          "dependent": 2,
          "dependentGloss": "Banksy"
        },
        {
          "dep": "punct",
          "governor": 4,
          "governorGloss": "Instagram",
          "dependent": 3,
          "dependentGloss": "'"
        },
        {
          "dep": "dobj",
          "governor": 13,
          "governorGloss": "geschrieben",
          "dependent": 4,
          "dependentGloss": "Instagram"
        },
        {
          "dep": "appos",
          "governor": 4,
          "governorGloss": "Instagram",
          "dependent": 5,
          "dependentGloss": "Tribut"
        },
        {
          "dep": "case",
          "governor": 9,
          "governorGloss": "Opfer",
          "dependent": 6,
          "dependentGloss": "an"
        },
        {
          "dep": "name",
          "governor": 8,
          "governorGloss": "Hebdo",
          "dependent": 7,
          "dependentGloss": "Charlie"
        },
        {
          "dep": "det",
          "governor": 9,
          "governorGloss": "Opfer",
          "dependent": 8,
          "dependentGloss": "Hebdo"
        },
        {
          "dep": "nmod",
          "governor": 13,
          "governorGloss": "geschrieben",
          "dependent": 9,
          "dependentGloss": "Opfer"
        },
        {
          "dep": "neg",
          "governor": 12,
          "governorGloss": "Künstler",
          "dependent": 10,
          "dependentGloss": "nicht"
        },
        {
          "dep": "case",
          "governor": 12,
          "governorGloss": "Künstler",
          "dependent": 11,
          "dependentGloss": "von"
        },
        {
          "dep": "nmod",
          "governor": 13,
          "governorGloss": "geschrieben",
          "dependent": 12,
          "dependentGloss": "Künstler"
        }
      ],
      "tokens": [
        {
          "index": 1,
          "word": "`",
          "originalText": "'",
          "characterOffsetBegin": 0,
          "characterOffsetEnd": 1,
          "pos": "XY",
          "before": "",
          "after": ""
        },
        {
          "index": 2,
          "word": "Banksy",
          "originalText": "Banksy",
          "characterOffsetBegin": 1,
          "characterOffsetEnd": 7,
          "pos": "NE",
          "before": "",
          "after": ""
        },
        {
          "index": 3,
          "word": "'",
          "originalText": "'",
          "characterOffsetBegin": 7,
          "characterOffsetEnd": 8,
          "pos": "$[",
          "before": "",
          "after": " "
        },
        {
          "index": 4,
          "word": "Instagram",
          "originalText": "Instagram",
          "characterOffsetBegin": 9,
          "characterOffsetEnd": 18,
          "pos": "NE",
          "before": " ",
          "after": " "
        },
        {
          "index": 5,
          "word": "Tribut",
          "originalText": "Tribut",
          "characterOffsetBegin": 19,
          "characterOffsetEnd": 25,
          "pos": "NN",
          "before": " ",
          "after": " "
        },
        {
          "index": 6,
          "word": "an",
          "originalText": "an",
          "characterOffsetBegin": 26,
          "characterOffsetEnd": 28,
          "pos": "APPR",
          "before": " ",
          "after": " "
        },
        {
          "index": 7,
          "word": "Charlie",
          "originalText": "Charlie",
          "characterOffsetBegin": 29,
          "characterOffsetEnd": 36,
          "pos": "NE",
          "before": " ",
          "after": " "
        },
        {
          "index": 8,
          "word": "Hebdo",
          "originalText": "Hebdo",
          "characterOffsetBegin": 37,
          "characterOffsetEnd": 42,
          "pos": "NE",
          "before": " ",
          "after": " "
        },
        {
          "index": 9,
          "word": "Opfer",
          "originalText": "Opfer",
          "characterOffsetBegin": 43,
          "characterOffsetEnd": 48,
          "pos": "NN",
          "before": " ",
          "after": " "
        },
        {
          "index": 10,
          "word": "nicht",
          "originalText": "nicht",
          "characterOffsetBegin": 49,
          "characterOffsetEnd": 54,
          "pos": "PTKNEG",
          "before": " ",
          "after": " "
        },
        {
          "index": 11,
          "word": "von",
          "originalText": "von",
          "characterOffsetBegin": 55,
          "characterOffsetEnd": 58,
          "pos": "APPR",
          "before": " ",
          "after": " "
        },
        {
          "index": 12,
          "word": "Künstler",
          "originalText": "Künstler",
          "characterOffsetBegin": 59,
          "characterOffsetEnd": 67,
          "pos": "NN",
          "before": " ",
          "after": " "
        },
        {
          "index": 13,
          "word": "geschrieben",
          "originalText": "geschrieben",
          "characterOffsetBegin": 68,
          "characterOffsetEnd": 79,
          "pos": "VVPP",
          "before": " ",
          "after": ""
        }
      ]
    }
  ]
}