{
  "sentences": [
    {
      "index": 0,
      "basicDependencies": [
        {
          "dep": "ROOT",
          "governor": 0,
          "governorGloss": "ROOT",
          "dependent": 2,
          "dependentGloss": "Essen"
        },
        {
          "dep": "amod",
          "governor": 2,
          "governorGloss": "Essen",
          "dependent": 1,
          "dependentGloss": "Gemütliches"
        },
        {
          "dep": "punct",
          "governor": 2,
          "governorGloss": "Essen",
          "dependent": 3,
          "dependentGloss": "?"
        }
      ],
      "enhancedDependencies": [
        {
          "dep": "ROOT",
          "governor": 0,
          "governorGloss": "ROOT",
          "dependent": 2,
          "dependentGloss": "Essen"
        },
        {
          "dep": "amod",
          "governor": 2,
          "governorGloss": "Essen",
          "dependent": 1,
          "dependentGloss": "Gemütliches"
        },
        {
          "dep": "punct",
          "governor": 2,
          "governorGloss": "Essen",
          "dependent": 3,
          "dependentGloss": "?"
        }
      ],
      "enhancedPlusPlusDependencies": [
        {
          "dep": "ROOT",
          "governor": 0,
          "governorGloss": "ROOT",
          "dependent": 2,
          "dependentGloss": "Essen"
        },
        {
          "dep": "amod",
          "governor": 2,
          "governorGloss": "Essen",
          "dependent": 1,
          "dependentGloss": "Gemütliches"
        },
        {
          "dep": "punct",
          "governor": 2,
          "governorGloss": "Essen",
          "dependent": 3,
          "dependentGloss": "?"
        }
      ],
      "tokens": [
        {
          "index": 1,
          "word": "Gemütliches",
          "originalText": "Gemütliches",
          "characterOffsetBegin": 0,
          "characterOffsetEnd": 11,
          "pos": "ADJA",
          "before": "",
          "after": " "
        },
        {
          "index": 2,
          "word": "Essen",
          "originalText": "Essen",
          "characterOffsetBegin": 12,
          "characterOffsetEnd": 17,
          "pos": "NN",
          "before": " ",
          "after": ""
        },
        {
          "index": 3,
          "word": "?",
          "originalText": "?",
          "characterOffsetBegin": 17,
          "characterOffsetEnd": 18,
          "pos": "$.",
          "before": "",
          "after": " "
        }
      ]
    },
    {
      "index": 1,
      "basicDependencies": [
        {
          "dep": "ROOT",
          "governor": 0,
          "governorGloss": "ROOT",
          "dependent": 2,
          "dependentGloss": "Frau"
        },
        {
          "dep": "amod",
          "governor": 2,
          "governorGloss": "Frau",
          "dependent": 1,
          "dependentGloss": "Chinesische"
        },
        {
          "dep": "punct",
          "governor": 2,
          "governorGloss": "Frau",
          "dependent": 3,
          "dependentGloss": ","
        },
        {
          "dep": "conj",
          "governor": 2,
          "governorGloss": "Frau",
          "dependent": 4,
          "dependentGloss": "26"
        },
        {
          "dep": "punct",
          "governor": 2,
          "governorGloss": "Frau",
          "dependent": 5,
          "dependentGloss": ","
        },
        {
          "dep": "conj",
          "governor": 2,
          "governorGloss": "Frau",
          "dependent": 6,
          "dependentGloss": "verbringt"
        },
        {
          "dep": "det",
          "governor": 9,
          "governorGloss": "WOCHE",
          "dependent": 7,
          "dependentGloss": "eine"
        },
        {
          "dep": "amod",
          "governor": 9,
          "governorGloss": "WOCHE",
          "dependent": 8,
          "dependentGloss": "ganze"
        },
        {
          "dep": "dobj",
          "governor": 6,
          "governorGloss": "verbringt",
          "dependent": 9,
          "dependentGloss": "WOCHE"
        },
        {
          "dep": "case",
          "governor": 11,
          "governorGloss": "KFC",
          "dependent": 10,
          "dependentGloss": "in"
        },
        {
          "dep": "nmod",
          "governor": 9,
          "governorGloss": "WOCHE",
          "dependent": 11,
          "dependentGloss": "KFC"
        },
        {
          "dep": "punct",
          "governor": 2,
          "governorGloss": "Frau",
          "dependent": 12,
          "dependentGloss": ","
        },
        {
          "dep": "mark",
          "governor": 18,
          "governorGloss": "entlassen",
          "dependent": 13,
          "dependentGloss": "nachdem"
        },
        {
          "dep": "nsubjpass",
          "governor": 18,
          "governorGloss": "entlassen",
          "dependent": 14,
          "dependentGloss": "sie"
        },
        {
          "dep": "case",
          "governor": 17,
          "governorGloss": "Freund",
          "dependent": 15,
          "dependentGloss": "von"
        },
        {
          "dep": "det",
          "governor": 17,
          "governorGloss": "Freund",
          "dependent": 16,
          "dependentGloss": "einem"
        },
        {
          "dep": "nmod",
          "governor": 18,
          "governorGloss": "entlassen",
          "dependent": 17,
          "dependentGloss": "Freund"
        },
        {
          "dep": "advcl",
          "governor": 2,
          "governorGloss": "Frau",
          "dependent": 18,
          "dependentGloss": "entlassen"
        },
        {
          "dep": "auxpass",
          "governor": 18,
          "governorGloss": "entlassen",
          "dependent": 19,
          "dependentGloss": "worden"
        },
        {
          "dep": "aux",
          "governor": 18,
          "governorGloss": "entlassen",
          "dependent": 20,
          "dependentGloss": "ist"
        }
      ],
      "enhancedDependencies": [
        {
          "dep": "ROOT",
          "governor": 0,
          "governorGloss": "ROOT",
          "dependent": 2,
          "dependentGloss": "Frau"
        },
        {
          "dep": "amod",
          "governor": 2,
          "governorGloss": "Frau",
          "dependent": 1,
          "dependentGloss": "Chinesische"
        },
        {
          "dep": "punct",
          "governor": 2,
          "governorGloss": "Frau",
          "dependent": 3,
          "dependentGloss": ","
        },
        {
          "dep": "conj",
          "governor": 2,
          "governorGloss": "Frau",
          "dependent": 4,
          "dependentGloss": "26"
        },
        {
          "dep": "punct",
          "governor": 2,
          "governorGloss": "Frau",
          "dependent": 5,
          "dependentGloss": ","
        },
        {
          "dep": "conj",
          "governor": 2,
          "governorGloss": "Frau",
          "dependent": 6,
          "dependentGloss": "verbringt"
        },
        {
          "dep": "det",
          "governor": 9,
          "governorGloss": "WOCHE",
          "dependent": 7,
          "dependentGloss": "eine"
        },
        {
          "dep": "amod",
          "governor": 9,
          "governorGloss": "WOCHE",
          "dependent": 8,
          "dependentGloss": "ganze"
        },
        {
          "dep": "dobj",
          "governor": 6,
          "governorGloss": "verbringt",
          "dependent": 9,
          "dependentGloss": "WOCHE"
        },
        {
          "dep": "case",
          "governor": 11,
          "governorGloss": "KFC",
          "dependent": 10,
          "dependentGloss": "in"
        },
        {
          "dep": "nmod",
          "governor": 9,
          "governorGloss": "WOCHE",
          "dependent": 11,
          "dependentGloss": "KFC"
        },
        {
          "dep": "punct",
          "governor": 2,
          "governorGloss": "Frau",
          "dependent": 12,
          "dependentGloss": ","
        },
        {
          "dep": "mark",
          "governor": 18,
          "governorGloss": "entlassen",
          "dependent": 13,
          "dependentGloss": "nachdem"
        },
        {
          "dep": "nsubjpass",
          "governor": 18,
          "governorGloss": "entlassen",
          "dependent": 14,
          "dependentGloss": "sie"
        },
        {
          "dep": "case",
          "governor": 17,
          "governorGloss": "Freund",
          "dependent": 15,
          "dependentGloss": "von"
        },
        {
          "dep": "det",
          "governor": 17,
          "governorGloss": "Freund",
          "dependent": 16,
          "dependentGloss": "einem"
        },
        {
          "dep": "nmod",
          "governor": 18,
          "governorGloss": "entlassen",
          "dependent": 17,
          "dependentGloss": "Freund"
        },
        {
          "dep": "advcl",
          "governor": 2,
          "governorGloss": "Frau",
          "dependent": 18,
          "dependentGloss": "entlassen"
        },
        {
          "dep": "auxpass",
          "governor": 18,
          "governorGloss": "entlassen",
          "dependent": 19,
          "dependentGloss": "worden"
        },
        {
          "dep": "aux",
          "governor": 18,
          "governorGloss": "entlassen",
          "dependent": 20,
          "dependentGloss": "ist"
        }
      ],
      "enhancedPlusPlusDependencies": [
        {
          "dep": "ROOT",
          "governor": 0,
          "governorGloss": "ROOT",
          "dependent": 2,
          "dependentGloss": "Frau"
        },
        {
          "dep": "amod",
          "governor": 2,
          "governorGloss": "Frau",
          "dependent": 1,
          "dependentGloss": "Chinesische"
        },
        {
          "dep": "punct",
          "governor": 2,
          "governorGloss": "Frau",
          "dependent": 3,
          "dependentGloss": ","
        },
        {
          "dep": "conj",
          "governor": 2,
          "governorGloss": "Frau",
          "dependent": 4,
          "dependentGloss": "26"
        },
        {
          "dep": "punct",
          "governor": 2,
          "governorGloss": "Frau",
          "dependent": 5,
          "dependentGloss": ","
        },
        {
          "dep": "conj",
          "governor": 2,
          "governorGloss": "Frau",
          "dependent": 6,
          "dependentGloss": "verbringt"
        },
        {
          "dep": "det",
          "governor": 9,
          "governorGloss": "WOCHE",
          "dependent": 7,
          "dependentGloss": "eine"
        },
        {
          "dep": "amod",
          "governor": 9,
          "governorGloss": "WOCHE",
          "dependent": 8,
          "dependentGloss": "ganze"
        },
        {
          "dep": "dobj",
          "governor": 6,
          "governorGloss": "verbringt",
          "dependent": 9,
          "dependentGloss": "WOCHE"
        },
        {
          "dep": "case",
          "governor": 11,
          "governorGloss": "KFC",
          "dependent": 10,
          "dependentGloss": "in"
        },
        {
          "dep": "nmod",
          "governor": 9,
          "governorGloss": "WOCHE",
          "dependent": 11,
          "dependentGloss": "KFC"
        },
        {
          "dep": "punct",
          "governor": 2,
          "governorGloss": "Frau",
          "dependent": 12,
          "dependentGloss": ","
        },
        {
          "dep": "mark",
          "governor": 18,
          "governorGloss": "entlassen",
          "dependent": 13,
          "dependentGloss": "nachdem"
        },
        {
          "dep": "nsubjpass",
          "governor": 18,
          "governorGloss": "entlassen",
          "dependent": 14,
          "dependentGloss": "sie"
        },
        {
          "dep": "case",
          "governor": 17,
          "governorGloss": "Freund",
          "dependent": 15,
          "dependentGloss": "von"
        },
        {
          "dep": "det",
          "governor": 17,
          "governorGloss": "Freund",
          "dependent": 16,
          "dependentGloss": "einem"
        },
        {
          "dep": "nmod",
          "governor": 18,
          "governorGloss": "entlassen",
          "dependent": 17,
          "dependentGloss": "Freund"
        },
        {
          "dep": "advcl",
          "governor": 2,
          "governorGloss": "Frau",
          "dependent": 18,
          "dependentGloss": "entlassen"
        },
        {
          "dep": "auxpass",
          "governor": 18,
          "governorGloss": "entlassen",
          "dependent": 19,
          "dependentGloss": "worden"
        },
        {
          "dep": "aux",
          "governor": 18,
          "governorGloss": "entlassen",
          "dependent": 20,
          "dependentGloss": "ist"
        }
      ],
      "tokens": [
        {
          "index": 1,
          "word": "Chinesische",
          "originalText": "Chinesische",
          "characterOffsetBegin": 19,
          "characterOffsetEnd": 30,
          "pos": "ADJA",
          "before": " ",
          "after": " "
        },
        {
          "index": 2,
          "word": "Frau",
          "originalText": "Frau",
          "characterOffsetBegin": 31,
          "characterOffsetEnd": 35,
          "pos": "NN",
          "before": " ",
          "after": ""
        },
        {
          "index": 3,
          "word": ",",
          "originalText": ",",
          "characterOffsetBegin": 35,
          "characterOffsetEnd": 36,
          "pos": "$,",
          "before": "",
          "after": " "
        },
        {
          "index": 4,
          "word": "26",
          "originalText": "26",
          "characterOffsetBegin": 37,
          "characterOffsetEnd": 39,
          "pos": "CARD",
          "before": " ",
          "after": ""
        },
        {
          "index": 5,
          "word": ",",
          "originalText": ",",
          "characterOffsetBegin": 39,
          "characterOffsetEnd": 40,
          "pos": "$,",
          "before": "",
          "after": " "
        },
        {
          "index": 6,
          "word": "verbringt",
          "originalText": "verbringt",
          "characterOffsetBegin": 41,
          "characterOffsetEnd": 50,
          "pos": "VVFIN",
          "before": " ",
          "after": " "
        },
        {
          "index": 7,
          "word": "eine",
          "originalText": "eine",
          "characterOffsetBegin": 51,
          "characterOffsetEnd": 55,
          "pos": "ART",
          "before": " ",
          "after": " "
        },
        {
          "index": 8,
          "word": "ganze",
          "originalText": "ganze",
          "characterOffsetBegin": 56,
          "characterOffsetEnd": 61,
          "pos": "ADJA",
          "before": " ",
          "after": " "
        },
        {
          "index": 9,
          "word": "WOCHE",
          "originalText": "WOCHE",
          "characterOffsetBegin": 62,
          "characterOffsetEnd": 67,
          "pos": "NN",
          "before": " ",
          "after": " "
        },
        {
          "index": 10,
          "word": "in",
          "originalText": "in",
          "characterOffsetBegin": 68,
          "characterOffsetEnd": 70,
          "pos": "APPR",
          "before": " ",
          "after": " "
        },
        {
          "index": 11,
          "word": "KFC",
          "originalText": "KFC",
          "characterOffsetBegin": 71,
          "characterOffsetEnd": 74,
          "pos": "NE",
          "before": " ",
          "after": ""
        },
        {
          "index": 12,
          "word": ",",
          "originalText": ",",
          "characterOffsetBegin": 74,
          "characterOffsetEnd": 75,
          "pos": "$,",
          "before": "",
          "after": " "
        },
        {
          "index": 13,
          "word": "nachdem",
          "originalText": "nachdem",
          "characterOffsetBegin": 76,
          "characterOffsetEnd": 83,
          "pos": "KOUS",
          "before": " ",
          "after": " "
        },
        {
          "index": 14,
          "word": "sie",
          "originalText": "sie",
          "characterOffsetBegin": 84,
          "characterOffsetEnd": 87,
          "pos": "PPER",
          "before": " ",
          "after": " "
        },
        {
          "index": 15,
          "word": "von",
          "originalText": "von",
          "characterOffsetBegin": 88,
          "characterOffsetEnd": 91,
          "pos": "APPR",
          "before": " ",
          "after": " "
        },
        {
          "index": 16,
          "word": "einem",
          "originalText": "einem",
          "characterOffsetBegin": 92,
          "characterOffsetEnd": 97,
          "pos": "ART",
          "before": " ",
          "after": " "
        },
        {
          "index": 17,
          "word": "Freund",
          "originalText": "Freund",
          "characterOffsetBegin": 98,
          "characterOffsetEnd": 104,
          "pos": "NN",
          "before": " ",
          "after": " "
        },
        {
          "index": 18,
          "word": "entlassen",
          "originalText": "entlassen",
          "characterOffsetBegin": 105,
          "characterOffsetEnd": 114,
          "pos": "VVPP",
          "before": " ",
          "after": " "
        },
        {
          "index": 19,
          "word": "worden",
          "originalText": "worden",
          "characterOffsetBegin": 115,
          "characterOffsetEnd": 121,
          "pos": "VAPP",
          "before": " ",
          "after": " "
        },
        {
          "index": 20,
          "word": "ist",
          "originalText": "ist",
          "characterOffsetBegin": 122,
          "characterOffsetEnd": 125,
          "pos": "VAFIN",
          "before": " ",
          "after": ""
        }
      ]
    }
  ]
}