{
  "sentences": [
    {
      "index": 0,
      "basicDependencies": [
        {
          "dep": "ROOT",
          "governor": 0,
          "governorGloss": "ROOT",
          "dependent": 3,
          "dependentGloss": "bestätigt"
        },
        {
          "dep": "det",
          "governor": 2,
          "governorGloss": "Libanon",
          "dependent": 1,
          "dependentGloss": "Der"
        },
        {
          "dep": "nsubj",
          "governor": 3,
          "governorGloss": "bestätigt",
          "dependent": 2,
          "dependentGloss": "Libanon"
        },
        {
          "dep": "det",
          "governor": 5,
          "governorGloss": "Haltung",
          "dependent": 4,
          "dependentGloss": "die"
        },
        {
          "dep": "dobj",
          "governor": 3,
          "governorGloss": "bestätigt",
          "dependent": 5,
          "dependentGloss": "Haltung"
        },
        {
          "dep": "det",
          "governor": 7,
          "governorGloss": "ISIS-Chefs",
          "dependent": 6,
          "dependentGloss": "des"
        },
        {
          "dep": "det",
          "governor": 5,
          "governorGloss": "Haltung",
          "dependent": 7,
          "dependentGloss": "ISIS-Chefs"
        }
      ],
      "enhancedDependencies": [
        {
          "dep": "ROOT",
          "governor": 0,
          "governorGloss": "ROOT",
          "dependent": 3,
          "dependentGloss": "bestätigt"
        },
        {
          "dep": "det",
          "governor": 2,
          "governorGloss": "Libanon",
          "dependent": 1,
          "dependentGloss": "Der"
        },
        {
          "dep": "nsubj",
          "governor": 3,
          "governorGloss": "bestätigt",
          "dependent": 2,
          "dependentGloss": "Libanon"
        },
        {
          "dep": "det",
          "governor": 5,
          "governorGloss": "Haltung",
          "dependent": 4,
          "dependentGloss": "die"
        },
        {
          "dep": "dobj",
          "governor": 3,
          "governorGloss": "bestätigt",
          "dependent": 5,
          "dependentGloss": "Haltung"
        },
        {
          "dep": "det",
          "governor": 7,
          "governorGloss": "ISIS-Chefs",
          "dependent": 6,
          "dependentGloss": "des"
        },
        {
          "dep": "det",
          "governor": 5,
          "governorGloss": "Haltung",
          "dependent": 7,
          "dependentGloss": "ISIS-Chefs"
        }
      ],
      "enhancedPlusPlusDependencies": [
        {
          "dep": "ROOT",
          "governor": 0,
          "governorGloss": "ROOT",
          "dependent": 3,
          "dependentGloss": "bestätigt"
        },
        {
          "dep": "det",
          "governor": 2,
          "governorGloss": "Libanon",
          "dependent": 1,
          "dependentGloss": "Der"
        },
        {
          "dep": "nsubj",
          "governor": 3,
          "governorGloss": "bestätigt",
          "dependent": 2,
          "dependentGloss": "Libanon"
        },
        {
          "dep": "det",
          "governor": 5,
          "governorGloss": "Haltung",
          "dependent": 4,
          "dependentGloss": "die"
        },
        {
          "dep": "dobj",
          "governor": 3,
          "governorGloss": "bestätigt",
          "dependent": 5,
          "dependentGloss": "Haltung"
        },
        {
          "dep": "det",
          "governor": 7,
          "governorGloss": "ISIS-Chefs",
          "dependent": 6,
          "dependentGloss": "des"
        },
        {
          "dep": "det",
          "governor": 5,
          "governorGloss": "Haltung",
          "dependent": 7,
          "dependentGloss": "ISIS-Chefs"
        }
      ],
      "tokens": [
        {
          "index": 1,
          "word": "Der",
          "originalText": "Der",
          "characterOffsetBegin": 0,
          "characterOffsetEnd": 3,
          "pos": "ART",
          "before": "",
          "after": " "
        },
        {
          "index": 2,
          "word": "Libanon",
          "originalText": "Libanon",
          "characterOffsetBegin": 4,
          "characterOffsetEnd": 11,
          "pos": "NE",
          "before": " ",
          "after": " "
        },
        {
          "index": 3,
          "word": "bestätigt",
          "originalText": "bestätigt",
          "characterOffsetBegin": 12,
          "characterOffsetEnd": 21,
          "pos": "VVFIN",
          "before": " ",
          "after": " "
        },
        {
          "index": 4,
          "word": "die",
          "originalText": "die",
          "characterOffsetBegin": 22,
          "characterOffsetEnd": 25,
          "pos": "ART",
          "before": " ",
          "after": " "
        },
        {
          "index": 5,
          "word": "Haltung",
          "originalText": "Haltung",
          "characterOffsetBegin": 26,
          "characterOffsetEnd": 33,
          "pos": "NN",
          "before": " ",
          "after": " "
        },
        {
          "index": 6,
          "word": "des",
          "originalText": "des",
          "characterOffsetBegin": 34,
          "characterOffsetEnd": 37,
          "pos": "ART",
          "before": " ",
          "after": " "
        },
        {
          "index": 7,
          "word": "ISIS-Chefs",
          "originalText": "ISIS-Chefs",
          "characterOffsetBegin": 38,
          "characterOffsetEnd": 48,
          "pos": "NN",
          "before": " ",
          "after": ""
        }
      ]
    }
  ]
}