{
  "sentences": [
    {
      "index": 0,
      "basicDependencies": [
        {
          "dep": "ROOT",
          "governor": 0,
          "governorGloss": "ROOT",
          "dependent": 5,
          "dependentGloss": "Scharfrichter"
        },
        {
          "dep": "nsubj",
          "governor": 5,
          "governorGloss": "Scharfrichter",
          "dependent": 1,
          "dependentGloss": "Rapper"
        },
        {
          "dep": "case",
          "governor": 4,
          "governorGloss": "Foleys",
          "dependent": 2,
          "dependentGloss": "als"
        },
        {
          "dep": "name",
          "governor": 4,
          "governorGloss": "Foleys",
          "dependent": 3,
          "dependentGloss": "James"
        },
        {
          "dep": "nmod",
          "governor": 1,
          "governorGloss": "Rapper",
          "dependent": 4,
          "dependentGloss": "Foleys"
        },
        {
          "dep": "dobj",
          "governor": 5,
          "governorGloss": "Scharfrichter",
          "dependent": 6,
          "dependentGloss": "identifiziert"
        },
        {
          "dep": "punct",
          "governor": 5,
          "governorGloss": "Scharfrichter",
          "dependent": 7,
          "dependentGloss": ":"
        },
        {
          "dep": "dep",
          "governor": 5,
          "governorGloss": "Scharfrichter",
          "dependent": 8,
          "dependentGloss": "Berichte"
        }
      ],
      "enhancedDependencies": [
        {
          "dep": "ROOT",
          "governor": 0,
          "governorGloss": "ROOT",
          "dependent": 5,
          "dependentGloss": "Scharfrichter"
        },
        {
          "dep": "nsubj",
          "governor": 5,
          "governorGloss": "Scharfrichter",
          "dependent": 1,
          "dependentGloss": "Rapper"
        },
        {
          "dep": "case",
          "governor": 4,
          "governorGloss": "Foleys",
          "dependent": 2,
          "dependentGloss": "als"
        },
        {
          "dep": "name",
          "governor": 4,
          "governorGloss": "Foleys",
          "dependent": 3,
          "dependentGloss": "James"
        },
        {
          "dep": "nmod",
          "governor": 1,
          "governorGloss": "Rapper",
          "dependent": 4,
          "dependentGloss": "Foleys"
        },
        {
          "dep": "dobj",
          "governor": 5,
          "governorGloss": "Scharfrichter",
          "dependent": 6,
          "dependentGloss": "identifiziert"
        },
        {
          "dep": "punct",
          "governor": 5,
          "governorGloss": "Scharfrichter",
          "dependent": 7,
          "dependentGloss": ":"
        },
        {
          "dep": "dep",
          "governor": 5,
          "governorGloss": "Scharfrichter",
          "dependent": 8,
          "dependentGloss": "Berichte"
        }
      ],
      "enhancedPlusPlusDependencies": [
        {
          "dep": "ROOT",
          "governor": 0,
          "governorGloss": "ROOT",
          "dependent": 5,
          "dependentGloss": "Scharfrichter"
        },
        {
          "dep": "nsubj",
          "governor": 5,
          "governorGloss": "Scharfrichter",
          "dependent": 1,
          "dependentGloss": "Rapper"
        },
        {
          "dep": "case",
          "governor": 4,
          "governorGloss": "Foleys",
          "dependent": 2,
          "dependentGloss": "als"
        },
        {
          "dep": "name",
          "governor": 4,
          "governorGloss": "Foleys",
          "dependent": 3,
          "dependentGloss": "James"
        },
        {
          "dep": "nmod",
          "governor": 1,
          "governorGloss": "Rapper",
          "dependent": 4,
          "dependentGloss": "Foleys"
        },
        {
          "dep": "dobj",
          "governor": 5,
          "governorGloss": "Scharfrichter",
          "dependent": 6,
          "dependentGloss": "identifiziert"
        },
        {
          "dep": "punct",
          "governor": 5,
          "governorGloss": "Scharfrichter",
          "dependent": 7,
          "dependentGloss": ":"
        },
        {
          "dep": "dep",
          "governor": 5,
          "governorGloss": "Scharfrichter",
          "dependent": 8,
          "dependentGloss": "Berichte"
        }
      ],
      "tokens": [
        {
          "index": 1,
          "word": "Rapper",
          "originalText": "Rapper",
          "characterOffsetBegin": 0,
          "characterOffsetEnd": 6,
          "pos": "NN",
          "before": "",
          "after": " "
        },
        {
          "index": 2,
          "word": "als",
          "originalText": "als",
          "characterOffsetBegin": 7,
          "characterOffsetEnd": 10,
          "pos": "APPR",
          "before": " ",
          "after": " "
        },
        {
          "index": 3,
          "word": "James",
          "originalText": "James",
          "characterOffsetBegin": 11,
          "characterOffsetEnd": 16,
          "pos": "NE",
          "before": " ",
          "after": " "
        },
        {
          "index": 4,
          "word": "Foleys",
          "originalText": "Foleys",
          "characterOffsetBegin": 17,
          "characterOffsetEnd": 23,
          "pos": "NE",
          "before": " ",
          "after": " "
        },
        {
          "index": 5,
          "word": "Scharfrichter",
          "originalText": "Scharfrichter",
          "characterOffsetBegin": 24,
          "characterOffsetEnd": 37,
          "pos": "NN",
          "before": " ",
          "after": " "
        },
        {
          "index": 6,
          "word": "identifiziert",
          "originalText": "identifiziert",
          "characterOffsetBegin": 38,
          "characterOffsetEnd": 51,
          "pos": "VVFIN",
          "before": " ",
          "after": ""
        },
        {
          "index": 7,
          "word": ":",
          "originalText": ":",
          "characterOffsetBegin": 51,
          "characterOffsetEnd": 52,
          "pos": "$.",
          "before": "",
          "after": " "
        },
        {
          "index": 8,
          "word": "Berichte",
          "originalText": "Berichte",
          "characterOffsetBegin": 53,
          "characterOffsetEnd": 61,
          "pos": "NN",
          "before": " ",
          "after": ""
        }
      ]
    }
  ]
}