{
  "sentences": [
    {
      "index": 0,
      "basicDependencies": [
        {
          "dep": "ROOT",
          "governor": 0,
          "governorGloss": "ROOT",
          "dependent": 1,
          "dependentGloss": "IOS"
        },
        {
          "dep": "nummod",
          "governor": 3,
          "governorGloss": "bug",
          "dependent": 2,
          "dependentGloss": "8"
        },
        {
          "dep": "nsubj",
          "governor": 1,
          "governorGloss": "IOS",
          "dependent": 3,
          "dependentGloss": "bug"
        },
        {
          "dep": "punct",
          "governor": 3,
          "governorGloss": "bug",
          "dependent": 4,
          "dependentGloss": "könnte"
        },
        {
          "dep": "name",
          "governor": 7,
          "governorGloss": "Drive",
          "dependent": 5,
          "dependentGloss": "deine"
        },
        {
          "dep": "name",
          "governor": 7,
          "governorGloss": "Drive",
          "dependent": 6,
          "dependentGloss": "iCloud"
        },
        {
          "dep": "dobj",
          "governor": 4,
          "governorGloss": "könnte",
          "dependent": 7,
          "dependentGloss": "Drive"
        },
        {
          "dep": "amod",
          "governor": 9,
          "governorGloss": "löschen",
          "dependent": 8,
          "dependentGloss": "Dokumente"
        },
        {
          "dep": "appos",
          "governor": 7,
          "governorGloss": "Drive",
          "dependent": 9,
          "dependentGloss": "löschen"
        }
      ],
      "enhancedDependencies": [
        {
          "dep": "ROOT",
          "governor": 0,
          "governorGloss": "ROOT",
          "dependent": 1,
          "dependentGloss": "IOS"
        },
        {
          "dep": "nummod",
          "governor": 3,
          "governorGloss": "bug",
          "dependent": 2,
          "dependentGloss": "8"
        },
        {
          "dep": "nsubj",
          "governor": 1,
          "governorGloss": "IOS",
          "dependent": 3,
          "dependentGloss": "bug"
        },
        {
          "dep": "punct",
          "governor": 3,
          "governorGloss": "bug",
          "dependent": 4,
          "dependentGloss": "könnte"
        },
        {
          "dep": "name",
          "governor": 7,
          "governorGloss": "Drive",
          "dependent": 5,
          "dependentGloss": "deine"
        },
        {
          "dep": "name",
          "governor": 7,
          "governorGloss": "Drive",
          "dependent": 6,
          "dependentGloss": "iCloud"
        },
        {
          "dep": "dobj",
          "governor": 4,
          "governorGloss": "könnte",
          "dependent": 7,
          "dependentGloss": "Drive"
        },
        {
          "dep": "amod",
          "governor": 9,
          "governorGloss": "löschen",
          "dependent": 8,
          "dependentGloss": "Dokumente"
        },
        {
          "dep": "appos",
          "governor": 7,
          "governorGloss": "Drive",
          "dependent": 9,
          "dependentGloss": "löschen"
        }
      ],
      "enhancedPlusPlusDependencies": [
        {
          "dep": "ROOT",
          "governor": 0,
          "governorGloss": "ROOT",
          "dependent": 1,
          "dependentGloss": "IOS"
        },
        {
          "dep": "nummod",
          "governor": 3,
          "governorGloss": "bug",
          "dependent": 2,
          "dependentGloss": "8"
        },
        {
          "dep": "nsubj",
          "governor": 1,
          "governorGloss": "IOS",
          "dependent": 3,
          "dependentGloss": "bug"
        },
        {
          "dep": "punct",
          "governor": 3,
          "governorGloss": "bug",
          "dependent": 4,
          "dependentGloss": "könnte"
        },
        {
          "dep": "name",
          "governor": 7,
          "governorGloss": "Drive",
          "dependent": 5,
          "dependentGloss": "deine"
        },
        {
          "dep": "name",
          "governor": 7,
          "governorGloss": "Drive",
          "dependent": 6,
          "dependentGloss": "iCloud"
        },
        {
          "dep": "dobj",
          "governor": 4,
          "governorGloss": "könnte",
          "dependent": 7,
          "dependentGloss": "Drive"
        },
        {
          "dep": "amod",
          "governor": 9,
          "governorGloss": "löschen",
          "dependent": 8,
          "dependentGloss": "Dokumente"
        },
        {
          "dep": "appos",
          "governor": 7,
          "governorGloss": "Drive",
          "dependent": 9,
          "dependentGloss": "löschen"
        }
      ],
      "tokens": [
        {
          "index": 1,
          "word": "IOS",
          "originalText": "IOS",
          "characterOffsetBegin": 0,
          "characterOffsetEnd": 3,
          "pos": "NE",
          "before": "",
          "after": " "
        },
        {
          "index": 2,
          "word": "8",
          "originalText": "8",
          "characterOffsetBegin": 4,
          "characterOffsetEnd": 5,
          "pos": "CARD",
          "before": " ",
          "after": " "
        },
        {
          "index": 3,
          "word": "bug",
          "originalText": "bug",
          "characterOffsetBegin": 6,
          "characterOffsetEnd": 9,
          "pos": "NN",
          "before": " ",
          "after": " "
        },
        {
          "index": 4,
          "word": "könnte",
          "originalText": "könnte",
          "characterOffsetBegin": 10,
          "characterOffsetEnd": 16,
          "pos": "VMFIN",
          "before": " ",
          "after": " "
        },
        {
          "index": 5,
          "word": "deine",
          "originalText": "deine",
          "characterOffsetBegin": 17,
          "characterOffsetEnd": 22,
          "pos": "PPOSAT",
          "before": " ",
          "after": " "
        },
        {
          "index": 6,
          "word": "iCloud",
          "originalText": "iCloud",
          "characterOffsetBegin": 23,
          "characterOffsetEnd": 29,
          "pos": "NN",
          "before": " ",
          "after": " "
        },
        {
          "index": 7,
          "word": "Drive",
          "originalText": "Drive",
          "characterOffsetBegin": 30,
          "characterOffsetEnd": 35,
          "pos": "NN",
          "before": " ",
          "after": " "
        },
        {
          "index": 8,
          "word": "Dokumente",
          "originalText": "Dokumente",
          "characterOffsetBegin": 36,
          "characterOffsetEnd": 45,
          "pos": "NN",
          "before": " ",
          "after": " "
        },
        {
          "index": 9,
          "word": "löschen",
          "originalText": "löschen",
          "characterOffsetBegin": 46,
          "characterOffsetEnd": 53,
          "pos": "VVINF",
          "before": " ",
          "after": ""
        }
      ]
    }
  ]
}