{
  "sentences": [
    {
      "index": 0,
      "basicDependencies": [
        {
          "dep": "ROOT",
          "governor": 0,
          "governorGloss": "ROOT",
          "dependent": 2,
          "dependentGloss": "romantisch"
        },
        {
          "dep": "advmod",
          "governor": 2,
          "governorGloss": "romantisch",
          "dependent": 1,
          "dependentGloss": "Hoffnungslos"
        },
        {
          "dep": "name",
          "governor": 5,
          "governorGloss": "College",
          "dependent": 3,
          "dependentGloss": "BURNS"
        },
        {
          "dep": "name",
          "governor": 5,
          "governorGloss": "College",
          "dependent": 4,
          "dependentGloss": "DOWN"
        },
        {
          "dep": "nsubj",
          "governor": 2,
          "governorGloss": "romantisch",
          "dependent": 5,
          "dependentGloss": "College"
        },
        {
          "dep": "appos",
          "governor": 5,
          "governorGloss": "College",
          "dependent": 6,
          "dependentGloss": "Sporthalle"
        },
        {
          "dep": "case",
          "governor": 9,
          "governorGloss": "Vorschlag",
          "dependent": 7,
          "dependentGloss": "nach"
        },
        {
          "dep": "amod",
          "governor": 9,
          "governorGloss": "Vorschlag",
          "dependent": 8,
          "dependentGloss": "Feuerwerk"
        },
        {
          "dep": "nmod",
          "governor": 10,
          "governorGloss": "Stunt",
          "dependent": 9,
          "dependentGloss": "Vorschlag"
        },
        {
          "dep": "dobj",
          "governor": 2,
          "governorGloss": "romantisch",
          "dependent": 10,
          "dependentGloss": "Stunt"
        },
        {
          "dep": "nsubj",
          "governor": 10,
          "governorGloss": "Stunt",
          "dependent": 11,
          "dependentGloss": "scheitert"
        }
      ],
      "enhancedDependencies": [
        {
          "dep": "ROOT",
          "governor": 0,
          "governorGloss": "ROOT",
          "dependent": 2,
          "dependentGloss": "romantisch"
        },
        {
          "dep": "advmod",
          "governor": 2,
          "governorGloss": "romantisch",
          "dependent": 1,
          "dependentGloss": "Hoffnungslos"
        },
        {
          "dep": "name",
          "governor": 5,
          "governorGloss": "College",
          "dependent": 3,
          "dependentGloss": "BURNS"
        },
        {
          "dep": "name",
          "governor": 5,
          "governorGloss": "College",
          "dependent": 4,
          "dependentGloss": "DOWN"
        },
        {
          "dep": "nsubj",
          "governor": 2,
          "governorGloss": "romantisch",
          "dependent": 5,
          "dependentGloss": "College"
        },
        {
          "dep": "appos",
          "governor": 5,
          "governorGloss": "College",
          "dependent": 6,
          "dependentGloss": "Sporthalle"
        },
        {
          "dep": "case",
          "governor": 9,
          "governorGloss": "Vorschlag",
          "dependent": 7,
          "dependentGloss": "nach"
        },
        {
          "dep": "amod",
          "governor": 9,
          "governorGloss": "Vorschlag",
          "dependent": 8,
          "dependentGloss": "Feuerwerk"
        },
        {
          "dep": "nmod",
          "governor": 10,
          "governorGloss": "Stunt",
          "dependent": 9,
          "dependentGloss": "Vorschlag"
        },
        {
          "dep": "dobj",
          "governor": 2,
          "governorGloss": "romantisch",
          "dependent": 10,
          "dependentGloss": "Stunt"
        },
        {
          "dep": "nsubj",
          "governor": 10,
          "governorGloss": "Stunt",
          "dependent": 11,
          "dependentGloss": "scheitert"
        }
      ],
      "enhancedPlusPlusDependencies": [
        {
          "dep": "ROOT",
          "governor": 0,
          "governorGloss": "ROOT",
          "dependent": 2,
          "dependentGloss": "romantisch"
        },
        {
          "dep": "advmod",
          "governor": 2,
          "governorGloss": "romantisch",
          "dependent": 1,
          "dependentGloss": "Hoffnungslos"
        },
        {
          "dep": "name",
          "governor": 5,
          "governorGloss": "College",
          "dependent": 3,
          "dependentGloss": "BURNS"
        },
        {
          "dep": "name",
          "governor": 5,
          "governorGloss": "College",
          "dependent": 4,
          "dependentGloss": "DOWN"
        },
        {
          "dep": "nsubj",
          "governor": 2,
          "governorGloss": "romantisch",
          "dependent": 5,
          "dependentGloss": "College"
        },
        {
          "dep": "appos",
          "governor": 5,
          "governorGloss": "College",
          "dependent": 6,
          "dependentGloss": "Sporthalle"
        },
        {
          "dep": "case",
          "governor": 9,
          "governorGloss": "Vorschlag",
          "dependent": 7,
          "dependentGloss": "nach"
        },
        {
          "dep": "amod",
          "governor": 9,
          "governorGloss": "Vorschlag",
          "dependent": 8,
          "dependentGloss": "Feuerwerk"
        },
        {
          "dep": "nmod",
          "governor": 10,
          "governorGloss": "Stunt",
          "dependent": 9,
          "dependentGloss": "Vorschlag"
        },
        {
          "dep": "dobj",
          "governor": 2,
          "governorGloss": "romantisch",
          "dependent": 10,
          "dependentGloss": "Stunt"
        },
        {
          "dep": "nsubj",
          "governor": 10,
          "governorGloss": "Stunt",
          "dependent": 11,
          "dependentGloss": "scheitert"
        }
      ],
      "tokens": [
        {
          "index": 1,
          "word": "Hoffnungslos",
          "originalText": "Hoffnungslos",
          "characterOffsetBegin": 0,
          "characterOffsetEnd": 12,
          "pos": "ADJD",
          "before": "",
          "after": " "
        },
        {
          "index": 2,
          "word": "romantisch",
          "originalText": "romantisch",
          "characterOffsetBegin": 13,
          "characterOffsetEnd": 23,
          "pos": "ADJD",
          "before": " ",
          "after": " "
        },
        {
          "index": 3,
          "word": "BURNS",
          "originalText": "BURNS",
          "characterOffsetBegin": 24,
          "characterOffsetEnd": 29,
          "pos": "NE",
          "before": " ",
          "after": " "
        },
        {
          "index": 4,
          "word": "DOWN",
          "originalText": "DOWN",
          "characterOffsetBegin": 30,
          "characterOffsetEnd": 34,
          "pos": "NE",
          "before": " ",
          "after": " "
        },
        {
          "index": 5,
          "word": "College",
          "originalText": "College",
          "characterOffsetBegin": 35,
          "characterOffsetEnd": 42,
          "pos": "NE",
          "before": " ",
          "after": " "
        },
        {
          "index": 6,
          "word": "Sporthalle",
          "originalText": "Sporthalle",
          "characterOffsetBegin": 43,
          "characterOffsetEnd": 53,
          "pos": "NN",
          "before": " ",
          "after": " "
        },
        {
          "index": 7,
          "word": "nach",
          "originalText": "nach",
          "characterOffsetBegin": 54,
          "characterOffsetEnd": 58,
          "pos": "APPR",
          "before": " ",
          "after": " "
        },
        {
          "index": 8,
          "word": "Feuerwerk",
          "originalText": "Feuerwerk",
          "characterOffsetBegin": 59,
          "characterOffsetEnd": 68,
          "pos": "NN",
          "before": " ",
          "after": " "
        },
        {
          "index": 9,
          "word": "Vorschlag",
          "originalText": "Vorschlag",
          "characterOffsetBegin": 69,
          "characterOffsetEnd": 78,
          "pos": "NN",
          "before": " ",
          "after": " "
        },
        {
          "index": 10,
          "word": "Stunt",
          "originalText": "Stunt",
          "characterOffsetBegin": 79,
          "characterOffsetEnd": 84,
          "pos": "NN",
          "before": " ",
          "after": " "
        },
        {
          "index": 11,
          "word": "scheitert",
          "originalText": "scheitert",
          "characterOffsetBegin": 85,
          "characterOffsetEnd": 94,
          "pos": "VVFIN",
          "before": " ",
          "after": ""
        }
      ]
    }
  ]
}