{
  "sentences": [
    {
      "index": 0,
      "basicDependencies": [
        {
          "dep": "ROOT",
          "governor": 0,
          "governorGloss": "ROOT",
          "dependent": 3,
          "dependentGloss": "tot"
        },
        {
          "dep": "name",
          "governor": 2,
          "governorGloss": "Rose",
          "dependent": 1,
          "dependentGloss": "Axl"
        },
        {
          "dep": "nsubj",
          "governor": 3,
          "governorGloss": "tot",
          "dependent": 2,
          "dependentGloss": "Rose"
        },
        {
          "dep": "punct",
          "governor": 3,
          "governorGloss": "tot",
          "dependent": 4,
          "dependentGloss": "?"
        }
      ],
      "enhancedDependencies": [
        {
          "dep": "ROOT",
          "governor": 0,
          "governorGloss": "ROOT",
          "dependent": 3,
          "dependentGloss": "tot"
        },
        {
          "dep": "name",
          "governor": 2,
          "governorGloss": "Rose",
          "dependent": 1,
          "dependentGloss": "Axl"
        },
        {
          "dep": "nsubj",
          "governor": 3,
          "governorGloss": "tot",
          "dependent": 2,
          "dependentGloss": "Rose"
        },
        {
          "dep": "punct",
          "governor": 3,
          "governorGloss": "tot",
          "dependent": 4,
          "dependentGloss": "?"
        }
      ],
      "enhancedPlusPlusDependencies": [
        {
          "dep": "ROOT",
          "governor": 0,
          "governorGloss": "ROOT",
          "dependent": 3,
          "dependentGloss": "tot"
        },
        {
          "dep": "name",
          "governor": 2,
          "governorGloss": "Rose",
          "dependent": 1,
          "dependentGloss": "Axl"
        },
        {
          "dep": "nsubj",
          "governor": 3,
          "governorGloss": "tot",
          "dependent": 2,
          "dependentGloss": "Rose"
        },
        {
          "dep": "punct",
          "governor": 3,
          "governorGloss": "tot",
          "dependent": 4,
          "dependentGloss": "?"
        }
      ],
      "tokens": [
        {
          "index": 1,
          "word": "Axl",
          "originalText": "Axl",
          "characterOffsetBegin": 0,
          "characterOffsetEnd": 3,
          "pos": "NE",
          "before": "",
          "after": " "
        },
        {
          "index": 2,
          "word": "Rose",
          "originalText": "Rose",
          "characterOffsetBegin": 4,
          "characterOffsetEnd": 8,
          "pos": "NE",
          "before": " ",
          "after": " "
        },
        {
          "index": 3,
          "word": "tot",
          "originalText": "tot",
          "characterOffsetBegin": 9,
          "characterOffsetEnd": 12,
          "pos": "ADJD",
          "before": " ",
          "after": ""
        },
        {
          "index": 4,
          "word": "?",
          "originalText": "?",
          "characterOffsetBegin": 12,
          "characterOffsetEnd": 13,
          "pos": "$.",
          "before": "",
          "after": " "
        }
      ]
    },
    {
      "index": 1,
      "basicDependencies": [
        {
          "dep": "ROOT",
          "governor": 0,
          "governorGloss": "ROOT",
          "dependent": 1,
          "dependentGloss": "Natürlich"
        },
        {
          "dep": "neg",
          "governor": 4,
          "governorGloss": "langweilig",
          "dependent": 2,
          "dependentGloss": "nicht"
        },
        {
          "dep": "punct",
          "governor": 4,
          "governorGloss": "langweilig",
          "dependent": 3,
          "dependentGloss": "-"
        },
        {
          "dep": "conj",
          "governor": 1,
          "governorGloss": "Natürlich",
          "dependent": 4,
          "dependentGloss": "langweilig"
        },
        {
          "dep": "root",
          "governor": 4,
          "governorGloss": "langweilig",
          "dependent": 5,
          "dependentGloss": "Internet"
        },
        {
          "dep": "name",
          "governor": 9,
          "governorGloss": "Hits",
          "dependent": 6,
          "dependentGloss": "Tod"
        },
        {
          "dep": "amod",
          "governor": 8,
          "governorGloss": "Pest",
          "dependent": 7,
          "dependentGloss": "Hoax"
        },
        {
          "dep": "name",
          "governor": 9,
          "governorGloss": "Hits",
          "dependent": 8,
          "dependentGloss": "Pest"
        },
        {
          "dep": "appos",
          "governor": 5,
          "governorGloss": "Internet",
          "dependent": 9,
          "dependentGloss": "Hits"
        },
        {
          "dep": "appos",
          "governor": 9,
          "governorGloss": "Hits",
          "dependent": 10,
          "dependentGloss": "Guns"
        },
        {
          "dep": "appos",
          "governor": 10,
          "governorGloss": "Guns",
          "dependent": 11,
          "dependentGloss": "N"
        },
        {
          "dep": "punct",
          "governor": 14,
          "governorGloss": "Frontman",
          "dependent": 12,
          "dependentGloss": "`"
        },
        {
          "dep": "amod",
          "governor": 14,
          "governorGloss": "Frontman",
          "dependent": 13,
          "dependentGloss": "Roses"
        },
        {
          "dep": "appos",
          "governor": 11,
          "governorGloss": "N",
          "dependent": 14,
          "dependentGloss": "Frontman"
        }
      ],
      "enhancedDependencies": [
        {
          "dep": "ROOT",
          "governor": 0,
          "governorGloss": "ROOT",
          "dependent": 1,
          "dependentGloss": "Natürlich"
        },
        {
          "dep": "neg",
          "governor": 4,
          "governorGloss": "langweilig",
          "dependent": 2,
          "dependentGloss": "nicht"
        },
        {
          "dep": "punct",
          "governor": 4,
          "governorGloss": "langweilig",
          "dependent": 3,
          "dependentGloss": "-"
        },
        {
          "dep": "conj",
          "governor": 1,
          "governorGloss": "Natürlich",
          "dependent": 4,
          "dependentGloss": "langweilig"
        },
        {
          "dep": "root",
          "governor": 4,
          "governorGloss": "langweilig",
          "dependent": 5,
          "dependentGloss": "Internet"
        },
        {
          "dep": "name",
          "governor": 9,
          "governorGloss": "Hits",
          "dependent": 6,
          "dependentGloss": "Tod"
        },
        {
          "dep": "amod",
          "governor": 8,
          "governorGloss": "Pest",
          "dependent": 7,
          "dependentGloss": "Hoax"
        },
        {
          "dep": "name",
          "governor": 9,
          "governorGloss": "Hits",
          "dependent": 8,
          "dependentGloss": "Pest"
        },
        {
          "dep": "appos",
          "governor": 5,
          "governorGloss": "Internet",
          "dependent": 9,
          "dependentGloss": "Hits"
        },
        {
          "dep": "appos",
          "governor": 9,
          "governorGloss": "Hits",
          "dependent": 10,
          "dependentGloss": "Guns"
        },
        {
          "dep": "appos",
          "governor": 10,
          "governorGloss": "Guns",
          "dependent": 11,
          "dependentGloss": "N"
        },
        {
          "dep": "punct",
          "governor": 14,
          "governorGloss": "Frontman",
          "dependent": 12,
          "dependentGloss": "`"
        },
        {
          "dep": "amod",
          "governor": 14,
          "governorGloss": "Frontman",
          "dependent": 13,
          "dependentGloss": "Roses"
        },
        {
          "dep": "appos",
          "governor": 11,
          "governorGloss": "N",
          "dependent": 14,
          "dependentGloss": "Frontman"
        }
      ],
      "enhancedPlusPlusDependencies": [
        {
          "dep": "ROOT",
          "governor": 0,
          "governorGloss": "ROOT",
          "dependent": 1,
          "dependentGloss": "Natürlich"
        },
        {
          "dep": "neg",
          "governor": 4,
          "governorGloss": "langweilig",
          "dependent": 2,
          "dependentGloss": "nicht"
        },
        {
          "dep": "punct",
          "governor": 4,
          "governorGloss": "langweilig",
          "dependent": 3,
          "dependentGloss": "-"
        },
        {
          "dep": "conj",
          "governor": 1,
          "governorGloss": "Natürlich",
          "dependent": 4,
          "dependentGloss": "langweilig"
        },
        {
          "dep": "root",
          "governor": 4,
          "governorGloss": "langweilig",
          "dependent": 5,
          "dependentGloss": "Internet"
        },
        {
          "dep": "name",
          "governor": 9,
          "governorGloss": "Hits",
          "dependent": 6,
          "dependentGloss": "Tod"
        },
        {
          "dep": "amod",
          "governor": 8,
          "governorGloss": "Pest",
          "dependent": 7,
          "dependentGloss": "Hoax"
        },
        {
          "dep": "name",
          "governor": 9,
          "governorGloss": "Hits",
          "dependent": 8,
          "dependentGloss": "Pest"
        },
        {
          "dep": "appos",
          "governor": 5,
          "governorGloss": "Internet",
          "dependent": 9,
          "dependentGloss": "Hits"
        },
        {
          "dep": "appos",
          "governor": 9,
          "governorGloss": "Hits",
          "dependent": 10,
          "dependentGloss": "Guns"
        },
        {
          "dep": "appos",
          "governor": 10,
          "governorGloss": "Guns",
          "dependent": 11,
          "dependentGloss": "N"
        },
        {
          "dep": "punct",
          "governor": 14,
          "governorGloss": "Frontman",
          "dependent": 12,
          "dependentGloss": "`"
        },
        {
          "dep": "amod",
          "governor": 14,
          "governorGloss": "Frontman",
          "dependent": 13,
          "dependentGloss": "Roses"
        },
        {
          "dep": "appos",
          "governor": 11,
          "governorGloss": "N",
          "dependent": 14,
          "dependentGloss": "Frontman"
        }
      ],
      "tokens": [
        {
          "index": 1,
          "word": "Natürlich",
          "originalText": "Natürlich",
          "characterOffsetBegin": 14,
          "characterOffsetEnd": 23,
          "pos": "ADV",
          "before": " ",
          "after": " "
        },
        {
          "index": 2,
          "word": "nicht",
          "originalText": "nicht",
          "characterOffsetBegin": 24,
          "characterOffsetEnd": 29,
          "pos": "PTKNEG",
          "before": " ",
          "after": " "
        },
        {
          "index": 3,
          "word": "-",
          "originalText": "-",
          "characterOffsetBegin": 30,
          "characterOffsetEnd": 31,
          "pos": "$[",
          "before": " ",
          "after": " "
        },
        {
          "index": 4,
          "word": "langweilig",
          "originalText": "langweilig",
          "characterOffsetBegin": 32,
          "characterOffsetEnd": 42,
          "pos": "ADJD",
          "before": " ",
          "after": " "
        },
        {
          "index": 5,
          "word": "Internet",
          "originalText": "Internet",
          "characterOffsetBegin": 43,
          "characterOffsetEnd": 51,
          "pos": "NN",
          "before": " ",
          "after": " "
        },
        {
          "index": 6,
          "word": "Tod",
          "originalText": "Tod",
          "characterOffsetBegin": 52,
          "characterOffsetEnd": 55,
          "pos": "NN",
          "before": " ",
          "after": " "
        },
        {
          "index": 7,
          "word": "Hoax",
          "originalText": "Hoax",
          "characterOffsetBegin": 56,
          "characterOffsetEnd": 60,
          "pos": "NE",
          "before": " ",
          "after": " "
        },
        {
          "index": 8,
          "word": "Pest",
          "originalText": "Pest",
          "characterOffsetBegin": 61,
          "characterOffsetEnd": 65,
          "pos": "NE",
          "before": " ",
          "after": " "
        },
        {
          "index": 9,
          "word": "Hits",
          "originalText": "Hits",
          "characterOffsetBegin": 66,
          "characterOffsetEnd": 70,
          "pos": "NN",
          "before": " ",
          "after": " "
        },
        {
          "index": 10,
          "word": "Guns",
          "originalText": "Guns",
          "characterOffsetBegin": 71,
          "characterOffsetEnd": 75,
          "pos": "NE",
          "before": " ",
          "after": " "
        },
        {
          "index": 11,
          "word": "N",
          "originalText": "N",
          "characterOffsetBegin": 76,
          "characterOffsetEnd": 77,
          "pos": "NN",
          "before": " ",
          "after": " "
        },
        {
          "index": 12,
          "word": "`",
          "originalText": "'",
          "characterOffsetBegin": 78,
          "characterOffsetEnd": 79,
          "pos": "CARD",
          "before": " ",
          "after": ""
        },
        {
          "index": 13,
          "word": "Roses",
          "originalText": "Roses",
          "characterOffsetBegin": 79,
          "characterOffsetEnd": 84,
          "pos": "NN",
          "before": "",
          "after": " "
        },
        {
          "index": 14,
          "word": "Frontman",
          "originalText": "Frontman",
          "characterOffsetBegin": 85,
          "characterOffsetEnd": 93,
          "pos": "NN",
          "before": " ",
          "after": ""
        }
      ]
    }
  ]
}