{
  "sentences": [
    {
      "index": 0,
      "basicDependencies": [
        {
          "dep": "ROOT",
          "governor": 0,
          "governorGloss": "ROOT",
          "dependent": 2,
          "dependentGloss": "Türkei"
        },
        {
          "dep": "amod",
          "governor": 2,
          "governorGloss": "Türkei",
          "dependent": 1,
          "dependentGloss": "Kälte"
        }
      ],
      "enhancedDependencies": [
        {
          "dep": "ROOT",
          "governor": 0,
          "governorGloss": "ROOT",
          "dependent": 2,
          "dependentGloss": "Türkei"
        },
        {
          "dep": "amod",
          "governor": 2,
          "governorGloss": "Türkei",
          "dependent": 1,
          "dependentGloss": "Kälte"
        }
      ],
      "enhancedPlusPlusDependencies": [
        {
          "dep": "ROOT",
          "governor": 0,
          "governorGloss": "ROOT",
          "dependent": 2,
          "dependentGloss": "Türkei"
        },
        {
          "dep": "amod",
          "governor": 2,
          "governorGloss": "Türkei",
          "dependent": 1,
          "dependentGloss": "Kälte"
        }
      ],
      "tokens": [
        {
          "index": 1,
          "word": "Kälte",
          "originalText": "Kälte",
          "characterOffsetBegin": 0,
          "characterOffsetEnd": 5,
          "pos": "NN",
          "before": "",
          "after": " "
        },
        {
          "index": 2,
          "word": "Türkei",
          "originalText": "Türkei",
          "characterOffsetBegin": 6,
          "characterOffsetEnd": 12,
          "pos": "NE",
          "before": " ",
          "after": ""
        }
      ]
    }
  ]
}