{
  "sentences": [
    {
      "index": 0,
      "basicDependencies": [
        {
          "dep": "ROOT",
          "governor": 0,
          "governorGloss": "ROOT",
          "dependent": 3,
          "dependentGloss": "Dead"
        },
        {
          "dep": "name",
          "governor": 3,
          "governorGloss": "Dead",
          "dependent": 1,
          "dependentGloss": "Macaulay"
        },
        {
          "dep": "name",
          "governor": 3,
          "governorGloss": "Dead",
          "dependent": 2,
          "dependentGloss": "Culkin"
        },
        {
          "dep": "punct",
          "governor": 3,
          "governorGloss": "Dead",
          "dependent": 4,
          "dependentGloss": "?"
        }
      ],
      "enhancedDependencies": [
        {
          "dep": "ROOT",
          "governor": 0,
          "governorGloss": "ROOT",
          "dependent": 3,
          "dependentGloss": "Dead"
        },
        {
          "dep": "name",
          "governor": 3,
          "governorGloss": "Dead",
          "dependent": 1,
          "dependentGloss": "Macaulay"
        },
        {
          "dep": "name",
          "governor": 3,
          "governorGloss": "Dead",
          "dependent": 2,
          "dependentGloss": "Culkin"
        },
        {
          "dep": "punct",
          "governor": 3,
          "governorGloss": "Dead",
          "dependent": 4,
          "dependentGloss": "?"
        }
      ],
      "enhancedPlusPlusDependencies": [
        {
          "dep": "ROOT",
          "governor": 0,
          "governorGloss": "ROOT",
          "dependent": 3,
          "dependentGloss": "Dead"
        },
        {
          "dep": "name",
          "governor": 3,
          "governorGloss": "Dead",
          "dependent": 1,
          "dependentGloss": "Macaulay"
        },
        {
          "dep": "name",
          "governor": 3,
          "governorGloss": "Dead",
          "dependent": 2,
          "dependentGloss": "Culkin"
        },
        {
          "dep": "punct",
          "governor": 3,
          "governorGloss": "Dead",
          "dependent": 4,
          "dependentGloss": "?"
        }
      ],
      "tokens": [
        {
          "index": 1,
          "word": "Macaulay",
          "originalText": "Macaulay",
          "characterOffsetBegin": 0,
          "characterOffsetEnd": 8,
          "pos": "NE",
          "before": "",
          "after": " "
        },
        {
          "index": 2,
          "word": "Culkin",
          "originalText": "Culkin",
          "characterOffsetBegin": 9,
          "characterOffsetEnd": 15,
          "pos": "NE",
          "before": " ",
          "after": " "
        },
        {
          "index": 3,
          "word": "Dead",
          "originalText": "Dead",
          "characterOffsetBegin": 16,
          "characterOffsetEnd": 20,
          "pos": "NE",
          "before": " ",
          "after": ""
        },
        {
          "index": 4,
          "word": "?",
          "originalText": "?",
          "characterOffsetBegin": 20,
          "characterOffsetEnd": 21,
          "pos": "$.",
          "before": "",
          "after": ""
        }
      ]
    }
  ]
}