{
  "sentences": [
    {
      "index": 0,
      "basicDependencies": [
        {
          "dep": "ROOT",
          "governor": 0,
          "governorGloss": "ROOT",
          "dependent": 6,
          "dependentGloss": "300.000"
        },
        {
          "dep": "case",
          "governor": 5,
          "governorGloss": "$",
          "dependent": 1,
          "dependentGloss": "Vice"
        },
        {
          "dep": "name",
          "governor": 3,
          "governorGloss": "Smith",
          "dependent": 2,
          "dependentGloss": "Shane"
        },
        {
          "dep": "appos",
          "governor": 1,
          "governorGloss": "Vice",
          "dependent": 3,
          "dependentGloss": "Smith"
        },
        {
          "dep": "nummod",
          "governor": 5,
          "governorGloss": "$",
          "dependent": 4,
          "dependentGloss": "Tropfen"
        },
        {
          "dep": "nmod",
          "governor": 6,
          "governorGloss": "300.000",
          "dependent": 5,
          "dependentGloss": "$"
        },
        {
          "dep": "case",
          "governor": 8,
          "governorGloss": "Vegas",
          "dependent": 7,
          "dependentGloss": "auf"
        },
        {
          "dep": "nmod",
          "governor": 6,
          "governorGloss": "300.000",
          "dependent": 8,
          "dependentGloss": "Vegas"
        },
        {
          "dep": "nsubj",
          "governor": 6,
          "governorGloss": "300.000",
          "dependent": 9,
          "dependentGloss": "Abendessen"
        }
      ],
      "enhancedDependencies": [
        {
          "dep": "ROOT",
          "governor": 0,
          "governorGloss": "ROOT",
          "dependent": 6,
          "dependentGloss": "300.000"
        },
        {
          "dep": "case",
          "governor": 5,
          "governorGloss": "$",
          "dependent": 1,
          "dependentGloss": "Vice"
        },
        {
          "dep": "name",
          "governor": 3,
          "governorGloss": "Smith",
          "dependent": 2,
          "dependentGloss": "Shane"
        },
        {
          "dep": "appos",
          "governor": 1,
          "governorGloss": "Vice",
          "dependent": 3,
          "dependentGloss": "Smith"
        },
        {
          "dep": "nummod",
          "governor": 5,
          "governorGloss": "$",
          "dependent": 4,
          "dependentGloss": "Tropfen"
        },
        {
          "dep": "nmod",
          "governor": 6,
          "governorGloss": "300.000",
          "dependent": 5,
          "dependentGloss": "$"
        },
        {
          "dep": "case",
          "governor": 8,
          "governorGloss": "Vegas",
          "dependent": 7,
          "dependentGloss": "auf"
        },
        {
          "dep": "nmod",
          "governor": 6,
          "governorGloss": "300.000",
          "dependent": 8,
          "dependentGloss": "Vegas"
        },
        {
          "dep": "nsubj",
          "governor": 6,
          "governorGloss": "300.000",
          "dependent": 9,
          "dependentGloss": "Abendessen"
        }
      ],
      "enhancedPlusPlusDependencies": [
        {
          "dep": "ROOT",
          "governor": 0,
          "governorGloss": "ROOT",
          "dependent": 6,
          "dependentGloss": "300.000"
        },
        {
          "dep": "case",
          "governor": 5,
          "governorGloss": "$",
          "dependent": 1,
          "dependentGloss": "Vice"
        },
        {
          "dep": "name",
          "governor": 3,
          "governorGloss": "Smith",
          "dependent": 2,
          "dependentGloss": "Shane"
        },
        {
          "dep": "appos",
          "governor": 1,
          "governorGloss": "Vice",
          "dependent": 3,
          "dependentGloss": "Smith"
        },
        {
          "dep": "nummod",
          "governor": 5,
          "governorGloss": "$",
          "dependent": 4,
          "dependentGloss": "Tropfen"
        },
        {
          "dep": "nmod",
          "governor": 6,
          "governorGloss": "300.000",
          "dependent": 5,
          "dependentGloss": "$"
        },
        {
          "dep": "case",
          "governor": 8,
          "governorGloss": "Vegas",
          "dependent": 7,
          "dependentGloss": "auf"
        },
        {
          "dep": "nmod",
          "governor": 6,
          "governorGloss": "300.000",
          "dependent": 8,
          "dependentGloss": "Vegas"
        },
        {
          "dep": "nsubj",
          "governor": 6,
          "governorGloss": "300.000",
          "dependent": 9,
          "dependentGloss": "Abendessen"
        }
      ],
      "tokens": [
        {
          "index": 1,
          "word": "Vice",
          "originalText": "Vice",
          "characterOffsetBegin": 0,
          "characterOffsetEnd": 4,
          "pos": "NN",
          "before": "",
          "after": " "
        },
        {
          "index": 2,
          "word": "Shane",
          "originalText": "Shane",
          "characterOffsetBegin": 5,
          "characterOffsetEnd": 10,
          "pos": "NE",
          "before": " ",
          "after": " "
        },
        {
          "index": 3,
          "word": "Smith",
          "originalText": "Smith",
          "characterOffsetBegin": 11,
          "characterOffsetEnd": 16,
          "pos": "NE",
          "before": " ",
          "after": " "
        },
        {
          "index": 4,
          "word": "Tropfen",
          "originalText": "Tropfen",
          "characterOffsetBegin": 17,
          "characterOffsetEnd": 24,
          "pos": "NN",
          "before": " ",
          "after": " "
        },
        {
          "index": 5,
          "word": "$",
          "originalText": "$",
          "characterOffsetBegin": 25,
          "characterOffsetEnd": 26,
          "pos": "CARD",
          "before": " ",
          "after": " "
        },
        {
          "index": 6,
          "word": "300.000",
          "originalText": "300.000",
          "characterOffsetBegin": 27,
          "characterOffsetEnd": 34,
          "pos": "CARD",
          "before": " ",
          "after": " "
        },
        {
          "index": 7,
          "word": "auf",
          "originalText": "auf",
          "characterOffsetBegin": 35,
          "characterOffsetEnd": 38,
          "pos": "APPR",
          "before": " ",
          "after": " "
        },
        {
          "index": 8,
          "word": "Vegas",
          "originalText": "Vegas",
          "characterOffsetBegin": 39,
          "characterOffsetEnd": 44,
          "pos": "NE",
          "before": " ",
          "after": " "
        },
        {
          "index": 9,
          "word": "Abendessen",
          "originalText": "Abendessen",
          "characterOffsetBegin": 45,
          "characterOffsetEnd": 55,
          "pos": "NN",
          "before": " ",
          "after": ""
        }
      ]
    }
  ]
}