{
  "sentences": [
    {
      "index": 0,
      "basicDependencies": [
        {
          "dep": "ROOT",
          "governor": 0,
          "governorGloss": "ROOT",
          "dependent": 2,
          "dependentGloss": "Probing"
        },
        {
          "dep": "name",
          "governor": 2,
          "governorGloss": "Probing",
          "dependent": 1,
          "dependentGloss": "FBI"
        },
        {
          "dep": "advmod",
          "governor": 8,
          "governorGloss": "Shooting",
          "dependent": 3,
          "dependentGloss": "angeblich"
        },
        {
          "dep": "nsubj",
          "governor": 8,
          "governorGloss": "Shooting",
          "dependent": 4,
          "dependentGloss": "Audio"
        },
        {
          "dep": "case",
          "governor": 7,
          "governorGloss": "Brown",
          "dependent": 5,
          "dependentGloss": "von"
        },
        {
          "dep": "name",
          "governor": 7,
          "governorGloss": "Brown",
          "dependent": 6,
          "dependentGloss": "Michael"
        },
        {
          "dep": "nmod",
          "governor": 4,
          "governorGloss": "Audio",
          "dependent": 7,
          "dependentGloss": "Brown"
        },
        {
          "dep": "acl",
          "governor": 2,
          "governorGloss": "Probing",
          "dependent": 8,
          "dependentGloss": "Shooting"
        }
      ],
      "enhancedDependencies": [
        {
          "dep": "ROOT",
          "governor": 0,
          "governorGloss": "ROOT",
          "dependent": 2,
          "dependentGloss": "Probing"
        },
        {
          "dep": "name",
          "governor": 2,
          "governorGloss": "Probing",
          "dependent": 1,
          "dependentGloss": "FBI"
        },
        {
          "dep": "advmod",
          "governor": 8,
          "governorGloss": "Shooting",
          "dependent": 3,
          "dependentGloss": "angeblich"
        },
        {
          "dep": "nsubj",
          "governor": 8,
          "governorGloss": "Shooting",
          "dependent": 4,
          "dependentGloss": "Audio"
        },
        {
          "dep": "case",
          "governor": 7,
          "governorGloss": "Brown",
          "dependent": 5,
          "dependentGloss": "von"
        },
        {
          "dep": "name",
          "governor": 7,
          "governorGloss": "Brown",
          "dependent": 6,
          "dependentGloss": "Michael"
        },
        {
          "dep": "nmod",
          "governor": 4,
          "governorGloss": "Audio",
          "dependent": 7,
          "dependentGloss": "Brown"
        },
        {
          "dep": "acl",
          "governor": 2,
          "governorGloss": "Probing",
          "dependent": 8,
          "dependentGloss": "Shooting"
        }
      ],
      "enhancedPlusPlusDependencies": [
        {
          "dep": "ROOT",
          "governor": 0,
          "governorGloss": "ROOT",
          "dependent": 2,
          "dependentGloss": "Probing"
        },
        {
          "dep": "name",
          "governor": 2,
          "governorGloss": "Probing",
          "dependent": 1,
          "dependentGloss": "FBI"
        },
        {
          "dep": "advmod",
          "governor": 8,
          "governorGloss": "Shooting",
          "dependent": 3,
          "dependentGloss": "angeblich"
        },
        {
          "dep": "nsubj",
          "governor": 8,
          "governorGloss": "Shooting",
          "dependent": 4,
          "dependentGloss": "Audio"
        },
        {
          "dep": "case",
          "governor": 7,
          "governorGloss": "Brown",
          "dependent": 5,
          "dependentGloss": "von"
        },
        {
          "dep": "name",
          "governor": 7,
          "governorGloss": "Brown",
          "dependent": 6,
          "dependentGloss": "Michael"
        },
        {
          "dep": "nmod",
          "governor": 4,
          "governorGloss": "Audio",
          "dependent": 7,
          "dependentGloss": "Brown"
        },
        {
          "dep": "acl",
          "governor": 2,
          "governorGloss": "Probing",
          "dependent": 8,
          "dependentGloss": "Shooting"
        }
      ],
      "tokens": [
        {
          "index": 1,
          "word": "FBI",
          "originalText": "FBI",
          "characterOffsetBegin": 0,
          "characterOffsetEnd": 3,
          "pos": "NE",
          "before": "",
          "after": " "
        },
        {
          "index": 2,
          "word": "Probing",
          "originalText": "Probing",
          "characterOffsetBegin": 4,
          "characterOffsetEnd": 11,
          "pos": "NE",
          "before": " ",
          "after": " "
        },
        {
          "index": 3,
          "word": "angeblich",
          "originalText": "angeblich",
          "characterOffsetBegin": 12,
          "characterOffsetEnd": 21,
          "pos": "ADJD",
          "before": " ",
          "after": " "
        },
        {
          "index": 4,
          "word": "Audio",
          "originalText": "Audio",
          "characterOffsetBegin": 22,
          "characterOffsetEnd": 27,
          "pos": "NN",
          "before": " ",
          "after": " "
        },
        {
          "index": 5,
          "word": "von",
          "originalText": "von",
          "characterOffsetBegin": 28,
          "characterOffsetEnd": 31,
          "pos": "APPR",
          "before": " ",
          "after": " "
        },
        {
          "index": 6,
          "word": "Michael",
          "originalText": "Michael",
          "characterOffsetBegin": 32,
          "characterOffsetEnd": 39,
          "pos": "NE",
          "before": " ",
          "after": " "
        },
        {
          "index": 7,
          "word": "Brown",
          "originalText": "Brown",
          "characterOffsetBegin": 40,
          "characterOffsetEnd": 45,
          "pos": "NE",
          "before": " ",
          "after": " "
        },
        {
          "index": 8,
          "word": "Shooting",
          "originalText": "Shooting",
          "characterOffsetBegin": 46,
          "characterOffsetEnd": 54,
          "pos": "NE",
          "before": " ",
          "after": ""
        }
      ]
    }
  ]
}