{
  "sentences": [
    {
      "index": 0,
      "basicDependencies": [
        {
          "dep": "ROOT",
          "governor": 0,
          "governorGloss": "ROOT",
          "dependent": 7,
          "dependentGloss": "Vater"
        },
        {
          "dep": "nsubj",
          "governor": 7,
          "governorGloss": "Vater",
          "dependent": 1,
          "dependentGloss": "Gott"
        },
        {
          "dep": "cop",
          "governor": 7,
          "governorGloss": "Vater",
          "dependent": 2,
          "dependentGloss": "ist"
        },
        {
          "dep": "det",
          "governor": 7,
          "governorGloss": "Vater",
          "dependent": 3,
          "dependentGloss": "eine"
        },
        {
          "dep": "compound",
          "governor": 6,
          "governorGloss": "Wiedereroberter",
          "dependent": 4,
          "dependentGloss": "Frau"
        },
        {
          "dep": "punct",
          "governor": 6,
          "governorGloss": "Wiedereroberter",
          "dependent": 5,
          "dependentGloss": "-"
        },
        {
          "dep": "amod",
          "governor": 7,
          "governorGloss": "Vater",
          "dependent": 6,
          "dependentGloss": "Wiedereroberter"
        },
        {
          "dep": "punct",
          "governor": 7,
          "governorGloss": "Vater",
          "dependent": 8,
          "dependentGloss": "erzählt"
        }
      ],
      "enhancedDependencies": [
        {
          "dep": "ROOT",
          "governor": 0,
          "governorGloss": "ROOT",
          "dependent": 7,
          "dependentGloss": "Vater"
        },
        {
          "dep": "nsubj",
          "governor": 7,
          "governorGloss": "Vater",
          "dependent": 1,
          "dependentGloss": "Gott"
        },
        {
          "dep": "cop",
          "governor": 7,
          "governorGloss": "Vater",
          "dependent": 2,
          "dependentGloss": "ist"
        },
        {
          "dep": "det",
          "governor": 7,
          "governorGloss": "Vater",
          "dependent": 3,
          "dependentGloss": "eine"
        },
        {
          "dep": "compound",
          "governor": 6,
          "governorGloss": "Wiedereroberter",
          "dependent": 4,
          "dependentGloss": "Frau"
        },
        {
          "dep": "punct",
          "governor": 6,
          "governorGloss": "Wiedereroberter",
          "dependent": 5,
          "dependentGloss": "-"
        },
        {
          "dep": "amod",
          "governor": 7,
          "governorGloss": "Vater",
          "dependent": 6,
          "dependentGloss": "Wiedereroberter"
        },
        {
          "dep": "punct",
          "governor": 7,
          "governorGloss": "Vater",
          "dependent": 8,
          "dependentGloss": "erzählt"
        }
      ],
      "enhancedPlusPlusDependencies": [
        {
          "dep": "ROOT",
          "governor": 0,
          "governorGloss": "ROOT",
          "dependent": 7,
          "dependentGloss": "Vater"
        },
        {
          "dep": "nsubj",
          "governor": 7,
          "governorGloss": "Vater",
          "dependent": 1,
          "dependentGloss": "Gott"
        },
        {
          "dep": "cop",
          "governor": 7,
          "governorGloss": "Vater",
          "dependent": 2,
          "dependentGloss": "ist"
        },
        {
          "dep": "det",
          "governor": 7,
          "governorGloss": "Vater",
          "dependent": 3,
          "dependentGloss": "eine"
        },
        {
          "dep": "compound",
          "governor": 6,
          "governorGloss": "Wiedereroberter",
          "dependent": 4,
          "dependentGloss": "Frau"
        },
        {
          "dep": "punct",
          "governor": 6,
          "governorGloss": "Wiedereroberter",
          "dependent": 5,
          "dependentGloss": "-"
        },
        {
          "dep": "amod",
          "governor": 7,
          "governorGloss": "Vater",
          "dependent": 6,
          "dependentGloss": "Wiedereroberter"
        },
        {
          "dep": "punct",
          "governor": 7,
          "governorGloss": "Vater",
          "dependent": 8,
          "dependentGloss": "erzählt"
        }
      ],
      "tokens": [
        {
          "index": 1,
          "word": "Gott",
          "originalText": "Gott",
          "characterOffsetBegin": 0,
          "characterOffsetEnd": 4,
          "pos": "NN",
          "before": "",
          "after": " "
        },
        {
          "index": 2,
          "word": "ist",
          "originalText": "ist",
          "characterOffsetBegin": 5,
          "characterOffsetEnd": 8,
          "pos": "VAFIN",
          "before": " ",
          "after": " "
        },
        {
          "index": 3,
          "word": "eine",
          "originalText": "eine",
          "characterOffsetBegin": 9,
          "characterOffsetEnd": 13,
          "pos": "ART",
          "before": " ",
          "after": " "
        },
        {
          "index": 4,
          "word": "Frau",
          "originalText": "Frau",
          "characterOffsetBegin": 14,
          "characterOffsetEnd": 18,
          "pos": "NN",
          "before": " ",
          "after": " "
        },
        {
          "index": 5,
          "word": "-",
          "originalText": "-",
          "characterOffsetBegin": 19,
          "characterOffsetEnd": 20,
          "pos": "$[",
          "before": " ",
          "after": " "
        },
        {
          "index": 6,
          "word": "Wiedereroberter",
          "originalText": "Wiedereroberter",
          "characterOffsetBegin": 21,
          "characterOffsetEnd": 36,
          "pos": "ADJA",
          "before": " ",
          "after": " "
        },
        {
          "index": 7,
          "word": "Vater",
          "originalText": "Vater",
          "characterOffsetBegin": 37,
          "characterOffsetEnd": 42,
          "pos": "NN",
          "before": " ",
          "after": " "
        },
        {
          "index": 8,
          "word": "erzählt",
          "originalText": "erzählt",
          "characterOffsetBegin": 43,
          "characterOffsetEnd": 50,
          "pos": "VVFIN",
          "before": " ",
          "after": ""
        }
      ]
    }
  ]
}