{
  "sentences": [
    {
      "index": 0,
      "basicDependencies": [
        {
          "dep": "ROOT",
          "governor": 0,
          "governorGloss": "ROOT",
          "dependent": 4,
          "dependentGloss": "Knöchelchirurgie"
        },
        {
          "dep": "name",
          "governor": 2,
          "governorGloss": "Jong-Un",
          "dependent": 1,
          "dependentGloss": "Kim"
        },
        {
          "dep": "nsubj",
          "governor": 4,
          "governorGloss": "Knöchelchirurgie",
          "dependent": 2,
          "dependentGloss": "Jong-Un"
        },
        {
          "dep": "aux",
          "governor": 4,
          "governorGloss": "Knöchelchirurgie",
          "dependent": 3,
          "dependentGloss": "hatte"
        },
        {
          "dep": "cc",
          "governor": 4,
          "governorGloss": "Knöchelchirurgie",
          "dependent": 5,
          "dependentGloss": "und"
        },
        {
          "dep": "conj",
          "governor": 4,
          "governorGloss": "Knöchelchirurgie",
          "dependent": 6,
          "dependentGloss": "erholt"
        },
        {
          "dep": "dobj",
          "governor": 6,
          "governorGloss": "erholt",
          "dependent": 7,
          "dependentGloss": "sich"
        },
        {
          "dep": "advmod",
          "governor": 6,
          "governorGloss": "erholt",
          "dependent": 8,
          "dependentGloss": "jetzt"
        },
        {
          "dep": "case",
          "governor": 11,
          "governorGloss": "Landgut",
          "dependent": 9,
          "dependentGloss": "auf"
        },
        {
          "dep": "det",
          "governor": 11,
          "governorGloss": "Landgut",
          "dependent": 10,
          "dependentGloss": "einem"
        },
        {
          "dep": "nmod",
          "governor": 6,
          "governorGloss": "erholt",
          "dependent": 11,
          "dependentGloss": "Landgut"
        },
        {
          "dep": "advmod",
          "governor": 11,
          "governorGloss": "Landgut",
          "dependent": 12,
          "dependentGloss": "nördlich"
        },
        {
          "dep": "case",
          "governor": 14,
          "governorGloss": "Pyongyang",
          "dependent": 13,
          "dependentGloss": "von"
        },
        {
          "dep": "nmod",
          "governor": 12,
          "governorGloss": "nördlich",
          "dependent": 14,
          "dependentGloss": "Pyongyang"
        },
        {
          "dep": "punct",
          "governor": 4,
          "governorGloss": "Knöchelchirurgie",
          "dependent": 15,
          "dependentGloss": "."
        }
      ],
      "enhancedDependencies": [
        {
          "dep": "ROOT",
          "governor": 0,
          "governorGloss": "ROOT",
          "dependent": 4,
          "dependentGloss": "Knöchelchirurgie"
        },
        {
          "dep": "name",
          "governor": 2,
          "governorGloss": "Jong-Un",
          "dependent": 1,
          "dependentGloss": "Kim"
        },
        {
          "dep": "nsubj",
          "governor": 4,
          "governorGloss": "Knöchelchirurgie",
          "dependent": 2,
          "dependentGloss": "Jong-Un"
        },
        {
          "dep": "aux",
          "governor": 4,
          "governorGloss": "Knöchelchirurgie",
          "dependent": 3,
          "dependentGloss": "hatte"
        },
        {
          "dep": "cc",
          "governor": 4,
          "governorGloss": "Knöchelchirurgie",
          "dependent": 5,
          "dependentGloss": "und"
        },
        {
          "dep": "conj:und",
          "governor": 4,
          "governorGloss": "Knöchelchirurgie",
          "dependent": 6,
          "dependentGloss": "erholt"
        },
        {
          "dep": "dobj",
          "governor": 6,
          "governorGloss": "erholt",
          "dependent": 7,
          "dependentGloss": "sich"
        },
        {
          "dep": "advmod",
          "governor": 6,
          "governorGloss": "erholt",
          "dependent": 8,
          "dependentGloss": "jetzt"
        },
        {
          "dep": "case",
          "governor": 11,
          "governorGloss": "Landgut",
          "dependent": 9,
          "dependentGloss": "auf"
        },
        {
          "dep": "det",
          "governor": 11,
          "governorGloss": "Landgut",
          "dependent": 10,
          "dependentGloss": "einem"
        },
        {
          "dep": "nmod",
          "governor": 6,
          "governorGloss": "erholt",
          "dependent": 11,
          "dependentGloss": "Landgut"
        },
        {
          "dep": "advmod",
          "governor": 11,
          "governorGloss": "Landgut",
          "dependent": 12,
          "dependentGloss": "nördlich"
        },
        {
          "dep": "case",
          "governor": 14,
          "governorGloss": "Pyongyang",
          "dependent": 13,
          "dependentGloss": "von"
        },
        {
          "dep": "nmod",
          "governor": 12,
          "governorGloss": "nördlich",
          "dependent": 14,
          "dependentGloss": "Pyongyang"
        },
        {
          "dep": "punct",
          "governor": 4,
          "governorGloss": "Knöchelchirurgie",
          "dependent": 15,
          "dependentGloss": "."
        }
      ],
      "enhancedPlusPlusDependencies": [
        {
          "dep": "ROOT",
          "governor": 0,
          "governorGloss": "ROOT",
          "dependent": 4,
          "dependentGloss": "Knöchelchirurgie"
        },
        {
          "dep": "name",
          "governor": 2,
          "governorGloss": "Jong-Un",
          "dependent": 1,
          "dependentGloss": "Kim"
        },
        {
          "dep": "nsubj",
          "governor": 4,
          "governorGloss": "Knöchelchirurgie",
          "dependent": 2,
          "dependentGloss": "Jong-Un"
        },
        {
          "dep": "aux",
          "governor": 4,
          "governorGloss": "Knöchelchirurgie",
          "dependent": 3,
          "dependentGloss": "hatte"
        },
        {
          "dep": "cc",
          "governor": 4,
          "governorGloss": "Knöchelchirurgie",
          "dependent": 5,
          "dependentGloss": "und"
        },
        {
          "dep": "conj:und",
          "governor": 4,
          "governorGloss": "Knöchelchirurgie",
          "dependent": 6,
          "dependentGloss": "erholt"
        },
        {
          "dep": "dobj",
          "governor": 6,
          "governorGloss": "erholt",
          "dependent": 7,
          "dependentGloss": "sich"
        },
        {
          "dep": "advmod",
          "governor": 6,
          "governorGloss": "erholt",
          "dependent": 8,
          "dependentGloss": "jetzt"
        },
        {
          "dep": "case",
          "governor": 11,
          "governorGloss": "Landgut",
          "dependent": 9,
          "dependentGloss": "auf"
        },
        {
          "dep": "det",
          "governor": 11,
          "governorGloss": "Landgut",
          "dependent": 10,
          "dependentGloss": "einem"
        },
        {
          "dep": "nmod",
          "governor": 6,
          "governorGloss": "erholt",
          "dependent": 11,
          "dependentGloss": "Landgut"
        },
        {
          "dep": "advmod",
          "governor": 11,
          "governorGloss": "Landgut",
          "dependent": 12,
          "dependentGloss": "nördlich"
        },
        {
          "dep": "case",
          "governor": 14,
          "governorGloss": "Pyongyang",
          "dependent": 13,
          "dependentGloss": "von"
        },
        {
          "dep": "nmod",
          "governor": 12,
          "governorGloss": "nördlich",
          "dependent": 14,
          "dependentGloss": "Pyongyang"
        },
        {
          "dep": "punct",
          "governor": 4,
          "governorGloss": "Knöchelchirurgie",
          "dependent": 15,
          "dependentGloss": "."
        }
      ],
      "tokens": [
        {
          "index": 1,
          "word": "Kim",
          "originalText": "Kim",
          "characterOffsetBegin": 0,
          "characterOffsetEnd": 3,
          "pos": "NE",
          "before": "",
          "after": " "
        },
        {
          "index": 2,
          "word": "Jong-Un",
          "originalText": "Jong-Un",
          "characterOffsetBegin": 4,
          "characterOffsetEnd": 11,
          "pos": "NE",
          "before": " ",
          "after": " "
        },
        {
          "index": 3,
          "word": "hatte",
          "originalText": "hatte",
          "characterOffsetBegin": 12,
          "characterOffsetEnd": 17,
          "pos": "VAFIN",
          "before": " ",
          "after": " "
        },
        {
          "index": 4,
          "word": "Knöchelchirurgie",
          "originalText": "Knöchelchirurgie",
          "characterOffsetBegin": 18,
          "characterOffsetEnd": 34,
          "pos": "NN",
          "before": " ",
          "after": " "
        },
        {
          "index": 5,
          "word": "und",
          "originalText": "und",
          "characterOffsetBegin": 35,
          "characterOffsetEnd": 38,
          "pos": "KON",
          "before": " ",
          "after": " "
        },
        {
          "index": 6,
          "word": "erholt",
          "originalText": "erholt",
          "characterOffsetBegin": 39,
          "characterOffsetEnd": 45,
          "pos": "VVFIN",
          "before": " ",
          "after": " "
        },
        {
          "index": 7,
          "word": "sich",
          "originalText": "sich",
          "characterOffsetBegin": 46,
          "characterOffsetEnd": 50,
          "pos": "PRF",
          "before": " ",
          "after": " "
        },
        {
          "index": 8,
          "word": "jetzt",
          "originalText": "jetzt",
          "characterOffsetBegin": 51,
          "characterOffsetEnd": 56,
          "pos": "ADV",
          "before": " ",
          "after": " "
        },
        {
          "index": 9,
          "word": "auf",
          "originalText": "auf",
          "characterOffsetBegin": 57,
          "characterOffsetEnd": 60,
          "pos": "APPR",
          "before": " ",
          "after": " "
        },
        {
          "index": 10,
          "word": "einem",
          "originalText": "einem",
          "characterOffsetBegin": 61,
          "characterOffsetEnd": 66,
          "pos": "ART",
          "before": " ",
          "after": " "
        },
        {
          "index": 11,
          "word": "Landgut",
          "originalText": "Landgut",
          "characterOffsetBegin": 67,
          "characterOffsetEnd": 74,
          "pos": "NN",
          "before": " ",
          "after": " "
        },
        {
          "index": 12,
          "word": "nördlich",
          "originalText": "nördlich",
          "characterOffsetBegin": 75,
          "characterOffsetEnd": 83,
          "pos": "ADJD",
          "before": " ",
          "after": " "
        },
        {
          "index": 13,
          "word": "von",
          "originalText": "von",
          "characterOffsetBegin": 84,
          "characterOffsetEnd": 87,
          "pos": "APPR",
          "before": " ",
          "after": " "
        },
        {
          "index": 14,
          "word": "Pyongyang",
          "originalText": "Pyongyang",
          "characterOffsetBegin": 88,
          "characterOffsetEnd": 97,
          "pos": "NE",
          "before": " ",
          "after": ""
        },
        {
          "index": 15,
          "word": ".",
          "originalText": ".",
          "characterOffsetBegin": 97,
          "characterOffsetEnd": 98,
          "pos": "$.",
          "before": "",
          "after": ""
        }
      ]
    }
  ]
}